date,close_price
1998-01-02,6.50799
1998-01-05,6.40419
1998-01-06,6.28477
1998-01-07,6.34839
1998-01-08,6.38299
1998-01-09,6.18767
1998-01-12,5.99905
1998-01-13,6.08945
1998-01-14,6.22227
1998-01-15,6.39638
1998-01-16,6.4667
1998-01-20,6.36178
1998-01-21,6.4946
1998-01-22,6.47339
1998-01-23,6.32718
1998-01-26,6.42428
1998-01-27,6.27808
1998-01-28,6.42428
1998-01-29,6.34058
1998-01-30,6.33388
1998-02-02,6.51581
1998-02-03,6.4667
1998-02-04,6.46
1998-02-05,6.5571
1998-02-06,6.72452
1998-02-09,6.66871
1998-02-10,6.57161
1998-02-11,6.66871
1998-02-12,6.64751
1998-02-13,6.71112
1998-02-17,6.83613
1998-02-18,6.87854
1998-02-19,6.94774
1998-02-20,6.77362
1998-02-23,7.07386
1998-02-24,6.71112
1998-02-25,6.5292
1998-02-26,6.51581
1998-02-27,6.5292
1998-03-02,6.39638
1998-03-03,6.33388
1998-03-04,6.4321
1998-03-05,6.4879
1998-03-06,6.62742
1998-03-09,6.66201
1998-03-10,6.62742
1998-03-11,6.66201
1998-03-12,6.75912
1998-03-13,6.64751
1998-03-16,6.69661
1998-03-17,6.66871
1998-03-18,6.57831
1998-03-19,6.65532
1998-03-20,6.61291
1998-03-23,6.57831
1998-03-24,6.585
1998-03-25,6.64081
1998-03-26,6.5638
1998-03-27,6.5917
1998-03-30,6.5292
1998-03-31,6.69661
1998-04-01,6.94104
1998-04-02,7.03814
1998-04-03,7.03144
1998-04-06,6.95443
1998-04-07,6.94104
1998-04-08,6.87854
1998-04-09,6.79483
1998-04-13,6.85064
1998-04-14,6.78032
1998-04-15,6.78032
1998-04-16,6.80153
1998-04-17,6.79483
1998-04-20,6.73903
1998-04-21,6.57161
1998-04-22,6.61291
1998-04-23,6.60621
1998-04-24,6.5571
1998-04-27,6.30598
1998-04-28,6.26468
1998-04-29,6.11066
1998-04-30,6.08276
1998-05-01,6.18097
1998-05-04,6.20888
1998-05-05,6.19437
1998-05-06,6.11736
1998-05-07,6.04146
1998-05-08,5.98566
1998-05-11,6.01356
1998-05-12,5.97115
1998-05-13,5.96445
1998-05-14,5.91534
1998-05-15,5.88744
1998-05-18,5.80373
1998-05-19,5.76244
1998-05-20,5.74793
1998-05-21,5.69212
1998-05-22,5.71333
1998-05-26,5.83163
1998-05-27,5.69212
1998-05-28,5.94324
1998-05-29,6.06936
1998-06-01,5.94324
1998-06-02,5.91534
1998-06-03,5.86623
1998-06-04,5.80373
1998-06-05,5.83163
1998-06-08,5.91534
1998-06-09,5.99905
1998-06-10,6.02695
1998-06-11,6.08276
1998-06-12,6.39638
1998-06-15,6.27138
1998-06-16,6.50799
1998-06-17,6.82273
1998-06-18,7.00354
1998-06-19,6.83613
1998-06-22,6.69661
1998-06-23,6.57831
1998-06-24,6.66201
1998-06-25,6.89193
1998-06-26,6.95443
1998-06-29,7.01805
1998-06-30,7.31717
1998-07-01,7.97343
1998-07-02,7.92433
1998-07-06,8.13415
1998-07-07,8.25916
1998-07-08,8.03594
1998-07-09,7.37297
1998-07-10,7.5761
1998-07-13,7.75021
1998-07-14,7.50579
1998-07-15,7.99464
1998-07-16,8.37077
1998-07-17,7.98683
1998-07-20,7.81272
1998-07-21,7.5761
1998-07-22,7.97343
1998-07-23,7.48458
1998-07-24,7.65981
1998-07-27,8.53818
1998-07-28,8.37746
1998-07-29,8.11964
1998-07-30,8.30157
1998-07-31,8.46117
1998-08-03,6.27138
1998-08-04,5.69212
1998-08-05,5.58051
1998-08-06,5.67092
1998-08-07,5.80373
1998-08-10,5.67092
1998-08-11,5.4131
1998-08-12,5.3718
1998-08-13,5.3718
1998-08-14,5.5035
1998-08-17,5.76913
1998-08-18,5.83163
1998-08-19,5.85954
1998-08-20,5.92204
1998-08-21,5.84614
1998-08-24,5.86623
1998-08-25,5.92985
1998-08-26,5.90865
1998-08-27,5.72002
1998-08-28,5.52471
1998-08-31,5.30149
1998-09-01,5.14077
1998-09-02,5.11286
1998-09-03,5.07827
1998-09-04,5.38519
1998-09-08,5.4131
1998-09-09,5.65083
1998-09-10,5.80373
1998-09-11,5.94994
1998-09-14,6.14526
1998-09-15,6.22227
1998-09-16,6.22227
1998-09-17,6.20106
1998-09-18,6.24348
1998-09-21,6.41759
1998-09-22,6.59951
1998-09-23,6.85064
1998-09-24,6.87854
1998-09-25,6.64751
1998-09-28,6.25017
1998-09-29,6.38299
1998-09-30,6.06936
1998-10-01,6.14526
1998-10-02,6.08945
1998-10-05,6.00575
1998-10-06,5.84614
1998-10-07,5.4968
1998-10-08,5.4689
1998-10-09,5.88744
1998-10-12,6.08276
1998-10-13,6.18097
1998-10-14,6.22227
1998-10-15,6.29928
1998-10-16,6.5013
1998-10-19,6.46
1998-10-20,6.41759
1998-10-21,6.30598
1998-10-22,6.40419
1998-10-23,6.35509
1998-10-26,6.23678
1998-10-27,6.13856
1998-10-28,6.13856
1998-10-29,6.02026
1998-10-30,5.85284
1998-11-02,6.00575
1998-11-03,6.47339
1998-11-04,6.80822
1998-11-05,6.79483
1998-11-06,6.91983
1998-11-09,7.19216
1998-11-10,7.17096
1998-11-11,7.12185
1998-11-12,7.05935
1998-11-13,6.95443
1998-11-16,7.01805
1998-11-17,6.99015
1998-11-18,6.99015
1998-11-19,7.11515
1998-11-20,7.10176
1998-11-23,7.12966
1998-11-24,7.13636
1998-11-25,7.26136
1998-11-27,7.26917
1998-11-30,7.15756
1998-12-01,7.12966
1998-12-02,7.13636
1998-12-03,7.08725
1998-12-04,7.15756
1998-12-07,7.05265
1998-12-08,7.09395
1998-12-09,7.08725
1998-12-10,7.01805
1998-12-11,7.05935
1998-12-14,6.86403
1998-12-15,6.79483
1998-12-16,6.75242
1998-12-17,6.74572
1998-12-18,6.76693
1998-12-21,6.66871
1998-12-22,6.72452
1998-12-23,6.69661
1998-12-24,6.68992
1998-12-28,6.69661
1998-12-29,6.69661
1998-12-30,6.83613
1998-12-31,7.21337
1999-01-04,7.96674
1999-01-05,7.89642
1999-01-06,7.91093
1999-01-07,8.28706
1999-01-08,7.94553
1999-01-11,8.20335
1999-01-12,8.88752
1999-01-13,8.84511
1999-01-14,8.78931
1999-01-15,8.92882
1999-01-19,8.91542
1999-01-20,9.04043
1999-01-21,9.01922
1999-01-22,9.00583
1999-01-25,8.92882
1999-01-26,8.6777
1999-01-27,8.37077
1999-01-28,8.42657
1999-01-29,8.64979
1999-02-01,8.6922
1999-02-02,8.6777
1999-02-03,8.61519
1999-02-04,8.64979
1999-02-05,8.53818
1999-02-08,8.26585
1999-02-09,8.03594
1999-02-10,8.22456
1999-02-11,8.43327
1999-02-12,8.39197
1999-02-16,8.34956
1999-02-17,8.21786
1999-02-18,8.11964
1999-02-19,8.03594
1999-02-22,8.18996
1999-02-23,8.30157
1999-02-24,8.21786
1999-02-25,8.12634
1999-02-26,8.31496
1999-03-01,8.34956
1999-03-02,8.32947
1999-03-03,8.39197
1999-03-04,8.40537
1999-03-05,8.51698
1999-03-08,8.48907
1999-03-09,8.44778
1999-03-10,8.48238
1999-03-11,8.31496
1999-03-12,8.27367
1999-03-15,8.02924
1999-03-16,8.09174
1999-03-17,8.10625
1999-03-18,8.14755
1999-03-19,8.07054
1999-03-22,7.93884
1999-03-23,7.65981
1999-03-24,7.63191
1999-03-25,7.81272
1999-03-26,7.67432
1999-03-29,7.75691
1999-03-30,7.53369
1999-03-31,7.56271
1999-04-01,7.49128
1999-04-05,7.19886
1999-04-06,6.6542
1999-04-07,6.41759
1999-04-08,5.80373
1999-04-09,6.31937
1999-04-12,6.37518
1999-04-13,6.55822
1999-04-14,6.79483
1999-04-15,7.08725
1999-04-16,6.94885
1999-04-19,6.91983
1999-04-20,7.01805
1999-04-21,6.73903
1999-04-22,6.91983
1999-04-23,6.91983
1999-04-26,6.69661
1999-04-27,6.91983
1999-04-28,6.61402
1999-04-29,6.41759
1999-04-30,6.19437
1999-05-03,6.75242
1999-05-04,6.71001
1999-05-05,6.73903
1999-05-06,6.78144
1999-05-07,6.89305
1999-05-10,6.78144
1999-05-11,6.71001
1999-05-12,6.72563
1999-05-13,6.90644
1999-05-14,6.78144
1999-05-17,6.68322
1999-05-18,6.73903
1999-05-19,6.91983
1999-05-20,6.73903
1999-05-21,6.80822
1999-05-24,6.66983
1999-05-25,6.90644
1999-05-26,6.69661
1999-05-27,6.5984
1999-05-28,6.64081
1999-06-01,6.51581
1999-06-02,6.22339
1999-06-03,6.36178
1999-06-04,6.34839
1999-06-07,6.30598
1999-06-08,6.44661
1999-06-09,6.34839
1999-06-10,6.23678
1999-06-11,6.23678
1999-06-14,5.97115
1999-06-15,5.92874
1999-06-16,6.02695
1999-06-17,5.58051
1999-06-18,5.81712
1999-06-21,5.83275
1999-06-22,5.79034
1999-06-23,5.84614
1999-06-24,5.67873
1999-06-25,5.62292
1999-06-28,5.83275
1999-06-29,5.80373
1999-06-30,5.70551
1999-07-01,5.79034
1999-07-02,5.81712
1999-07-06,5.69212
1999-07-07,5.62292
1999-07-08,5.77695
1999-07-09,5.95775
1999-07-12,5.98454
1999-07-13,6.04035
1999-07-14,6.26357
1999-07-15,6.335
1999-07-16,6.36178
1999-07-19,6.36178
1999-07-20,6.335
1999-07-21,6.36178
1999-07-22,6.335
1999-07-23,6.22339
1999-07-26,5.69212
1999-07-27,5.62292
1999-07-28,5.30149
1999-07-29,5.69212
1999-07-30,6.23678
1999-08-02,6.41759
1999-08-03,6.22339
1999-08-04,5.94436
1999-08-05,5.79034
1999-08-06,5.63632
1999-08-09,5.70551
1999-08-10,5.70551
1999-08-11,5.70551
1999-08-12,5.74793
1999-08-13,5.83275
1999-08-16,5.85954
1999-08-17,5.91534
1999-08-18,6.23678
1999-08-19,6.30598
1999-08-20,6.00017
1999-08-23,6.04035
1999-08-24,6.00017
1999-08-25,5.95775
1999-08-26,5.91534
1999-08-27,5.90195
1999-08-30,5.92874
1999-08-31,5.77695
1999-09-01,5.94436
1999-09-02,5.84614
1999-09-03,5.90195
1999-09-07,5.83275
1999-09-08,5.81712
1999-09-09,5.74793
1999-09-10,5.63632
1999-09-13,5.55372
1999-09-14,5.44211
1999-09-15,5.4131
1999-09-16,5.45551
1999-09-17,5.49792
1999-09-20,5.16309
1999-09-21,5.17648
1999-09-22,5.20327
1999-09-23,5.38631
1999-09-24,5.49792
1999-09-27,5.49792
1999-09-28,5.30149
1999-09-29,5.4689
1999-09-30,5.28809
1999-10-01,5.25907
1999-10-04,4.96666
1999-10-05,4.91085
1999-10-06,4.84165
1999-10-07,4.2278
1999-10-08,4.68763
1999-10-11,4.43762
1999-10-12,4.2144
1999-10-13,4.07377
1999-10-14,3.93538
1999-10-15,3.94877
1999-10-18,3.93538
1999-10-19,3.79475
1999-10-20,3.64073
1999-10-21,3.76796
1999-10-22,2.70766
1999-10-25,2.79026
1999-10-26,2.74784
1999-10-27,3.04249
1999-10-28,3.25009
1999-10-29,3.25009
1999-11-01,3.04249
1999-11-02,3.02687
1999-11-03,2.93088
1999-11-04,2.90187
1999-11-05,2.80365
1999-11-08,2.81927
1999-11-09,2.91526
1999-11-10,3.01348
1999-11-11,2.88847
1999-11-12,2.93088
1999-11-15,2.95767
1999-11-16,2.85945
1999-11-17,2.85945
1999-11-18,3.0983
1999-11-19,3.05589
1999-11-22,2.95767
1999-11-23,2.74784
1999-11-24,2.74784
1999-11-26,2.74784
1999-11-29,2.73445
1999-11-30,2.76347
1999-12-01,2.77686
1999-12-02,2.69204
1999-12-03,2.62284
1999-12-06,2.66525
1999-12-07,2.62284
1999-12-08,2.62284
1999-12-09,2.65186
1999-12-10,2.85945
1999-12-13,2.80365
1999-12-14,2.90187
1999-12-15,2.88847
1999-12-16,2.80365
1999-12-17,2.85945
1999-12-20,2.81927
1999-12-21,2.90187
1999-12-22,2.85945
1999-12-23,2.97106
1999-12-27,3.0983
1999-12-28,3.3617
1999-12-29,3.27911
1999-12-30,3.39072
1999-12-31,3.39072
2000-01-03,3.47331
2000-01-04,3.2233
2000-01-05,3.51572
2000-01-06,3.73894
2000-01-07,4.19878
2000-01-10,4.36619
2000-01-11,4.49343
2000-01-12,4.4778
2000-01-13,5.23229
2000-01-14,4.92424
2000-01-18,4.71665
2000-01-19,4.75683
2000-01-20,4.52021
2000-01-21,4.33941
2000-01-24,4.32601
2000-01-25,4.17199
2000-01-26,4.04699
2000-01-27,4.2278
2000-01-28,4.17199
2000-01-31,4.06038
2000-02-01,4.11619
2000-02-02,4.19878
2000-02-03,4.18538
2000-02-04,4.11619
2000-02-07,4.07377
2000-02-08,4.01797
2000-02-09,3.83716
2000-02-10,3.79475
2000-02-11,3.66974
2000-02-14,3.65635
2000-02-15,3.54474
2000-02-16,3.55813
2000-02-17,3.71216
2000-02-18,3.51572
2000-02-22,3.51572
2000-02-23,3.44652
2000-02-24,3.33491
2000-02-25,3.1541
2000-02-28,3.2233
2000-02-29,3.25009
2000-03-01,3.3059
2000-03-02,3.33491
2000-03-03,3.18089
2000-03-06,3.0983
2000-03-07,2.88847
2000-03-08,2.87508
2000-03-09,2.90187
2000-03-10,2.91526
2000-03-13,2.88847
2000-03-14,2.76347
2000-03-15,3.06928
2000-03-16,3.58492
2000-03-17,3.51572
2000-03-20,3.51572
2000-03-21,3.57153
2000-03-22,3.60055
2000-03-23,3.41751
2000-03-24,3.33491
2000-03-27,3.32152
2000-03-28,3.3617
2000-03-29,3.33491
2000-03-30,3.2367
2000-03-31,3.33491
2000-04-03,3.33491
2000-04-04,3.51572
2000-04-05,3.62733
2000-04-06,3.75234
2000-04-07,3.66974
2000-04-10,3.58492
2000-04-11,3.79475
2000-04-12,3.89296
2000-04-13,3.99118
2000-04-14,3.82377
2000-04-17,3.68314
2000-04-18,4.03136
2000-04-19,4.06038
2000-04-20,4.03136
2000-04-24,4.00458
2000-04-25,4.17199
2000-04-26,4.27021
2000-04-27,4.2836
2000-04-28,4.45102
2000-05-01,4.33941
2000-05-02,4.08717
2000-05-03,4.06038
2000-05-04,4.04699
2000-05-05,4.1586
2000-05-08,4.12958
2000-05-09,4.14297
2000-05-10,4.11619
2000-05-11,4.06038
2000-05-12,3.94877
2000-05-15,4.01797
2000-05-16,4.45102
2000-05-17,4.4086
2000-05-18,4.46441
2000-05-19,4.88406
2000-05-22,4.89746
2000-05-23,5.09166
2000-05-24,5.80373
2000-05-25,5.66533
2000-05-26,5.58051
2000-05-30,5.56712
2000-05-31,5.44211
2000-06-01,5.66533
2000-06-02,5.5939
2000-06-05,5.48229
2000-06-06,5.85954
2000-06-07,5.67873
2000-06-08,5.5381
2000-06-09,5.76132
2000-06-12,5.91534
2000-06-13,6.47339
2000-06-14,6.13856
2000-06-15,6.47339
2000-06-16,6.57161
2000-06-19,6.41759
2000-06-20,6.5292
2000-06-21,6.48679
2000-06-22,6.335
2000-06-23,6.335
2000-06-26,6.66983
2000-06-27,6.335
2000-06-28,6.5292
2000-06-29,6.98903
2000-06-30,7.12966
2000-07-03,6.80822
2000-07-05,6.82162
2000-07-06,7.56271
2000-07-07,7.75691
2000-07-10,7.73012
2000-07-11,7.26806
2000-07-12,7.11627
2000-07-13,6.87742
2000-07-14,6.69661
2000-07-17,6.86403
2000-07-18,6.90644
2000-07-19,6.61402
2000-07-20,6.86403
2000-07-21,6.91983
2000-07-24,6.98903
2000-07-25,6.75242
2000-07-26,6.90644
2000-07-27,7.39529
2000-07-28,7.75691
2000-07-31,7.74352
2000-08-01,7.82611
2000-08-02,7.73012
2000-08-03,7.88191
2000-08-04,8.02254
2000-08-07,8.42657
2000-08-08,8.43997
2000-08-09,8.27255
2000-08-10,8.13415
2000-08-11,8.31496
2000-08-14,8.24576
2000-08-15,8.17657
2000-08-16,7.86852
2000-08-17,8.20335
2000-08-18,7.96674
2000-08-21,8.35737
2000-08-22,8.17657
2000-08-23,8.00915
2000-08-24,7.85513
2000-08-25,7.79932
2000-08-28,7.68771
2000-08-29,7.5203
2000-08-30,7.6453
2000-08-31,7.91093
2000-09-01,7.7703
2000-09-05,7.70111
2000-09-06,7.46449
2000-09-07,7.5761
2000-09-08,7.67432
2000-09-11,7.54708
2000-09-12,7.99352
2000-09-13,8.12076
2000-09-14,8.16094
2000-09-15,8.67881
2000-09-18,8.13415
2000-09-19,8.43997
2000-09-20,8.79042
2000-09-21,8.6922
2000-09-22,9.44446
2000-09-25,10.1565
2000-09-26,10.2257
2000-09-27,9.85072
2000-09-28,10.4646
2000-09-29,10.4914
2000-10-02,10.8262
2000-10-03,10.728
2000-10-04,10.6588
2000-10-05,10.7994
2000-10-06,10.6454
2000-10-09,10.1699
2000-10-10,10.4356
2000-10-11,10.3373
2000-10-12,9.71009
2000-10-13,10.0873
2000-10-16,10.1699
2000-10-17,10.2414
2000-10-18,10.2681
2000-10-19,9.86411
2000-10-20,10.0025
2000-10-23,10.1565
2000-10-24,9.85072
2000-10-25,8.90203
2000-10-26,9.43106
2000-10-27,9.40428
2000-10-30,9.79491
2000-10-31,9.72348
2000-11-01,9.8909
2000-11-02,9.12525
2000-11-03,9.06945
2000-11-06,9.12525
2000-11-07,9.40428
2000-11-08,9.93331
2000-11-09,10.1565
2000-11-10,10.3798
2000-11-13,10.1431
2000-11-14,10.2815
2000-11-15,10.3239
2000-11-16,10.1565
2000-11-17,10.7012
2000-11-20,10.728
2000-11-21,10.7436
2000-11-22,10.7146
2000-11-24,11.007
2000-11-27,11.44
2000-11-28,11.1052
2000-11-29,11.1342
2000-11-30,10.9668
2000-12-01,10.8262
2000-12-04,10.2681
2000-12-05,10.0583
2000-12-06,9.41767
2000-12-07,9.27704
2000-12-08,9.51589
2000-12-11,9.6967
2000-12-12,9.26365
2000-12-13,9.29267
2000-12-14,9.6275
2000-12-15,10.2414
2000-12-18,10.728
2000-12-19,11.0628
2000-12-20,10.7012
2000-12-21,10.7994
2000-12-22,11.161
2000-12-26,11.315
2000-12-27,11.6767
2000-12-28,11.7481
2000-12-29,11.3017
2001-01-02,11.161
2001-01-03,11.3842
2001-01-04,10.3373
2001-01-05,10.0449
2001-01-08,10.4914
2001-01-09,10.7012
2001-01-10,11.1052
2001-01-11,10.757
2001-01-12,10.9936
2001-01-16,11.0226
2001-01-17,10.882
2001-01-18,10.0315
2001-01-19,9.37526
2001-01-22,9.80831
2001-01-23,10.4088
2001-01-24,10.1565
2001-01-25,10.5472
2001-01-26,10.5338
2001-01-29,10.8731
2001-01-30,10.6878
2001-01-31,10.6744
2001-02-01,10.603
2001-02-02,10.9713
2001-02-05,11.1655
2001-02-06,11.5293
2001-02-07,11.4177
2001-02-08,11.4289
2001-02-09,11.661
2001-02-12,11.978
2001-02-13,12.2392
2001-02-14,12.2436
2001-02-15,11.8753
2001-02-16,12.266
2001-02-20,12.3441
2001-02-21,12.2169
2001-02-22,12.1834
2001-02-23,12.1387
2001-02-26,12.5986
2001-02-27,12.5941
2001-02-28,12.0204
2001-03-01,12.0896
2001-03-02,12.5249
2001-03-05,12.8687
2001-03-06,12.6611
2001-03-07,12.2414
2001-03-08,12.0204
2001-03-09,12.016
2001-03-12,11.4289
2001-03-13,11.295
2001-03-14,11.2258
2001-03-15,11.103
2001-03-16,10.8173
2001-03-19,10.1052
2001-03-20,10.1476
2001-03-21,10.1342
2001-03-22,9.69893
2001-03-23,9.90876
2001-03-26,9.85072
2001-03-27,10.0226
2001-03-28,10.4445
2001-03-29,11.1275
2001-03-30,10.9646
2001-04-02,10.8485
2001-04-03,10.7882
2001-04-04,10.8262
2001-04-05,11.3842
2001-04-06,11.3999
2001-04-09,11.5048
2001-04-10,11.7101
2001-04-11,11.5784
2001-04-12,11.6655
2001-04-16,11.6075
2001-04-17,11.7793
2001-04-18,11.4267
2001-04-19,11.4936
2001-04-20,11.4624
2001-04-23,11.5628
2001-04-24,11.4959
2001-04-25,11.6119
2001-04-26,11.5159
2001-04-27,11.8285
2001-04-30,12.0628
2001-05-01,11.8463
2001-05-02,11.6633
2001-05-03,11.6633
2001-05-04,11.8664
2001-05-07,11.6409
2001-05-08,11.3619
2001-05-09,11.4534
2001-05-10,11.5829
2001-05-11,11.6276
2001-05-14,11.7146
2001-05-15,11.574
2001-05-16,11.7481
2001-05-17,12.2615
2001-05-18,12.4021
2001-05-21,12.2548
2001-05-22,12.2838
2001-05-23,12.0316
2001-05-24,12.3887
2001-05-25,12.3686
2001-05-29,12.6253
2001-05-30,12.5003
2001-05-31,12.8887
2001-06-01,13.1655
2001-06-04,13.6276
2001-06-05,13.1432
2001-06-06,12.7905
2001-06-07,12.9624
2001-06-08,13.1254
2001-06-11,12.9312
2001-06-12,12.5919
2001-06-13,12.6767
2001-06-14,12.5695
2001-06-15,13.1812
2001-06-18,13.1946
2001-06-19,13.0852
2001-06-20,13.5517
2001-06-21,13.7816
2001-06-22,13.1789
2001-06-25,12.7392
2001-06-26,12.7504
2001-06-27,12.7102
2001-06-28,12.8553
2001-06-29,12.3463
2001-07-02,12.4512
2001-07-03,12.5874
2001-07-05,12.4088
2001-07-06,12.2771
2001-07-09,12.3262
2001-07-10,12.2749
2001-07-11,12.2102
2001-07-12,12.1945
2001-07-13,12.4445
2001-07-16,12.5495
2001-07-17,12.8575
2001-07-18,13.0138
2001-07-19,12.757
2001-07-20,12.891
2001-07-23,12.6343
2001-07-24,12.3441
2001-07-25,12.3642
2001-07-26,12.8352
2001-07-27,13.083
2001-07-30,13.2705
2001-07-31,12.9736
2001-08-01,12.7615
2001-08-02,12.5584
2001-08-03,12.6722
2001-08-06,12.7325
2001-08-07,12.5003
2001-08-08,12.3776
2001-08-09,12.5003
2001-08-10,12.795
2001-08-13,12.8776
2001-08-14,12.8553
2001-08-15,12.7146
2001-08-16,12.757
2001-08-17,13.1544
2001-08-20,13.17
2001-08-21,13.3687
2001-08-22,13.6946
2001-08-23,13.6164
2001-08-24,13.8642
2001-08-27,14.4892
2001-08-28,14.4
2001-08-29,14.1499
2001-08-30,14.0182
2001-08-31,14.3933
2001-09-04,14.5696
2001-09-05,14.6142
2001-09-06,14.9111
2001-09-07,14.4468
2001-09-10,14.4937
2001-09-17,14.2861
2001-09-18,14.3263
2001-09-19,14.362
2001-09-20,14.6678
2001-09-21,14.5116
2001-09-24,14.7526
2001-09-25,15.179
2001-09-26,15.2102
2001-09-27,15.4022
2001-09-28,15.8487
2001-10-01,15.7214
2001-10-02,15.6232
2001-10-03,15.2169
2001-10-04,15.4022
2001-10-05,15.5138
2001-10-08,15.429
2001-10-09,15.4915
2001-10-10,15.5116
2001-10-11,15.2013
2001-10-12,14.9602
2001-10-15,15.2705
2001-10-16,15.5808
2001-10-17,15.5473
2001-10-18,15.6254
2001-10-19,15.7571
2001-10-22,15.8933
2001-10-23,15.5428
2001-10-24,15.1433
2001-10-25,15.3464
2001-10-26,14.9513
2001-10-29,14.7526
2001-10-30,14.0629
2001-10-31,14.2035
2001-11-01,14.0807
2001-11-02,13.9066
2001-11-05,14.0071
2001-11-06,14.2638
2001-11-07,14.2437
2001-11-08,13.0874
2001-11-09,12.4133
2001-11-12,12.6767
2001-11-13,12.7146
2001-11-14,12.3061
2001-11-15,12.372
2001-11-16,12.7003
2001-11-19,12.8187
2001-11-20,13.0107
2001-11-21,13.042
2001-11-23,12.9102
2001-11-26,12.6601
2001-11-27,12.5931
2001-11-28,12.7316
2001-11-29,12.975
2001-11-30,13.2765
2001-12-03,13.6896
2001-12-04,13.7142
2001-12-05,13.5132
2001-12-06,13.042
2001-12-07,13.0576
2001-12-10,12.7852
2001-12-11,12.8656
2001-12-12,12.8834
2001-12-13,12.9527
2001-12-14,13.2854
2001-12-17,13.1626
2001-12-18,13.4373
2001-12-19,13.779
2001-12-20,13.7678
2001-12-21,13.9688
2001-12-24,14.1162
2001-12-26,14.1899
2001-12-27,14.0224
2001-12-28,14.2569
2001-12-31,14.1921
2002-01-02,13.971
2002-01-03,13.7812
2002-01-04,13.4105
2002-01-07,12.9303
2002-01-08,13.0286
2002-01-09,13.0085
2002-01-10,13.1782
2002-01-11,13.2229
2002-01-14,13.3837
2002-01-15,13.2877
2002-01-16,13.0085
2002-01-17,12.7807
2002-01-18,12.7182
2002-01-22,13.3435
2002-01-23,13.5623
2002-01-24,13.9331
2002-01-25,13.9643
2002-01-28,13.8906
2002-01-29,13.6226
2002-01-30,13.9308
2002-01-31,14.4735
2002-02-01,14.2368
2002-02-04,14.1139
2002-02-05,14.3172
2002-02-06,13.9353
2002-02-07,13.7678
2002-02-08,14.0581
2002-02-11,14.1765
2002-02-12,14.2859
2002-02-13,14.3641
2002-02-14,14.3149
2002-02-15,14.3239
2002-02-19,14.1865
2002-02-20,14.2669
2002-02-21,14.4099
2002-02-22,14.3987
2002-02-25,14.4479
2002-02-26,14.7137
2002-02-27,14.9617
2002-02-28,15.1628
2002-03-01,15.1918
2002-03-04,14.9237
2002-03-05,14.6936
2002-03-06,14.812
2002-03-07,15.1538
2002-03-08,14.8344
2002-03-11,14.8344
2002-03-12,15.2186
2002-03-13,15.4376
2002-03-14,15.5627
2002-03-15,15.6498
2002-03-18,15.5448
2002-03-19,15.556
2002-03-20,15.2588
2002-03-21,15.6096
2002-03-22,15.585
2002-03-25,15.4845
2002-03-26,15.0243
2002-03-27,15.3281
2002-03-28,15.2633
2002-04-01,15.4487
2002-04-02,15.3527
2002-04-03,15.1136
2002-04-04,15.089
2002-04-05,14.7606
2002-04-08,14.9907
2002-04-09,15.0846
2002-04-10,15.1806
2002-04-11,15.2387
2002-04-12,15.4152
2002-04-15,15.5202
2002-04-16,15.6386
2002-04-17,15.2678
2002-04-18,15.7548
2002-04-19,16.119
2002-04-22,16.2552
2002-04-23,15.7526
2002-04-24,15.9804
2002-04-25,16.892
2002-04-26,17.5711
2002-04-29,17.0684
2002-04-30,17.3187
2002-05-01,16.9903
2002-05-02,16.9768
2002-05-03,16.9344
2002-05-06,17.2494
2002-05-07,16.9925
2002-05-08,16.9791
2002-05-09,17.093
2002-05-10,16.8562
2002-05-13,16.8875
2002-05-14,16.8093
2002-05-15,16.9411
2002-05-16,16.9579
2002-05-17,17.3423
2002-05-20,17.2842
2002-05-21,17.2685
2002-05-22,17.3758
2002-05-23,17.5412
2002-05-24,17.4898
2002-05-28,17.5501
2002-05-29,17.6127
2002-05-30,17.5836
2002-05-31,17.2685
2002-06-03,16.9847
2002-06-04,16.9623
2002-06-05,16.8506
2002-06-06,17.0607
2002-06-07,17.5792
2002-06-10,18.1267
2002-06-11,18.0127
2002-06-12,17.568
2002-06-13,17.6373
2002-06-14,17.6663
2002-06-17,18.0909
2002-06-18,18.2027
2002-06-19,18.3569
2002-06-20,18.1066
2002-06-21,17.6775
2002-06-24,17.4071
2002-06-25,17.1635
2002-06-26,17.1188
2002-06-27,17.4428
2002-06-28,17.0182
2002-07-01,16.0461
2002-07-02,15.7466
2002-07-03,15.5924
2002-07-05,16.0796
2002-07-08,15.8226
2002-07-09,14.037
2002-07-10,14.0772
2002-07-11,13.3643
2002-07-12,13.6704
2002-07-15,13.4313
2002-07-16,14.028
2002-07-17,14.4057
2002-07-18,14.1487
2002-07-19,13.6593
2002-07-22,12.9061
2002-07-23,13.2078
2002-07-24,13.8649
2002-07-25,14.361
2002-07-26,14.6247
2002-07-29,15.4114
2002-07-30,15.5544
2002-07-31,14.9421
2002-08-01,14.5934
2002-08-02,14.513
2002-08-05,13.8917
2002-08-06,14.1979
2002-08-07,14.5487
2002-08-08,15.1901
2002-08-09,15.4494
2002-08-12,15.2661
2002-08-13,15.1298
2002-08-14,15.5745
2002-08-15,15.5175
2002-08-16,15.2917
2002-08-19,15.4504
2002-08-20,15.4281
2002-08-21,15.8081
2002-08-22,16.3827
2002-08-23,15.8931
2002-08-26,16.1524
2002-08-27,15.987
2002-08-28,16.0764
2002-08-29,16.3223
2002-08-30,16.2061
2002-09-03,15.8216
2002-09-04,15.9624
2002-09-05,16.2038
2002-09-06,16.2553
2002-09-09,16.253
2002-09-10,15.9289
2002-09-11,15.7903
2002-09-12,16.0071
2002-09-13,16.0943
2002-09-16,16.3469
2002-09-17,15.5913
2002-09-18,15.4862
2002-09-19,15.019
2002-09-20,15.3588
2002-09-23,15.2761
2002-09-24,15.5376
2002-09-25,15.9132
2002-09-26,16.2508
2002-09-27,15.8148
2002-09-30,15.9713
2002-10-01,16.3089
2002-10-02,15.8529
2002-10-03,16.3872
2002-10-04,15.8551
2002-10-07,15.7411
2002-10-08,16.4229
2002-10-09,16.0965
2002-10-10,15.9289
2002-10-11,16.3648
2002-10-14,16.7672
2002-10-15,16.5884
2002-10-16,16.4319
2002-10-17,15.9579
2002-10-18,15.8059
2002-10-21,16.4095
2002-10-22,16.642
2002-10-23,16.6778
2002-10-24,16.1301
2002-10-25,16.5906
2002-10-28,16.0093
2002-10-29,16.1636
2002-10-30,16.3939
2002-10-31,15.9132
2002-11-01,16.1927
2002-11-04,16.1412
2002-11-05,15.3945
2002-11-06,15.9289
2002-11-07,15.6941
2002-11-08,14.9899
2002-11-11,14.7127
2002-11-12,14.8848
2002-11-13,14.8558
2002-11-14,14.2262
2002-11-15,14.5415
2002-11-18,14.1971
2002-11-19,13.175
2002-11-20,13.4747
2002-11-21,12.9089
2002-11-22,13.2623
2002-11-25,12.7143
2002-11-26,13.0319
2002-11-27,13.1035
2002-11-29,12.976
2002-12-02,13.3025
2002-12-03,13.4032
2002-12-04,14.1211
2002-12-05,13.6223
2002-12-06,13.9332
2002-12-09,13.9198
2002-12-10,13.3987
2002-12-11,12.8329
2002-12-12,12.569
2002-12-13,12.7479
2002-12-16,12.4504
2002-12-17,12.3833
2002-12-18,12.314
2002-12-19,12.1575
2002-12-20,11.4843
2002-12-23,12.0546
2002-12-24,12.0658
2002-12-26,12.1731
2002-12-27,12.115
2002-12-30,12.0344
2002-12-31,12.144
2003-01-02,12.8865
2003-01-03,13.0699
2003-01-06,13.2489
2003-01-07,12.8955
2003-01-08,12.4057
2003-01-09,12.276
2003-01-10,12.1239
2003-01-13,12.323
2003-01-14,12.2022
2003-01-15,12.106
2003-01-16,12.1642
2003-01-17,12.1485
2003-01-21,12.021
2003-01-22,12.1686
2003-01-23,12.1597
2003-01-24,12.3587
2003-01-27,12.3498
2003-01-28,12.73
2003-01-29,13.0386
2003-01-30,12.8418
2003-01-31,13.0297
2003-02-03,12.8552
2003-02-04,12.8552
2003-02-05,13.0028
2003-02-06,12.9
2003-02-07,12.645
2003-02-10,12.73
2003-02-11,12.692
2003-02-12,12.2568
2003-02-13,12.0397
2003-02-14,11.863
2003-02-18,12.127
2003-02-19,12.1516
2003-02-20,12.306
2003-02-21,12.4895
2003-02-24,12.2859
2003-02-25,12.5096
2003-02-26,12.3933
2003-02-27,12.3731
2003-02-28,12.3038
2003-03-03,12.1069
2003-03-04,11.8921
2003-03-05,11.9681
2003-03-06,11.8876
2003-03-07,11.7668
2003-03-10,11.4021
2003-03-11,11.4513
2003-03-12,10.8964
2003-03-13,10.751
2003-03-14,10.4713
2003-03-17,11.1873
2003-03-18,11.4401
2003-03-19,11.6661
2003-03-20,11.59
2003-03-21,11.7466
2003-03-24,11.4133
2003-03-25,11.9368
2003-03-26,11.6504
2003-03-27,11.7645
2003-03-28,11.9592
2003-03-31,11.7534
2003-04-01,11.7847
2003-04-02,12.0733
2003-04-03,12.1181
2003-04-04,12.0353
2003-04-07,12.0084
2003-04-08,11.7847
2003-04-09,11.4893
2003-04-10,11.5878
2003-04-11,11.637
2003-04-14,11.7623
2003-04-15,11.9055
2003-04-16,11.6549
2003-04-17,11.5833
2003-04-21,11.3752
2003-04-22,11.5967
2003-04-23,11.241
2003-04-24,11.8876
2003-04-25,12.0823
2003-04-28,12.3664
2003-04-29,12.6192
2003-04-30,12.9661
2003-05-01,12.6998
2003-05-02,12.843
2003-05-05,12.9124
2003-05-06,12.8117
2003-05-07,12.89
2003-05-08,12.9526
2003-05-09,13.3979
2003-05-12,13.4963
2003-05-13,13.6619
2003-05-14,13.5881
2003-05-15,13.6004
2003-05-16,13.6272
2003-05-19,13.2355
2003-05-20,12.996
2003-05-21,13.2109
2003-05-22,13.2445
2003-05-23,13.1975
2003-05-27,13.3832
2003-05-28,13.4929
2003-05-29,13.6877
2003-05-30,14.0122
2003-06-02,14.0301
2003-06-03,13.9898
2003-06-04,14.2629
2003-06-05,14.8874
2003-06-06,15.4336
2003-06-09,14.8695
2003-06-10,14.9658
2003-06-11,15.1157
2003-06-12,15.1404
2003-06-13,14.8382
2003-06-16,15.4336
2003-06-17,15.597
2003-06-18,15.3888
2003-06-19,15.165
2003-06-20,15.6955
2003-06-23,15.259
2003-06-24,15.1807
2003-06-25,15.3776
2003-06-26,15.6686
2003-06-27,15.5746
2003-06-30,15.5231
2003-07-01,15.7
2003-07-02,15.9372
2003-07-03,15.9372
2003-07-07,16.3625
2003-07-08,16.1611
2003-07-09,15.926
2003-07-10,15.447
2003-07-11,15.5321
2003-07-14,15.5701
2003-07-15,15.6261
2003-07-16,15.4761
2003-07-17,15.3194
2003-07-18,15.3844
2003-07-21,15.1337
2003-07-22,14.93
2003-07-23,14.9814
2003-07-24,14.4129
2003-07-25,14.3637
2003-07-28,14.5002
2003-07-29,14.724
2003-07-30,14.7822
2003-07-31,14.1241
2003-08-01,13.9428
2003-08-04,13.7414
2003-08-05,13.4325
2003-08-06,13.0251
2003-08-07,13.6339
2003-08-08,13.522
2003-08-11,13.5265
2003-08-12,13.7257
2003-08-13,13.766
2003-08-14,13.8231
2003-08-15,13.8209
2003-08-18,13.7179
2003-08-19,13.6373
2003-08-20,13.4335
2003-08-21,13.4671
2003-08-22,13.27
2003-08-25,13.1603
2003-08-26,12.9184
2003-08-27,12.6408
2003-08-28,12.9968
2003-08-29,13.0326
2003-09-02,13.1446
2003-09-03,12.7124
2003-09-04,12.6609
2003-09-05,12.2847
2003-09-08,12.6968
2003-09-09,12.7841
2003-09-10,12.9811
2003-09-11,12.9991
2003-09-12,13.1491
2003-09-15,13.064
2003-09-16,12.8714
2003-09-17,12.7953
2003-09-18,12.6833
2003-09-19,12.2489
2003-09-22,12.0854
2003-09-23,12.2511
2003-09-24,12.0966
2003-09-25,11.969
2003-09-26,12.0339
2003-09-29,12.025
2003-09-30,12.1235
2003-10-01,12.3161
2003-10-02,12.6072
2003-10-03,12.6609
2003-10-06,12.4594
2003-10-07,12.428
2003-10-08,12.5288
2003-10-09,12.7505
2003-10-10,12.5445
2003-10-13,12.6408
2003-10-14,12.7998
2003-10-15,12.7595
2003-10-16,12.7908
2003-10-17,12.8087
2003-10-20,12.7863
2003-10-21,13.0819
2003-10-22,12.7774
2003-10-23,13.1558
2003-10-24,12.7617
2003-10-27,12.8423
2003-10-28,12.8647
2003-10-29,12.8154
2003-10-30,12.6833
2003-10-31,12.7236
2003-11-03,12.5445
2003-11-04,12.6341
2003-11-05,13.5589
2003-11-06,13.6574
2003-11-07,13.6686
2003-11-10,13.6552
2003-11-11,14.1456
2003-11-12,14.2643
2003-11-13,14.5387
2003-11-14,14.3774
2003-11-17,14.5208
2003-11-18,14.2945
2003-11-19,14.5499
2003-11-20,14.3864
2003-11-21,14.1131
2003-11-24,14.3012
2003-11-25,14.2519
2003-11-26,14.131
2003-11-28,14.178
2003-12-01,14.5252
2003-12-02,14.7672
2003-12-03,14.5588
2003-12-04,14.5611
2003-12-05,14.5566
2003-12-08,14.5611
2003-12-09,14.2855
2003-12-10,14.0839
2003-12-11,13.8106
2003-12-12,13.8622
2003-12-15,14.1959
2003-12-16,14.1063
2003-12-17,14.0817
2003-12-18,14.2385
2003-12-19,14.2318
2003-12-22,14.2967
2003-12-23,14.2631
2003-12-24,14.2945
2003-12-26,14.2743
2003-12-29,14.1847
2003-12-30,14.2183
2003-12-31,12.5673
2004-01-02,12.0857
2004-01-05,12.471
2004-01-06,12.4553
2004-01-07,12.5763
2004-01-08,12.5136
2004-01-09,12.4553
2004-01-12,12.3747
2004-01-13,12.1327
2004-01-14,12.3769
2004-01-15,12.2828
2004-01-16,12.4262
2004-01-20,12.4284
2004-01-21,12.4957
2004-01-22,12.6301
2004-01-23,12.5897
2004-01-26,12.5763
2004-01-27,12.6278
2004-01-28,12.4957
2004-01-29,12.4262
2004-01-30,12.3433
2004-02-02,12.3814
2004-02-03,12.4508
2004-02-04,12.4665
2004-02-05,12.3097
2004-02-06,12.4665
2004-02-09,12.5561
2004-02-10,12.6883
2004-02-11,12.7656
2004-02-12,12.6872
2004-02-13,12.6894
2004-02-17,12.7992
2004-02-18,12.7567
2004-02-19,12.7006
2004-02-20,12.7567
2004-02-23,12.5729
2004-02-24,12.6312
2004-02-25,12.8172
2004-02-26,12.9427
2004-02-27,13.0323
2004-03-01,13.1937
2004-03-02,13.0682
2004-03-03,13.2251
2004-03-04,13.2587
2004-03-05,13.0727
2004-03-08,12.8777
2004-03-09,12.7365
2004-03-10,12.3264
2004-03-11,12.2457
2004-03-12,12.5751
2004-03-15,12.5034
2004-03-16,12.3308
2004-03-17,12.2905
2004-03-18,12.3196
2004-03-19,12.0462
2004-03-22,11.9924
2004-03-23,11.8669
2004-03-24,11.784
2004-03-25,11.8669
2004-03-26,11.9902
2004-03-29,12.0417
2004-03-30,12.0216
2004-03-31,12.2434
2004-04-01,12.1381
2004-04-02,12.2815
2004-04-05,12.3084
2004-04-06,12.3129
2004-04-07,12.2815
2004-04-08,12.2479
2004-04-12,12.3577
2004-04-13,12.277
2004-04-14,12.1941
2004-04-15,12.3376
2004-04-16,12.3801
2004-04-19,12.5482
2004-04-20,12.4496
2004-04-21,12.806
2004-04-22,13.0166
2004-04-23,12.9965
2004-04-26,13.0928
2004-04-27,13.0682
2004-04-28,12.9315
2004-04-29,12.7746
2004-04-30,12.983
2004-05-03,13.4671
2004-05-04,13.7204
2004-05-05,13.68
2004-05-06,13.754
2004-05-07,13.6531
2004-05-10,13.4424
2004-05-11,13.503
2004-05-12,13.243
2004-05-13,13.1421
2004-05-14,13.2419
2004-05-17,13.0782
2004-05-18,13.0872
2004-05-19,13.1119
2004-05-20,12.9527
2004-05-21,12.9885
2004-05-24,12.9841
2004-05-25,13.502
2004-05-26,13.5648
2004-05-27,13.4818
2004-05-28,13.4549
2004-06-01,13.7127
2004-06-02,13.6858
2004-06-03,13.6993
2004-06-04,13.8069
2004-06-07,13.8092
2004-06-08,13.8024
2004-06-09,13.6231
2004-06-10,13.6208
2004-06-14,13.5042
2004-06-15,13.5715
2004-06-16,13.493
2004-06-17,13.4728
2004-06-18,13.4011
2004-06-21,13.3002
2004-06-22,13.2576
2004-06-23,13.2957
2004-06-24,13.141
2004-06-25,13.1567
2004-06-28,13.0782
2004-06-29,13.2464
2004-06-30,13.3944
2004-07-01,12.4953
2004-07-02,12.4751
2004-07-06,12.1208
2004-07-07,12.0715
2004-07-08,12.0222
2004-07-09,11.9011
2004-07-12,11.7688
2004-07-13,11.9617
2004-07-14,11.8361
2004-07-15,11.8563
2004-07-16,11.8518
2004-07-19,11.9437
2004-07-20,12.067
2004-07-21,11.8002
2004-07-22,12.2912
2004-07-23,12.4213
2004-07-26,12.3002
2004-07-27,11.9617
2004-07-28,11.8787
2004-07-29,12.1096
2004-07-30,12.1388
2004-08-02,12.0984
2004-08-03,12.0962
2004-08-04,12.1747
2004-08-05,11.9975
2004-08-06,11.8877
2004-08-09,11.8182
2004-08-10,11.928
2004-08-11,11.9953
2004-08-12,11.8765
2004-08-13,11.1971
2004-08-16,11.5446
2004-08-17,11.6366
2004-08-18,11.7352
2004-08-19,11.8014
2004-08-20,11.8193
2004-08-23,11.9135
2004-08-24,11.9023
2004-08-25,11.9876
2004-08-26,12.0436
2004-08-27,12.1177
2004-08-30,12.1221
2004-08-31,12.1378
2004-09-01,12.3644
2004-09-02,12.6874
2004-09-03,12.6269
2004-09-07,12.6919
2004-09-08,12.1805
2004-09-09,12.3487
2004-09-10,12.2343
2004-09-13,12.1064
2004-09-14,12.342
2004-09-15,12.2837
2004-09-16,12.3667
2004-09-17,12.3465
2004-09-20,12.2433
2004-09-21,12.3061
2004-09-22,12.1625
2004-09-23,12.2657
2004-09-24,12.3128
2004-09-27,12.1962
2004-09-28,12.2096
2004-09-29,12.176
2004-09-30,12.0369
2004-10-01,12.3285
2004-10-04,12.1244
2004-10-05,12.01
2004-10-06,12.1446
2004-10-07,11.9203
2004-10-08,11.8687
2004-10-11,11.9023
2004-10-12,11.9517
2004-10-13,11.8821
2004-10-14,11.844
2004-10-15,11.8103
2004-10-18,11.8776
2004-10-19,11.6982
2004-10-20,11.4268
2004-10-21,11.3101
2004-10-22,11.6129
2004-10-25,11.4739
2004-10-26,11.7655
2004-10-27,12.4205
2004-10-28,12.3218
2004-10-29,12.3285
2004-11-01,12.2478
2004-11-02,12.5865
2004-11-03,12.6224
2004-11-04,12.6919
2004-11-05,12.8803
2004-11-08,13.145
2004-11-09,13.2078
2004-11-10,13.3178
2004-11-11,13.246
2004-11-12,13.2303
2004-11-15,13.2348
2004-11-16,13.0822
2004-11-17,13.006
2004-11-18,13.0497
2004-11-19,12.8724
2004-11-22,12.9689
2004-11-23,13.052
2004-11-24,12.9801
2004-11-26,12.9981
2004-11-29,13.0879
2004-11-30,13.2607
2004-12-01,13.42
2004-12-02,13.3863
2004-12-03,13.438
2004-12-06,13.7925
2004-12-07,13.7656
2004-12-08,14.0977
2004-12-09,14.2638
2004-12-10,14.2907
2004-12-13,14.1426
2004-12-14,14.201
2004-12-15,14.1134
2004-12-16,14.1314
2004-12-17,13.8576
2004-12-20,13.8958
2004-12-21,13.907
2004-12-22,12.7961
2004-12-23,12.7512
2004-12-27,12.7019
2004-12-28,12.9038
2004-12-29,13.0161
2004-12-30,13.1283
2004-12-31,13.1776
2005-01-03,13.0475
2005-01-04,12.9487
2005-01-05,12.9285
2005-01-06,13.0116
2005-01-07,12.9936
2005-01-10,13.0093
2005-01-11,13.0273
2005-01-12,13.0116
2005-01-13,12.8118
2005-01-14,12.85
2005-01-18,12.9936
2005-01-19,12.8971
2005-01-20,13.0116
2005-01-21,12.7961
2005-01-24,12.9218
2005-01-25,12.7019
2005-01-26,12.9869
2005-01-27,12.8994
2005-01-28,13.0856
2005-01-31,13.0744
2005-02-01,13.2427
2005-02-02,13.1956
2005-02-03,13.4492
2005-02-04,13.3661
2005-02-07,13.3684
2005-02-08,13.4941
2005-02-09,13.2831
2005-02-10,13.3549
2005-02-11,13.5524
2005-02-14,13.5345
2005-02-15,13.8441
2005-02-16,13.7622
2005-02-17,13.4367
2005-02-18,13.4703
2005-02-22,13.183
2005-02-23,13.3065
2005-02-24,13.4726
2005-02-25,13.5287
2005-02-28,13.4254
2005-03-01,13.8026
2005-03-02,13.852
2005-03-03,13.9463
2005-03-04,14.0451
2005-03-07,14.0675
2005-03-08,14.0945
2005-03-09,13.5714
2005-03-10,13.5601
2005-03-11,13.5557
2005-03-14,13.7151
2005-03-15,13.513
2005-03-16,13.3805
2005-03-17,13.6499
2005-03-18,13.6499
2005-03-21,13.6522
2005-03-22,13.5759
2005-03-23,13.8228
2005-03-24,13.7285
2005-03-28,12.13
2005-03-29,12.1637
2005-03-30,12.5139
2005-03-31,12.8485
2005-04-01,12.6509
2005-04-04,12.9607
2005-04-05,13.2211
2005-04-06,13.1448
2005-04-07,13.2952
2005-04-08,12.9809
2005-04-11,13.1291
2005-04-12,13.2279
2005-04-13,13.2122
2005-04-14,13.3783
2005-04-15,13.5691
2005-04-18,13.3177
2005-04-19,13.4187
2005-04-20,13.3222
2005-04-21,13.4344
2005-04-22,13.4703
2005-04-25,13.4614
2005-04-26,13.4569
2005-04-27,13.5512
2005-04-28,13.5377
2005-04-29,13.724
2005-05-02,13.9216
2005-05-03,13.8071
2005-05-04,13.9081
2005-05-05,13.9777
2005-05-06,14.1326
2005-05-09,14.3639
2005-05-10,14.292
2005-05-11,14.2584
2005-05-12,14.3302
2005-05-13,14.3459
2005-05-16,14.5637
2005-05-17,14.7859
2005-05-18,14.8915
2005-05-19,14.8454
2005-05-20,14.823
2005-05-23,14.823
2005-05-24,14.8185
2005-05-25,14.8162
2005-05-26,14.7039
2005-05-27,14.6006
2005-05-31,14.5198
2005-06-01,14.6433
2005-06-02,14.6994
2005-06-03,14.6253
2005-06-06,14.686
2005-06-07,14.6253
2005-06-08,14.5535
2005-06-09,14.4299
2005-06-10,14.4883
2005-06-13,14.7444
2005-06-14,15.0947
2005-06-15,15.1015
2005-06-16,15.2834
2005-06-17,15.3013
2005-06-20,15.3979
2005-06-21,15.234
2005-06-22,15.1329
2005-06-23,15.0228
2005-06-24,15.07
2005-06-27,15.0139
2005-06-28,15.2677
2005-06-29,15.3934
2005-06-30,15.5125
2005-07-01,15.5866
2005-07-05,15.6135
2005-07-06,15.5843
2005-07-07,15.7281
2005-07-08,15.8808
2005-07-11,15.8606
2005-07-12,15.8201
2005-07-13,15.7326
2005-07-14,15.8538
2005-07-15,15.9077
2005-07-18,15.8785
2005-07-19,15.7393
2005-07-20,15.8224
2005-07-21,15.9212
2005-07-22,15.5574
2005-07-25,15.5506
2005-07-26,15.7797
2005-07-27,15.8359
2005-07-28,16.1705
2005-07-29,16.1233
2005-08-01,16.0739
2005-08-02,16.175
2005-08-03,16.1862
2005-08-04,16.1525
2005-08-05,16.1862
2005-08-08,16.2963
2005-08-09,16.4243
2005-08-10,16.2581
2005-08-11,16.4759
2005-08-12,16.3928
2005-08-15,16.3457
2005-08-16,16.2716
2005-08-17,16.321
2005-08-18,16.3401
2005-08-19,16.1626
2005-08-22,16.3221
2005-08-23,15.8818
2005-08-24,15.7874
2005-08-25,16.3401
2005-08-26,16.3446
2005-08-29,16.6793
2005-08-30,16.8051
2005-08-31,16.7714
2005-09-01,16.7467
2005-09-02,16.594
2005-09-06,16.6411
2005-09-07,16.8501
2005-09-08,16.7512
2005-09-09,16.8209
2005-09-12,16.8883
2005-09-13,16.931
2005-09-14,17.05
2005-09-15,17.6005
2005-09-16,17.5892
2005-09-19,17.4297
2005-09-20,17.5106
2005-09-21,17.5263
2005-09-22,17.432
2005-09-23,17.3286
2005-09-26,17.3309
2005-09-27,17.3241
2005-09-28,17.4432
2005-09-29,17.3488
2005-09-30,17.3691
2005-10-03,17.4207
2005-10-04,17.4769
2005-10-05,17.0568
2005-10-06,17.0613
2005-10-07,17.0725
2005-10-10,16.8658
2005-10-11,16.7355
2005-10-12,16.7917
2005-10-13,16.8276
2005-10-14,16.7939
2005-10-17,16.9804
2005-10-18,17.1264
2005-10-19,17.1107
2005-10-20,16.9197
2005-10-21,16.8523
2005-10-24,17.041
2005-10-25,16.722
2005-10-26,16.4973
2005-10-27,16.5063
2005-10-28,16.9107
2005-10-31,17.1287
2005-11-01,17.0276
2005-11-02,17.1556
2005-11-03,17.2972
2005-11-04,17.1781
2005-11-07,17.2006
2005-11-08,17.2859
2005-11-09,17.259
2005-11-10,17.2859
2005-11-11,17.2949
2005-11-14,17.2163
2005-11-15,17.3219
2005-11-16,17.3601
2005-11-17,17.5196
2005-11-18,17.5218
2005-11-21,17.7398
2005-11-22,17.8162
2005-11-23,17.8409
2005-11-25,17.8477
2005-11-28,17.8297
2005-11-29,18.0837
2005-11-30,18.0343
2005-12-01,17.8387
2005-12-02,17.8477
2005-12-05,18.2074
2005-12-06,18.0972
2005-12-07,18.086
2005-12-08,18.3782
2005-12-09,18.3108
2005-12-12,18.313
2005-12-13,18.3243
2005-12-14,18.3063
2005-12-15,18.2658
2005-12-16,18.4299
2005-12-19,18.1849
2005-12-20,18.2995
2005-12-21,18.2726
2005-12-22,18.3827
2005-12-23,18.385
2005-12-27,18.3782
2005-12-28,18.8323
2005-12-29,18.6592
2005-12-30,18.5918
2006-01-03,18.974
2006-01-04,18.8616
2006-01-05,18.6592
2006-01-06,18.4344
2006-01-09,18.4344
2006-01-10,18.4569
2006-01-11,18.4389
2006-01-12,18.5738
2006-01-13,18.6143
2006-01-17,18.4119
2006-01-18,18.4524
2006-01-19,18.4119
2006-01-20,18.4299
2006-01-23,18.4254
2006-01-24,18.7626
2006-01-25,19.2482
2006-01-26,19.3651
2006-01-27,19.8237
2006-01-30,19.6799
2006-01-31,19.6439
2006-02-01,19.7563
2006-02-02,19.6799
2006-02-03,19.6214
2006-02-06,19.5405
2006-02-07,19.482
2006-02-08,19.536
2006-02-09,19.473
2006-02-10,19.6304
2006-02-13,19.6214
2006-02-14,19.5944
2006-02-15,19.7451
2006-02-16,19.9656
2006-02-17,19.7901
2006-02-21,19.9791
2006-02-22,20.5864
2006-02-23,20.6989
2006-02-24,20.6584
2006-02-27,21.0228
2006-02-28,20.7034
2006-03-01,20.7034
2006-03-02,20.6629
2006-03-03,20.4695
2006-03-06,20.312
2006-03-07,20.5099
2006-03-08,20.5909
2006-03-09,20.6944
2006-03-10,20.5954
2006-03-13,20.7619
2006-03-14,20.8384
2006-03-15,21.1263
2006-03-16,21.3242
2006-03-17,21.4727
2006-03-20,21.3107
2006-03-21,21.2927
2006-03-22,21.4772
2006-03-23,21.1983
2006-03-24,21.2972
2006-03-27,21.0993
2006-03-28,21.4637
2006-03-29,21.5762
2006-03-30,21.4952
2006-03-31,21.7336
2006-04-03,21.8776
2006-04-04,21.5537
2006-04-05,21.7741
2006-04-06,21.2702
2006-04-07,20.7124
2006-04-10,20.9823
2006-04-11,20.6089
2006-04-12,20.9778
2006-04-13,20.7664
2006-04-17,21.0588
2006-04-18,21.3467
2006-04-19,21.3647
2006-04-20,21.3737
2006-04-21,21.0993
2006-04-24,21.3422
2006-04-25,20.8923
2006-04-26,19.4392
2006-04-27,19.4797
2006-04-28,19.4122
2006-05-01,19.5337
2006-05-02,19.6687
2006-05-03,19.7272
2006-05-04,19.5922
2006-05-05,19.7766
2006-05-08,19.8396
2006-05-09,19.8711
2006-05-10,19.7901
2006-05-11,19.8711
2006-05-12,19.7721
2006-05-15,19.8711
2006-05-16,20.0466
2006-05-17,19.7227
2006-05-18,19.6574
2006-05-19,19.5629
2006-05-22,19.6079
2006-05-23,19.6799
2006-05-24,19.6619
2006-05-25,20.112
2006-05-26,19.9095
2006-05-30,19.4773
2006-05-31,19.6439
2006-06-01,19.7294
2006-06-02,19.6844
2006-06-05,19.3288
2006-06-06,19.5223
2006-06-07,19.4593
2006-06-08,19.1757
2006-06-09,18.8066
2006-06-12,18.5591
2006-06-13,18.3565
2006-06-14,18.424
2006-06-15,18.7166
2006-06-16,18.5816
2006-06-19,18.4735
2006-06-20,18.334
2006-06-21,18.541
2006-06-22,18.3385
2006-06-23,18.4465
2006-06-26,18.6041
2006-06-27,18.4015
2006-06-28,18.3655
2006-06-29,18.6716
2006-06-30,18.8832
2006-07-03,19.2117
2006-07-05,18.541
2006-07-06,18.8832
2006-07-07,19.0002
2006-07-10,18.8651
2006-07-11,18.8021
2006-07-12,18.8021
2006-07-13,18.7346
2006-07-14,18.7661
2006-07-17,18.6626
2006-07-18,18.5455
2006-07-19,19.1622
2006-07-20,18.8426
2006-07-21,18.9147
2006-07-24,19.5764
2006-07-25,19.6934
2006-07-26,19.4188
2006-07-27,19.3378
2006-07-28,19.3558
2006-07-31,19.3468
2006-08-01,19.3558
2006-08-02,19.4368
2006-08-03,19.4953
2006-08-04,19.2117
2006-08-07,19.4593
2006-08-08,19.0947
2006-08-09,19.3018
2006-08-10,19.4593
2006-08-11,19.4773
2006-08-14,19.5313
2006-08-15,19.5764
2006-08-16,19.6799
2006-08-17,19.6146
2006-08-18,19.6596
2006-08-21,19.6912
2006-08-22,19.9614
2006-08-23,19.8488
2006-08-24,19.7497
2006-08-25,19.7092
2006-08-28,20.1911
2006-08-29,20.1235
2006-08-30,19.9389
2006-08-31,19.8848
2006-09-01,20.4613
2006-09-05,20.3352
2006-09-06,20.1506
2006-09-07,20.137
2006-09-08,20.2316
2006-09-11,20.3172
2006-09-12,20.5424
2006-09-13,20.7856
2006-09-14,20.4838
2006-09-15,20.9207
2006-09-18,20.8397
2006-09-19,20.8306
2006-09-20,20.8126
2006-09-21,19.9209
2006-09-22,20.0199
2006-09-25,20.2496
2006-09-26,20.0064
2006-09-27,20.0785
2006-09-28,20.2767
2006-09-29,20.3487
2006-10-02,20.3848
2006-10-03,20.3803
2006-10-04,20.709
2006-10-05,21.0333
2006-10-06,20.6955
2006-10-09,20.7361
2006-10-10,20.6415
2006-10-11,20.6955
2006-10-12,20.7901
2006-10-13,20.7811
2006-10-16,20.7225
2006-10-17,20.8261
2006-10-18,20.8622
2006-10-19,20.9477
2006-10-20,21.0108
2006-10-23,21.3351
2006-10-24,21.3441
2006-10-25,20.9658
2006-10-26,20.9252
2006-10-27,21.0153
2006-10-30,21.1144
2006-10-31,21.236
2006-11-01,21.2135
2006-11-02,20.8216
2006-11-03,20.4343
2006-11-06,20.6235
2006-11-07,20.6415
2006-11-08,20.5604
2006-11-09,20.2316
2006-11-10,20.3307
2006-11-13,20.2632
2006-11-14,20.8487
2006-11-15,21.1729
2006-11-16,21.3623
2006-11-17,21.182
2006-11-20,20.8619
2006-11-21,20.6319
2006-11-22,20.6635
2006-11-24,20.3884
2006-11-27,20.2712
2006-11-28,20.3975
2006-11-29,20.4606
2006-11-30,20.7491
2006-12-01,20.6364
2006-12-04,21.0422
2006-12-05,20.9656
2006-12-06,20.9114
2006-12-07,20.9114
2006-12-08,20.7401
2006-12-11,20.7717
2006-12-12,21.0016
2006-12-13,21.3262
2006-12-14,20.8348
2006-12-15,20.9475
2006-12-18,20.6229
2006-12-19,20.5327
2006-12-20,20.4831
2006-12-21,20.3749
2006-12-22,20.1044
2006-12-26,20.0548
2006-12-27,20.3208
2006-12-28,20.3208
2006-12-29,20.3118
2007-01-03,20.7491
2007-01-04,20.8528
2007-01-05,20.6094
2007-01-08,20.9295
2007-01-09,20.8934
2007-01-10,20.9746
2007-01-11,21.2857
2007-01-12,21.3668
2007-01-16,21.4705
2007-01-17,21.7952
2007-01-18,21.6689
2007-01-19,21.6283
2007-01-22,21.448
2007-01-23,21.7275
2007-01-24,23.4589
2007-01-25,23.9233
2007-01-26,23.8421
2007-01-29,23.4003
2007-01-30,23.5941
2007-01-31,23.6302
2007-02-01,23.6347
2007-02-02,23.5896
2007-02-05,23.6753
2007-02-06,23.6032
2007-02-07,23.6708
2007-02-08,23.7159
2007-02-09,24.1171
2007-02-12,24.1262
2007-02-13,24.3877
2007-02-14,24.3291
2007-02-15,24.9422
2007-02-16,24.7619
2007-02-20,24.8115
2007-02-21,24.7123
2007-02-22,24.7258
2007-02-23,24.8206
2007-02-26,24.419
2007-02-27,23.6202
2007-02-28,23.733
2007-03-01,23.6518
2007-03-02,23.2998
2007-03-05,23.038
2007-03-06,23.6518
2007-03-07,23.3223
2007-03-08,23.7511
2007-03-09,23.9586
2007-03-12,23.6653
2007-03-13,23.0967
2007-03-14,23.39
2007-03-15,23.566
2007-03-16,23.3991
2007-03-19,24.0309
2007-03-20,23.8368
2007-03-21,23.8774
2007-03-22,24.0399
2007-03-23,24.3332
2007-03-26,24.2655
2007-03-27,24.0579
2007-03-28,24.1437
2007-03-29,24.1166
2007-03-30,23.7962
2007-04-02,24.0624
2007-04-03,24.3287
2007-04-04,24.27
2007-04-05,24.3964
2007-04-09,24.243
2007-04-10,24.3332
2007-04-11,24.2204
2007-04-12,24.2475
2007-04-13,24.5182
2007-04-16,24.6807
2007-04-17,24.7303
2007-04-18,24.7845
2007-04-19,24.5634
2007-04-20,24.7213
2007-04-23,24.8432
2007-04-24,25.4253
2007-04-25,23.5886
2007-04-26,22.9478
2007-04-27,22.7402
2007-04-30,22.5687
2007-05-01,22.6905
2007-05-02,23.0741
2007-05-03,23.2231
2007-05-04,23.1328
2007-05-07,23.1644
2007-05-08,23.2411
2007-05-09,23.4216
2007-05-10,23.214
2007-05-11,22.5506
2007-05-14,23.1418
2007-05-15,22.4198
2007-05-16,23.0019
2007-05-17,22.9703
2007-05-18,23.16
2007-05-21,23.3181
2007-05-22,23.1736
2007-05-23,23.1148
2007-05-24,22.8799
2007-05-25,23.6253
2007-05-29,23.6434
2007-05-30,23.5124
2007-05-31,23.1419
2007-06-01,23.2007
2007-06-04,23.1916
2007-06-05,23.1736
2007-06-06,23.0742
2007-06-07,23.0651
2007-06-08,23.151
2007-06-11,23.02
2007-06-12,23.0651
2007-06-13,23.2007
2007-06-14,23.0561
2007-06-15,22.7806
2007-06-18,22.7625
2007-06-19,22.6767
2007-06-20,22.5366
2007-06-21,22.5637
2007-06-22,22.3288
2007-06-25,22.4237
2007-06-26,22.3469
2007-06-27,22.5908
2007-06-28,22.4282
2007-06-29,22.3288
2007-07-02,22.4869
2007-07-03,22.6225
2007-07-05,22.4779
2007-07-06,22.5502
2007-07-09,22.374
2007-07-10,22.0126
2007-07-11,22.0849
2007-07-12,22.5863
2007-07-13,22.6631
2007-07-16,22.496
2007-07-17,22.7173
2007-07-18,22.2069
2007-07-19,22.1798
2007-07-20,21.8184
2007-07-23,22.1391
2007-07-24,22.234
2007-07-25,22.4282
2007-07-26,21.6377
2007-07-27,20.9194
2007-07-30,21.2899
2007-07-31,21.3034
2007-08-01,21.4804
2007-08-02,21.3965
2007-08-03,21.499
2007-08-06,22.1513
2007-08-07,21.294
2007-08-08,21.0377
2007-08-09,20.3574
2007-08-10,21.1868
2007-08-13,21.7506
2007-08-14,21.3033
2007-08-15,20.7954
2007-08-16,20.7907
2007-08-17,21.5138
2007-08-20,21.4765
2007-08-21,21.4578
2007-08-22,21.9196
2007-08-23,22.6426
2007-08-24,22.2415
2007-08-27,22.652
2007-08-28,22.0036
2007-08-29,22.0036
2007-08-30,22.0222
2007-08-31,22.2788
2007-09-04,22.1855
2007-09-05,21.9196
2007-09-06,21.9569
2007-09-07,21.9523
2007-09-10,21.6724
2007-09-11,21.8636
2007-09-12,21.4345
2007-09-13,21.3598
2007-09-14,20.8001
2007-09-17,21.066
2007-09-18,21.4531
2007-09-19,21.4111
2007-09-20,21.2759
2007-09-21,21.1359
2007-09-24,20.8094
2007-09-25,20.9027
2007-09-26,21.1173
2007-09-27,20.8654
2007-09-28,21.1219
2007-10-01,20.912
2007-10-02,21.1966
2007-10-03,20.94
2007-10-04,20.7814
2007-10-05,21.4111
2007-10-08,21.1593
2007-10-09,21.038
2007-10-10,21.4765
2007-10-11,21.1919
2007-10-12,21.1872
2007-10-15,20.926
2007-10-16,20.8514
2007-10-17,20.842
2007-10-18,20.7954
2007-10-19,20.6788
2007-10-22,20.4409
2007-10-23,20.842
2007-10-24,20.7394
2007-10-25,20.8654
2007-10-26,20.7581
2007-10-29,20.8234
2007-10-30,20.842
2007-10-31,21.9756
2007-11-01,21.0753
2007-11-02,20.4455
2007-11-05,20.245
2007-11-06,20.4549
2007-11-07,20.1423
2007-11-08,20.87
2007-11-09,20.4129
2007-11-12,20.6088
2007-11-13,20.7674
2007-11-14,20.5855
2007-11-15,20.7
2007-11-16,21.0504
2007-11-19,20.4337
2007-11-20,20.6907
2007-11-21,20.3495
2007-11-23,20.5084
2007-11-26,20.3682
2007-11-27,20.1299
2007-11-28,20.7421
2007-11-29,20.8495
2007-11-30,21.1719
2007-12-03,20.5925
2007-12-04,20.4664
2007-12-05,20.8168
2007-12-06,21.0645
2007-12-07,21.4476
2007-12-10,21.3869
2007-12-11,20.6439
2007-12-12,20.6393
2007-12-13,20.4056
2007-12-14,20.0365
2007-12-17,20.3823
2007-12-18,20.3589
2007-12-19,20.2281
2007-12-20,20.3636
2007-12-21,20.8542
2007-12-24,21.0972
2007-12-26,21.2
2007-12-27,21.2514
2007-12-28,21.2374
2007-12-31,20.9336
2008-01-02,20.8542
2008-01-03,20.9149
2008-01-04,20.4944
2008-01-07,20.7047
2008-01-08,21.3542
2008-01-09,21.513
2008-01-10,21.8542
2008-01-11,22.1252
2008-01-14,22.0738
2008-01-15,21.4757
2008-01-16,21.9429
2008-01-17,21.8074
2008-01-18,21.7654
2008-01-22,21.5504
2008-01-23,21.3261
2008-01-24,21.499
2008-01-25,21.0131
2008-01-28,21.1906
2008-01-29,22.3214
2008-01-30,21.9523
2008-01-31,21.756
2008-02-01,21.7327
2008-02-04,22.0831
2008-02-05,21.5644
2008-02-06,21.3962
2008-02-07,21.2514
2008-02-08,21.1346
2008-02-11,20.7421
2008-02-12,20.9663
2008-02-13,20.7487
2008-02-14,20.4913
2008-02-15,20.4445
2008-02-19,20.5568
2008-02-20,20.3649
2008-02-21,19.8688
2008-02-22,20.1122
2008-02-25,20.407
2008-02-26,20.3321
2008-02-27,20.1215
2008-02-28,19.8173
2008-02-29,19.4943
2008-03-03,19.3773
2008-03-04,19.2837
2008-03-05,19.382
2008-03-06,18.8578
2008-03-07,19.2182
2008-03-10,19.0684
2008-03-11,18.7642
2008-03-12,18.5535
2008-03-13,18.5301
2008-03-14,18.385
2008-03-17,18.3242
2008-03-18,18.7267
2008-03-19,19.5365
2008-03-20,19.396
2008-03-24,19.5926
2008-03-25,19.499
2008-03-26,19.4101
2008-03-27,19.1807
2008-03-28,19.1667
2008-03-31,19.2182
2008-04-01,19.5411
2008-04-02,18.8859
2008-04-03,18.7033
2008-04-04,19.1667
2008-04-07,18.9561
2008-04-08,18.7876
2008-04-09,18.8344
2008-04-10,18.6706
2008-04-11,18.4131
2008-04-14,18.3616
2008-04-15,18.488
2008-04-16,18.6378
2008-04-17,18.722
2008-04-18,19.1246
2008-04-21,19.1152
2008-04-22,19.2088
2008-04-23,18.4646
2008-04-24,18.7642
2008-04-25,19.1433
2008-04-28,19.3492
2008-04-29,19.499
2008-04-30,19.0029
2008-05-01,19.3492
2008-05-02,19.3914
2008-05-05,19.4194
2008-05-06,19.8594
2008-05-07,19.4943
2008-05-08,19.5224
2008-05-09,19.3071
2008-05-12,19.2931
2008-05-13,19.265
2008-05-14,19.2697
2008-05-15,19.2345
2008-05-16,19.2532
2008-05-19,19.4783
2008-05-20,19.4596
2008-05-21,19.1923
2008-05-22,19.5768
2008-05-23,19.3236
2008-05-27,19.558
2008-05-28,19.5158
2008-05-29,19.4127
2008-05-30,19.347
2008-06-02,19.4127
2008-06-03,19.4689
2008-06-04,19.6846
2008-06-05,19.7878
2008-06-06,19.3001
2008-06-09,19.1642
2008-06-10,18.9297
2008-06-11,18.6671
2008-06-12,18.8828
2008-06-13,19.1923
2008-06-16,19.1454
2008-06-17,19.211
2008-06-18,18.5452
2008-06-19,18.6671
2008-06-20,18.6437
2008-06-23,18.578
2008-06-24,18.5546
2008-06-25,18.8922
2008-06-26,18.3154
2008-06-27,18.3389
2008-06-30,18.7609
2008-07-01,18.4749
2008-07-02,18.2592
2008-07-03,18.3951
2008-07-07,18.0106
2008-07-08,18.4795
2008-07-09,18.2873
2008-07-10,18.1279
2008-07-11,18.0013
2008-07-14,17.7903
2008-07-15,17.7199
2008-07-16,17.7715
2008-07-17,17.8606
2008-07-18,17.7293
2008-07-21,17.8231
2008-07-22,18.428
2008-07-23,18.7281
2008-07-24,20.2661
2008-07-25,19.7784
2008-07-28,19.4642
2008-07-29,19.7925
2008-07-30,19.7925
2008-07-31,19.5909
2008-08-01,19.7128
2008-08-04,19.6002
2008-08-05,20.1442
2008-08-06,19.7831
2008-08-07,19.9191
2008-08-08,20.2239
2008-08-11,20.1301
2008-08-12,20.0879
2008-08-13,19.8581
2008-08-14,19.7994
2008-08-15,19.9168
2008-08-18,19.5598
2008-08-19,19.4941
2008-08-20,19.5411
2008-08-21,19.6209
2008-08-22,19.7524
2008-08-25,19.4941
2008-08-26,19.5645
2008-08-27,19.4847
2008-08-28,19.5082
2008-08-29,19.2733
2008-09-02,19.3907
2008-09-03,19.4424
2008-09-04,19.2733
2008-09-05,19.0525
2008-09-08,19.4941
2008-09-09,19.1841
2008-09-10,19.0995
2008-09-11,19.1606
2008-09-12,19.2874
2008-09-15,19.1042
2008-09-16,18.7002
2008-09-17,17.8218
2008-09-18,18.4654
2008-09-19,18.5311
2008-09-22,17.8782
2008-09-23,18.0285
2008-09-24,18.0943
2008-09-25,17.9956
2008-09-26,17.9956
2008-09-29,17.9909
2008-09-30,17.6151
2008-10-01,17.2675
2008-10-02,17.0186
2008-10-03,17.3145
2008-10-06,16.3328
2008-10-07,15.7268
2008-10-08,15.5389
2008-10-09,14.4679
2008-10-10,13.7304
2008-10-13,15.2336
2008-10-14,14.8625
2008-10-15,14.3035
2008-10-16,14.5196
2008-10-17,14.6041
2008-10-20,15.3228
2008-10-21,15.4731
2008-10-22,15.0927
2008-10-23,15.041
2008-10-24,14.4585
2008-10-27,13.8244
2008-10-28,14.7028
2008-10-29,13.8103
2008-10-30,14.2001
2008-10-31,14.7357
2008-11-03,14.7544
2008-11-04,14.7216
2008-11-05,14.4914
2008-11-06,14.172
2008-11-07,14.1767
2008-11-10,14.2377
2008-11-11,13.7915
2008-11-12,13.4016
2008-11-13,14.1861
2008-11-14,14.125
2008-11-17,14.3505
2008-11-18,14.3599
2008-11-19,13.9418
2008-11-20,12.9663
2008-11-21,14.022
2008-11-24,14.0692
2008-11-25,14.0173
2008-11-26,14.4745
2008-11-28,14.7762
2008-12-01,14.0833
2008-12-02,14.2011
2008-12-03,14.4698
2008-12-04,14.0173
2008-12-05,14.5358
2008-12-08,14.5876
2008-12-09,14.4415
2008-12-10,14.2718
2008-12-11,15.0354
2008-12-12,15.5868
2008-12-15,15.6104
2008-12-16,16.619
2008-12-17,16.0959
2008-12-18,16.1006
2008-12-19,16.2514
2008-12-22,16.143
2008-12-23,16.0959
2008-12-24,16.0629
2008-12-26,16.1807
2008-12-29,16.143
2008-12-30,16.652
2008-12-31,16.8641
2009-01-02,16.7793
2009-01-05,17.1469
2009-01-06,17.0197
2009-01-07,16.9537
2009-01-08,17.3025
2009-01-09,16.949
2009-01-12,16.8877
2009-01-13,16.9914
2009-01-14,17.0762
2009-01-15,17.3355
2009-01-16,17.6371
2009-01-20,17.2129
2009-01-21,17.5146
2009-01-22,17.6748
2009-01-23,17.0668
2009-01-26,17.3449
2009-01-27,17.392
2009-01-28,17.7927
2009-01-29,17.4627
2009-01-30,17.1139
2009-02-02,17.3873
2009-02-03,17.7267
2009-02-04,17.8869
2009-02-05,18.099
2009-02-06,18.264
2009-02-09,18.2027
2009-02-10,17.7408
2009-02-11,17.6088
2009-02-12,17.864
2009-02-13,17.6939
2009-02-17,17.1221
2009-02-18,17.0512
2009-02-19,16.7865
2009-02-20,16.848
2009-02-23,16.3659
2009-02-24,16.5738
2009-02-25,16.1769
2009-02-26,15.4207
2009-02-27,15.019
2009-03-02,14.4283
2009-03-03,14.3763
2009-03-04,14.674
2009-03-05,14.6268
2009-03-06,14.5039
2009-03-09,14.2629
2009-03-10,14.7402
2009-03-11,13.3271
2009-03-12,13.9037
2009-03-13,14.7591
2009-03-16,14.4661
2009-03-17,14.7969
2009-03-18,14.7071
2009-03-19,14.4188
2009-03-20,14.4425
2009-03-23,15.0285
2009-03-24,15.1372
2009-03-25,15.312
2009-03-26,15.4254
2009-03-27,15.2506
2009-03-30,15.2317
2009-03-31,15.4774
2009-04-01,15.4633
2009-04-02,15.8555
2009-04-03,15.4538
2009-04-06,15.5105
2009-04-07,15.3735
2009-04-08,15.3829
2009-04-09,15.5956
2009-04-13,15.7326
2009-04-14,15.6712
2009-04-15,15.5341
2009-04-16,16.0209
2009-04-17,16.503
2009-04-20,16.4179
2009-04-21,16.3186
2009-04-22,16.4226
2009-04-23,16.7156
2009-04-24,16.3281
2009-04-27,16.6684
2009-04-28,16.4888
2009-04-29,16.3895
2009-04-30,15.9264
2009-05-01,16.2289
2009-05-04,16.5549
2009-05-05,16.5597
2009-05-06,16.6117
2009-05-07,17.1457
2009-05-08,17.1221
2009-05-11,16.8432
2009-05-12,16.9566
2009-05-13,16.8763
2009-05-14,16.9427
2009-05-15,16.6109
2009-05-18,16.8337
2009-05-19,17.0564
2009-05-20,17.5066
2009-05-21,17.2223
2009-05-22,17.3597
2009-05-26,17.701
2009-05-27,17.4119
2009-05-28,17.464
2009-05-29,17.5588
2009-06-01,17.8431
2009-06-02,17.9142
2009-06-03,17.5967
2009-06-04,17.2176
2009-06-05,17.2507
2009-06-08,17.2318
2009-06-09,16.9664
2009-06-10,17.0375
2009-06-11,17.5446
2009-06-12,17.3076
2009-06-15,16.9806
2009-06-16,16.8432
2009-06-17,17.2792
2009-06-18,17.4213
2009-06-19,17.374
2009-06-22,17.0991
2009-06-23,16.7389
2009-06-24,16.5588
2009-06-25,17.3266
2009-06-26,17.2033
2009-06-29,17.118
2009-06-30,16.8337
2009-07-01,17.2981
2009-07-02,16.8526
2009-07-06,16.8337
2009-07-07,17.2602
2009-07-08,16.9664
2009-07-09,16.9095
2009-07-10,16.7863
2009-07-13,17.1465
2009-07-14,17.2886
2009-07-15,17.3834
2009-07-16,17.573
2009-07-17,17.9711
2009-07-20,17.7341
2009-07-21,18.1322
2009-07-22,17.81
2009-07-23,18.1322
2009-07-24,18.2839
2009-07-27,18.227
2009-07-28,18.2649
2009-07-29,19.2412
2009-07-30,18.7294
2009-07-31,18.663
2009-08-03,18.8147
2009-08-04,19.3549
2009-08-05,19.3834
2009-08-06,19.3644
2009-08-07,19.2507
2009-08-10,19.2412
2009-08-11,19.2412
2009-08-12,19.3644
2009-08-13,19.5256
2009-08-14,19.336
2009-08-17,19.1938
2009-08-18,19.4403
2009-08-19,19.7246
2009-08-20,19.9622
2009-08-21,20.0097
2009-08-24,19.7436
2009-08-25,19.8861
2009-08-26,19.8861
2009-08-27,20.1048
2009-08-28,20.1523
2009-08-31,20.2569
2009-09-01,20.1808
2009-09-02,19.9622
2009-09-03,20.0953
2009-09-04,20.2283
2009-09-08,20.1238
2009-09-09,20.3614
2009-09-10,20.4755
2009-09-11,20.5801
2009-09-14,20.6941
2009-09-15,20.4945
2009-09-16,20.6751
2009-09-17,20.504
2009-09-18,20.6941
2009-09-21,20.8652
2009-09-22,20.6181
2009-09-23,20.6276
2009-09-24,20.485
2009-09-25,20.466
2009-09-28,20.6656
2009-09-29,20.8938
2009-09-30,21.274
2009-10-01,20.9508
2009-10-02,20.542
2009-10-05,20.7987
2009-10-06,21.0458
2009-10-07,21.293
2009-10-08,21.3025
2009-10-09,21.5021
2009-10-12,21.5782
2009-10-13,21.5021
2009-10-14,21.9299
2009-10-15,22.1865
2009-10-16,22.3386
2009-10-19,22.2626
2009-10-20,22.5383
2009-10-21,22.3101
2009-10-22,22.3386
2009-10-23,22.0344
2009-10-26,21.8063
2009-10-27,21.7017
2009-10-28,21.1884
2009-10-29,21.5497
2009-10-30,21.0649
2009-11-02,21.3976
2009-11-03,22.0154
2009-11-04,21.9964
2009-11-05,22.2626
2009-11-06,22.4337
2009-11-09,22.6238
2009-11-10,23.1466
2009-11-11,23.0706
2009-11-12,22.8044
2009-11-13,23.3843
2009-11-16,23.3082
2009-11-17,23.0611
2009-11-18,23.2607
2009-11-19,23.089
2009-11-20,23.3751
2009-11-23,23.8138
2009-11-24,23.8711
2009-11-25,23.8138
2009-11-27,23.7089
2009-11-30,23.5468
2009-12-01,23.6899
2009-12-02,23.5945
2009-12-03,23.4419
2009-12-04,23.5277
2009-12-07,23.4991
2009-12-08,23.089
2009-12-09,23.3465
2009-12-10,23.8901
2009-12-11,23.6422
2009-12-14,23.8424
2009-12-15,24.5959
2009-12-16,24.9297
2009-12-17,24.6722
2009-12-18,24.7961
2009-12-21,24.882
2009-12-22,25.0918
2009-12-23,25.1204
2009-12-24,25.3302
2009-12-28,25.1872
2009-12-29,25.1681
2009-12-30,25.0823
2009-12-31,24.8629
2010-01-04,25.397
2010-01-05,25.2539
2010-01-06,24.9583
2010-01-07,24.5863
2010-01-08,24.8534
2010-01-11,25.1395
2010-01-12,25.3111
2010-01-13,25.788
2010-01-14,25.9406
2010-01-15,25.6831
2010-01-19,26.0836
2010-01-20,25.8738
2010-01-21,25.3302
2010-01-22,25.416
2010-01-25,25.8548
2010-01-26,26.1504
2010-01-27,26.0169
2010-01-28,26.0455
2010-01-29,25.9978
2010-02-01,26.4842
2010-02-02,27.2758
2010-02-03,27.0564
2010-02-04,26.1885
2010-02-05,25.7498
2010-02-08,25.7022
2010-02-09,25.8643
2010-02-10,26.0268
2010-02-11,26.3711
2010-02-12,26.1607
2010-02-16,26.3615
2010-02-17,26.3902
2010-02-18,26.6868
2010-02-19,26.8972
2010-02-22,26.6868
2010-02-23,26.5337
2010-02-24,26.6963
2010-02-25,26.8494
2010-02-26,26.8494
2010-03-01,26.8589
2010-03-02,27.2128
2010-03-03,26.8015
2010-03-04,26.7537
2010-03-05,27.165
2010-03-08,26.8876
2010-03-09,26.7728
2010-03-10,26.8398
2010-03-11,26.8876
2010-03-12,26.7346
2010-03-15,26.5337
2010-03-16,27.1076
2010-03-17,26.9737
2010-03-18,27.3468
2010-03-19,27.4233
2010-03-22,28.0068
2010-03-23,27.9207
2010-03-24,27.4902
2010-03-25,27.3755
2010-03-26,27.3563
2010-03-29,27.5955
2010-03-30,28.0068
2010-03-31,27.6624
2010-04-01,27.3372
2010-04-05,27.672
2010-04-06,27.7772
2010-04-07,27.7868
2010-04-08,27.9207
2010-04-09,28.1598
2010-04-12,28.0833
2010-04-13,28.2076
2010-04-14,27.9494
2010-04-15,28.2076
2010-04-16,28.5807
2010-04-19,28.5233
2010-04-20,29.0589
2010-04-21,29.0398
2010-04-22,30.092
2010-04-23,29.7476
2010-04-26,29.8624
2010-04-27,29.5085
2010-04-28,29.4511
2010-04-29,30.0059
2010-04-30,29.5085
2010-05-03,29.9102
2010-05-04,29.6233
2010-05-05,29.6711
2010-05-06,29.3459
2010-05-07,28.6476
2010-05-10,29.7285
2010-05-11,29.8815
2010-05-12,30.4076
2010-05-13,30.2259
2010-05-14,29.9007
2010-05-17,30.0728
2010-05-18,29.9198
2010-05-19,30.0633
2010-05-20,29.4304
2010-05-21,29.5646
2010-05-24,29.4208
2010-05-25,29.0276
2010-05-26,29.2002
2010-05-27,30.2743
2010-05-28,29.9866
2010-06-01,29.5646
2010-06-02,30.4181
2010-06-03,30.7825
2010-06-04,29.4783
2010-06-07,29.4783
2010-06-08,29.3345
2010-06-09,29.6797
2010-06-10,30.4181
2010-06-11,30.6387
2010-06-14,30.888
2010-06-15,31.1181
2010-06-16,31.4058
2010-06-17,31.5497
2010-06-18,31.1948
2010-06-21,31.0894
2010-06-22,30.6099
2010-06-23,30.5332
2010-06-24,30.2551
2010-06-25,30.5332
2010-06-28,31.214
2010-06-29,30.4469
2010-06-30,30.466
2010-07-01,29.6893
2010-07-02,29.6509
2010-07-06,30.0249
2010-07-07,30.4948
2010-07-08,30.6099
2010-07-09,30.5428
2010-07-12,30.4373
2010-07-13,31.0126
2010-07-14,31.425
2010-07-15,31.3962
2010-07-16,30.8209
2010-07-19,30.6866
2010-07-20,30.9359
2010-07-21,30.6674
2010-07-22,28.3851
2010-07-23,29.2961
2010-07-26,29.2961
2010-07-27,27.9632
2010-07-28,27.7234
2010-07-29,27.7906
2010-07-30,28.7399
2010-08-02,29.2961
2010-08-03,28.7399
2010-08-04,29.1331
2010-08-05,29.0947
2010-08-06,28.9701
2010-08-09,28.807
2010-08-10,28.7016
2010-08-11,27.9248
2010-08-12,27.9536
2010-08-13,27.8673
2010-08-16,27.5508
2010-08-17,28.27
2010-08-18,28.2892
2010-08-19,27.9728
2010-08-20,27.8189
2010-08-23,27.4247
2010-08-24,26.7708
2010-08-25,26.8766
2010-08-26,26.5688
2010-08-27,26.6746
2010-08-30,26.5881
2010-08-31,26.2323
2010-09-01,26.8958
2010-09-02,26.9727
2010-09-03,27.0016
2010-09-07,26.9727
2010-09-08,26.9631
2010-09-09,27.1843
2010-09-10,27.3862
2010-09-13,27.4054
2010-09-14,27.9535
2010-09-15,29.0594
2010-09-16,29.0017
2010-09-17,29.0113
2010-09-20,29.4536
2010-09-21,29.6363
2010-09-22,29.2709
2010-09-23,29.1651
2010-09-24,30.1171
2010-09-27,29.7709
2010-09-28,29.9729
2010-09-29,29.5594
2010-09-30,29.4825
2010-10-01,29.6844
2010-10-04,29.5498
2010-10-05,30.2902
2010-10-06,30.1075
2010-10-07,30.4729
2010-10-08,30.4345
2010-10-11,30.5595
2010-10-12,30.8672
2010-10-13,31.0883
2010-10-14,31.0499
2010-10-15,31.0595
2010-10-18,31.0979
2010-10-19,30.3094
2010-10-20,30.5979
2010-10-21,31.146
2010-10-22,30.8383
2010-10-25,30.7902
2010-10-26,31.1653
2010-10-27,31.9538
2010-10-28,32.1269
2010-10-29,31.5787
2010-11-01,31.5114
2010-11-02,30.6556
2010-11-03,30.4248
2010-11-04,30.7133
2010-11-05,30.4729
2010-11-08,30.194
2010-11-09,29.6267
2010-11-10,30.2614
2010-11-11,30.396
2010-11-12,30.1075
2010-11-15,30.2325
2010-11-16,29.8286
2010-11-17,29.5786
2010-11-18,30.3311
2010-11-19,29.9259
2010-11-22,29.9838
2010-11-23,29.8101
2010-11-24,29.8294
2010-11-26,29.7233
2010-11-29,29.7812
2010-11-30,29.7908
2010-12-01,30.4372
2010-12-02,30.7556
2010-12-03,31.0064
2010-12-06,31.0836
2010-12-07,31.1415
2010-12-08,30.6012
2010-12-09,30.5819
2010-12-10,30.9678
2010-12-13,30.3407
2010-12-14,30.7942
2010-12-15,31.0932
2010-12-16,31.4888
2010-12-17,32.0194
2010-12-20,32.2316
2010-12-21,32.521
2010-12-22,32.9262
2010-12-23,33.1481
2010-12-27,33.1095
2010-12-28,32.9841
2010-12-29,33.4279
2010-12-30,33.0323
2010-12-31,32.8973
2011-01-03,33.0902
2011-01-04,32.7429
2011-01-05,33.2446
2011-01-06,33.6401
2011-01-07,33.6691
2011-01-10,33.5243
2011-01-11,33.8427
2011-01-12,33.6015
2011-01-13,34.1032
2011-01-14,34.19
2011-01-18,34.9328
2011-01-19,34.2865
2011-01-20,34.4215
2011-01-21,34.846
2011-01-24,35.0004
2011-01-25,34.6917
2011-01-26,35.1258
2011-01-27,35.531
2011-01-28,34.7303
2011-01-31,34.6048
2011-02-01,34.9907
2011-02-02,34.1997
2011-02-03,34.1997
2011-02-04,35.2609
2011-02-07,35.2126
2011-02-08,35.2994
2011-02-09,35.3573
2011-02-10,35.3573
2011-02-11,35.338
2011-02-14,35.5696
2011-02-15,35.2994
2011-02-16,35.164
2011-02-17,36.2378
2011-02-18,36.5183
2011-02-22,36.17
2011-02-23,35.6573
2011-02-24,35.5316
2011-02-25,36.17
2011-02-28,36.6731
2011-03-01,36.1217
2011-03-02,35.9572
2011-03-03,36.3538
2011-03-04,36.4312
2011-03-07,36.083
2011-03-08,36.3442
2011-03-09,37.2051
2011-03-10,36.3152
2011-03-11,35.7928
2011-03-14,35.4445
2011-03-15,35.2801
2011-03-16,35.3575
2011-03-17,35.4348
2011-03-18,36.083
2011-03-21,36.615
2011-03-22,37.0794
2011-03-23,36.9246
2011-03-24,37.7565
2011-03-25,37.9984
2011-03-28,38.1145
2011-03-29,38.4434
2011-03-30,38.1338
2011-03-31,38.2596
2011-04-01,39.0238
2011-04-04,39.2366
2011-04-05,39.2463
2011-04-06,39.2269
2011-04-07,39.2269
2011-04-08,38.8884
2011-04-11,38.8303
2011-04-12,38.3079
2011-04-13,38.3466
2011-04-14,38.337
2011-04-15,38.3079
2011-04-18,38.1919
2011-04-19,38.4917
2011-04-20,39.1302
2011-04-21,39.2269
2011-04-25,39.6139
2011-04-26,39.7203
2011-04-27,40.6296
2011-04-28,39.6913
2011-04-29,39.3237
2011-05-02,39.8364
2011-05-03,39.8461
2011-05-04,39.4494
2011-05-05,39.6816
2011-05-06,40.1556
2011-05-09,40.8328
2011-05-10,40.9295
2011-05-11,40.8328
2011-05-12,41.0649
2011-05-13,40.6683
2011-05-16,40.9005
2011-05-17,40.6393
2011-05-18,40.4555
2011-05-19,40.4555
2011-05-20,40.3439
2011-05-23,40.1402
2011-05-24,39.6746
2011-05-25,40.276
2011-05-26,40.179
2011-05-27,39.8298
2011-05-31,39.9947
2011-06-01,39.5097
2011-06-02,39.5194
2011-06-03,39.1508
2011-06-06,39.2478
2011-06-07,39.6649
2011-06-08,39.7037
2011-06-09,40.2954
2011-06-10,39.8298
2011-06-13,39.5679
2011-06-14,40.0141
2011-06-15,39.8201
2011-06-16,39.791
2011-06-17,39.7619
2011-06-20,40.1499
2011-06-21,40.3051
2011-06-22,39.9947
2011-06-23,40.0723
2011-06-24,38.9471
2011-06-27,39.4321
2011-06-28,40.1693
2011-06-29,39.8686
2011-06-30,40.1596
2011-07-01,40.858
2011-07-05,40.9938
2011-07-06,41.8087
2011-07-07,41.7408
2011-07-08,41.3722
2011-07-11,41.0423
2011-07-12,41.0326
2011-07-13,41.0326
2011-07-14,40.9744
2011-07-15,40.7319
2011-07-18,39.9753
2011-07-19,40.567
2011-07-20,40.4991
2011-07-21,38.074
2011-07-22,39.2769
2011-07-25,39.1799
2011-07-26,38.7239
2011-07-27,37.9091
2011-07-28,37.5987
2011-07-29,37.1622
2011-08-01,36.5996
2011-08-02,36.619
2011-08-03,37.007
2011-08-04,35.2221
2011-08-05,35.7556
2011-08-08,33.6119
2011-08-09,35.5228
2011-08-10,34.126
2011-08-11,36.3862
2011-08-12,37.1331
2011-08-15,37.7248
2011-08-16,37.3562
2011-08-17,37.5114
2011-08-18,36.6697
2011-08-19,36.4654
2011-08-22,36.3292
2011-08-23,37.1854
2011-08-24,37.127
2011-08-25,36.553
2011-08-26,37.4286
2011-08-29,38.1486
2011-08-30,38.2459
2011-08-31,38.421
2011-09-01,38.4016
2011-09-02,37.7594
2011-09-06,38.0221
2011-09-07,38.8686
2011-09-08,38.6837
2011-09-09,37.3994
2011-09-12,37.0297
2011-09-13,37.5162
2011-09-14,38.1486
2011-09-15,37.5259
2011-09-16,38.1778
2011-09-19,38.3335
2011-09-20,38.6253
2011-09-21,37.3897
2011-09-22,36.9714
2011-09-23,36.7184
2011-09-26,37.8956
2011-09-27,38.1194
2011-09-28,37.594
2011-09-29,36.6211
2011-09-30,36.2903
2011-10-03,34.8212
2011-10-04,34.9768
2011-10-05,35.4244
2011-10-06,35.1033
2011-10-07,34.7823
2011-10-10,36.0276
2011-10-11,36.0179
2011-10-12,36.6308
2011-10-13,36.9227
2011-10-14,37.127
2011-10-17,36.7962
2011-10-18,37.2827
2011-10-19,37.1659
2011-10-20,37.7011
2011-10-21,38.6351
2011-10-24,39.5204
2011-10-25,38.4989
2011-10-26,39.7734
2011-10-27,40.8144
2011-10-28,40.9312
2011-10-31,39.6372
2011-11-01,38.9367
2011-11-02,38.7615
2011-11-03,38.8686
2011-11-04,38.1097
2011-11-07,38.6059
2011-11-08,38.5183
2011-11-09,37.1951
2011-11-10,37.6427
2011-11-11,38.6059
2011-11-14,38.1389
2011-11-15,38.2751
2011-11-16,37.0395
2011-11-17,36.5318
2011-11-18,36.3951
2011-11-21,35.8679
2011-11-22,35.7605
2011-11-23,35.5653
2011-11-25,35.1748
2011-11-28,35.5457
2011-11-29,35.5165
2011-11-30,36.2584
2011-12-01,36.3658
2011-12-02,36.1998
2011-12-05,35.6824
2011-12-06,35.5848
2011-12-07,35.7117
2011-12-08,35.4091
2011-12-09,35.5262
2011-12-12,34.999
2011-12-13,35.0186
2011-12-14,34.7452
2011-12-15,34.9112
2011-12-16,35.8777
2011-12-19,35.6043
2011-12-20,36.1901
2011-12-21,36.1217
2011-12-22,36.1998
2011-12-23,36.4927
2011-12-27,36.8247
2011-12-28,35.9655
2011-12-29,36.4537
2011-12-30,36.3365
2012-01-03,37.1859
2012-01-04,37.3128
2012-01-05,37.5764
2012-01-06,37.6545
2012-01-09,37.6642
2012-01-10,38.0547
2012-01-11,37.6838
2012-01-12,37.9181
2012-01-13,36.893
2012-01-17,37.3714
2012-01-18,38.084
2012-01-19,38.4452
2012-01-20,39.1384
2012-01-23,38.8553
2012-01-24,38.6015
2012-01-25,38.8065
2012-01-26,38.0938
2012-01-27,38.084
2012-01-30,37.8595
2012-01-31,38.0743
2012-02-01,38.8455
2012-02-02,38.4257
2012-02-03,38.2695
2012-02-06,38.0547
2012-02-07,37.9669
2012-02-08,38.3671
2012-02-09,38.0645
2012-02-10,37.674
2012-02-13,36.3365
2012-02-14,36.6099
2012-02-15,35.9729
2012-02-16,36.1982
2012-02-17,35.9239
2012-02-21,35.4635
2012-02-22,36.0317
2012-02-23,36.6685
2012-02-24,36.9428
2012-02-27,36.982
2012-02-28,36.982
2012-02-29,36.5705
2012-03-01,36.5411
2012-03-02,35.8456
2012-03-05,35.8064
2012-03-06,35.5419
2012-03-07,36.0709
2012-03-08,36.6685
2012-03-09,37.0799
2012-03-12,36.9526
2012-03-13,37.2269
2012-03-14,37.4522
2012-03-15,37.1387
2012-03-16,37.5502
2012-03-19,37.7657
2012-03-20,38.0106
2012-03-21,37.8049
2012-03-22,37.511
2012-03-23,38.1772
2012-03-26,38.7845
2012-03-27,38.6768
2012-03-28,38.2849
2012-03-29,38.4025
2012-03-30,38.8629
2012-04-02,38.4025
2012-04-03,37.9028
2012-04-04,37.7461
2012-04-05,37.4718
2012-04-09,37.6677
2012-04-10,37.6188
2012-04-11,37.9812
2012-04-12,38.0302
2012-04-13,36.7567
2012-04-16,36.7469
2012-04-17,37.4326
2012-04-18,36.7077
2012-04-19,36.7371
2012-04-20,36.9526
2012-04-23,36.7371
2012-04-24,36.7273
2012-04-25,37.0897
2012-04-26,36.1787
2012-04-27,36.1591
2012-04-30,36.453
2012-05-01,36.5509
2012-05-02,36.453
2012-05-03,35.826
2012-05-04,35.4929
2012-05-07,35.2088
2012-05-08,35.4537
2012-05-09,35.297
2012-05-10,35.8162
2012-05-11,35.8848
2012-05-14,35.9044
2012-05-15,35.679
2012-05-16,35.9435
2012-05-17,35.8845
2012-05-18,35.3536
2012-05-21,35.4913
2012-05-22,35.6092
2012-05-23,35.6977
2012-05-24,35.8452
2012-05-25,36.2679
2012-05-29,35.8943
2012-05-30,36.2778
2012-05-31,36.3859
2012-06-01,35.6682
2012-06-04,35.8255
2012-06-05,36.1303
2012-06-06,36.6514
2012-06-07,36.3761
2012-06-08,36.4056
2012-06-11,35.8452
2012-06-12,36.3662
2012-06-13,35.8354
2012-06-14,36.3269
2012-06-15,36.6317
2012-06-18,37.1528
2012-06-19,37.3985
2012-06-20,37.2904
2012-06-21,37.0544
2012-06-22,37.3199
2012-06-25,37.1134
2012-06-26,37.1036
2012-06-27,37.4674
2012-06-28,38.0966
2012-06-29,38.6668
2012-07-02,39.1485
2012-07-03,39.0207
2012-07-05,38.8143
2012-07-06,38.1162
2012-07-09,38.2637
2012-07-10,38.2932
2012-07-11,38.6668
2012-07-12,38.5095
2012-07-13,38.9716
2012-07-16,38.7356
2012-07-17,39.1289
2012-07-18,39.0994
2012-07-19,39.06
2012-07-20,38.5586
2012-07-23,38.0081
2012-07-24,37.5853
2012-07-25,37.3199
2012-07-26,37.3297
2012-07-27,37.9786
2012-07-30,37.8704
2012-07-31,39.0305
2012-08-01,38.6766
2012-08-02,38.2244
2012-08-03,38.7356
2012-08-06,38.5586
2012-08-07,38.6668
2012-08-08,38.0277
2012-08-09,38.0277
2012-08-10,38.0081
2012-08-13,37.9393
2012-08-14,37.6542
2012-08-15,37.3494
2012-08-16,36.9365
2012-08-17,36.9956
2012-08-20,37.2225
2012-08-21,37.0745
2012-08-22,37.4297
2012-08-23,37.4692
2012-08-24,37.5481
2012-08-27,37.4297
2012-08-28,36.9956
2012-08-29,37.1633
2012-08-30,37.6073
2012-08-31,38.0512
2012-09-04,38.2979
2012-09-05,37.6763
2012-09-06,38.0907
2012-09-07,37.6369
2012-09-10,37.5185
2012-09-11,37.2916
2012-09-12,37.41
2012-09-13,37.5382
2012-09-14,36.897
2012-09-17,37.4889
2012-09-18,37.8243
2012-09-19,37.6862
2012-09-20,37.7947
2012-09-21,38.4557
2012-09-24,38.8306
2012-09-25,38.3373
2012-09-26,38.14
2012-09-27,38.4656
2012-09-28,38.2091
2012-10-01,38.436
2012-10-02,38.5149
2012-10-03,38.584
2012-10-04,38.8306
2012-10-05,38.9687
2012-10-08,39.2548
2012-10-09,39.1364
2012-10-10,38.8405
2012-10-11,38.949
2012-10-12,38.949
2012-10-15,39.3732
2012-10-16,40.192
2012-10-17,39.9849
2012-10-18,40.123
2012-10-19,39.7382
2012-10-22,39.8763
2012-10-23,39.4225
2012-10-24,39.1266
2012-10-25,39.2153
2012-10-26,38.7911
2012-10-31,38.9095
2012-11-01,40.2808
2012-11-02,39.9651
2012-11-05,39.7284
2012-11-06,39.7875
2012-11-07,40.2118
2012-11-08,39.7875
2012-11-09,39.8763
2012-11-12,39.5113
2012-11-13,40.1723
2012-11-14,39.6396
2012-11-15,39.8477
2012-11-16,39.9469
2012-11-19,40.3237
2012-11-20,40.4328
2012-11-21,40.5121
2012-11-23,41.0378
2012-11-26,41.1171
2012-11-27,40.889
2012-11-28,40.8791
2012-11-29,41.1964
2012-11-30,41.8807
2012-12-03,42.0592
2012-12-04,42.3865
2012-12-05,41.8708
2012-12-06,42.1683
2012-12-07,41.8807
2012-12-10,41.8807
2012-12-11,42.7733
2012-12-12,42.2675
2012-12-13,42.5055
2012-12-14,42.9617
2012-12-17,43.3683
2012-12-18,43.5568
2012-12-19,43.2989
2012-12-20,43.4278
2012-12-21,43.2791
2012-12-24,43.0807
2012-12-26,42.7931
2012-12-27,42.8923
2012-12-28,42.5154
2012-12-31,42.7832
2013-01-02,43.0707
2013-01-03,42.9716
2013-01-04,43.279
2013-01-07,43.4873
2013-01-08,43.3981
2013-01-09,43.3782
2013-01-10,43.4972
2013-01-11,43.5072
2013-01-14,43.9039
2013-01-15,44.6873
2013-01-16,44.6476
2013-01-17,45.1435
2013-01-18,45.4311
2013-01-22,45.2426
2013-01-23,45.7881
2013-01-24,45.3319
2013-01-25,44.6179
2013-01-28,44.7667
2013-01-29,45.1782
2013-01-30,45.1733
2013-01-31,44.9848
2013-02-01,46.1549
2013-02-04,45.6493
2013-02-05,45.8873
2013-02-06,46.0609
2013-02-07,45.9865
2013-02-08,46.4526
2013-02-11,46.3534
2013-02-12,46.5667
2013-02-13,46.5018
2013-02-14,46.5616
2013-02-15,46.4022
2013-02-19,47.0098
2013-02-20,46.452
2013-02-21,46.2926
2013-02-22,46.7309
2013-02-25,46.0237
2013-02-26,46.4022
2013-02-27,46.8455
2013-02-28,47.0497
2013-03-01,47.7819
2013-03-04,48.0359
2013-03-05,48.0558
2013-03-06,48.265
2013-03-07,47.9064
2013-03-08,48.285
2013-03-11,48.3647
2013-03-12,48.4444
2013-03-13,48.6635
2013-03-14,49.1018
2013-03-15,48.7034
2013-03-18,48.0758
2013-03-19,49.8091
2013-03-20,50.0183
2013-03-21,49.59
2013-03-22,49.6099
2013-03-25,50.4566
2013-03-26,50.5065
2013-03-27,50.5264
2013-03-28,51.2735
2013-04-01,51.3731
2013-04-02,52.1601
2013-04-03,51.4927
2013-04-04,51.6321
2013-04-05,51.8812
2013-04-08,52.439
2013-04-09,52.7379
2013-04-10,53.0567
2013-04-11,53.6145
2013-04-12,53.9632
2013-04-15,53.8337
2013-04-16,54.7602
2013-04-17,54.9594
2013-04-18,55.1885
2013-04-19,55.6966
2013-04-22,55.9556
2013-04-23,56.0751
2013-04-24,55.4276
2013-04-25,53.1563
2013-04-26,53.0567
2013-04-29,53.7839
2013-04-30,53.8935
2013-05-01,53.6345
2013-05-02,54.6306
2013-05-03,54.3218
2013-05-06,54.1425
2013-05-07,54.7801
2013-05-08,54.8498
2013-05-09,54.5709
2013-05-10,54.6008
2013-05-13,54.2521
2013-05-14,54.7602
2013-05-15,54.8
2013-05-16,54.42
2013-05-17,54.98
2013-05-20,54.79
2013-05-21,54.66
2013-05-22,54.45
2013-05-23,54.58
2013-05-24,54.45
2013-05-28,54.41
2013-05-29,53.91
2013-05-30,54.69
2013-05-31,54.11
2013-06-03,52.61
2013-06-04,53.25
2013-06-05,52.87
2013-06-06,52.55
2013-06-07,52.95
2013-06-10,53.69
2013-06-11,54.82
2013-06-12,54.75
2013-06-13,54.56
2013-06-14,54.91
2013-06-17,55.65
2013-06-18,55.86
2013-06-19,55.6
2013-06-20,54.18
2013-06-21,54.34
2013-06-24,53.65
2013-06-25,53.56
2013-06-26,55.02
2013-06-27,55.32
2013-06-28,55.83
2013-07-01,55.03
2013-07-02,54.85
2013-07-03,54.92
2013-07-05,55.51
2013-07-08,56.25
2013-07-09,55.93
2013-07-10,56.53
2013-07-11,58.1
2013-07-12,58.4
2013-07-15,58.25
2013-07-16,58.25
2013-07-17,58.51
2013-07-18,58.29
2013-07-19,58.82
2013-07-22,59.0
2013-07-23,57.67
2013-07-24,56.74
2013-07-25,57.61
2013-07-26,58.45
2013-07-29,58.41
2013-07-30,58.25
2013-07-31,58.25
2013-08-01,58.81
2013-08-02,58.46
2013-08-05,59.01
2013-08-06,58.64
2013-08-07,58.77
2013-08-08,59.62
2013-08-09,59.5
