date,close_price
2001-07-19,13.1423
2001-07-20,13.0466
2001-07-23,13.038
2001-07-24,12.9163
2001-07-25,12.9684
2001-07-26,12.612
2001-07-27,12.6034
2001-07-30,12.8207
2001-07-31,12.951
2001-08-01,13.2813
2001-08-02,13.3856
2001-08-03,13.1683
2001-08-06,13.1249
2001-08-07,13.4726
2001-08-08,13.0466
2001-08-09,13.4291
2001-08-10,13.1944
2001-08-13,13.064
2001-08-14,12.7772
2001-08-15,12.8467
2001-08-16,12.2209
2001-08-17,12.6642
2001-08-20,13.2987
2001-08-21,13.4204
2001-08-22,13.3335
2001-08-23,13.2553
2001-08-24,13.4117
2001-08-27,13.4291
2001-08-28,13.3682
2001-08-29,13.0466
2001-08-30,12.9945
2001-08-31,12.9684
2001-09-04,13.3422
2001-09-05,12.9597
2001-09-06,12.6034
2001-09-07,12.6468
2001-09-10,13.1683
2001-09-17,12.699
2001-09-18,12.6468
2001-09-19,12.1514
2001-09-20,11.1692
2001-09-21,11.0823
2001-09-24,11.5082
2001-09-25,11.117
2001-09-26,10.6129
2001-09-27,10.2565
2001-09-28,11.0388
2001-10-01,11.0388
2001-10-02,10.865
2001-10-03,11.2822
2001-10-04,11.7255
2001-10-05,11.7776
2001-10-08,11.5169
2001-10-09,11.6472
2001-10-10,11.9167
2001-10-11,13.177
2001-10-12,14.307
2001-10-15,15.3848
2001-10-16,15.124
2001-10-17,14.6547
2001-10-18,14.533
2001-10-19,14.5938
2001-10-22,15.1501
2001-10-23,15.3066
2001-10-24,15.4282
2001-10-25,15.4282
2001-10-26,15.3239
2001-10-29,15.1675
2001-10-30,15.0371
2001-10-31,15.2892
2001-11-01,15.915
2001-11-02,15.7759
2001-11-05,15.7325
2001-11-06,15.576
2001-11-07,16.2714
2001-11-08,17.2536
2001-11-09,17.1927
2001-11-12,16.8624
2001-11-13,18.2531
2001-11-14,17.5752
2001-11-15,17.6273
2001-11-16,18.2879
2001-11-19,19.131
2001-11-20,18.427
2001-11-21,17.6447
2001-11-23,17.8707
2001-11-26,18.6877
2001-11-27,19.5917
2001-11-28,18.6443
2001-11-29,18.6443
2001-11-30,19.6438
2001-12-03,19.9046
2001-12-04,21.1649
2001-12-05,23.2945
2001-12-06,22.7295
2001-12-07,21.5995
2001-12-10,21.4431
2001-12-11,21.5213
2001-12-12,21.869
2001-12-13,20.1654
2001-12-14,20.7303
2001-12-17,22.1645
2001-12-18,22.547
2001-12-19,22.6339
2001-12-20,23.477
2001-12-21,22.7295
2001-12-24,22.6078
2001-12-26,22.773
2001-12-27,22.8599
2001-12-28,23.0772
2001-12-31,23.3988
2002-01-02,22.7903
2002-01-03,22.0776
2002-01-04,24.2941
2002-01-07,23.0859
2002-01-08,23.6943
2002-01-09,23.9551
2002-01-10,24.042
2002-01-11,23.0337
2002-01-14,21.6691
2002-01-15,22.0341
2002-01-16,22.6165
2002-01-17,22.5991
2002-01-18,22.3818
2002-01-22,21.6952
2002-01-23,21.3388
2002-01-24,22.3297
2002-01-25,21.9472
2002-01-28,20.9389
2002-01-29,20.7738
2002-01-30,21.5561
2002-01-31,22.4687
2002-02-01,24.381
2002-02-04,23.7725
2002-02-05,23.6161
2002-02-06,23.477
2002-02-07,23.8334
2002-02-08,24.0768
2002-02-11,23.3119
2002-02-12,22.5557
2002-02-13,22.4166
2002-02-14,23.3814
2002-02-15,23.8768
2002-02-19,23.3814
2002-02-20,23.5118
2002-02-21,22.5122
2002-02-22,22.1645
2002-02-25,21.9038
2002-02-26,22.347
2002-02-27,22.3818
2002-02-28,22.7643
2002-03-01,22.773
2002-03-04,23.2858
2002-03-05,23.9898
2002-03-06,23.9464
2002-03-07,23.6248
2002-03-08,25.9368
2002-03-11,25.9281
2002-03-12,25.9021
2002-03-13,25.3545
2002-03-14,24.9286
2002-03-15,25.198
2002-03-18,25.5892
2002-03-19,22.8599
2002-03-20,23.1554
2002-03-21,23.8595
2002-03-22,23.9724
2002-03-25,23.477
2002-03-26,23.2162
2002-03-27,23.0337
2002-03-28,23.1902
2002-04-01,23.1641
2002-04-02,22.5817
2002-04-03,22.6165
2002-04-04,21.7212
2002-04-05,21.869
2002-04-08,20.8781
2002-04-09,21.2866
2002-04-10,21.2345
2002-04-11,19.6091
2002-04-12,19.5743
2002-04-15,19.4787
2002-04-16,20.6434
2002-04-17,20.852
2002-04-18,20.1654
2002-04-19,21.2519
2002-04-22,21.2171
2002-04-23,20.8173
2002-04-24,20.1219
2002-04-25,19.5395
2002-04-26,19.0528
2002-04-29,17.6099
2002-04-30,18.6617
2002-05-01,18.3227
2002-05-02,18.4183
2002-05-03,17.2622
2002-05-06,17.5578
2002-05-07,17.9402
2002-05-08,19.3136
2002-05-09,17.523
2002-05-10,17.7751
2002-05-13,18.427
2002-05-14,18.9572
2002-05-15,19.3309
2002-05-16,17.3839
2002-05-17,17.3839
2002-05-20,18.653
2002-05-21,18.1662
2002-05-22,17.9141
2002-05-23,18.2618
2002-05-24,18.1141
2002-05-28,18.3748
2002-05-29,18.314
2002-05-30,18.0011
2002-05-31,18.0793
2002-06-03,17.6447
2002-06-04,17.0536
2002-06-05,17.1145
2002-06-06,17.0276
2002-06-07,17.297
2002-06-10,17.6708
2002-06-11,17.7229
2002-06-12,17.4709
2002-06-13,17.2449
2002-06-14,17.4187
2002-06-17,17.9489
2002-06-18,18.1836
2002-06-19,17.7316
2002-06-20,17.3144
2002-06-21,17.1753
2002-06-24,16.732
2002-06-25,16.3235
2002-06-26,16.3322
2002-06-27,16.3844
2002-06-28,16.506
2002-07-01,14.559
2002-07-02,14.6894
2002-07-03,15.2892
2002-07-05,15.5586
2002-07-08,15.1414
2002-07-09,14.3244
2002-07-10,13.2466
2002-07-11,13.4291
2002-07-12,12.3426
2002-07-15,12.5164
2002-07-16,13.0293
2002-07-17,13.0206
2002-07-18,12.0471
2002-07-19,13.0032
2002-07-22,12.9597
2002-07-23,12.6468
2002-07-24,13.2553
2002-07-25,12.8207
2002-07-26,12.9076
2002-07-29,14.3157
2002-07-30,14.8198
2002-07-31,14.2635
2002-08-01,14.307
2002-08-02,14.1071
2002-08-05,13.29
2002-08-06,14.1244
2002-08-07,14.3939
2002-08-08,14.5417
2002-08-09,14.3591
2002-08-12,14.2722
2002-08-13,13.9767
2002-08-14,14.1071
2002-08-15,14.9328
2002-08-16,15.5673
2002-08-19,16.2974
2002-08-20,16.1671
2002-08-21,16.2714
2002-08-22,16.0541
2002-08-23,15.4978
2002-08-26,15.2283
2002-08-27,14.3852
2002-08-28,13.7681
2002-08-29,14.1679
2002-08-30,14.3417
2002-09-03,13.6029
2002-09-04,13.9506
2002-09-05,13.7246
2002-09-06,13.8463
2002-09-09,14.1592
2002-09-10,14.0288
2002-09-11,14.1853
2002-09-12,14.1679
2002-09-13,13.5855
2002-09-16,14.0115
2002-09-17,14.0201
2002-09-18,13.8115
2002-09-19,12.2991
2002-09-20,12.7337
2002-09-23,12.8554
2002-09-24,12.0818
2002-09-25,12.4121
2002-09-26,12.5164
2002-09-27,12.3078
2002-09-30,12.36
2002-10-01,12.951
2002-10-02,12.1948
2002-10-03,11.2561
2002-10-04,10.6216
2002-10-07,10.7433
2002-10-08,11.3169
2002-10-09,10.865
2002-10-10,11.6559
2002-10-11,12.4469
2002-10-14,12.6207
2002-10-15,14.4895
2002-10-16,13.855
2002-10-17,14.5938
2002-10-18,14.6894
2002-10-21,15.0197
2002-10-22,14.7329
2002-10-23,15.2109
2002-10-24,14.9067
2002-10-25,15.2544
2002-10-28,15.1501
2002-10-29,14.559
2002-10-30,14.4287
2002-10-31,14.6634
2002-11-01,14.6025
2002-11-04,14.6807
2002-11-05,14.2114
2002-11-06,14.7503
2002-11-07,15.2196
2002-11-08,15.2196
2002-11-11,14.9936
2002-11-12,15.2023
2002-11-13,15.6455
2002-11-14,16.48
2002-11-15,16.2627
2002-11-18,16.6886
2002-11-19,16.254
2002-11-20,15.9498
2002-11-21,16.2105
2002-11-22,16.0019
2002-11-25,15.7933
2002-11-26,15.3587
2002-11-27,16.2974
2002-11-29,16.732
2002-12-02,17.4709
2002-12-03,16.9059
2002-12-04,15.7412
2002-12-05,15.7325
2002-12-06,15.3152
2002-12-09,15.5412
2002-12-10,15.6195
2002-12-11,15.5412
2002-12-12,15.4456
2002-12-13,15.2023
2002-12-16,15.463
2002-12-17,15.6977
2002-12-18,15.6455
2002-12-19,15.2718
2002-12-20,14.8633
2002-12-23,14.9936
2002-12-24,15.1936
2002-12-26,15.5152
2002-12-27,15.3935
2002-12-30,15.4891
2002-12-31,15.6455
2003-01-02,16.1584
2003-01-03,16.2974
2003-01-06,16.6104
2003-01-07,16.1671
2003-01-08,16.1584
2003-01-09,15.9063
2003-01-10,14.7068
2003-01-13,15.124
2003-01-14,14.8893
2003-01-15,14.3244
2003-01-16,13.7333
2003-01-17,14.1418
2003-01-21,13.6898
2003-01-22,13.6116
2003-01-23,14.646
2003-01-24,14.4113
2003-01-27,14.1766
2003-01-28,14.2722
2003-01-29,14.1244
2003-01-30,14.081
2003-01-31,14.3417
2003-02-03,14.1244
2003-02-04,14.2114
2003-02-05,14.1679
2003-02-06,13.9071
2003-02-07,13.1423
2003-02-10,13.2726
2003-02-11,13.5073
2003-02-12,12.699
2003-02-13,12.7772
2003-02-14,13.2726
2003-02-18,13.9071
2003-02-19,13.9071
2003-02-20,13.5508
2003-02-21,13.5682
2003-02-24,13.1683
2003-02-25,13.7507
2003-02-26,13.5334
2003-02-27,13.0727
2003-02-28,13.038
2003-03-03,13.6551
2003-03-04,13.5682
2003-03-05,13.6725
2003-03-06,13.9506
2003-03-07,13.6464
2003-03-10,13.2987
2003-03-11,12.2991
2003-03-12,11.9949
2003-03-13,12.021
2003-03-14,12.6903
2003-03-17,13.2292
2003-03-18,13.5942
2003-03-19,13.4204
2003-03-20,13.3856
2003-03-21,13.8202
2003-03-24,13.6812
2003-03-25,13.6551
2003-03-26,13.6203
2003-03-27,13.6898
2003-03-28,13.6551
2003-03-31,13.4726
2003-04-01,13.038
2003-04-02,13.6464
2003-04-03,13.5682
2003-04-04,13.2726
2003-04-07,13.2639
2003-04-08,12.9684
2003-04-09,12.3513
2003-04-10,12.5686
2003-04-11,12.2122
2003-04-14,12.951
2003-04-15,12.6642
2003-04-16,12.5164
2003-04-17,12.8293
2003-04-21,13.038
2003-04-22,13.7855
2003-04-23,13.9245
2003-04-24,13.6638
2003-04-25,13.4899
2003-04-28,13.6725
2003-04-29,13.7333
2003-04-30,13.9332
2003-05-01,14.1158
2003-05-02,14.5156
2003-05-05,14.4721
2003-05-06,14.5069
2003-05-07,14.5764
2003-05-08,14.2983
2003-05-09,14.646
2003-05-12,14.4721
2003-05-13,14.5069
2003-05-14,14.7763
2003-05-15,15.011
2003-05-16,15.0197
2003-05-19,14.8372
2003-05-20,14.6373
2003-05-21,14.2114
2003-05-22,14.5677
2003-05-23,15.0806
2003-05-27,14.5156
2003-05-28,14.3939
2003-05-29,14.7242
2003-05-30,15.2283
2003-06-02,15.2023
2003-06-03,14.9589
2003-06-04,16.1062
2003-06-05,16.0367
2003-06-06,15.7933
2003-06-09,15.3413
2003-06-10,15.1588
2003-06-11,14.9502
2003-06-12,14.5156
2003-06-13,14.1418
2003-06-16,15.1588
2003-06-17,15.124
2003-06-18,15.2109
2003-06-19,15.4717
2003-06-20,15.5412
2003-06-23,15.6021
2003-06-24,15.3413
2003-06-25,15.0371
2003-06-26,15.6108
2003-06-27,15.5152
2003-06-30,15.7064
2003-07-01,15.6368
2003-07-02,15.5065
2003-07-03,15.7064
2003-07-07,15.7064
2003-07-08,16.8624
2003-07-09,16.7233
2003-07-10,16.619
2003-07-11,16.3931
2003-07-14,16.4278
2003-07-15,17.8011
2003-07-16,17.6621
2003-07-17,17.2622
2003-07-18,17.8533
2003-07-21,16.7755
2003-07-22,17.2709
2003-07-23,17.3752
2003-07-24,17.1666
2003-07-25,17.297
2003-07-28,17.2883
2003-07-29,17.2101
2003-07-30,17.1493
2003-07-31,16.8798
2003-08-01,17.7055
2003-08-04,17.5925
2003-08-05,16.9406
2003-08-06,16.7494
2003-08-07,17.2449
2003-08-08,17.4274
2003-08-11,17.0189
2003-08-12,17.1666
2003-08-13,17.0363
2003-08-14,17.7055
2003-08-15,17.9141
2003-08-18,17.749
2003-08-19,18.4096
2003-08-20,18.2357
2003-08-21,18.4704
2003-08-22,18.7138
2003-08-25,18.1749
2003-08-26,18.2531
2003-08-27,18.2271
2003-08-28,18.2357
2003-08-29,18.3661
2003-09-02,19.4352
2003-09-03,20.3479
2003-09-04,20.6782
2003-09-05,20.1914
2003-09-08,19.9481
2003-09-09,19.9915
2003-09-10,19.357
2003-09-11,19.131
2003-09-12,19.4874
2003-09-15,20.0002
2003-09-16,20.3305
2003-09-17,19.6438
2003-09-18,19.7742
2003-09-19,19.4874
2003-09-22,18.792
2003-09-23,18.5313
2003-09-24,19.357
2003-09-25,19.6438
2003-09-26,19.1658
2003-09-29,19.1745
2003-09-30,19.3396
2003-10-01,19.3483
2003-10-02,19.6091
2003-10-03,19.4961
2003-10-06,20.0524
2003-10-07,20.0871
2003-10-08,20.6
2003-10-09,19.2875
2003-10-10,19.5135
2003-10-13,19.3222
2003-10-14,19.6699
2003-10-15,19.2962
2003-10-16,19.244
2003-10-17,19.0789
2003-10-20,19.0789
2003-10-21,19.5135
2003-10-22,19.8698
2003-10-23,19.7134
2003-10-24,19.4352
2003-10-27,19.4874
2003-10-28,20.2262
2003-10-29,20.513
2003-10-30,20.5652
2003-10-31,20.3392
2003-11-03,20.9389
2003-11-04,21.1389
2003-11-05,21.1302
2003-11-06,21.2084
2003-11-07,21.7125
2003-11-10,21.3649
2003-11-11,21.3214
2003-11-12,21.9211
2003-11-13,21.4865
2003-11-14,21.191
2003-11-17,21.0954
2003-11-18,20.9911
2003-11-19,20.9389
2003-11-20,21.0693
2003-11-21,20.9911
2003-11-24,21.5995
2003-11-25,21.2866
2003-11-26,21.4692
2003-11-28,21.5995
2003-12-01,22.1124
2003-12-02,22.3123
2003-12-03,22.5904
2003-12-04,22.2341
2003-12-05,21.9994
2003-12-08,21.7734
2003-12-09,21.9038
2003-12-10,21.7821
2003-12-11,21.7647
2003-12-12,21.7212
2003-12-15,21.6865
2003-12-16,21.3562
2003-12-17,21.2692
2003-12-18,21.7038
2003-12-19,22.0689
2003-12-22,22.1645
2003-12-23,22.5991
2003-12-24,22.886
2003-12-26,22.6165
2003-12-29,22.8599
2003-12-30,22.8164
2003-12-31,22.8077
2004-01-02,22.547
2004-01-05,23.1467
2004-01-06,22.8946
2004-01-07,22.3905
2004-01-08,21.6604
2004-01-09,21.8603
2004-01-12,22.4948
2004-01-13,19.6352
2004-01-14,20.5826
2004-01-15,20.5304
2004-01-16,20.4
2004-01-20,20.6869
2004-01-21,20.9737
2004-01-22,21.5908
2004-01-23,21.0172
2004-01-26,21.4518
2004-01-27,20.9216
2004-01-28,20.626
2004-01-29,20.6
2004-01-30,20.5913
2004-02-02,20.0698
2004-02-03,20.1827
2004-02-04,19.6438
2004-02-05,19.7221
2004-02-06,19.8785
2004-02-09,19.8264
2004-02-10,19.8611
2004-02-11,19.9046
2004-02-12,20.035
2004-02-13,20.4261
2004-02-17,20.5478
2004-02-18,20.261
2004-02-19,20.0698
2004-02-20,19.7308
2004-02-23,19.1571
2004-02-24,19.9828
2004-02-25,20.0089
2004-02-26,20.0698
2004-02-27,20.0871
2004-03-01,20.0437
2004-03-02,20.1654
2004-03-03,19.9481
2004-03-04,20.3392
2004-03-05,20.5913
2004-03-08,20.4522
2004-03-09,20.374
2004-03-10,20.2001
2004-03-11,19.7221
2004-03-12,19.7481
2004-03-15,19.9915
2004-03-16,20.4696
2004-03-17,20.6087
2004-03-18,20.7912
2004-03-19,20.9476
2004-03-22,20.4522
2004-03-23,20.6869
2004-03-24,20.6869
2004-03-25,20.5739
2004-03-26,20.7825
2004-03-29,20.9042
2004-03-30,21.191
2004-03-31,21.53
2004-04-01,21.5735
2004-04-02,21.8342
2004-04-05,22.3557
2004-04-06,21.8951
2004-04-07,21.8864
2004-04-08,21.9211
2004-04-12,22.3384
2004-04-13,22.1297
2004-04-14,21.9907
2004-04-15,21.8603
2004-04-16,21.3822
2004-04-19,21.982
2004-04-20,21.6604
2004-04-21,21.5213
2004-04-22,21.0433
2004-04-23,21.4344
2004-04-26,21.1649
2004-04-27,21.0693
2004-04-28,20.6434
2004-04-29,20.6695
2004-04-30,20.6782
2004-05-03,20.8433
2004-05-04,20.826
2004-05-05,21.0606
2004-05-06,20.9303
2004-05-07,20.5826
2004-05-10,20.0784
2004-05-11,20.6782
2004-05-12,20.513
2004-05-13,20.7217
2004-05-14,20.7217
2004-05-17,20.2262
2004-05-18,20.5304
2004-05-19,20.6087
2004-05-20,20.2697
2004-05-21,20.5652
2004-05-24,20.6434
2004-05-25,20.626
2004-05-26,20.8868
2004-05-27,21.2258
2004-05-28,21.3735
2004-06-01,22.0515
2004-06-02,21.7038
2004-06-03,21.7908
2004-06-04,21.7038
2004-06-07,21.8603
2004-06-08,22.1384
2004-06-09,21.5908
2004-06-10,21.8342
2004-06-14,21.6778
2004-06-15,21.5908
2004-06-16,21.9994
2004-06-17,23.2771
2004-06-18,23.6248
2004-06-21,23.2423
2004-06-22,23.1467
2004-06-23,23.9724
2004-06-24,23.8595
2004-06-25,23.9029
2004-06-28,23.6943
2004-06-29,23.5813
2004-06-30,23.9029
2004-07-01,24.0246
2004-07-02,24.3201
2004-07-06,23.6943
2004-07-07,23.7204
2004-07-08,23.59
2004-07-09,23.4422
2004-07-12,23.0859
2004-07-13,22.3644
2004-07-14,22.4774
2004-07-15,22.573
2004-07-16,22.3123
2004-07-19,22.2949
2004-07-20,22.4774
2004-07-21,22.2601
2004-07-22,21.8603
2004-07-23,21.6343
2004-07-26,21.2606
2004-07-27,21.3996
2004-07-28,21.0867
2004-07-29,21.4692
2004-07-30,21.4083
2004-08-02,21.6169
2004-08-03,21.4344
2004-08-04,21.643
2004-08-05,21.6082
2004-08-06,21.1736
2004-08-09,21.078
2004-08-10,21.4344
2004-08-11,20.9911
2004-08-12,20.2957
2004-08-13,20.6347
2004-08-16,21.3301
2004-08-17,21.53
2004-08-18,22.0776
2004-08-19,22.547
2004-08-20,22.6687
2004-08-23,22.799
2004-08-24,22.686
2004-08-25,22.799
2004-08-26,22.4079
2004-08-27,22.5035
2004-08-30,22.3384
2004-08-31,22.6947
2004-09-01,23.0337
2004-09-02,22.8946
2004-09-03,22.5122
2004-09-07,22.7556
2004-09-08,22.9989
2004-09-09,23.1033
2004-09-10,23.2597
2004-09-13,22.9294
2004-09-14,23.2336
2004-09-15,23.1206
2004-09-16,23.4683
2004-09-17,23.2162
2004-09-20,23.3032
2004-09-21,23.4857
2004-09-22,23.4249
2004-09-23,23.3814
2004-09-24,23.3032
2004-09-27,23.1641
2004-09-28,23.1902
2004-09-29,23.4683
2004-09-30,23.5292
2004-10-01,23.6856
2004-10-04,23.816
2004-10-05,23.4075
2004-10-06,23.4509
2004-10-07,23.2076
2004-10-08,23.251
2004-10-11,23.3901
2004-10-12,23.0859
2004-10-13,20.7738
2004-10-14,20.4609
2004-10-15,20.4261
2004-10-18,20.5044
2004-10-19,20.8346
2004-10-20,21.0433
2004-10-21,21.1041
2004-10-22,20.713
2004-10-25,20.6347
2004-10-26,20.7825
2004-10-27,21.2692
2004-10-28,21.2432
2004-10-29,21.0346
2004-11-01,20.9129
2004-11-02,21.2084
2004-11-03,21.3909
2004-11-04,21.7908
2004-11-05,21.6691
2004-11-08,21.2171
2004-11-09,21.4257
2004-11-10,21.0259
2004-11-11,21.1215
2004-11-12,21.2953
2004-11-15,21.9646
2004-11-16,21.9211
2004-11-17,22.4253
2004-11-18,22.5643
2004-11-19,22.0602
2004-11-22,21.9733
2004-11-23,21.9385
2004-11-24,22.4774
2004-11-26,22.547
2004-11-29,22.5209
2004-11-30,22.5817
2004-12-01,23.2684
2004-12-02,23.5205
2004-12-03,23.4857
2004-12-06,23.4857
2004-12-07,23.3814
2004-12-08,23.0337
2004-12-09,22.7903
2004-12-10,23.0163
2004-12-13,23.1119
2004-12-14,23.4596
2004-12-15,23.7638
2004-12-16,23.5205
2004-12-17,23.7812
2004-12-20,23.4683
2004-12-21,23.7378
2004-12-22,23.8942
2004-12-23,23.9464
2004-12-27,23.703
2004-12-28,23.6422
2004-12-29,23.4683
2004-12-30,23.3814
2004-12-31,23.4683
2005-01-03,22.9294
2005-01-04,22.3731
2005-01-05,22.0515
2005-01-06,22.0689
2005-01-07,23.1206
2005-01-10,23.4422
2005-01-11,23.0076
2005-01-12,22.9381
2005-01-13,22.7643
2005-01-14,22.8599
2005-01-18,22.6773
2005-01-19,22.5991
2005-01-20,22.3384
2005-01-21,21.8777
2005-01-24,21.5995
2005-01-25,21.9038
2005-01-26,22.0254
2005-01-27,22.3123
2005-01-28,22.2775
2005-01-31,22.5991
2005-02-01,22.5991
2005-02-02,22.4253
2005-02-03,22.1037
2005-02-04,22.2949
2005-02-07,22.3731
2005-02-08,22.4253
2005-02-09,22.1645
2005-02-10,22.0776
2005-02-11,21.9211
2005-02-14,21.4344
2005-02-15,21.6169
2005-02-16,21.7125
2005-02-17,21.3562
2005-02-18,21.6169
2005-02-22,21.6082
2005-02-23,21.4518
2005-02-24,21.2953
2005-02-25,21.8429
2005-02-28,22.2341
2005-03-01,22.2427
2005-03-02,22.0689
2005-03-03,21.8429
2005-03-04,22.0776
2005-03-07,22.1471
2005-03-08,22.0168
2005-03-09,21.8777
2005-03-10,21.6952
2005-03-11,21.2692
2005-03-14,21.2692
2005-03-15,20.8607
2005-03-16,20.9042
2005-03-17,20.8086
2005-03-18,20.5478
2005-03-21,20.8607
2005-03-22,21.0867
2005-03-23,21.1389
2005-03-24,21.2258
2005-03-28,21.3822
2005-03-29,21.0085
2005-03-30,21.3475
2005-03-31,21.1302
2005-04-01,21.2606
2005-04-04,21.1823
2005-04-05,21.5995
2005-04-06,21.7038
2005-04-07,21.7038
2005-04-08,20.6087
2005-04-11,20.2957
2005-04-12,20.3827
2005-04-13,20.0958
2005-04-14,19.8611
2005-04-15,19.5395
2005-04-18,19.583
2005-04-19,19.4265
2005-04-20,19.0702
2005-04-21,19.1223
2005-04-22,19.0789
2005-04-25,18.9919
2005-04-26,18.7312
2005-04-27,18.679
2005-04-28,18.7833
2005-04-29,18.8616
2005-05-02,19.0789
2005-05-03,19.2179
2005-05-04,19.1745
2005-05-05,18.9659
2005-05-06,19.1136
2005-05-09,19.1484
2005-05-10,19.0354
2005-05-11,19.0789
2005-05-12,19.1397
2005-05-13,19.1571
2005-05-16,19.1223
2005-05-17,19.1571
2005-05-18,19.5482
2005-05-19,19.8177
2005-05-20,19.7829
2005-05-23,19.8003
2005-05-24,19.7047
2005-05-25,19.4265
2005-05-26,20.0263
2005-05-27,20.0784
2005-05-31,20.2175
2005-06-01,20.3044
2005-06-02,20.5478
2005-06-03,20.3653
2005-06-06,20.5739
2005-06-07,20.7738
2005-06-08,20.5391
2005-06-09,20.5478
2005-06-10,20.7912
2005-06-13,20.7651
2005-06-14,20.2523
2005-06-15,19.9915
2005-06-16,20.3044
2005-06-17,20.5217
2005-06-20,20.7303
2005-06-21,20.7651
2005-06-22,20.7912
2005-06-23,20.0176
2005-06-24,19.9481
2005-06-27,19.7568
2005-06-28,20.2001
2005-06-29,19.6699
2005-06-30,19.6612
2005-07-01,20.2175
2005-07-05,20.1219
2005-07-06,20.4609
2005-07-07,20.3827
2005-07-08,21.1128
2005-07-11,21.0519
2005-07-12,20.6173
2005-07-13,20.4261
2005-07-14,20.5304
2005-07-15,20.4261
2005-07-18,20.6695
2005-07-19,21.3475
2005-07-20,21.304
2005-07-21,21.6256
2005-07-22,21.5387
2005-07-25,21.5735
2005-07-26,21.7299
2005-07-27,21.7734
2005-07-28,21.756
2005-07-29,21.756
2005-08-01,21.7299
2005-08-02,22.1732
2005-08-03,22.2514
2005-08-04,21.9994
2005-08-05,21.8516
2005-08-08,21.7299
2005-08-09,22.0776
2005-08-10,22.0689
2005-08-11,21.9125
2005-08-12,21.8777
2005-08-15,21.8168
2005-08-16,21.7821
2005-08-17,21.6169
2005-08-18,21.7995
2005-08-19,21.7473
2005-08-22,21.6082
2005-08-23,21.4952
2005-08-24,21.4344
2005-08-25,21.7125
2005-08-26,21.4344
2005-08-29,21.2953
2005-08-30,21.2171
2005-08-31,21.191
2005-09-01,21.6604
2005-09-02,21.9994
2005-09-06,22.3036
2005-09-07,22.4166
2005-09-08,22.434
2005-09-09,22.2862
2005-09-12,22.347
2005-09-13,21.8516
2005-09-14,22.2601
2005-09-15,22.0602
2005-09-16,22.8251
2005-09-19,22.3905
2005-09-20,22.3992
2005-09-21,22.2167
2005-09-22,21.9211
2005-09-23,21.8603
2005-09-26,21.9646
2005-09-27,21.8081
2005-09-28,21.7299
2005-09-29,21.7734
2005-09-30,22.1471
2005-10-03,22.1819
2005-10-04,22.0254
2005-10-05,21.7473
2005-10-06,21.8342
2005-10-07,23.1989
2005-10-10,22.2949
2005-10-11,22.0168
2005-10-12,21.7995
2005-10-13,21.9754
2005-10-14,22.4153
2005-10-17,22.4241
2005-10-18,22.6616
2005-10-19,23.1718
2005-10-20,23.1278
2005-10-21,22.9783
2005-10-24,23.295
2005-10-25,22.7935
2005-10-26,23.0311
2005-10-27,22.9871
2005-10-28,23.0311
2005-10-31,23.1278
2005-11-01,23.2862
2005-11-02,23.1806
2005-11-03,22.9959
2005-11-04,23.2158
2005-11-07,23.2158
2005-11-08,23.2158
2005-11-09,23.2686
2005-11-10,23.4357
2005-11-11,23.3742
2005-11-14,23.3918
2005-11-15,23.3654
2005-11-16,24.0339
2005-11-17,24.8257
2005-11-18,24.5882
2005-11-21,24.6058
2005-11-22,24.421
2005-11-23,24.1571
2005-11-25,24.5442
2005-11-28,24.3858
2005-11-29,24.8257
2005-11-30,25.0192
2005-12-01,25.6526
2005-12-02,25.7054
2005-12-05,25.3447
2005-12-06,25.3887
2005-12-07,25.248
2005-12-08,24.8697
2005-12-09,24.8257
2005-12-12,24.9577
2005-12-13,24.8785
2005-12-14,25.3799
2005-12-15,25.1336
2005-12-16,25.1424
2005-12-19,24.8345
2005-12-20,25.1248
2005-12-21,25.248
2005-12-22,25.204
2005-12-23,25.4239
2005-12-27,25.3095
2005-12-28,25.3887
2005-12-29,25.3007
2005-12-30,25.3887
2006-01-03,25.7758
2006-01-04,25.899
2006-01-05,26.0837
2006-01-06,27.4121
2006-01-09,27.3153
2006-01-10,26.7347
2006-01-11,26.937
2006-01-12,26.9018
2006-01-13,26.5675
2006-01-17,27.1218
2006-01-18,27.2625
2006-01-19,27.2889
2006-01-20,27.4297
2006-01-23,27.0514
2006-01-24,26.8579
2006-01-25,27.2273
2006-01-26,27.4737
2006-01-27,27.6496
2006-01-30,27.6496
2006-01-31,27.7376
2006-02-01,27.8959
2006-02-02,27.8431
2006-02-03,27.6584
2006-02-06,28.1246
2006-02-07,28.4501
2006-02-08,28.5469
2006-02-09,27.9575
2006-02-10,28.1686
2006-02-13,28.3358
2006-02-14,28.1422
2006-02-15,28.4589
2006-02-16,28.8812
2006-02-17,28.7844
2006-02-21,28.4501
2006-02-22,28.5117
2006-02-23,28.4765
2006-02-24,28.5029
2006-02-27,28.9516
2006-02-28,28.7317
2006-03-01,28.7229
2006-03-02,28.6525
2006-03-03,28.5821
2006-03-06,28.4677
2006-03-07,28.0543
2006-03-08,27.764
2006-03-09,27.6408
2006-03-10,27.7992
2006-03-13,27.7552
2006-03-14,27.8431
2006-03-15,28.0367
2006-03-16,28.0103
2006-03-17,27.7816
2006-03-20,27.6936
2006-03-21,28.0719
2006-03-22,28.3974
2006-03-23,28.2742
2006-03-24,27.7024
2006-03-27,27.113
2006-03-28,27.1394
2006-03-29,25.5559
2006-03-30,26.418
2006-03-31,26.4444
2006-04-03,26.286
2006-04-04,26.6819
2006-04-05,26.1453
2006-04-06,25.8286
2006-04-07,25.5735
2006-04-10,25.5207
2006-04-11,25.3007
2006-04-12,25.8814
2006-04-13,25.9517
2006-04-17,26.0837
2006-04-18,26.9106
2006-04-19,26.5675
2006-04-20,26.5587
2006-04-21,26.3476
2006-04-24,26.1277
2006-04-25,26.0485
2006-04-26,26.0925
2006-04-27,26.0837
2006-04-28,25.5647
2006-05-01,25.9517
2006-05-02,25.9341
2006-05-03,25.8198
2006-05-04,25.811
2006-05-05,25.899
2006-05-08,25.9517
2006-05-09,25.8902
2006-05-10,25.9165
2006-05-11,26.0221
2006-05-12,25.6526
2006-05-15,25.3711
2006-05-16,25.4767
2006-05-17,25.2392
2006-05-18,24.421
2006-05-19,24.3331
2006-05-22,24.0076
2006-05-23,24.0779
2006-05-24,24.4738
2006-05-25,24.6937
2006-05-26,24.6058
2006-05-30,24.3946
2006-05-31,24.7465
2006-06-01,24.7025
2006-06-02,24.5002
2006-06-05,24.1395
2006-06-06,24.1131
2006-06-07,23.814
2006-06-08,23.77
2006-06-09,23.77
2006-06-12,23.4269
2006-06-13,22.8991
2006-06-14,22.8551
2006-06-15,23.0839
2006-06-16,22.7232
2006-06-19,22.8727
2006-06-20,23.1014
2006-06-21,23.9636
2006-06-22,23.6117
2006-06-23,23.8316
2006-06-26,24.0164
2006-06-27,23.7876
2006-06-28,24.1571
2006-06-29,24.7641
2006-06-30,24.9401
2006-07-03,25.0632
2006-07-05,25.0016
2006-07-06,24.7905
2006-07-07,24.641
2006-07-10,24.6058
2006-07-11,24.3682
2006-07-12,24.8785
2006-07-13,24.6673
2006-07-14,24.9489
2006-07-17,24.7289
2006-07-18,24.6058
2006-07-19,25.4151
2006-07-20,24.7817
2006-07-21,24.553
2006-07-24,24.8521
2006-07-25,25.3183
2006-07-26,24.8521
2006-07-27,25.1248
2006-07-28,25.4151
2006-07-31,25.7054
2006-08-01,25.0632
2006-08-02,25.3007
2006-08-03,25.5735
2006-08-04,25.3535
2006-08-07,25.3359
2006-08-08,25.16
2006-08-09,24.641
2006-08-10,24.6586
2006-08-11,24.3506
2006-08-14,24.4386
2006-08-15,24.7201
2006-08-16,25.3623
2006-08-17,25.4503
2006-08-18,25.6174
2006-08-21,25.1776
2006-08-22,24.7201
2006-08-23,24.7993
2006-08-24,25.0104
2006-08-25,24.9049
2006-08-28,25.2216
2006-08-29,25.1688
2006-08-30,25.3095
2006-08-31,26.0045
2006-09-01,26.3124
2006-09-05,26.1453
2006-09-06,25.4063
2006-09-07,25.0368
2006-09-08,25.1512
2006-09-11,25.0104
2006-09-12,25.3271
2006-09-13,25.9253
2006-09-14,25.7846
2006-09-15,25.6702
2006-09-18,25.767
2006-09-19,25.5911
2006-09-20,25.8198
2006-09-21,25.6174
2006-09-22,25.811
2006-09-25,26.1981
2006-09-26,25.9078
2006-09-27,25.8462
2006-09-28,27.8695
2006-09-29,27.9487
2006-10-02,27.1306
2006-10-03,27.2185
2006-10-04,27.5
2006-10-05,27.5176
2006-10-06,27.1306
2006-10-09,27.6936
2006-10-10,28.0807
2006-10-11,28.3835
2006-10-12,28.2145
2006-10-13,28.6325
2006-10-16,28.3835
2006-10-17,28.1166
2006-10-18,28.3746
2006-10-19,28.0633
2006-10-20,28.0099
2006-10-23,28.4991
2006-10-24,28.8282
2006-10-25,28.7927
2006-10-26,29.2196
2006-10-27,28.935
2006-10-30,29.6377
2006-10-31,29.2908
2006-11-01,29.353
2006-11-02,29.6821
2006-11-03,29.4687
2006-11-06,29.8956
2006-11-07,29.4598
2006-11-08,29.7533
2006-11-09,29.6732
2006-11-10,30.1091
2006-11-13,30.1091
2006-11-14,30.3404
2006-11-15,30.5716
2006-11-16,31.0786
2006-11-17,31.2476
2006-11-20,30.7851
2006-11-21,30.6873
2006-11-22,30.5094
2006-11-24,30.5271
2006-11-27,29.6732
2006-11-28,29.5398
2006-11-29,29.5576
2006-11-30,29.949
2006-12-01,30.0379
2006-12-04,30.625
2006-12-05,30.8207
2006-12-06,30.6961
2006-12-07,30.6428
2006-12-08,30.7139
2006-12-11,30.4115
2006-12-12,30.7673
2006-12-13,30.8829
2006-12-14,31.1231
2006-12-15,30.9719
2006-12-18,30.7228
2006-12-19,30.8118
2006-12-20,31.2654
2006-12-21,32.573
2006-12-22,32.404
2006-12-26,32.3061
2006-12-27,32.484
2006-12-28,33.1333
2006-12-29,32.9021
2007-01-03,32.3061
2007-01-04,33.0711
2007-01-05,32.573
2007-01-08,33.1156
2007-01-09,33.0355
2007-01-10,33.2134
2007-01-11,33.0978
2007-01-12,33.7738
2007-01-16,33.0088
2007-01-17,33.4002
2007-01-18,33.0622
2007-01-19,32.6708
2007-01-22,32.6174
2007-01-23,32.7153
2007-01-24,32.7153
2007-01-25,32.5374
2007-01-26,32.5374
2007-01-29,32.8042
2007-01-30,32.9466
2007-01-31,33.5603
2007-02-01,33.8271
2007-02-02,34.3075
2007-02-05,34.3875
2007-02-06,34.2986
2007-02-07,34.77
2007-02-08,34.5209
2007-02-09,34.4676
2007-02-12,34.0673
2007-02-13,34.4498
2007-02-14,34.8678
2007-02-15,34.5387
2007-02-16,34.4676
2007-02-20,34.5565
2007-02-21,34.2452
2007-02-22,34.0673
2007-02-23,34.0317
2007-02-26,33.7471
2007-02-27,32.7509
2007-02-28,31.7457
2007-03-01,31.3366
2007-03-02,31.7991
2007-03-05,31.0519
2007-03-06,31.3455
2007-03-07,31.2832
2007-03-08,31.7724
2007-03-09,32.146
2007-03-12,32.3595
2007-03-13,31.6835
2007-03-14,31.5323
2007-03-15,31.1409
2007-03-16,31.3277
2007-03-19,31.808
2007-03-20,32.2972
2007-03-21,32.6263
2007-03-22,32.6263
2007-03-23,32.3684
2007-03-26,32.6174
2007-03-27,32.315
2007-03-28,33.5336
2007-03-29,34.3786
2007-03-30,34.343
2007-04-02,34.4765
2007-04-03,34.2541
2007-04-04,34.3875
2007-04-05,34.3519
2007-04-09,34.1474
2007-04-10,33.9072
2007-04-11,33.9428
2007-04-12,34.1651
2007-04-13,34.4231
2007-04-16,34.4854
2007-04-17,34.6366
2007-04-18,34.3697
2007-04-19,34.0673
2007-04-20,34.263
2007-04-23,34.3253
2007-04-24,34.5032
2007-04-25,35.0102
2007-04-26,34.4854
2007-04-27,34.3964
2007-04-30,34.7967
2007-05-01,34.7077
2007-05-02,34.6366
2007-05-03,34.939
2007-05-04,34.7344
2007-05-07,34.0673
2007-05-08,34.1563
2007-05-09,34.5921
2007-05-10,34.1118
2007-05-11,34.0673
2007-05-14,33.9339
2007-05-15,34.1563
2007-05-16,35.4994
2007-05-17,35.2058
2007-05-18,35.2592
2007-05-21,35.2236
2007-05-22,35.3126
2007-05-23,35.5883
2007-05-24,35.4994
2007-05-25,36.2643
2007-05-29,36.3978
2007-05-30,36.1576
2007-05-31,36.46
2007-06-01,36.6735
2007-06-04,36.5845
2007-06-05,37.136
2007-06-06,36.211
2007-06-07,35.3482
2007-06-08,35.3571
2007-06-11,35.1347
2007-06-12,35.1614
2007-06-13,35.1169
2007-06-14,35.2058
2007-06-15,35.5705
2007-06-18,36.8692
2007-06-19,36.8603
2007-06-20,37.3584
2007-06-21,37.1538
2007-06-22,37.9544
2007-06-25,37.563
2007-06-26,38.0344
2007-06-27,38.1945
2007-06-28,38.15
2007-06-29,38.0967
2007-07-02,37.7854
2007-07-03,37.5541
2007-07-05,38.0789
2007-07-06,38.2123
2007-07-09,38.15
2007-07-10,37.0293
2007-07-11,37.4829
2007-07-12,37.8209
2007-07-13,37.5808
2007-07-16,37.7676
2007-07-17,37.2428
2007-07-18,37.2783
2007-07-19,38.2479
2007-07-20,38.4703
2007-07-23,38.9239
2007-07-24,37.8298
2007-07-25,37.2695
2007-07-26,36.7269
2007-07-27,37.1449
2007-07-30,37.4118
2007-07-31,37.4651
2007-08-01,36.8247
2007-08-02,37.5007
2007-08-03,36.46
2007-08-06,37.0649
2007-08-07,37.2339
2007-08-08,36.8781
2007-08-09,35.5883
2007-08-10,34.8767
2007-08-13,35.7484
2007-08-14,34.9657
2007-08-15,34.5565
2007-08-16,33.4091
2007-08-17,34.601
2007-08-20,35.2592
2007-08-21,35.5705
2007-08-22,35.873
2007-08-23,35.8907
2007-08-24,35.6328
2007-08-27,35.7217
2007-08-28,35.2503
2007-08-29,35.784
2007-08-30,36.5223
2007-08-31,36.6379
2007-09-04,36.7802
2007-09-05,36.3533
2007-09-06,36.0864
2007-09-07,35.5794
2007-09-10,35.3926
2007-09-11,35.1614
2007-09-12,35.2859
2007-09-13,35.4816
2007-09-14,35.2592
2007-09-17,34.6366
2007-09-18,34.1474
2007-09-19,34.8323
2007-09-20,34.9657
2007-09-21,35.3037
2007-09-24,35.0368
2007-09-25,33.8271
2007-09-26,33.6492
2007-09-27,33.8449
2007-09-28,35.7573
2007-10-01,36.3444
2007-10-02,35.6773
2007-10-03,35.4549
2007-10-04,35.4727
2007-10-05,35.108
2007-10-08,35.366
2007-10-09,35.8196
2007-10-10,37.5093
2007-10-11,36.8622
2007-10-12,37.9318
2007-10-15,36.8712
2007-10-16,36.1431
2007-10-17,36.7363
2007-10-18,36.9161
2007-10-19,35.3161
2007-10-22,35.2442
2007-10-23,35.8644
2007-10-24,35.1004
2007-10-25,34.5431
2007-10-26,35.2622
2007-10-29,35.2442
2007-10-30,34.7588
2007-10-31,35.1184
2007-11-01,34.5072
2007-11-02,34.5162
2007-11-05,33.7791
2007-11-06,32.6735
2007-11-07,32.251
2007-11-08,31.6488
2007-11-09,31.3252
2007-11-12,32.1072
2007-11-13,32.9701
2007-11-14,31.8735
2007-11-15,32.8982
2007-11-16,33.078
2007-11-19,31.46
2007-11-20,31.4241
2007-11-21,31.0555
2007-11-23,31.6038
2007-11-26,30.4893
2007-11-27,30.3454
2007-11-28,31.3791
2007-11-29,31.1994
2007-11-30,30.9926
2007-12-03,30.723
2007-12-04,30.3904
2007-12-05,31.1275
2007-12-06,31.8376
2007-12-07,31.9184
2007-12-10,32.9162
2007-12-11,31.7027
2007-12-12,31.0915
2007-12-13,31.3072
2007-12-14,30.5432
2007-12-17,30.678
2007-12-18,31.8016
2007-12-19,31.2982
2007-12-20,33.5274
2007-12-21,34.1656
2007-12-24,34.2735
2007-12-26,34.0757
2007-12-27,33.1499
2007-12-28,33.1768
2007-12-31,32.4038
2008-01-02,32.3859
2008-01-03,31.8465
2008-01-04,31.3701
2008-01-07,30.5252
2008-01-08,30.5612
2008-01-09,30.3005
2008-01-10,30.2915
2008-01-11,29.4915
2008-01-14,30.1207
2008-01-15,30.1477
2008-01-16,30.6151
2008-01-17,30.0668
2008-01-18,30.3634
2008-01-22,30.0308
2008-01-23,29.7612
2008-01-24,30.4353
2008-01-25,30.4443
2008-01-28,30.3814
2008-01-29,31.0106
2008-01-30,30.5612
2008-01-31,30.9746
2008-02-01,31.523
2008-02-04,30.714
2008-02-05,30.1117
2008-02-06,30.3634
2008-02-07,29.7971
2008-02-08,30.4803
2008-02-11,30.732
2008-02-12,31.5499
2008-02-13,32.1791
2008-02-14,32.0083
2008-02-15,31.0915
2008-02-19,31.2443
2008-02-20,30.705
2008-02-21,30.3814
2008-02-22,30.5522
2008-02-25,31.2533
2008-02-26,32.6645
2008-02-27,33.3297
2008-02-28,33.033
2008-02-29,31.6847
2008-03-03,31.3791
2008-03-04,31.1814
2008-03-05,31.505
2008-03-06,31.2353
2008-03-07,30.2735
2008-03-10,29.7073
2008-03-11,30.6241
2008-03-12,30.3814
2008-03-13,30.5252
2008-03-14,30.0308
2008-03-17,29.7792
2008-03-18,30.9387
2008-03-19,30.9477
2008-03-20,31.0286
2008-03-24,32.6915
2008-03-25,31.8376
2008-03-26,31.7297
2008-03-27,32.269
2008-03-28,31.6937
2008-03-31,31.5679
2008-04-01,32.1881
2008-04-02,32.1252
2008-04-03,32.6016
2008-04-04,33.042
2008-04-07,33.4645
2008-04-08,34.1386
2008-04-09,33.2577
2008-04-10,34.1566
2008-04-11,32.8623
2008-04-14,32.8173
2008-04-15,32.7903
2008-04-16,33.833
2008-04-17,34.2914
2008-04-18,35.3431
2008-04-21,34.597
2008-04-22,34.0038
2008-04-23,34.4622
2008-04-24,34.8038
2008-04-25,34.9386
2008-04-28,35.1004
2008-04-29,34.8937
2008-04-30,33.7701
2008-05-01,34.4083
2008-05-02,35.0375
2008-05-05,34.8128
2008-05-06,34.7948
2008-05-07,33.5813
2008-05-08,34.0667
2008-05-09,33.9139
2008-05-12,34.1296
2008-05-13,34.0128
2008-05-14,34.2195
2008-05-15,34.3274
2008-05-16,34.4622
2008-05-19,34.606
2008-05-20,33.9858
2008-05-21,33.4825
2008-05-22,33.4735
2008-05-23,33.2218
2008-05-27,33.833
2008-05-28,34.5072
2008-05-29,35.9903
2008-05-30,36.7004
2008-06-02,36.5925
2008-06-03,36.6015
2008-06-04,36.3049
2008-06-05,36.8981
2008-06-06,35.9274
2008-06-09,35.2173
2008-06-10,35.4869
2008-06-11,34.669
2008-06-12,34.8487
2008-06-13,35.2083
2008-06-16,35.5678
2008-06-17,35.2622
2008-06-18,34.8307
2008-06-19,35.6937
2008-06-20,35.1364
2008-06-23,35.0285
2008-06-24,34.4442
2008-06-25,35.4959
2008-06-26,34.8218
2008-06-27,37.0869
2008-06-30,36.5925
2008-07-01,36.2779
2008-07-02,36.3229
2008-07-03,36.0442
2008-07-07,35.9184
2008-07-08,36.8352
2008-07-09,35.9543
2008-07-10,35.9363
2008-07-11,35.0465
2008-07-14,35.3251
2008-07-15,34.8397
2008-07-16,35.1364
2008-07-17,35.5229
2008-07-18,35.451
2008-07-21,35.5858
2008-07-22,36.1071
2008-07-23,36.5566
2008-07-24,36.0981
2008-07-25,36.5296
2008-07-28,35.8554
2008-07-29,37.1678
2008-07-30,37.6711
2008-07-31,37.5813
2008-08-01,37.3745
2008-08-04,37.2127
2008-08-05,37.1228
2008-08-06,37.1138
2008-08-07,37.4554
2008-08-08,37.5453
2008-08-11,37.4464
2008-08-12,36.9071
2008-08-13,36.6554
2008-08-14,36.8082
2008-08-15,36.8262
2008-08-18,36.6734
2008-08-19,36.2599
2008-08-20,36.1611
2008-08-21,35.9993
2008-08-22,36.3768
2008-08-25,35.2352
2008-08-26,35.6487
2008-08-27,36.5296
2008-08-28,37.2307
2008-08-29,37.2217
2008-09-02,37.788
2008-09-03,35.9543
2008-09-04,35.0195
2008-09-05,35.0734
2008-09-08,35.6128
2008-09-09,34.5251
2008-09-10,34.3454
2008-09-11,32.8982
2008-09-12,33.096
2008-09-15,32.5926
2008-09-16,32.8712
2008-09-17,31.6308
2008-09-18,32.4128
2008-09-19,34.9925
2008-09-22,33.4195
2008-09-23,33.4195
2008-09-24,32.7814
2008-09-25,33.5364
2008-09-26,35.5948
2008-09-29,34.2645
2008-09-30,34.0757
2008-10-01,33.3746
2008-10-02,32.7634
2008-10-03,31.7477
2008-10-06,30.1567
2008-10-07,28.5477
2008-10-08,29.2577
2008-10-09,27.6779
2008-10-10,26.783
2008-10-13,30.7918
2008-10-14,30.527
2008-10-15,28.3902
2008-10-16,28.0889
2008-10-17,28.6185
2008-10-20,29.139
2008-10-21,28.308
2008-10-22,27.3583
2008-10-23,26.8196
2008-10-24,26.4452
2008-10-27,25.1667
2008-10-28,27.5684
2008-10-29,28.3628
2008-10-30,29.2577
2008-10-31,30.0522
2008-11-03,29.3308
2008-11-04,30.1069
2008-11-05,28.5454
2008-11-06,26.8652
2008-11-07,27.9336
2008-11-10,27.3857
2008-11-11,26.9839
2008-11-12,25.6325
2008-11-13,26.8013
2008-11-14,26.2991
2008-11-17,25.1211
2008-11-18,25.9795
2008-11-19,24.6554
2008-11-20,24.3449
2008-11-21,26.0342
2008-11-24,27.5592
2008-11-25,26.8561
2008-11-26,27.8514
2008-11-28,28.2898
2008-12-01,26.5821
2008-12-02,27.3857
2008-12-03,28.1984
2008-12-04,26.6187
2008-12-05,25.7055
2008-12-08,25.8607
2008-12-09,26.5
2008-12-10,26.0525
2008-12-11,25.1393
2008-12-12,26.0982
2008-12-15,26.5456
2008-12-16,26.9748
2008-12-17,27.751
2008-12-18,27.7236
2008-12-19,29.5408
2008-12-22,29.1755
2008-12-23,28.8924
2008-12-24,28.6276
2008-12-26,28.8194
2008-12-29,29.0659
2008-12-30,29.5956
2008-12-31,29.9791
2009-01-02,30.7096
2009-01-05,30.8375
2009-01-06,30.5087
2009-01-07,30.8101
2009-01-08,30.527
2009-01-09,30.8009
2009-01-12,30.1069
2009-01-13,31.1388
2009-01-14,29.6412
2009-01-15,29.7143
2009-01-16,29.8421
2009-01-20,29.0385
2009-01-21,30.1891
2009-01-22,28.9381
2009-01-23,28.7007
2009-01-26,29.2029
2009-01-27,29.6321
2009-01-28,30.2348
2009-01-29,29.3673
2009-01-30,28.6733
2009-02-02,29.0294
2009-02-03,30.0248
2009-02-04,30.2622
2009-02-05,29.7782
2009-02-06,30.18
2009-02-09,30.1252
2009-02-10,29.212
2009-02-11,29.1207
2009-02-12,28.7098
2009-02-13,28.2806
2009-02-17,27.6779
2009-02-18,28.3445
2009-02-19,28.1071
2009-02-20,27.3035
2009-02-23,26.3721
2009-02-24,26.71
2009-02-25,27.0296
2009-02-26,26.4543
2009-02-27,26.6552
2009-03-02,25.4133
2009-03-03,25.4498
2009-03-04,25.7603
2009-03-05,25.3402
2009-03-06,25.5503
2009-03-09,24.7376
2009-03-10,25.742
2009-03-11,26.3812
2009-03-12,27.3492
2009-03-13,27.4405
2009-03-16,27.3309
2009-03-17,27.7601
2009-03-18,28.235
2009-03-19,27.8058
2009-03-20,27.541
2009-03-23,28.8924
2009-03-24,28.5272
2009-03-25,28.8103
2009-03-26,29.2212
2009-03-27,25.3128
2009-03-30,25.4042
2009-03-31,25.1393
2009-04-01,25.2946
2009-04-02,25.2855
2009-04-03,25.5868
2009-04-06,25.7877
2009-04-07,25.2033
2009-04-08,24.975
2009-04-09,25.2581
2009-04-13,25.4772
2009-04-14,25.4407
2009-04-15,25.0206
2009-04-16,25.0572
2009-04-17,24.7923
2009-04-20,24.6097
2009-04-21,24.3632
2009-04-22,24.4362
2009-04-23,25.1119
2009-04-24,26.7648
2009-04-27,26.5
2009-04-28,26.436
2009-04-29,26.9748
2009-04-30,26.8744
2009-05-01,27.2214
2009-05-04,27.7966
2009-05-05,27.7601
2009-05-06,27.5957
2009-05-07,27.3949
2009-05-08,26.8926
2009-05-11,26.8561
2009-05-12,26.71
2009-05-13,26.3265
2009-05-14,26.4178
2009-05-15,26.3265
2009-05-18,27.4679
2009-05-19,27.3675
2009-05-20,27.6779
2009-05-21,27.2761
2009-05-22,27.7053
2009-05-26,28.2258
2009-05-27,27.7236
2009-05-28,27.3857
2009-05-29,27.2579
2009-06-01,28.6002
2009-06-02,28.4998
2009-06-03,27.6962
2009-06-04,27.5957
2009-06-05,27.888
2009-06-08,27.1574
2009-06-09,27.6779
2009-06-10,27.9793
2009-06-11,28.5911
2009-06-12,28.7463
2009-06-15,28.9381
2009-06-16,28.7737
2009-06-17,29.486
2009-06-18,29.2212
2009-06-19,28.9381
2009-06-22,28.4541
2009-06-23,28.4724
2009-06-24,28.6915
2009-06-25,29.0112
2009-06-26,30.7188
2009-06-29,30.5361
2009-06-30,30.5727
2009-07-01,30.7918
2009-07-02,30.3718
2009-07-06,30.2713
2009-07-07,29.7234
2009-07-08,29.7873
2009-07-09,29.559
2009-07-10,29.8969
2009-07-13,30.4174
2009-07-14,30.737
2009-07-15,31.0658
2009-07-16,31.3671
2009-07-17,31.4219
2009-07-20,31.3214
2009-07-21,31.2484
2009-07-22,30.8557
2009-07-23,32.0337
2009-07-24,32.3899
2009-07-27,32.0702
2009-07-28,32.1798
2009-07-29,31.915
2009-07-30,32.0794
2009-07-31,32.0428
2009-08-03,32.8464
2009-08-04,32.5634
2009-08-05,32.2894
2009-08-06,32.1068
2009-08-07,32.5634
2009-08-10,32.8282
2009-08-11,32.5086
2009-08-12,32.7369
2009-08-13,33.1478
2009-08-14,32.9469
2009-08-17,32.8282
2009-08-18,33.1569
2009-08-19,33.3669
2009-08-20,33.1934
2009-08-21,32.4081
2009-08-24,32.4812
2009-08-25,31.5589
2009-08-26,32.0246
2009-08-27,32.1068
2009-08-28,31.1936
2009-08-31,30.1891
2009-09-01,30.2896
2009-09-02,30.4448
2009-09-03,31.4128
2009-09-04,31.6593
2009-09-08,31.5132
2009-09-09,31.7324
2009-09-10,32.1068
2009-09-11,32.5634
2009-09-14,32.7003
2009-09-15,32.7095
2009-09-16,33.2391
2009-09-17,33.1021
2009-09-18,32.7642
2009-09-21,32.9012
2009-09-22,33.6957
2009-09-23,33.2847
2009-09-24,32.8738
2009-09-25,32.9743
2009-09-28,34.6636
2009-09-29,34.0153
2009-09-30,34.0883
2009-10-01,33.3761
2009-10-02,34.3075
2009-10-05,34.7001
2009-10-06,35.0198
2009-10-07,35.0745
2009-10-08,35.6864
2009-10-09,35.6224
2009-10-12,36.0608
2009-10-13,36.0334
2009-10-14,36.5833
2009-10-15,36.1458
2009-10-16,36.3599
2009-10-19,36.0806
2009-10-20,35.5407
2009-10-21,35.7548
2009-10-22,35.1032
2009-10-23,35.1684
2009-10-26,34.7774
2009-10-27,34.7774
2009-10-28,34.7402
2009-10-29,34.9915
2009-10-30,34.554
2009-11-02,35.0567
2009-11-03,35.4756
2009-11-04,35.8851
2009-11-05,36.2854
2009-11-06,36.5181
2009-11-09,37.2256
2009-11-10,36.7322
2009-11-11,36.3878
2009-11-12,36.7043
2009-11-13,36.8253
2009-11-16,37.1791
2009-11-17,37.4769
2009-11-18,37.2535
2009-11-19,37.0115
2009-11-20,37.086
2009-11-23,37.7003
2009-11-24,37.7469
2009-11-25,37.7841
2009-11-27,37.7096
2009-11-30,38.1844
2009-12-01,38.6219
2009-12-02,39.0873
2009-12-03,39.0036
2009-12-04,39.5807
2009-12-07,39.86
2009-12-08,39.8972
2009-12-09,39.3201
2009-12-10,39.7296
2009-12-11,39.1153
2009-12-14,39.0129
2009-12-15,38.5661
2009-12-16,38.9384
2009-12-17,38.7708
2009-12-18,38.473
2009-12-21,37.7748
2009-12-22,38.0448
2009-12-23,38.445
2009-12-24,38.5288
2009-12-28,38.9477
2009-12-29,38.8825
2009-12-30,38.7988
2009-12-31,38.6498
2010-01-04,39.1804
2010-01-05,39.4411
2010-01-06,39.8134
2010-01-07,39.7948
2010-01-08,39.59
2010-01-11,39.5714
2010-01-12,39.348
2010-01-13,39.7483
2010-01-14,40.102
2010-01-15,39.8507
2010-01-19,40.7536
2010-01-20,40.4557
2010-01-21,40.0741
2010-01-22,39.3107
2010-01-25,39.0129
2010-01-26,38.9384
2010-01-27,38.9849
2010-01-28,38.4264
2010-01-29,38.1658
2010-02-01,38.3426
2010-02-02,38.7243
2010-02-03,38.6871
2010-02-04,37.7841
2010-02-05,37.7469
2010-02-08,37.4118
2010-02-09,37.4676
2010-02-10,37.2721
2010-02-11,37.5235
2010-02-12,37.691
2010-02-16,37.9703
2010-02-17,37.9796
2010-02-18,38.4357
2010-02-19,38.0168
2010-02-22,37.8865
2010-02-23,37.4862
2010-02-24,37.5049
2010-02-25,37.0022
2010-02-26,37.2349
2010-03-01,37.3466
2010-03-02,37.7655
2010-03-03,37.812
2010-03-04,38.0448
2010-03-05,38.3054
2010-03-08,38.5847
2010-03-09,39.1525
2010-03-10,39.1432
2010-03-11,39.0873
2010-03-12,39.2177
2010-03-15,39.5342
2010-03-16,39.1246
2010-03-17,39.3387
2010-03-18,39.348
2010-03-19,39.1246
2010-03-22,39.5155
2010-03-23,39.4783
2010-03-24,38.9291
2010-03-25,38.6871
2010-03-26,39.4969
2010-03-29,39.3852
2010-03-30,39.3201
2010-03-31,39.0501
2010-04-01,38.9198
2010-04-05,39.0594
2010-04-06,38.6312
2010-04-07,38.6405
2010-04-08,38.9849
2010-04-09,39.8693
2010-04-12,40.0741
2010-04-13,40.102
2010-04-14,40.3882
2010-04-15,40.5854
2010-04-16,40.5197
2010-04-19,40.1723
2010-04-20,41.0456
2010-04-21,41.3085
2010-04-22,41.2522
2010-04-23,41.9189
2010-04-26,41.393
2010-04-27,40.5854
2010-04-28,40.8765
2010-04-29,41.5057
2010-04-30,40.9611
2010-05-03,41.0456
2010-05-04,40.3882
2010-05-05,39.6464
2010-05-06,38.5477
2010-05-07,37.8341
2010-05-10,38.5289
2010-05-11,38.6792
2010-05-12,38.9421
2010-05-13,38.3411
2010-05-14,36.6696
2010-05-17,37.327
2010-05-18,36.895
2010-05-19,36.8387
2010-05-20,35.7212
2010-05-21,35.8339
2010-05-24,36.0405
2010-05-25,35.6367
2010-05-26,35.1484
2010-05-27,35.9184
2010-05-28,35.2517
2010-06-01,34.4535
2010-06-02,34.5944
2010-06-03,35.5052
2010-06-04,34.6507
2010-06-07,34.3032
2010-06-08,34.2281
2010-06-09,34.2093
2010-06-10,35.355
2010-06-11,35.308
2010-06-14,35.524
2010-06-15,36.1626
2010-06-16,36.3222
2010-06-17,36.1813
2010-06-18,36.5476
2010-06-21,36.4443
2010-06-22,35.9278
2010-06-23,35.8527
2010-06-24,35.1672
2010-06-25,38.4914
2010-06-28,37.28
2010-06-29,36.3034
2010-06-30,36.294
2010-07-01,35.909
2010-07-02,35.6273
2010-07-06,36.0499
2010-07-07,36.8199
2010-07-08,36.9138
2010-07-09,36.9889
2010-07-12,37.3176
2010-07-13,37.8153
2010-07-14,37.665
2010-07-15,37.5711
2010-07-16,36.5757
2010-07-19,36.7823
2010-07-20,36.5288
2010-07-21,36.2471
2010-07-22,37.3645
2010-07-23,37.9467
2010-07-26,37.9843
2010-07-27,37.8716
2010-07-28,37.4021
2010-07-29,36.8574
2010-07-30,37.2331
2010-08-02,37.8622
2010-08-03,37.5242
2010-08-04,37.9373
2010-08-05,37.5148
2010-08-06,37.7683
2010-08-09,38.1064
2010-08-10,37.9937
2010-08-11,37.5523
2010-08-12,37.0453
2010-08-13,36.5006
2010-08-16,36.5288
2010-08-17,37.2612
2010-08-18,37.2331
2010-08-19,36.5663
2010-08-20,36.078
2010-08-23,35.6273
2010-08-24,34.923
2010-08-25,35.0545
2010-08-26,34.8573
2010-08-27,34.8948
2010-08-30,34.6883
2010-08-31,34.322
2010-09-01,35.1296
2010-09-02,35.6555
2010-09-03,36.2095
2010-09-07,36.0029
2010-09-08,35.8151
2010-09-09,35.8902
2010-09-10,36.4443
2010-09-13,36.6884
2010-09-14,36.8105
2010-09-15,37.2237
2010-09-16,37.4866
2010-09-17,38.0688
2010-09-20,39.0079
2010-09-21,39.0079
2010-09-22,39.6746
2010-09-23,39.8624
2010-09-24,39.3459
2010-09-27,39.1487
2010-09-28,39.3553
2010-09-29,39.6746
2010-09-30,39.9281
2010-10-01,41.6841
2010-10-04,41.6653
2010-10-05,42.3978
2010-10-06,42.4354
2010-10-07,43.0551
2010-10-08,42.9612
2010-10-11,42.7922
2010-10-12,42.98
2010-10-13,42.9329
2010-10-14,43.1037
2010-10-15,42.9424
2010-10-18,43.1131
2010-10-19,43.1226
2010-10-20,43.2269
2010-10-21,43.3407
2010-10-22,43.2744
2010-10-25,43.1795
2010-10-26,42.6959
2010-10-27,42.5915
2010-10-28,42.601
2010-10-29,42.4208
2010-11-01,42.6105
2010-11-02,42.639
2010-11-03,42.9614
2010-11-04,43.3313
2010-11-05,43.3313
2010-11-08,42.6295
2010-11-09,42.9235
2010-11-10,43.1131
2010-11-11,41.9466
2010-11-12,41.15
2010-11-15,41.9751
2010-11-16,41.6526
2010-11-17,41.8518
2010-11-18,42.0604
2010-11-19,41.9277
2010-11-22,41.6716
2010-11-23,41.4819
2010-11-24,41.9182
2010-11-26,41.7285
2010-11-29,41.6432
2010-11-30,41.15
2010-12-01,41.7285
2010-12-02,42.032
2010-12-03,41.9277
2010-12-06,42.013
2010-12-07,42.6579
2010-12-08,42.6769
2010-12-09,42.2406
2010-12-10,43.3313
2010-12-13,43.5115
2010-12-14,44.1753
2010-12-15,43.7391
2010-12-16,44.2512
2010-12-17,47.6748
2010-12-20,46.2048
2010-12-21,46.2048
2010-12-22,46.129
2010-12-23,45.835
2010-12-27,45.7401
2010-12-28,45.5125
2010-12-29,46.1574
2010-12-30,45.9298
2010-12-31,45.9772
2011-01-03,46.0816
2011-01-04,45.7876
2011-01-05,45.797
2011-01-06,45.9583
2011-01-07,45.9962
2011-01-10,45.6738
2011-01-11,46.2143
2011-01-12,47.3524
2011-01-13,47.286
2011-01-14,47.4093
2011-01-18,47.8171
2011-01-19,47.6274
2011-01-20,48.4809
2011-01-21,48.3861
2011-01-24,48.8318
2011-01-25,49.0215
2011-01-26,49.6664
2011-01-27,49.6949
2011-01-28,48.8129
2011-01-31,48.7939
2011-02-01,49.6949
2011-02-02,49.8371
2011-02-03,50.0552
2011-02-04,49.8276
2011-02-07,49.9414
2011-02-08,49.9604
2011-02-09,50.0173
2011-02-10,50.2544
2011-02-11,49.6095
2011-02-14,49.7423
2011-02-15,49.3724
2011-02-16,50.6622
2011-02-17,51.2407
2011-02-18,50.8708
2011-02-22,49.6664
2011-02-23,48.6327
2011-02-24,49.1543
2011-02-25,49.5147
2011-02-28,48.8034
2011-03-01,48.4809
2011-03-02,48.5189
2011-03-03,50.2639
2011-03-04,49.9225
2011-03-07,49.6759
2011-03-08,49.6
2011-03-09,49.306
2011-03-10,48.7749
2011-03-11,48.9456
2011-03-14,48.7844
2011-03-15,47.4851
2011-03-16,46.4514
2011-03-17,46.4799
2011-03-18,47.6084
2011-03-21,47.7602
2011-03-22,47.7886
2011-03-23,48.0731
2011-03-24,49.306
2011-03-25,51.5252
2011-03-28,50.8329
2011-03-29,51.4683
2011-03-30,51.9994
2011-03-31,52.1417
2011-04-01,52.0279
2011-04-04,52.2365
2011-04-05,52.0658
2011-04-06,51.8572
2011-04-07,51.971
2011-04-08,52.227
2011-04-11,53.0995
2011-04-12,52.9668
2011-04-13,54.0377
2011-04-14,53.0816
2011-04-15,52.2689
2011-04-18,52.1064
2011-04-19,52.9477
2011-04-20,53.5787
2011-04-21,54.2862
2011-04-25,54.0759
2011-04-26,54.2384
2011-04-27,54.401
2011-04-28,54.4583
2011-04-29,54.6017
2011-05-02,55.5196
2011-05-03,53.5118
2011-05-04,53.4449
2011-05-05,52.5079
2011-05-06,52.7183
2011-05-09,53.3015
2011-05-10,54.4392
2011-05-11,53.8369
2011-05-12,54.0855
2011-05-13,53.311
2011-05-16,53.6935
2011-05-17,54.2002
2011-05-18,54.401
2011-05-19,54.4488
2011-05-20,54.9459
2011-05-23,53.9134
2011-05-24,53.9421
2011-05-25,54.1141
2011-05-26,54.5157
2011-05-27,54.4201
2011-05-31,54.8599
2011-06-01,54.5061
2011-06-02,54.2862
2011-06-03,53.3875
2011-06-06,53.3015
2011-06-07,53.8082
2011-06-08,53.311
2011-06-09,53.8369
2011-06-10,53.072
2011-06-13,53.4736
2011-06-14,54.5922
2011-06-15,53.0051
2011-06-16,51.5997
2011-06-17,51.5997
2011-06-20,51.5901
2011-06-21,52.3741
2011-06-22,52.8234
2011-06-23,53.2346
2011-06-24,54.4679
2011-06-27,55.2614
2011-06-28,56.9919
2011-06-29,57.2979
2011-06-30,57.7664
2011-07-01,58.187
2011-07-05,58.8754
2011-07-06,59.4013
2011-07-07,60.6251
2011-07-08,60.5772
2011-07-11,58.7703
2011-07-12,58.3783
2011-07-13,58.0245
2011-07-14,58.1584
2011-07-15,57.9863
2011-07-18,57.317
2011-07-19,58.8563
2011-07-20,58.7033
2011-07-21,59.0188
2011-07-22,58.5695
2011-07-25,58.493
2011-07-26,58.6555
2011-07-27,57.164
2011-07-28,57.0398
2011-07-29,56.5904
2011-08-01,56.3705
2011-08-02,55.4718
2011-08-03,57.0206
2011-08-04,54.5157
2011-08-05,54.7834
2011-08-08,50.8635
2011-08-09,52.2115
2011-08-10,49.4102
2011-08-11,51.5997
2011-08-12,52.2307
2011-08-15,52.9382
2011-08-16,52.3741
2011-08-17,52.0395
2011-08-18,46.7523
2011-08-19,45.3469
2011-08-22,46.3316
2011-08-23,48.2151
2011-08-24,48.741
2011-08-25,48.4924
2011-08-26,49.3051
2011-08-29,50.6627
2011-08-30,51.7048
2011-08-31,51.0929
2011-09-01,50.5288
2011-09-02,49.2095
2011-09-06,48.5593
2011-09-07,49.8978
2011-09-08,49.8405
2011-09-09,47.7084
2011-09-12,47.7945
2011-09-13,48.674
2011-09-14,49.0756
2011-09-15,50.7009
2011-09-16,52.5844
2011-09-19,52.202
2011-09-20,52.0395
2011-09-21,51.0643
2011-09-22,48.2247
2011-09-23,48.1769
2011-09-26,49.6875
2011-09-27,51.1981
2011-09-28,51.5232
2011-09-29,51.9534
2011-09-30,50.4332
2011-10-03,49.3911
2011-10-04,51.9056
2011-10-05,52.4314
2011-10-06,52.8808
2011-10-07,53.4449
2011-10-10,54.8121
2011-10-11,54.4966
2011-10-12,55.5752
2011-10-13,55.2946
2011-10-14,56.8426
2011-10-17,55.788
2011-10-18,55.5461
2011-10-19,55.4977
2011-10-20,55.2559
2011-10-21,56.0976
2011-10-24,56.4653
2011-10-25,56.117
2011-10-26,56.3395
2011-10-27,59.155
2011-10-28,59.7452
2011-10-31,58.3229
2011-11-01,55.5848
2011-11-02,56.5911
2011-11-03,57.3167
2011-11-04,56.2718
2011-11-07,56.0783
2011-11-08,56.9878
2011-11-09,54.9172
2011-11-10,55.1301
2011-11-11,57.0265
2011-11-14,55.6235
2011-11-15,56.1073
2011-11-16,55.0624
2011-11-17,53.6885
2011-11-18,53.3305
2011-11-21,53.3401
2011-11-22,53.0209
2011-11-23,51.9372
2011-11-25,52.0243
2011-11-28,53.4466
2011-11-29,53.7755
2011-11-30,56.0783
2011-12-01,56.0783
2011-12-02,56.6007
2011-12-05,57.2393
2011-12-06,57.2103
2011-12-07,56.6685
2011-12-08,54.7721
2011-12-09,56.8813
2011-12-12,56.3589
2011-12-13,56.0202
2011-12-14,54.269
2011-12-15,54.298
2011-12-16,52.4887
2011-12-19,51.7824
2011-12-20,52.4694
2011-12-21,50.3505
2011-12-22,50.902
2011-12-23,51.1535
2011-12-27,51.2406
2011-12-28,51.0955
2011-12-29,52.092
2011-12-30,51.5309
2012-01-03,51.2212
2012-01-04,51.2406
2012-01-05,50.2537
2012-01-06,50.0892
2012-01-09,50.0312
2012-01-10,50.9407
2012-01-11,51.9469
2012-01-12,52.1985
2012-01-13,51.4728
2012-01-17,51.7727
2012-01-18,53.224
2012-01-19,53.0112
2012-01-20,53.9594
2012-01-23,54.656
2012-01-24,54.7044
2012-01-25,55.3333
2012-01-26,55.0333
2012-01-27,54.6463
2012-01-30,55.1978
2012-01-31,55.4977
2012-02-01,56.5137
2012-02-02,55.9525
2012-02-03,56.4363
2012-02-06,55.817
2012-02-07,56.0976
2012-02-08,55.2172
2012-02-09,55.5461
2012-02-10,55.014
2012-02-13,55.5171
2012-02-14,55.5848
2012-02-15,55.9718
2012-02-16,56.5717
2012-02-17,56.562
2012-02-21,56.2234
2012-02-22,56.6007
2012-02-23,57.5102
2012-02-24,57.6941
2012-02-27,57.7908
2012-02-28,57.8102
2012-02-29,57.6457
2012-03-01,57.7231
2012-03-02,57.6747
2012-03-05,58.9518
2012-03-06,57.5779
2012-03-07,57.6747
2012-03-08,58.3326
2012-03-09,58.8744
2012-03-12,59.1647
2012-03-13,60.3548
2012-03-14,60.5773
2012-03-15,61.6029
2012-03-16,61.4965
2012-03-19,61.3417
2012-03-20,60.9933
2012-03-21,61.6416
2012-03-22,61.4965
2012-03-23,62.793
2012-03-26,63.7121
2012-03-27,63.2961
2012-03-28,62.3672
2012-03-29,62.435
2012-03-30,62.435
2012-04-02,63.2864
2012-04-03,62.8704
2012-04-04,62.3576
2012-04-05,62.6672
2012-04-09,61.6706
2012-04-10,61.1385
2012-04-11,62.2
2012-04-12,62.7184
2012-04-13,61.0851
2012-04-16,60.557
2012-04-17,62.8064
2012-04-18,62.1707
2012-04-19,61.6328
2012-04-20,61.9849
2012-04-23,61.711
2012-04-24,61.4274
2012-04-25,62.6206
2012-04-26,62.8553
2012-04-27,63.5888
2012-04-30,63.4714
2012-05-01,63.5888
2012-05-02,63.6866
2012-05-03,62.8455
2012-05-04,61.3003
2012-05-07,58.9629
2012-05-08,58.0925
2012-05-09,57.9653
2012-05-10,57.3883
2012-05-11,57.3492
2012-05-14,57.5057
2012-05-15,57.6719
2012-05-16,57.8578
2012-05-17,57.1634
2012-05-18,56.3321
2012-05-21,57.7991
2012-05-22,57.5448
2012-05-23,57.6133
2012-05-24,56.6255
2012-05-25,56.1658
2012-05-29,57.1145
2012-05-30,56.4592
2012-05-31,55.8529
2012-06-01,54.1316
2012-06-04,54.9238
2012-06-05,55.5106
2012-06-06,57.0656
2012-06-07,57.5839
2012-06-08,57.1634
2012-06-11,55.9898
2012-06-12,56.1365
2012-06-13,55.6475
2012-06-14,56.5473
2012-06-15,57.8186
2012-06-18,57.623
2012-06-19,58.513
2012-06-20,58.2587
2012-06-21,55.3639
2012-06-22,56.3125
2012-06-25,55.2563
2012-06-26,55.2954
2012-06-27,54.6108
2012-06-28,55.3932
2012-06-29,58.6401
2012-07-02,59.1389
2012-07-03,59.4128
2012-07-05,58.9531
2012-07-06,57.1829
2012-07-09,56.5766
2012-07-10,55.7649
2012-07-11,55.9311
2012-07-12,55.9898
2012-07-13,56.7918
2012-07-16,56.7429
2012-07-17,56.9874
2012-07-18,57.6328
2012-07-19,58.0827
2012-07-20,57.6622
2012-07-23,56.4886
2012-07-24,56.0387
2012-07-25,56.3419
2012-07-26,57.9458
2012-07-27,59.1096
2012-07-30,59.0411
2012-07-31,59.0313
2012-08-01,58.8553
2012-08-02,57.7111
2012-08-03,59.002
2012-08-06,59.2954
2012-08-07,59.6475
2012-08-08,60.3614
2012-08-09,60.1365
2012-08-10,60.2734
2012-08-13,60.0876
2012-08-14,59.8822
2012-08-15,59.5008
2012-08-16,59.804
2012-08-17,59.7257
2012-08-20,59.4225
2012-08-21,59.6084
2012-08-22,60.2343
2012-08-23,59.4617
2012-08-24,60.156
2012-08-27,59.8626
2012-08-28,59.5203
2012-08-29,59.6964
2012-08-30,59.804
2012-08-31,60.381
2012-09-04,59.7355
2012-09-05,60.0289
2012-09-06,62.4347
2012-09-07,62.9922
2012-09-10,62.5912
2012-09-11,63.4812
2012-09-12,63.7648
2012-09-13,64.2831
2012-09-14,64.3809
2012-09-17,64.1071
2012-09-18,63.8626
2012-09-19,63.9897
2012-09-20,63.6866
2012-09-21,63.843
2012-09-24,64.3418
2012-09-25,63.5399
2012-09-26,62.9726
2012-09-27,63.8822
2012-09-28,68.5569
2012-10-01,68.4298
2012-10-02,68.6547
2012-10-03,68.9579
2012-10-04,69.8479
2012-10-05,69.1633
2012-10-08,69.4665
2012-10-09,68.8406
2012-10-10,68.791
2012-10-11,68.7217
2012-10-12,68.6921
2012-10-15,69.4737
2012-10-16,69.998
2012-10-17,69.0087
2012-10-18,68.1875
2012-10-19,67.0497
2012-10-22,67.1091
2012-10-23,66.3275
2012-10-24,65.5953
2012-10-25,65.9614
2012-10-26,66.3967
2012-10-31,66.7034
2012-11-01,68.1083
2012-11-02,67.1684
2012-11-05,67.1387
2012-11-06,67.9797
2012-11-07,66.001
2012-11-08,65.3777
2012-11-09,65.0116
2012-11-12,65.902
2012-11-13,65.5558
2012-11-14,64.2498
2012-11-15,63.9728
2012-11-16,65.5755
2012-11-19,66.2483
2012-11-20,65.8625
2012-11-21,66.832
2012-11-23,66.8419
2012-11-26,66.9409
2012-11-27,66.6342
2012-11-28,67.2872
2012-11-29,67.6136
2012-11-30,67.2872
2012-12-03,67.0497
2012-12-04,67.9303
2012-12-05,68.7613
2012-12-06,68.9988
2012-12-07,68.6921
2012-12-10,68.7514
2012-12-11,70.0574
2012-12-12,69.6419
2012-12-13,68.7811
2012-12-14,69.3747
2012-12-17,70.5026
2012-12-18,70.3443
2012-12-19,69.7408
2012-12-20,68.2567
2012-12-21,66.6935
2012-12-24,66.0801
2012-12-26,65.6448
2012-12-27,65.5162
2012-12-28,65.0413
2012-12-31,65.6547
2013-01-02,68.2468
2013-01-03,67.9797
2013-01-04,68.4249
2013-01-07,68.1875
2013-01-08,68.5437
2013-01-09,68.9988
2013-01-10,68.4051
2013-01-11,69.1076
2013-01-14,69.0284
2013-01-15,69.5627
2013-01-16,69.1076
2013-01-17,69.1966
2013-01-18,69.3253
2013-01-22,69.6419
2013-01-23,70.4927
2013-01-24,70.5719
2013-01-25,71.3238
2013-01-28,71.4029
2013-01-29,70.9577
2013-01-30,71.5118
2013-01-31,71.1457
2013-02-01,73.0255
2013-02-04,72.0559
2013-02-05,72.6001
2013-02-06,71.6503
2013-02-07,72.1549
2013-02-08,72.4319
2013-02-11,72.3231
2013-02-12,72.5506
2013-02-13,72.8039
2013-02-14,72.3329
2013-02-15,73.3223
2013-02-19,74.5294
2013-02-20,74.2226
2013-02-21,73.0651
2013-02-22,73.9456
2013-02-25,73.2085
2013-02-26,73.0651
2013-02-27,73.5944
2013-02-28,73.5697
2013-03-01,73.9555
2013-03-04,74.3908
2013-03-05,76.0233
2013-03-06,76.5675
2013-03-07,76.795
2013-03-08,77.4579
2013-03-11,77.448
2013-03-12,77.1908
2013-03-13,77.1017
2013-03-14,77.4084
2013-03-15,75.8848
2013-03-18,75.9837
2013-03-19,75.3802
2013-03-20,75.677
2013-03-21,73.5004
2013-03-22,73.0156
2013-03-25,72.699
2013-03-26,73.728
2013-03-27,74.1336
2013-03-28,75.212
2013-04-01,75.0438
2013-04-02,75.865
2013-04-03,75.8155
2013-04-04,75.7957
2013-04-05,75.4396
2013-04-08,75.677
2013-04-09,75.4297
2013-04-10,76.97
2013-04-11,77.8
2013-04-12,77.19
2013-04-15,75.32
2013-04-16,77.56
2013-04-17,76.76
2013-04-18,75.53
2013-04-19,74.74
2013-04-22,74.9
2013-04-23,76.31
2013-04-24,77.76
2013-04-25,79.28
2013-04-26,78.7
2013-04-29,81.12
2013-04-30,81.33
2013-05-01,79.8
2013-05-02,79.5
2013-05-03,79.5
2013-05-06,78.8
2013-05-07,78.96
2013-05-08,79.97
2013-05-09,80.02
2013-05-10,80.45
2013-05-13,79.92
2013-05-14,80.49
2013-05-15,80.8
2013-05-16,80.69
2013-05-17,82.2
2013-05-20,82.44
2013-05-21,82.91
2013-05-22,82.55
2013-05-23,82.54
2013-05-24,82.2
2013-05-28,83.115
2013-05-29,83.06
2013-05-30,82.89
2013-05-31,82.29
2013-06-03,82.11
2013-06-04,81.24
2013-06-05,79.55
2013-06-06,79.59
2013-06-07,80.94
2013-06-10,81.49
2013-06-11,80.4
2013-06-12,79.74
2013-06-13,81.06
2013-06-14,80.59
2013-06-17,82.44
2013-06-18,82.94
2013-06-19,81.91
2013-06-20,79.57
2013-06-21,79.38
2013-06-24,79.25
2013-06-25,79.73
2013-06-26,79.54
2013-06-27,80.22
2013-06-28,71.99
2013-07-01,72.1
2013-07-02,72.08
2013-07-03,72.51
2013-07-05,73.63
2013-07-08,74.49
2013-07-09,74.11
2013-07-10,74.35
2013-07-11,75.25
2013-07-12,75.48
2013-07-15,76.19
2013-07-16,75.28
2013-07-17,75.18
2013-07-18,75.44
2013-07-19,75.21
2013-07-22,74.99
2013-07-23,74.27
2013-07-24,73.73
2013-07-25,73.09
2013-07-26,73.07
2013-07-29,72.37
2013-07-30,73.76
2013-07-31,73.79
2013-08-01,74.84
2013-08-02,74.62
2013-08-05,74.18
2013-08-06,73.21
2013-08-07,73.03
2013-08-08,73.04
2013-08-09,73.53
