date,close_price
1998-01-02,9.595
1998-01-05,9.625
1998-01-06,9.97
1998-01-07,9.565
1998-01-08,9.47
1998-01-09,9.03
1998-01-12,8.875
1998-01-13,9.565
1998-01-14,9.25
1998-01-15,9.095
1998-01-16,8.875
1998-01-20,9.28
1998-01-21,9.25
1998-01-22,9.125
1998-01-23,9.065
1998-01-26,9.405
1998-01-27,9.405
1998-01-28,9.595
1998-01-29,9.875
1998-01-30,10.03
1998-02-02,10.0
1998-02-03,10.03
1998-02-04,9.97
1998-02-05,9.5
1998-02-06,9.22
1998-02-09,9.53
1998-02-10,9.69
1998-02-11,9.595
1998-02-12,9.47
1998-02-13,9.44
1998-02-17,9.47
1998-02-18,9.53
1998-02-19,9.69
1998-02-20,9.875
1998-02-23,10.25
1998-02-24,10.375
1998-02-25,10.815
1998-02-26,12.47
1998-02-27,11.75
1998-03-02,11.065
1998-03-03,11.405
1998-03-04,11.095
1998-03-05,10.53
1998-03-06,10.97
1998-03-09,10.315
1998-03-10,10.78
1998-03-11,10.69
1998-03-12,11.0
1998-03-13,10.94
1998-03-16,11.47
1998-03-17,11.28
1998-03-18,11.19
1998-03-19,11.905
1998-03-20,11.25
1998-03-23,11.405
1998-03-24,11.53
1998-03-25,11.47
1998-03-26,11.69
1998-03-27,12.345
1998-03-30,13.315
1998-03-31,14.595
1998-04-01,15.0
1998-04-02,14.78
1998-04-03,14.315
1998-04-06,15.19
1998-04-07,14.53
1998-04-08,13.655
1998-04-09,13.345
1998-04-13,12.655
1998-04-14,13.0
1998-04-15,13.125
1998-04-16,12.94
1998-04-17,13.595
1998-04-20,13.75
1998-04-21,13.905
1998-04-22,14.345
1998-04-23,14.69
1998-04-24,14.5
1998-04-27,14.095
1998-04-28,13.75
1998-04-29,13.94
1998-04-30,13.875
1998-05-01,13.78
1998-05-04,13.345
1998-05-05,12.845
1998-05-06,12.75
1998-05-07,12.625
1998-05-08,12.94
1998-05-11,12.69
1998-05-12,13.0
1998-05-13,12.97
1998-05-14,12.595
1998-05-15,11.19
1998-05-18,11.065
1998-05-19,11.125
1998-05-20,10.405
1998-05-21,10.095
1998-05-22,10.0
1998-05-26,9.97
1998-05-27,9.94
1998-05-28,10.065
1998-05-29,9.78
1998-06-01,9.595
1998-06-02,9.345
1998-06-03,9.0
1998-06-04,9.155
1998-06-05,9.125
1998-06-08,9.095
1998-06-09,9.315
1998-06-10,8.78
1998-06-11,8.78
1998-06-12,8.44
1998-06-15,8.53
1998-06-16,8.875
1998-06-17,8.815
1998-06-18,8.905
1998-06-19,8.75
1998-06-22,9.095
1998-06-23,9.0
1998-06-24,9.065
1998-06-25,9.0
1998-06-26,8.845
1998-06-29,8.69
1998-06-30,8.5
1998-07-01,8.375
1998-07-02,8.375
1998-07-06,8.25
1998-07-07,9.0
1998-07-08,9.065
1998-07-09,7.94
1998-07-10,7.78
1998-07-13,7.69
1998-07-14,8.125
1998-07-15,8.69
1998-07-16,8.375
1998-07-17,8.28
1998-07-20,8.69
1998-07-21,8.845
1998-07-22,8.28
1998-07-23,8.125
1998-07-24,8.095
1998-07-27,8.095
1998-07-28,8.22
1998-07-29,7.905
1998-07-30,8.53
1998-07-31,8.69
1998-08-03,8.405
1998-08-04,8.065
1998-08-05,7.94
1998-08-06,8.315
1998-08-07,9.0
1998-08-10,9.0
1998-08-11,8.97
1998-08-12,9.25
1998-08-13,8.97
1998-08-14,9.095
1998-08-17,9.375
1998-08-18,9.97
1998-08-19,9.405
1998-08-20,8.875
1998-08-21,8.815
1998-08-24,8.655
1998-08-25,8.78
1998-08-26,8.53
1998-08-27,7.625
1998-08-28,7.625
1998-08-31,6.595
1998-09-01,7.19
1998-09-02,7.375
1998-09-03,7.03
1998-09-04,7.095
1998-09-08,7.595
1998-09-09,8.125
1998-09-10,8.095
1998-09-11,8.565
1998-09-14,8.375
1998-09-15,8.47
1998-09-16,8.315
1998-09-17,8.875
1998-09-18,8.97
1998-09-21,8.97
1998-09-22,9.345
1998-09-23,10.405
1998-09-24,9.94
1998-09-25,10.155
1998-09-28,9.75
1998-09-29,9.405
1998-09-30,9.28
1998-10-01,8.78
1998-10-02,9.375
1998-10-05,9.19
1998-10-06,9.75
1998-10-07,7.845
1998-10-08,7.03
1998-10-09,7.625
1998-10-12,8.03
1998-10-13,7.815
1998-10-14,8.065
1998-10-15,8.405
1998-10-16,8.625
1998-10-19,8.44
1998-10-20,8.565
1998-10-21,8.625
1998-10-22,8.5
1998-10-23,8.75
1998-10-26,8.72
1998-10-27,8.69
1998-10-28,9.405
1998-10-29,9.97
1998-10-30,11.345
1998-11-02,11.53
1998-11-03,11.625
1998-11-04,12.565
1998-11-05,12.315
1998-11-06,12.19
1998-11-09,12.5
1998-11-10,12.875
1998-11-11,13.53
1998-11-12,13.845
1998-11-13,13.405
1998-11-16,13.845
1998-11-17,13.53
1998-11-18,13.875
1998-11-19,14.315
1998-11-20,13.78
1998-11-23,13.315
1998-11-24,13.25
1998-11-25,14.595
1998-11-27,14.595
1998-11-30,13.875
1998-12-01,14.565
1998-12-02,14.315
1998-12-03,14.72
1998-12-04,15.72
1998-12-07,15.78
1998-12-08,16.03
1998-12-09,15.47
1998-12-10,14.875
1998-12-11,15.125
1998-12-14,14.28
1998-12-15,14.345
1998-12-16,13.69
1998-12-17,13.845
1998-12-18,14.065
1998-12-21,14.5
1998-12-22,14.315
1998-12-23,13.905
1998-12-24,14.0
1998-12-28,13.625
1998-12-29,13.69
1998-12-30,14.53
1998-12-31,14.625
1999-01-04,14.0
1999-01-05,13.815
1999-01-06,13.72
1999-01-07,13.655
1999-01-08,14.0
1999-01-11,15.875
1999-01-12,15.625
1999-01-13,15.875
1999-01-14,11.22
1999-01-15,11.065
1999-01-19,11.065
1999-01-20,10.44
1999-01-21,10.53
1999-01-22,10.78
1999-01-25,10.75
1999-01-26,11.065
1999-01-27,10.625
1999-01-28,11.315
1999-01-29,11.47
1999-02-01,12.405
1999-02-02,12.155
1999-02-03,10.405
1999-02-04,9.47
1999-02-05,8.44
1999-02-08,8.53
1999-02-09,8.375
1999-02-10,8.345
1999-02-11,8.595
1999-02-12,8.815
1999-02-16,8.565
1999-02-17,8.47
1999-02-18,8.565
1999-02-19,8.655
1999-02-22,9.595
1999-02-23,9.345
1999-02-24,9.25
1999-02-25,9.065
1999-02-26,8.97
1999-03-01,9.125
1999-03-02,9.19
1999-03-03,9.095
1999-03-04,9.125
1999-03-05,9.25
1999-03-08,9.44
1999-03-09,8.72
1999-03-10,8.625
1999-03-11,8.44
1999-03-12,8.155
1999-03-15,8.125
1999-03-16,8.47
1999-03-17,8.44
1999-03-18,8.25
1999-03-19,8.065
1999-03-22,8.03
1999-03-23,7.815
1999-03-24,7.815
1999-03-25,8.065
1999-03-26,8.0
1999-03-29,7.905
1999-03-30,7.875
1999-03-31,7.75
1999-04-01,7.75
1999-04-05,7.875
1999-04-06,7.875
1999-04-07,8.065
1999-04-08,7.69
1999-04-09,7.78
1999-04-12,7.53
1999-04-13,7.53
1999-04-14,7.345
1999-04-15,8.19
1999-04-16,8.155
1999-04-19,7.97
1999-04-20,7.97
1999-04-21,8.405
1999-04-22,8.47
1999-04-23,8.565
1999-04-26,8.345
1999-04-27,8.345
1999-04-28,8.19
1999-04-29,8.28
1999-04-30,8.25
1999-05-03,8.25
1999-05-04,8.315
1999-05-05,8.655
1999-05-06,8.72
1999-05-07,8.815
1999-05-10,9.375
1999-05-11,9.69
1999-05-12,9.72
1999-05-13,9.19
1999-05-14,9.44
1999-05-17,9.44
1999-05-18,9.625
1999-05-19,10.69
1999-05-20,10.19
1999-05-21,10.155
1999-05-24,9.565
1999-05-25,9.22
1999-05-26,9.595
1999-05-27,9.44
1999-05-28,9.22
1999-06-01,9.315
1999-06-02,9.19
1999-06-03,8.94
1999-06-04,8.97
1999-06-07,8.905
1999-06-08,8.815
1999-06-09,8.69
1999-06-10,8.69
1999-06-11,8.375
1999-06-14,8.405
1999-06-15,9.155
1999-06-16,9.095
1999-06-17,9.19
1999-06-18,9.375
1999-06-21,9.595
1999-06-22,9.655
1999-06-23,9.125
1999-06-24,8.565
1999-06-25,8.595
1999-06-28,8.595
1999-06-29,9.065
1999-06-30,8.94
1999-07-01,8.69
1999-07-02,8.625
1999-07-06,8.53
1999-07-07,8.405
1999-07-08,8.69
1999-07-09,8.5
1999-07-12,8.69
1999-07-13,8.53
1999-07-14,9.22
1999-07-15,8.815
1999-07-16,8.75
1999-07-19,8.625
1999-07-20,8.345
1999-07-21,8.47
1999-07-22,8.19
1999-07-23,8.065
1999-07-26,8.125
1999-07-27,8.28
1999-07-28,8.375
1999-07-29,8.655
1999-07-30,8.595
1999-08-02,8.5
1999-08-03,8.315
1999-08-04,8.125
1999-08-05,8.065
1999-08-06,8.75
1999-08-09,9.565
1999-08-10,9.25
1999-08-11,9.47
1999-08-12,9.25
1999-08-13,9.47
1999-08-16,9.375
1999-08-17,9.315
1999-08-18,9.28
1999-08-19,9.065
1999-08-20,9.03
1999-08-23,9.565
1999-08-24,9.345
1999-08-25,9.5
1999-08-26,9.405
1999-08-27,9.875
1999-08-30,10.22
1999-08-31,10.345
1999-09-01,9.94
1999-09-02,9.875
1999-09-03,10.47
1999-09-07,11.69
1999-09-08,10.78
1999-09-09,11.065
1999-09-10,10.845
1999-09-13,10.565
1999-09-14,10.905
1999-09-15,10.53
1999-09-16,9.94
1999-09-17,10.19
1999-09-20,9.655
1999-09-21,9.22
1999-09-22,9.47
1999-09-23,8.625
1999-09-24,8.655
1999-09-27,9.03
1999-09-28,8.595
1999-09-29,8.72
1999-09-30,8.595
1999-10-01,8.655
1999-10-04,8.94
1999-10-05,9.28
1999-10-06,9.625
1999-10-07,9.375
1999-10-08,9.25
1999-10-11,9.5
1999-10-12,9.345
1999-10-13,9.125
1999-10-14,9.0
1999-10-15,8.78
1999-10-18,8.565
1999-10-19,8.22
1999-10-20,8.565
1999-10-21,9.44
1999-10-22,9.345
1999-10-25,9.5
1999-10-26,9.53
1999-10-27,9.25
1999-10-28,9.565
1999-10-29,9.875
1999-11-01,10.155
1999-11-02,10.28
1999-11-03,10.655
1999-11-04,10.28
1999-11-05,10.625
1999-11-08,10.72
1999-11-09,10.53
1999-11-10,11.315
1999-11-11,14.0
1999-11-12,13.345
1999-11-15,12.78
1999-11-16,12.875
1999-11-17,13.44
1999-11-18,13.03
1999-11-19,13.53
1999-11-22,13.47
1999-11-23,13.44
1999-11-24,13.565
1999-11-26,13.845
1999-11-29,14.625
1999-11-30,14.125
1999-12-01,13.94
1999-12-02,14.53
1999-12-03,15.47
1999-12-06,15.655
1999-12-07,15.815
1999-12-08,15.155
1999-12-09,14.69
1999-12-10,14.625
1999-12-13,14.78
1999-12-14,13.845
1999-12-15,13.53
1999-12-16,14.625
1999-12-17,14.375
1999-12-20,14.595
1999-12-21,15.03
1999-12-22,14.44
1999-12-23,14.25
1999-12-27,14.375
1999-12-28,14.345
1999-12-29,14.155
1999-12-30,14.22
1999-12-31,14.47
2000-01-03,15.5
2000-01-04,14.625
2000-01-05,15.03
2000-01-06,15.375
2000-01-07,16.315
2000-01-10,17.565
2000-01-11,17.03
2000-01-12,18.155
2000-01-13,17.75
2000-01-14,20.155
2000-01-18,19.47
2000-01-19,19.75
2000-01-20,19.065
2000-01-21,18.315
2000-01-24,17.0
2000-01-25,19.625
2000-01-26,18.53
2000-01-27,18.5
2000-01-28,17.53
2000-01-31,18.065
2000-02-01,18.25
2000-02-02,17.97
2000-02-03,19.565
2000-02-04,19.315
2000-02-07,20.405
2000-02-08,20.72
2000-02-09,21.065
2000-02-10,21.155
2000-02-11,22.375
2000-02-14,21.5
2000-02-15,21.905
2000-02-16,21.94
2000-02-17,21.375
2000-02-18,20.125
2000-02-22,20.75
2000-02-23,20.565
2000-02-24,21.25
2000-02-25,20.095
2000-02-28,19.155
2000-02-29,19.565
2000-03-01,20.125
2000-03-02,19.625
2000-03-03,20.97
2000-03-06,23.69
2000-03-07,26.44
2000-03-08,26.065
2000-03-09,28.375
2000-03-10,26.47
2000-03-13,25.655
2000-03-14,24.375
2000-03-15,24.095
2000-03-16,24.595
2000-03-17,25.065
2000-03-20,25.78
2000-03-21,27.25
2000-03-22,28.22
2000-03-23,27.625
2000-03-24,26.94
2000-03-27,27.125
2000-03-28,27.78
2000-03-29,26.405
2000-03-30,29.75
2000-03-31,28.625
2000-04-03,30.5
2000-04-04,30.625
2000-04-05,33.97
2000-04-06,35.565
2000-04-07,37.22
2000-04-10,37.03
2000-04-11,34.125
2000-04-12,32.0
2000-04-13,35.19
2000-04-14,33.47
2000-04-17,35.75
2000-04-18,39.25
2000-04-19,37.5
2000-04-20,39.375
2000-04-24,40.065
2000-04-25,43.315
2000-04-26,41.0
2000-04-27,42.22
2000-04-28,43.905
2000-05-01,44.22
2000-05-02,44.875
2000-05-03,43.565
2000-05-04,45.22
2000-05-05,46.19
2000-05-08,44.22
2000-05-09,41.595
2000-05-10,40.0
2000-05-11,43.53
2000-05-12,42.815
2000-05-15,42.47
2000-05-16,44.22
2000-05-17,42.75
2000-05-18,43.03
2000-05-19,41.815
2000-05-22,40.25
2000-05-23,37.97
2000-05-24,35.875
2000-05-25,35.345
2000-05-26,36.78
2000-05-30,42.44
2000-05-31,40.72
2000-06-01,41.845
2000-06-02,44.69
2000-06-05,45.345
2000-06-06,45.375
2000-06-07,43.655
2000-06-08,43.44
2000-06-09,44.25
2000-06-12,42.625
2000-06-13,43.595
2000-06-14,41.44
2000-06-15,41.125
2000-06-16,41.625
2000-06-19,45.905
2000-06-20,45.655
2000-06-21,47.28
2000-06-22,45.625
2000-06-23,43.75
2000-06-26,42.875
2000-06-27,41.72
2000-06-28,39.625
2000-06-29,37.5
2000-06-30,38.625
2000-07-03,42.125
2000-07-05,37.28
2000-07-06,38.78
2000-07-07,41.0
2000-07-10,42.0
2000-07-11,41.125
2000-07-12,41.69
2000-07-13,42.845
2000-07-14,44.69
2000-07-17,45.345
2000-07-18,44.0
2000-07-19,45.815
2000-07-20,42.69
2000-07-21,40.155
2000-07-24,38.845
2000-07-25,39.375
2000-07-26,37.565
2000-07-27,34.53
2000-07-28,35.75
2000-07-31,36.065
2000-08-01,33.47
2000-08-02,30.94
2000-08-03,32.375
2000-08-04,31.125
2000-08-07,33.125
2000-08-08,30.47
2000-08-09,30.315
2000-08-10,28.345
2000-08-11,28.69
2000-08-14,31.5
2000-08-15,31.72
2000-08-16,32.0
2000-08-17,33.875
2000-08-18,35.375
2000-08-21,34.0
2000-08-22,34.75
2000-08-23,34.63
2000-08-24,34.69
2000-08-25,34.25
2000-08-28,34.38
2000-08-29,34.5
2000-08-30,34.63
2000-08-31,37.63
2000-09-01,37.25
2000-09-05,34.56
2000-09-06,32.31
2000-09-07,32.88
2000-09-08,31.94
2000-09-11,31.88
2000-09-12,30.19
2000-09-13,28.38
2000-09-14,28.38
2000-09-15,27.75
2000-09-18,26.13
2000-09-19,30.13
2000-09-20,29.25
2000-09-21,27.5
2000-09-22,25.0
2000-09-25,25.88
2000-09-26,24.63
2000-09-27,23.94
2000-09-28,24.81
2000-09-29,23.31
2000-10-02,22.94
2000-10-03,23.69
2000-10-04,24.44
2000-10-05,23.5
2000-10-06,22.0
2000-10-09,22.38
2000-10-10,22.31
2000-10-11,21.81
2000-10-12,22.06
2000-10-13,21.88
2000-10-16,20.38
2000-10-17,18.31
2000-10-18,17.88
2000-10-19,21.88
2000-10-20,22.0
2000-10-23,21.94
2000-10-24,20.19
2000-10-25,19.13
2000-10-26,20.5
2000-10-27,20.5
2000-10-30,20.25
2000-10-31,22.69
2000-11-01,23.88
2000-11-02,23.75
2000-11-03,23.69
2000-11-06,24.25
2000-11-07,22.5
2000-11-08,21.69
2000-11-09,20.94
2000-11-10,20.06
2000-11-13,21.38
2000-11-14,21.75
2000-11-15,21.88
2000-11-16,20.5
2000-11-17,20.5
2000-11-20,20.5
2000-11-21,19.94
2000-11-22,19.56
2000-11-24,20.81
2000-11-27,19.0
2000-11-28,17.69
2000-11-29,17.0
2000-11-30,15.19
2000-12-01,15.38
2000-12-04,15.31
2000-12-05,15.75
2000-12-06,14.5
2000-12-07,14.38
2000-12-08,15.94
2000-12-11,17.25
2000-12-12,17.31
2000-12-13,16.63
2000-12-14,16.5
2000-12-15,16.19
2000-12-18,15.25
2000-12-19,15.38
2000-12-20,14.5
2000-12-21,13.56
2000-12-22,14.38
2000-12-26,14.13
2000-12-27,14.56
2000-12-28,14.31
2000-12-29,13.88
2001-01-02,14.31
2001-01-03,16.25
2001-01-04,16.69
2001-01-05,15.94
2001-01-08,16.19
2001-01-09,16.69
2001-01-10,17.19
2001-01-11,18.13
2001-01-12,17.88
2001-01-16,17.06
2001-01-17,18.56
2001-01-18,22.44
2001-01-19,22.0
2001-01-22,21.44
2001-01-23,22.38
2001-01-24,22.69
2001-01-25,21.88
2001-01-26,21.38
2001-01-29,22.95
2001-01-30,24.02
2001-01-31,24.65
2001-02-01,25.71
2001-02-02,23.95
2001-02-05,23.96
2001-02-06,24.05
2001-02-07,23.52
2001-02-08,23.96
2001-02-09,24.35
2001-02-12,23.96
2001-02-13,24.0
2001-02-14,24.78
2001-02-15,26.23
2001-02-16,24.75
2001-02-20,22.6
2001-02-21,22.97
2001-02-22,21.13
2001-02-23,21.96
2001-02-26,22.69
2001-02-27,22.0
2001-02-28,21.35
2001-03-01,20.97
2001-03-02,21.7
2001-03-05,23.12
2001-03-06,24.75
2001-03-07,24.98
2001-03-08,25.9
2001-03-09,23.5
2001-03-12,22.65
2001-03-13,23.71
2001-03-14,23.93
2001-03-15,23.55
2001-03-16,23.31
2001-03-19,23.68
2001-03-20,22.38
2001-03-21,23.34
2001-03-22,26.15
2001-03-23,29.53
2001-03-26,28.7
2001-03-27,29.66
2001-03-28,27.71
2001-03-29,28.25
2001-03-30,26.53
2001-04-02,25.46
2001-04-03,23.62
2001-04-04,20.71
2001-04-05,23.01
2001-04-06,20.25
2001-04-09,19.5
2001-04-10,21.42
2001-04-11,23.6
2001-04-12,24.72
2001-04-16,23.49
2001-04-17,22.99
2001-04-18,27.94
2001-04-19,29.09
2001-04-20,29.07
2001-04-23,27.4
2001-04-24,27.3
2001-04-25,26.9
2001-04-26,27.51
2001-04-27,29.86
2001-04-30,30.96
2001-05-01,31.84
2001-05-02,32.8
2001-05-03,32.6
2001-05-04,30.97
2001-05-07,30.02
2001-05-08,29.74
2001-05-09,28.15
2001-05-10,28.76
2001-05-11,27.65
2001-05-14,27.2
2001-05-15,29.12
2001-05-16,31.5
2001-05-17,31.42
2001-05-18,32.49
2001-05-21,34.36
2001-05-22,33.9
2001-05-23,32.7
2001-05-24,31.95
2001-05-25,31.92
2001-05-29,29.42
2001-05-30,27.95
2001-05-31,28.14
2001-06-01,29.33
2001-06-04,27.6
2001-06-05,28.88
2001-06-06,28.37
2001-06-07,30.35
2001-06-08,31.11
2001-06-11,30.06
2001-06-12,29.77
2001-06-13,29.26
2001-06-14,27.38
2001-06-15,27.66
2001-06-18,26.22
2001-06-19,24.9
2001-06-20,23.94
2001-06-21,24.28
2001-06-22,24.64
2001-06-25,25.29
2001-06-26,26.2
2001-06-27,26.54
2001-06-28,27.43
2001-06-29,28.95
2001-07-02,29.71
2001-07-03,29.76
2001-07-05,28.63
2001-07-06,20.8
2001-07-09,21.24
2001-07-10,20.88
2001-07-11,21.12
2001-07-12,22.69
2001-07-13,21.07
2001-07-16,20.0
2001-07-17,20.48
2001-07-18,17.89
2001-07-19,17.55
2001-07-20,17.0
2001-07-23,16.8
2001-07-24,16.37
2001-07-25,16.28
2001-07-26,17.4
2001-07-27,17.7
2001-07-30,18.25
2001-07-31,18.27
2001-08-01,18.72
2001-08-02,19.78
2001-08-03,19.27
2001-08-06,17.54
2001-08-07,17.6
2001-08-08,16.72
2001-08-09,16.68
2001-08-10,16.25
2001-08-13,16.56
2001-08-14,15.5
2001-08-15,14.87
2001-08-16,14.91
2001-08-17,14.4
2001-08-20,14.5
2001-08-21,14.24
2001-08-22,14.49
2001-08-23,14.32
2001-08-24,15.0
2001-08-27,15.39
2001-08-28,14.79
2001-08-29,14.15
2001-08-30,13.25
2001-08-31,13.5
2001-09-04,12.9
2001-09-05,12.15
2001-09-06,11.3
2001-09-07,11.47
2001-09-10,11.87
2001-09-17,10.15
2001-09-18,9.52
2001-09-19,9.22
2001-09-20,8.91
2001-09-21,9.2
2001-09-24,9.84
2001-09-25,9.04
2001-09-26,8.34
2001-09-27,8.01
2001-09-28,8.09
2001-10-01,7.89
2001-10-02,7.85
2001-10-03,8.54
2001-10-04,9.09
2001-10-05,8.63
2001-10-08,8.73
2001-10-09,8.91
2001-10-10,9.5
2001-10-11,10.44
2001-10-12,10.37
2001-10-15,10.25
2001-10-16,10.58
2001-10-17,9.62
2001-10-18,9.56
2001-10-19,9.16
2001-10-22,9.51
2001-10-23,9.78
2001-10-24,9.93
2001-10-25,10.22
2001-10-26,10.36
2001-10-29,9.65
2001-10-30,9.43
2001-10-31,9.85
2001-11-01,11.4
2001-11-02,12.14
2001-11-05,13.03
2001-11-06,13.21
2001-11-07,13.49
2001-11-08,12.47
2001-11-09,12.26
2001-11-12,12.8
2001-11-13,13.7
2001-11-14,13.95
2001-11-15,13.65
2001-11-16,13.75
2001-11-19,13.56
2001-11-20,13.18
2001-11-21,13.33
2001-11-23,13.36
2001-11-26,14.03
2001-11-27,13.89
2001-11-28,13.22
2001-11-29,13.6
2001-11-30,13.62
2001-12-03,14.22
2001-12-04,14.85
2001-12-05,16.21
2001-12-06,16.3
2001-12-07,17.88
2001-12-10,17.49
2001-12-11,17.8
2001-12-12,18.32
2001-12-13,16.14
2001-12-14,17.48
2001-12-17,17.8
2001-12-18,17.52
2001-12-19,17.0
2001-12-20,15.65
2001-12-21,15.91
2001-12-24,15.56
2001-12-26,15.65
2001-12-27,16.25
2001-12-28,16.38
2001-12-31,15.86
2002-01-02,16.32
2002-01-03,19.3
2002-01-04,19.98
2002-01-07,19.98
2002-01-08,19.84
2002-01-09,19.12
2002-01-10,18.61
2002-01-11,19.09
2002-01-14,19.6
2002-01-15,19.08
2002-01-16,17.93
2002-01-17,17.34
2002-01-18,16.8
2002-01-22,16.25
2002-01-23,16.62
2002-01-24,16.12
2002-01-25,16.25
2002-01-28,16.37
2002-01-29,15.77
2002-01-30,15.78
2002-01-31,15.9
2002-02-01,15.75
2002-02-04,15.01
2002-02-05,14.53
2002-02-06,14.14
2002-02-07,13.47
2002-02-08,14.67
2002-02-11,14.95
2002-02-12,15.0
2002-02-13,15.5
2002-02-14,14.85
2002-02-15,14.52
2002-02-19,13.85
2002-02-20,14.68
2002-02-21,13.24
2002-02-22,12.92
2002-02-25,13.54
2002-02-26,13.65
2002-02-27,14.0
2002-02-28,13.48
2002-03-01,14.8
2002-03-04,15.23
2002-03-05,15.74
2002-03-06,15.46
2002-03-07,15.31
2002-03-08,16.23
2002-03-11,16.25
2002-03-12,15.68
2002-03-13,14.31
2002-03-14,14.41
2002-03-15,14.65
2002-03-18,14.83
2002-03-19,14.78
2002-03-20,14.12
2002-03-21,14.5
2002-03-22,14.8
2002-03-25,14.12
2002-03-26,14.33
2002-03-27,14.15
2002-03-28,14.72
2002-04-01,14.72
2002-04-02,14.19
2002-04-03,13.8
2002-04-04,13.78
2002-04-05,13.52
2002-04-08,13.61
2002-04-09,13.35
2002-04-10,13.45
2002-04-11,13.24
2002-04-12,13.13
2002-04-15,13.48
2002-04-16,14.26
2002-04-17,14.76
2002-04-18,12.64
2002-04-19,12.18
2002-04-22,11.48
2002-04-23,11.77
2002-04-24,11.69
2002-04-25,11.39
2002-04-26,11.12
2002-04-29,11.0
2002-04-30,11.19
2002-05-01,11.53
2002-05-02,11.37
2002-05-03,11.02
2002-05-06,10.59
2002-05-07,10.69
2002-05-08,11.4
2002-05-09,11.4
2002-05-10,11.03
2002-05-13,11.47
2002-05-14,12.4
2002-05-15,12.51
2002-05-16,12.37
2002-05-17,12.2
2002-05-20,12.13
2002-05-21,11.69
2002-05-22,11.77
2002-05-23,11.97
2002-05-24,11.61
2002-05-28,11.7
2002-05-29,11.52
2002-05-30,11.42
2002-05-31,11.44
2002-06-03,10.8
2002-06-04,10.94
2002-06-05,10.98
2002-06-06,10.6
2002-06-07,9.8
2002-06-10,9.92
2002-06-11,9.29
2002-06-12,9.68
2002-06-13,9.42
2002-06-14,9.6
2002-06-17,10.66
2002-06-18,10.33
2002-06-19,8.58
2002-06-20,8.23
2002-06-21,8.03
2002-06-24,8.57
2002-06-25,8.39
2002-06-26,9.0
2002-06-27,8.99
2002-06-28,9.7
2002-07-01,9.2
2002-07-02,8.61
2002-07-03,8.36
2002-07-05,9.38
2002-07-08,9.06
2002-07-09,8.99
2002-07-10,9.03
2002-07-11,9.25
2002-07-12,9.1
2002-07-15,9.25
2002-07-16,9.43
2002-07-17,9.09
2002-07-18,8.81
2002-07-19,8.43
2002-07-22,8.43
2002-07-23,8.11
2002-07-24,8.4
2002-07-25,7.85
2002-07-26,7.8
2002-07-29,8.08
2002-07-30,8.42
2002-07-31,8.08
2002-08-01,7.73
2002-08-02,7.31
2002-08-05,7.45
2002-08-06,8.27
2002-08-07,8.56
2002-08-08,8.93
2002-08-09,8.83
2002-08-12,8.83
2002-08-13,8.53
2002-08-14,9.04
2002-08-15,9.1
2002-08-16,9.93
2002-08-19,10.42
2002-08-20,10.19
2002-08-21,10.7
2002-08-22,10.47
2002-08-23,9.57
2002-08-26,9.6
2002-08-27,9.03
2002-08-28,8.7
2002-08-29,8.81
2002-08-30,8.86
2002-09-03,8.27
2002-09-04,8.53
2002-09-05,7.92
2002-09-06,8.03
2002-09-09,8.0
2002-09-10,8.29
2002-09-11,8.24
2002-09-12,7.67
2002-09-13,7.22
2002-09-16,7.03
2002-09-17,6.83
2002-09-18,6.72
2002-09-19,6.3
2002-09-20,6.4
2002-09-23,5.99
2002-09-24,5.75
2002-09-25,5.97
2002-09-26,6.09
2002-09-27,5.73
2002-09-30,5.31
2002-10-01,5.2
2002-10-02,5.39
2002-10-03,3.58
2002-10-04,3.53
2002-10-07,3.22
2002-10-08,3.54
2002-10-09,3.56
2002-10-10,3.61
2002-10-11,3.72
2002-10-14,3.9
2002-10-15,4.14
2002-10-16,3.48
2002-10-17,4.32
2002-10-18,4.38
2002-10-21,5.52
2002-10-22,5.3
2002-10-23,5.85
2002-10-24,5.9
2002-10-25,6.1
2002-10-28,6.06
2002-10-29,5.82
2002-10-30,6.31
2002-10-31,6.15
2002-11-01,6.48
2002-11-04,6.72
2002-11-05,6.78
2002-11-06,7.19
2002-11-07,6.85
2002-11-08,6.18
2002-11-11,5.99
2002-11-12,6.35
2002-11-13,6.33
2002-11-14,6.57
2002-11-15,6.43
2002-11-18,6.52
2002-11-19,5.58
2002-11-20,5.55
2002-11-21,6.14
2002-11-22,6.86
2002-11-25,7.99
2002-11-26,7.96
2002-11-27,8.53
2002-11-29,9.0
2002-12-02,8.93
2002-12-03,8.12
2002-12-04,7.76
2002-12-05,8.22
2002-12-06,8.15
2002-12-09,7.37
2002-12-10,7.87
2002-12-11,7.71
2002-12-12,7.73
2002-12-13,7.3
2002-12-16,7.45
2002-12-17,7.32
2002-12-18,6.76
2002-12-19,6.47
2002-12-20,6.62
2002-12-23,6.77
2002-12-24,6.65
2002-12-26,6.42
2002-12-27,6.38
2002-12-30,6.32
2002-12-31,6.45
2003-01-02,7.01
2003-01-03,6.93
2003-01-06,7.16
2003-01-07,7.2
2003-01-08,6.68
2003-01-09,6.9
2003-01-10,7.41
2003-01-13,7.44
2003-01-14,7.45
2003-01-15,7.38
2003-01-16,7.15
2003-01-17,6.03
2003-01-21,5.97
2003-01-22,5.72
2003-01-23,5.65
2003-01-24,5.42
2003-01-27,5.26
2003-01-28,5.29
2003-01-29,5.6
2003-01-30,5.19
2003-01-31,5.19
2003-02-03,5.03
2003-02-04,5.05
2003-02-05,5.03
2003-02-06,5.08
2003-02-07,5.04
2003-02-10,5.18
2003-02-11,5.08
2003-02-12,4.92
2003-02-13,5.0
2003-02-14,5.11
2003-02-18,5.46
2003-02-19,5.57
2003-02-20,5.36
2003-02-21,5.38
2003-02-24,5.3
2003-02-25,5.24
2003-02-26,5.14
2003-02-27,5.24
2003-02-28,5.48
2003-03-03,5.37
2003-03-04,5.23
2003-03-05,5.41
2003-03-06,5.32
2003-03-07,5.31
2003-03-10,5.52
2003-03-11,5.6
2003-03-12,5.52
2003-03-13,5.76
2003-03-14,5.76
2003-03-17,5.93
2003-03-18,6.52
2003-03-19,6.86
2003-03-20,7.05
2003-03-21,7.21
2003-03-24,6.58
2003-03-25,6.69
2003-03-26,6.46
2003-03-27,6.42
2003-03-28,6.19
2003-03-31,6.16
2003-04-01,6.37
2003-04-02,6.99
2003-04-03,7.2
2003-04-04,7.1
2003-04-07,7.14
2003-04-08,7.0
2003-04-09,6.94
2003-04-10,6.98
2003-04-11,7.13
2003-04-14,7.4
2003-04-15,7.55
2003-04-16,7.85
2003-04-17,8.01
2003-04-21,8.33
2003-04-22,8.44
2003-04-23,8.37
2003-04-24,7.81
2003-04-25,7.54
2003-04-28,7.61
2003-04-29,7.65
2003-04-30,7.43
2003-05-01,7.35
2003-05-02,7.4
2003-05-05,7.56
2003-05-06,7.64
2003-05-07,7.46
2003-05-08,7.23
2003-05-09,7.38
2003-05-12,7.41
2003-05-13,7.49
2003-05-14,7.5
2003-05-15,7.46
2003-05-16,7.5
2003-05-19,7.21
2003-05-20,7.02
2003-05-21,7.04
2003-05-22,7.09
2003-05-23,6.93
2003-05-27,7.23
2003-05-28,7.3
2003-05-29,7.45
2003-05-30,7.25
2003-06-02,6.92
2003-06-03,6.93
2003-06-04,7.03
2003-06-05,7.02
2003-06-06,6.94
2003-06-09,6.52
2003-06-10,6.69
2003-06-11,6.41
2003-06-12,6.88
2003-06-13,6.53
2003-06-16,6.6
2003-06-17,6.56
2003-06-18,6.78
2003-06-19,6.8
2003-06-20,6.79
2003-06-23,6.58
2003-06-24,6.32
2003-06-25,6.42
2003-06-26,6.55
2003-06-27,6.39
2003-06-30,6.38
2003-07-01,6.55
2003-07-02,6.75
2003-07-03,6.72
2003-07-07,7.16
2003-07-08,7.12
2003-07-09,7.13
2003-07-10,7.05
2003-07-11,7.19
2003-07-14,7.21
2003-07-15,7.22
2003-07-16,7.3
2003-07-17,7.23
2003-07-18,7.16
2003-07-21,7.09
2003-07-22,7.25
2003-07-23,7.16
2003-07-24,7.03
2003-07-25,7.18
2003-07-28,7.31
2003-07-29,7.31
2003-07-30,7.29
2003-07-31,7.31
2003-08-01,7.2
2003-08-04,7.21
2003-08-05,7.27
2003-08-06,7.26
2003-08-07,7.57
2003-08-08,7.29
2003-08-11,7.37
2003-08-12,7.41
2003-08-13,7.61
2003-08-14,7.83
2003-08-15,7.8
2003-08-18,8.9
2003-08-19,9.3
2003-08-20,9.12
2003-08-21,9.42
2003-08-22,9.81
2003-08-25,10.09
2003-08-26,10.1
2003-08-27,10.23
2003-08-28,10.86
2003-08-29,11.3
2003-09-02,11.2
2003-09-03,11.0
2003-09-04,11.51
2003-09-05,12.1
2003-09-08,12.42
2003-09-09,12.27
2003-09-10,11.26
2003-09-11,11.85
2003-09-12,12.16
2003-09-15,11.88
2003-09-16,12.25
2003-09-17,12.44
2003-09-18,12.77
2003-09-19,12.72
2003-09-22,12.47
2003-09-23,12.37
2003-09-24,11.58
2003-09-25,11.38
2003-09-26,10.9
2003-09-29,11.13
2003-09-30,11.11
2003-10-01,11.17
2003-10-02,11.7
2003-10-03,11.9
2003-10-06,12.15
2003-10-07,12.79
2003-10-08,12.92
2003-10-09,13.12
2003-10-10,13.23
2003-10-13,13.38
2003-10-14,13.59
2003-10-15,13.7
2003-10-16,13.9
2003-10-17,13.97
2003-10-20,14.13
2003-10-21,14.27
2003-10-22,13.96
2003-10-23,13.66
2003-10-24,13.57
2003-10-27,13.85
2003-10-28,14.83
2003-10-29,15.11
2003-10-30,15.15
2003-10-31,15.23
2003-11-03,15.92
2003-11-04,16.56
2003-11-05,16.99
2003-11-06,17.07
2003-11-07,16.94
2003-11-10,16.8
2003-11-11,16.65
2003-11-12,18.06
2003-11-13,18.31
2003-11-14,17.8
2003-11-17,17.36
2003-11-18,17.33
2003-11-19,17.59
2003-11-20,16.56
2003-11-21,16.76
2003-11-24,17.45
2003-11-25,17.48
2003-11-26,17.7
2003-11-28,17.72
2003-12-01,18.1
2003-12-02,17.9
2003-12-03,17.19
2003-12-04,16.67
2003-12-05,16.08
2003-12-08,15.73
2003-12-09,14.9
2003-12-10,14.72
2003-12-11,15.2
2003-12-12,15.24
2003-12-15,14.7
2003-12-16,14.36
2003-12-17,14.02
2003-12-18,14.54
2003-12-19,14.26
2003-12-22,14.27
2003-12-23,14.65
2003-12-24,14.5
2003-12-26,14.67
2003-12-29,15.23
2003-12-30,15.11
2003-12-31,14.89
2004-01-02,14.85
2004-01-05,15.19
2004-01-06,15.65
2004-01-07,15.6
2004-01-08,15.94
2004-01-09,15.56
2004-01-12,15.75
2004-01-13,15.22
2004-01-14,15.21
2004-01-15,15.88
2004-01-16,16.75
2004-01-20,17.35
2004-01-21,15.92
2004-01-22,15.42
2004-01-23,15.3
2004-01-26,15.58
2004-01-27,15.62
2004-01-28,15.3
2004-01-29,14.69
2004-01-30,14.86
2004-02-02,14.62
2004-02-03,14.75
2004-02-04,14.14
2004-02-05,14.18
2004-02-06,14.91
2004-02-09,15.06
2004-02-10,15.53
2004-02-11,15.68
2004-02-12,15.09
2004-02-13,14.92
2004-02-17,14.94
2004-02-18,15.26
2004-02-19,14.97
2004-02-20,14.66
2004-02-23,13.99
2004-02-24,14.05
2004-02-25,14.53
2004-02-26,15.05
2004-02-27,14.97
2004-03-01,14.9
2004-03-02,14.96
2004-03-03,14.7
2004-03-04,15.35
2004-03-05,15.32
2004-03-08,14.71
2004-03-09,14.54
2004-03-10,14.42
2004-03-11,14.41
2004-03-12,14.98
2004-03-15,14.58
2004-03-16,14.91
2004-03-17,15.34
2004-03-18,15.38
2004-03-19,15.27
2004-03-22,14.81
2004-03-23,14.86
2004-03-24,15.51
2004-03-25,15.85
2004-03-26,15.49
2004-03-29,15.72
2004-03-30,16.04
2004-03-31,16.21
2004-04-01,16.78
2004-04-02,17.49
2004-04-05,17.41
2004-04-06,17.07
2004-04-07,16.91
2004-04-08,16.99
2004-04-12,17.35
2004-04-13,17.17
2004-04-14,17.08
2004-04-15,16.28
2004-04-16,16.0
2004-04-19,16.27
2004-04-20,15.81
2004-04-21,16.28
2004-04-22,16.47
2004-04-23,16.37
2004-04-26,15.98
2004-04-27,15.59
2004-04-28,15.16
2004-04-29,14.6
2004-04-30,14.24
2004-05-03,14.25
2004-05-04,14.44
2004-05-05,14.4
2004-05-06,14.36
2004-05-07,14.88
2004-05-10,15.04
2004-05-11,15.46
2004-05-12,15.17
2004-05-13,14.68
2004-05-14,13.89
2004-05-17,13.85
2004-05-18,13.98
2004-05-19,14.51
2004-05-20,14.19
2004-05-21,14.24
2004-05-24,14.36
2004-05-25,14.91
2004-05-26,15.12
2004-05-27,15.17
2004-05-28,15.54
2004-06-01,15.31
2004-06-02,15.07
2004-06-03,14.62
2004-06-04,15.18
2004-06-07,15.82
2004-06-08,16.15
2004-06-09,15.53
2004-06-10,15.75
2004-06-14,15.16
2004-06-15,15.36
2004-06-16,15.27
2004-06-17,14.76
2004-06-18,14.86
2004-06-21,14.07
2004-06-22,14.67
2004-06-23,15.41
2004-06-24,15.28
2004-06-25,15.46
2004-06-28,15.3
2004-06-29,15.82
2004-06-30,15.89
2004-07-01,15.54
2004-07-02,15.28
2004-07-06,14.81
2004-07-07,15.23
2004-07-08,15.07
2004-07-09,14.8
2004-07-12,14.44
2004-07-13,14.49
2004-07-14,13.68
2004-07-15,12.95
2004-07-16,12.61
2004-07-19,12.57
2004-07-20,12.69
2004-07-21,12.17
2004-07-22,12.67
2004-07-23,12.15
2004-07-26,11.69
2004-07-27,11.61
2004-07-28,11.35
2004-07-29,11.79
2004-07-30,12.38
2004-08-02,12.27
2004-08-03,11.59
2004-08-04,11.86
2004-08-05,11.78
2004-08-06,11.26
2004-08-09,11.15
2004-08-10,11.54
2004-08-11,10.92
2004-08-12,10.9
2004-08-13,11.05
2004-08-16,11.18
2004-08-17,11.38
2004-08-18,11.87
2004-08-19,11.73
2004-08-20,12.0
2004-08-23,12.25
2004-08-24,11.92
2004-08-25,12.2
2004-08-26,11.82
2004-08-27,11.97
2004-08-30,11.59
2004-08-31,11.42
2004-09-01,11.68
2004-09-02,11.7
2004-09-03,10.91
2004-09-07,10.95
2004-09-08,10.86
2004-09-09,11.57
2004-09-10,12.19
2004-09-13,12.89
2004-09-14,12.69
2004-09-15,12.25
2004-09-16,12.17
2004-09-17,12.71
2004-09-20,12.78
2004-09-21,13.03
2004-09-22,12.97
2004-09-23,12.84
2004-09-24,12.44
2004-09-27,12.44
2004-09-28,12.47
2004-09-29,12.79
2004-09-30,12.97
2004-10-01,13.46
2004-10-04,13.7
2004-10-05,13.69
2004-10-06,13.97
2004-10-07,14.06
2004-10-08,13.51
2004-10-11,13.95
2004-10-12,13.73
2004-10-13,13.87
2004-10-14,13.57
2004-10-15,14.0
2004-10-18,14.16
2004-10-19,14.76
2004-10-20,15.4
2004-10-21,15.94
2004-10-22,15.55
2004-10-25,15.52
2004-10-26,15.6
2004-10-27,16.21
2004-10-28,16.67
2004-10-29,16.79
2004-11-01,17.34
2004-11-02,17.69
2004-11-03,17.04
2004-11-04,16.99
2004-11-05,17.07
2004-11-08,17.36
2004-11-09,17.25
2004-11-10,17.29
2004-11-11,18.58
2004-11-12,20.99
2004-11-15,21.06
2004-11-16,20.84
2004-11-17,21.97
2004-11-18,21.91
2004-11-19,20.86
2004-11-22,20.9
2004-11-23,21.39
2004-11-24,21.57
2004-11-26,21.53
2004-11-29,21.24
2004-11-30,21.32
2004-12-01,22.55
2004-12-02,22.61
2004-12-03,23.2
2004-12-06,24.83
2004-12-07,23.52
2004-12-08,22.89
2004-12-09,22.11
2004-12-10,21.84
2004-12-13,22.11
2004-12-14,22.55
2004-12-15,22.65
2004-12-16,22.43
2004-12-17,22.34
2004-12-20,21.82
2004-12-21,21.74
2004-12-22,21.86
2004-12-23,22.13
2004-12-27,21.91
2004-12-28,21.74
2004-12-29,21.96
2004-12-30,21.96
2004-12-31,22.02
2005-01-03,21.41
2005-01-04,20.28
2005-01-05,19.74
2005-01-06,19.65
2005-01-07,19.94
2005-01-10,20.1
2005-01-11,14.89
2005-01-12,15.02
2005-01-13,15.18
2005-01-14,15.15
2005-01-18,15.54
2005-01-19,15.49
2005-01-20,15.63
2005-01-21,15.48
2005-01-24,15.13
2005-01-25,15.7
2005-01-26,15.97
2005-01-27,16.11
2005-01-28,15.76
2005-01-31,15.81
2005-02-01,16.28
2005-02-02,16.66
2005-02-03,16.68
2005-02-04,17.46
2005-02-07,17.15
2005-02-08,17.63
2005-02-09,17.93
2005-02-10,17.75
2005-02-11,18.09
2005-02-14,18.25
2005-02-15,17.68
2005-02-16,17.46
2005-02-17,17.1
2005-02-18,16.89
2005-02-22,16.96
2005-02-23,16.6
2005-02-24,17.59
2005-02-25,17.79
2005-02-28,17.46
2005-03-01,17.94
2005-03-02,17.63
2005-03-03,17.5
2005-03-04,17.44
2005-03-07,17.47
2005-03-08,17.11
2005-03-09,16.95
2005-03-10,17.02
2005-03-11,16.35
2005-03-14,16.5
2005-03-15,16.06
2005-03-16,16.02
2005-03-17,16.12
2005-03-18,16.06
2005-03-21,15.75
2005-03-22,15.41
2005-03-23,15.64
2005-03-24,16.12
2005-03-28,15.48
2005-03-29,15.44
2005-03-30,16.21
2005-03-31,16.08
2005-04-01,16.19
2005-04-04,15.95
2005-04-05,15.88
2005-04-06,15.73
2005-04-07,16.17
2005-04-08,17.1
2005-04-11,17.0
2005-04-12,17.21
2005-04-13,17.04
2005-04-14,16.25
2005-04-15,15.44
2005-04-18,15.27
2005-04-19,15.28
2005-04-20,14.68
2005-04-21,14.99
2005-04-22,14.57
2005-04-25,14.69
2005-04-26,14.62
2005-04-27,14.52
2005-04-28,14.17
2005-04-29,14.25
2005-05-02,14.33
2005-05-03,14.36
2005-05-04,14.66
2005-05-05,14.73
2005-05-06,14.91
2005-05-09,15.06
2005-05-10,15.07
2005-05-11,15.1
2005-05-12,15.3
2005-05-13,15.49
2005-05-16,15.69
2005-05-17,15.65
2005-05-18,15.85
2005-05-19,15.86
2005-05-20,16.01
2005-05-23,15.93
2005-05-24,16.1
2005-05-25,16.15
2005-05-26,16.35
2005-05-27,16.19
2005-05-31,16.41
2005-06-01,16.72
2005-06-02,17.03
2005-06-03,17.1
2005-06-06,17.02
2005-06-07,17.56
2005-06-08,17.82
2005-06-09,18.24
2005-06-10,17.58
2005-06-13,17.33
2005-06-14,17.07
2005-06-15,17.06
2005-06-16,17.38
2005-06-17,17.42
2005-06-20,17.52
2005-06-21,17.75
2005-06-22,17.92
2005-06-23,17.6
2005-06-24,17.2
2005-06-27,16.67
2005-06-28,17.7
2005-06-29,17.36
2005-06-30,17.3
2005-07-01,17.43
2005-07-05,18.01
2005-07-06,18.48
2005-07-07,18.7
2005-07-08,18.97
2005-07-11,18.98
2005-07-12,19.33
2005-07-13,19.3
2005-07-14,19.82
2005-07-15,20.05
2005-07-18,19.93
2005-07-19,20.63
2005-07-20,20.61
2005-07-21,20.35
2005-07-22,20.48
2005-07-25,19.73
2005-07-26,19.88
2005-07-27,20.06
2005-07-28,20.26
2005-07-29,20.08
2005-08-01,20.02
2005-08-02,20.44
2005-08-03,20.65
2005-08-04,20.14
2005-08-05,19.94
2005-08-08,19.94
2005-08-09,20.44
2005-08-10,20.63
2005-08-11,20.68
2005-08-12,20.66
2005-08-15,20.83
2005-08-16,20.3
2005-08-17,21.18
2005-08-18,20.86
2005-08-19,20.52
2005-08-22,20.66
2005-08-23,20.51
2005-08-24,20.64
2005-08-25,20.97
2005-08-26,21.03
2005-08-29,20.84
2005-08-30,20.4
2005-08-31,20.76
2005-09-01,20.88
2005-09-02,20.94
2005-09-06,21.54
2005-09-07,22.51
2005-09-08,23.05
2005-09-09,23.85
2005-09-12,23.37
2005-09-13,23.31
2005-09-14,23.6
2005-09-15,23.61
2005-09-16,22.63
2005-09-19,22.35
2005-09-20,22.95
2005-09-21,22.12
2005-09-22,22.19
2005-09-23,22.94
2005-09-26,23.66
2005-09-27,23.78
2005-09-28,24.22
2005-09-29,24.88
2005-09-30,25.18
2005-10-03,25.7
2005-10-04,24.36
2005-10-05,23.97
2005-10-06,23.89
2005-10-07,24.0
2005-10-10,23.1
2005-10-11,23.3
2005-10-12,21.03
2005-10-13,21.68
2005-10-14,21.19
2005-10-17,21.37
2005-10-18,21.04
2005-10-19,21.34
2005-10-20,21.0
2005-10-21,21.83
2005-10-24,22.12
2005-10-25,22.33
2005-10-26,22.81
2005-10-27,21.87
2005-10-28,22.36
2005-10-31,23.21
2005-11-01,23.16
2005-11-02,24.2
2005-11-03,24.47
2005-11-04,24.63
2005-11-07,24.87
2005-11-08,24.53
2005-11-09,24.51
2005-11-10,24.85
2005-11-11,24.74
2005-11-14,25.03
2005-11-15,25.44
2005-11-16,25.52
2005-11-17,25.94
2005-11-18,26.7
2005-11-21,27.04
2005-11-22,27.12
2005-11-23,26.21
2005-11-25,26.55
2005-11-28,26.46
2005-11-29,25.56
2005-11-30,26.19
2005-12-01,27.4
2005-12-02,27.99
2005-12-05,27.25
2005-12-06,26.93
2005-12-07,26.64
2005-12-08,25.64
2005-12-09,26.89
2005-12-12,27.01
2005-12-13,27.01
2005-12-14,27.48
2005-12-15,27.88
2005-12-16,28.12
2005-12-19,28.13
2005-12-20,29.21
2005-12-21,29.36
2005-12-22,30.0
2005-12-23,30.52
2005-12-27,31.22
2005-12-28,31.7
2005-12-29,30.49
2005-12-30,30.58
2006-01-03,32.38
2006-01-04,32.57
2006-01-05,33.64
2006-01-06,33.75
2006-01-09,33.29
2006-01-10,34.91
2006-01-11,36.3
2006-01-12,35.4
2006-01-13,34.1
2006-01-17,32.79
2006-01-18,34.21
2006-01-19,37.19
2006-01-20,35.74
2006-01-23,35.45
2006-01-24,36.73
2006-01-25,38.33
2006-01-26,40.46
2006-01-27,39.76
2006-01-30,41.41
2006-01-31,41.77
2006-02-01,42.11
2006-02-02,40.97
2006-02-03,39.52
2006-02-06,41.21
2006-02-07,41.05
2006-02-08,40.86
2006-02-09,40.07
2006-02-10,40.11
2006-02-13,38.9
2006-02-14,40.25
2006-02-15,40.2
2006-02-16,41.69
2006-02-17,40.36
2006-02-21,40.01
2006-02-22,40.77
2006-02-23,40.36
2006-02-24,40.47
2006-02-27,40.66
2006-02-28,38.76
2006-03-01,40.04
2006-03-02,41.31
2006-03-03,39.47
2006-03-06,39.38
2006-03-07,38.3
2006-03-08,37.09
2006-03-09,36.21
2006-03-10,36.64
2006-03-13,34.03
2006-03-14,35.07
2006-03-15,35.05
2006-03-16,34.1
2006-03-17,34.09
2006-03-20,34.17
2006-03-21,34.44
2006-03-22,34.59
2006-03-23,34.8
2006-03-24,36.08
2006-03-27,35.27
2006-03-28,34.01
2006-03-29,34.24
2006-03-30,33.62
2006-03-31,33.15
2006-04-03,33.17
2006-04-04,33.38
2006-04-05,34.81
2006-04-06,34.69
2006-04-07,33.69
2006-04-10,34.57
2006-04-11,34.31
2006-04-12,35.35
2006-04-13,31.8
2006-04-17,30.53
2006-04-18,31.28
2006-04-19,31.64
2006-04-20,31.4
2006-04-21,31.75
2006-04-24,32.76
2006-04-25,33.42
2006-04-26,32.81
2006-04-27,32.8
2006-04-28,32.34
2006-05-01,31.81
2006-05-02,32.62
2006-05-03,33.27
2006-05-04,33.91
2006-05-05,34.34
2006-05-08,33.97
2006-05-09,34.12
2006-05-10,32.9
2006-05-11,31.5
2006-05-12,31.61
2006-05-15,31.12
2006-05-16,30.85
2006-05-17,30.72
2006-05-18,31.26
2006-05-19,34.9
2006-05-22,33.15
2006-05-23,31.76
2006-05-24,31.15
2006-05-25,30.94
2006-05-26,31.63
2006-05-30,30.43
2006-05-31,30.9
2006-06-01,31.38
2006-06-02,30.08
2006-06-05,29.04
2006-06-06,28.93
2006-06-07,27.98
2006-06-08,27.05
2006-06-09,26.72
2006-06-12,25.67
2006-06-13,24.43
2006-06-14,25.03
2006-06-15,26.11
2006-06-16,25.68
2006-06-19,24.98
2006-06-20,24.8
2006-06-21,25.45
2006-06-22,25.35
2006-06-23,25.18
2006-06-26,24.65
2006-06-27,24.25
2006-06-28,23.91
2006-06-29,24.81
2006-06-30,24.39
2006-07-03,24.75
2006-07-05,23.9
2006-07-06,23.82
2006-07-07,23.77
2006-07-10,22.57
2006-07-11,22.95
2006-07-12,22.89
2006-07-13,22.18
2006-07-14,21.61
2006-07-17,20.93
2006-07-18,20.56
2006-07-19,21.38
2006-07-20,21.65
2006-07-21,18.32
2006-07-24,17.4
2006-07-25,17.77
2006-07-26,18.25
2006-07-27,18.04
2006-07-28,19.03
2006-07-31,19.4
2006-08-01,19.14
2006-08-02,19.59
2006-08-03,20.42
2006-08-04,20.41
2006-08-07,20.22
2006-08-08,20.17
2006-08-09,19.81
2006-08-10,19.97
2006-08-11,19.77
2006-08-14,19.83
2006-08-15,20.84
2006-08-16,22.58
2006-08-17,24.22
2006-08-18,23.94
2006-08-21,23.36
2006-08-22,24.92
2006-08-23,24.88
2006-08-24,24.83
2006-08-25,24.52
2006-08-28,23.94
2006-08-29,24.41
2006-08-30,24.98
2006-08-31,24.98
2006-09-01,24.68
2006-09-05,26.18
2006-09-06,24.55
2006-09-07,24.63
2006-09-08,25.78
2006-09-11,25.68
2006-09-12,26.46
2006-09-13,27.12
2006-09-14,26.99
2006-09-15,26.58
2006-09-18,27.27
2006-09-19,26.85
2006-09-20,27.38
2006-09-21,26.96
2006-09-22,26.16
2006-09-25,26.83
2006-09-26,26.01
2006-09-27,25.34
2006-09-28,25.03
2006-09-29,24.81
2006-10-02,24.8
2006-10-03,24.16
2006-10-04,25.06
2006-10-05,25.1
2006-10-06,24.0
2006-10-09,22.97
2006-10-10,23.12
2006-10-11,24.23
2006-10-12,24.68
2006-10-13,25.19
2006-10-16,25.32
2006-10-17,24.41
2006-10-18,24.2
2006-10-19,21.05
2006-10-20,20.08
2006-10-23,20.23
2006-10-24,20.36
2006-10-25,20.85
2006-10-26,21.49
2006-10-27,20.81
2006-10-30,21.3
2006-10-31,21.24
2006-11-01,20.75
2006-11-02,20.83
2006-11-03,20.9
2006-11-06,21.37
2006-11-07,21.53
2006-11-08,21.27
2006-11-09,20.89
2006-11-10,21.04
2006-11-13,21.19
2006-11-14,21.35
2006-11-15,21.7
2006-11-16,21.72
2006-11-17,21.43
2006-11-20,21.4
2006-11-21,21.27
2006-11-22,21.76
2006-11-24,21.77
2006-11-27,21.83
2006-11-28,21.91
2006-11-29,21.4
2006-11-30,21.6
2006-12-01,20.67
2006-12-04,21.02
2006-12-05,21.29
2006-12-06,21.51
2006-12-07,21.08
2006-12-08,20.95
2006-12-11,20.66
2006-12-12,20.43
2006-12-13,20.2
2006-12-14,22.72
2006-12-15,22.08
2006-12-18,21.9
2006-12-19,21.62
2006-12-20,21.81
2006-12-21,21.01
2006-12-22,20.75
2006-12-26,20.62
2006-12-27,20.67
2006-12-28,20.56
2006-12-29,20.32
2007-01-03,19.55
2007-01-04,19.83
2007-01-05,19.75
2007-01-08,19.47
2007-01-09,19.61
2007-01-10,20.0
2007-01-11,20.19
2007-01-12,18.26
2007-01-16,18.18
2007-01-17,18.14
2007-01-18,17.89
2007-01-19,17.74
2007-01-22,17.55
2007-01-23,17.48
2007-01-24,16.02
2007-01-25,16.02
2007-01-26,16.22
2007-01-29,15.95
2007-01-30,15.8
2007-01-31,15.54
2007-02-01,15.77
2007-02-02,15.69
2007-02-05,15.59
2007-02-06,15.33
2007-02-07,15.48
2007-02-08,15.12
2007-02-09,14.9
2007-02-12,14.71
2007-02-13,14.61
2007-02-14,14.96
2007-02-15,14.83
2007-02-16,14.96
2007-02-20,14.89
2007-02-21,14.56
2007-02-22,14.57
2007-02-23,14.71
2007-02-26,15.66
2007-02-27,15.08
2007-02-28,15.05
2007-03-01,14.79
2007-03-02,14.18
2007-03-05,13.96
2007-03-06,14.1
2007-03-07,14.11
2007-03-08,14.19
2007-03-09,14.2
2007-03-12,14.17
2007-03-13,13.96
2007-03-14,14.13
2007-03-15,13.93
2007-03-16,13.99
2007-03-19,13.71
2007-03-20,13.4
2007-03-21,13.59
2007-03-22,13.34
2007-03-23,13.49
2007-03-26,13.56
2007-03-27,13.51
2007-03-28,13.4
2007-03-29,13.08
2007-03-30,13.05
2007-04-02,12.84
2007-04-03,12.9
2007-04-04,12.71
2007-04-05,12.86
2007-04-09,13.33
2007-04-10,13.28
2007-04-11,13.17
2007-04-12,13.67
2007-04-13,13.58
2007-04-16,13.51
2007-04-17,13.45
2007-04-18,13.92
2007-04-19,14.31
2007-04-20,14.13
2007-04-23,14.04
2007-04-24,14.58
2007-04-25,14.65
2007-04-26,14.5
2007-04-27,14.33
2007-04-30,13.83
2007-05-01,13.51
2007-05-02,13.64
2007-05-03,13.69
2007-05-04,13.5
2007-05-07,13.28
2007-05-08,13.17
2007-05-09,13.57
2007-05-10,14.1
2007-05-11,14.66
2007-05-14,15.38
2007-05-15,15.42
2007-05-16,15.6
2007-05-17,15.43
2007-05-18,15.59
2007-05-21,15.42
2007-05-22,15.42
2007-05-23,15.21
2007-05-24,14.88
2007-05-25,14.74
2007-05-29,14.58
2007-05-30,14.37
2007-05-31,14.29
2007-06-01,14.32
2007-06-04,14.17
2007-06-05,13.95
2007-06-06,13.62
2007-06-07,13.71
2007-06-08,14.05
2007-06-11,13.9
2007-06-12,13.8
2007-06-13,13.94
2007-06-14,13.77
2007-06-15,13.62
2007-06-18,13.5
2007-06-19,13.56
2007-06-20,13.65
2007-06-21,14.75
2007-06-22,14.53
2007-06-25,14.28
2007-06-26,14.16
2007-06-27,14.56
2007-06-28,14.51
2007-06-29,14.28
2007-07-02,14.33
2007-07-03,14.36
2007-07-05,14.17
2007-07-06,14.37
2007-07-09,14.57
2007-07-10,14.45
2007-07-11,14.65
2007-07-12,15.37
2007-07-13,15.47
2007-07-16,15.72
2007-07-17,15.85
2007-07-18,15.45
2007-07-19,15.82
2007-07-20,15.5
2007-07-23,15.31
2007-07-24,15.22
2007-07-25,15.61
2007-07-26,14.75
2007-07-27,13.87
2007-07-30,13.76
2007-07-31,13.56
2007-08-01,13.43
2007-08-02,13.37
2007-08-03,12.86
2007-08-06,12.76
2007-08-07,12.64
2007-08-08,13.43
2007-08-09,13.12
2007-08-10,12.97
2007-08-13,12.85
2007-08-14,12.57
2007-08-15,11.89
2007-08-16,11.62
2007-08-17,11.89
2007-08-20,12.09
2007-08-21,12.15
2007-08-22,12.02
2007-08-23,12.05
2007-08-24,12.11
2007-08-27,11.98
2007-08-28,11.67
2007-08-29,12.28
2007-08-30,12.43
2007-08-31,12.99
2007-09-04,13.18
2007-09-05,12.9
2007-09-06,12.91
2007-09-07,12.6
2007-09-10,12.93
2007-09-11,12.97
2007-09-12,12.8
2007-09-13,12.71
2007-09-14,12.69
2007-09-17,12.86
2007-09-18,13.3
2007-09-19,13.08
2007-09-20,13.35
2007-09-21,13.21
2007-09-24,13.5
2007-09-25,13.8
2007-09-26,13.72
2007-09-27,13.27
2007-09-28,13.19
2007-10-01,13.23
2007-10-02,13.21
2007-10-03,13.22
2007-10-04,13.34
2007-10-05,13.66
2007-10-08,13.62
2007-10-09,13.73
2007-10-10,14.01
2007-10-11,13.81
2007-10-12,13.9
2007-10-15,13.98
2007-10-16,13.96
2007-10-17,14.1
2007-10-18,14.56
2007-10-19,13.71
2007-10-22,13.75
2007-10-23,13.72
2007-10-24,13.09
2007-10-25,12.78
2007-10-26,12.87
2007-10-29,12.88
2007-10-30,13.01
2007-10-31,13.06
2007-11-01,12.77
2007-11-02,13.19
2007-11-05,13.46
2007-11-06,13.41
2007-11-07,13.01
2007-11-08,12.49
2007-11-09,12.37
2007-11-12,11.93
2007-11-13,12.41
2007-11-14,12.28
2007-11-15,12.75
2007-11-16,12.64
2007-11-19,12.07
2007-11-20,11.22
2007-11-21,10.81
2007-11-23,10.8
2007-11-26,10.26
2007-11-27,10.14
2007-11-28,10.33
2007-11-29,10.17
2007-11-30,9.74
2007-12-03,9.64
2007-12-04,9.27
2007-12-05,8.92
2007-12-06,9.07
2007-12-07,9.04
2007-12-10,9.17
2007-12-11,9.09
2007-12-12,8.99
2007-12-13,8.81
2007-12-14,8.45
2007-12-17,7.95
2007-12-18,7.68
2007-12-19,7.98
2007-12-20,8.0
2007-12-21,7.77
2007-12-24,7.76
2007-12-26,7.76
2007-12-27,7.53
2007-12-28,7.31
2007-12-31,7.47
2008-01-02,7.13
2008-01-03,6.76
2008-01-04,6.28
2008-01-07,6.09
2008-01-08,6.0
2008-01-09,5.5
2008-01-10,5.98
2008-01-11,6.22
2008-01-14,6.41
2008-01-15,6.11
2008-01-16,6.56
2008-01-17,6.32
2008-01-18,7.07
2008-01-22,6.85
2008-01-23,7.53
2008-01-24,7.57
2008-01-25,7.13
2008-01-28,7.46
2008-01-29,7.61
2008-01-30,7.6
2008-01-31,7.61
2008-02-01,7.99
2008-02-04,7.92
2008-02-05,7.26
2008-02-06,6.72
2008-02-07,6.59
2008-02-08,6.32
2008-02-11,6.28
2008-02-12,6.41
2008-02-13,6.7
2008-02-14,6.55
2008-02-15,6.44
2008-02-19,6.49
2008-02-20,6.84
2008-02-21,6.95
2008-02-22,6.7
2008-02-25,6.98
2008-02-26,7.15
2008-02-27,7.28
2008-02-28,7.02
2008-02-29,7.16
2008-03-03,6.78
2008-03-04,6.75
2008-03-05,6.84
2008-03-06,6.47
2008-03-07,6.49
2008-03-10,6.14
2008-03-11,6.47
2008-03-12,6.42
2008-03-13,6.74
2008-03-14,6.39
2008-03-17,6.3
2008-03-18,6.38
2008-03-19,6.15
2008-03-20,6.11
2008-03-24,6.21
2008-03-25,6.27
2008-03-26,6.23
2008-03-27,6.18
2008-03-28,5.9
2008-03-31,5.87
2008-04-01,6.07
2008-04-02,6.18
2008-04-03,6.26
2008-04-04,6.23
2008-04-07,6.32
2008-04-08,6.01
2008-04-09,6.29
2008-04-10,6.26
2008-04-11,6.02
2008-04-14,5.84
2008-04-15,5.76
2008-04-16,6.08
2008-04-17,6.2
2008-04-18,6.1
2008-04-21,6.14
2008-04-22,5.97
2008-04-23,5.93
2008-04-24,6.03
2008-04-25,6.06
2008-04-28,6.0
2008-04-29,6.01
2008-04-30,5.95
2008-05-01,6.22
2008-05-02,6.16
2008-05-05,6.53
2008-05-06,7.22
2008-05-07,6.91
2008-05-08,6.94
2008-05-09,6.93
2008-05-12,7.19
2008-05-13,7.16
2008-05-14,7.14
2008-05-15,7.4
2008-05-16,7.27
2008-05-19,7.1
2008-05-20,7.13
2008-05-21,7.09
2008-05-22,7.08
2008-05-23,6.87
2008-05-27,6.93
2008-05-28,6.79
2008-05-29,6.76
2008-05-30,6.89
2008-06-02,6.81
2008-06-03,6.8
2008-06-04,7.18
2008-06-05,7.76
2008-06-06,7.43
2008-06-09,7.68
2008-06-10,7.42
2008-06-11,6.96
2008-06-12,7.16
2008-06-13,7.54
2008-06-16,7.71
2008-06-17,7.73
2008-06-18,7.29
2008-06-19,7.32
2008-06-20,7.01
2008-06-23,6.56
2008-06-24,6.27
2008-06-25,6.46
2008-06-26,6.12
2008-06-27,5.93
2008-06-30,5.84
2008-07-01,5.68
2008-07-02,5.45
2008-07-03,5.33
2008-07-07,5.41
2008-07-08,5.49
2008-07-09,5.08
2008-07-10,4.98
2008-07-11,4.85
2008-07-14,4.82
2008-07-15,4.73
2008-07-16,5.02
2008-07-17,5.29
2008-07-18,4.62
2008-07-21,4.57
2008-07-22,4.45
2008-07-23,4.65
2008-07-24,4.37
2008-07-25,4.36
2008-07-28,4.21
2008-07-29,4.2
2008-07-30,4.21
2008-07-31,4.2
2008-08-01,4.28
2008-08-04,4.45
2008-08-05,4.57
2008-08-06,4.79
2008-08-07,5.03
2008-08-08,5.14
2008-08-11,5.09
2008-08-12,5.21
2008-08-13,5.15
2008-08-14,5.29
2008-08-15,5.63
2008-08-18,5.9
2008-08-19,5.59
2008-08-20,5.7
2008-08-21,5.75
2008-08-22,5.8
2008-08-25,5.94
2008-08-26,5.93
2008-08-27,6.06
2008-08-28,6.23
2008-08-29,6.3
2008-09-02,6.36
2008-09-03,6.16
2008-09-04,5.85
2008-09-05,5.97
2008-09-08,6.06
2008-09-09,5.77
2008-09-10,5.79
2008-09-11,5.7
2008-09-12,5.72
2008-09-15,5.22
2008-09-16,5.21
2008-09-17,4.91
2008-09-18,5.33
2008-09-19,5.42
2008-09-22,5.0
2008-09-23,5.0
2008-09-24,4.95
2008-09-25,5.21
2008-09-26,5.11
2008-09-29,4.33
2008-09-30,4.42
2008-10-01,4.75
2008-10-02,4.19
2008-10-03,4.54
2008-10-06,4.28
2008-10-07,4.62
2008-10-08,4.01
2008-10-09,4.11
2008-10-10,3.84
2008-10-13,4.2
2008-10-14,4.25
2008-10-15,4.0
2008-10-16,4.2
2008-10-17,4.1
2008-10-20,4.1
2008-10-21,3.92
2008-10-22,3.64
2008-10-23,3.28
2008-10-24,3.03
2008-10-27,2.93
2008-10-28,2.92
2008-10-29,3.01
2008-10-30,3.55
2008-10-31,3.59
2008-11-03,3.61
2008-11-04,3.74
2008-11-05,3.57
2008-11-06,3.14
2008-11-07,3.15
2008-11-10,3.06
2008-11-11,2.95
2008-11-12,2.6
2008-11-13,2.65
2008-11-14,2.41
2008-11-17,2.54
2008-11-18,2.5
2008-11-19,2.12
2008-11-20,1.89
2008-11-21,1.79
2008-11-24,1.8
2008-11-25,1.84
2008-11-26,2.14
2008-11-28,2.36
2008-12-01,1.99
2008-12-02,2.02
2008-12-03,2.21
2008-12-04,2.08
2008-12-05,2.13
2008-12-08,2.04
2008-12-09,2.24
2008-12-10,2.22
2008-12-11,2.19
2008-12-12,2.32
2008-12-15,2.23
2008-12-16,2.24
2008-12-17,2.27
2008-12-18,2.22
2008-12-19,2.24
2008-12-22,2.02
2008-12-23,1.96
2008-12-24,2.03
2008-12-26,2.19
2008-12-29,2.11
2008-12-30,2.19
2008-12-31,2.18
2009-01-02,2.38
2009-01-05,2.63
2009-01-06,2.78
2009-01-07,2.65
2009-01-08,2.74
2009-01-09,2.7
2009-01-12,2.52
2009-01-13,2.38
2009-01-14,2.15
2009-01-15,2.23
2009-01-16,2.26
2009-01-20,2.01
2009-01-21,2.22
2009-01-22,2.01
2009-01-23,2.06
2009-01-26,2.02
2009-01-27,2.14
2009-01-28,2.34
2009-01-29,2.21
2009-01-30,2.19
2009-02-02,2.15
2009-02-03,2.21
2009-02-04,2.26
2009-02-05,2.36
2009-02-06,2.41
2009-02-09,2.35
2009-02-10,2.11
2009-02-11,2.14
2009-02-12,2.28
2009-02-13,2.43
2009-02-17,2.36
2009-02-18,2.21
2009-02-19,2.12
2009-02-20,2.03
2009-02-23,2.02
2009-02-24,2.12
2009-02-25,2.22
2009-02-26,2.12
2009-02-27,2.17
2009-03-02,2.02
2009-03-03,2.1
2009-03-04,2.29
2009-03-05,2.17
2009-03-06,2.14
2009-03-09,2.14
2009-03-10,2.32
2009-03-11,2.31
2009-03-12,2.37
2009-03-13,2.57
2009-03-16,2.5
2009-03-17,2.76
2009-03-18,2.94
2009-03-19,2.96
2009-03-20,2.8
2009-03-23,3.02
2009-03-24,3.15
2009-03-25,3.16
2009-03-26,3.54
2009-03-27,3.38
2009-03-30,3.21
2009-03-31,3.05
2009-04-01,3.02
2009-04-02,3.16
2009-04-03,3.4
2009-04-06,3.53
2009-04-07,3.46
2009-04-08,3.65
2009-04-09,3.73
2009-04-13,3.63
2009-04-14,3.64
2009-04-15,3.42
2009-04-16,3.55
2009-04-17,3.53
2009-04-20,3.3
2009-04-21,3.34
2009-04-22,3.33
2009-04-23,3.5
2009-04-24,3.54
2009-04-27,3.47
2009-04-28,3.37
2009-04-29,3.49
2009-04-30,3.6
2009-05-01,3.81
2009-05-04,4.23
2009-05-05,4.33
2009-05-06,4.29
2009-05-07,4.01
2009-05-08,3.94
2009-05-11,4.23
2009-05-12,4.34
2009-05-13,4.38
2009-05-14,4.24
2009-05-15,3.99
2009-05-18,4.16
2009-05-19,4.39
2009-05-20,4.52
2009-05-21,4.33
2009-05-22,4.27
2009-05-26,4.51
2009-05-27,4.66
2009-05-28,4.68
2009-05-29,4.49
2009-06-01,4.68
2009-06-02,4.57
2009-06-03,4.49
2009-06-04,4.65
2009-06-05,4.65
2009-06-08,4.62
2009-06-09,4.74
2009-06-10,4.83
2009-06-11,4.68
2009-06-12,4.46
2009-06-15,4.26
2009-06-16,4.15
2009-06-17,4.07
2009-06-18,3.86
2009-06-19,3.89
2009-06-22,3.63
2009-06-23,3.54
2009-06-24,3.65
2009-06-25,3.61
2009-06-26,3.65
2009-06-29,3.72
2009-06-30,3.86
2009-07-01,3.9
2009-07-02,3.81
2009-07-06,3.57
2009-07-07,3.4
2009-07-08,3.37
2009-07-09,3.48
2009-07-10,3.49
2009-07-13,3.59
2009-07-14,3.57
2009-07-15,3.85
2009-07-16,3.91
2009-07-17,3.98
2009-07-20,4.16
2009-07-21,4.07
2009-07-22,3.54
2009-07-23,3.59
2009-07-24,3.78
2009-07-27,3.81
2009-07-28,3.79
2009-07-29,3.71
2009-07-30,3.67
2009-07-31,3.67
2009-08-03,3.76
2009-08-04,3.76
2009-08-05,3.74
2009-08-06,3.71
2009-08-07,3.69
2009-08-10,3.68
2009-08-11,3.59
2009-08-12,3.6
2009-08-13,3.69
2009-08-14,3.69
2009-08-17,3.53
2009-08-18,3.56
2009-08-19,3.51
2009-08-20,3.51
2009-08-21,3.7
2009-08-24,4.04
2009-08-25,4.04
2009-08-26,4.07
2009-08-27,4.25
2009-08-28,4.47
2009-08-31,4.38
2009-09-01,4.21
2009-09-02,4.28
2009-09-03,4.52
2009-09-04,4.51
2009-09-08,5.19
2009-09-09,5.19
2009-09-10,5.38
2009-09-11,5.68
2009-09-14,5.73
2009-09-15,5.9
2009-09-16,5.68
2009-09-17,5.66
2009-09-18,5.71
2009-09-21,5.82
2009-09-22,6.07
2009-09-23,6.03
2009-09-24,5.64
2009-09-25,5.8
2009-09-28,5.94
2009-09-29,5.79
2009-09-30,5.63
2009-10-01,5.38
2009-10-02,5.31
2009-10-05,5.53
2009-10-06,5.62
2009-10-07,5.54
2009-10-08,5.5
2009-10-09,5.89
2009-10-12,6.14
2009-10-13,6.09
2009-10-14,6.23
2009-10-15,6.19
2009-10-16,5.72
2009-10-19,5.87
2009-10-20,5.99
2009-10-21,5.77
2009-10-22,5.83
2009-10-23,5.59
2009-10-26,5.43
2009-10-27,5.12
2009-10-28,4.86
2009-10-29,4.94
2009-10-30,4.6
2009-11-02,4.61
2009-11-03,4.63
2009-11-04,4.69
2009-11-05,4.84
2009-11-06,5.04
2009-11-09,5.21
2009-11-10,5.14
2009-11-11,5.33
2009-11-12,6.49
2009-11-13,6.53
2009-11-16,6.42
2009-11-17,6.61
2009-11-18,7.32
2009-11-19,7.05
2009-11-20,6.95
2009-11-23,7.0
2009-11-24,6.94
2009-11-25,7.1
2009-11-27,6.85
2009-11-30,7.0
2009-12-01,7.21
2009-12-02,7.3
2009-12-03,8.04
2009-12-04,7.84
2009-12-07,8.53
2009-12-08,8.67
2009-12-09,8.7
2009-12-10,8.58
2009-12-11,8.65
2009-12-14,8.69
2009-12-15,8.82
2009-12-16,9.18
2009-12-17,9.11
2009-12-18,9.05
2009-12-21,9.53
2009-12-22,9.42
2009-12-23,9.66
2009-12-24,9.88
2009-12-28,9.81
2009-12-29,9.74
2009-12-30,9.71
2009-12-31,9.67
2010-01-04,9.71
2010-01-05,9.71
2010-01-06,9.57
2010-01-07,9.48
2010-01-08,9.41
2010-01-11,9.14
2010-01-12,8.64
2010-01-13,9.15
2010-01-14,9.0
2010-01-15,8.85
2010-01-19,9.02
2010-01-20,8.86
2010-01-21,9.0
2010-01-22,7.91
2010-01-25,8.08
2010-01-26,8.09
2010-01-27,8.2
2010-01-28,7.88
2010-01-29,7.47
2010-02-01,7.97
2010-02-02,7.9
2010-02-03,7.79
2010-02-04,7.2
2010-02-05,7.35
2010-02-08,7.44
2010-02-09,7.53
2010-02-10,7.65
2010-02-11,7.84
2010-02-12,7.88
2010-02-16,8.05
2010-02-17,8.03
2010-02-18,7.95
2010-02-19,7.91
2010-02-22,7.92
2010-02-23,7.79
2010-02-24,8.04
2010-02-25,7.88
2010-02-26,7.91
2010-03-01,8.19
2010-03-02,8.35
2010-03-03,8.34
2010-03-04,8.49
2010-03-05,8.6
2010-03-08,8.65
2010-03-09,8.63
2010-03-10,8.91
2010-03-11,8.95
2010-03-12,8.93
2010-03-15,8.91
2010-03-16,9.39
2010-03-17,9.68
2010-03-18,9.38
2010-03-19,9.12
2010-03-22,9.3
2010-03-23,9.45
2010-03-24,9.24
2010-03-25,9.02
2010-03-26,9.02
2010-03-29,9.11
2010-03-30,9.26
2010-03-31,9.25
2010-04-01,9.37
2010-04-05,9.51
2010-04-06,9.35
2010-04-07,9.67
2010-04-08,9.43
2010-04-09,9.31
2010-04-12,9.43
2010-04-13,9.56
2010-04-14,9.89
2010-04-15,10.17
2010-04-16,9.81
2010-04-19,9.59
2010-04-20,9.73
2010-04-21,9.8
2010-04-22,9.88
2010-04-23,9.77
2010-04-26,9.98
2010-04-27,9.6
2010-04-28,9.55
2010-04-29,9.74
2010-04-30,9.08
2010-05-03,9.3
2010-05-04,8.69
2010-05-05,8.56
2010-05-06,8.27
2010-05-07,8.4
2010-05-10,9.0
2010-05-11,9.08
2010-05-12,9.48
2010-05-13,9.43
2010-05-14,8.81
2010-05-17,8.85
2010-05-18,8.42
2010-05-19,8.48
2010-05-20,8.12
2010-05-21,8.39
2010-05-24,8.1
2010-05-25,8.14
2010-05-26,8.22
2010-05-27,8.78
2010-05-28,8.57
2010-06-01,8.16
2010-06-02,8.54
2010-06-03,8.68
2010-06-04,8.11
2010-06-07,7.72
2010-06-08,7.77
2010-06-09,7.62
2010-06-10,8.01
2010-06-11,8.13
2010-06-14,8.27
2010-06-15,8.85
2010-06-16,8.9
2010-06-17,8.89
2010-06-18,8.83
2010-06-21,8.8
2010-06-22,8.58
2010-06-23,8.56
2010-06-24,8.13
2010-06-25,8.1
2010-06-28,8.05
2010-06-29,7.49
2010-06-30,7.33
2010-07-01,7.39
2010-07-02,7.19
2010-07-06,7.04
2010-07-07,7.38
2010-07-08,7.36
2010-07-09,7.34
2010-07-12,7.36
2010-07-13,7.53
2010-07-14,7.44
2010-07-15,7.42
2010-07-16,7.38
2010-07-19,7.44
2010-07-20,7.6
2010-07-21,7.38
2010-07-22,7.61
2010-07-23,7.81
2010-07-26,8.07
2010-07-27,8.18
2010-07-28,7.98
2010-07-29,7.78
2010-07-30,7.48
2010-08-02,7.65
2010-08-03,7.5
2010-08-04,7.52
2010-08-05,7.49
2010-08-06,7.45
2010-08-09,7.42
2010-08-10,6.82
2010-08-11,6.49
2010-08-12,6.59
2010-08-13,6.5
2010-08-16,6.62
2010-08-17,6.63
2010-08-18,6.57
2010-08-19,6.41
2010-08-20,6.27
2010-08-23,6.14
2010-08-24,6.0
2010-08-25,6.14
2010-08-26,5.87
2010-08-27,6.08
2010-08-30,5.78
2010-08-31,5.61
2010-09-01,5.75
2010-09-02,5.93
2010-09-03,6.1
2010-09-07,5.95
2010-09-08,5.82
2010-09-09,5.86
2010-09-10,5.78
2010-09-13,6.17
2010-09-14,6.28
2010-09-15,6.23
2010-09-16,6.15
2010-09-17,6.13
2010-09-20,6.08
2010-09-21,6.18
2010-09-22,6.27
2010-09-23,6.38
2010-09-24,6.83
2010-09-27,7.0
2010-09-28,6.97
2010-09-29,7.29
2010-09-30,7.12
2010-10-01,7.06
2010-10-04,6.93
2010-10-05,6.98
2010-10-06,6.85
2010-10-07,6.88
2010-10-08,7.06
2010-10-11,7.24
2010-10-12,7.3
2010-10-13,7.23
2010-10-14,7.14
2010-10-15,7.13
2010-10-18,6.97
2010-10-19,6.95
2010-10-20,6.82
2010-10-21,6.89
2010-10-22,6.9
2010-10-25,7.27
2010-10-26,7.2
2010-10-27,7.34
2010-10-28,7.62
2010-10-29,7.34
2010-11-01,7.37
2010-11-02,7.54
2010-11-03,7.64
2010-11-04,8.0
2010-11-05,8.03
2010-11-08,8.15
2010-11-09,7.92
2010-11-10,7.74
2010-11-11,7.64
2010-11-12,7.64
2010-11-15,7.57
2010-11-16,7.43
2010-11-17,7.34
2010-11-18,7.33
2010-11-19,7.47
2010-11-22,7.41
2010-11-23,7.34
2010-11-24,7.61
2010-11-26,7.55
2010-11-29,7.37
2010-11-30,7.29
2010-12-01,7.51
2010-12-02,7.54
2010-12-03,7.65
2010-12-06,7.81
2010-12-07,8.02
2010-12-08,8.18
2010-12-09,7.96
2010-12-10,8.09
2010-12-13,8.23
2010-12-14,8.06
2010-12-15,8.02
2010-12-16,8.04
2010-12-17,8.09
2010-12-20,8.24
2010-12-21,8.14
2010-12-22,8.13
2010-12-23,8.03
2010-12-27,8.06
2010-12-28,8.09
2010-12-29,8.08
2010-12-30,8.15
2010-12-31,8.18
2011-01-03,8.46
2011-01-04,8.78
2011-01-05,8.89
2011-01-06,8.7
2011-01-07,8.83
2011-01-10,9.2
2011-01-11,8.37
2011-01-12,8.38
2011-01-13,8.25
2011-01-14,8.18
2011-01-18,8.1
2011-01-19,7.94
2011-01-20,8.01
2011-01-21,7.54
2011-01-24,7.69
2011-01-25,7.47
2011-01-26,7.5
2011-01-27,7.75
2011-01-28,7.5
2011-01-31,7.82
2011-02-01,8.22
2011-02-02,8.29
2011-02-03,8.33
2011-02-04,8.4
2011-02-07,8.33
2011-02-08,8.23
2011-02-09,8.22
2011-02-10,8.22
2011-02-11,8.27
2011-02-14,8.63
2011-02-15,8.61
2011-02-16,8.99
2011-02-17,9.45
2011-02-18,9.2
2011-02-22,8.86
2011-02-23,8.56
2011-02-24,9.09
2011-02-25,9.31
2011-02-28,9.21
2011-03-01,9.03
2011-03-02,9.19
2011-03-03,9.3
2011-03-04,9.22
2011-03-07,8.83
2011-03-08,9.01
2011-03-09,8.67
2011-03-10,8.42
2011-03-11,8.64
2011-03-14,8.42
2011-03-15,8.3
2011-03-16,8.13
2011-03-17,8.32
2011-03-18,8.55
2011-03-21,8.55
2011-03-22,8.36
2011-03-23,8.58
2011-03-24,8.84
2011-03-25,8.86
2011-03-28,8.69
2011-03-29,8.66
2011-03-30,8.8
2011-03-31,8.59
2011-04-01,8.36
2011-04-04,8.09
2011-04-05,8.12
2011-04-06,8.44
2011-04-07,8.41
2011-04-08,8.46
2011-04-11,8.42
2011-04-12,8.27
2011-04-13,8.2
2011-04-14,8.19
2011-04-15,8.28
2011-04-18,8.2
2011-04-19,8.28
2011-04-20,8.61
2011-04-21,8.68
2011-04-25,8.7
2011-04-26,8.88
2011-04-27,8.95
2011-04-28,9.07
2011-04-29,9.1
2011-05-02,9.03
2011-05-03,8.79
2011-05-04,8.77
2011-05-05,8.86
2011-05-06,8.92
2011-05-09,8.94
2011-05-10,8.94
2011-05-11,8.89
2011-05-12,8.93
2011-05-13,8.9
2011-05-16,8.67
2011-05-17,8.52
2011-05-18,8.67
2011-05-19,8.64
2011-05-20,8.62
2011-05-23,8.49
2011-05-24,8.39
2011-05-25,8.43
2011-05-26,8.49
2011-05-27,8.5
2011-05-31,8.68
2011-06-01,8.38
2011-06-02,8.23
2011-06-03,7.96
2011-06-06,7.8
2011-06-07,7.73
2011-06-08,7.62
2011-06-09,7.63
2011-06-10,7.59
2011-06-13,7.55
2011-06-14,7.66
2011-06-15,7.5
2011-06-16,7.19
2011-06-17,7.01
2011-06-20,6.88
2011-06-21,7.23
2011-06-22,7.05
2011-06-23,7.07
2011-06-24,6.89
2011-06-27,6.92
2011-06-28,6.95
2011-06-29,6.88
2011-06-30,6.98
2011-07-01,7.1
2011-07-05,7.14
2011-07-06,7.0
2011-07-07,7.15
2011-07-08,6.96
2011-07-11,6.76
2011-07-12,6.44
2011-07-13,6.48
2011-07-14,6.44
2011-07-15,6.44
2011-07-18,6.18
2011-07-19,6.49
2011-07-20,6.6
2011-07-21,6.51
2011-07-22,7.77
2011-07-25,7.62
2011-07-26,7.65
2011-07-27,7.52
2011-07-28,7.41
2011-07-29,7.37
2011-08-01,7.23
2011-08-02,7.1
2011-08-03,7.16
2011-08-04,6.51
2011-08-05,6.57
2011-08-08,5.96
2011-08-09,6.18
2011-08-10,5.83
2011-08-11,6.2
2011-08-12,6.21
2011-08-15,6.44
2011-08-16,6.34
2011-08-17,6.14
2011-08-18,5.79
2011-08-19,5.96
2011-08-22,6.04
2011-08-23,6.49
2011-08-24,6.33
2011-08-25,6.36
2011-08-26,6.49
2011-08-29,6.83
2011-08-30,6.84
2011-08-31,6.81
2011-09-01,6.67
2011-09-02,6.35
2011-09-06,6.3
2011-09-07,6.75
2011-09-08,6.82
2011-09-09,6.53
2011-09-12,6.7
2011-09-13,6.97
2011-09-14,7.21
2011-09-15,7.33
2011-09-16,7.19
2011-09-19,6.93
2011-09-20,6.73
2011-09-21,6.5
2011-09-22,6.14
2011-09-23,6.16
2011-09-26,6.43
2011-09-27,6.5
2011-09-28,6.16
2011-09-29,5.32
2011-09-30,5.08
2011-10-03,4.53
2011-10-04,4.69
2011-10-05,4.81
2011-10-06,4.84
2011-10-07,4.72
2011-10-10,4.85
2011-10-11,4.85
2011-10-12,4.95
2011-10-13,4.97
2011-10-14,4.91
2011-10-17,4.66
2011-10-18,4.82
2011-10-19,4.73
2011-10-20,4.54
2011-10-21,4.72
2011-10-24,5.05
2011-10-25,4.92
2011-10-26,5.09
2011-10-27,5.51
2011-10-28,5.94
2011-10-31,5.82
2011-11-01,5.31
2011-11-02,5.45
2011-11-03,5.72
2011-11-04,5.66
2011-11-07,5.68
2011-11-08,5.74
2011-11-09,5.39
2011-11-10,5.67
2011-11-11,5.95
2011-11-14,5.8
2011-11-15,5.75
2011-11-16,5.67
2011-11-17,5.43
2011-11-18,5.45
2011-11-21,5.43
2011-11-22,5.3
2011-11-23,5.07
2011-11-25,4.96
2011-11-28,5.3
2011-11-29,5.33
2011-11-30,5.69
2011-12-01,5.71
2011-12-02,5.66
2011-12-05,5.75
2011-12-06,5.66
2011-12-07,5.73
2011-12-08,5.46
2011-12-09,5.55
2011-12-12,5.31
2011-12-13,5.19
2011-12-14,5.07
2011-12-15,5.04
2011-12-16,5.13
2011-12-19,4.86
2011-12-20,5.17
2011-12-21,5.07
2011-12-22,5.45
2011-12-23,5.42
2011-12-27,5.39
2011-12-28,5.28
2011-12-29,5.36
2011-12-30,5.41
2012-01-03,5.46
2012-01-04,5.46
2012-01-05,5.45
2012-01-06,5.41
2012-01-09,5.59
2012-01-10,5.71
2012-01-11,5.82
2012-01-12,5.81
2012-01-13,5.66
2012-01-17,5.73
2012-01-18,5.96
2012-01-19,6.24
2012-01-20,6.42
2012-01-23,6.51
2012-01-24,6.54
2012-01-25,6.72
2012-01-26,6.75
2012-01-27,6.83
2012-01-30,6.74
2012-01-31,6.71
2012-02-01,6.9
2012-02-02,6.92
2012-02-03,7.07
2012-02-06,6.92
2012-02-07,7.14
2012-02-08,7.23
2012-02-09,7.23
2012-02-10,7.05
2012-02-13,7.29
2012-02-14,7.33
2012-02-15,7.31
2012-02-16,7.58
2012-02-17,7.42
2012-02-21,7.28
2012-02-22,7.13
2012-02-23,7.28
2012-02-24,7.46
2012-02-27,7.49
2012-02-28,7.51
2012-02-29,7.36
2012-03-01,7.51
2012-03-02,7.47
2012-03-05,7.06
2012-03-06,6.91
2012-03-07,7.17
2012-03-08,7.46
2012-03-09,7.59
2012-03-12,7.48
2012-03-13,7.77
2012-03-14,7.77
2012-03-15,8.25
2012-03-16,8.21
2012-03-19,8.16
2012-03-20,8.05
2012-03-21,8.04
2012-03-22,8.02
2012-03-23,8.09
2012-03-26,8.23
2012-03-27,8.18
2012-03-28,8.08
2012-03-29,8.12
2012-03-30,8.01
2012-04-02,8.21
2012-04-03,7.96
2012-04-04,7.81
2012-04-05,7.86
2012-04-09,7.75
2012-04-10,7.55
2012-04-11,7.65
2012-04-12,7.91
2012-04-13,7.73
2012-04-16,7.71
2012-04-17,7.96
2012-04-18,7.96
2012-04-19,7.96
2012-04-20,7.76
2012-04-23,7.39
2012-04-24,7.31
2012-04-25,7.39
2012-04-26,7.45
2012-04-27,7.34
2012-04-30,7.35
2012-05-01,7.59
2012-05-02,7.62
2012-05-03,7.42
2012-05-04,7.17
2012-05-07,7.19
2012-05-08,7.05
2012-05-09,6.87
2012-05-10,6.78
2012-05-11,6.8
2012-05-14,6.75
2012-05-15,6.61
2012-05-16,6.4
2012-05-17,6.13
2012-05-18,6.02
2012-05-21,6.3
2012-05-22,6.16
2012-05-23,6.08
2012-05-24,6.03
2012-05-25,6.22
2012-05-29,6.46
2012-05-30,6.17
2012-05-31,6.08
2012-06-01,5.73
2012-06-04,5.63
2012-06-05,5.83
2012-06-06,6.02
2012-06-07,5.74
2012-06-08,5.89
2012-06-11,5.69
2012-06-12,5.91
2012-06-13,5.75
2012-06-14,5.75
2012-06-15,5.86
2012-06-18,5.92
2012-06-19,5.81
2012-06-20,6.07
2012-06-21,5.72
2012-06-22,5.72
2012-06-25,5.4
2012-06-26,5.45
2012-06-27,5.49
2012-06-28,5.41
2012-06-29,5.72
2012-07-02,5.74
2012-07-03,5.99
2012-07-05,5.88
2012-07-06,5.75
2012-07-09,5.62
2012-07-10,4.99
2012-07-11,4.9
2012-07-12,4.88
2012-07-13,4.88
2012-07-16,4.82
2012-07-17,4.89
2012-07-18,4.87
2012-07-19,4.86
2012-07-20,4.23
2012-07-23,4.14
2012-07-24,4.05
2012-07-25,4.01
2012-07-26,4.05
2012-07-27,4.07
2012-07-30,4.1
2012-07-31,4.06
2012-08-01,4.05
2012-08-02,3.98
2012-08-03,4.09
2012-08-06,4.0
2012-08-07,4.04
2012-08-08,4.4
2012-08-09,4.37
2012-08-10,4.34
2012-08-13,4.24
2012-08-14,4.13
2012-08-15,4.18
2012-08-16,4.16
2012-08-17,4.09
2012-08-20,4.09
2012-08-21,4.05
2012-08-22,4.01
2012-08-23,3.91
2012-08-24,3.92
2012-08-27,3.84
2012-08-28,3.78
2012-08-29,3.78
2012-08-30,3.7
2012-08-31,3.7
2012-09-04,3.63
2012-09-05,3.52
2012-09-06,3.65
2012-09-07,3.47
2012-09-10,3.47
2012-09-11,3.75
2012-09-12,3.9
2012-09-13,3.92
2012-09-14,3.9
2012-09-17,4.02
2012-09-18,3.62
2012-09-19,3.65
2012-09-20,3.6
2012-09-21,3.59
2012-09-24,3.47
2012-09-25,3.28
2012-09-26,3.33
2012-09-27,3.44
2012-09-28,3.37
2012-10-01,3.29
2012-10-02,3.27
2012-10-03,3.12
2012-10-04,3.23
2012-10-05,3.22
2012-10-08,3.2
2012-10-09,3.25
2012-10-10,3.16
2012-10-11,3.22
2012-10-12,2.75
2012-10-15,2.75
2012-10-16,2.68
2012-10-17,2.75
2012-10-18,2.65
2012-10-19,2.18
2012-10-22,2.1
2012-10-23,2.15
2012-10-24,2.09
2012-10-25,2.13
2012-10-26,2.07
2012-10-31,2.06
2012-11-01,2.12
2012-11-02,2.09
2012-11-05,2.11
2012-11-06,2.08
2012-11-07,2.01
2012-11-08,1.99
2012-11-09,2.04
2012-11-12,2.0
2012-11-13,2.1
2012-11-14,1.93
2012-11-15,1.88
2012-11-16,1.86
2012-11-19,1.92
2012-11-20,1.88
2012-11-21,1.88
2012-11-23,1.93
2012-11-26,1.86
2012-11-27,1.89
2012-11-28,1.98
2012-11-29,2.04
2012-11-30,2.18
2012-12-03,2.34
2012-12-04,2.27
2012-12-05,2.28
2012-12-06,2.33
2012-12-07,2.36
2012-12-10,2.32
2012-12-11,2.34
2012-12-12,2.37
2012-12-13,2.41
2012-12-14,2.4
2012-12-17,2.46
2012-12-18,2.52
2012-12-19,2.5
2012-12-20,2.4
2012-12-21,2.54
2012-12-24,2.49
2012-12-26,2.43
2012-12-27,2.39
2012-12-28,2.28
2012-12-31,2.41
2013-01-02,2.53
2013-01-03,2.49
2013-01-04,2.59
2013-01-07,2.67
2013-01-08,2.67
2013-01-09,2.62
2013-01-10,2.62
2013-01-11,2.67
2013-01-14,2.64
2013-01-15,2.68
2013-01-16,2.72
2013-01-17,2.74
2013-01-18,2.47
2013-01-22,2.44
2013-01-23,2.73
2013-01-24,2.78
2013-01-25,2.85
2013-01-28,2.82
2013-01-29,2.73
2013-01-30,2.65
2013-01-31,2.59
2013-02-01,2.615
2013-02-04,2.525
2013-02-05,2.6
2013-02-06,2.61
2013-02-07,2.58
2013-02-08,2.585
2013-02-11,2.675
2013-02-12,2.76
2013-02-13,2.745
2013-02-14,2.74
2013-02-15,2.705
2013-02-19,2.81
2013-02-20,2.69
2013-02-21,2.6
2013-02-22,2.6
2013-02-25,2.54
2013-02-26,2.46
2013-02-27,2.53
2013-02-28,2.5
2013-03-01,2.425
2013-03-04,2.39
2013-03-05,2.42
2013-03-06,2.42
2013-03-07,2.56
2013-03-08,2.55
2013-03-11,2.59
2013-03-12,2.61
2013-03-13,2.6
2013-03-14,2.62
2013-03-15,2.62
2013-03-18,2.65
2013-03-19,2.66
2013-03-20,2.75
2013-03-21,2.63
2013-03-22,2.54
2013-03-25,2.5
2013-03-26,2.53
2013-03-27,2.54
2013-03-28,2.55
2013-04-01,2.44
2013-04-02,2.4
2013-04-03,2.32
2013-04-04,2.34
2013-04-05,2.29
2013-04-08,2.59
2013-04-09,2.61
2013-04-10,2.61
2013-04-11,2.51
2013-04-12,2.48
2013-04-15,2.4
2013-04-16,2.44
2013-04-17,2.4
2013-04-18,2.55
2013-04-19,2.45
2013-04-22,2.46
2013-04-23,2.53
2013-04-24,2.61
2013-04-25,2.67
2013-04-26,2.63
2013-04-29,2.69
2013-04-30,2.82
2013-05-01,3.22
2013-05-02,3.4
2013-05-03,3.6
2013-05-06,3.6
2013-05-07,3.54
2013-05-08,3.85
2013-05-09,3.86
2013-05-10,3.96
2013-05-13,4.18
2013-05-14,4.27
2013-05-15,4.39
2013-05-16,3.82
2013-05-17,4.07
2013-05-20,4.11
2013-05-21,4.01
2013-05-22,3.96
2013-05-23,4.01
2013-05-24,4.05
2013-05-28,4.045
2013-05-29,3.98
2013-05-30,4.05
2013-05-31,3.99
2013-06-03,3.95
2013-06-04,4.02
2013-06-05,3.91
2013-06-06,3.93
2013-06-07,3.93
2013-06-10,4.05
2013-06-11,3.97
2013-06-12,3.91
2013-06-13,3.94
2013-06-14,3.93
2013-06-17,4.05
2013-06-18,4.079
2013-06-19,4.07
2013-06-20,3.87
2013-06-21,4.01
2013-06-24,4.05
2013-06-25,4.15
2013-06-26,4.14
2013-06-27,4.08
2013-06-28,4.1
2013-07-01,4.09
2013-07-02,3.99
2013-07-03,4.06
2013-07-05,4.07
2013-07-08,4.0
2013-07-09,4.06
2013-07-10,3.98
2013-07-11,4.45
2013-07-12,4.31
2013-07-15,4.4
2013-07-16,4.43
2013-07-17,4.39
2013-07-18,4.62
2013-07-19,4.03
2013-07-22,3.9
2013-07-23,3.66
2013-07-24,3.62
2013-07-25,3.7
2013-07-26,3.83
2013-07-29,3.76
2013-07-30,3.83
2013-07-31,3.77
2013-08-01,3.82
2013-08-02,3.81
2013-08-05,3.82
2013-08-06,3.72
2013-08-07,3.68
2013-08-08,3.7
2013-08-09,3.65
