date,close_price
1998-01-02,12.6177
1998-01-05,12.9528
1998-01-06,13.3936
1998-01-07,13.0586
1998-01-08,12.7852
1998-01-09,12.3973
1998-01-12,12.3444
1998-01-13,12.3444
1998-01-14,12.6177
1998-01-15,12.7852
1998-01-16,12.8381
1998-01-20,13.1203
1998-01-21,13.0057
1998-01-22,12.6794
1998-01-23,13.0057
1998-01-26,12.8999
1998-01-27,12.7852
1998-01-28,13.0586
1998-01-29,13.2261
1998-01-30,13.7199
1998-02-02,14.002
1998-02-03,14.0549
1998-02-04,14.1078
1998-02-05,14.0549
1998-02-06,14.0549
1998-02-09,14.2754
1998-02-10,14.1607
1998-02-11,14.1607
1998-02-12,14.1607
1998-02-13,14.0549
1998-02-17,14.4429
1998-02-18,14.4429
1998-02-19,14.3812
1998-02-20,14.4429
1998-02-23,15.0425
1998-02-24,15.6509
1998-02-25,15.3775
1998-02-26,15.8184
1998-02-27,15.8184
1998-03-02,15.7038
1998-03-03,15.9859
1998-03-04,15.5451
1998-03-05,15.3775
1998-03-06,15.4834
1998-03-09,15.2629
1998-03-10,15.1042
1998-03-11,15.5451
1998-03-12,15.598
1998-03-13,15.8184
1998-03-16,15.3775
1998-03-17,15.0425
1998-03-18,15.2629
1998-03-19,15.0425
1998-03-20,14.9896
1998-03-23,14.9896
1998-03-24,15.0425
1998-03-25,15.2629
1998-03-26,15.1571
1998-03-27,15.4834
1998-03-30,14.8838
1998-03-31,15.1571
1998-04-01,15.2629
1998-04-02,15.1042
1998-04-03,15.4834
1998-04-06,15.4304
1998-04-07,15.7038
1998-04-08,15.8184
1998-04-09,15.8184
1998-04-13,15.7655
1998-04-14,15.8184
1998-04-15,16.2593
1998-04-16,16.3651
1998-04-17,16.4268
1998-04-20,15.9859
1998-04-21,15.8713
1998-04-22,15.8713
1998-04-23,15.8184
1998-04-24,15.6509
1998-04-27,13.4994
1998-04-28,13.6141
1998-04-29,13.6141
1998-04-30,13.667
1998-05-01,13.6141
1998-05-04,13.6141
1998-05-05,13.6141
1998-05-06,13.3936
1998-05-07,13.6141
1998-05-08,13.667
1998-05-11,13.667
1998-05-12,13.9403
1998-05-13,14.1078
1998-05-14,14.0549
1998-05-15,14.7691
1998-05-18,14.2225
1998-05-19,14.7691
1998-05-20,14.7691
1998-05-21,14.7162
1998-05-22,14.7162
1998-05-26,14.1078
1998-05-27,14.1078
1998-05-28,14.3283
1998-05-29,13.4465
1998-06-01,13.3936
1998-06-02,13.3936
1998-06-03,13.2261
1998-06-04,13.1732
1998-06-05,13.2261
1998-06-08,13.2261
1998-06-09,13.2261
1998-06-10,13.1203
1998-06-11,13.0057
1998-06-12,12.7323
1998-06-15,12.5119
1998-06-16,12.5119
1998-06-17,12.7323
1998-06-18,12.3973
1998-06-19,12.2915
1998-06-22,12.3444
1998-06-23,12.459
1998-06-24,12.6177
1998-06-25,12.6794
1998-06-26,12.7323
1998-06-29,12.8381
1998-06-30,12.7323
1998-07-01,12.6177
1998-07-02,12.3973
1998-07-06,12.3444
1998-07-07,12.2386
1998-07-08,12.3444
1998-07-09,12.2386
1998-07-10,12.2915
1998-07-13,12.3973
1998-07-14,11.8506
1998-07-15,11.4626
1998-07-16,11.8506
1998-07-17,11.9564
1998-07-20,11.8506
1998-07-21,11.736
1998-07-22,11.7977
1998-07-23,11.6831
1998-07-24,11.5772
1998-07-27,11.1893
1998-07-28,10.6955
1998-07-29,10.9688
1998-07-30,11.2422
1998-07-31,11.9564
1998-08-03,11.7977
1998-08-04,11.6301
1998-08-05,11.1893
1998-08-06,11.4097
1998-08-07,11.9564
1998-08-10,11.9035
1998-08-11,11.5155
1998-08-12,11.4097
1998-08-13,11.5155
1998-08-14,11.4626
1998-08-17,11.4097
1998-08-18,11.4097
1998-08-19,11.4626
1998-08-20,11.4097
1998-08-21,11.6301
1998-08-24,11.8506
1998-08-25,11.6301
1998-08-26,11.3568
1998-08-27,10.8013
1998-08-28,10.9688
1998-08-31,10.5809
1998-09-01,10.6955
1998-09-02,10.8542
1998-09-03,10.4133
1998-09-04,10.6338
1998-09-08,11.2422
1998-09-09,10.5809
1998-09-10,10.2546
1998-09-11,10.4133
1998-09-14,10.5809
1998-09-15,10.3604
1998-09-16,10.3075
1998-09-17,10.0871
1998-09-18,10.4751
1998-09-21,10.14
1998-09-22,10.528
1998-09-23,10.3604
1998-09-24,10.4751
1998-09-25,10.5809
1998-09-28,10.8013
1998-09-29,10.8542
1998-09-30,10.6338
1998-10-01,10.6955
1998-10-02,10.4751
1998-10-05,9.91957
1998-10-06,10.14
1998-10-07,9.64623
1998-10-08,9.09074
1998-10-09,9.81377
1998-10-12,9.69914
1998-10-13,9.53161
1998-10-14,9.4258
1998-10-15,9.25827
1998-10-16,9.25827
1998-10-19,9.15246
1998-10-20,9.53161
1998-10-21,9.25827
1998-10-22,9.20536
1998-10-23,8.8703
1998-10-26,9.03783
1998-10-27,9.97248
1998-10-28,10.528
1998-10-29,9.97248
1998-10-30,10.0871
1998-11-02,9.81377
1998-11-03,10.3075
1998-11-04,11.0747
1998-11-05,10.6955
1998-11-06,10.6955
1998-11-09,10.4751
1998-11-10,10.4133
1998-11-11,9.86667
1998-11-12,9.64623
1998-11-13,9.91957
1998-11-16,10.2546
1998-11-17,10.14
1998-11-18,9.81377
1998-11-19,9.69914
1998-11-20,9.53161
1998-11-23,9.91957
1998-11-24,9.69914
1998-11-25,9.64623
1998-11-27,9.69914
1998-11-30,8.8703
1998-12-01,8.98493
1998-12-02,9.09074
1998-12-03,8.8174
1998-12-04,8.64987
1998-12-07,8.27072
1998-12-08,8.27072
1998-12-09,8.15609
1998-12-10,8.209
1998-12-11,8.37653
1998-12-14,8.32362
1998-12-15,8.05029
1998-12-16,7.76813
1998-12-17,7.82985
1998-12-18,7.60942
1998-12-21,8.05029
1998-12-22,7.76813
1998-12-23,7.82985
1998-12-24,7.82985
1998-12-28,7.49479
1998-12-29,7.93566
1998-12-30,7.82985
1998-12-31,7.82985
1999-01-04,7.82985
1999-01-05,7.38898
1999-01-06,7.66232
1999-01-07,7.82985
1999-01-08,7.66232
1999-01-11,7.71522
1999-01-12,7.54769
1999-01-13,7.60942
1999-01-14,7.71522
1999-01-15,7.98856
1999-01-19,8.209
1999-01-20,7.93566
1999-01-21,7.98856
1999-01-22,8.27072
1999-01-25,8.54406
1999-01-26,8.05029
1999-01-27,7.93566
1999-01-28,8.27072
1999-01-29,8.8703
1999-02-01,8.59696
1999-02-02,7.98856
1999-02-03,7.60942
1999-02-04,7.71522
1999-02-05,7.76813
1999-02-08,7.60942
1999-02-09,7.38898
1999-02-10,7.44188
1999-02-11,7.44188
1999-02-12,8.27072
1999-02-16,7.82985
1999-02-17,7.54769
1999-02-18,7.49479
1999-02-19,7.32726
1999-02-22,7.49479
1999-02-23,7.38898
1999-02-24,7.27435
1999-02-25,7.32726
1999-02-26,7.54769
1999-03-01,7.60942
1999-03-02,7.49479
1999-03-03,7.22145
1999-03-04,7.44188
1999-03-05,7.49479
1999-03-08,7.27435
1999-03-09,7.82985
1999-03-10,7.71522
1999-03-11,8.15609
1999-03-12,7.98856
1999-03-15,7.98856
1999-03-16,7.93566
1999-03-17,7.76813
1999-03-18,7.82985
1999-03-19,7.66232
1999-03-22,7.54769
1999-03-23,7.38898
1999-03-24,7.49479
1999-03-25,7.27435
1999-03-26,7.38898
1999-03-29,7.93566
1999-03-30,7.44188
1999-03-31,7.32726
1999-04-01,7.38898
1999-04-05,7.71522
1999-04-06,7.54769
1999-04-07,7.66232
1999-04-08,7.66232
1999-04-09,7.82985
1999-04-12,7.98856
1999-04-13,7.82985
1999-04-14,8.59696
1999-04-15,9.25827
1999-04-16,8.98493
1999-04-19,10.528
1999-04-20,10.3604
1999-04-21,10.3604
1999-04-22,10.3075
1999-04-23,10.0342
1999-04-26,9.64623
1999-04-27,9.59333
1999-04-28,9.81377
1999-04-29,10.4751
1999-04-30,10.3604
1999-05-03,10.8013
1999-05-04,10.8013
1999-05-05,10.528
1999-05-06,10.528
1999-05-07,10.528
1999-05-10,10.4751
1999-05-11,10.6955
1999-05-12,10.6338
1999-05-13,10.528
1999-05-14,10.6338
1999-05-17,10.5809
1999-05-18,10.14
1999-05-19,9.91957
1999-05-20,9.69914
1999-05-21,9.75204
1999-05-24,9.69914
1999-05-25,9.69914
1999-05-26,9.75204
1999-05-27,9.91957
1999-05-28,10.14
1999-06-01,9.86667
1999-06-02,9.86667
1999-06-03,9.91957
1999-06-04,9.91957
1999-06-07,9.91957
1999-06-08,9.64623
1999-06-09,9.53161
1999-06-10,9.64623
1999-06-11,9.53161
1999-06-14,9.4787
1999-06-15,9.86667
1999-06-16,10.14
1999-06-17,10.5809
1999-06-18,10.528
1999-06-21,10.4751
1999-06-22,10.3604
1999-06-23,10.3604
1999-06-24,10.1929
1999-06-25,10.14
1999-06-28,10.5809
1999-06-29,10.6338
1999-06-30,10.7484
1999-07-01,11.0217
1999-07-02,11.1893
1999-07-06,11.4097
1999-07-07,11.0747
1999-07-08,11.0217
1999-07-09,11.0217
1999-07-12,10.528
1999-07-13,10.0871
1999-07-14,9.64623
1999-07-15,9.91957
1999-07-16,9.91957
1999-07-19,10.0342
1999-07-20,10.4133
1999-07-21,10.0342
1999-07-22,10.14
1999-07-23,9.86667
1999-07-26,9.69914
1999-07-27,10.3075
1999-07-28,10.5809
1999-07-29,10.14
1999-07-30,10.6955
1999-08-02,11.1364
1999-08-03,10.8542
1999-08-04,11.4626
1999-08-05,11.5772
1999-08-06,11.6301
1999-08-09,11.4626
1999-08-10,11.4626
1999-08-11,11.5155
1999-08-12,11.5772
1999-08-13,11.4626
1999-08-16,11.6301
1999-08-17,11.7977
1999-08-18,11.7977
1999-08-19,11.9035
1999-08-20,12.0181
1999-08-23,11.9035
1999-08-24,11.9035
1999-08-25,11.3568
1999-08-26,11.1364
1999-08-27,10.9159
1999-08-30,11.2422
1999-08-31,11.5772
1999-09-01,11.4626
1999-09-02,11.3568
1999-09-03,11.4626
1999-09-07,10.9159
1999-09-08,10.9688
1999-09-09,10.6955
1999-09-10,10.5809
1999-09-13,10.4751
1999-09-14,10.0342
1999-09-15,10.14
1999-09-16,10.0871
1999-09-17,10.2546
1999-09-20,10.0342
1999-09-21,9.86667
1999-09-22,9.3729
1999-09-23,9.3729
1999-09-24,8.98493
1999-09-27,9.03783
1999-09-28,8.8703
1999-09-29,9.31117
1999-09-30,10.1929
1999-10-01,9.69914
1999-10-04,9.64623
1999-10-05,9.4258
1999-10-06,9.69914
1999-10-07,9.53161
1999-10-08,9.81377
1999-10-11,10.0871
1999-10-12,10.0342
1999-10-13,9.64623
1999-10-14,9.64623
1999-10-15,9.3729
1999-10-18,9.4258
1999-10-19,9.91957
1999-10-20,9.81377
1999-10-21,9.3729
1999-10-22,9.53161
1999-10-25,9.15246
1999-10-26,8.49116
1999-10-27,8.49116
1999-10-28,8.49116
1999-10-29,8.37653
1999-11-01,8.59696
1999-11-02,8.54406
1999-11-03,8.76449
1999-11-04,9.03783
1999-11-05,8.8703
1999-11-08,8.76449
1999-11-09,8.64987
1999-11-10,8.76449
1999-11-11,8.71159
1999-11-12,8.8174
1999-11-15,8.59696
1999-11-16,8.59696
1999-11-17,8.59696
1999-11-18,8.37653
1999-11-19,8.32362
1999-11-22,8.42943
1999-11-23,8.32362
1999-11-24,8.32362
1999-11-26,8.37653
1999-11-29,8.27072
1999-11-30,8.59696
1999-12-01,8.59696
1999-12-02,8.64987
1999-12-03,8.54406
1999-12-06,8.32362
1999-12-07,8.10319
1999-12-08,8.27072
1999-12-09,8.27072
1999-12-10,8.10319
1999-12-13,7.88275
1999-12-14,8.05029
1999-12-15,7.93566
1999-12-16,7.82985
1999-12-17,7.76813
1999-12-20,7.66232
1999-12-21,7.60942
1999-12-22,7.49479
1999-12-23,7.49479
1999-12-27,7.76813
1999-12-28,7.71522
1999-12-29,7.93566
1999-12-30,8.05029
1999-12-31,8.37653
2000-01-03,7.76813
2000-01-04,7.76813
2000-01-05,7.76813
2000-01-06,8.37653
2000-01-07,8.71159
2000-01-10,8.27072
2000-01-11,7.82985
2000-01-12,7.88275
2000-01-13,8.15609
2000-01-14,7.88275
2000-01-18,7.66232
2000-01-19,7.76813
2000-01-20,7.66232
2000-01-21,7.38898
2000-01-24,7.32726
2000-01-25,7.10682
2000-01-26,7.16855
2000-01-27,7.22145
2000-01-28,7.10682
2000-01-31,6.94811
2000-02-01,6.61305
2000-02-02,6.39261
2000-02-03,6.66595
2000-02-04,6.66595
2000-02-07,6.61305
2000-02-08,6.56014
2000-02-09,6.56014
2000-02-10,6.50724
2000-02-11,6.11928
2000-02-14,6.11928
2000-02-15,5.95174
2000-02-16,5.95174
2000-02-17,5.89884
2000-02-18,5.73131
2000-02-22,5.29044
2000-02-23,5.56378
2000-02-24,5.67841
2000-02-25,5.56378
2000-02-28,5.56378
2000-02-29,6.06637
2000-03-01,5.84594
2000-03-02,5.73131
2000-03-03,5.84594
2000-03-06,5.84594
2000-03-07,5.84594
2000-03-08,5.45797
2000-03-09,5.95174
2000-03-10,5.95174
2000-03-13,6.06637
2000-03-14,6.17218
2000-03-15,6.28681
2000-03-16,6.83348
2000-03-17,6.83348
2000-03-20,6.28681
2000-03-21,6.94811
2000-03-22,6.94811
2000-03-23,6.56014
2000-03-24,6.61305
2000-03-27,6.72768
2000-03-28,6.78058
2000-03-29,7.10682
2000-03-30,7.32726
2000-03-31,7.27435
2000-04-03,7.27435
2000-04-04,6.94811
2000-04-05,6.88639
2000-04-06,6.94811
2000-04-07,7.00102
2000-04-10,6.78058
2000-04-11,6.83348
2000-04-12,7.00102
2000-04-13,7.22145
2000-04-14,7.16855
2000-04-17,7.05392
2000-04-18,7.00102
2000-04-19,7.22145
2000-04-20,7.16855
2000-04-24,7.05392
2000-04-25,7.27435
2000-04-26,7.27435
2000-04-27,7.05392
2000-04-28,5.18463
2000-05-01,4.9642
2000-05-02,4.62913
2000-05-03,4.57623
2000-05-04,4.68204
2000-05-05,4.4616
2000-05-08,4.90247
2000-05-09,4.9642
2000-05-10,4.9642
2000-05-11,5.07
2000-05-12,4.68204
2000-05-15,4.74376
2000-05-16,4.84957
2000-05-17,5.07
2000-05-18,5.0171
2000-05-19,4.84957
2000-05-22,4.9642
2000-05-23,4.9642
2000-05-24,5.07
2000-05-25,4.9642
2000-05-26,4.84957
2000-05-30,5.0171
2000-05-31,4.68204
2000-06-01,4.84957
2000-06-02,4.68204
2000-06-05,4.68204
2000-06-06,4.57623
2000-06-07,4.4087
2000-06-08,4.4087
2000-06-09,4.4616
2000-06-12,4.57623
2000-06-13,4.4616
2000-06-14,4.3558
2000-06-15,4.4087
2000-06-16,4.3558
2000-06-19,4.52333
2000-06-20,4.57623
2000-06-21,4.57623
2000-06-22,4.4087
2000-06-23,4.08246
2000-06-26,4.4616
2000-06-27,4.74376
2000-06-28,4.9642
2000-06-29,4.90247
2000-06-30,5.0171
2000-07-03,5.0171
2000-07-05,4.9642
2000-07-06,4.79667
2000-07-07,4.79667
2000-07-10,4.79667
2000-07-11,4.9642
2000-07-12,5.0171
2000-07-13,5.18463
2000-07-14,4.9642
2000-07-17,4.84957
2000-07-18,4.84957
2000-07-19,4.68204
2000-07-20,4.84957
2000-07-21,4.79667
2000-07-24,4.79667
2000-07-25,4.79667
2000-07-26,4.74376
2000-07-27,4.4616
2000-07-28,4.74376
2000-07-31,4.79667
2000-08-01,4.84957
2000-08-02,4.74376
2000-08-03,4.84957
2000-08-04,4.74376
2000-08-07,4.79667
2000-08-08,4.90247
2000-08-09,4.90247
2000-08-10,5.12291
2000-08-11,5.0171
2000-08-14,5.40507
2000-08-15,5.29044
2000-08-16,5.40507
2000-08-17,5.6255
2000-08-18,5.67841
2000-08-21,5.67841
2000-08-22,5.73131
2000-08-23,5.78421
2000-08-24,5.73131
2000-08-25,5.67841
2000-08-28,5.56378
2000-08-29,5.56378
2000-08-30,5.73131
2000-08-31,5.78421
2000-09-01,5.78421
2000-09-05,5.78421
2000-09-06,5.67841
2000-09-07,5.6255
2000-09-08,5.56378
2000-09-11,5.51087
2000-09-12,5.29044
2000-09-13,5.51087
2000-09-14,5.34334
2000-09-15,5.40507
2000-09-18,5.12291
2000-09-19,5.51087
2000-09-20,5.45797
2000-09-21,5.34334
2000-09-22,5.51087
2000-09-25,5.29044
2000-09-26,4.84957
2000-09-27,5.07
2000-09-28,5.40507
2000-09-29,5.95174
2000-10-02,6.22508
2000-10-03,6.17218
2000-10-04,6.56014
2000-10-05,6.72768
2000-10-06,6.66595
2000-10-09,6.56014
2000-10-10,6.56014
2000-10-11,6.61305
2000-10-12,6.17218
2000-10-13,6.39261
2000-10-16,6.39261
2000-10-17,6.06637
2000-10-18,6.06637
2000-10-19,6.17218
2000-10-20,6.28681
2000-10-23,6.06637
2000-10-24,5.95174
2000-10-25,5.51087
2000-10-26,5.56378
2000-10-27,6.00465
2000-10-30,6.33971
2000-10-31,6.00465
2000-11-01,6.00465
2000-11-02,6.33971
2000-11-03,6.22508
2000-11-06,6.00465
2000-11-07,6.11928
2000-11-08,6.39261
2000-11-09,6.66595
2000-11-10,6.61305
2000-11-13,6.72768
2000-11-14,6.78058
2000-11-15,6.72768
2000-11-16,6.66595
2000-11-17,7.05392
2000-11-20,6.56014
2000-11-21,6.50724
2000-11-22,6.17218
2000-11-24,6.78058
2000-11-27,6.66595
2000-11-28,6.61305
2000-11-29,6.94811
2000-11-30,6.39261
2000-12-01,6.88639
2000-12-04,6.72768
2000-12-05,6.94811
2000-12-06,6.66595
2000-12-07,6.83348
2000-12-08,7.05392
2000-12-11,7.54769
2000-12-12,6.83348
2000-12-13,6.56014
2000-12-14,6.44552
2000-12-15,6.44552
2000-12-18,6.33971
2000-12-19,6.17218
2000-12-20,5.73131
2000-12-21,5.73131
2000-12-22,6.11928
2000-12-26,5.67841
2000-12-27,5.56378
2000-12-28,5.6255
2000-12-29,6.17218
2001-01-02,7.27435
2001-01-03,6.94811
2001-01-04,7.05392
2001-01-05,6.83348
2001-01-08,6.83348
2001-01-09,6.00465
2001-01-10,6.00465
2001-01-11,6.00465
2001-01-12,6.06637
2001-01-16,6.39261
2001-01-17,6.72768
2001-01-18,6.61305
2001-01-19,6.61305
2001-01-22,6.61305
2001-01-23,6.72768
2001-01-24,6.83348
2001-01-25,6.83348
2001-01-26,7.10682
2001-01-29,6.85112
2001-01-30,6.97456
2001-01-31,6.8423
2001-02-01,6.98338
2001-02-02,6.91284
2001-02-05,7.07155
2001-02-06,7.05392
2001-02-07,7.02747
2001-02-08,7.06274
2001-02-09,7.09801
2001-02-12,7.14209
2001-02-13,7.195
2001-02-14,7.14209
2001-02-15,7.31844
2001-02-16,7.08919
2001-02-20,7.14209
2001-02-21,7.10682
2001-02-22,7.18618
2001-02-23,6.92166
2001-02-26,7.12446
2001-02-27,7.05392
2001-02-28,7.15091
2001-03-01,7.2479
2001-03-02,7.40661
2001-03-05,7.61823
2001-03-06,7.8034
2001-03-07,8.01502
2001-03-08,7.90039
2001-03-09,8.55288
2001-03-12,8.28835
2001-03-13,7.97975
2001-03-14,7.72404
2001-03-15,7.83867
2001-03-16,7.84749
2001-03-19,8.07674
2001-03-20,7.61823
2001-03-21,7.18618
2001-03-22,6.96575
2001-03-23,7.15973
2001-03-26,7.27435
2001-03-27,7.20381
2001-03-28,6.20745
2001-03-29,6.54251
2001-03-30,6.79821
2001-04-02,6.61305
2001-04-03,6.69241
2001-04-04,6.85994
2001-04-05,7.27435
2001-04-06,6.97456
2001-04-09,7.195
2001-04-10,7.45952
2001-04-11,7.41543
2001-04-12,7.71522
2001-04-16,7.83867
2001-04-17,7.91802
2001-04-18,7.4507
2001-04-19,7.53006
2001-04-20,7.6006
2001-04-23,7.54769
2001-04-24,7.54769
2001-04-25,7.76813
2001-04-26,7.90921
2001-04-27,7.67114
2001-04-30,7.79458
2001-05-01,7.87394
2001-05-02,7.74168
2001-05-03,7.75049
2001-05-04,7.93566
2001-05-07,7.93566
2001-05-08,7.91802
2001-05-09,7.70641
2001-05-10,7.67995
2001-05-11,8.15609
2001-05-14,8.12082
2001-05-15,8.42062
2001-05-16,8.57933
2001-05-17,8.62342
2001-05-18,8.6675
2001-05-21,8.65869
2001-05-22,9.02902
2001-05-23,8.93203
2001-05-24,8.94966
2001-05-25,9.0731
2001-05-29,9.08192
2001-05-30,9.04665
2001-05-31,9.14364
2001-06-01,8.86149
2001-06-04,9.21418
2001-06-05,9.29354
2001-06-06,9.65505
2001-06-07,9.78731
2001-06-08,9.60215
2001-06-11,9.60215
2001-06-12,9.80495
2001-06-13,9.81377
2001-06-14,9.70796
2001-06-15,9.69914
2001-06-18,9.76968
2001-06-19,9.30236
2001-06-20,9.76968
2001-06-21,9.69914
2001-06-22,9.13482
2001-06-25,9.21418
2001-06-26,9.20536
2001-06-27,9.66387
2001-06-28,10.0959
2001-06-29,10.3164
2001-07-02,10.2282
2001-07-03,10.2723
2001-07-05,10.1841
2001-07-06,9.69032
2001-07-09,9.66387
2001-07-10,9.54924
2001-07-11,9.95484
2001-07-12,10.2987
2001-07-13,10.4751
2001-07-16,10.5368
2001-07-17,10.7572
2001-07-18,11.154
2001-07-19,11.2863
2001-07-20,11.1981
2001-07-23,10.6426
2001-07-24,10.6338
2001-07-25,10.4133
2001-07-26,10.6779
2001-07-27,10.4486
2001-07-30,10.5632
2001-07-31,10.4486
2001-08-01,10.9248
2001-08-02,10.9336
2001-08-03,10.9424
2001-08-06,10.7749
2001-08-07,11.1099
2001-08-08,10.7131
2001-08-09,11.154
2001-08-10,11.3304
2001-08-13,11.3215
2001-08-14,11.7271
2001-08-15,11.4626
2001-08-16,11.3215
2001-08-17,11.4538
2001-08-20,12.0798
2001-08-21,11.8682
2001-08-22,11.7977
2001-08-23,11.8241
2001-08-24,11.8594
2001-08-27,11.877
2001-08-28,11.7889
2001-08-29,12.0357
2001-08-30,12.2121
2001-08-31,12.3884
2001-09-04,12.6971
2001-09-05,12.3796
2001-09-06,12.362
2001-09-07,11.9917
2001-09-10,11.7448
2001-09-17,10.7131
2001-09-18,10.766
2001-09-19,10.5368
2001-09-20,9.49634
2001-09-21,9.11719
2001-09-24,9.74323
2001-09-25,10.6161
2001-09-26,10.625
2001-09-27,11.4185
2001-09-28,11.7624
2001-10-01,11.3039
2001-10-02,11.7095
2001-10-03,11.9476
2001-10-04,11.8594
2001-10-05,12.0093
2001-10-08,11.8947
2001-10-09,11.8506
2001-10-10,11.9476
2001-10-11,12.1239
2001-10-12,11.8506
2001-10-15,11.639
2001-10-16,11.9035
2001-10-17,11.4803
2001-10-18,11.4185
2001-10-19,11.4362
2001-10-22,11.5949
2001-10-23,11.5772
2001-10-24,11.6742
2001-10-25,11.736
2001-10-26,11.9211
2001-10-29,11.7271
2001-10-30,11.8947
2001-10-31,11.8241
2001-11-01,11.9035
2001-11-02,11.9388
2001-11-05,12.0798
2001-11-06,12.0887
2001-11-07,11.6566
2001-11-08,11.7712
2001-11-09,12.2915
2001-11-12,12.2562
2001-11-13,12.4061
2001-11-14,12.2562
2001-11-15,12.3091
2001-11-16,12.5736
2001-11-19,13.2261
2001-11-20,13.1115
2001-11-21,13.1379
2001-11-23,13.2966
2001-11-26,13.5259
2001-11-27,13.7992
2001-11-28,13.667
2001-11-29,13.6493
2001-11-30,13.3936
2001-12-03,13.1908
2001-12-04,13.3495
2001-12-05,13.7111
2001-12-06,13.5083
2001-12-07,13.5171
2001-12-10,13.3143
2001-12-11,13.6229
2001-12-12,13.4818
2001-12-13,13.2261
2001-12-14,13.667
2001-12-17,13.667
2001-12-18,13.7551
2001-12-19,13.5788
2001-12-20,13.279
2001-12-21,13.6934
2001-12-24,13.5259
2001-12-26,13.5347
2001-12-27,13.2702
2001-12-28,13.2085
2001-12-31,13.3143
2002-01-02,12.9439
2002-01-03,12.8117
2002-01-04,13.5964
2002-01-07,13.4377
2002-01-08,13.6405
2002-01-09,14.0108
2002-01-10,13.9668
2002-01-11,13.8433
2002-01-14,13.6846
2002-01-15,13.7199
2002-01-16,13.4554
2002-01-17,13.8698
2002-01-18,13.8433
2002-01-22,13.8874
2002-01-23,14.3283
2002-01-24,14.2842
2002-01-25,14.4341
2002-01-28,15.3423
2002-01-29,14.5223
2002-01-30,15.1483
2002-01-31,15.307
2002-02-01,15.5627
2002-02-04,15.3687
2002-02-05,15.1924
2002-02-06,15.4216
2002-02-07,15.3599
2002-02-08,15.6862
2002-02-11,16.2328
2002-02-12,16.2769
2002-02-13,16.2152
2002-02-14,16.2064
2002-02-15,16.2152
2002-02-19,15.8449
2002-02-20,15.8713
2002-02-21,15.4128
2002-02-22,15.4128
2002-02-25,15.6597
2002-02-26,15.9242
2002-02-27,16.0741
2002-02-28,15.5098
2002-03-01,15.8008
2002-03-04,15.7655
2002-03-05,15.4745
2002-03-06,16.3034
2002-03-07,16.7707
2002-03-08,16.709
2002-03-11,17.0176
2002-03-12,17.0705
2002-03-13,17.3703
2002-03-14,17.1146
2002-03-15,17.3615
2002-03-18,17.5114
2002-03-19,18.1815
2002-03-20,17.7671
2002-03-21,17.3438
2002-03-22,17.6083
2002-03-25,17.1587
2002-03-26,17.8111
2002-03-27,17.9787
2002-03-28,17.6348
2002-04-01,17.3438
2002-04-02,17.0088
2002-04-03,16.5414
2002-04-04,16.3475
2002-04-05,16.6384
2002-04-08,16.6561
2002-04-09,16.224
2002-04-10,16.7442
2002-04-11,16.3915
2002-04-12,16.5591
2002-04-15,17.0705
2002-04-16,17.3438
2002-04-17,17.1322
2002-04-18,16.3827
2002-04-19,16.3739
2002-04-22,15.8272
2002-04-23,15.3687
2002-04-24,14.875
2002-04-25,14.8573
2002-04-26,14.7339
2002-04-29,13.8874
2002-04-30,14.5399
2002-05-01,14.2577
2002-05-02,14.6633
2002-05-03,15.2629
2002-05-06,14.5928
2002-05-07,14.822
2002-05-08,14.7868
2002-05-09,14.4605
2002-05-10,13.9227
2002-05-13,14.0726
2002-05-14,14.6986
2002-05-15,14.6986
2002-05-16,14.9279
2002-05-17,15.2541
2002-05-20,15.113
2002-05-21,15.0866
2002-05-22,15.0866
2002-05-23,15.113
2002-05-24,14.822
2002-05-28,14.8485
2002-05-29,14.3724
2002-05-30,14.4076
2002-05-31,14.4605
2002-06-03,13.8786
2002-06-04,14.1167
2002-06-05,14.5928
2002-06-06,14.1078
2002-06-07,14.5223
2002-06-10,14.6898
2002-06-11,14.6104
2002-06-12,14.5311
2002-06-13,14.2577
2002-06-14,14.5134
2002-06-17,15.0778
2002-06-18,14.7515
2002-06-19,14.7691
2002-06-20,14.7074
2002-06-21,14.6986
2002-06-24,14.9014
2002-06-25,14.9367
2002-06-26,15.1218
2002-06-27,15.4569
2002-06-28,15.307
2002-07-01,14.7603
2002-07-02,14.2313
2002-07-03,14.2048
2002-07-05,14.3724
2002-07-08,14.6722
2002-07-09,14.9014
2002-07-10,14.1696
2002-07-11,13.9403
2002-07-12,14.2048
2002-07-15,13.5523
2002-07-16,13.3319
2002-07-17,13.7375
2002-07-18,13.5788
2002-07-19,12.988
2002-07-22,12.4766
2002-07-23,12.2297
2002-07-24,13.4994
2002-07-25,13.5083
2002-07-26,13.2966
2002-07-29,14.0814
2002-07-30,13.085
2002-07-31,12.9792
2002-08-01,12.988
2002-08-02,12.794
2002-08-05,12.362
2002-08-06,12.8734
2002-08-07,12.988
2002-08-08,13.2173
2002-08-09,13.0233
2002-08-12,13.085
2002-08-13,12.891
2002-08-14,13.2966
2002-08-15,13.3407
2002-08-16,13.5435
2002-08-19,13.473
2002-08-20,13.7022
2002-08-21,14.0638
2002-08-22,14.2842
2002-08-23,14.002
2002-08-26,14.3635
2002-08-27,14.1255
2002-08-28,13.5083
2002-08-29,13.6405
2002-08-30,13.667
2002-09-03,13.0498
2002-09-04,13.1291
2002-09-05,12.6001
2002-09-06,12.9968
2002-09-09,12.8646
2002-09-10,12.9528
2002-09-11,12.8734
2002-09-12,12.5472
2002-09-13,12.4766
2002-09-16,12.3884
2002-09-17,12.4325
2002-09-18,12.5912
2002-09-19,12.2033
2002-09-20,12.0093
2002-09-23,11.5772
2002-09-24,11.3833
2002-09-25,11.1628
2002-09-26,11.5243
2002-09-27,11.445
2002-09-30,11.4714
2002-10-01,12.0887
2002-10-02,11.3304
2002-10-03,11.4714
2002-10-04,11.1981
2002-10-07,10.5985
2002-10-08,11.639
2002-10-09,10.5368
2002-10-10,11.1364
2002-10-11,11.6831
2002-10-14,11.4803
2002-10-15,12.0093
2002-10-16,11.6919
2002-10-17,12.4854
2002-10-18,12.4502
2002-10-21,13.2173
2002-10-22,13.0938
2002-10-23,13.0057
2002-10-24,12.9087
2002-10-25,13.3936
2002-10-28,13.1908
2002-10-29,13.3584
2002-10-30,13.2702
2002-10-31,13.4465
2002-11-01,13.7992
2002-11-04,13.2966
2002-11-05,13.3143
2002-11-06,13.6758
2002-11-07,13.4113
2002-11-08,13.5523
2002-11-11,13.2349
2002-11-12,13.3848
2002-11-13,13.4465
2002-11-14,13.7375
2002-11-15,13.7111
2002-11-18,13.7022
2002-11-19,13.905
2002-11-20,14.3635
2002-11-21,14.7603
2002-11-22,14.4076
2002-11-25,14.3195
2002-11-26,14.2666
2002-11-27,14.8132
2002-11-29,14.822
2002-12-02,14.8397
2002-12-03,14.6369
2002-12-04,14.9984
2002-12-05,14.8309
2002-12-06,14.7691
2002-12-09,14.1343
2002-12-10,14.4605
2002-12-11,14.4341
2002-12-12,14.4076
2002-12-13,14.4164
2002-12-16,15.016
2002-12-17,14.5399
2002-12-18,14.3635
2002-12-19,14.487
2002-12-20,14.7515
2002-12-23,14.9279
2002-12-24,14.8132
2002-12-26,14.9455
2002-12-27,14.822
2002-12-30,14.8573
2002-12-31,15.21
2003-01-02,15.4657
2003-01-03,15.2806
2003-01-06,15.2188
2003-01-07,15.7126
2003-01-08,15.2188
2003-01-09,15.598
2003-01-10,15.5363
2003-01-13,15.1395
2003-01-14,15.2894
2003-01-15,14.7603
2003-01-16,15.113
2003-01-17,14.8044
2003-01-21,14.4076
2003-01-22,14.2489
2003-01-23,14.5223
2003-01-24,14.0814
2003-01-27,13.6846
2003-01-28,13.9756
2003-01-29,13.6582
2003-01-30,14.8044
2003-01-31,15.2365
2003-02-03,15.2453
2003-02-04,15.2188
2003-02-05,15.3687
2003-02-06,15.2453
2003-02-07,15.2717
2003-02-10,15.5098
2003-02-11,15.3864
2003-02-12,15.4304
2003-02-13,15.8096
2003-02-14,15.5451
2003-02-18,15.6068
2003-02-19,15.501
2003-02-20,15.3511
2003-02-21,15.6773
2003-02-24,14.9543
2003-02-25,15.1836
2003-02-26,14.9896
2003-02-27,15.3864
2003-02-28,15.4393
2003-03-03,15.4128
2003-03-04,15.4393
2003-03-05,15.4481
2003-03-06,15.0601
2003-03-07,15.1395
2003-03-10,14.8044
2003-03-11,14.6722
2003-03-12,14.8044
2003-03-13,15.3158
2003-03-14,15.2982
2003-03-17,15.695
2003-03-18,15.9154
2003-03-19,15.8713
2003-03-20,16.1182
2003-03-21,16.612
2003-03-24,15.7743
2003-03-25,16.03
2003-03-26,16.1447
2003-03-27,16.6561
2003-03-28,16.7266
2003-03-31,16.418
2003-04-01,16.9206
2003-04-02,17.4761
2003-04-03,17.1587
2003-04-04,16.9647
2003-04-07,17.2116
2003-04-08,17.0705
2003-04-09,16.6561
2003-04-10,16.85
2003-04-11,16.6384
2003-04-14,17.2645
2003-04-15,17.4496
2003-04-16,17.2116
2003-04-17,17.6172
2003-04-21,17.4232
2003-04-22,17.6701
2003-04-23,17.5466
2003-04-24,17.432
2003-04-25,17.3879
2003-04-28,17.5819
2003-04-29,17.4937
2003-04-30,17.8464
2003-05-01,17.9081
2003-05-02,18.1727
2003-05-05,17.8552
2003-05-06,18.0757
2003-05-07,17.7053
2003-05-08,15.8801
2003-05-09,16.8412
2003-05-12,16.9647
2003-05-13,16.6208
2003-05-14,16.5326
2003-05-15,16.0918
2003-05-16,15.8449
2003-05-19,14.7339
2003-05-20,15.598
2003-05-21,15.3423
2003-05-22,15.1836
2003-05-23,15.2276
2003-05-27,15.6773
2003-05-28,15.8978
2003-05-29,15.9242
2003-05-30,15.9419
2003-06-02,15.7655
2003-06-03,15.7567
2003-06-04,15.9595
2003-06-05,15.9595
2003-06-06,16.0036
2003-06-09,15.4481
2003-06-10,15.695
2003-06-11,15.9866
2003-06-12,16.3489
2003-06-13,16.3135
2003-06-16,16.6317
2003-06-17,16.7642
2003-06-18,16.3135
2003-06-19,16.0573
2003-06-20,15.9777
2003-06-23,15.2531
2003-06-24,15.3768
2003-06-25,15.2973
2003-06-26,15.3061
2003-06-27,15.2708
2003-06-30,14.8377
2003-07-01,15.8452
2003-07-02,16.1633
2003-07-03,16.0396
2003-07-07,16.4461
2003-07-08,16.7819
2003-07-09,16.4991
2003-07-10,16.1368
2003-07-11,16.2428
2003-07-14,16.0396
2003-07-15,15.9689
2003-07-16,16.181
2003-07-17,15.8098
2003-07-18,16.4284
2003-07-21,16.287
2003-07-22,16.5875
2003-07-23,16.5256
2003-07-24,16.3135
2003-07-25,16.8349
2003-07-28,16.7819
2003-07-29,16.6847
2003-07-30,16.8526
2003-07-31,17.1442
2003-08-01,17.0382
2003-08-04,17.0382
2003-08-05,16.7642
2003-08-06,16.4991
2003-08-07,16.4019
2003-08-08,16.4726
2003-08-11,16.2517
2003-08-12,16.3489
2003-08-13,16.2428
2003-08-14,16.4196
2003-08-15,16.5875
2003-08-18,16.6052
2003-08-19,16.5875
2003-08-20,16.667
2003-08-21,16.5787
2003-08-22,16.3489
2003-08-25,16.0396
2003-08-26,16.2163
2003-08-27,16.1368
2003-08-28,16.3577
2003-08-29,16.4638
2003-09-02,16.3577
2003-09-03,16.5963
2003-09-04,16.2605
2003-09-05,16.1987
2003-09-08,16.3754
2003-09-09,16.2605
2003-09-10,15.854
2003-09-11,15.7565
2003-09-12,16.0222
2003-09-15,15.8274
2003-09-16,15.8008
2003-09-17,15.7388
2003-09-18,15.9957
2003-09-19,15.9957
2003-09-22,15.6502
2003-09-23,15.8362
2003-09-24,15.9514
2003-09-25,15.9514
2003-09-26,15.8894
2003-09-29,16.0754
2003-09-30,15.8097
2003-10-01,16.2791
2003-10-02,16.1639
2003-10-03,16.7219
2003-10-06,16.4739
2003-10-07,16.5182
2003-10-08,16.3588
2003-10-09,16.3234
2003-10-10,16.2968
2003-10-13,16.5714
2003-10-14,16.5891
2003-10-15,16.5271
2003-10-16,16.4296
2003-10-17,16.3942
2003-10-20,16.4474
2003-10-21,16.5891
2003-10-22,16.4474
2003-10-23,16.6511
2003-10-24,16.5005
2003-10-27,16.5359
2003-10-28,16.6422
2003-10-29,16.8991
2003-10-30,17.2002
2003-10-31,16.9965
2003-11-03,17.1205
2003-11-04,16.8991
2003-11-05,16.9522
2003-11-06,17.0939
2003-11-07,16.9345
2003-11-10,16.6511
2003-11-11,16.6511
2003-11-12,16.8016
2003-11-13,16.9256
2003-11-14,16.6599
2003-11-17,16.6776
2003-11-18,16.5448
2003-11-19,16.6422
2003-11-20,16.5979
2003-11-21,16.9788
2003-11-24,17.0231
2003-11-25,17.0762
2003-11-26,17.2622
2003-11-28,17.1648
2003-12-01,17.5899
2003-12-02,17.4925
2003-12-03,17.5102
2003-12-04,17.6431
2003-12-05,17.4571
2003-12-08,17.8113
2003-12-09,17.8733
2003-12-10,17.6962
2003-12-11,17.9446
2003-12-12,18.1399
2003-12-15,17.9535
2003-12-16,17.8382
2003-12-17,18.3263
2003-12-18,18.4416
2003-12-19,18.2819
2003-12-22,19.0096
2003-12-23,19.054
2003-12-24,19.0007
2003-12-26,18.9741
2003-12-29,19.1339
2003-12-30,19.1161
2003-12-31,19.0451
2004-01-02,18.9209
2004-01-05,19.1072
2004-01-06,19.5865
2004-01-07,19.5776
2004-01-08,20.0746
2004-01-09,19.6752
2004-01-12,19.8083
2004-01-13,19.6131
2004-01-14,19.5243
2004-01-15,19.5243
2004-01-16,19.7373
2004-01-20,19.8527
2004-01-21,19.7728
2004-01-22,19.5155
2004-01-23,19.0451
2004-01-26,19.0806
2004-01-27,20.6071
2004-01-28,21.5922
2004-01-29,19.9681
2004-01-30,20.1988
2004-02-02,19.977
2004-02-03,19.8527
2004-02-04,19.7462
2004-02-05,19.8793
2004-02-06,20.0746
2004-02-09,19.9681
2004-02-10,19.977
2004-02-11,20.1012
2004-02-12,19.8083
2004-02-13,19.5687
2004-02-17,19.906
2004-02-18,19.7107
2004-02-19,19.6663
2004-02-20,19.2137
2004-02-23,18.7345
2004-02-24,18.6812
2004-02-25,18.5925
2004-02-26,18.5925
2004-02-27,18.4061
2004-03-01,18.6458
2004-03-02,18.9919
2004-03-03,19.0362
2004-03-04,19.1516
2004-03-05,19.1516
2004-03-08,18.9564
2004-03-09,18.8232
2004-03-10,18.0689
2004-03-11,18.4246
2004-03-12,18.9226
2004-03-15,18.5046
2004-03-16,18.6291
2004-03-17,18.6202
2004-03-18,18.2201
2004-03-19,18.0956
2004-03-22,17.6776
2004-03-23,17.8555
2004-03-24,17.9177
2004-03-25,18.4335
2004-03-26,18.5135
2004-03-29,18.7269
2004-03-30,18.9403
2004-03-31,18.9226
2004-04-01,18.9937
2004-04-02,19.4739
2004-04-05,19.5272
2004-04-06,19.5183
2004-04-07,19.3049
2004-04-08,19.1182
2004-04-12,19.2693
2004-04-13,18.9048
2004-04-14,18.8425
2004-04-15,18.7625
2004-04-16,18.5313
2004-04-19,18.6825
2004-04-20,18.6113
2004-04-21,18.7625
2004-04-22,19.4294
2004-04-23,19.4739
2004-04-26,19.6428
2004-04-27,19.7317
2004-04-28,19.5984
2004-04-29,20.0074
2004-04-30,19.7673
2004-05-03,20.0252
2004-05-04,19.8651
2004-05-05,19.7317
2004-05-06,19.714
2004-05-07,19.0648
2004-05-10,18.7892
2004-05-11,19.0204
2004-05-12,18.8514
2004-05-13,19.047
2004-05-14,19.1004
2004-05-17,18.6736
2004-05-18,18.9314
2004-05-19,18.9937
2004-05-20,19.2693
2004-05-21,19.1093
2004-05-24,18.8247
2004-05-25,18.8425
2004-05-26,19.1182
2004-05-27,19.3761
2004-05-28,19.4294
2004-06-01,19.5895
2004-06-02,19.8029
2004-06-03,19.545
2004-06-04,19.874
2004-06-07,20.123
2004-06-08,20.2564
2004-06-09,20.1852
2004-06-10,20.4075
2004-06-14,20.1983
2004-06-15,20.4299
2004-06-16,20.4478
2004-06-17,20.7774
2004-06-18,21.0447
2004-06-21,21.1605
2004-06-22,20.9378
2004-06-23,21.1605
2004-06-24,21.1427
2004-06-25,21.1784
2004-06-28,21.0269
2004-06-29,21.116
2004-06-30,21.2051
2004-07-01,20.7952
2004-07-02,20.8309
2004-07-06,20.7151
2004-07-07,20.9823
2004-07-08,20.7863
2004-07-09,21.0804
2004-07-12,21.2496
2004-07-13,21.3833
2004-07-14,21.3387
2004-07-15,21.5258
2004-07-16,21.4724
2004-07-19,21.3387
2004-07-20,21.5169
2004-07-21,20.8933
2004-07-22,20.2339
2004-07-23,19.9845
2004-07-26,20.2518
2004-07-27,20.323
2004-07-28,20.421
2004-07-29,19.9221
2004-07-30,19.4321
2004-08-02,19.3073
2004-08-03,19.2182
2004-08-04,19.5301
2004-08-05,19.0846
2004-08-06,18.8351
2004-08-09,18.7727
2004-08-10,19.3519
2004-08-11,19.3786
2004-08-12,19.1024
2004-08-13,18.8262
2004-08-16,19.3608
2004-08-17,19.3786
2004-08-18,19.5746
2004-08-19,19.3875
2004-08-20,19.5657
2004-08-23,19.236
2004-08-24,19.4766
2004-08-25,19.5835
2004-08-26,19.5924
2004-08-27,19.5479
2004-08-30,19.3162
2004-08-31,19.8241
2004-09-01,20.0112
2004-09-02,20.5458
2004-09-03,20.7061
2004-09-07,20.9111
2004-09-08,20.225
2004-09-09,20.9556
2004-09-10,20.6081
2004-09-13,20.3805
2004-09-14,20.1752
2004-09-15,20.3269
2004-09-16,20.693
2004-09-17,20.3091
2004-09-20,20.318
2004-09-21,20.8001
2004-09-22,20.9072
2004-09-23,20.9429
2004-09-24,21.3714
2004-09-27,20.8536
2004-09-28,21.5142
2004-09-29,21.6482
2004-09-30,21.4696
2004-10-01,22.4337
2004-10-04,22.1838
2004-10-05,22.1748
2004-10-06,22.0856
2004-10-07,21.9695
2004-10-08,21.7821
2004-10-11,21.8981
2004-10-12,21.6749
2004-10-13,21.2107
2004-10-14,21.1839
2004-10-15,21.4696
2004-10-18,21.4339
2004-10-19,21.2464
2004-10-20,21.3893
2004-10-21,21.4518
2004-10-22,21.0679
2004-10-25,21.3803
2004-10-26,21.4339
2004-10-27,21.7017
2004-10-28,21.8088
2004-10-29,22.0052
2004-11-01,22.0499
2004-11-02,22.0856
2004-11-03,22.407
2004-11-04,22.7194
2004-11-05,22.9158
2004-11-08,22.7462
2004-11-09,23.2997
2004-11-10,23.5675
2004-11-11,23.7906
2004-11-12,24.0049
2004-11-15,23.7996
2004-11-16,23.621
2004-11-17,23.8085
2004-11-18,23.5675
2004-11-19,23.2193
2004-11-22,23.3979
2004-11-23,23.6389
2004-11-24,23.6835
2004-11-26,23.5139
2004-11-29,23.5675
2004-11-30,23.6657
2004-12-01,24.0763
2004-12-02,23.7817
2004-12-03,23.9067
2004-12-06,23.621
2004-12-07,22.7373
2004-12-08,22.5944
2004-12-09,22.773
2004-12-10,22.3266
2004-12-13,22.8409
2004-12-14,23.1092
2004-12-15,23.0644
2004-12-16,23.3506
2004-12-17,23.127
2004-12-20,23.3953
2004-12-21,23.6726
2004-12-22,23.6457
2004-12-23,23.9677
2004-12-27,23.6636
2004-12-28,24.0124
2004-12-29,24.0392
2004-12-30,23.923
2004-12-31,23.6994
2005-01-03,24.0124
2005-01-04,23.2075
2005-01-05,22.8051
2005-01-06,23.1628
2005-01-07,22.9035
2005-01-10,23.0108
2005-01-11,22.4831
2005-01-12,22.6978
2005-01-13,22.4563
2005-01-14,22.8677
2005-01-18,22.9035
2005-01-19,22.7335
2005-01-20,22.51
2005-01-21,22.4474
2005-01-24,22.2864
2005-01-25,22.5547
2005-01-26,23.0197
2005-01-27,20.8376
2005-01-28,20.8376
2005-01-31,20.9717
2005-02-01,21.1595
2005-02-02,21.2311
2005-02-03,21.1685
2005-02-04,22.1433
2005-02-07,22.1075
2005-02-08,22.027
2005-02-09,21.6872
2005-02-10,21.8213
2005-02-11,22.2774
2005-02-14,22.2596
2005-02-15,22.1791
2005-02-16,22.1433
2005-02-17,21.9108
2005-02-18,21.9555
2005-02-22,21.3473
2005-02-23,21.3205
2005-02-24,21.6872
2005-02-25,22.2148
2005-02-28,22.4205
2005-03-01,22.7604
2005-03-02,22.6531
2005-03-03,22.6352
2005-03-04,23.5474
2005-03-07,23.288
2005-03-08,23.1628
2005-03-09,23.1539
2005-03-10,22.8051
2005-03-11,22.9528
2005-03-14,23.2126
2005-03-15,22.8991
2005-03-16,22.3705
2005-03-17,22.2719
2005-03-18,22.1465
2005-03-21,21.9405
2005-03-22,21.8688
2005-03-23,21.609
2005-03-24,21.5104
2005-03-28,21.6896
2005-03-29,20.9908
2005-03-30,21.6627
2005-03-31,21.2954
2005-04-01,21.2327
2005-04-04,21.2775
2005-04-05,21.385
2005-04-06,21.0267
2005-04-07,21.4477
2005-04-08,21.2327
2005-04-11,20.9908
2005-04-12,21.1879
2005-04-13,20.5608
2005-04-14,19.9964
2005-04-15,19.7186
2005-04-18,19.8799
2005-04-19,20.4981
2005-04-20,19.8709
2005-04-21,20.3279
2005-04-22,19.7097
2005-04-25,19.9785
2005-04-26,19.4857
2005-04-27,19.3424
2005-04-28,19.4857
2005-04-29,19.5843
2005-05-02,20.0591
2005-05-03,20.3726
2005-05-04,20.4264
2005-05-05,20.7131
2005-05-06,21.0177
2005-05-09,20.9998
2005-05-10,20.7489
2005-05-11,20.6862
2005-05-12,20.3189
2005-05-13,20.2562
2005-05-16,20.6593
2005-05-17,20.8743
2005-05-18,21.5731
2005-05-19,21.6896
2005-05-20,21.7882
2005-05-23,21.815
2005-05-24,21.5731
2005-05-25,21.1879
2005-05-26,21.4029
2005-05-27,21.3581
2005-05-31,21.5015
2005-06-01,21.9942
2005-06-02,21.6807
2005-06-03,21.6986
2005-06-06,21.5731
2005-06-07,21.4567
2005-06-08,21.5194
2005-06-09,21.3492
2005-06-10,21.5731
2005-06-13,21.6989
2005-06-14,21.9145
2005-06-15,22.0761
2005-06-16,22.2737
2005-06-17,22.4444
2005-06-20,22.3007
2005-06-21,22.3276
2005-06-22,22.2737
2005-06-23,21.4474
2005-06-24,21.5911
2005-06-27,21.663
2005-06-28,22.121
2005-06-29,22.3456
2005-06-30,22.1839
2005-07-01,22.2378
2005-07-05,22.4983
2005-07-06,22.2647
2005-07-07,22.9114
2005-07-08,23.3335
2005-07-11,23.7467
2005-07-12,23.4862
2005-07-13,23.2437
2005-07-14,23.0641
2005-07-15,23.3515
2005-07-18,23.3605
2005-07-19,23.5491
2005-07-20,23.7018
2005-07-21,23.3874
2005-07-22,23.6838
2005-07-25,23.576
2005-07-26,23.1449
2005-07-27,23.1449
2005-07-28,25.7315
2005-07-29,26.459
2005-08-01,26.6027
2005-08-02,26.7015
2005-08-03,26.5758
2005-08-04,25.992
2005-08-05,25.9112
2005-08-08,25.8303
2005-08-09,26.0818
2005-08-10,25.992
2005-08-11,26.001
2005-08-12,25.9381
2005-08-15,25.7764
2005-08-16,25.3184
2005-08-17,25.6327
2005-08-18,25.525
2005-08-19,25.507
2005-08-22,25.1657
2005-08-23,24.9861
2005-08-24,24.9232
2005-08-25,24.9502
2005-08-26,24.8783
2005-08-29,25.1567
2005-08-30,25.1927
2005-08-31,25.2376
2005-09-01,25.1298
2005-09-02,25.3364
2005-09-06,25.6776
2005-09-07,25.4172
2005-09-08,25.2555
2005-09-09,26.0818
2005-09-12,25.8752
2005-09-13,25.7762
2005-09-14,26.0912
2005-09-15,25.5692
2005-09-16,25.9112
2005-09-19,25.7402
2005-09-20,25.2722
2005-09-21,24.3902
2005-09-22,24.5792
2005-09-23,24.8042
2005-09-26,25.7762
2005-09-27,25.9202
2005-09-28,25.7402
2005-09-29,26.1002
2005-09-30,26.6492
2005-10-03,26.9552
2005-10-04,26.6762
2005-10-05,26.0912
2005-10-06,25.9292
2005-10-07,26.0822
2005-10-10,25.8482
2005-10-11,25.4792
2005-10-12,25.2812
2005-10-13,25.2722
2005-10-14,25.3712
2005-10-17,25.6052
2005-10-18,25.2092
2005-10-19,25.1012
2005-10-20,25.0832
2005-10-21,24.9302
2005-10-24,25.4882
2005-10-25,25.5782
2005-10-26,25.6232
2005-10-27,24.6152
2005-10-28,24.7412
2005-10-31,25.4342
2005-11-01,25.2542
2005-11-02,25.8122
2005-11-03,25.8752
2005-11-04,25.7942
2005-11-07,26.0732
2005-11-08,25.7672
2005-11-09,26.1362
2005-11-10,26.4602
2005-11-11,26.3972
2005-11-14,26.2622
2005-11-15,26.3972
2005-11-16,26.5772
2005-11-17,27.2252
2005-11-18,27.3242
2005-11-21,27.8192
2005-11-22,27.7292
2005-11-23,27.4232
2005-11-25,27.4502
2005-11-28,27.9722
2005-11-29,28.3142
2005-11-30,27.9362
2005-12-01,28.4492
2005-12-02,28.5122
2005-12-05,28.3232
2005-12-06,28.2152
2005-12-07,28.5572
2005-12-08,28.5572
2005-12-09,28.5662
2005-12-12,28.7822
2005-12-13,28.7912
2005-12-14,28.9355
2005-12-15,28.8814
2005-12-16,29.1519
2005-12-19,28.7732
2005-12-20,28.8634
2005-12-21,29.2872
2005-12-22,29.747
2005-12-23,29.9815
2005-12-27,29.9815
2005-12-28,30.1618
2005-12-29,29.9093
2005-12-30,29.6569
2006-01-03,30.0175
2006-01-04,29.8011
2006-01-05,30.2069
2006-01-06,30.1979
2006-01-09,29.8913
2006-01-10,29.7831
2006-01-11,29.6659
2006-01-12,29.6118
2006-01-13,29.2421
2006-01-17,29.3593
2006-01-18,28.9986
2006-01-19,29.6478
2006-01-20,28.9445
2006-01-23,28.7101
2006-01-24,29.3052
2006-01-25,29.4405
2006-01-26,33.453
2006-01-27,33.3989
2006-01-30,34.1563
2006-01-31,34.9588
2006-02-01,34.8416
2006-02-02,34.2465
2006-02-03,33.462
2006-02-06,34.6613
2006-02-07,33.9039
2006-02-08,33.7235
2006-02-09,33.471
2006-02-10,33.6694
2006-02-13,33.2636
2006-02-14,33.2546
2006-02-15,32.903
2006-02-16,32.8399
2006-02-17,32.8759
2006-02-21,33.976
2006-02-22,34.0121
2006-02-23,34.2195
2006-02-24,34.2465
2006-02-27,33.2005
2006-02-28,32.7767
2006-03-01,33.5792
2006-03-02,33.4981
2006-03-03,33.7235
2006-03-06,33.7776
2006-03-07,33.7235
2006-03-08,33.4801
2006-03-09,33.2095
2006-03-10,33.6784
2006-03-13,34.2022
2006-03-14,34.9157
2006-03-15,35.5569
2006-03-16,35.3311
2006-03-17,35.3672
2006-03-20,34.5634
2006-03-21,34.3196
2006-03-22,34.7712
2006-03-23,35.015
2006-03-24,35.8098
2006-03-27,35.1505
2006-03-28,35.0331
2006-03-29,35.3582
2006-03-30,35.1956
2006-03-31,35.295
2006-04-03,35.6833
2006-04-04,35.9001
2006-04-05,36.0085
2006-04-06,35.6382
2006-04-07,35.2137
2006-04-10,35.0782
2006-04-11,35.006
2006-04-12,35.2498
2006-04-13,35.6111
2006-04-17,35.7737
2006-04-18,36.6316
2006-04-19,36.9658
2006-04-20,36.7581
2006-04-21,37.0471
2006-04-24,36.6768
2006-04-25,37.1464
2006-04-26,37.4625
2006-04-27,36.1801
2006-04-28,36.4871
2006-05-01,35.9272
2006-05-02,33.4435
2006-05-03,33.7777
2006-05-04,33.4977
2006-05-05,33.5158
2006-05-08,33.3893
2006-05-09,34.6808
2006-05-10,34.2744
2006-05-11,34.2293
2006-05-12,33.868
2006-05-15,33.2539
2006-05-16,33.3532
2006-05-17,32.3778
2006-05-18,32.0707
2006-05-19,32.423
2006-05-22,32.7481
2006-05-23,32.9649
2006-05-24,32.721
2006-05-25,33.3532
2006-05-26,34.2293
2006-05-30,33.9945
2006-05-31,34.5544
2006-06-01,34.7712
2006-06-02,35.295
2006-06-05,34.3196
2006-06-06,34.139
2006-06-07,33.5158
2006-06-08,32.3959
2006-06-09,32.3507
2006-06-12,31.6192
2006-06-13,30.5513
2006-06-14,31.2481
2006-06-15,31.9902
2006-06-16,31.8726
2006-06-19,31.1667
2006-06-20,31.5739
2006-06-21,32.2888
2006-06-22,31.9359
2006-06-23,32.6508
2006-06-26,32.5603
2006-06-27,32.5513
2006-06-28,32.2617
2006-06-29,32.7504
2006-06-30,33.6463
2006-07-03,34.2526
2006-07-05,33.8001
2006-07-06,34.4517
2006-07-07,33.5196
2006-07-10,33.8454
2006-07-11,34.2254
2006-07-12,34.0444
2006-07-13,32.6056
2006-07-14,32.4517
2006-07-17,31.6916
2006-07-18,31.9721
2006-07-19,32.6056
2006-07-20,31.6373
2006-07-21,31.3205
2006-07-24,31.9902
2006-07-25,31.3115
2006-07-26,32.2798
2006-07-27,32.506
2006-07-28,32.9856
2006-07-31,32.8137
2006-08-01,32.3612
2006-08-02,33.1847
2006-08-03,33.8001
2006-08-04,33.6915
2006-08-07,32.8861
2006-08-08,32.5875
2006-08-09,32.7413
2006-08-10,32.7775
2006-08-11,32.1893
2006-08-14,32.5603
2006-08-15,33.0852
2006-08-16,33.4019
2006-08-17,33.4743
2006-08-18,33.1485
2006-08-21,32.868
2006-08-22,32.7323
2006-08-23,32.5332
2006-08-24,31.8002
2006-08-25,31.9449
2006-08-28,32.4698
2006-08-29,31.9359
2006-08-30,31.9449
2006-08-31,32.3884
2006-09-01,32.6961
2006-09-05,32.4155
2006-09-06,31.411
2006-09-07,30.9404
2006-09-08,30.8771
2006-09-11,31.3658
2006-09-12,32.1712
2006-09-13,32.8059
2006-09-14,32.688
2006-09-15,33.1686
2006-09-18,33.3046
2006-09-19,32.4432
2006-09-20,32.6971
2006-09-21,32.3163
2006-09-22,32.017
2006-09-25,32.2437
2006-09-26,32.9419
2006-09-27,32.8784
2006-09-28,33.2683
2006-09-29,32.815
2006-10-02,32.7878
2006-10-03,32.6971
2006-10-04,33.1958
2006-10-05,34.0119
2006-10-06,33.7489
2006-10-09,34.0663
2006-10-10,34.1841
2006-10-11,33.8668
2006-10-12,34.701
2006-10-13,35.0002
2006-10-16,34.9549
2006-10-17,35.2541
2006-10-18,34.973
2006-10-19,34.565
2006-10-20,34.0481
2006-10-23,34.2204
2006-10-24,33.9847
2006-10-25,34.5922
2006-10-26,34.6829
2006-10-27,34.2386
2006-10-30,34.7735
2006-10-31,34.2386
2006-11-01,33.9756
2006-11-02,33.9303
2006-11-03,33.9484
2006-11-06,34.2748
2006-11-07,34.6466
2006-11-08,34.7735
2006-11-09,34.5015
2006-11-10,34.7463
2006-11-13,34.574
2006-11-14,35.1816
2006-11-15,35.4989
2006-11-16,35.8344
2006-11-17,36.0702
2006-11-20,36.2787
2006-11-21,36.2606
2006-11-22,37.8564
2006-11-24,37.6298
2006-11-27,37.394
2006-11-28,38.1194
2006-11-29,38.4368
2006-11-30,38.5274
2006-12-01,38.6634
2006-12-04,38.7541
2006-12-05,38.6907
2006-12-06,38.6453
2006-12-07,38.8992
2006-12-08,38.8539
2006-12-11,38.4912
2006-12-12,38.3642
2006-12-13,38.1736
2006-12-14,37.8829
2006-12-15,37.6468
2006-12-18,37.447
2006-12-19,37.4197
2006-12-20,37.4015
2006-12-21,37.2381
2006-12-22,36.7839
2006-12-26,37.2199
2006-12-27,37.7013
2006-12-28,37.3198
2006-12-29,36.8293
2007-01-03,37.1563
2007-01-04,37.3834
2007-01-05,36.7476
2007-01-08,36.3752
2007-01-09,36.7294
2007-01-10,36.457
2007-01-11,36.7658
2007-01-12,36.7204
2007-01-16,36.6568
2007-01-17,37.2471
2007-01-18,36.4206
2007-01-19,36.5478
2007-01-22,36.5569
2007-01-23,37.1472
2007-01-24,38.1463
2007-01-25,38.0373
2007-01-26,38.1917
2007-01-29,38.4824
2007-01-30,38.7548
2007-01-31,37.8738
2007-02-01,36.8475
2007-02-02,36.9202
2007-02-05,36.7294
2007-02-06,36.6659
2007-02-07,37.0837
2007-02-08,37.1382
2007-02-09,37.1926
2007-02-12,37.2381
2007-02-13,37.347
2007-02-14,37.6195
2007-02-15,37.6377
2007-02-16,37.4651
2007-02-20,37.8375
2007-02-21,37.9192
2007-02-22,37.9828
2007-02-23,37.9556
2007-02-26,38.1736
2007-02-27,37.4379
2007-02-28,37.4379
2007-03-01,36.9565
2007-03-02,36.2844
2007-03-05,35.7485
2007-03-06,36.0301
2007-03-07,35.8484
2007-03-08,37.5559
2007-03-09,38.4188
2007-03-12,37.6831
2007-03-13,37.1463
2007-03-14,37.4647
2007-03-15,37.5648
2007-03-16,36.937
2007-03-19,37.2555
2007-03-20,37.4374
2007-03-21,38.0379
2007-03-22,38.6929
2007-03-23,38.8476
2007-03-26,38.3836
2007-03-27,37.8923
2007-03-28,37.31
2007-03-29,37.1645
2007-03-30,38.3017
2007-04-02,38.0106
2007-04-03,38.0379
2007-04-04,37.7104
2007-04-05,37.8104
2007-04-09,38.0743
2007-04-10,37.9469
2007-04-11,37.8559
2007-04-12,38.1834
2007-04-13,38.5019
2007-04-16,38.7111
2007-04-17,39.0022
2007-04-18,38.9749
2007-04-19,38.7566
2007-04-20,39.6573
2007-04-23,39.6482
2007-04-24,39.3389
2007-04-25,40.1668
2007-04-26,40.467
2007-04-27,40.8127
2007-04-30,40.5398
2007-05-01,40.4488
2007-05-02,41.1129
2007-05-03,39.5299
2007-05-04,40.003
2007-05-07,39.8028
2007-05-08,39.6846
2007-05-09,39.4389
2007-05-10,38.6383
2007-05-11,38.047
2007-05-14,38.2107
2007-05-15,37.956
2007-05-16,38.6292
2007-05-17,38.4837
2007-05-18,38.5837
2007-05-21,38.7748
2007-05-22,38.793
2007-05-23,38.4928
2007-05-24,37.9833
2007-05-25,38.511
2007-05-29,38.9386
2007-05-30,39.0841
2007-05-31,38.7202
2007-06-01,38.8931
2007-06-04,38.9386
2007-06-05,38.5837
2007-06-06,38.1561
2007-06-07,37.7558
2007-06-08,37.9378
2007-06-11,38.3108
2007-06-12,37.9469
2007-06-13,38.2569
2007-06-14,38.2842
2007-06-15,38.5121
2007-06-18,38.7492
2007-06-19,41.5574
2007-06-20,43.5085
2007-06-21,44.0282
2007-06-22,44.01
2007-06-25,43.7911
2007-06-26,43.5085
2007-06-27,43.2168
2007-06-28,43.2168
2007-06-29,43.6453
2007-07-02,43.7911
2007-07-03,43.9006
2007-07-05,43.6362
2007-07-06,43.7091
2007-07-09,44.7029
2007-07-10,43.5085
2007-07-11,43.6544
2007-07-12,44.7758
2007-07-13,45.1952
2007-07-16,44.6755
2007-07-17,45.0767
2007-07-18,44.7576
2007-07-19,44.3929
2007-07-20,43.9279
2007-07-23,44.6026
2007-07-24,44.0282
2007-07-25,43.7456
2007-07-26,42.0406
2007-07-27,41.0103
2007-07-30,42.3779
2007-07-31,42.5421
2007-08-01,42.6697
2007-08-02,42.5056
2007-08-03,41.6941
2007-08-06,42.4509
2007-08-07,42.5512
2007-08-08,41.3294
2007-08-09,39.2962
2007-08-10,41.758
2007-08-13,41.0924
2007-08-14,40.208
2007-08-15,39.0865
2007-08-16,38.5851
2007-08-17,39.5515
2007-08-20,40.0803
2007-08-21,39.5333
2007-08-22,40.9465
2007-08-23,41.3021
2007-08-24,41.7944
2007-08-27,41.4571
2007-08-28,40.363
2007-08-29,41.5665
2007-08-30,41.4388
2007-08-31,42.1318
2007-09-04,42.6971
2007-09-05,42.3415
2007-09-06,42.9797
2007-09-07,42.7973
2007-09-10,43.2532
2007-09-11,43.0709
2007-09-12,42.7419
2007-09-13,42.614
2007-09-14,42.6414
2007-09-17,42.9246
2007-09-18,44.6968
2007-09-19,46.2223
2007-09-20,45.7656
2007-09-21,46.405
2007-09-24,46.2588
2007-09-25,46.067
2007-09-26,47.6017
2007-09-27,47.4829
2007-09-28,47.1175
2007-10-01,47.6199
2007-10-02,47.9305
2007-10-03,47.2819
2007-10-04,47.1449
2007-10-05,48.0949
2007-10-08,47.9853
2007-10-09,48.6248
2007-10-10,49.2551
2007-10-11,49.3464
2007-10-12,49.6935
2007-10-15,50.0955
2007-10-16,49.1089
2007-10-17,48.7435
2007-10-18,49.3647
2007-10-19,47.7387
2007-10-22,47.017
2007-10-23,47.5469
2007-10-24,46.7795
2007-10-25,47.3185
2007-10-26,47.1175
2007-10-29,47.1815
2007-10-30,46.0487
2007-10-31,46.1766
2007-11-01,45.5189
2007-11-02,45.6011
2007-11-05,45.6833
2007-11-06,47.017
2007-11-07,45.3271
2007-11-08,46.0944
2007-11-09,44.1396
2007-11-12,43.0708
2007-11-13,44.0208
2007-11-14,43.7468
2007-11-15,43.5732
2007-11-16,43.8381
2007-11-19,41.9198
2007-11-20,42.7785
2007-11-21,42.614
2007-11-23,42.5684
2007-11-26,42.4496
2007-11-27,43.1804
2007-11-28,44.5232
2007-11-29,44.6237
2007-11-30,45.254
2007-12-03,44.6876
2007-12-04,45.1353
2007-12-05,47.7752
2007-12-06,50.4517
2007-12-07,49.5017
2007-12-10,49.2459
2007-12-11,47.8757
2007-12-12,47.519
2007-12-13,47.3817
2007-12-14,46.8327
2007-12-17,45.7346
2007-12-18,46.3751
2007-12-19,45.9542
2007-12-20,46.7229
2007-12-21,48.3608
2007-12-24,48.251
2007-12-26,48.2693
2007-12-27,47.4915
2007-12-28,47.8026
2007-12-31,47.6105
2008-01-02,46.6039
2008-01-03,46.2379
2008-01-04,45.2039
2008-01-07,44.5725
2008-01-08,43.7306
2008-01-09,42.9254
2008-01-10,42.7607
2008-01-11,41.7175
2008-01-14,43.0077
2008-01-15,41.7083
2008-01-16,41.0953
2008-01-17,38.6429
2008-01-18,38.4324
2008-01-22,37.3618
2008-01-23,36.7853
2008-01-24,37.3435
2008-01-25,38.4233
2008-01-28,39.1645
2008-01-29,42.2116
2008-01-30,42.111
2008-01-31,42.4129
2008-02-01,43.3921
2008-02-04,44.1607
2008-02-05,42.477
2008-02-06,42.3306
2008-02-07,42.3123
2008-02-08,42.4404
2008-02-11,43.9594
2008-02-12,44.0966
2008-02-13,44.5542
2008-02-14,43.4927
2008-02-15,44.1149
2008-02-19,43.996
2008-02-20,45.1124
2008-02-21,44.1973
2008-02-22,44.7738
2008-02-25,44.966
2008-02-26,45.4418
2008-02-27,45.8536
2008-02-28,45.7072
2008-02-29,44.4169
2008-03-03,43.7672
2008-03-04,42.3306
2008-03-05,43.0352
2008-03-06,42.6326
2008-03-07,39.137
2008-03-10,37.856
2008-03-11,40.4716
2008-03-12,39.9668
2008-03-13,40.2146
2008-03-14,39.5355
2008-03-17,39.0124
2008-03-18,41.9032
2008-03-19,41.3985
2008-03-20,41.527
2008-03-24,42.5273
2008-03-25,42.7292
2008-03-26,42.4998
2008-03-27,42.1877
2008-03-28,41.527
2008-03-31,41.6738
2008-04-01,43.4542
2008-04-02,44.271
2008-04-03,43.9956
2008-04-04,44.1241
2008-04-07,43.858
2008-04-08,43.5093
2008-04-09,43.2431
2008-04-10,43.0596
2008-04-11,42.2336
2008-04-14,43.1055
2008-04-15,42.8852
2008-04-16,44.0507
2008-04-17,44.2526
2008-04-18,45.0051
2008-04-21,45.8678
2008-04-22,45.0235
2008-04-23,45.1244
2008-04-24,45.0235
2008-04-25,45.7026
2008-04-28,45.4365
2008-04-29,44.4453
2008-04-30,44.2343
2008-05-01,44.326
2008-05-02,44.7665
2008-05-05,44.996
2008-05-06,52.1175
2008-05-07,52.3194
2008-05-08,53.0811
2008-05-09,53.7878
2008-05-12,53.2738
2008-05-13,54.2283
2008-05-14,54.7789
2008-05-15,54.577
2008-05-16,55.1185
2008-05-19,54.8982
2008-05-20,55.7609
2008-05-21,54.4393
2008-05-22,55.1368
2008-05-23,53.8612
2008-05-27,54.1548
2008-05-28,54.3843
2008-05-29,54.1365
2008-05-30,54.2558
2008-06-02,54.1732
2008-06-03,54.6229
2008-06-04,55.201
2008-06-05,57.0181
2008-06-06,55.2836
2008-06-09,56.2105
2008-06-10,55.2724
2008-06-11,55.2724
2008-06-12,55.493
2008-06-13,57.1206
2008-06-16,57.1758
2008-06-17,57.939
2008-06-18,57.2585
2008-06-19,58.5366
2008-06-20,57.4148
2008-06-23,59.3826
2008-06-24,58.0585
2008-06-25,58.5458
2008-06-26,56.4309
2008-06-27,57.562
2008-06-30,53.4793
2008-07-01,54.9505
2008-07-02,52.4034
2008-07-03,53.8287
2008-07-07,53.4885
2008-07-08,53.2862
2008-07-09,53.4885
2008-07-10,53.9207
2008-07-11,53.562
2008-07-14,52.946
2008-07-15,53.3046
2008-07-16,54.1597
2008-07-17,54.4632
2008-07-18,54.5551
2008-07-21,55.1712
2008-07-22,54.8953
2008-07-23,54.5919
2008-07-24,49.9851
2008-07-25,50.5644
2008-07-28,51.1253
2008-07-29,51.5299
2008-07-30,53.0563
2008-07-31,52.7529
2008-08-01,52.1828
2008-08-04,51.1713
2008-08-05,52.9184
2008-08-06,54.5
2008-08-07,52.7529
2008-08-08,53.6724
2008-08-11,53.4609
2008-08-12,53.5437
2008-08-13,54.3712
2008-08-14,54.4448
2008-08-15,53.9758
2008-08-18,54.1138
2008-08-19,52.946
2008-08-20,53.5804
2008-08-21,54.031
2008-08-22,54.2057
2008-08-25,52.9919
2008-08-26,53.1391
2008-08-27,54.1873
2008-08-28,55.1252
2008-08-29,54.4908
2008-09-02,53.1942
2008-09-03,51.6219
2008-09-04,50.4817
2008-09-05,52.5046
2008-09-08,51.2081
2008-09-09,49.9115
2008-09-10,50.4908
2008-09-11,49.7625
2008-09-12,52.1216
2008-09-15,50.0943
2008-09-16,51.5503
2008-09-17,50.1588
2008-09-18,51.4489
2008-09-19,55.1811
2008-09-22,50.8038
2008-09-23,47.044
2008-09-24,46.7952
2008-09-25,46.7307
2008-09-26,46.4819
2008-09-29,40.9343
2008-09-30,45.3392
2008-10-01,43.3026
2008-10-02,40.0404
2008-10-03,41.0909
2008-10-06,39.5888
2008-10-07,37.3219
2008-10-08,38.3079
2008-10-09,36.4649
2008-10-10,31.7835
2008-10-13,35.0181
2008-10-14,35.3222
2008-10-15,31.9033
2008-10-16,34.5204
2008-10-17,34.8614
2008-10-20,38.4461
2008-10-21,35.6171
2008-10-22,30.6224
2008-10-23,27.5445
2008-10-24,29.8299
2008-10-27,29.0005
2008-10-28,30.6039
2008-10-29,34.1518
2008-10-30,34.3361
2008-10-31,35.1563
2008-11-03,35.5341
2008-11-04,36.3174
2008-11-05,35.488
2008-11-06,33.5989
2008-11-07,35.8106
2008-11-10,35.2392
2008-11-11,33.1658
2008-11-12,30.5579
2008-11-13,34.0228
2008-11-14,31.8111
2008-11-17,32.2627
2008-11-18,31.332
2008-11-19,29.406
2008-11-20,25.425
2008-11-21,28.3646
2008-11-24,29.0834
2008-11-25,30.8988
2008-11-26,32.447
2008-11-28,32.9999
2008-12-01,27.9131
2008-12-02,29.7561
2008-12-03,30.2722
2008-12-04,29.8759
2008-12-05,31.6729
2008-12-08,33.986
2008-12-09,32.0323
2008-12-10,33.2579
2008-12-11,30.9902
2008-12-12,32.2491
2008-12-15,32.0177
2008-12-16,35.0167
2008-12-17,34.9982
2008-12-18,34.0541
2008-12-19,33.0637
2008-12-22,33.1562
2008-12-23,33.2951
2008-12-24,33.2395
2008-12-26,33.9337
2008-12-29,34.8038
2008-12-30,36.7662
2008-12-31,36.109
2009-01-02,37.5622
2009-01-05,36.3867
2009-01-06,37.2845
2009-01-07,35.4888
2009-01-08,35.424
2009-01-09,35.6647
2009-01-12,35.1648
2009-01-13,36.8958
2009-01-14,35.8313
2009-01-15,37.2105
2009-01-16,36.2941
2009-01-20,34.267
2009-01-21,35.4148
2009-01-22,35.0445
2009-01-23,34.7853
2009-01-26,34.5817
2009-01-27,34.1374
2009-01-28,34.5169
2009-01-29,35.5629
2009-01-30,32.7212
2009-02-02,33.8967
2009-02-03,34.2855
2009-02-04,34.304
2009-02-05,34.6557
2009-02-06,36.0812
2009-02-09,36.5625
2009-02-10,34.6557
2009-02-11,34.5447
2009-02-12,35.1186
2009-02-13,35.7572
2009-02-17,34.2485
2009-02-18,33.6653
2009-02-19,32.6841
2009-02-20,32.5638
2009-02-23,30.3053
2009-02-24,31.1661
2009-02-25,29.4722
2009-02-26,28.5003
2009-02-27,28.4632
2009-03-02,26.5564
2009-03-03,26.3435
2009-03-04,27.1488
2009-03-05,25.9455
2009-03-06,25.0662
2009-03-09,25.2235
2009-03-10,26.5657
2009-03-11,28.3339
2009-03-12,29.4415
2009-03-13,29.8976
2009-03-16,30.0559
2009-03-17,30.9401
2009-03-18,32.1967
2009-03-19,31.8616
2009-03-20,30.3444
2009-03-23,31.2938
2009-03-24,30.5771
2009-03-25,31.0332
2009-03-26,33.0624
2009-03-27,32.0106
2009-03-30,30.6143
2009-03-31,31.4521
2009-04-01,32.0292
2009-04-02,33.6209
2009-04-03,35.5104
2009-04-06,34.5889
2009-04-07,33.928
2009-04-08,34.6634
2009-04-09,36.525
2009-04-13,36.2364
2009-04-14,35.0822
2009-04-15,35.3336
2009-04-16,36.1341
2009-04-17,36.1527
2009-04-20,34.2352
2009-04-21,34.9519
2009-04-22,36.2923
2009-04-23,36.5436
2009-04-24,38.4238
2009-04-27,38.3215
2009-04-28,38.4797
2009-04-29,39.5501
2009-04-30,40.09
2009-05-01,39.0754
2009-05-04,41.058
2009-05-05,40.7881
2009-05-06,40.0248
2009-05-07,39.7456
2009-05-08,39.8666
2009-05-11,39.4012
2009-05-12,39.5594
2009-05-13,37.5117
2009-05-14,37.5954
2009-05-15,38.5076
2009-05-18,39.6246
2009-05-19,40.0714
2009-05-20,40.2296
2009-05-21,39.2337
2009-05-22,39.1406
2009-05-26,39.6804
2009-05-27,39.1406
2009-05-28,39.0661
2009-05-29,39.3547
2009-06-01,41.4583
2009-06-02,42.0168
2009-06-03,40.5089
2009-06-04,40.5275
2009-06-05,39.5408
2009-06-08,38.9544
2009-06-09,39.3174
2009-06-10,38.5728
2009-06-11,38.7316
2009-06-12,38.1427
2009-06-15,37.9277
2009-06-16,37.3013
2009-06-17,37.2639
2009-06-18,38.0305
2009-06-19,38.4325
2009-06-22,37.1517
2009-06-23,37.3387
2009-06-24,37.2172
2009-06-25,38.0959
2009-06-26,38.124
2009-06-29,38.6475
2009-06-30,37.8061
2009-07-01,37.8061
2009-07-02,36.918
2009-07-06,36.6562
2009-07-07,35.9551
2009-07-08,35.095
2009-07-09,35.4689
2009-07-10,34.9922
2009-07-13,35.9925
2009-07-14,35.9551
2009-07-15,36.4693
2009-07-16,37.2732
2009-07-17,36.6562
2009-07-20,37.1704
2009-07-21,37.1143
2009-07-22,37.535
2009-07-23,38.7129
2009-07-24,39.0775
2009-07-27,40.19
2009-07-28,40.0685
2009-07-29,39.7974
2009-07-30,41.3212
2009-07-31,41.7326
2009-08-03,42.2468
2009-08-04,42.6114
2009-08-05,42.1159
2009-08-06,41.9195
2009-08-07,42.3215
2009-08-10,42.1346
2009-08-11,42.0504
2009-08-12,42.6861
2009-08-13,43.032
2009-08-14,42.4057
2009-08-17,40.9099
2009-08-18,41.2464
2009-08-19,41.8728
2009-08-20,41.583
2009-08-21,43.1723
2009-08-24,43.0601
2009-08-25,43.2845
2009-08-26,43.0507
2009-08-27,42.9853
2009-08-28,42.9666
2009-08-31,43.4901
2009-09-01,42.1907
2009-09-02,41.7139
2009-09-03,42.013
2009-09-04,42.6207
2009-09-08,42.9853
2009-09-09,43.004
2009-09-10,43.2003
2009-09-11,42.9185
2009-09-14,43.3784
2009-09-15,44.5234
2009-09-16,46.072
2009-09-17,46.147
2009-09-18,46.7289
2009-09-21,46.6163
2009-09-22,47.0762
2009-09-23,45.8561
2009-09-24,45.1334
2009-09-25,44.5422
2009-09-28,45.5464
2009-09-29,45.6309
2009-09-30,45.3493
2009-10-01,44.0072
2009-10-02,44.4014
2009-10-05,44.5891
2009-10-06,45.1616
2009-10-07,45.0114
2009-10-08,45.3211
2009-10-09,45.5276
2009-10-12,45.293
2009-10-13,45.4901
2009-10-14,46.5506
2009-10-15,47.3859
2009-10-16,47.3765
2009-10-19,47.5173
2009-10-20,47.1513
2009-10-21,46.3723
2009-10-22,47.3108
2009-10-23,46.3254
2009-10-26,45.7529
2009-10-27,45.4244
2009-10-28,43.0687
2009-10-29,43.1062
2009-10-30,41.6985
2009-11-02,42.3179
2009-11-03,42.3367
2009-11-04,42.2897
2009-11-05,43.6787
2009-11-06,43.7914
2009-11-09,45.2555
2009-11-10,45.3211
2009-11-11,45.2367
2009-11-12,44.7768
2009-11-13,44.5422
2009-11-16,45.293
2009-11-17,45.1522
2009-11-18,44.392
2009-11-19,44.0448
2009-11-20,44.148
2009-11-23,44.4014
2009-11-24,44.0354
2009-11-25,44.1292
2009-11-27,43.2846
2009-11-30,43.4253
2009-12-01,43.782
2009-12-02,44.1292
2009-12-03,43.6037
2009-12-04,43.9134
2009-12-07,43.7257
2009-12-08,43.782
2009-12-09,44.6923
2009-12-10,44.636
2009-12-11,44.6736
2009-12-14,45.3802
2009-12-15,44.4758
2009-12-16,44.8997
2009-12-17,43.9953
2009-12-18,43.8634
2009-12-21,44.278
2009-12-22,44.6454
2009-12-23,44.8809
2009-12-24,45.0128
2009-12-28,45.3519
2009-12-29,45.5027
2009-12-30,45.4367
2009-12-31,44.8526
2010-01-04,45.5969
2010-01-05,45.4085
2010-01-06,45.4367
2010-01-07,45.3614
2010-01-08,45.3708
2010-01-11,45.8041
2010-01-12,45.3331
2010-01-13,46.002
2010-01-14,45.5404
2010-01-15,45.4461
2010-01-19,46.0585
2010-01-20,46.1716
2010-01-21,46.0585
2010-01-22,45.3614
2010-01-25,45.6817
2010-01-26,45.3425
2010-01-27,44.8338
2010-01-28,44.1178
2010-01-29,39.9161
2010-02-01,42.1394
2010-02-02,42.0452
2010-02-03,41.6872
2010-02-04,41.0655
2010-02-05,57.3447
2010-02-08,57.0997
2010-02-09,57.7309
2010-02-10,57.7875
2010-02-11,58.1454
2010-02-12,58.315
2010-02-16,57.6179
2010-02-17,59.3231
2010-02-18,59.502
2010-02-19,59.8883
2010-02-22,59.8412
2010-02-23,59.7281
2010-02-24,59.681
2010-02-25,60.1427
2010-02-26,60.397
2010-03-01,61.2166
2010-03-02,61.7254
2010-03-03,61.8102
2010-03-04,61.7725
2010-03-05,61.942
2010-03-08,60.9811
2010-03-09,60.7456
2010-03-10,60.9905
2010-03-11,60.7919
2010-03-12,60.877
2010-03-15,60.5084
2010-03-16,60.7541
2010-03-17,60.9527
2010-03-18,60.6502
2010-03-19,60.4044
2010-03-22,61.0094
2010-03-23,60.6785
2010-03-24,60.2815
2010-03-25,60.3855
2010-03-26,60.6691
2010-03-29,60.272
2010-03-30,60.4516
2010-03-31,60.083
2010-04-01,60.3855
2010-04-05,60.4138
2010-04-06,60.1964
2010-04-07,60.2059
2010-04-08,60.3477
2010-04-09,60.5745
2010-04-12,60.4705
2010-04-13,60.6123
2010-04-14,60.688
2010-04-15,60.9148
2010-04-16,60.8487
2010-04-19,60.3098
2010-04-20,60.3288
2010-04-21,60.1586
2010-04-22,59.9884
2010-04-23,59.7427
2010-04-26,59.6292
2010-04-27,59.4118
2010-04-28,60.083
2010-04-29,60.1208
2010-04-30,59.979
2010-05-03,60.7069
2010-05-04,60.3571
2010-05-05,60.187
2010-05-06,57.9183
2010-05-07,58.4476
2010-05-10,59.9506
2010-05-11,59.8467
2010-05-12,60.2153
2010-05-13,59.6198
2010-05-14,58.6556
2010-05-17,59.0337
2010-05-18,59.4213
2010-05-19,58.6367
2010-05-20,56.5665
2010-05-21,58.3436
2010-05-24,58.6083
2010-05-25,58.7596
2010-05-26,58.7974
2010-05-27,59.771
2010-05-28,59.0999
2010-06-01,58.6083
2010-06-02,59.3456
2010-06-03,59.5442
2010-06-04,58.873
2010-06-07,58.5894
2010-06-08,58.8257
2010-06-09,58.7596
2010-06-10,59.5253
2010-06-11,59.7623
2010-06-14,59.4682
2010-06-15,60.0753
2010-06-16,60.0943
2010-06-17,60.4263
2010-06-18,60.4168
2010-06-21,59.9615
2010-06-22,59.5251
2010-06-23,59.5157
2010-06-24,59.0508
2010-06-25,59.6864
2010-06-28,59.5536
2010-06-29,58.956
2010-06-30,58.9939
2010-07-01,58.8516
2010-07-02,59.4113
2010-07-06,59.6864
2010-07-07,60.1892
2010-07-08,60.4927
2010-07-09,61.5647
2010-07-12,61.5172
2010-07-13,61.5836
2010-07-14,61.6216
2010-07-15,61.6121
2010-07-16,61.3465
2010-07-19,61.4698
2010-07-20,61.7733
2010-07-21,61.3749
2010-07-22,61.7544
2010-07-23,62.0959
2010-07-26,62.1623
2010-07-27,62.2382
2010-07-28,62.1528
2010-07-29,61.9536
2010-07-30,61.982
2010-08-02,62.2951
2010-08-03,61.8777
2010-08-04,62.3141
2010-08-05,62.4658
2010-08-06,62.5607
2010-08-09,62.4469
2010-08-10,62.5133
2010-08-11,62.02
2010-08-12,61.8492
2010-08-13,61.6595
2010-08-16,62.4848
2010-08-17,62.8263
2010-08-18,63.1488
2010-08-19,62.8642
2010-08-20,62.8737
2010-08-23,63.0824
2010-08-24,63.035
2010-08-25,62.9876
2010-08-26,62.8832
2010-08-27,63.2532
2010-08-30,62.9496
2010-08-31,62.371
2010-09-01,62.6935
2010-09-02,62.7409
2010-09-03,63.2627
2010-09-07,62.3805
2010-09-08,61.3749
2010-09-09,61.5077
2010-09-10,61.6785
2010-09-13,61.5166
2010-09-14,61.7547
2010-09-15,63.9544
2010-09-16,64.0687
2010-09-17,64.5448
2010-09-20,64.4686
2010-09-21,64.4496
2010-09-22,64.5067
2010-09-23,64.4115
2010-09-24,64.6972
2010-09-27,64.5639
2010-09-28,64.7448
2010-09-29,64.7734
2010-09-30,64.8115
2010-10-01,65.04
2010-10-04,64.9829
2010-10-05,65.059
2010-10-06,65.4019
2010-10-07,65.2781
2010-10-08,64.6496
2010-10-11,66.4589
2010-10-12,66.6112
2010-10-13,66.4589
2010-10-14,66.2208
2010-10-15,66.3256
2010-10-18,66.4589
2010-10-19,66.6303
2010-10-20,66.6969
2010-10-21,66.7922
2010-10-22,66.8112
2010-10-25,66.6017
2010-10-26,67.4683
2010-10-27,67.4207
2010-10-28,67.4016
2010-10-29,67.4778
2010-11-01,67.6111
2010-11-02,66.9921
2010-11-03,66.0589
2010-11-04,65.2495
2010-11-05,65.2209
2010-11-08,65.3162
2010-11-09,64.821
2010-11-10,63.8973
2010-11-11,64.5543
2010-11-12,64.3639
2010-11-15,64.0496
2010-11-16,63.1259
2010-11-17,63.5545
2010-11-18,64.2115
2010-11-19,63.6687
2010-11-22,62.7926
2010-11-23,59.0883
2010-11-24,59.0121
2010-11-26,59.1835
2010-11-29,58.8026
2010-11-30,58.1837
2010-12-01,58.974
2010-12-02,60.6215
2010-12-03,63.145
2010-12-06,62.0213
2010-12-07,62.4117
2010-12-08,62.7926
2010-12-09,58.974
2010-12-10,60.3263
2010-12-13,60.5746
2010-12-14,60.7563
2010-12-15,60.6224
2010-12-16,60.4121
2010-12-17,60.3261
2010-12-20,60.1731
2010-12-21,60.4695
2010-12-22,58.7582
2010-12-23,59.7524
2010-12-27,59.848
2010-12-28,59.6664
2010-12-29,59.7333
2010-12-30,59.8098
2010-12-31,59.7811
2011-01-03,60.7276
2011-01-04,60.6989
2011-01-05,60.6702
2011-01-06,60.8423
2011-01-07,60.8901
2011-01-10,60.7754
2011-01-11,60.718
2011-01-12,60.8041
2011-01-13,60.6224
2011-01-14,60.9284
2011-01-18,60.7085
2011-01-19,60.8328
2011-01-20,60.8423
2011-01-21,61.0144
2011-01-24,60.479
2011-01-25,59.3127
2011-01-26,59.3318
2011-01-27,59.4465
2011-01-28,59.6568
2011-01-31,59.8959
2011-02-01,60.7085
2011-02-02,60.6511
2011-02-03,60.6894
2011-02-04,60.8328
2011-02-07,60.3069
2011-02-08,59.848
2011-02-09,60.7276
2011-02-10,61.1005
2011-02-11,61.0335
2011-02-14,60.6129
2011-02-15,60.9092
2011-02-16,61.5116
2011-02-17,61.3299
2011-02-18,61.2821
2011-02-22,60.1157
2011-02-23,58.9876
2011-02-24,59.4178
2011-02-25,59.7524
2011-02-28,59.848
2011-03-01,59.5421
2011-03-02,59.609
2011-03-03,60.1349
2011-03-04,60.4408
2011-03-07,60.0488
2011-03-08,60.546
2011-03-09,60.4981
2011-03-10,59.5899
2011-03-11,60.0894
2011-03-14,60.9923
2011-03-15,59.8012
2011-03-16,58.3893
2011-03-17,59.1385
2011-03-18,59.6572
2011-03-21,60.2239
2011-03-22,60.4352
2011-03-23,60.7137
2011-03-24,63.0766
2011-03-25,63.845
2011-03-28,64.21
2011-03-29,63.5856
2011-03-30,63.6817
2011-03-31,63.797
2011-04-01,64.1524
2011-04-04,64.0755
2011-04-05,64.5173
2011-04-06,64.7863
2011-04-07,64.258
2011-04-08,64.3925
2011-04-11,64.0947
2011-04-12,63.7489
2011-04-13,63.5568
2011-04-14,63.2591
2011-04-15,64.0755
2011-04-18,63.8738
2011-04-19,64.5942
2011-04-20,64.9304
2011-04-21,65.3434
2011-04-25,65.3722
2011-04-26,65.5835
2011-04-27,65.5739
2011-04-28,66.3135
2011-04-29,66.7265
2011-05-02,65.9581
2011-05-03,65.2473
2011-05-04,65.0648
2011-05-05,64.6806
2011-05-06,64.5558
2011-05-09,65.3434
2011-05-10,66.083
2011-05-11,65.3818
2011-05-12,65.3914
2011-05-13,64.4885
2011-05-16,64.2676
2011-05-17,63.8738
2011-05-18,64.258
2011-05-19,64.7287
2011-05-20,64.258
2011-05-23,64.0275
2011-05-24,63.9698
2011-05-25,65.2954
2011-05-26,65.1032
2011-05-27,65.6315
2011-05-31,66.3423
2011-06-01,64.4597
2011-06-02,64.8919
2011-06-03,63.6721
2011-06-06,63.2207
2011-06-07,63.7489
2011-06-08,63.5568
2011-06-09,64.3445
2011-06-10,63.2783
2011-06-13,63.6257
2011-06-14,64.3492
2011-06-15,63.7511
2011-06-16,63.8476
2011-06-17,64.0019
2011-06-20,64.4939
2011-06-21,65.6131
2011-06-22,65.9121
2011-06-23,65.6999
2011-06-24,65.8253
2011-06-27,66.3849
2011-06-28,67.1181
2011-06-29,67.5136
2011-06-30,67.5908
2011-07-01,67.9285
2011-07-05,67.3979
2011-07-06,67.5329
2011-07-07,68.1986
2011-07-08,67.9671
2011-07-11,66.7997
2011-07-12,66.6164
2011-07-13,67.3207
2011-07-14,66.5585
2011-07-15,67.3207
2011-07-18,66.2209
2011-07-19,67.3303
2011-07-20,67.147
2011-07-21,67.8995
2011-07-22,67.6005
2011-07-25,67.7548
2011-07-26,66.9637
2011-07-27,66.134
2011-07-28,66.327
2011-07-29,66.3559
2011-08-01,66.0086
2011-08-02,64.3299
2011-08-03,64.793
2011-08-04,60.6735
2011-08-05,61.2427
2011-08-08,56.5444
2011-08-09,58.9659
2011-08-10,57.2969
2011-08-11,60.8665
2011-08-12,61.3392
2011-08-15,60.9436
2011-08-16,60.1911
2011-08-17,59.6026
2011-08-18,57.9818
2011-08-19,57.4898
2011-08-22,57.5381
2011-08-23,59.1878
2011-08-24,59.4579
2011-08-25,59.3807
2011-08-26,60.2876
2011-08-29,61.783
2011-08-30,62.3811
2011-08-31,62.5644
2011-09-01,62.1978
2011-09-02,60.5481
2011-09-06,60.3648
2011-09-07,61.7347
2011-09-08,61.0498
2011-09-09,59.1395
2011-09-12,58.7054
2011-09-13,60.3924
2011-09-14,61.6047
2011-09-15,63.0304
2011-09-16,63.9421
2011-09-19,63.7869
2011-09-20,64.8343
2011-09-21,63.3505
2011-09-22,62.0121
2011-09-23,63.1371
2011-09-26,64.0778
2011-09-27,64.7567
2011-09-28,63.3796
2011-09-29,63.6899
2011-09-30,61.9054
2011-10-03,60.6349
2011-10-04,62.1091
2011-10-05,63.2923
2011-10-06,64.233
2011-10-07,64.0294
2011-10-10,65.746
2011-10-11,64.6694
2011-10-12,65.7945
2011-10-13,65.552
2011-10-14,66.9292
2011-10-17,65.5423
2011-10-18,66.7352
2011-10-19,65.6393
2011-10-20,65.9399
2011-10-21,66.9195
2011-10-24,67.2299
2011-10-25,65.8721
2011-10-26,67.162
2011-10-27,69.0532
2011-10-28,69.1986
2011-10-31,66.8904
2011-11-01,65.3871
2011-11-02,67.0553
2011-11-03,68.8204
2011-11-04,68.9465
2011-11-07,69.6351
2011-11-08,69.7709
2011-11-09,67.9378
2011-11-10,69.1404
2011-11-11,70.9347
2011-11-14,70.4982
2011-11-15,70.6825
2011-11-16,70.5079
2011-11-17,67.6857
2011-11-18,68.8107
2011-11-21,68.2967
2011-11-22,68.7428
2011-11-23,67.9475
2011-11-25,67.6081
2011-11-28,70.8668
2011-11-29,70.634
2011-11-30,74.7171
2011-12-01,74.2225
2011-12-02,74.4552
2011-12-05,74.7462
2011-12-06,74.0964
2011-12-07,74.7753
2011-12-08,74.0382
2011-12-09,75.4251
2011-12-12,74.3
2011-12-13,73.8716
2011-12-14,73.1606
2011-12-15,74.4267
2011-12-16,74.6118
2011-12-19,74.3099
2011-12-20,76.6667
2011-12-21,76.4233
2011-12-22,77.4556
2011-12-23,77.7965
2011-12-27,78.1568
2011-12-28,76.9297
2011-12-29,77.4946
2011-12-30,76.0629
2012-01-03,76.9492
2012-01-04,77.962
2012-01-05,77.329
2012-01-06,77.553
2012-01-09,76.9492
2012-01-10,77.5919
2012-01-11,78.488
2012-01-12,79.3158
2012-01-13,78.5074
2012-01-17,79.1794
2012-01-18,79.0626
2012-01-19,78.712
2012-01-20,77.2998
2012-01-23,77.7478
2012-01-24,76.9394
2012-01-25,78.1081
2012-01-26,75.2351
2012-01-27,76.6278
2012-01-30,76.8323
2012-01-31,76.92
2012-02-01,76.9297
2012-02-02,75.0792
2012-02-03,76.7154
2012-02-06,76.3064
2012-02-07,76.8713
2012-02-08,77.5919
2012-02-09,77.7283
2012-02-10,76.5986
2012-02-13,77.1537
2012-02-14,76.9102
2012-02-15,77.29
2012-02-16,78.1763
2012-02-17,78.5464
2012-02-21,77.9815
2012-02-22,78.9457
2012-02-23,79.7248
2012-02-24,79.6859
2012-02-27,80.1631
2012-02-28,80.3189
2012-02-29,80.1923
2012-03-01,80.1631
2012-03-02,80.1826
2012-03-05,79.4716
2012-03-06,78.3224
2012-03-07,79.4716
2012-03-08,80.9812
2012-03-09,80.9227
2012-03-12,80.3287
2012-03-13,81.9319
2012-03-14,82.1079
2012-03-15,83.0465
2012-03-16,82.9487
2012-03-19,83.1345
2012-03-20,83.8482
2012-03-21,84.4348
2012-03-22,83.3984
2012-03-23,84.5521
2012-03-26,86.0383
2012-03-27,87.3973
2012-03-28,86.3609
2012-03-29,86.4978
2012-03-30,86.9964
2012-04-02,87.6612
2012-04-03,88.5901
2012-04-04,87.4755
2012-04-05,87.8861
2012-04-09,87.0844
2012-04-10,84.1122
2012-04-11,85.872
2012-04-12,87.2115
2012-04-13,87.1822
2012-04-16,87.1626
2012-04-17,88.3652
2012-04-18,87.935
2012-04-19,88.2185
2012-04-20,88.4727
2012-04-23,87.7297
2012-04-24,87.2115
2012-04-25,88.375
2012-04-26,88.3848
2012-04-27,89.5482
2012-04-30,89.5971
2012-05-01,89.1963
2012-05-02,89.1669
2012-05-03,90.0469
2012-05-04,89.6851
2012-05-07,89.5384
2012-05-08,89.9002
2012-05-09,89.3527
2012-05-10,90.4575
2012-05-11,89.998
2012-05-14,88.9029
2012-05-15,88.6194
2012-05-16,87.2799
2012-05-17,81.8341
2012-05-18,81.3844
2012-05-21,84.3762
2012-05-22,84.8063
2012-05-23,86.2729
2012-05-24,86.7324
2012-05-25,85.8036
2012-05-29,85.9111
2012-05-30,85.6765
2012-05-31,84.865
2012-06-01,82.1568
2012-06-04,82.4696
2012-06-05,81.7852
2012-06-06,83.0074
2012-06-07,83.5647
2012-06-08,84.1415
2012-06-11,83.3104
2012-06-12,83.8775
2012-06-13,82.7184
2012-06-14,81.9129
2012-06-15,83.3077
2012-06-18,83.0032
2012-06-19,84.3981
2012-06-20,83.6024
2012-06-21,80.8127
2012-06-22,80.4493
2012-06-25,79.3098
2012-06-26,79.742
2012-06-27,78.7696
2012-06-28,79.7912
2012-06-29,82.4139
2012-07-02,82.1388
2012-07-03,82.2567
2012-07-05,82.0897
2012-07-06,80.9699
2012-07-09,79.8796
2012-07-10,79.2902
2012-07-11,80.7243
2012-07-12,80.1546
2012-07-13,80.9306
2012-07-16,80.6065
2012-07-17,81.5789
2012-07-18,81.8834
2012-07-19,82.7577
2012-07-20,81.8343
2012-07-23,80.4198
2012-07-24,78.8973
2012-07-25,77.1292
2012-07-26,76.7755
2012-07-27,77.08
2012-07-30,78.5338
2012-07-31,77.9346
2012-08-01,77.9936
2012-08-02,77.4533
2012-08-03,79.1134
2012-08-06,80.4198
2012-08-07,81.3432
2012-08-08,81.628
2012-08-09,81.7852
2012-08-10,81.9915
2012-08-13,81.9325
2012-08-14,81.2646
2012-08-15,81.3039
2012-08-16,82.4433
2012-08-17,82.7773
2012-08-20,82.4532
2012-08-21,81.687
2012-08-22,82.6005
2012-08-23,81.6771
2012-08-24,80.7145
2012-08-27,80.41
2012-08-28,80.4689
2012-08-29,80.6261
2012-08-30,80.0858
2012-08-31,81.7361
2012-09-04,80.7931
2012-09-05,80.9601
2012-09-06,83.0622
2012-09-07,84.5651
2012-09-10,84.1525
2012-09-11,83.9168
2012-09-12,81.9134
2012-09-13,80.9364
2012-09-14,80.8574
2012-09-17,81.4101
2012-09-18,81.5877
2012-09-19,82.397
2012-09-20,82.6635
2012-09-21,83.9366
2012-09-24,82.851
2012-09-25,82.5746
2012-09-26,81.2127
2012-09-27,81.9035
2012-09-28,81.1831
2012-10-01,82.0121
2012-10-02,81.3903
2012-10-03,81.1535
2012-10-04,81.5384
2012-10-05,81.42
2012-10-08,81.4693
2012-10-09,80.9068
2012-10-10,79.7915
2012-10-11,79.6435
2012-10-12,79.1303
2012-10-15,79.6337
2012-10-16,81.0054
2012-10-17,81.9529
2012-10-18,82.2292
2012-10-19,80.9956
2012-10-22,80.3047
2012-10-23,82.9003
2012-10-24,84.2129
2012-10-25,85.2195
2012-10-26,85.5551
2012-10-31,87.7658
2012-11-01,88.4862
2012-11-02,88.2296
2012-11-05,88.348
2012-11-06,88.279
2012-11-07,87.4105
2012-11-08,86.4927
2012-11-09,86.8479
2012-11-12,85.5551
2012-11-13,86.1472
2012-11-14,85.7821
2012-11-15,84.9136
2012-11-16,85.5847
2012-11-19,87.8151
2012-11-20,88.4073
2012-11-21,88.2592
2012-11-23,88.8218
2012-11-26,89.3054
2012-11-27,86.7789
2012-11-28,87.519
2012-11-29,87.0552
2012-11-30,87.4598
2012-12-03,85.792
2012-12-04,86.2163
2012-12-05,86.8874
2012-12-06,88.0915
2012-12-07,89.7791
2012-12-10,90.0949
2012-12-11,90.1245
2012-12-12,89.5099
2012-12-13,88.9548
2012-12-14,88.142
2012-12-17,89.0737
2012-12-18,90.967
2012-12-19,90.0055
2012-12-20,91.2842
2012-12-21,90.6796
2012-12-24,91.2743
2012-12-26,91.6014
2012-12-27,90.7291
2012-12-28,89.9163
2012-12-31,90.3921
2013-01-02,92.7314
2013-01-03,92.8802
2013-01-04,93.911
2013-01-07,92.9198
2013-01-08,92.9
2013-01-09,92.7314
2013-01-10,92.6125
2013-01-11,92.0276
2013-01-14,91.4329
2013-01-15,91.8195
2013-01-16,91.4923
2013-01-17,92.5332
2013-01-18,92.781
2013-01-22,94.0399
2013-01-23,92.2358
2013-01-24,92.4638
2013-01-25,92.2358
2013-01-28,92.2358
2013-01-29,94.1589
2013-01-30,93.9705
2013-01-31,94.4166
2013-02-01,95.6358
2013-02-04,94.3274
2013-02-05,95.9728
2013-02-06,96.2702
2013-02-07,96.3693
2013-02-08,97.0037
2013-02-11,96.6469
2013-02-12,96.9443
2013-02-13,97.2317
2013-02-14,97.1723
2013-02-15,97.5291
2013-02-19,97.7769
2013-02-20,96.3198
2013-02-21,95.3583
2013-02-22,97.3507
2013-02-25,95.0906
2013-02-26,97.1425
2013-02-27,99.6008
2013-02-28,99.472
2013-03-01,99.7495
2013-03-04,100.136
2013-03-05,100.424
2013-03-06,100.592
2013-03-07,100.79
2013-03-08,101.227
2013-03-11,101.306
2013-03-12,102.44
2013-03-13,102.997
2013-03-14,102.669
2013-03-15,102.619
2013-03-18,102.171
2013-03-19,101.385
2013-03-20,102.828
2013-03-21,97.6434
2013-03-22,97.4842
2013-03-25,97.1658
2013-03-26,97.6633
2013-03-27,97.9519
2013-03-28,98.758
2013-04-01,97.4842
2013-04-02,96.4891
2013-04-03,95.3347
2013-04-04,95.7128
2013-04-05,95.4541
2013-04-08,96.3497
2013-04-09,96.3497
2013-04-10,96.917
2013-04-11,97.315
2013-04-12,96.7378
2013-04-15,94.2997
2013-04-16,96.2403
2013-04-17,96.1706
2013-04-18,94.5883
2013-04-19,95.4342
2013-04-22,95.7327
2013-04-23,95.4342
2013-04-24,96.9667
2013-04-25,97.0762
2013-04-26,96.3099
2013-04-29,96.3099
2013-04-30,96.2502
2013-05-01,93.6828
2013-05-02,95.4939
2013-05-03,96.3497
2013-05-06,96.2701
2013-05-07,98.1211
2013-05-08,98.1211
2013-05-09,98.0813
2013-05-10,97.2752
2013-05-13,96.2303
2013-05-14,98.1609
2013-05-15,99.9223
2013-05-16,99.8327
2013-05-17,101.315
2013-05-20,101.614
2013-05-21,102.291
2013-05-22,102.291
2013-05-23,102.032
2013-05-24,102.161
2013-05-28,103.535
2013-05-29,103.375
2013-05-30,102.928
2013-05-31,102.589
2013-06-03,102.739
2013-06-04,102.997
2013-06-05,100.609
2013-06-06,100.171
2013-06-07,100.708
2013-06-10,100.161
2013-06-11,98.4495
2013-06-12,96.9
2013-06-13,96.4
2013-06-14,95.95
2013-06-17,95.87
2013-06-18,96.04
2013-06-19,96.29
2013-06-20,95.42
2013-06-21,94.91
2013-06-24,93.99
2013-06-25,95.57
2013-06-26,96.84
2013-06-27,95.85
2013-06-28,95.57
2013-07-01,97.48
2013-07-02,96.49
2013-07-03,96.3
2013-07-05,97.03
2013-07-08,97.85
2013-07-09,99.2
2013-07-10,98.86
2013-07-11,99.67
2013-07-12,100.26
2013-07-15,100.28
2013-07-16,100.6
2013-07-17,100.53
2013-07-18,100.73
2013-07-19,100.84
2013-07-22,99.87
2013-07-23,101.1
2013-07-24,100.97
2013-07-25,102.13
2013-07-26,100.25
2013-07-29,101.21
2013-07-30,101.59
2013-07-31,103.2
2013-08-01,105.22
2013-08-02,105.77
2013-08-05,105.68
2013-08-06,105.39
2013-08-07,105.7
2013-08-08,106.07
2013-08-09,105.51
