date,close_price
1998-01-02,32.2598
1998-01-05,31.7291
1998-01-06,30.5232
1998-01-07,30.3061
1998-01-08,29.5463
1998-01-09,28.3404
1998-01-12,28.3404
1998-01-13,28.7986
1998-01-14,29.0157
1998-01-15,28.268
1998-01-16,29.2448
1998-01-20,29.3172
1998-01-21,28.7986
1998-01-22,28.6419
1998-01-23,27.5082
1998-01-26,27.8941
1998-01-27,28.3404
1998-01-28,28.7142
1998-01-29,29.8478
1998-01-30,29.7755
1998-02-02,30.4508
1998-02-03,30.4508
1998-02-04,31.4277
1998-02-05,31.2106
1998-02-06,31.2829
1998-02-09,31.2829
1998-02-10,31.2829
1998-02-11,30.9814
1998-02-12,30.9814
1998-02-13,31.5121
1998-02-17,31.3553
1998-02-18,32.1874
1998-02-19,31.6568
1998-02-20,31.7291
1998-02-23,31.8136
1998-02-24,31.8859
1998-02-25,31.8859
1998-02-26,32.6139
1998-02-27,32.9173
1998-03-02,33.1357
1998-03-03,33.0629
1998-03-04,33.2206
1998-03-05,33.439
1998-03-06,33.6695
1998-03-09,33.5239
1998-03-10,34.1306
1998-03-11,34.0456
1998-03-12,33.8272
1998-03-13,33.7423
1998-03-16,32.8323
1998-03-17,33.6695
1998-03-18,33.9
1998-03-19,33.7423
1998-03-20,34.2034
1998-03-23,35.0406
1998-03-24,34.9556
1998-03-25,35.4895
1998-03-26,35.0406
1998-03-27,35.0406
1998-03-30,34.81
1998-03-31,33.9
1998-04-01,32.6867
1998-04-02,33.5967
1998-04-03,32.8323
1998-04-06,32.0801
1998-04-07,31.7039
1998-04-08,31.8495
1998-04-09,31.4006
1998-04-13,31.0124
1998-04-14,30.9396
1998-04-15,32.7595
1998-04-16,32.1529
1998-04-17,32.6867
1998-04-20,32.6139
1998-04-21,32.2257
1998-04-22,32.3834
1998-04-23,31.4006
1998-04-24,31.3157
1998-04-27,31.4006
1998-04-28,31.1701
1998-04-29,31.0973
1998-04-30,30.8668
1998-05-01,30.5634
1998-05-04,30.5634
1998-05-05,30.6362
1998-05-06,30.3329
1998-05-07,30.709
1998-05-08,30.4906
1998-05-11,30.1873
1998-05-12,30.794
1998-05-13,30.5634
1998-05-14,31.0973
1998-05-15,31.5462
1998-05-18,30.3329
1998-05-19,30.5634
1998-05-20,30.9396
1998-05-21,31.0973
1998-05-22,31.0973
1998-05-26,30.2601
1998-05-27,29.5806
1998-05-28,29.1645
1998-05-29,28.5538
1998-06-01,29.079
1998-06-02,28.5538
1998-06-03,29.4698
1998-06-04,29.0057
1998-06-05,29.311
1998-06-08,29.6896
1998-06-09,29.4698
1998-06-10,28.3218
1998-06-11,26.6364
1998-06-12,26.1845
1998-06-15,24.9632
1998-06-16,26.1112
1998-06-17,25.5739
1998-06-18,26.3311
1998-06-19,25.6471
1998-06-22,26.2578
1998-06-23,26.0257
1998-06-24,26.4165
1998-06-25,26.5631
1998-06-26,27.247
1998-06-29,27.1005
1998-06-30,27.7844
1998-07-01,26.7219
1998-07-02,26.9417
1998-07-06,26.7219
1998-07-07,27.7844
1998-07-08,27.7111
1998-07-09,27.4058
1998-07-10,26.5631
1998-07-13,25.7204
1998-07-14,26.0257
1998-07-15,24.9632
1998-07-16,25.7204
1998-07-17,25.8792
1998-07-20,25.8059
1998-07-21,25.7204
1998-07-22,25.1953
1998-07-23,24.8899
1998-07-24,24.1205
1998-07-27,24.3526
1998-07-28,24.4991
1998-07-29,24.5846
1998-07-30,25.3418
1998-07-31,24.4991
1998-08-03,24.2793
1998-08-04,23.3633
1998-08-05,23.2778
1998-08-06,23.2046
1998-08-07,23.2046
1998-08-10,22.5206
1998-08-11,21.4459
1998-08-12,22.3619
1998-08-13,22.142
1998-08-14,21.3726
1998-08-17,21.5314
1998-08-18,22.3619
1998-08-19,22.5206
1998-08-20,22.0565
1998-08-21,22.4474
1998-08-24,22.2153
1998-08-25,21.7512
1998-08-26,21.0673
1998-08-27,19.7976
1998-08-28,19.5757
1998-08-31,18.7251
1998-09-01,19.0333
1998-09-02,19.3415
1998-09-03,18.873
1998-09-04,18.9593
1998-09-08,20.192
1998-09-09,19.1812
1998-09-10,18.4909
1998-09-11,18.7251
1998-09-14,18.7251
1998-09-15,19.3415
1998-09-16,19.6497
1998-09-17,19.2675
1998-09-18,19.8839
1998-09-21,20.5742
1998-09-22,20.9563
1998-09-23,22.6575
1998-09-24,23.1136
1998-09-25,22.9657
1998-09-28,23.0396
1998-09-29,23.1876
1998-09-30,22.1151
1998-10-01,20.7221
1998-10-02,21.8069
1998-10-05,21.733
1998-10-06,21.5727
1998-10-07,22.3493
1998-10-08,23.4218
1998-10-09,24.0382
1998-10-12,23.1136
1998-10-13,24.2724
1998-10-14,22.7315
1998-10-15,23.8039
1998-10-16,25.5051
1998-10-19,25.123
1998-10-20,24.8148
1998-10-21,24.8887
1998-10-22,25.4311
1998-10-23,24.5066
1998-10-26,24.5806
1998-10-27,24.1121
1998-10-28,24.1121
1998-10-29,24.8887
1998-10-30,25.1969
1998-11-02,25.8133
1998-11-03,25.7393
1998-11-04,26.5036
1998-11-05,27.7363
1998-11-06,27.4282
1998-11-09,26.7378
1998-11-10,26.3557
1998-11-11,26.4296
1998-11-12,26.0475
1998-11-13,26.7378
1998-11-16,26.5776
1998-11-17,25.653
1998-11-18,25.7393
1998-11-19,25.0367
1998-11-20,25.2709
1998-11-23,24.8148
1998-11-24,26.1215
1998-11-25,25.9358
1998-11-27,25.8488
1998-11-30,25.6252
1998-12-01,25.3147
1998-12-02,24.1471
1998-12-03,23.526
1998-12-04,23.762
1998-12-07,22.9795
1998-12-08,22.3584
1998-12-09,22.3584
1998-12-10,23.3645
1998-12-11,22.9795
1998-12-14,23.4515
1998-12-15,24.5321
1998-12-16,24.0726
1998-12-17,26.3208
1998-12-18,26.0848
1998-12-21,25.4637
1998-12-22,24.9172
1998-12-23,25.0042
1998-12-24,26.0103
1998-12-28,24.8427
1998-12-29,25.1532
1998-12-30,25.1532
1998-12-31,25.2277
1999-01-04,25.9358
1999-01-05,25.8488
1999-01-06,27.8735
1999-01-07,27.2524
1999-01-08,28.3331
1999-01-11,26.3953
1999-01-12,26.3208
1999-01-13,25.8488
1999-01-14,25.0787
1999-01-15,25.6998
1999-01-19,26.0848
1999-01-20,25.7743
1999-01-21,25.2277
1999-01-22,25.0042
1999-01-25,25.5383
1999-01-26,24.5321
1999-01-27,24.2216
1999-01-28,26.0103
1999-01-29,25.2277
1999-02-01,25.6252
1999-02-02,25.6998
1999-02-03,26.3953
1999-02-04,26.5568
1999-02-05,26.7804
1999-02-08,27.0164
1999-02-09,27.1779
1999-02-10,26.9419
1999-02-11,26.4699
1999-02-12,25.6998
1999-02-16,25.8488
1999-02-17,25.0787
1999-02-18,26.0848
1999-02-19,26.7059
1999-02-22,26.8674
1999-02-23,26.1593
1999-02-24,25.8488
1999-02-25,26.5241
1999-02-26,25.8232
1999-03-01,25.5102
1999-03-02,24.4838
1999-03-03,24.1709
1999-03-04,24.7216
1999-03-05,24.6465
1999-03-08,24.5714
1999-03-09,23.9456
1999-03-10,24.0958
1999-03-11,24.4087
1999-03-12,24.7216
1999-03-15,25.0346
1999-03-16,24.9595
1999-03-17,25.0346
1999-03-18,25.5102
1999-03-19,24.0207
1999-03-22,24.2585
1999-03-23,23.7077
1999-03-24,24.0207
1999-03-25,23.3197
1999-03-26,23.7077
1999-03-29,24.3336
1999-03-30,23.7828
1999-03-31,23.7077
1999-04-01,23.3197
1999-04-05,23.7828
1999-04-06,23.9456
1999-04-07,25.1097
1999-04-08,24.6465
1999-04-09,24.3336
1999-04-12,24.7216
1999-04-13,25.3475
1999-04-14,25.7355
1999-04-15,27.851
1999-04-16,27.7007
1999-04-19,28.9525
1999-04-20,27.3878
1999-04-21,27.4629
1999-04-22,27.538
1999-04-23,27.0749
1999-04-26,27.15
1999-04-27,26.9122
1999-04-28,28.5519
1999-04-29,27.4629
1999-04-30,27.851
1999-05-03,28.8649
1999-05-04,28.4017
1999-05-05,28.1639
1999-05-06,29.1778
1999-05-07,28.7897
1999-05-10,29.1778
1999-05-11,29.1778
1999-05-12,28.4017
1999-05-13,28.4768
1999-05-14,28.3266
1999-05-17,28.1639
1999-05-18,27.7758
1999-05-19,28.4017
1999-05-20,28.6395
1999-05-21,27.4629
1999-05-24,27.0749
1999-05-25,26.5992
1999-05-26,26.9122
1999-05-27,26.3315
1999-05-28,26.0162
1999-06-01,25.6126
1999-06-02,25.6126
1999-06-03,25.537
1999-06-04,25.9279
1999-06-07,25.7009
1999-06-08,25.7009
1999-06-09,25.3856
1999-06-10,25.7009
1999-06-11,24.9064
1999-06-14,25.8523
1999-06-15,26.8737
1999-06-16,27.1133
1999-06-17,27.8195
1999-06-18,27.3529
1999-06-21,27.7439
1999-06-22,27.2773
1999-06-23,27.189
1999-06-24,27.4286
1999-06-25,27.4286
1999-06-28,28.2231
1999-06-29,27.7439
1999-06-30,28.614
1999-07-01,28.4501
1999-07-02,29.0806
1999-07-06,28.7654
1999-07-07,28.4501
1999-07-08,28.1348
1999-07-09,29.005
1999-07-12,28.9293
1999-07-13,28.7654
1999-07-14,28.7654
1999-07-15,28.2988
1999-07-16,29.2446
1999-07-19,29.4842
1999-07-20,29.7994
1999-07-21,29.9508
1999-07-22,29.8751
1999-07-23,29.7112
1999-07-26,29.3202
1999-07-27,28.8536
1999-07-28,28.2988
1999-07-29,27.4286
1999-07-30,27.2773
1999-08-02,27.4286
1999-08-03,27.189
1999-08-04,26.5585
1999-08-05,26.7981
1999-08-06,26.0162
1999-08-09,26.2432
1999-08-10,25.6126
1999-08-11,26.4071
1999-08-12,25.8523
1999-08-13,26.3315
1999-08-16,25.7766
1999-08-17,26.0162
1999-08-18,25.3856
1999-08-19,25.0704
1999-08-20,25.537
1999-08-23,25.2974
1999-08-24,25.146
1999-08-25,24.9064
1999-08-26,24.321
1999-08-27,24.4735
1999-08-30,23.7616
1999-08-31,23.7616
1999-09-01,23.1259
1999-09-02,23.8379
1999-09-03,24.4735
1999-09-07,24.0031
1999-09-08,24.0794
1999-09-09,23.52
1999-09-10,24.0794
1999-09-13,24.0794
1999-09-14,23.9141
1999-09-15,22.8081
1999-09-16,21.9308
1999-09-17,23.0496
1999-09-20,22.1724
1999-09-21,21.613
1999-09-22,22.1724
1999-09-23,20.6595
1999-09-24,20.7358
1999-09-27,21.1426
1999-09-28,20.9773
1999-09-29,20.5832
1999-09-30,21.4604
1999-10-01,21.2189
1999-10-04,21.7783
1999-10-05,21.2952
1999-10-06,20.9773
1999-10-07,20.901
1999-10-08,20.7358
1999-10-11,20.5832
1999-10-12,20.0238
1999-10-13,19.706
1999-10-14,19.706
1999-10-15,19.2356
1999-10-18,19.5534
1999-10-19,19.1466
1999-10-20,19.2356
1999-10-21,19.3118
1999-10-22,19.5534
1999-10-25,19.3118
1999-10-26,19.1466
1999-10-27,19.1466
1999-10-28,19.2356
1999-10-29,19.3118
1999-11-01,19.3118
1999-11-02,19.4644
1999-11-03,19.1466
1999-11-04,19.2356
1999-11-05,18.994
1999-11-08,19.1466
1999-11-09,19.3881
1999-11-10,18.9177
1999-11-11,18.5109
1999-11-12,18.7525
1999-11-15,18.994
1999-11-16,19.3881
1999-11-17,19.3118
1999-11-18,19.7625
1999-11-19,19.1971
1999-11-22,18.8759
1999-11-23,18.7988
1999-11-24,18.4775
1999-11-26,18.2334
1999-11-29,18.3105
1999-11-30,18.3983
1999-12-01,17.079
1999-12-02,17.4922
1999-12-03,17.8039
1999-12-06,17.6734
1999-12-07,17.1732
1999-12-08,16.7165
1999-12-09,16.4483
1999-12-10,16.3105
1999-12-13,15.9046
1999-12-14,15.7234
1999-12-15,15.3174
1999-12-16,15.7234
1999-12-17,15.9046
1999-12-20,15.6291
1999-12-21,14.8607
1999-12-22,15.0419
1999-12-23,15.2232
1999-12-27,14.9985
1999-12-28,15.2667
1999-12-29,15.8104
1999-12-30,15.9481
1999-12-31,16.2671
2000-01-03,16.0858
2000-01-04,16.586
2000-01-05,17.1297
2000-01-06,16.992
2000-01-07,16.992
2000-01-10,16.8542
2000-01-11,16.586
2000-01-12,16.4483
2000-01-13,16.586
2000-01-14,16.992
2000-01-18,16.9485
2000-01-19,16.4918
2000-01-20,16.3105
2000-01-21,15.9916
2000-01-24,15.5856
2000-01-25,15.6291
2000-01-26,15.5856
2000-01-27,15.5856
2000-01-28,15.3174
2000-01-31,15.0854
2000-02-01,14.9985
2000-02-02,14.2735
2000-02-03,13.6864
2000-02-04,13.5051
2000-02-07,13.4109
2000-02-08,13.1427
2000-02-09,13.3239
2000-02-10,12.9107
2000-02-11,12.5048
2000-02-14,12.5482
2000-02-15,12.7802
2000-02-16,12.686
2000-02-17,12.7295
2000-02-18,12.6425
2000-02-22,12.8672
2000-02-23,13.0049
2000-02-24,12.3242
2000-02-25,12.1922
2000-02-28,12.5588
2000-02-29,12.3242
2000-03-01,12.5075
2000-03-02,12.9253
2000-03-03,13.4239
2000-03-06,13.1526
2000-03-07,12.9253
2000-03-08,12.4195
2000-03-09,12.1922
2000-03-10,12.9253
2000-03-13,12.5588
2000-03-14,12.7421
2000-03-15,13.1086
2000-03-16,13.7025
2000-03-17,13.3359
2000-03-20,13.6585
2000-03-21,13.4752
2000-03-22,13.1966
2000-03-23,13.7025
2000-03-24,13.6072
2000-03-27,13.2406
2000-03-28,13.2919
2000-03-29,13.4752
2000-03-30,14.2963
2000-03-31,14.8462
2000-04-03,14.8462
2000-04-04,14.6189
2000-04-05,14.8902
2000-04-06,14.7582
2000-04-07,14.6629
2000-04-10,14.6629
2000-04-11,14.6189
2000-04-12,15.396
2000-04-13,15.5793
2000-04-14,14.4796
2000-04-17,14.8022
2000-04-18,15.1248
2000-04-19,15.2567
2000-04-20,15.2567
2000-04-24,14.7069
2000-04-25,15.2567
2000-04-26,16.9063
2000-04-27,17.1409
2000-04-28,17.6908
2000-05-01,18.2846
2000-05-02,18.3286
2000-05-03,18.5119
2000-05-04,18.6072
2000-05-05,18.5559
2000-05-08,18.4679
2000-05-09,18.1453
2000-05-10,18.1013
2000-05-11,18.7905
2000-05-12,18.6952
2000-05-15,18.6952
2000-05-16,18.5119
2000-05-17,17.962
2000-05-18,18.3286
2000-05-19,19.2451
2000-05-22,19.2451
2000-05-23,17.962
2000-05-24,18.2846
2000-05-25,17.6937
2000-05-26,17.2799
2000-05-30,17.3685
2000-05-31,16.7255
2000-06-01,16.6738
2000-06-02,16.8586
2000-06-05,16.5408
2000-06-06,16.489
2000-06-07,15.6613
2000-06-08,15.6169
2000-06-09,15.6169
2000-06-12,15.7499
2000-06-13,15.8017
2000-06-14,15.846
2000-06-15,15.3361
2000-06-16,15.0109
2000-06-19,14.6931
2000-06-20,14.087
2000-06-21,14.597
2000-06-22,14.4122
2000-06-23,14.597
2000-06-26,14.9665
2000-06-27,14.9665
2000-06-28,14.3235
2000-06-29,14.4565
2000-06-30,13.6288
2000-07-03,14.5526
2000-07-05,14.4122
2000-07-06,14.4565
2000-07-07,14.4122
2000-07-10,14.7817
2000-07-11,14.9665
2000-07-12,14.8261
2000-07-13,15.1069
2000-07-14,14.7374
2000-07-17,14.6413
2000-07-18,14.8261
2000-07-19,14.7374
2000-07-20,14.6931
2000-07-21,14.7817
2000-07-24,15.0626
2000-07-25,14.7817
2000-07-26,14.7817
2000-07-27,15.6613
2000-07-28,15.0109
2000-07-31,15.2917
2000-08-01,15.5652
2000-08-02,15.9347
2000-08-03,15.7056
2000-08-04,15.5208
2000-08-07,15.5652
2000-08-08,15.8904
2000-08-09,15.6169
2000-08-10,15.846
2000-08-11,16.1195
2000-08-14,16.1195
2000-08-15,16.1712
2000-08-16,16.0308
2000-08-17,16.0751
2000-08-18,16.0751
2000-08-21,16.0308
2000-08-22,16.4447
2000-08-23,16.1195
2000-08-24,16.3652
2000-08-25,16.4547
2000-08-28,16.41
2000-08-29,16.134
2000-08-30,16.134
2000-08-31,16.2235
2000-09-01,16.1787
2000-09-05,16.8799
2000-09-06,16.7382
2000-09-07,15.9475
2000-09-08,15.7088
2000-09-11,15.3358
2000-09-12,15.0151
2000-09-13,15.4776
2000-09-14,15.2463
2000-09-15,14.7764
2000-09-18,14.3587
2000-09-19,13.9858
2000-09-20,13.8962
2000-09-21,13.6576
2000-09-22,13.6128
2000-09-25,13.3816
2000-09-26,13.0534
2000-09-27,13.1503
2000-09-28,13.2399
2000-09-29,13.4711
2000-10-02,13.5681
2000-10-03,13.4711
2000-10-04,13.4711
2000-10-05,13.2846
2000-10-06,13.2399
2000-10-09,13.6128
2000-10-10,13.7993
2000-10-11,13.7545
2000-10-12,13.7545
2000-10-13,13.844
2000-10-16,13.941
2000-10-17,13.9858
2000-10-18,13.941
2000-10-19,14.3587
2000-10-20,14.1275
2000-10-23,14.1722
2000-10-24,14.4035
2000-10-25,14.217
2000-10-26,14.4557
2000-10-27,14.2692
2000-10-30,15.2463
2000-10-31,15.1046
2000-11-01,14.9181
2000-11-02,15.0599
2000-11-03,15.0151
2000-11-06,14.8286
2000-11-07,14.6869
2000-11-08,14.5452
2000-11-09,14.9181
2000-11-10,14.4557
2000-11-13,14.4557
2000-11-14,14.5452
2000-11-15,14.4557
2000-11-16,13.941
2000-11-17,13.7098
2000-11-20,14.217
2000-11-21,15.0151
2000-11-22,14.8791
2000-11-24,14.9243
2000-11-27,15.3537
2000-11-28,15.4441
2000-11-29,15.0222
2000-11-30,14.9243
2000-12-01,15.1126
2000-12-04,15.6776
2000-12-05,15.4893
2000-12-06,14.977
2000-12-07,14.2236
2000-12-08,14.1257
2000-12-11,14.0805
2000-12-12,13.9374
2000-12-13,13.9374
2000-12-14,13.2819
2000-12-15,12.5738
2000-12-18,11.9108
2000-12-19,11.7752
2000-12-20,9.79382
2000-12-21,10.6451
2000-12-22,11.1122
2000-12-26,11.3006
2000-12-27,11.2102
2000-12-28,11.4889
2000-12-29,11.9635
2001-01-02,11.3985
2001-01-03,11.3006
2001-01-04,11.2102
2001-01-05,10.8787
2001-01-08,10.5472
2001-01-09,10.3588
2001-01-10,10.3588
2001-01-11,10.3136
2001-01-12,9.98216
2001-01-16,10.8335
2001-01-17,10.7355
2001-01-18,10.9239
2001-01-19,10.9691
2001-01-22,11.0218
2001-01-23,11.7752
2001-01-24,11.9635
2001-01-25,11.9108
2001-01-26,11.9635
2001-01-29,12.2423
2001-01-30,12.3025
2001-01-31,12.6943
2001-02-01,12.7018
2001-02-02,12.7998
2001-02-05,12.9203
2001-02-06,12.7244
2001-02-07,12.8073
2001-02-08,12.845
2001-02-09,12.9655
2001-02-12,13.1991
2001-02-13,13.2292
2001-02-14,13.2443
2001-02-15,13.6059
2001-02-16,13.3347
2001-02-20,13.4778
2001-02-21,13.0861
2001-02-22,13.2233
2001-02-23,13.2995
2001-02-26,13.5968
2001-02-27,13.6882
2001-02-28,13.452
2001-03-01,13.2614
2001-03-02,13.4672
2001-03-05,13.7568
2001-03-06,13.7492
2001-03-07,13.6806
2001-03-08,13.9855
2001-03-09,14.176
2001-03-12,13.7263
2001-03-13,13.8026
2001-03-14,13.3605
2001-03-15,13.4062
2001-03-16,13.1471
2001-03-19,14.4351
2001-03-20,13.7873
2001-03-21,13.17
2001-03-22,12.8804
2001-03-23,12.949
2001-03-26,13.1319
2001-03-27,13.1547
2001-03-28,13.3758
2001-03-29,13.2233
2001-03-30,13.2614
2001-04-02,13.3758
2001-04-03,12.8041
2001-04-04,12.9566
2001-04-05,13.6806
2001-04-06,13.2233
2001-04-09,13.6882
2001-04-10,14.0617
2001-04-11,13.9626
2001-04-12,13.9931
2001-04-16,13.8254
2001-04-17,13.9093
2001-04-18,14.6638
2001-04-19,13.5892
2001-04-20,13.4825
2001-04-23,13.3529
2001-04-24,13.6425
2001-04-25,13.6806
2001-04-26,13.734
2001-04-27,13.7568
2001-04-30,13.894
2001-05-01,13.7568
2001-05-02,13.7187
2001-05-03,13.5511
2001-05-04,13.612
2001-05-07,13.8178
2001-05-08,13.6425
2001-05-09,13.3377
2001-05-10,13.8483
2001-05-11,13.894
2001-05-14,14.1836
2001-05-15,14.298
2001-05-16,14.8848
2001-05-17,15.1135
2001-05-18,15.4869
2001-05-21,15.7003
2001-05-22,15.3192
2001-05-23,15.5022
2001-05-24,15.4098
2001-05-25,15.2943
2001-05-29,15.7254
2001-05-30,15.2559
2001-05-31,15.9178
2001-06-01,15.9255
2001-06-04,15.6176
2001-06-05,16.1256
2001-06-06,16.1102
2001-06-07,15.9717
2001-06-08,15.8331
2001-06-11,15.5253
2001-06-12,15.379
2001-06-13,15.4637
2001-06-14,15.1481
2001-06-15,14.5246
2001-06-18,14.5785
2001-06-19,14.5939
2001-06-20,14.2783
2001-06-21,14.2398
2001-06-22,13.7934
2001-06-25,13.6779
2001-06-26,13.7241
2001-06-27,13.7857
2001-06-28,13.7857
2001-06-29,13.9319
2001-07-02,13.8088
2001-07-03,13.6856
2001-07-05,13.5009
2001-07-06,13.3008
2001-07-09,13.1622
2001-07-10,13.2777
2001-07-11,13.1237
2001-07-12,13.4008
2001-07-13,13.6163
2001-07-16,13.5394
2001-07-17,14.2244
2001-07-18,14.5939
2001-07-19,14.6863
2001-07-20,14.694
2001-07-23,13.9781
2001-07-24,13.7934
2001-07-25,13.9242
2001-07-26,14.0166
2001-07-27,14.4399
2001-07-30,14.4861
2001-07-31,14.6401
2001-08-01,14.7324
2001-08-02,15.0249
2001-08-03,14.9172
2001-08-06,14.6863
2001-08-07,14.8248
2001-08-08,14.7324
2001-08-09,14.5631
2001-08-10,14.6786
2001-08-13,14.6247
2001-08-14,14.6324
2001-08-15,14.871
2001-08-16,15.2405
2001-08-17,14.9172
2001-08-20,15.0018
2001-08-21,14.7632
2001-08-22,14.8864
2001-08-23,14.607
2001-08-24,14.7781
2001-08-27,14.5915
2001-08-28,14.467
2001-08-29,14.3815
2001-08-30,14.2648
2001-08-31,14.3659
2001-09-04,14.117
2001-09-05,14.3892
2001-09-06,14.047
2001-09-07,14.0081
2001-09-10,13.837
2001-09-17,12.8259
2001-09-18,12.577
2001-09-19,12.0481
2001-09-20,11.3325
2001-09-21,10.2902
2001-09-24,10.7336
2001-09-25,10.7336
2001-09-26,10.3214
2001-09-27,10.0647
2001-09-28,10.3447
2001-10-01,10.018
2001-10-02,9.83135
2001-10-03,9.97135
2001-10-04,10.1114
2001-10-05,10.2202
2001-10-08,10.0647
2001-10-09,10.158
2001-10-10,10.7725
2001-10-11,10.8503
2001-10-12,11.1692
2001-10-15,11.0914
2001-10-16,11.7836
2001-10-17,11.4647
2001-10-18,11.3558
2001-10-19,11.1536
2001-10-22,11.9781
2001-10-23,12.0636
2001-10-24,12.0947
2001-10-25,12.1959
2001-10-26,12.3125
2001-10-29,11.947
2001-10-30,11.5192
2001-10-31,11.5347
2001-11-01,11.6747
2001-11-02,11.9858
2001-11-05,12.3747
2001-11-06,12.3281
2001-11-07,12.1181
2001-11-08,12.0014
2001-11-09,12.0325
2001-11-12,11.8303
2001-11-13,12.2814
2001-11-14,12.577
2001-11-15,12.4992
2001-11-16,12.5925
2001-11-19,12.5381
2001-11-20,12.6081
2001-11-21,12.671
2001-11-23,12.9781
2001-11-26,12.6474
2001-11-27,12.8206
2001-11-28,12.5214
2001-11-29,12.0646
2001-11-30,12.167
2001-12-03,11.978
2001-12-04,12.0725
2001-12-05,12.2457
2001-12-06,12.23
2001-12-07,12.0095
2001-12-10,12.041
2001-12-11,11.9386
2001-12-12,11.9071
2001-12-13,11.4504
2001-12-14,11.5764
2001-12-17,11.4897
2001-12-18,12.1434
2001-12-19,12.2851
2001-12-20,12.6237
2001-12-21,12.356
2001-12-24,12.7891
2001-12-26,13.0017
2001-12-27,12.8994
2001-12-28,12.86
2001-12-31,13.1356
2002-01-02,12.8127
2002-01-03,12.8127
2002-01-04,13.112
2002-01-07,13.0726
2002-01-08,12.8679
2002-01-09,12.6001
2002-01-10,12.482
2002-01-11,12.3717
2002-01-14,11.8362
2002-01-15,12.0095
2002-01-16,11.6945
2002-01-17,11.9229
2002-01-18,11.6157
2002-01-22,11.8047
2002-01-23,12.2457
2002-01-24,12.2379
2002-01-25,12.5214
2002-01-28,12.86
2002-01-29,12.4032
2002-01-30,12.4426
2002-01-31,12.7104
2002-02-01,12.5292
2002-02-04,12.0567
2002-02-05,12.0252
2002-02-06,12.0646
2002-02-07,11.7654
2002-02-08,11.9386
2002-02-11,12.2772
2002-02-12,12.3245
2002-02-13,12.482
2002-02-14,12.1749
2002-02-15,12.4584
2002-02-19,12.2457
2002-02-20,12.4977
2002-02-21,12.5296
2002-02-22,12.6014
2002-02-25,12.5296
2002-02-26,12.4419
2002-02-27,12.4419
2002-02-28,12.4419
2002-03-01,12.5536
2002-03-04,12.8806
2002-03-05,12.7609
2002-03-06,13.1438
2002-03-07,13.2873
2002-03-08,13.2315
2002-03-11,13.3272
2002-03-12,13.5266
2002-03-13,13.3192
2002-03-14,13.2395
2002-03-15,13.08
2002-03-18,12.9683
2002-03-19,13.1358
2002-03-20,13.072
2002-03-21,12.9922
2002-03-22,12.9444
2002-03-25,12.7928
2002-03-26,13.0241
2002-03-27,13.0879
2002-03-28,13.1996
2002-04-01,13.0162
2002-04-02,12.6732
2002-04-03,12.4738
2002-04-04,12.7211
2002-04-05,12.8646
2002-04-08,12.9125
2002-04-09,12.9843
2002-04-10,13.4389
2002-04-11,13.71
2002-04-12,13.8695
2002-04-15,13.6063
2002-04-16,13.6702
2002-04-17,13.407
2002-04-18,13.5665
2002-04-19,13.5744
2002-04-22,13.407
2002-04-23,13.5425
2002-04-24,13.3033
2002-04-25,13.1119
2002-04-26,13.0002
2002-04-29,13.1597
2002-04-30,13.4628
2002-05-01,13.2554
2002-05-02,13.5505
2002-05-03,13.5585
2002-05-06,13.2076
2002-05-07,13.3272
2002-05-08,13.5505
2002-05-09,13.4548
2002-05-10,13.4628
2002-05-13,13.5744
2002-05-14,13.71
2002-05-15,13.8935
2002-05-16,14.0689
2002-05-17,14.1886
2002-05-20,14.0291
2002-05-21,14.2683
2002-05-22,14.372
2002-05-23,14.4518
2002-05-24,14.476
2002-05-28,13.8873
2002-05-29,13.7422
2002-05-30,13.9357
2002-05-31,14.0728
2002-06-03,13.5647
2002-06-04,13.6776
2002-06-05,13.7583
2002-06-06,13.2502
2002-06-07,13.4276
2002-06-10,13.6293
2002-06-11,13.5567
2002-06-12,13.5405
2002-06-13,13.3228
2002-06-14,13.476
2002-06-17,13.3147
2002-06-18,13.1051
2002-06-19,13.1293
2002-06-20,13.0889
2002-06-21,12.9599
2002-06-24,13.1857
2002-06-25,12.8389
2002-06-26,12.5405
2002-06-27,12.5567
2002-06-28,12.7663
2002-07-01,12.3147
2002-07-02,12.0163
2002-07-03,11.7744
2002-07-05,12.2583
2002-07-08,12.0002
2002-07-09,11.9276
2002-07-10,11.4115
2002-07-11,11.2341
2002-07-12,10.976
2002-07-15,10.9115
2002-07-16,10.6937
2002-07-17,10.2421
2002-07-18,9.84694
2002-07-19,8.89531
2002-07-22,8.44369
2002-07-23,7.79852
2002-07-24,7.80658
2002-07-25,7.49206
2002-07-26,7.90336
2002-07-29,8.2582
2002-07-30,7.83078
2002-07-31,7.71787
2002-08-01,7.67755
2002-08-02,7.63722
2002-08-05,7.04044
2002-08-06,7.26625
2002-08-07,7.31464
2002-08-08,7.57271
2002-08-09,7.61303
2002-08-12,7.68561
2002-08-13,7.3469
2002-08-14,7.06463
2002-08-15,7.42754
2002-08-16,7.36303
2002-08-19,7.67755
2002-08-20,7.58077
2002-08-21,7.89529
2002-08-22,7.89529
2002-08-23,7.28606
2002-08-26,7.39309
2002-08-27,7.40132
2002-08-28,7.12141
2002-08-29,6.88265
2002-08-30,7.11317
2002-09-03,6.95675
2002-09-04,6.74269
2002-09-05,6.34752
2002-09-06,6.38045
2002-09-09,6.37222
2002-09-10,6.47924
2002-09-11,6.80033
2002-09-12,6.58627
2002-09-13,6.44631
2002-09-16,6.19933
2002-09-17,6.15816
2002-09-18,5.72182
2002-09-19,5.77122
2002-09-20,5.68066
2002-09-23,5.46661
2002-09-24,5.18669
2002-09-25,5.35958
2002-09-26,5.85355
2002-09-27,5.73006
2002-09-30,5.64773
2002-10-01,6.10053
2002-10-02,5.63126
2002-10-03,5.67243
2002-10-04,5.63949
2002-10-07,5.5407
2002-10-08,5.39251
2002-10-09,5.09613
2002-10-10,5.32665
2002-10-11,5.27725
2002-10-14,5.12083
2002-10-15,5.63949
2002-10-16,5.68066
2002-10-17,5.516
2002-10-18,6.15816
2002-10-21,6.1417
2002-10-22,6.14993
2002-10-23,6.1664
2002-10-24,6.1417
2002-10-25,6.0429
2002-10-28,5.82885
2002-10-29,5.71359
2002-10-30,5.86178
2002-10-31,5.69712
2002-11-01,5.55717
2002-11-04,5.38428
2002-11-05,5.34311
2002-11-06,5.54893
2002-11-07,5.40074
2002-11-08,5.17022
2002-11-11,5.12906
2002-11-12,5.21139
2002-11-13,5.10436
2002-11-14,5.0632
2002-11-15,5.26078
2002-11-18,5.31018
2002-11-19,5.29372
2002-11-20,5.29372
2002-11-21,5.56854
2002-11-22,5.49373
2002-11-25,5.59347
2002-11-26,5.46049
2002-11-27,5.56854
2002-11-29,5.94254
2002-12-02,5.80956
2002-12-03,5.57685
2002-12-04,5.71814
2002-12-05,5.51036
2002-12-06,5.27764
2002-12-09,4.81221
2002-12-10,4.83715
2002-12-11,4.52132
2002-12-12,4.40496
2002-12-13,4.43821
2002-12-16,4.76234
2002-12-17,4.77897
2002-12-18,4.93688
2002-12-19,4.96181
2002-12-20,4.70417
2002-12-23,4.70417
2002-12-24,4.7291
2002-12-26,4.8787
2002-12-27,4.84546
2002-12-30,5.08648
2002-12-31,5.09479
2003-01-02,5.1696
2003-01-03,5.18622
2003-01-06,5.16128
2003-01-07,5.04493
2003-01-08,4.83715
2003-01-09,4.88701
2003-01-10,5.00337
2003-01-13,5.06986
2003-01-14,5.37738
2003-01-15,5.41893
2003-01-16,5.52698
2003-01-17,5.34413
2003-01-21,4.99506
2003-01-22,5.08648
2003-01-23,4.85377
2003-01-24,4.61274
2003-01-27,4.40496
2003-01-28,4.5795
2003-01-29,4.55456
2003-01-30,4.26367
2003-01-31,3.79824
2003-02-03,3.44917
2003-02-04,3.48241
2003-02-05,3.44917
2003-02-06,3.46579
2003-02-07,3.44086
2003-02-10,3.30788
2003-02-11,3.24139
2003-02-12,2.8092
2003-02-13,2.72609
2003-02-14,2.60973
2003-02-18,2.66791
2003-02-19,2.52662
2003-02-20,2.43319
2003-02-21,2.53493
2003-02-24,2.42472
2003-02-25,2.47558
2003-02-26,2.41624
2003-02-27,2.41624
2003-02-28,2.44167
2003-03-03,2.33146
2003-03-04,2.34841
2003-03-05,2.36537
2003-03-06,2.33146
2003-03-07,2.28907
2003-03-10,2.15342
2003-03-11,2.12798
2003-03-12,2.09407
2003-03-13,2.20429
2003-03-14,2.26363
2003-03-17,2.53493
2003-03-18,2.6621
2003-03-19,2.67058
2003-03-20,2.63667
2003-03-21,2.78079
2003-03-24,2.55189
2003-03-25,2.63667
2003-03-26,2.54341
2003-03-27,2.55189
2003-03-28,2.59428
2003-03-31,2.48406
2003-04-01,2.56036
2003-04-02,2.69601
2003-04-03,2.69601
2003-04-04,2.67058
2003-04-07,2.65362
2003-04-08,2.61971
2003-04-09,2.56036
2003-04-10,2.67906
2003-04-11,2.67906
2003-04-14,2.78927
2003-04-15,2.89948
2003-04-16,2.76384
2003-04-17,2.97579
2003-04-21,3.12839
2003-04-22,3.086
2003-04-23,3.37425
2003-04-24,3.34034
2003-04-25,3.20469
2003-04-28,3.46751
2003-04-29,3.44208
2003-04-30,3.53534
2003-05-01,3.58621
2003-05-02,3.79816
2003-05-05,4.04402
2003-05-06,3.96772
2003-05-07,3.90837
2003-05-08,3.89989
2003-05-09,4.10336
2003-05-12,4.06097
2003-05-13,4.00163
2003-05-14,4.02706
2003-05-15,4.46792
2003-05-16,4.93421
2003-05-19,4.88334
2003-05-20,4.95117
2003-05-21,4.92573
2003-05-22,4.72014
2003-05-23,5.19986
2003-05-27,5.09706
2003-05-28,5.27696
2003-05-29,5.34549
2003-05-30,5.68815
2003-06-02,5.99654
2003-06-03,5.73098
2003-06-04,5.92801
2003-06-05,6.14218
2003-06-06,6.05651
2003-06-09,5.78238
2003-06-10,6.04794
2003-06-11,6.18501
2003-06-12,6.21927
2003-06-13,6.07364
2003-06-16,5.94515
2003-06-17,5.97941
2003-06-18,5.90231
2003-06-19,5.74812
2003-06-20,5.67102
2003-06-23,5.34549
2003-06-24,5.50825
2003-06-25,5.46542
2003-06-26,5.67102
2003-06-27,5.49112
2003-06-30,5.71385
2003-07-01,5.72242
2003-07-02,5.85091
2003-07-03,5.61105
2003-07-07,5.78238
2003-07-08,5.77382
2003-07-09,5.76525
2003-07-10,5.40546
2003-07-11,5.74812
2003-07-14,5.83378
2003-07-15,6.03081
2003-07-16,6.09934
2003-07-17,6.03081
2003-07-18,6.40774
2003-07-21,6.32207
2003-07-22,6.56193
2003-07-23,6.43344
2003-07-24,6.63046
2003-07-25,6.5962
2003-07-28,6.99882
2003-07-29,6.699
2003-07-30,6.56193
2003-07-31,6.53623
2003-08-01,6.4934
2003-08-04,6.51053
2003-08-05,6.15074
2003-08-06,5.79952
2003-08-07,6.05651
2003-08-08,6.04794
2003-08-11,6.27924
2003-08-12,6.29637
2003-08-13,6.22784
2003-08-14,6.4677
2003-08-15,6.21071
2003-08-18,6.5448
2003-08-19,6.7247
2003-08-20,6.7247
2003-08-21,6.95771
2003-08-22,6.62105
2003-08-25,6.57788
2003-08-26,6.56925
2003-08-27,6.55199
2003-08-28,6.37071
2003-08-29,6.47429
2003-09-02,6.30165
2003-09-03,6.40524
2003-09-04,6.4484
2003-09-05,6.14626
2003-09-08,6.28438
2003-09-09,6.04267
2003-09-10,5.7837
2003-09-11,5.81823
2003-09-12,5.72328
2003-09-15,5.74054
2003-09-16,5.81823
2003-09-17,5.95635
2003-09-18,6.04267
2003-09-19,6.08584
2003-09-22,6.04267
2003-09-23,6.17216
2003-09-24,5.82686
2003-09-25,5.64558
2003-09-26,5.53336
2003-09-29,5.86139
2003-09-30,5.65422
2003-10-01,5.95635
2003-10-02,5.96498
2003-10-03,6.12037
2003-10-06,6.13763
2003-10-07,6.29301
2003-10-08,6.24122
2003-10-09,6.38797
2003-10-10,6.32754
2003-10-13,6.51746
2003-10-14,6.6901
2003-10-15,6.55199
2003-10-16,6.716
2003-10-17,6.49156
2003-10-20,6.55199
2003-10-21,6.54335
2003-10-22,6.16353
2003-10-23,5.99951
2003-10-24,5.91319
2003-10-27,6.25848
2003-10-28,6.40524
2003-10-29,6.87138
2003-10-30,6.66421
2003-10-31,6.61241
2003-11-03,6.65557
2003-11-04,6.66421
2003-11-05,6.56062
2003-11-06,6.716
2003-11-07,6.91455
2003-11-10,6.716
2003-11-11,6.69874
2003-11-12,6.81959
2003-11-13,6.90591
2003-11-14,6.89728
2003-11-17,6.83685
2003-11-18,6.65557
2003-11-19,6.62105
2003-11-20,6.54315
2003-11-21,6.64756
2003-11-24,6.94339
2003-11-25,7.0217
2003-11-26,7.17832
2003-11-28,7.13481
2003-12-01,8.16153
2003-12-02,8.07452
2003-12-03,7.72648
2003-12-04,7.73518
2003-12-05,7.63077
2003-12-08,8.07452
2003-12-09,7.83089
2003-12-10,7.82219
2003-12-11,9.31006
2003-12-12,9.37967
2003-12-15,9.22305
2003-12-16,9.04903
2003-12-17,9.32746
2003-12-18,10.1019
2003-12-19,10.9458
2003-12-22,11.5375
2003-12-23,11.3026
2003-12-24,11.32
2003-12-26,11.3722
2003-12-29,12.0596
2003-12-30,11.6071
2003-12-31,11.4679
2004-01-02,11.7898
2004-01-05,12.0944
2004-01-06,11.7463
2004-01-07,11.1199
2004-01-08,11.3026
2004-01-09,10.9197
2004-01-12,10.8849
2004-01-13,10.5282
2004-01-14,10.3716
2004-01-15,10.1889
2004-01-16,10.2063
2004-01-20,10.5717
2004-01-21,9.79732
2004-01-22,8.7358
2004-01-23,8.69229
2004-01-26,8.68359
2004-01-27,8.7619
2004-01-28,8.22244
2004-01-29,8.04842
2004-01-30,8.18763
2004-02-02,7.97011
2004-02-03,7.9092
2004-02-04,7.58726
2004-02-05,7.65687
2004-02-06,8.24854
2004-02-09,8.43126
2004-02-10,8.84021
2004-02-11,9.57109
2004-02-12,9.27526
2004-02-13,9.17955
2004-02-17,10.9632
2004-02-18,10.8936
2004-02-19,10.9719
2004-02-20,10.6587
2004-02-23,10.389
2004-02-24,10.4934
2004-02-25,10.5369
2004-02-26,10.7718
2004-02-27,11.0155
2004-03-01,11.5201
2004-03-02,11.3026
2004-03-03,11.1199
2004-03-04,11.2852
2004-03-05,11.1199
2004-03-08,10.7457
2004-03-09,10.4412
2004-03-10,9.83212
2004-03-11,9.59719
2004-03-12,9.98004
2004-03-15,8.95332
2004-03-16,8.7358
2004-03-17,10.0061
2004-03-18,10.0324
2004-03-19,10.1549
2004-03-22,9.51637
2004-03-23,9.63008
2004-03-24,9.19275
2004-03-25,9.5776
2004-03-26,9.75253
2004-03-29,10.2948
2004-03-30,10.601
2004-03-31,10.5922
2004-04-01,10.6534
2004-04-02,11.0908
2004-04-05,11.2395
2004-04-06,10.9858
2004-04-07,10.8021
2004-04-08,10.5397
2004-04-12,11.0558
2004-04-13,10.0062
2004-04-14,9.86624
2004-04-15,9.74379
2004-04-16,10.0062
2004-04-19,10.1636
2004-04-20,9.56011
2004-04-21,9.30645
2004-04-22,10.3561
2004-04-23,9.96245
2004-04-26,10.0762
2004-04-27,10.0849
2004-04-28,9.66507
2004-04-29,9.27147
2004-04-30,8.93909
2004-05-03,9.35893
2004-05-04,9.75253
2004-05-05,9.69131
2004-05-06,9.17525
2004-05-07,8.37931
2004-05-10,8.48427
2004-05-11,8.83413
2004-05-12,8.7904
2004-05-13,8.74667
2004-05-14,8.57173
2004-05-17,8.37931
2004-05-18,9.07904
2004-05-19,8.87787
2004-05-20,9.184
2004-05-21,9.32395
2004-05-24,9.68256
2004-05-25,10.1986
2004-05-26,10.1724
2004-05-27,10.4435
2004-05-28,10.5222
2004-06-01,10.496
2004-06-02,10.9771
2004-06-03,10.9333
2004-06-04,11.2307
2004-06-07,12.1404
2004-06-08,12.2366
2004-06-09,11.913
2004-06-10,12.1491
2004-06-14,11.7555
2004-06-15,12.8926
2004-06-16,12.9188
2004-06-17,12.7168
2004-06-18,13.3228
2004-06-21,12.9627
2004-06-22,13.2174
2004-06-23,13.8058
2004-06-24,13.7795
2004-06-25,13.718
2004-06-28,15.3691
2004-06-29,16.019
2004-06-30,15.9048
2004-07-01,15.7204
2004-07-02,15.334
2004-07-06,15.3603
2004-07-07,15.615
2004-07-08,15.4569
2004-07-09,15.5974
2004-07-12,15.3427
2004-07-13,16.0278
2004-07-14,15.9487
2004-07-15,15.8609
2004-07-16,15.6326
2004-07-19,16.0805
2004-07-20,16.7831
2004-07-21,15.738
2004-07-22,15.7994
2004-07-23,15.9663
2004-07-26,15.6238
2004-07-27,16.1332
2004-07-28,16.5108
2004-07-29,17.2485
2004-07-30,17.6525
2004-08-02,17.3363
2004-08-03,16.6162
2004-08-04,16.4669
2004-08-05,15.7994
2004-08-06,14.6665
2004-08-09,14.9827
2004-08-10,15.7467
2004-08-11,15.6062
2004-08-12,14.807
2004-08-13,14.8597
2004-08-16,15.3603
2004-08-17,15.413
2004-08-18,15.8082
2004-08-19,16.1683
2004-08-20,16.2737
2004-08-23,15.7467
2004-08-24,15.8697
2004-08-25,15.9575
2004-08-26,15.7819
2004-08-27,16.4318
2004-08-30,16.2298
2004-08-31,16.5635
2004-09-01,16.3264
2004-09-02,16.7304
2004-09-03,16.8445
2004-09-07,17.0202
2004-09-08,17.1256
2004-09-09,17.8106
2004-09-10,17.4681
2004-09-13,17.1168
2004-09-14,16.8797
2004-09-15,17.1783
2004-09-16,17.1871
2004-09-17,17.2928
2004-09-20,16.958
2004-09-21,17.4426
2004-09-22,17.328
2004-09-23,16.9316
2004-09-24,16.8083
2004-09-27,15.5574
2004-09-28,15.6278
2004-09-29,15.5221
2004-09-30,16.0066
2004-10-01,15.3988
2004-10-04,15.7247
2004-10-05,15.5838
2004-10-06,16.0066
2004-10-07,15.6455
2004-10-08,15.7512
2004-10-11,14.9671
2004-10-12,14.9671
2004-10-13,13.6457
2004-10-14,13.6193
2004-10-15,14.1479
2004-10-18,13.8395
2004-10-19,12.8617
2004-10-20,14.2888
2004-10-21,14.7381
2004-10-22,14.5531
2004-10-25,15.2226
2004-10-26,15.5662
2004-10-27,15.4516
2004-10-28,14.5267
2004-10-29,14.8086
2004-11-01,14.4826
2004-11-02,14.4738
2004-11-03,15.0464
2004-11-04,15.7335
2004-11-05,15.4869
2004-11-08,15.3195
2004-11-09,16.1123
2004-11-10,17.2047
2004-11-11,17.6276
2004-11-12,18.6142
2004-11-15,18.3323
2004-11-16,18.2795
2004-11-17,18.6142
2004-11-18,18.2618
2004-11-19,18.1033
2004-11-22,18.4204
2004-11-23,17.883
2004-11-24,18.2971
2004-11-26,20.1999
2004-11-29,19.6449
2004-11-30,19.4159
2004-12-01,19.1252
2004-12-02,17.9271
2004-12-03,18.9754
2004-12-06,19.2309
2004-12-07,18.3411
2004-12-08,18.4468
2004-12-09,18.3852
2004-12-10,18.4733
2004-12-13,19.1956
2004-12-14,18.6054
2004-12-15,19.6097
2004-12-16,19.6715
2004-12-17,19.4595
2004-12-20,19.7598
2004-12-21,20.0513
2004-12-22,19.751
2004-12-23,19.751
2004-12-27,19.2828
2004-12-28,19.8658
2004-12-29,19.5302
2004-12-30,18.8853
2004-12-31,19.1062
2005-01-03,18.0462
2005-01-04,17.4367
2005-01-05,16.9597
2005-01-06,17.0569
2005-01-07,16.6594
2005-01-10,16.8802
2005-01-11,15.8997
2005-01-12,16.1736
2005-01-13,16.4209
2005-01-14,16.7389
2005-01-18,18.6292
2005-01-19,18.638
2005-01-20,18.426
2005-01-21,19.1857
2005-01-24,18.9207
2005-01-25,19.2828
2005-01-26,19.4418
2005-01-27,19.7952
2005-01-28,19.6627
2005-01-31,21.1996
2005-02-01,20.4488
2005-02-02,20.7491
2005-02-03,20.4488
2005-02-04,20.4311
2005-02-07,20.6961
2005-02-08,21.0583
2005-02-09,19.9365
2005-02-10,20.228
2005-02-11,20.493
2005-02-14,20.1662
2005-02-15,19.9188
2005-02-16,20.811
2005-02-17,20.1132
2005-02-18,20.6785
2005-02-22,19.7245
2005-02-23,19.8923
2005-02-24,20.5371
2005-02-25,22.4716
2005-02-28,21.6855
2005-03-01,21.6325
2005-03-02,22.0741
2005-03-03,22.0123
2005-03-04,22.9839
2005-03-07,22.0918
2005-03-08,21.1996
2005-03-09,20.4753
2005-03-10,20.1308
2005-03-11,20.7138
2005-03-14,19.91
2005-03-15,20.228
2005-03-16,19.3182
2005-03-17,19.9471
2005-03-18,19.956
2005-03-21,20.3457
2005-03-22,21.134
2005-03-23,21.0897
2005-03-24,21.196
2005-03-28,21.32
2005-03-29,19.8231
2005-03-30,20.7
2005-03-31,21.3112
2005-04-01,21.9755
2005-04-04,21.9489
2005-04-05,21.9755
2005-04-06,22.1349
2005-04-07,22.6486
2005-04-08,22.4449
2005-04-11,22.3563
2005-04-12,22.6398
2005-04-13,21.7009
2005-04-14,19.4954
2005-04-15,18.6805
2005-04-18,19.7434
2005-04-19,20.6468
2005-04-20,20.3014
2005-04-21,21.1606
2005-04-22,21.4883
2005-04-25,22.5778
2005-04-26,21.7806
2005-04-27,20.5937
2005-04-28,19.6371
2005-04-29,19.7788
2005-05-02,20.08
2005-05-03,20.4785
2005-05-04,20.886
2005-05-05,20.3811
2005-05-06,20.7088
2005-05-09,21.0809
2005-05-10,19.9914
2005-05-11,20.1331
2005-05-12,18.5919
2005-05-13,17.3607
2005-05-16,17.343
2005-05-17,17.6973
2005-05-18,18.7159
2005-05-19,18.7248
2005-05-20,18.9905
2005-05-23,19.1234
2005-05-24,19.1056
2005-05-25,18.2996
2005-05-26,18.6185
2005-05-27,18.8045
2005-05-31,18.8488
2005-06-01,19.2474
2005-06-02,19.0525
2005-06-03,19.1499
2005-06-06,18.9816
2005-06-07,19.6017
2005-06-08,19.3536
2005-06-09,19.0436
2005-06-10,19.5042
2005-06-13,19.5928
2005-06-14,19.5042
2005-06-15,20.0534
2005-06-16,20.4797
2005-06-17,20.6928
2005-06-20,20.3731
2005-06-21,20.2043
2005-06-22,19.858
2005-06-23,19.4495
2005-06-24,19.1297
2005-06-27,18.8189
2005-06-28,19.4317
2005-06-29,19.4939
2005-06-30,19.5649
2005-07-01,19.556
2005-07-05,19.5383
2005-07-06,20.009
2005-07-07,20.1422
2005-07-08,21.1813
2005-07-11,21.5365
2005-07-12,21.6875
2005-07-13,21.5543
2005-07-14,21.2701
2005-07-15,22.4956
2005-07-18,22.318
2005-07-19,23.5081
2005-07-20,24.3873
2005-07-21,24.5649
2005-07-22,25.0623
2005-07-25,24.9468
2005-07-26,25.5241
2005-07-27,24.858
2005-07-28,25.5152
2005-07-29,25.8971
2005-08-01,25.7372
2005-08-02,26.4921
2005-08-03,26.5809
2005-08-04,26.1102
2005-08-05,25.7816
2005-08-08,26.3589
2005-08-09,26.3767
2005-08-10,26.6164
2005-08-11,26.8207
2005-08-12,26.8474
2005-08-15,26.9095
2005-08-16,26.4477
2005-08-17,26.4211
2005-08-18,26.1546
2005-08-19,25.7905
2005-08-22,25.7461
2005-08-23,24.6804
2005-08-24,24.1564
2005-08-25,24.2275
2005-08-26,23.6147
2005-08-29,24.6449
2005-08-30,24.0498
2005-08-31,24.4939
2005-09-01,25.0978
2005-09-02,25.0179
2005-09-06,25.1244
2005-09-07,25.6839
2005-09-08,25.5241
2005-09-09,26.1013
2005-09-12,25.6751
2005-09-13,25.3642
2005-09-14,25.5862
2005-09-15,25.5151
2005-09-16,25.8621
2005-09-19,25.7642
2005-09-20,25.2837
2005-09-21,26.0579
2005-09-22,26.0579
2005-09-23,26.2181
2005-09-26,27.3395
2005-09-27,27.2505
2005-09-28,27.1081
2005-09-29,27.4997
2005-09-30,27.5353
2005-10-03,27.2149
2005-10-04,26.8589
2005-10-05,24.6785
2005-10-06,24.1534
2005-10-07,24.4204
2005-10-10,23.6639
2005-10-11,24.0288
2005-10-12,24.4293
2005-10-13,23.8953
2005-10-14,24.7052
2005-10-17,24.9633
2005-10-18,24.2869
2005-10-19,24.2691
2005-10-20,24.0911
2005-10-21,24.3492
2005-10-24,25.2125
2005-10-25,25.9422
2005-10-26,25.257
2005-10-27,24.456
2005-10-28,24.4026
2005-10-31,25.5596
2005-11-01,25.5151
2005-11-02,25.7376
2005-11-03,25.7731
2005-11-04,25.2036
2005-11-07,25.6664
2005-11-08,26.0134
2005-11-09,26.1825
2005-11-10,25.8176
2005-11-11,27.0013
2005-11-14,26.6987
2005-11-15,27.3573
2005-11-16,27.2683
2005-11-17,27.295
2005-11-18,27.4196
2005-11-21,28.3451
2005-11-22,28.2828
2005-11-23,28.7278
2005-11-25,29.066
2005-11-28,28.621
2005-11-29,29.0749
2005-11-30,29.2885
2005-12-01,30.0627
2005-12-02,30.1517
2005-12-05,30.3119
2005-12-06,30.5255
2005-12-07,29.9025
2005-12-08,29.7691
2005-12-09,29.9737
2005-12-12,30.57
2005-12-13,31.0506
2005-12-14,30.5077
2005-12-15,30.2043
2005-12-16,30.49
2005-12-19,29.4367
2005-12-20,30.3739
2005-12-21,31.1147
2005-12-22,31.3914
2005-12-23,31.6592
2005-12-27,30.9273
2005-12-28,32.0341
2005-12-29,32.5696
2005-12-30,32.168
2006-01-03,32.1858
2006-01-04,34.3458
2006-01-05,35.3455
2006-01-06,36.1131
2006-01-09,36.0238
2006-01-10,35.8453
2006-01-11,36.6754
2006-01-12,36.2916
2006-01-13,35.881
2006-01-17,36.9075
2006-01-18,35.9524
2006-01-19,36.488
2006-01-20,36.4433
2006-01-23,37.3002
2006-01-24,39.6298
2006-01-25,41.8701
2006-01-26,43.6553
2006-01-27,46.1277
2006-01-30,46.9131
2006-01-31,46.3329
2006-02-01,46.6632
2006-02-02,46.1544
2006-02-03,45.4939
2006-02-06,47.8771
2006-02-07,44.28
2006-02-08,43.7981
2006-02-09,43.5481
2006-02-10,42.7091
2006-02-13,41.3346
2006-02-14,43.8516
2006-02-15,44.8959
2006-02-16,45.2351
2006-02-17,44.9405
2006-02-21,45.2172
2006-02-22,46.1991
2006-02-23,47.1987
2006-02-24,47.6272
2006-02-27,46.6364
2006-02-28,45.0477
2006-03-01,47.3148
2006-03-02,49.0285
2006-03-03,49.6444
2006-03-06,48.6358
2006-03-07,46.324
2006-03-08,46.3329
2006-03-09,46.3329
2006-03-10,48.7607
2006-03-13,48.002
2006-03-14,49.805
2006-03-15,50.885
2006-03-16,49.3648
2006-03-17,50.2322
2006-03-20,50.554
2006-03-21,49.6152
2006-03-22,50.7418
2006-03-23,50.9653
2006-03-24,51.8416
2006-03-27,52.7715
2006-03-28,52.0204
2006-03-29,53.9517
2006-03-30,54.8369
2006-03-31,54.6313
2006-04-03,55.436
2006-04-04,56.6609
2006-04-05,58.9857
2006-04-06,60.4967
2006-04-07,58.8158
2006-04-10,58.9231
2006-04-11,57.5372
2006-04-12,58.9499
2006-04-13,59.4506
2006-04-17,61.2478
2006-04-18,65.0657
2006-04-19,64.6008
2006-04-20,63.2954
2006-04-21,64.5114
2006-04-24,66.6931
2006-04-25,65.2088
2006-04-26,64.3951
2006-04-27,60.4967
2006-04-28,61.9184
2006-05-01,63.1791
2006-05-02,64.3147
2006-05-03,63.9749
2006-05-04,65.5843
2006-05-05,67.158
2006-05-08,67.6498
2006-05-09,70.35
2006-05-10,74.159
2006-05-11,75.5986
2006-05-12,69.9298
2006-05-15,67.4352
2006-05-16,66.2102
2006-05-17,64.5829
2006-05-18,61.6949
2006-05-19,58.4939
2006-05-22,53.9607
2006-05-23,57.2421
2006-05-24,55.5701
2006-05-25,58.5075
2006-05-26,60.1822
2006-05-30,56.2686
2006-05-31,57.0477
2006-06-01,58.9105
2006-06-02,60.0031
2006-06-05,55.7133
2006-06-06,56.3581
2006-06-07,52.9908
2006-06-08,56.1163
2006-06-09,54.764
2006-06-12,52.4803
2006-06-13,51.0922
2006-06-14,53.5729
2006-06-15,57.5313
2006-06-16,58.0149
2006-06-19,54.9073
2006-06-20,55.7939
2006-06-21,58.7224
2006-06-22,58.5612
2006-06-23,58.4896
2006-06-26,59.018
2006-06-27,58.3284
2006-06-28,59.1075
2006-06-29,62.7794
2006-06-30,62.2152
2006-07-03,61.9734
2006-07-05,61.5793
2006-07-06,61.4987
2006-07-07,59.7882
2006-07-10,58.2478
2006-07-11,58.3194
2006-07-12,57.406
2006-07-13,54.8357
2006-07-14,52.6326
2006-07-17,50.7071
2006-07-18,51.0743
2006-07-19,54.6834
2006-07-20,51.7997
2006-07-21,49.9548
2006-07-24,51.934
2006-07-25,53.7789
2006-07-26,55.176
2006-07-27,53.152
2006-07-28,56.2775
2006-07-31,57.2627
2006-08-01,55.4984
2006-08-02,56.3223
2006-08-03,56.8865
2006-08-04,56.1969
2006-08-07,57.1552
2006-08-08,56.1343
2006-08-09,55.7044
2006-08-10,54.1819
2006-08-11,52.2206
2006-08-14,49.9369
2006-08-15,51.0743
2006-08-16,53.5908
2006-08-17,52.9192
2006-08-18,54.155
2006-08-21,53.4834
2006-08-22,53.5908
2006-08-23,52.0325
2006-08-24,51.2803
2006-08-25,51.934
2006-08-28,51.7728
2006-08-29,52.6505
2006-08-30,51.4057
2006-08-31,51.3161
2006-09-01,53.7073
2006-09-05,55.785
2006-09-06,54.1819
2006-09-07,53.8864
2006-09-08,52.7938
2006-09-11,51.6295
2006-09-12,53.4296
2006-09-13,55.4536
2006-09-14,54.764
2006-09-15,56.2596
2006-09-18,58.1941
2006-09-19,56.8418
2006-09-20,56.0704
2006-09-21,55.7744
2006-09-22,54.4648
2006-09-25,52.8323
2006-09-26,56.8238
2006-09-27,56.465
2006-09-28,55.6398
2006-09-29,55.8102
2006-10-02,55.3976
2006-10-03,54.097
2006-10-04,55.2362
2006-10-05,58.6178
2006-10-06,58.6716
2006-10-09,61.5061
2006-10-10,62.6004
2006-10-11,63.4794
2006-10-12,66.0089
2006-10-13,66.7445
2006-10-16,68.4667
2006-10-17,69.0318
2006-10-18,67.5428
2006-10-19,69.0676
2006-10-20,68.5922
2006-10-23,69.265
2006-10-24,70.5656
2006-10-25,73.2296
2006-10-26,73.3283
2006-10-27,71.7945
2006-10-30,70.5746
2006-10-31,70.5566
2006-11-01,68.0361
2006-11-02,67.4979
2006-11-03,67.5248
2006-11-06,69.866
2006-11-07,69.0856
2006-11-08,69.3995
2006-11-09,70.0453
2006-11-10,68.4398
2006-11-13,69.7224
2006-11-14,70.0812
2006-11-15,70.6822
2006-11-16,68.6461
2006-11-17,70.5746
2006-11-20,71.7855
2006-11-21,73.9562
2006-11-22,73.7319
2006-11-24,74.2701
2006-11-27,74.3867
2006-11-28,74.0728
2006-11-29,79.4278
2006-11-30,80.4773
2006-12-01,78.8896
2006-12-04,84.1011
2006-12-05,85.025
2006-12-06,85.1236
2006-12-07,85.904
2006-12-08,88.1016
2006-12-11,86.6485
2006-12-12,80.0377
2006-12-13,81.8496
2006-12-14,79.8314
2006-12-15,79.2484
2006-12-18,76.9521
2006-12-19,79.1497
2006-12-20,79.0511
2006-12-21,78.5571
2006-12-22,80.0213
2006-12-26,79.9494
2006-12-27,82.6264
2006-12-28,82.2132
2006-12-29,81.4047
2007-01-03,79.4733
2007-01-04,78.063
2007-01-05,77.3713
2007-01-08,79.2218
2007-01-09,78.5481
2007-01-10,79.7159
2007-01-11,81.3688
2007-01-12,81.3418
2007-01-16,81.1801
2007-01-17,82.1952
2007-01-18,81.1172
2007-01-19,82.1772
2007-01-22,82.7611
2007-01-23,84.6656
2007-01-24,89.5703
2007-01-25,87.4683
2007-01-26,90.1003
2007-01-29,91.5735
2007-01-30,91.8341
2007-01-31,92.8671
2007-02-01,93.1995
2007-02-02,91.7622
2007-02-05,90.8549
2007-02-06,91.6634
2007-02-07,91.5735
2007-02-08,91.0615
2007-02-09,87.3245
2007-02-12,87.1808
2007-02-13,89.5793
2007-02-14,90.262
2007-02-15,92.0407
2007-02-16,92.2563
2007-02-20,92.6066
2007-02-21,96.7658
2007-02-22,95.6159
2007-02-23,96.8197
2007-02-26,96.2088
2007-02-27,89.0942
2007-02-28,92.0497
2007-03-01,90.3159
2007-03-02,87.082
2007-03-05,84.9261
2007-03-06,89.2559
2007-03-07,89.0044
2007-03-08,91.9059
2007-03-09,92.3461
2007-03-12,93.1546
2007-03-13,90.1003
2007-03-14,91.1603
2007-03-15,92.6804
2007-03-16,91.8979
2007-03-19,94.1915
2007-03-20,95.1539
2007-03-21,97.6005
2007-03-22,97.4116
2007-03-23,97.0788
2007-03-26,97.6724
2007-03-27,96.1973
2007-03-28,94.5513
2007-03-29,96.8269
2007-03-30,95.8465
2007-04-02,97.8163
2007-04-03,98.8057
2007-04-04,99.6692
2007-04-05,99.6063
2007-04-09,101.81
2007-04-10,100.982
2007-04-11,100.308
2007-04-12,101.639
2007-04-13,102.404
2007-04-16,104.337
2007-04-17,102.754
2007-04-18,102.619
2007-04-19,102.332
2007-04-20,105.156
2007-04-23,106.901
2007-04-24,106.154
2007-04-25,101.36
2007-04-26,103.06
2007-04-27,102.646
2007-04-30,98.5899
2007-05-01,95.7746
2007-05-02,98.2661
2007-05-03,97.4386
2007-05-04,97.5825
2007-05-07,100.479
2007-05-08,101.99
2007-05-09,104.535
2007-05-10,101.126
2007-05-11,103.447
2007-05-14,102.61
2007-05-15,102.655
2007-05-16,101.972
2007-05-17,101.531
2007-05-18,102.853
2007-05-21,102.925
2007-05-22,101.243
2007-05-23,101.477
2007-05-24,97.7804
2007-05-25,99.8671
2007-05-29,99.1557
2007-05-30,101.119
2007-05-31,104.217
2007-06-01,104.883
2007-06-04,103.829
2007-06-05,104.172
2007-06-06,101.992
2007-06-07,98.8766
2007-06-08,100.588
2007-06-11,98.7775
2007-06-12,96.076
2007-06-13,96.9405
2007-06-14,98.5163
2007-06-15,99.0747
2007-06-18,98.2192
2007-06-19,99.9031
2007-06-20,97.3817
2007-06-21,98.0841
2007-06-22,96.2831
2007-06-25,95.1574
2007-06-26,92.717
2007-06-27,92.9602
2007-06-28,94.7972
2007-06-29,94.338
2007-07-02,97.3457
2007-07-03,97.877
2007-07-05,97.7329
2007-07-06,96.8054
2007-07-09,96.7153
2007-07-10,97.4537
2007-07-11,98.8135
2007-07-12,102.74
2007-07-13,103.478
2007-07-16,102.542
2007-07-17,102.226
2007-07-18,102.695
2007-07-19,104.46
2007-07-20,101.686
2007-07-23,102.208
2007-07-24,99.4889
2007-07-25,97.1476
2007-07-26,95.1935
2007-07-27,92.2578
2007-07-30,96.13
2007-07-31,94.428
2007-08-01,94.2479
2007-08-02,95.3375
2007-08-03,92.4019
2007-08-06,91.7895
2007-08-07,91.6184
2007-08-08,96.3191
2007-08-09,94.5901
2007-08-10,89.9074
2007-08-13,87.6291
2007-08-14,84.2432
2007-08-15,81.1814
2007-08-16,78.9392
2007-08-17,82.9284
2007-08-20,84.7385
2007-08-21,87.6471
2007-08-22,87.5301
2007-08-23,85.729
2007-08-24,88.3675
2007-08-27,87.8272
2007-08-28,83.4507
2007-08-29,86.6295
2007-08-30,85.9091
2007-08-31,89.3761
2007-09-04,90.4027
2007-09-05,87.386
2007-09-06,87.6201
2007-09-07,85.3238
2007-09-10,83.0275
2007-09-11,83.7479
2007-09-12,82.0549
2007-09-13,82.7483
2007-09-14,85.594
2007-09-17,85.1167
2007-09-18,92.0236
2007-09-19,92.8259
2007-09-20,93.0513
2007-09-21,96.2522
2007-09-24,97.6859
2007-09-25,98.3621
2007-09-26,98.9752
2007-09-27,100.319
2007-09-28,99.1826
2007-10-01,101.942
2007-10-02,101.888
2007-10-03,98.9031
2007-10-04,98.3982
2007-10-05,99.8318
2007-10-08,99.9581
2007-10-09,103.916
2007-10-10,100.427
2007-10-11,95.6661
2007-10-12,90.0488
2007-10-15,85.6397
2007-10-16,86.0094
2007-10-17,86.0454
2007-10-18,86.893
2007-10-19,84.6208
2007-10-22,85.4323
2007-10-23,84.2331
2007-10-24,88.6693
2007-10-25,89.4086
2007-10-26,91.8792
2007-10-29,94.0522
2007-10-30,89.7963
2007-10-31,91.9693
2007-11-01,87.0823
2007-11-02,90.6349
2007-11-05,87.993
2007-11-06,90.4636
2007-11-07,85.6126
2007-11-08,84.8733
2007-11-09,86.2438
2007-11-12,79.0215
2007-11-13,81.8257
2007-11-14,86.5774
2007-11-15,83.0068
2007-11-16,84.4856
2007-11-19,81.5371
2007-11-20,83.8273
2007-11-21,81.8978
2007-11-23,84.1069
2007-11-26,81.6543
2007-11-27,83.4036
2007-11-28,86.1897
2007-11-29,87.0373
2007-11-30,87.9479
2007-12-03,86.0274
2007-12-04,83.8003
2007-12-05,84.0347
2007-12-06,85.2902
2007-12-07,86.4375
2007-12-10,85.9406
2007-12-11,82.589
2007-12-12,83.2756
2007-12-13,82.3541
2007-12-14,80.9719
2007-12-17,78.5237
2007-12-18,76.9879
2007-12-19,77.2951
2007-12-20,74.7565
2007-12-21,78.8399
2007-12-24,79.4181
2007-12-26,80.6377
2007-12-27,78.5327
2007-12-28,79.0928
2007-12-31,77.9455
2008-01-02,76.0393
2008-01-03,77.6293
2008-01-04,74.8378
2008-01-07,71.6127
2008-01-08,68.6856
2008-01-09,68.1617
2008-01-10,70.4653
2008-01-11,69.851
2008-01-14,72.1457
2008-01-15,67.8003
2008-01-16,62.669
2008-01-17,59.1909
2008-01-18,61.1151
2008-01-22,61.2958
2008-01-23,60.8351
2008-01-24,60.1666
2008-01-25,59.5703
2008-01-28,60.1666
2008-01-29,63.8615
2008-01-30,63.9157
2008-01-31,63.5543
2008-02-01,66.7524
2008-02-04,66.4813
2008-02-05,65.2617
2008-02-06,65.9303
2008-02-07,67.8274
2008-02-08,69.1735
2008-02-11,73.0491
2008-02-12,71.4139
2008-02-13,74.7023
2008-02-14,74.4945
2008-02-15,74.4403
2008-02-19,77.1505
2008-02-20,77.4396
2008-02-21,74.9191
2008-02-22,75.3256
2008-02-25,77.4215
2008-02-26,76.8795
2008-02-27,75.5515
2008-02-28,76.5091
2008-02-29,70.0769
2008-03-03,69.0109
2008-03-04,66.653
2008-03-05,68.9205
2008-03-06,66.5085
2008-03-07,62.949
2008-03-10,59.6787
2008-03-11,65.6683
2008-03-12,64.4008
2008-03-13,66.9457
2008-03-14,66.6831
2008-03-17,64.6091
2008-03-18,69.5268
2008-03-19,65.1797
2008-03-20,65.6959
2008-03-24,68.1321
2008-03-25,69.0378
2008-03-26,68.3585
2008-03-27,65.5872
2008-03-28,64.6997
2008-03-31,64.6091
2008-04-01,67.8785
2008-04-02,69.6717
2008-04-03,67.7427
2008-04-04,76.0747
2008-04-07,72.5698
2008-04-08,75.4679
2008-04-09,73.3758
2008-04-10,73.5298
2008-04-11,71.1841
2008-04-14,68.1864
2008-04-15,67.3804
2008-04-16,71.003
2008-04-17,68.9562
2008-04-18,67.2898
2008-04-21,66.6921
2008-04-22,64.9261
2008-04-23,66.7827
2008-04-24,64.8989
2008-04-25,65.6325
2008-04-28,65.3246
2008-04-29,62.6891
2008-04-30,62.354
2008-05-01,63.948
2008-05-02,65.6597
2008-05-05,66.1397
2008-05-06,66.9729
2008-05-07,66.6831
2008-05-08,69.2913
2008-05-09,68.123
2008-05-12,68.4581
2008-05-13,69.2008
2008-05-14,67.8513
2008-05-15,72.9049
2008-05-16,73.9011
2008-05-19,74.3539
2008-05-20,73.729
2008-05-21,70.0521
2008-05-22,69.1827
2008-05-23,67.3623
2008-05-27,66.3727
2008-05-28,69.5501
2008-05-29,67.335
2008-05-30,68.1521
2008-06-02,65.7735
2008-06-03,64.094
2008-06-04,62.4689
2008-06-05,61.5611
2008-06-06,60.045
2008-06-09,61.5974
2008-06-10,58.9919
2008-06-11,56.5588
2008-06-12,56.5135
2008-06-13,59.7726
2008-06-16,59.4549
2008-06-17,59.0463
2008-06-18,58.1385
2008-06-19,57.3396
2008-06-20,56.8312
2008-06-23,57.4304
2008-06-24,55.8235
2008-06-25,55.5693
2008-06-26,53.9624
2008-06-27,54.7341
2008-06-30,53.7445
2008-07-01,52.5825
2008-07-02,47.9071
2008-07-03,47.7709
2008-07-07,47.317
2008-07-08,46.972
2008-07-09,45.5376
2008-07-10,46.4818
2008-07-11,45.701
2008-07-14,50.1222
2008-07-15,49.7772
2008-07-16,49.4776
2008-07-17,48.8422
2008-07-18,48.9329
2008-07-21,49.9951
2008-07-22,49.6592
2008-07-23,47.4985
2008-07-24,42.0333
2008-07-25,41.307
2008-07-28,41.5794
2008-07-29,43.7582
2008-07-30,45.011
2008-07-31,42.9593
2008-08-01,41.7609
2008-08-04,39.8635
2008-08-05,41.5885
2008-08-06,43.3678
2008-08-07,42.814
2008-08-08,43.7037
2008-08-11,43.4314
2008-08-12,42.5689
2008-08-13,43.9943
2008-08-14,44.4028
2008-08-15,44.5753
2008-08-18,44.2394
2008-08-19,43.8853
2008-08-20,45.3979
2008-08-21,45.4253
2008-08-22,44.2771
2008-08-25,42.482
2008-08-26,43.4843
2008-08-27,44.4047
2008-08-28,45.5802
2008-08-29,44.669
2008-09-02,42.5002
2008-09-03,42.3453
2008-09-04,40.0945
2008-09-05,40.8509
2008-09-08,38.1992
2008-09-09,34.6727
2008-09-10,36.9508
2008-09-11,37.2606
2008-09-12,37.8073
2008-09-15,34.5086
2008-09-16,36.3311
2008-09-17,34.7456
2008-09-18,36.8961
2008-09-19,41.0878
2008-09-22,37.6615
2008-09-23,34.5724
2008-09-24,32.0301
2008-09-25,31.3557
2008-09-26,29.998
2008-09-29,25.3142
2008-09-30,26.6446
2008-10-01,26.2255
2008-10-02,22.9359
2008-10-03,23.1546
2008-10-06,22.2707
2008-10-07,20.0017
2008-10-08,21.4232
2008-10-09,19.1178
2008-10-10,21.9153
2008-10-13,25.3233
2008-10-14,23.51
2008-10-15,18.9993
2008-10-16,21.5326
2008-10-17,22.1887
2008-10-20,23.6375
2008-10-21,22.4985
2008-10-22,20.9221
2008-10-23,18.9629
2008-10-24,19.3729
2008-10-27,16.9673
2008-10-28,21.2683
2008-10-29,22.7719
2008-10-30,23.191
2008-10-31,24.1478
2008-11-03,25.2869
2008-11-04,25.7516
2008-11-05,22.8357
2008-11-06,21.6419
2008-11-07,22.1249
2008-11-10,21.7422
2008-11-11,21.0223
2008-11-12,18.6986
2008-11-13,20.4118
2008-11-14,19.3365
2008-11-17,18.4617
2008-11-18,18.0972
2008-11-19,15.1721
2008-11-20,13.8326
2008-11-21,15.5457
2008-11-24,17.3318
2008-11-25,18.2157
2008-11-26,21.241
2008-11-28,20.9129
2008-12-01,18.1974
2008-12-02,19.4823
2008-12-03,18.8262
2008-12-04,18.644
2008-12-05,19.6372
2008-12-08,22.0338
2008-12-09,22.2798
2008-12-10,23.0817
2008-12-11,20.594
2008-12-12,21.9426
2008-12-15,20.9494
2008-12-16,22.5896
2008-12-17,23.6819
2008-12-18,22.1582
2008-12-19,22.507
2008-12-22,20.8181
2008-12-23,21.1761
2008-12-24,21.1485
2008-12-26,21.7819
2008-12-29,21.5065
2008-12-30,22.1031
2008-12-31,23.4249
2009-01-02,24.8018
2009-01-05,26.2704
2009-01-06,28.8222
2009-01-07,26.711
2009-01-08,27.4912
2009-01-09,26.1144
2009-01-12,23.7645
2009-01-13,24.1868
2009-01-14,22.4428
2009-01-15,23.5901
2009-01-16,24.1868
2009-01-20,22.1215
2009-01-21,20.6437
2009-01-22,19.4596
2009-01-23,20.6896
2009-01-26,20.4142
2009-01-27,21.4606
2009-01-28,22.9751
2009-01-29,21.4239
2009-01-30,20.249
2009-02-02,20.047
2009-02-03,21.2128
2009-02-04,21.7543
2009-02-05,22.3693
2009-02-06,23.3515
2009-02-09,23.48
2009-02-10,21.635
2009-02-11,21.8278
2009-02-12,22.4244
2009-02-13,22.9568
2009-02-17,20.8089
2009-02-18,20.7355
2009-02-19,20.4509
2009-02-20,19.9736
2009-02-23,18.202
2009-02-24,19.4779
2009-02-25,18.1011
2009-02-26,18.3489
2009-02-27,18.1011
2009-03-02,16.2194
2009-03-03,16.3662
2009-03-04,17.5136
2009-03-05,16.3112
2009-03-06,16.1
2009-03-09,16.2836
2009-03-10,18.4816
2009-03-11,18.5279
2009-03-12,18.8432
2009-03-13,19.4089
2009-03-16,19.4645
2009-03-17,18.769
2009-03-18,19.6129
2009-03-19,20.0673
2009-03-20,19.1214
2009-03-23,20.939
2009-03-24,20.837
2009-03-25,21.1337
2009-03-26,22.8029
2009-03-27,21.7921
2009-03-30,20.0673
2009-03-31,20.3455
2009-04-01,21.6901
2009-04-02,23.3778
2009-04-03,24.1475
2009-04-06,23.9991
2009-04-07,22.7287
2009-04-08,23.248
2009-04-09,26.1413
2009-04-13,27.1335
2009-04-14,25.5478
2009-04-15,26.0022
2009-04-16,26.7811
2009-04-17,27.254
2009-04-20,25.0656
2009-04-21,25.4921
2009-04-22,27.8846
2009-04-23,27.523
2009-04-24,30.1844
2009-04-27,28.1443
2009-04-28,27.6992
2009-04-29,28.9881
2009-04-30,30.2957
2009-05-01,31.0097
2009-05-04,33.3929
2009-05-05,34.4223
2009-05-06,35.2012
2009-05-07,34.515
2009-05-08,35.5258
2009-05-11,34.8674
2009-05-12,34.5428
2009-05-13,30.4533
2009-05-14,31.0653
2009-05-15,30.2122
2009-05-18,31.1303
2009-05-19,33.1704
2009-05-20,34.0606
2009-05-21,31.5661
2009-05-22,31.7794
2009-05-26,33.3731
2009-05-27,30.1569
2009-05-28,31.1731
2009-05-29,32.9163
2009-06-01,35.9646
2009-06-02,37.4375
2009-06-03,35.6849
2009-06-04,37.6239
2009-06-05,38.1087
2009-06-08,37.1672
2009-06-09,39.1341
2009-06-10,39.3765
2009-06-11,40.2341
2009-06-12,38.957
2009-06-15,36.7383
2009-06-16,35.5265
2009-06-17,34.5849
2009-06-18,34.7061
2009-06-19,35.6477
2009-06-22,31.2942
2009-06-23,31.5646
2009-06-24,31.6019
2009-06-25,33.0654
2009-06-26,32.2637
2009-06-29,32.4782
2009-06-30,32.5061
2009-07-01,33.2519
2009-07-02,31.9748
2009-07-06,31.0239
2009-07-07,30.651
2009-07-08,30.0451
2009-07-09,28.0968
2009-07-10,28.6561
2009-07-13,29.812
2009-07-14,29.84
2009-07-15,31.1637
2009-07-16,31.201
2009-07-17,31.1544
2009-07-20,32.6087
2009-07-21,32.3943
2009-07-22,26.5586
2009-07-23,26.6332
2009-07-24,26.2603
2009-07-27,26.2603
2009-07-28,25.5891
2009-07-29,24.862
2009-07-30,25.6451
2009-07-31,25.2349
2009-08-03,26.2417
2009-08-04,26.0552
2009-08-05,26.6052
2009-08-06,27.1273
2009-08-07,28.6561
2009-08-10,27.8451
2009-08-11,27.0154
2009-08-12,27.2857
2009-08-13,27.3603
2009-08-14,26.3069
2009-08-17,24.284
2009-08-18,25.0578
2009-08-19,25.4493
2009-08-20,26.1298
2009-08-21,27.2764
2009-08-24,27.4908
2009-08-25,26.4654
2009-08-26,26.5586
2009-08-27,28.8332
2009-08-28,29.812
2009-08-31,28.2646
2009-09-01,27.3324
2009-09-02,26.6518
2009-09-03,27.2485
2009-09-04,27.7052
2009-09-08,29.812
2009-09-09,29.4764
2009-09-10,30.5578
2009-09-11,31.229
2009-09-14,31.3968
2009-09-15,31.807
2009-09-16,33.2426
2009-09-17,32.9427
2009-09-18,32.6148
2009-09-21,32.6897
2009-09-22,33.4955
2009-09-23,33.205
2009-09-24,32.3056
2009-09-25,32.2587
2009-09-28,33.3081
2009-09-29,33.1207
2009-09-30,32.7553
2009-10-01,31.125
2009-10-02,31.5935
2009-10-05,32.3712
2009-10-06,32.9052
2009-10-07,33.2331
2009-10-08,33.7203
2009-10-09,33.814
2009-10-12,33.533
2009-10-13,33.8421
2009-10-14,35.1913
2009-10-15,36.4749
2009-10-16,34.4699
2009-10-19,35.2663
2009-10-20,35.6973
2009-10-21,32.6241
2009-10-22,32.062
2009-10-23,31.8465
2009-10-26,30.2724
2009-10-27,29.2512
2009-10-28,27.7708
2009-10-29,29.6821
2009-10-30,28.9139
2009-11-02,29.3542
2009-11-03,29.476
2009-11-04,29.373
2009-11-05,30.6753
2009-11-06,30.5067
2009-11-09,31.6591
2009-11-10,30.7128
2009-11-11,31.2281
2009-11-12,30.2349
2009-11-13,30.4879
2009-11-16,32.1838
2009-11-17,32.7834
2009-11-18,32.4742
2009-11-19,31.7247
2009-11-20,31.8839
2009-11-23,32.5492
2009-11-24,32.7178
2009-11-25,33.102
2009-11-27,32.0339
2009-11-30,31.8746
2009-12-01,32.6522
2009-12-02,33.1957
2009-12-03,32.6803
2009-12-04,32.9052
2009-12-07,32.7928
2009-12-08,32.343
2009-12-09,33.1769
2009-12-10,33.3737
2009-12-11,34.0858
2009-12-14,35.2007
2009-12-15,35.5848
2009-12-16,35.8659
2009-12-17,37.8336
2009-12-18,38.5208
2009-12-21,40.1399
2009-12-22,40.0834
2009-12-23,41.6555
2009-12-24,43.0676
2009-12-28,42.1356
2009-12-29,42.2109
2009-12-30,42.8228
2009-12-31,42.1639
2010-01-04,44.5267
2010-01-05,44.9785
2010-01-06,46.1176
2010-01-07,46.7295
2010-01-08,47.7462
2010-01-11,47.878
2010-01-12,44.8938
2010-01-13,44.9597
2010-01-14,44.0278
2010-01-15,43.0017
2010-01-19,44.3667
2010-01-20,43.0111
2010-01-21,41.4013
2010-01-22,39.8104
2010-01-25,40.4035
2010-01-26,40.0081
2010-01-27,40.1776
2010-01-28,39.3115
2010-01-29,38.5019
2010-02-01,41.3543
2010-02-02,42.2297
2010-02-03,40.5259
2010-02-04,37.3817
2010-02-05,38.5208
2010-02-08,38.3325
2010-02-09,39.481
2010-02-10,38.0783
2010-02-11,39.4715
2010-02-12,39.9234
2010-02-16,41.5049
2010-02-17,41.4202
2010-02-18,41.9003
2010-02-19,43.2935
2010-02-22,43.1523
2010-02-23,41.0907
2010-02-24,40.46
2010-02-25,40.5824
2010-02-26,41.1472
2010-03-01,42.8699
2010-03-02,43.7924
2010-03-03,44.0278
2010-03-04,44.7432
2010-03-05,45.8446
2010-03-08,46.513
2010-03-09,46.8153
2010-03-10,46.7681
2010-03-11,46.8625
2010-03-12,48.0152
2010-03-15,47.7223
2010-03-16,48.7427
2010-03-17,49.6781
2010-03-18,48.0813
2010-03-19,48.3742
2010-03-22,49.4891
2010-03-23,51.152
2010-03-24,51.2276
2010-03-25,49.4513
2010-03-26,50.2355
2010-03-29,52.7204
2010-03-30,51.4827
2010-03-31,50.9441
2010-04-01,51.7094
2010-04-05,53.1833
2010-04-06,52.5881
2010-04-07,51.6433
2010-04-08,52.333
2010-04-09,52.5786
2010-04-12,52.8243
2010-04-13,52.1157
2010-04-14,52.1346
2010-04-15,51.0858
2010-04-16,49.3568
2010-04-19,48.2798
2010-04-20,48.79
2010-04-21,52.0873
2010-04-22,52.7676
2010-04-23,53.429
2010-04-26,54.3549
2010-04-27,51.4827
2010-04-28,49.971
2010-04-29,50.7929
2010-04-30,50.5284
2010-05-03,50.6418
2010-05-04,48.5443
2010-05-05,47.8168
2010-05-06,47.6845
2010-05-07,48.1853
2010-05-10,52.5314
2010-05-11,50.5284
2010-05-12,53.1361
2010-05-13,52.7582
2010-05-14,50.7552
2010-05-17,49.4135
2010-05-18,48.8183
2010-05-19,48.2798
2010-05-20,44.1793
2010-05-21,47.2972
2010-05-24,46.2106
2010-05-25,49.397
2010-05-26,48.6574
2010-05-27,52.1851
2010-05-28,51.9101
2010-06-01,48.2496
2010-06-02,49.9565
2010-06-03,49.2833
2010-06-04,45.7082
2010-06-07,44.0676
2010-06-08,45.234
2010-06-09,46.353
2010-06-10,49.1884
2010-06-11,49.2264
2010-06-14,49.397
2010-06-15,52.1187
2010-06-16,51.3411
2010-06-17,49.8712
2010-06-18,49.397
2010-06-21,49.6057
2010-06-22,47.766
2010-06-23,48.1643
2010-06-24,46.1539
2010-06-25,47.5668
2010-06-28,46.7039
2010-06-29,42.74
2010-06-30,41.9244
2010-07-01,42.2374
2010-07-02,41.8201
2010-07-06,41.8106
2010-07-07,44.2193
2010-07-08,45.3383
2010-07-09,46.2392
2010-07-12,44.3711
2010-07-13,46.059
2010-07-14,46.0116
2010-07-15,44.8736
2010-07-16,42.4175
2010-07-19,42.8538
2010-07-20,44.94
2010-07-21,44.7788
2010-07-22,47.3487
2010-07-23,49.6341
2010-07-26,50.3264
2010-07-27,49.3117
2010-07-28,45.7556
2010-07-29,44.7124
2010-07-30,45.1961
2010-08-02,46.7892
2010-08-03,45.5375
2010-08-04,45.4047
2010-08-05,45.1392
2010-08-06,45.8599
2010-08-09,46.884
2010-08-10,46.0401
2010-08-11,42.4744
2010-08-12,42.3891
2010-08-13,41.9339
2010-08-16,42.0572
2010-08-17,43.7452
2010-08-18,44.1245
2010-08-19,42.6546
2010-08-20,41.4787
2010-08-23,40.3502
2010-08-24,38.4442
2010-08-25,38.6433
2010-08-26,38.2355
2010-08-27,39.6295
2010-08-30,38.6528
2010-08-31,38.5769
2010-09-01,41.1563
2010-09-02,41.6874
2010-09-03,42.6072
2010-09-07,41.7822
2010-09-08,42.5408
2010-09-09,42.0003
2010-09-10,43.2426
2010-09-13,45.3004
2010-09-14,44.4154
2010-09-15,43.4825
2010-09-16,43.3492
2010-09-17,43.1303
2010-09-20,43.2445
2010-09-21,42.245
2010-09-22,42.0927
2010-09-23,40.6649
2010-09-24,43.5872
2010-09-27,43.7871
2010-09-28,43.5396
2010-09-29,44.1107
2010-09-30,44.2535
2010-10-01,44.7009
2010-10-04,43.2921
2010-10-05,45.1483
2010-10-06,44.5486
2010-10-07,43.7681
2010-10-08,46.6047
2010-10-11,46.3667
2010-10-12,46.0716
2010-10-13,46.6713
2010-10-14,46.2525
2010-10-15,45.6147
2010-10-18,45.3672
2010-10-19,44.4249
2010-10-20,45.6147
2010-10-21,44.7295
2010-10-22,44.5391
2010-10-25,45.5481
2010-10-26,46.5381
2010-10-27,47.8422
2010-10-28,48.9654
2010-10-29,50.1648
2010-11-01,49.7936
2010-11-02,50.3076
2010-11-03,50.2505
2010-11-04,52.9443
2010-11-05,53.2299
2010-11-08,51.3927
2010-11-09,49.1463
2010-11-10,49.4413
2010-11-11,50.2124
2010-11-12,48.8607
2010-11-15,49.4128
2010-11-16,47.5852
2010-11-17,46.0716
2010-11-18,46.8808
2010-11-19,47.6137
2010-11-22,48.4609
2010-11-23,47.8802
2010-11-24,49.1558
2010-11-26,48.2991
2010-11-29,49.1272
2010-11-30,49.251
2010-12-01,50.5455
2010-12-02,51.8782
2010-12-03,51.783
2010-12-06,51.4594
2010-12-07,50.7645
2010-12-08,49.8887
2010-12-09,50.8406
2010-12-10,50.8787
2010-12-13,51.2214
2010-12-14,50.5265
2010-12-15,49.7269
2010-12-16,51.3451
2010-12-17,55.1367
2010-12-20,54.7643
2010-12-21,56.321
2010-12-22,55.8531
2010-12-23,55.0412
2010-12-27,54.7165
2010-12-28,53.9811
2010-12-29,54.0384
2010-12-30,53.2934
2010-12-31,52.6917
2011-01-03,54.9744
2011-01-04,53.7519
2011-01-05,53.9333
2011-01-06,53.2648
2011-01-07,52.6822
2011-01-10,52.8446
2011-01-11,56.1109
2011-01-12,56.0154
2011-01-13,55.5856
2011-01-14,55.2609
2011-01-18,58.279
2011-01-19,56.5216
2011-01-20,56.493
2011-01-21,55.6811
2011-01-24,56.216
2011-01-25,55.7862
2011-01-26,62.3763
2011-01-27,62.0229
2011-01-28,60.7335
2011-01-31,62.3285
2011-02-01,63.3122
2011-02-02,63.1212
2011-02-03,63.6561
2011-02-04,63.9235
2011-02-07,64.2291
2011-02-08,64.3342
2011-02-09,62.6819
2011-02-10,63.4746
2011-02-11,64.4201
2011-02-14,66.1393
2011-02-15,65.4803
2011-02-16,65.4803
2011-02-17,66.0533
2011-02-18,65.4325
2011-02-22,62.3094
2011-02-23,60.6189
2011-02-24,62.0611
2011-02-25,63.3791
2011-02-28,64.124
2011-03-01,61.3066
2011-03-02,60.5425
2011-03-03,63.3313
2011-03-04,62.5291
2011-03-07,60.7431
2011-03-08,61.1251
2011-03-09,59.5449
2011-03-10,58.5009
2011-03-11,61.4796
2011-03-14,61.3167
2011-03-15,60.675
2011-03-16,58.0507
2011-03-17,58.4147
2011-03-18,58.3668
2011-03-21,61.2401
2011-03-22,61.6999
2011-03-23,61.8627
2011-03-24,62.4852
2011-03-25,62.2937
2011-03-28,61.9872
2011-03-29,63.1269
2011-03-30,64.9563
2011-03-31,64.8988
2011-04-01,64.4391
2011-04-04,64.5636
2011-04-05,65.0233
2011-04-06,63.8261
2011-04-07,62.5331
2011-04-08,60.8762
2011-04-11,60.675
2011-04-12,61.4029
2011-04-13,61.4413
2011-04-14,61.2976
2011-04-15,64.5828
2011-04-18,62.9545
2011-04-19,65.416
2011-04-20,66.1056
2011-04-21,66.4696
2011-04-25,66.9485
2011-04-26,68.117
2011-04-27,69.7164
2011-04-28,68.4139
2011-04-29,68.9406
2011-05-02,67.2837
2011-05-03,67.1879
2011-05-04,67.0538
2011-05-05,66.3451
2011-05-06,67.0921
2011-05-09,67.7338
2011-05-10,69.0651
2011-05-11,65.6076
2011-05-12,67.4752
2011-05-13,65.8853
2011-05-16,65.2532
2011-05-17,63.874
2011-05-18,64.0656
2011-05-19,62.5619
2011-05-20,61.039
2011-05-23,61.2976
2011-05-24,62.4119
2011-05-25,63.3628
2011-05-26,64.0255
2011-05-27,63.7854
2011-05-31,64.3136
2011-06-01,62.4983
2011-06-02,62.921
2011-06-03,60.6734
2011-06-06,59.7226
2011-06-07,59.031
2011-06-08,57.1965
2011-06-09,59.4056
2011-06-10,59.3192
2011-06-13,57.8208
2011-06-14,59.3672
2011-06-15,58.0417
2011-06-16,56.0535
2011-06-17,56.3225
2011-06-20,57.6191
2011-06-21,59.0118
2011-06-22,57.5135
2011-06-23,58.3971
2011-06-24,57.6575
2011-06-27,56.7643
2011-06-28,59.2135
2011-06-29,61.8164
2011-06-30,60.9904
2011-07-01,60.3373
2011-07-05,60.1452
2011-07-06,57.9553
2011-07-07,59.6841
2011-07-08,59.1079
2011-07-11,58.3491
2011-07-12,57.7248
2011-07-13,59.8666
2011-07-14,57.9073
2011-07-15,63.6605
2011-07-18,61.8644
2011-07-19,62.239
2011-07-20,61.7588
2011-07-21,63.6317
2011-07-22,62.9306
2011-07-25,62.8729
2011-07-26,61.3554
2011-07-27,58.3395
2011-07-28,56.6394
2011-07-29,55.9479
2011-08-01,53.8156
2011-08-02,51.1647
2011-08-03,51.3376
2011-08-04,47.3996
2011-08-05,46.6408
2011-08-08,40.9644
2011-08-09,44.547
2011-08-10,42.1554
2011-08-11,45.738
2011-08-12,46.5064
2011-08-15,47.3132
2011-08-16,46.1414
2011-08-17,45.0945
2011-08-18,41.9729
2011-08-19,41.0701
2011-08-22,40.7147
2011-08-23,43.3272
2011-08-24,44.2204
2011-08-25,42.4628
2011-08-26,44.4221
2011-08-29,46.8329
2011-08-30,47.294
2011-08-31,48.0624
2011-09-01,47.1691
2011-09-02,44.6142
2011-09-06,42.3571
2011-09-07,45.6419
2011-09-08,44.2781
2011-09-09,42.991
2011-09-12,42.2226
2011-09-13,43.3464
2011-09-14,44.499
2011-09-15,46.055
2011-09-16,45.6596
2011-09-19,45.0522
2011-09-20,43.6061
2011-09-21,41.003
2011-09-22,35.5559
2011-09-23,36.0572
2011-09-26,37.3684
2011-09-27,40.0871
2011-09-28,37.8408
2011-09-29,37.3394
2011-09-30,35.7198
2011-10-03,32.5768
2011-10-04,31.5934
2011-10-05,34.1194
2011-10-06,36.867
2011-10-07,35.8547
2011-10-10,37.5901
2011-10-11,37.7058
2011-10-12,38.1493
2011-10-13,38.6506
2011-10-14,39.1423
2011-10-17,37.1081
2011-10-18,38.3903
2011-10-19,37.0213
2011-10-20,37.3491
2011-10-21,39.0844
2011-10-24,41.3983
2011-10-25,38.7567
2011-10-26,42.0828
2011-10-27,45.2643
2011-10-28,48.388
2011-10-31,44.7823
2011-11-01,43.5868
2011-11-02,44.8594
2011-11-03,46.1223
2011-11-04,47.7517
2011-11-07,47.7613
2011-11-08,48.0313
2011-11-09,44.8401
2011-11-10,45.9199
2011-11-11,48.2048
2011-11-14,47.9348
2011-11-15,48.3012
2011-11-16,46.614
2011-11-17,45.139
2011-11-18,45.5728
2011-11-21,44.3388
2011-11-22,43.7217
2011-11-23,41.4561
2011-11-25,41.7743
2011-11-28,44.4159
2011-11-29,44.0688
2011-11-30,48.4651
2011-12-01,48.0698
2011-12-02,48.2337
2011-12-05,47.9638
2011-12-06,48.1566
2011-12-07,47.7902
2011-12-08,45.4378
2011-12-09,47.1539
2011-12-12,44.6858
2011-12-13,42.6902
2011-12-14,42.1599
2011-12-15,42.4877
2011-12-16,43.3106
2011-12-19,41.481
2011-12-20,44.2303
2011-12-21,44.3561
2011-12-22,46.8924
2011-12-23,46.5633
2011-12-27,47.0957
2011-12-28,45.7792
2011-12-29,46.4568
2011-12-30,46.3213
2012-01-03,48.5865
2012-01-04,47.3087
2012-01-05,46.6698
2012-01-06,46.4761
2012-01-09,46.6891
2012-01-10,47.8605
2012-01-11,48.3929
2012-01-12,48.3154
2012-01-13,47.4442
2012-01-17,47.7249
2012-01-18,47.9863
2012-01-19,49.9515
2012-01-20,49.4287
2012-01-23,48.8188
2012-01-24,49.1576
2012-01-25,48.1993
2012-01-26,46.1373
2012-01-27,45.2467
2012-01-30,44.482
2012-01-31,43.9689
2012-02-01,45.0531
2012-02-02,45.4113
2012-02-03,46.7666
2012-02-06,46.8537
2012-02-07,46.9215
2012-02-08,45.8856
2012-02-09,46.147
2012-02-10,44.0657
2012-02-13,44.5788
2012-02-14,43.5139
2012-02-15,43.1654
2012-02-16,44.1238
2012-02-17,43.9302
2012-02-21,43.6591
2012-02-22,42.391
2012-02-23,42.6233
2012-02-24,42.7782
2012-02-27,42.662
2012-02-28,42.4394
2012-02-29,42.5362
2012-03-01,43.1073
2012-03-02,42.4007
2012-03-05,40.9002
2012-03-06,39.0802
2012-03-07,38.906
2012-03-08,39.5546
2012-03-09,39.9224
2012-03-12,39.4263
2012-03-13,40.6514
2012-03-14,40.4278
2012-03-15,41.6626
2012-03-16,42.2557
2012-03-19,42.8974
2012-03-20,41.9737
2012-03-21,41.5459
2012-03-22,40.4472
2012-03-23,40.8361
2012-03-26,40.9333
2012-03-27,40.8458
2012-03-28,39.6402
2012-03-29,39.5916
2012-03-30,40.0097
2012-04-02,40.6125
2012-04-03,39.6013
2012-04-04,38.6874
2012-04-05,38.1818
2012-04-09,38.0748
2012-04-10,37.3942
2012-04-11,38.1234
2012-04-12,40.1555
2012-04-13,38.8818
2012-04-16,39.2027
2012-04-17,40.3889
2012-04-18,40.1652
2012-04-19,39.7569
2012-04-20,39.3388
2012-04-23,38.6874
2012-04-24,39.193
2012-04-25,41.5653
2012-04-26,41.3903
2012-04-27,41.1473
2012-04-30,41.7209
2012-05-01,42.6251
2012-05-02,41.7987
2012-05-03,41.1181
2012-05-04,40.2236
2012-05-07,39.9611
2012-05-08,39.2707
2012-05-09,38.9013
2012-05-10,38.7651
2012-05-11,38.4832
2012-05-14,37.8317
2012-05-15,35.576
2012-05-16,34.419
2012-05-17,32.8342
2012-05-18,32.2314
2012-05-21,33.9815
2012-05-22,33.6217
2012-05-23,34.6524
2012-05-24,33.7676
2012-05-25,33.3373
2012-05-29,34.1583
2012-05-30,32.2622
2012-05-31,31.4217
2012-06-01,29.6527
2012-06-04,29.1445
2012-06-05,29.9752
2012-06-06,30.415
2012-06-07,30.5128
2012-06-08,29.5647
2012-06-11,27.8837
2012-06-12,28.2551
2012-06-13,27.5221
2012-06-14,28.3821
2012-06-15,28.7926
2012-06-18,28.2551
2012-06-19,29.5061
2012-06-20,30.2782
2012-06-21,28.3235
2012-06-22,28.0596
2012-06-25,27.4439
2012-06-26,27.9912
2012-06-27,29.0272
2012-06-28,29.5354
2012-06-29,31.1187
2012-07-02,31.0698
2012-07-03,32.2231
2012-07-05,31.8713
2012-07-06,31.1774
2012-07-09,31.021
2012-07-10,30.415
2012-07-11,30.0827
2012-07-12,30.2293
2012-07-13,30.8255
2012-07-16,30.4443
2012-07-17,30.4639
2012-07-18,31.1774
2012-07-19,31.3728
2012-07-20,30.1316
2012-07-23,28.949
2012-07-24,28.0107
2012-07-25,27.2973
2012-07-26,28.1769
2012-07-27,29.4377
2012-07-30,29.3008
2012-07-31,29.3497
2012-08-01,28.7242
2012-08-02,28.0596
2012-08-03,29.467
2012-08-06,30.2391
2012-08-07,31.1187
2012-08-08,31.5097
2012-08-09,31.7247
2012-08-10,31.7931
2012-08-13,31.2653
2012-08-14,31.1285
2012-08-15,30.7669
2012-08-16,31.7149
2012-08-17,31.6562
2012-08-20,31.8126
2012-08-21,32.5945
2012-08-22,32.2427
2012-08-23,30.6887
2012-08-24,30.0534
2012-08-27,29.9166
2012-08-28,29.8775
2012-08-29,29.5061
2012-08-30,28.6656
2012-08-31,29.0272
2012-09-04,28.0987
2012-09-05,28.4896
2012-09-06,30.1511
2012-09-07,31.4999
2012-09-10,31.0698
2012-09-11,32.5065
2012-09-12,33.0734
2012-09-13,33.9726
2012-09-14,35.8686
2012-09-17,34.3755
2012-09-18,33.6192
2012-09-19,33.3835
2012-09-20,32.7942
2012-09-21,32.7451
2012-09-24,32.4112
2012-09-25,31.0067
2012-09-26,30.8299
2012-09-27,31.7531
2012-09-28,31.3308
2012-10-01,31.5272
2012-10-02,30.4272
2012-10-03,30.3094
2012-10-04,30.5451
2012-10-05,30.4862
2012-10-08,31.0263
2012-10-09,31.3799
2012-10-10,30.3388
2012-10-11,31.1246
2012-10-12,30.879
2012-10-15,31.3799
2012-10-16,32.2147
2012-10-17,32.5585
2012-10-18,33.1773
2012-10-19,32.2147
2012-10-22,32.2737
2012-10-23,31.0362
2012-10-24,27.5004
2012-10-25,26.8325
2012-10-26,26.1941
2012-10-31,25.8504
2012-11-01,27.2156
2012-11-02,26.8522
2012-11-05,27.2057
2012-11-06,28.129
2012-11-07,27.0093
2012-11-08,26.2138
2012-11-09,26.2727
2012-11-12,27.7558
2012-11-13,26.6165
2012-11-14,25.9191
2012-11-15,25.6441
2012-11-16,25.5361
2012-11-19,25.9191
2012-11-20,25.7325
2012-11-21,25.8897
2012-11-23,26.3807
2012-11-26,25.7227
2012-11-27,25.3789
2012-11-28,25.703
2012-11-29,25.8602
2012-11-30,25.7227
2012-12-03,25.1334
2012-12-04,25.8897
2012-12-05,26.1647
2012-12-06,25.8897
2012-12-07,26.1843
2012-12-10,27.0584
2012-12-11,27.5986
2012-12-12,27.5299
2012-12-13,27.6978
2012-12-14,28.0735
2012-12-17,28.1624
2012-12-18,29.4673
2012-12-19,29.3289
2012-12-20,29.7935
2012-12-21,29.8429
2012-12-24,29.487
2012-12-26,29.7243
2012-12-27,29.3783
2012-12-28,28.8643
2012-12-31,29.9615
2013-01-02,31.1675
2013-01-03,30.782
2013-01-04,31.8199
2013-01-07,31.9287
2013-01-08,30.9698
2013-01-09,30.9797
2013-01-10,30.6634
2013-01-11,30.2086
2013-01-14,29.6749
2013-01-15,30.604
2013-01-16,29.2597
2013-01-17,29.7243
2013-01-18,29.5563
2013-01-22,30.2186
2013-01-23,30.4558
2013-01-24,29.8627
2013-01-25,29.9615
2013-01-28,29.6155
2013-01-29,30.6732
2013-01-30,30.7721
2013-01-31,31.2564
2013-02-01,32.7194
2013-02-04,31.6222
2013-02-05,31.81
2013-02-06,33.184
2013-02-07,32.6898
2013-02-08,32.8578
2013-02-11,33.1642
2013-02-12,32.8578
2013-02-13,33.0456
2013-02-14,33.6288
2013-02-15,33.3916
2013-02-19,32.2647
2013-02-20,31.0885
2013-02-21,30.604
2013-02-22,30.604
2013-02-25,29.3793
2013-02-26,29.5859
2013-02-27,30.3322
2013-02-28,30.1493
2013-03-01,29.8824
2013-03-04,29.4772
2013-03-05,30.0209
2013-03-06,31.0192
2013-03-07,31.8595
2013-03-08,32.4426
2013-03-11,32.542
2013-03-12,32.1942
2013-03-13,32.0749
2013-03-14,32.0649
2013-03-15,32.0649
2013-03-18,31.4288
2013-03-19,30.6138
2013-03-20,31.0412
2013-03-21,31.0611
2013-03-22,31.071
2013-03-25,31.1803
2013-03-26,31.3791
2013-03-27,31.5381
2013-03-28,31.5381
2013-04-01,31.1903
2013-04-02,30.4647
2013-04-03,29.5304
2013-04-04,29.5304
2013-04-05,29.3415
2013-04-08,29.7093
2013-04-09,30.5641
2013-04-10,30.8126
2013-04-11,30.0273
2013-04-12,29.5204
2013-04-15,27.8406
2013-04-16,27.8307
2013-04-17,26.9858
2013-04-18,27.1747
2013-04-19,27.294
2013-04-22,27.2045
2013-04-23,27.3536
2013-04-24,26.7374
2013-04-25,26.9858
2013-04-26,26.3199
2013-04-29,26.628
2013-04-30,26.797
2013-05-01,25.8826
2013-05-02,26.0118
2013-05-03,27.4132
2013-05-06,27.0554
2013-05-07,27.4431
2013-05-08,28.8744
2013-05-09,28.5165
2013-05-10,28.9737
2013-05-13,28.934
2013-05-14,28.9042
2013-05-15,28.8247
2013-05-16,28.4072
2013-05-17,29.59
2013-05-20,30.49
2013-05-21,30.93
2013-05-22,29.6
2013-05-23,29.13
2013-05-24,28.24
2013-05-28,28.32
2013-05-29,28.22
2013-05-30,28.09
2013-05-31,27.59
2013-06-03,27.78
2013-06-04,27.47
2013-06-05,27.06
2013-06-06,26.97
2013-06-07,27.6
2013-06-10,27.46
2013-06-11,26.88
2013-06-12,27.15
2013-06-13,28.02
2013-06-14,27.68
2013-06-17,28.05
2013-06-18,28.295
2013-06-19,28.08
2013-06-20,27.34
2013-06-21,27.5
2013-06-24,26.15
2013-06-25,26.55
2013-06-26,26.77
2013-06-27,27.02
2013-06-28,26.41
2013-07-01,26.28
2013-07-02,26.07
2013-07-03,26.0
2013-07-05,26.25
2013-07-08,26.31
2013-07-09,27.1
2013-07-10,26.91
2013-07-11,28.0
2013-07-12,27.31
2013-07-15,26.88
2013-07-16,26.52
2013-07-17,26.74
2013-07-18,26.81
2013-07-19,26.99
2013-07-22,27.35
2013-07-23,27.91
2013-07-24,26.89
2013-07-25,27.56
2013-07-26,27.89
2013-07-29,27.81
2013-07-30,27.99
2013-07-31,27.55
2013-08-01,27.67
2013-08-02,27.78
2013-08-05,27.64
2013-08-06,26.94
2013-08-07,26.97
2013-08-08,27.95
2013-08-09,28.96
