date,close_price
1998-01-02,18.278
1998-01-05,18.2431
1998-01-06,18.0604
1998-01-07,17.7703
1998-01-08,17.4975
1998-01-09,17.2799
1998-01-12,17.1175
1998-01-13,17.3525
1998-01-14,17.5362
1998-01-15,17.3699
1998-01-16,17.3699
1998-01-20,17.4808
1998-01-21,17.2446
1998-01-22,17.0433
1998-01-23,16.9326
1998-01-26,17.0054
1998-01-27,17.2067
1998-01-28,17.335
1998-01-29,17.3525
1998-01-30,17.2067
1998-02-02,17.5537
1998-02-03,17.755
1998-02-04,17.5158
1998-02-05,17.5537
1998-02-06,18.0466
1998-02-09,18.0466
1998-02-10,18.0641
1998-02-11,18.0641
1998-02-12,18.0466
1998-02-13,18.0816
1998-02-17,18.2448
1998-02-18,18.2448
1998-02-19,18.1545
1998-02-20,18.1545
1998-02-23,18.0991
1998-02-24,18.0816
1998-02-25,18.0087
1998-02-26,17.8629
1998-02-27,18.0991
1998-03-02,17.9182
1998-03-03,18.0261
1998-03-04,17.9357
1998-03-05,17.8629
1998-03-06,18.0641
1998-03-09,17.9357
1998-03-10,18.1924
1998-03-11,18.1924
1998-03-12,18.519
1998-03-13,18.5919
1998-03-16,18.9215
1998-03-17,19.0119
1998-03-18,18.939
1998-03-19,19.0469
1998-03-20,19.1023
1998-03-23,18.974
1998-03-24,19.3035
1998-03-25,19.1752
1998-03-26,19.321
1998-03-27,19.2861
1998-03-30,19.2481
1998-03-31,19.6856
1998-04-01,19.4318
1998-04-02,19.5777
1998-04-03,19.6127
1998-04-06,19.7234
1998-04-07,19.394
1998-04-08,19.0848
1998-04-09,19.394
1998-04-13,19.6301
1998-04-14,19.8139
1998-04-15,19.7203
1998-04-16,19.4477
1998-04-17,19.6675
1998-04-20,19.4097
1998-04-21,19.2632
1998-04-22,19.521
1998-04-23,19.4272
1998-04-24,19.061
1998-04-27,18.9145
1998-04-28,19.19
1998-04-29,19.354
1998-04-30,19.7203
1998-05-01,19.7203
1998-05-04,19.7203
1998-05-05,19.6469
1998-05-06,19.521
1998-05-07,19.5561
1998-05-08,19.814
1998-05-11,19.7407
1998-05-12,19.8491
1998-05-13,19.94
1998-05-14,19.7935
1998-05-15,19.7027
1998-05-18,19.5561
1998-05-19,19.5385
1998-05-20,19.8667
1998-05-21,19.7583
1998-05-22,19.6294
1998-05-26,19.4097
1998-05-27,19.0992
1998-05-28,19.1167
1998-05-29,19.3745
1998-06-01,19.3745
1998-06-02,19.4097
1998-06-03,19.3013
1998-06-04,19.4097
1998-06-05,19.5561
1998-06-08,19.7407
1998-06-09,19.6119
1998-06-10,19.6851
1998-06-11,19.3745
1998-06-12,19.2632
1998-06-15,19.0259
1998-06-16,18.8618
1998-06-17,19.19
1998-06-18,18.9702
1998-06-19,18.7885
1998-06-22,18.7885
1998-06-23,18.9526
1998-06-24,19.521
1998-06-25,19.4272
1998-06-26,19.4272
1998-06-29,19.6469
1998-06-30,19.7583
1998-07-01,20.1596
1998-07-02,20.107
1998-07-06,20.0864
1998-07-07,20.1246
1998-07-08,20.5782
1998-07-09,20.375
1998-07-10,20.5045
1998-07-13,20.4486
1998-07-14,20.6871
1998-07-15,20.5782
1998-07-16,20.7048
1998-07-17,20.7253
1998-07-20,20.6311
1998-07-21,20.1541
1998-07-22,20.5045
1998-07-23,20.3366
1998-07-24,20.0981
1998-07-27,20.3366
1998-07-28,20.7989
1998-07-29,20.7048
1998-07-30,21.22
1998-07-31,20.6871
1998-08-03,20.7784
1998-08-04,20.1718
1998-08-05,20.5428
1998-08-06,20.5782
1998-08-07,20.2483
1998-08-10,19.6947
1998-08-11,19.4356
1998-08-12,19.9891
1998-08-13,19.9539
1998-08-14,19.9126
1998-08-17,19.9126
1998-08-18,20.207
1998-08-19,19.9126
1998-08-20,19.8773
1998-08-21,19.5475
1998-08-24,19.7654
1998-08-25,19.3648
1998-08-26,18.9938
1998-08-27,18.0398
1998-08-28,17.6334
1998-08-31,16.6027
1998-09-01,17.1151
1998-09-02,17.227
1998-09-03,16.9678
1998-09-04,16.5261
1998-09-08,17.7806
1998-09-09,17.4095
1998-09-10,16.7146
1998-09-11,17.3036
1998-09-14,17.8159
1998-09-15,17.9279
1998-09-16,18.3342
1998-09-17,17.5567
1998-09-18,17.8159
1998-09-21,17.9985
1998-09-22,18.2223
1998-09-23,19.4709
1998-09-24,19.2176
1998-09-25,19.1411
1998-09-28,18.6993
1998-09-29,18.5522
1998-09-30,17.6687
1998-10-01,17.4507
1998-10-02,18.075
1998-10-05,17.5215
1998-10-06,17.3742
1998-10-07,16.8206
1998-10-08,16.0844
1998-10-09,16.4554
1998-10-12,16.8618
1998-10-13,17.1151
1998-10-14,17.7046
1998-10-15,18.7415
1998-10-16,19.1089
1998-10-19,18.9963
1998-10-20,19.5888
1998-10-21,19.6658
1998-10-22,19.737
1998-10-23,19.6658
1998-10-26,19.8495
1998-10-27,19.9977
1998-10-28,20.371
1998-10-29,20.6672
1998-10-30,21.1116
1998-11-02,21.4434
1998-11-03,21.8523
1998-11-04,22.5159
1998-11-05,22.8892
1998-11-06,23.3336
1998-11-09,22.3322
1998-11-10,21.8108
1998-11-11,21.8108
1998-11-12,21.9589
1998-11-13,22.2966
1998-11-16,22.5159
1998-11-17,22.5159
1998-11-18,22.2552
1998-11-19,22.4804
1998-11-20,22.5929
1998-11-23,23.0373
1998-11-24,22.5929
1998-11-25,22.6285
1998-11-27,22.6285
1998-11-30,21.9233
1998-12-01,22.5159
1998-12-02,22.8477
1998-12-03,22.4448
1998-12-04,23.1084
1998-12-07,23.3336
1998-12-08,22.7767
1998-12-09,22.6996
1998-12-10,22.5514
1998-12-11,22.2966
1998-12-14,22.2196
1998-12-15,22.4804
1998-12-16,22.2552
1998-12-17,23.0373
1998-12-18,22.7411
1998-12-21,22.8477
1998-12-22,22.8477
1998-12-23,23.0729
1998-12-24,23.0373
1998-12-28,24.0742
1998-12-29,23.9617
1998-12-30,23.8491
1998-12-31,23.7365
1999-01-04,23.3336
1999-01-05,23.4047
1999-01-06,23.9261
1999-01-07,23.6654
1999-01-08,23.5528
1999-01-11,22.9603
1999-01-12,22.7411
1999-01-13,22.7678
1999-01-14,22.7678
1999-01-15,23.7381
1999-01-19,22.7678
1999-01-20,22.7321
1999-01-21,22.5833
1999-01-22,22.1012
1999-01-25,22.3214
1999-01-26,22.8036
1999-01-27,22.1726
1999-01-28,22.506
1999-01-29,22.6547
1999-02-01,22.1726
1999-02-02,21.3572
1999-02-03,21.9107
1999-02-04,21.0952
1999-02-05,21.0178
1999-02-08,20.9107
1999-02-09,20.7977
1999-02-10,20.9107
1999-02-11,21.7619
1999-02-12,21.6904
1999-02-16,21.5417
1999-02-17,21.4643
1999-02-18,21.5417
1999-02-19,21.3154
1999-02-22,22.0238
1999-02-23,21.5774
1999-02-24,21.8036
1999-02-25,21.7262
1999-02-26,22.506
1999-03-01,22.4346
1999-03-02,22.7321
1999-03-03,22.8452
1999-03-04,23.1786
1999-03-05,23.4405
1999-03-08,23.2917
1999-03-09,23.0655
1999-03-10,23.2917
1999-03-11,23.625
1999-03-12,23.6965
1999-03-15,23.8095
1999-03-16,23.3274
1999-03-17,22.881
1999-03-18,23.9584
1999-03-19,23.625
1999-03-22,23.4405
1999-03-23,22.7321
1999-03-24,22.6547
1999-03-25,22.6965
1999-03-26,22.25
1999-03-29,22.4346
1999-03-30,21.875
1999-03-31,21.5417
1999-04-01,21.7262
1999-04-05,21.9881
1999-04-06,21.6548
1999-04-07,22.1369
1999-04-08,22.4702
1999-04-09,22.25
1999-04-12,22.9167
1999-04-13,22.9941
1999-04-14,23.0571
1999-04-15,23.4337
1999-04-16,23.1348
1999-04-19,23.0211
1999-04-20,23.2065
1999-04-21,23.3979
1999-04-22,23.5473
1999-04-23,23.5832
1999-04-26,23.3201
1999-04-27,23.4696
1999-04-28,23.3201
1999-04-29,23.7686
1999-04-30,23.8463
1999-05-03,24.0676
1999-05-04,23.5832
1999-05-05,23.8822
1999-05-06,23.918
1999-05-07,23.9958
1999-05-10,23.6969
1999-05-11,23.9958
1999-05-12,23.918
1999-05-13,23.8822
1999-05-14,23.0211
1999-05-17,22.7581
1999-05-18,22.3514
1999-05-19,22.6862
1999-05-20,22.7581
1999-05-21,22.7999
1999-05-24,22.1242
1999-05-25,21.6399
1999-05-26,22.0524
1999-05-27,21.5263
1999-05-28,21.7894
1999-06-01,21.4545
1999-06-02,21.3767
1999-06-03,21.305
1999-06-04,21.1914
1999-06-07,21.2632
1999-06-08,21.1136
1999-06-09,21.006
1999-06-10,20.5935
1999-06-11,20.4081
1999-06-14,20.3304
1999-06-15,20.3304
1999-06-16,20.8924
1999-06-17,21.3767
1999-06-18,21.1914
1999-06-21,21.2273
1999-06-22,21.1914
1999-06-23,20.7429
1999-06-24,20.2586
1999-06-25,20.7788
1999-06-28,21.305
1999-06-29,21.4126
1999-06-30,21.903
1999-07-01,21.4904
1999-07-02,21.5263
1999-07-06,21.604
1999-07-07,21.6757
1999-07-08,21.2632
1999-07-09,21.4904
1999-07-12,21.1914
1999-07-13,21.0419
1999-07-14,21.0488
1999-07-15,21.6863
1999-07-16,21.7284
1999-07-19,21.9148
1999-07-20,21.5359
1999-07-21,21.578
1999-07-22,21.6863
1999-07-23,21.4998
1999-07-26,21.6502
1999-07-27,21.4998
1999-07-28,22.0291
1999-07-29,21.578
1999-07-30,21.1992
1999-08-02,21.4638
1999-08-03,21.2352
1999-08-04,21.0849
1999-08-05,20.9766
1999-08-06,20.8263
1999-08-09,20.8984
1999-08-10,20.4474
1999-08-11,20.7842
1999-08-12,21.3134
1999-08-13,21.7284
1999-08-16,21.3134
1999-08-17,21.578
1999-08-18,21.4998
1999-08-19,21.1269
1999-08-20,20.9766
1999-08-23,21.8366
1999-08-24,21.7284
1999-08-25,21.3495
1999-08-26,20.8984
1999-08-27,20.5977
1999-08-30,19.8461
1999-08-31,20.1467
1999-09-01,20.261
1999-09-02,19.8461
1999-09-03,20.5617
1999-09-07,19.9964
1999-09-08,20.0325
1999-09-09,19.7738
1999-09-10,20.0325
1999-09-13,19.4732
1999-09-14,19.1304
1999-09-15,19.3228
1999-09-16,19.3589
1999-09-17,19.5453
1999-09-20,19.2446
1999-09-21,18.7214
1999-09-22,18.6793
1999-09-23,18.6071
1999-09-24,18.6071
1999-09-27,18.4568
1999-09-28,18.529
1999-09-29,18.3425
1999-09-30,19.431
1999-10-01,19.0943
1999-10-04,19.8099
1999-10-05,19.5453
1999-10-06,19.9603
1999-10-07,19.6596
1999-10-08,20.2971
1999-10-11,20.0325
1999-10-12,19.6596
1999-10-13,19.2905
1999-10-14,19.5507
1999-10-15,18.4191
1999-10-18,18.9456
1999-10-19,19.1756
1999-10-20,19.4418
1999-10-21,19.3631
1999-10-22,20.0469
1999-10-25,19.7806
1999-10-26,19.4781
1999-10-27,20.4221
1999-10-28,21.7472
1999-10-29,22.0135
1999-11-01,21.9348
1999-11-02,22.1647
1999-11-03,21.8621
1999-11-04,21.8621
1999-11-05,22.2736
1999-11-08,22.316
1999-11-09,21.7109
1999-11-10,21.5959
1999-11-11,21.3296
1999-11-12,22.1647
1999-11-15,22.1224
1999-11-16,22.2373
1999-11-17,21.5596
1999-11-18,21.5172
1999-11-19,21.2934
1999-11-22,20.7246
1999-11-23,20.4583
1999-11-24,20.4583
1999-11-26,20.4221
1999-11-29,19.5507
1999-11-30,19.5144
1999-12-01,19.702
1999-12-02,19.5144
1999-12-03,20.1195
1999-12-06,19.6294
1999-12-07,18.873
1999-12-08,18.3828
1999-12-09,18.4918
1999-12-10,18.6067
1999-12-13,18.0803
1999-12-14,17.8504
1999-12-15,18.0803
1999-12-16,17.6265
1999-12-17,16.8277
1999-12-20,16.8701
1999-12-21,16.9064
1999-12-22,16.5676
1999-12-23,16.9064
1999-12-27,16.6765
1999-12-28,16.6401
1999-12-29,16.7188
1999-12-30,16.5252
1999-12-31,16.5676
2000-01-03,15.6176
2000-01-04,15.1274
2000-01-05,15.3574
2000-01-06,16.1137
2000-01-07,16.2226
2000-01-10,15.7326
2000-01-11,15.3574
2000-01-12,15.8576
2000-01-13,17.2297
2000-01-14,17.8031
2000-01-18,17.0408
2000-01-19,16.7724
2000-01-20,16.1625
2000-01-21,16.3149
2000-01-24,15.8576
2000-01-25,15.8576
2000-01-26,16.7724
2000-01-27,17.1566
2000-01-28,16.7724
2000-01-31,17.0408
2000-02-01,17.309
2000-02-02,17.1566
2000-02-03,17.3823
2000-02-04,16.7358
2000-02-07,15.7843
2000-02-08,15.8941
2000-02-09,15.8576
2000-02-10,15.2842
2000-02-11,15.4794
2000-02-14,15.2842
2000-02-15,15.705
2000-02-16,15.2842
2000-02-17,14.717
2000-02-18,14.3327
2000-02-22,14.5645
2000-02-23,14.1436
2000-02-24,13.7594
2000-02-25,13.8387
2000-02-28,14.2596
2000-02-29,14.2596
2000-03-01,14.1071
2000-03-02,13.9912
2000-03-03,14.1803
2000-03-06,13.7594
2000-03-07,13.4545
2000-03-08,13.4545
2000-03-09,13.9546
2000-03-10,13.7594
2000-03-13,13.9119
2000-03-14,13.607
2000-03-15,15.0219
2000-03-16,16.4674
2000-03-17,16.0465
2000-03-20,15.9368
2000-03-21,16.7724
2000-03-22,16.8882
2000-03-23,17.309
2000-03-24,17.2664
2000-03-27,16.7724
2000-03-28,16.7724
2000-03-29,17.1566
2000-03-30,16.6565
2000-03-31,17.0408
2000-04-03,17.8763
2000-04-04,17.9556
2000-04-05,17.6506
2000-04-06,17.4981
2000-04-07,17.0773
2000-04-10,17.1566
2000-04-11,17.0773
2000-04-12,17.5872
2000-04-13,17.2001
2000-04-14,15.9716
2000-04-17,16.3156
2000-04-18,16.549
2000-04-19,16.0883
2000-04-20,16.2419
2000-04-24,16.5859
2000-04-25,17.237
2000-04-26,16.7395
2000-04-27,16.2419
2000-04-28,16.3156
2000-05-01,16.549
2000-05-02,16.4691
2000-05-03,16.2787
2000-05-04,15.9716
2000-05-05,15.9348
2000-05-08,16.205
2000-05-09,16.3156
2000-05-10,16.162
2000-05-11,16.6658
2000-05-12,16.8561
2000-05-15,17.0466
2000-05-16,16.7395
2000-05-17,16.5859
2000-05-18,16.9299
2000-05-19,16.3586
2000-05-22,16.8193
2000-05-23,17.28
2000-05-24,17.7408
2000-05-25,17.3906
2000-05-26,17.5872
2000-05-30,17.7408
2000-05-31,17.9311
2000-06-01,18.6192
2000-06-02,19.5038
2000-06-05,18.6192
2000-06-06,18.1216
2000-06-07,18.2015
2000-06-08,17.8145
2000-06-09,17.3538
2000-06-12,17.5074
2000-06-13,17.5442
2000-06-14,17.7408
2000-06-15,16.4691
2000-06-16,15.6645
2000-06-19,16.0085
2000-06-20,16.0514
2000-06-21,15.7014
2000-06-22,15.9716
2000-06-23,15.9348
2000-06-26,15.9716
2000-06-27,15.9348
2000-06-28,15.8979
2000-06-29,15.3204
2000-06-30,14.6693
2000-07-03,15.5908
2000-07-05,15.7811
2000-07-06,15.8549
2000-07-07,16.4324
2000-07-10,16.549
2000-07-11,16.893
2000-07-12,16.6074
2000-07-13,16.1057
2000-07-14,16.6074
2000-07-17,16.0685
2000-07-18,15.7959
2000-07-19,15.7216
2000-07-20,16.1428
2000-07-21,15.7216
2000-07-24,15.9137
2000-07-25,15.8331
2000-07-26,15.4491
2000-07-27,15.3686
2000-07-28,14.9473
2000-07-31,15.4119
2000-08-01,15.4491
2000-08-02,15.8765
2000-08-03,16.3782
2000-08-04,16.8057
2000-08-07,16.688
2000-08-08,16.6508
2000-08-09,16.688
2000-08-10,16.9606
2000-08-11,16.9606
2000-08-14,16.88
2000-08-15,16.7252
2000-08-16,16.4526
2000-08-17,16.5703
2000-08-18,16.4154
2000-08-21,16.2977
2000-08-22,16.6074
2000-08-23,16.3411
2000-08-24,16.2606
2000-08-25,16.3411
2000-08-28,16.5331
2000-08-29,16.2977
2000-08-30,16.5331
2000-08-31,16.7623
2000-09-01,16.4526
2000-09-05,16.688
2000-09-06,16.9606
2000-09-07,17.1897
2000-09-08,17.772
2000-09-11,18.0818
2000-09-12,18.1561
2000-09-13,18.4658
2000-09-14,18.5835
2000-09-15,18.4658
2000-09-18,18.0012
2000-09-19,18.1561
2000-09-20,18.0012
2000-09-21,17.8897
2000-09-22,18.0012
2000-09-25,18.2366
2000-09-26,18.3543
2000-09-27,18.5091
2000-09-28,18.8189
2000-09-29,18.664
2000-10-02,18.8932
2000-10-03,19.1658
2000-10-04,18.8932
2000-10-05,18.8189
2000-10-06,18.1994
2000-10-09,18.0012
2000-10-10,17.4994
2000-10-11,17.3305
2000-10-12,17.0183
2000-10-13,17.6428
2000-10-16,17.8364
2000-10-17,17.4491
2000-10-18,17.4867
2000-10-19,17.9175
2000-10-20,18.0363
2000-10-23,17.9551
2000-10-24,18.3859
2000-10-25,18.6608
2000-10-26,18.617
2000-10-27,19.1292
2000-10-30,19.5976
2000-10-31,19.9099
2000-11-01,19.6725
2000-11-02,20.2595
2000-11-03,20.4157
2000-11-06,20.3782
2000-11-07,20.297
2000-11-08,20.222
2000-11-09,20.6093
2000-11-10,20.1783
2000-11-13,19.6725
2000-11-14,19.7537
2000-11-15,19.4789
2000-11-16,19.5164
2000-11-17,19.2853
2000-11-20,18.8918
2000-11-21,19.2853
2000-11-22,18.9731
2000-11-24,19.1666
2000-11-27,19.5538
2000-11-28,19.9848
2000-11-29,20.6467
2000-11-30,20.8029
2000-12-01,21.0402
2000-12-04,20.6467
2000-12-05,20.9216
2000-12-06,20.4906
2000-12-07,21.2338
2000-12-08,21.7833
2000-12-11,21.8958
2000-12-12,21.5461
2000-12-13,21.39
2000-12-14,20.959
2000-12-15,21.0402
2000-12-18,21.8583
2000-12-19,22.208
2000-12-20,22.6015
2000-12-21,23.0699
2000-12-22,23.6132
2000-12-26,23.6944
2000-12-27,23.8506
2000-12-28,23.7694
2000-12-29,23.3447
2001-01-02,22.564
2001-01-03,23.3447
2001-01-04,23.6569
2001-01-05,23.1885
2001-01-08,22.9138
2001-01-09,22.2893
2001-01-10,23.1821
2001-01-11,23.2198
2001-01-12,22.6667
2001-01-16,23.025
2001-01-17,23.3769
2001-01-18,23.2575
2001-01-19,23.025
2001-01-22,23.1004
2001-01-23,23.4524
2001-01-24,22.6289
2001-01-25,22.7861
2001-01-26,23.025
2001-01-29,23.1444
2001-01-30,23.245
2001-01-31,23.0186
2001-02-01,22.874
2001-02-02,23.138
2001-02-05,23.1695
2001-02-06,22.8929
2001-02-07,22.9683
2001-02-08,22.9998
2001-02-09,23.1632
2001-02-12,23.3266
2001-02-13,23.1947
2001-02-14,23.2701
2001-02-15,23.0438
2001-02-16,23.3769
2001-02-20,23.0123
2001-02-21,22.9872
2001-02-22,22.5661
2001-02-23,22.5032
2001-02-26,22.7107
2001-02-27,23.0186
2001-02-28,22.7043
2001-03-01,22.8553
2001-03-02,23.0501
2001-03-05,22.7861
2001-03-06,22.7358
2001-03-07,22.9809
2001-03-08,22.9872
2001-03-09,22.4403
2001-03-12,21.5226
2001-03-13,21.9941
2001-03-14,21.422
2001-03-15,22.1449
2001-03-16,21.906
2001-03-19,22.1135
2001-03-20,21.6232
2001-03-21,20.8438
2001-03-22,19.794
2001-03-23,20.8752
2001-03-26,21.2461
2001-03-27,21.7049
2001-03-28,21.7175
2001-03-29,21.8055
2001-03-30,22.1009
2001-04-02,22.1889
2001-04-03,21.9941
2001-04-04,21.4661
2001-04-05,22.0695
2001-04-06,21.7992
2001-04-09,21.9375
2001-04-10,22.1463
2001-04-11,21.9185
2001-04-12,21.8426
2001-04-16,21.7477
2001-04-17,21.8679
2001-04-18,22.5006
2001-04-19,22.5449
2001-04-20,22.5703
2001-04-23,22.469
2001-04-24,22.5576
2001-04-25,22.6714
2001-04-26,22.4943
2001-04-27,22.7917
2001-04-30,22.374
2001-05-01,22.5576
2001-05-02,22.7474
2001-05-03,23.0321
2001-05-04,23.184
2001-05-07,23.0954
2001-05-08,22.9056
2001-05-09,22.8993
2001-05-10,22.8044
2001-05-11,22.6335
2001-05-14,22.6778
2001-05-15,22.8993
2001-05-16,23.4055
2001-05-17,23.3105
2001-05-18,23.1208
2001-05-21,23.0575
2001-05-22,23.3864
2001-05-23,23.1651
2001-05-24,23.0005
2001-05-25,22.8487
2001-05-29,22.7537
2001-05-30,22.7095
2001-05-31,22.8677
2001-06-01,22.8234
2001-06-04,22.9815
2001-06-05,23.0385
2001-06-06,22.9372
2001-06-07,22.836
2001-06-08,22.5639
2001-06-11,22.469
2001-06-12,22.3994
2001-06-13,22.4121
2001-06-14,22.2349
2001-06-15,22.2222
2001-06-18,22.3551
2001-06-19,22.469
2001-06-20,22.8044
2001-06-21,23.3485
2001-06-22,22.9879
2001-06-25,22.798
2001-06-26,22.9056
2001-06-27,22.9626
2001-06-28,23.1271
2001-06-29,23.1271
2001-07-02,23.3043
2001-07-03,23.2853
2001-07-05,23.1208
2001-07-06,22.8487
2001-07-09,23.0638
2001-07-10,22.5449
2001-07-11,22.494
2001-07-12,22.7234
2001-07-13,22.9274
2001-07-16,22.7935
2001-07-17,23.1441
2001-07-18,23.3416
2001-07-19,23.4054
2001-07-20,23.3098
2001-07-23,23.1568
2001-07-24,23.0039
2001-07-25,23.1568
2001-07-26,23.4245
2001-07-27,23.3672
2001-07-30,23.3991
2001-07-31,23.5202
2001-08-01,23.6412
2001-08-02,23.7496
2001-08-03,23.9472
2001-08-06,23.8835
2001-08-07,23.9408
2001-08-08,23.8644
2001-08-09,24.0428
2001-08-10,24.2149
2001-08-13,24.2532
2001-08-14,24.2213
2001-08-15,24.2086
2001-08-16,24.4316
2001-08-17,24.3361
2001-08-20,24.4126
2001-08-21,24.4061
2001-08-22,24.5018
2001-08-23,24.2213
2001-08-24,24.0938
2001-08-27,23.7879
2001-08-28,23.6285
2001-08-29,23.4118
2001-08-30,23.3735
2001-08-31,23.45
2001-09-04,23.4819
2001-09-05,23.2652
2001-09-06,23.0739
2001-09-07,22.6596
2001-09-10,22.6405
2001-09-17,21.6972
2001-09-18,22.0669
2001-09-19,22.2708
2001-09-20,21.6716
2001-09-21,21.3976
2001-09-24,22.0987
2001-09-25,22.2008
2001-09-26,22.3027
2001-09-27,23.0549
2001-09-28,23.2524
2001-10-01,23.246
2001-10-02,23.4819
2001-10-03,23.5265
2001-10-04,22.7999
2001-10-05,22.1242
2001-10-08,21.0917
2001-10-09,21.149
2001-10-10,21.3546
2001-10-11,21.4894
2001-10-12,21.2261
2001-10-15,21.1554
2001-10-16,21.2646
2001-10-17,20.9112
2001-10-18,20.6736
2001-10-19,20.6607
2001-10-22,20.8856
2001-10-23,20.8663
2001-10-24,21.1618
2001-10-25,21.3609
2001-10-26,21.528
2001-10-29,21.059
2001-10-30,20.847
2001-10-31,20.635
2001-11-01,21.0269
2001-11-02,21.0975
2001-11-05,21.5409
2001-11-06,21.8364
2001-11-07,21.8299
2001-11-08,21.8107
2001-11-09,21.7786
2001-11-12,21.7335
2001-11-13,22.0227
2001-11-14,22.0292
2001-11-15,21.9841
2001-11-16,22.0099
2001-11-19,22.2025
2001-11-20,22.1769
2001-11-21,22.042
2001-11-23,22.2925
2001-11-26,22.2476
2001-11-27,22.1319
2001-11-28,21.8685
2001-11-29,22.1512
2001-11-30,21.9584
2001-12-03,21.7465
2001-12-04,22.0805
2001-12-05,22.3696
2001-12-06,22.4531
2001-12-07,22.5302
2001-12-10,22.3503
2001-12-11,22.3439
2001-12-12,22.3632
2001-12-13,22.1447
2001-12-14,22.4081
2001-12-17,22.6072
2001-12-18,22.8578
2001-12-19,23.1791
2001-12-20,23.4296
2001-12-21,23.3396
2001-12-24,23.2947
2001-12-26,23.3076
2001-12-27,23.1984
2001-12-28,23.2112
2001-12-31,23.1726
2002-01-02,23.012
2002-01-03,23.1855
2002-01-04,23.2755
2002-01-07,23.3911
2002-01-08,22.9478
2002-01-09,22.8
2002-01-10,22.7229
2002-01-11,22.4274
2002-01-14,22.2218
2002-01-15,22.5688
2002-01-16,22.5106
2002-01-17,22.627
2002-01-18,22.6076
2002-01-22,22.5817
2002-01-23,22.7824
2002-01-24,22.9118
2002-01-25,22.9571
2002-01-28,22.9506
2002-01-29,22.3164
2002-01-30,22.5299
2002-01-31,22.7436
2002-02-01,22.9766
2002-02-04,22.3422
2002-02-05,22.4135
2002-02-06,22.2776
2002-02-07,22.4005
2002-02-08,22.7694
2002-02-11,23.1125
2002-02-12,23.2096
2002-02-13,23.5397
2002-02-14,23.6043
2002-02-15,23.462
2002-02-19,22.9895
2002-02-20,23.2031
2002-02-21,23.0607
2002-02-22,23.2807
2002-02-25,23.6497
2002-02-26,23.8567
2002-02-27,23.8503
2002-02-28,23.9992
2002-03-01,24.1869
2002-03-04,24.5881
2002-03-05,24.4717
2002-03-06,24.7434
2002-03-07,24.6075
2002-03-08,24.6399
2002-03-11,24.9571
2002-03-12,24.9635
2002-03-13,24.7565
2002-03-14,24.8858
2002-03-15,25.3518
2002-03-18,25.3195
2002-03-19,25.3001
2002-03-20,25.0412
2002-03-21,24.8018
2002-03-22,24.9247
2002-03-25,24.504
2002-03-26,24.6399
2002-03-27,24.9182
2002-03-28,24.6464
2002-04-01,24.5623
2002-04-02,24.5946
2002-04-03,24.2257
2002-04-04,24.2904
2002-04-05,24.3551
2002-04-08,24.4328
2002-04-09,24.5104
2002-04-10,24.745
2002-04-11,24.341
2002-04-12,24.2237
2002-04-15,24.0869
2002-04-16,24.5952
2002-04-17,24.6734
2002-04-18,24.5691
2002-04-19,24.7516
2002-04-22,24.5886
2002-04-23,24.732
2002-04-24,24.8298
2002-04-25,24.7776
2002-04-26,24.6082
2002-04-29,24.4974
2002-04-30,24.7972
2002-05-01,25.1035
2002-05-02,25.4424
2002-05-03,25.5075
2002-05-06,25.1817
2002-05-07,25.11
2002-05-08,25.2469
2002-05-09,24.9014
2002-05-10,24.5886
2002-05-13,24.9014
2002-05-14,25.1622
2002-05-15,25.084
2002-05-16,25.123
2002-05-17,25.1426
2002-05-20,24.7124
2002-05-21,24.6342
2002-05-22,24.5886
2002-05-23,24.6994
2002-05-24,24.5496
2002-05-28,24.3019
2002-05-29,24.2302
2002-05-30,24.3149
2002-05-31,24.4778
2002-06-03,24.2367
2002-06-04,24.0347
2002-06-05,24.2758
2002-06-06,23.8979
2002-06-07,23.9825
2002-06-10,24.2172
2002-06-11,23.9825
2002-06-12,24.2107
2002-06-13,23.8979
2002-06-14,24.1129
2002-06-17,24.7906
2002-06-18,24.8558
2002-06-19,24.5952
2002-06-20,24.6604
2002-06-21,24.5104
2002-06-24,24.4388
2002-06-25,24.3671
2002-06-26,24.1976
2002-06-27,24.6798
2002-06-28,25.0644
2002-07-01,24.8884
2002-07-02,24.6082
2002-07-03,24.3866
2002-07-05,25.0253
2002-07-08,24.9601
2002-07-09,24.5496
2002-07-10,24.0372
2002-07-11,24.3721
2002-07-12,23.8993
2002-07-15,23.8401
2002-07-16,23.3674
2002-07-17,23.4067
2002-07-18,22.31
2002-07-19,21.8371
2002-07-22,21.4496
2002-07-23,21.1146
2002-07-24,22.2443
2002-07-25,22.5135
2002-07-26,23.0521
2002-07-29,24.1226
2002-07-30,23.7679
2002-07-31,24.2933
2002-08-01,24.0832
2002-08-02,23.827
2002-08-05,22.8419
2002-08-06,23.5643
2002-08-07,23.8993
2002-08-08,24.74
2002-08-09,24.6152
2002-08-12,24.5429
2002-08-13,24.2671
2002-08-14,24.8844
2002-08-15,24.9632
2002-08-16,24.7727
2002-08-19,25.1143
2002-08-20,24.7071
2002-08-21,24.8779
2002-08-22,25.0158
2002-08-23,24.6348
2002-08-26,25.0551
2002-08-27,24.9763
2002-08-28,24.5429
2002-08-29,24.8319
2002-08-30,24.9698
2002-09-03,24.2342
2002-09-04,24.7859
2002-09-05,24.7991
2002-09-06,24.9632
2002-09-09,25.1734
2002-09-10,24.9961
2002-09-11,24.891
2002-09-12,24.3524
2002-09-13,24.5429
2002-09-16,24.3985
2002-09-17,23.9321
2002-09-18,23.6825
2002-09-19,23.0849
2002-09-20,23.2426
2002-09-23,23.1047
2002-09-24,22.5661
2002-09-25,23.0126
2002-09-26,23.722
2002-09-27,23.144
2002-09-30,23.0258
2002-10-01,23.722
2002-10-02,22.8419
2002-10-03,21.7976
2002-10-04,21.4627
2002-10-07,20.4973
2002-10-08,21.6204
2002-10-09,20.911
2002-10-10,21.832
2002-10-11,22.5939
2002-10-14,22.7794
2002-10-15,23.5149
2002-10-16,23.1638
2002-10-17,23.6475
2002-10-18,23.7402
2002-10-21,23.8595
2002-10-22,23.7535
2002-10-23,24.0118
2002-10-24,23.7535
2002-10-25,24.1312
2002-10-28,24.1312
2002-10-29,24.1113
2002-10-30,24.3167
2002-10-31,24.0317
2002-11-01,24.6678
2002-11-04,24.6944
2002-11-05,24.8268
2002-11-06,24.4359
2002-11-07,23.6209
2002-11-08,23.3559
2002-11-11,23.1571
2002-11-12,23.389
2002-11-13,23.4553
2002-11-14,24.0914
2002-11-15,24.2901
2002-11-18,23.8529
2002-11-19,23.9522
2002-11-20,24.7672
2002-11-21,25.0852
2002-11-22,25.0587
2002-11-25,25.1913
2002-11-26,24.8202
2002-11-27,25.3105
2002-11-29,25.1714
2002-12-02,25.1316
2002-12-03,24.913
2002-12-04,24.8799
2002-12-05,24.6347
2002-12-06,24.913
2002-12-09,24.7274
2002-12-10,25.1714
2002-12-11,25.3238
2002-12-12,25.1183
2002-12-13,25.1051
2002-12-16,25.2641
2002-12-17,25.1714
2002-12-18,24.8732
2002-12-19,24.7341
2002-12-20,25.0388
2002-12-23,24.913
2002-12-24,24.8136
2002-12-26,24.7937
2002-12-27,24.4558
2002-12-30,24.6149
2002-12-31,24.5287
2003-01-02,25.1647
2003-01-03,25.0919
2003-01-06,25.6352
2003-01-07,25.3834
2003-01-08,25.1979
2003-01-09,25.5093
2003-01-10,25.3238
2003-01-13,25.2045
2003-01-14,25.3768
2003-01-15,24.9095
2003-01-16,24.8427
2003-01-17,24.9228
2003-01-21,22.9532
2003-01-22,22.4859
2003-01-23,22.7663
2003-01-24,22.1521
2003-01-27,22.1655
2003-01-28,22.299
2003-01-29,22.259
2003-01-30,21.9384
2003-01-31,22.3791
2003-02-03,22.4525
2003-02-04,22.0921
2003-02-05,21.8116
2003-02-06,21.7716
2003-02-07,21.5045
2003-02-10,21.7181
2003-02-11,21.3509
2003-02-12,21.2241
2003-02-13,21.2241
2003-02-14,21.6981
2003-02-18,21.9185
2003-02-19,21.7849
2003-02-20,21.7248
2003-02-21,21.9452
2003-02-24,21.4578
2003-02-25,21.7916
2003-02-26,21.5045
2003-02-27,21.8984
2003-02-28,21.9585
2003-03-03,21.7181
2003-03-04,21.3843
2003-03-05,21.7181
2003-03-06,21.6647
2003-03-07,21.9185
2003-03-10,21.2775
2003-03-11,20.9037
2003-03-12,20.7901
2003-03-13,21.4645
2003-03-14,21.3577
2003-03-17,21.9785
2003-03-18,21.9318
2003-03-19,21.9384
2003-03-20,21.8383
2003-03-21,22.259
2003-03-24,21.5713
2003-03-25,21.7315
2003-03-26,21.4711
2003-03-27,21.411
2003-03-28,21.3776
2003-03-31,21.0037
2003-04-01,21.3509
2003-04-02,21.7248
2003-04-03,21.4177
2003-04-04,21.7582
2003-04-07,21.7181
2003-04-08,21.7449
2003-04-09,21.3878
2003-04-10,21.6572
2003-04-11,21.6505
2003-04-14,21.8054
2003-04-15,21.9267
2003-04-16,21.5764
2003-04-17,21.6909
2003-04-21,21.5696
2003-04-22,22.0479
2003-04-23,21.9738
2003-04-24,21.8997
2003-04-25,21.738
2003-04-28,22.0884
2003-04-29,22.0816
2003-04-30,21.9267
2003-05-01,22.1422
2003-05-02,22.607
2003-05-05,22.3645
2003-05-06,22.4588
2003-05-07,22.2837
2003-05-08,21.9469
2003-05-09,22.2635
2003-05-12,22.5128
2003-05-13,22.4521
2003-05-14,22.3174
2003-05-15,22.2635
2003-05-16,22.2164
2003-05-19,21.7785
2003-05-20,21.866
2003-05-21,21.9536
2003-05-22,21.893
2003-05-23,21.9806
2003-05-27,22.3376
2003-05-28,22.4723
2003-05-29,22.3645
2003-05-30,23.0853
2003-06-02,23.1526
2003-06-03,23.3615
2003-06-04,23.8263
2003-06-05,23.8937
2003-06-06,23.6579
2003-06-09,23.3346
2003-06-10,23.5299
2003-06-11,23.8128
2003-06-12,23.9543
2003-06-13,23.7253
2003-06-16,24.1632
2003-06-17,24.0015
2003-06-18,23.9004
2003-06-19,23.5097
2003-06-20,23.5501
2003-06-23,23.2469
2003-06-24,23.2066
2003-06-25,23.0516
2003-06-26,23.2268
2003-06-27,23.0583
2003-06-30,23.1257
2003-07-01,23.5838
2003-07-02,23.631
2003-07-03,23.5704
2003-07-07,23.6579
2003-07-08,23.6511
2003-07-09,23.6035
2003-07-10,23.5491
2003-07-11,23.7598
2003-07-14,23.8754
2003-07-15,23.6579
2003-07-16,23.3452
2003-07-17,22.9577
2003-07-18,23.3588
2003-07-21,23.2364
2003-07-22,23.5423
2003-07-23,23.5015
2003-07-24,23.4268
2003-07-25,23.889
2003-07-28,23.8278
2003-07-29,23.6443
2003-07-30,23.7462
2003-07-31,23.7462
2003-08-01,23.6172
2003-08-04,23.7123
2003-08-05,23.3588
2003-08-06,23.5763
2003-08-07,23.8278
2003-08-08,23.9775
2003-08-11,23.9095
2003-08-12,24.1338
2003-08-13,23.9706
2003-08-14,24.3921
2003-08-15,24.4397
2003-08-18,24.5961
2003-08-19,24.4737
2003-08-20,24.4737
2003-08-21,24.4329
2003-08-22,23.855
2003-08-25,24.0454
2003-08-26,24.2426
2003-08-27,24.2834
2003-08-28,24.6097
2003-08-29,24.7865
2003-09-02,25.3235
2003-09-03,25.2283
2003-09-04,25.4798
2003-09-05,25.6838
2003-09-08,25.9353
2003-09-09,25.6838
2003-09-10,25.0379
2003-09-11,25.1059
2003-09-12,25.0855
2003-09-15,25.0176
2003-09-16,25.1535
2003-09-17,25.1059
2003-09-18,25.3099
2003-09-19,25.3982
2003-09-22,25.1739
2003-09-23,25.0855
2003-09-24,24.7184
2003-09-25,24.5552
2003-09-26,24.3853
2003-09-29,24.6368
2003-09-30,24.4261
2003-10-01,25.004
2003-10-02,24.8476
2003-10-03,24.8544
2003-10-06,25.0719
2003-10-07,25.2351
2003-10-08,25.0447
2003-10-09,25.1671
2003-10-10,25.1943
2003-10-13,25.4867
2003-10-14,25.5274
2003-10-15,25.2735
2003-10-16,25.1913
2003-10-17,25.1776
2003-10-20,25.3215
2003-10-21,25.4586
2003-10-22,25.3695
2003-10-23,25.4861
2003-10-24,25.5615
2003-10-27,25.8701
2003-10-28,26.1512
2003-10-29,26.2198
2003-10-30,26.3089
2003-10-31,26.5146
2003-11-03,26.9123
2003-11-04,26.9123
2003-11-05,26.7821
2003-11-06,26.8163
2003-11-07,26.7683
2003-11-10,26.6243
2003-11-11,26.6723
2003-11-12,26.8918
2003-11-13,26.8643
2003-11-14,26.8232
2003-11-17,26.7889
2003-11-18,26.6106
2003-11-19,26.7889
2003-11-20,26.6654
2003-11-21,26.8438
2003-11-24,27.0494
2003-11-25,27.0152
2003-11-26,27.0837
2003-11-28,26.9877
2003-12-01,27.1866
2003-12-02,26.8026
2003-12-03,26.7409
2003-12-04,26.4597
2003-12-05,26.2746
2003-12-08,26.494
2003-12-09,26.3226
2003-12-10,26.0689
2003-12-11,26.2678
2003-12-12,26.1649
2003-12-15,25.5958
2003-12-16,25.6644
2003-12-17,25.6507
2003-12-18,25.8153
2003-12-19,25.8701
2003-12-22,25.9661
2003-12-23,26.1375
2003-12-24,26.1101
2003-12-26,26.1375
2003-12-29,26.3158
2003-12-30,26.4186
2003-12-31,26.4529
2004-01-02,26.2266
2004-01-05,26.2403
2004-01-06,26.0964
2004-01-07,25.9387
2004-01-08,25.8907
2004-01-09,25.9044
2004-01-12,25.9181
2004-01-13,25.1433
2004-01-14,25.1988
2004-01-15,25.3856
2004-01-16,25.2749
2004-01-20,25.0052
2004-01-21,25.192
2004-01-22,25.1574
2004-01-23,25.0259
2004-01-26,25.8075
2004-01-27,25.9459
2004-01-28,25.6484
2004-01-29,25.6554
2004-01-30,25.6554
2004-02-02,25.9667
2004-02-03,25.7107
2004-02-04,25.4894
2004-02-05,25.4755
2004-02-06,25.6623
2004-02-09,25.5931
2004-02-10,25.8422
2004-02-11,25.9182
2004-02-12,25.8906
2004-02-13,25.849
2004-02-17,25.9805
2004-02-18,25.856
2004-02-19,25.8145
2004-02-20,25.6
2004-02-23,25.4272
2004-02-24,25.3718
2004-02-25,25.4963
2004-02-26,25.4825
2004-02-27,25.6762
2004-03-01,25.6762
2004-03-02,25.5724
2004-03-03,25.7453
2004-03-04,25.8698
2004-03-05,26.0013
2004-03-08,26.0013
2004-03-09,25.849
2004-03-10,25.4894
2004-03-11,25.1435
2004-03-12,25.4272
2004-03-15,25.0259
2004-03-16,25.1988
2004-03-17,25.3372
2004-03-18,25.192
2004-03-19,24.4449
2004-03-22,24.0783
2004-03-23,24.0368
2004-03-24,23.9814
2004-03-25,24.3411
2004-03-26,24.1544
2004-03-29,24.2374
2004-03-30,24.4518
2004-03-31,24.4103
2004-04-01,24.5763
2004-04-02,24.3204
2004-04-05,24.3343
2004-04-06,24.4864
2004-04-07,24.2512
2004-04-08,24.265
2004-04-12,24.1682
2004-04-13,23.8985
2004-04-14,23.5844
2004-04-15,23.6891
2004-04-16,23.8358
2004-04-19,23.5844
2004-04-20,23.2912
2004-04-21,23.3959
2004-04-22,24.0243
2004-04-23,24.2127
2004-04-26,24.1918
2004-04-27,24.4012
2004-04-28,24.122
2004-04-29,23.9754
2004-04-30,24.122
2004-05-03,24.3943
2004-05-04,24.3873
2004-05-05,24.5269
2004-05-06,24.2058
2004-05-07,23.738
2004-05-10,23.4448
2004-05-11,23.5076
2004-05-12,23.8637
2004-05-13,24.108
2004-05-14,24.1011
2004-05-17,23.8776
2004-05-18,24.108
2004-05-19,24.0731
2004-05-20,24.3733
2004-05-21,24.5129
2004-05-24,24.6665
2004-05-25,25.1413
2004-05-26,26.3491
2004-05-27,25.7278
2004-05-28,26.3002
2004-06-01,25.9512
2004-06-02,26.035
2004-06-03,25.8674
2004-06-04,25.8953
2004-06-07,26.0559
2004-06-08,26.1816
2004-06-09,25.8465
2004-06-10,25.8185
2004-06-14,25.5184
2004-06-15,25.4974
2004-06-16,25.5184
2004-06-17,25.8395
2004-06-18,25.9791
2004-06-21,26.0001
2004-06-22,26.0769
2004-06-23,26.1467
2004-06-24,26.028
2004-06-25,25.7906
2004-06-28,25.8395
2004-06-29,25.7767
2004-06-30,25.7627
2004-07-01,25.5253
2004-07-02,25.8185
2004-07-06,25.5812
2004-07-07,25.5184
2004-07-08,25.5463
2004-07-09,25.6091
2004-07-12,26.049
2004-07-13,26.0141
2004-07-14,26.0563
2004-07-15,26.1973
2004-07-16,26.3735
2004-07-19,26.6836
2004-07-20,26.888
2004-07-21,26.888
2004-07-22,26.9233
2004-07-23,26.9866
2004-07-26,27.1699
2004-07-27,27.4166
2004-07-28,27.2685
2004-07-29,27.2968
2004-07-30,27.2826
2004-08-02,27.7408
2004-08-03,27.3038
2004-08-04,27.2685
2004-08-05,26.8316
2004-08-06,26.4369
2004-08-09,26.6624
2004-08-10,27.0219
2004-08-11,27.2193
2004-08-12,27.0924
2004-08-13,27.191
2004-08-16,27.4729
2004-08-17,27.4448
2004-08-18,27.5786
2004-08-19,27.5435
2004-08-20,27.762
2004-08-23,27.621
2004-08-24,27.6703
2004-08-25,27.9874
2004-08-26,27.9874
2004-08-27,27.9522
2004-08-30,28.065
2004-08-31,28.1707
2004-09-01,28.1566
2004-09-02,28.1918
2004-09-03,28.1143
2004-09-07,28.4033
2004-09-08,28.1637
2004-09-09,28.1918
2004-09-10,28.3469
2004-09-13,28.3187
2004-09-14,28.4526
2004-09-15,28.22
2004-09-16,28.2624
2004-09-17,28.361
2004-09-20,28.1002
2004-09-21,28.22
2004-09-22,27.783
2004-09-23,27.5435
2004-09-24,27.5928
2004-09-27,27.4377
2004-09-28,27.6844
2004-09-29,27.5082
2004-09-30,27.9664
2004-10-01,28.2765
2004-10-04,28.2765
2004-10-05,28.4456
2004-10-06,28.5019
2004-10-07,28.4244
2004-10-08,28.354
2004-10-11,28.5301
2004-10-12,28.4385
2004-10-13,28.0759
2004-10-14,27.7773
2004-10-15,28.1043
2004-10-18,28.538
2004-10-19,28.275
2004-10-20,28.1114
2004-10-21,28.2252
2004-10-22,28.0616
2004-10-25,28.3816
2004-10-26,28.6589
2004-10-27,28.9646
2004-10-28,29.121
2004-10-29,29.2063
2004-11-01,29.5405
2004-11-02,29.6613
2004-11-03,29.832
2004-11-04,30.2443
2004-11-05,30.2088
2004-11-08,30.2586
2004-11-09,30.1092
2004-11-10,30.1376
2004-11-11,30.3225
2004-11-12,30.5571
2004-11-15,30.6353
2004-11-16,30.3225
2004-11-17,30.287
2004-11-18,30.4647
2004-11-19,30.0808
2004-11-22,30.2372
2004-11-23,30.3296
2004-11-24,30.3936
2004-11-26,30.3296
2004-11-29,30.3296
2004-11-30,30.223
2004-12-01,30.7065
2004-12-02,30.6069
2004-12-03,30.2443
2004-12-06,30.1874
2004-12-07,29.896
2004-12-08,29.8817
2004-12-09,29.7822
2004-12-10,29.832
2004-12-13,30.1804
2004-12-14,30.3154
2004-12-15,30.095
2004-12-16,29.9314
2004-12-17,29.7395
2004-12-20,29.9314
2004-12-21,30.2088
2004-12-22,30.2301
2004-12-23,30.159
2004-12-27,30.0808
2004-12-28,30.0666
2004-12-29,29.9954
2004-12-30,29.9742
2004-12-31,29.8746
2005-01-03,29.64
2005-01-04,29.7182
2005-01-05,29.903
2005-01-06,29.8604
2005-01-07,29.5049
2005-01-10,29.512
2005-01-11,29.3271
2005-01-12,29.1479
2005-01-13,28.8037
2005-01-14,28.4954
2005-01-18,28.61
2005-01-19,28.2515
2005-01-20,28.1225
2005-01-21,27.8572
2005-01-24,27.8859
2005-01-25,27.8428
2005-01-26,27.9719
2005-01-27,27.9648
2005-01-28,27.9361
2005-01-31,28.2874
2005-02-01,28.6746
2005-02-02,28.61
2005-02-03,28.5097
2005-02-04,28.7033
2005-02-07,28.9184
2005-02-08,28.8969
2005-02-09,28.5455
2005-02-10,28.6173
2005-02-11,28.8753
2005-02-14,28.9399
2005-02-15,28.8323
2005-02-16,28.7821
2005-02-17,28.5384
2005-02-18,28.2444
2005-02-22,27.7281
2005-02-23,27.9145
2005-02-24,28.0149
2005-02-25,28.2731
2005-02-28,28.0866
2005-03-01,28.3806
2005-03-02,28.3161
2005-03-03,28.2658
2005-03-04,28.7248
2005-03-07,28.9758
2005-03-08,29.1981
2005-03-09,28.5025
2005-03-10,28.7033
2005-03-11,28.3161
2005-03-14,28.5455
2005-03-15,28.3089
2005-03-16,27.9504
2005-03-17,28.1081
2005-03-18,27.7998
2005-03-21,27.4055
2005-03-22,27.1114
2005-03-23,27.6636
2005-03-24,27.7496
2005-03-28,27.807
2005-03-29,27.6779
2005-03-30,28.0651
2005-03-31,28.0364
2005-04-01,27.7424
2005-04-04,28.0651
2005-04-05,27.9934
2005-04-06,28.2731
2005-04-07,28.1081
2005-04-08,27.9361
2005-04-11,27.9361
2005-04-12,28.3806
2005-04-13,27.4258
2005-04-14,27.0424
2005-04-15,26.8109
2005-04-18,27.5487
2005-04-19,27.5343
2005-04-20,27.0786
2005-04-21,27.5487
2005-04-22,27.5849
2005-04-25,27.9105
2005-04-26,27.7007
2005-04-27,28.2578
2005-04-28,27.9394
2005-04-29,28.3084
2005-05-02,28.6122
2005-05-03,28.6629
2005-05-04,29.3863
2005-05-05,29.1187
2005-05-06,28.6991
2005-05-09,28.7931
2005-05-10,28.5182
2005-05-11,28.7425
2005-05-12,28.4603
2005-05-13,28.2794
2005-05-16,28.9017
2005-05-17,29.0825
2005-05-18,29.6034
2005-05-19,29.5527
2005-05-20,29.2923
2005-05-23,29.1692
2005-05-24,28.9884
2005-05-25,28.974
2005-05-26,29.0536
2005-05-27,29.0463
2005-05-31,28.8944
2005-06-01,29.4369
2005-06-02,29.1042
2005-06-03,28.8003
2005-06-06,28.7859
2005-06-07,28.6918
2005-06-08,28.6991
2005-06-09,28.6411
2005-06-10,28.6629
2005-06-13,28.5471
2005-06-14,28.6484
2005-06-15,28.7569
2005-06-16,28.8076
2005-06-17,29.2488
2005-06-20,29.1114
2005-06-21,28.974
2005-06-22,29.1259
2005-06-23,28.8076
2005-06-24,28.8655
2005-06-27,28.7714
2005-06-28,29.1983
2005-06-29,29.3863
2005-06-30,28.8944
2005-07-01,29.0607
2005-07-05,29.3068
2005-07-06,28.9522
2005-07-07,28.8799
2005-07-08,29.4876
2005-07-11,29.6612
2005-07-12,30.0591
2005-07-13,30.6284
2005-07-14,31.0153
2005-07-15,31.1029
2005-07-18,30.8766
2005-07-19,31.0153
2005-07-20,31.3365
2005-07-21,30.9496
2005-07-22,31.0665
2005-07-25,30.8474
2005-07-26,31.0299
2005-07-27,30.8766
2005-07-28,30.9496
2005-07-29,30.5261
2005-08-01,30.8255
2005-08-02,30.8036
2005-08-03,30.7379
2005-08-04,30.3071
2005-08-05,29.9567
2005-08-08,29.9713
2005-08-09,30.1173
2005-08-10,30.0004
2005-08-11,30.0442
2005-08-12,30.0734
2005-08-15,30.2852
2005-08-16,29.8471
2005-08-17,29.7522
2005-08-18,29.6573
2005-08-19,29.9567
2005-08-22,30.1465
2005-08-23,29.8398
2005-08-24,29.6281
2005-08-25,29.6573
2005-08-26,29.1316
2005-08-29,29.3871
2005-08-30,29.2046
2005-08-31,29.6207
2005-09-01,29.7742
2005-09-02,29.5989
2005-09-06,29.9785
2005-09-07,29.8033
2005-09-08,29.4748
2005-09-09,29.5916
2005-09-12,29.6792
2005-09-13,29.5186
2005-09-14,29.3725
2005-09-15,29.3799
2005-09-16,29.9347
2005-09-19,29.3725
2005-09-20,29.2412
2005-09-21,28.6206
2005-09-22,28.8031
2005-09-23,28.9272
2005-09-26,28.6206
2005-09-27,28.5913
2005-09-28,28.3796
2005-09-29,29.0002
2005-09-30,28.5329
2005-10-03,28.6352
2005-10-04,28.051
2005-10-05,27.832
2005-10-06,27.9853
2005-10-07,28.1459
2005-10-10,27.8393
2005-10-11,27.6421
2005-10-12,27.8705
2005-10-13,28.0844
2005-10-14,28.9694
2005-10-17,28.9915
2005-10-18,28.9251
2005-10-19,30.0314
2005-10-20,30.0756
2005-10-21,30.0388
2005-10-24,30.5182
2005-10-25,30.5034
2005-10-26,30.6656
2005-10-27,30.7247
2005-10-28,31.2852
2005-10-31,31.2557
2005-11-01,31.3737
2005-11-02,31.4916
2005-11-03,31.322
2005-11-04,31.4621
2005-11-07,31.6539
2005-11-08,31.5802
2005-11-09,31.6318
2005-11-10,32.0079
2005-11-11,32.0743
2005-11-14,31.8973
2005-11-15,31.4916
2005-11-16,31.2999
2005-11-17,31.7203
2005-11-18,31.8678
2005-11-21,32.0596
2005-11-22,32.2882
2005-11-23,32.0817
2005-11-25,32.2144
2005-11-28,31.8605
2005-11-29,31.8752
2005-11-30,31.3589
2005-12-01,31.6023
2005-12-02,31.5433
2005-12-05,31.3884
2005-12-06,31.2483
2005-12-07,31.0197
2005-12-08,30.791
2005-12-09,31.2999
2005-12-12,31.2261
2005-12-13,31.7719
2005-12-14,31.8678
2005-12-15,31.7276
2005-12-16,31.9563
2005-12-19,31.5728
2005-12-20,31.4991
2005-12-21,31.4991
2005-12-22,31.6023
2005-12-23,31.6613
2005-12-27,31.4106
2005-12-28,31.381
2005-12-29,31.1524
2005-12-30,30.9238
2006-01-03,31.2114
2006-01-04,31.4401
2006-01-05,31.4253
2006-01-06,31.3515
2006-01-09,31.4474
2006-01-10,31.3884
2006-01-11,31.2022
2006-01-12,30.7707
2006-01-13,31.1501
2006-01-17,31.0162
2006-01-18,31.0832
2006-01-19,30.5548
2006-01-20,29.4981
2006-01-23,29.4535
2006-01-24,29.3344
2006-01-25,29.2674
2006-01-26,29.8181
2006-01-27,29.7884
2006-01-30,29.4683
2006-01-31,29.0293
2006-02-01,29.0516
2006-02-02,28.5753
2006-02-03,28.754
2006-02-06,28.7167
2006-02-07,28.5753
2006-02-08,28.9326
2006-02-09,29.0368
2006-02-10,29.2228
2006-02-13,28.9698
2006-02-14,29.4163
2006-02-15,29.2972
2006-02-16,29.8033
2006-02-17,29.5576
2006-02-21,29.4758
2006-02-22,30.1158
2006-02-23,29.7586
2006-02-24,29.7363
2006-02-27,29.8255
2006-02-28,29.4088
2006-03-01,29.5427
2006-03-02,29.3493
2006-03-03,29.1038
2006-03-06,28.94
2006-03-07,29.2452
2006-03-08,29.4683
2006-03-09,29.2377
2006-03-10,29.4014
2006-03-13,29.5576
2006-03-14,30.0264
2006-03-15,30.1678
2006-03-16,30.0339
2006-03-17,30.1827
2006-03-20,30.22
2006-03-21,29.8404
2006-03-22,29.9149
2006-03-23,29.6544
2006-03-24,29.5576
2006-03-27,29.6693
2006-03-28,29.3418
2006-03-29,29.4683
2006-03-30,29.2004
2006-03-31,29.1782
2006-04-03,29.3642
2006-04-04,29.6097
2006-04-05,29.6767
2006-04-06,29.4758
2006-04-07,29.4683
2006-04-10,29.9074
2006-04-11,29.7572
2006-04-12,29.5017
2006-04-13,29.7572
2006-04-17,29.5243
2006-04-18,30.3507
2006-04-19,30.1178
2006-04-20,31.3423
2006-04-21,31.4851
2006-04-24,31.4775
2006-04-25,31.3498
2006-04-26,31.5151
2006-04-27,31.9132
2006-04-28,32.2363
2006-05-01,32.0335
2006-05-02,32.0485
2006-05-03,32.0936
2006-05-04,32.2213
2006-05-05,32.4316
2006-05-08,32.364
2006-05-09,32.4466
2006-05-10,32.1762
2006-05-11,31.9884
2006-05-12,31.748
2006-05-15,31.9358
2006-05-16,31.9282
2006-05-17,31.4475
2006-05-18,31.3724
2006-05-19,31.5752
2006-05-22,31.7104
2006-05-23,31.4324
2006-05-24,31.4475
2006-05-25,31.5752
2006-05-26,31.6128
2006-05-30,31.0568
2006-05-31,31.2296
2006-06-01,31.7856
2006-06-02,31.7705
2006-06-05,31.3949
2006-06-06,31.5452
2006-06-07,31.8682
2006-06-08,32.1086
2006-06-09,32.0936
2006-06-12,31.9583
2006-06-13,31.7104
2006-06-14,31.5226
2006-06-15,32.1236
2006-06-16,31.6353
2006-06-19,31.5301
2006-06-20,31.41
2006-06-21,31.44
2006-06-22,31.3047
2006-06-23,30.869
2006-06-26,30.9967
2006-06-27,30.5986
2006-06-28,30.8389
2006-06-29,31.4925
2006-06-30,31.2747
2006-07-03,31.3273
2006-07-05,31.0568
2006-07-06,31.0043
2006-07-07,30.884
2006-07-10,30.8389
2006-07-11,30.9817
2006-07-12,30.6629
2006-07-13,30.2834
2006-07-14,30.5794
2006-07-17,30.8906
2006-07-18,31.0652
2006-07-19,31.7709
2006-07-20,31.695
2006-07-21,31.8014
2006-07-24,32.0442
2006-07-25,32.1126
2006-07-26,32.0139
2006-07-27,31.5509
2006-07-28,32.2263
2006-07-31,31.9
2006-08-01,32.1049
2006-08-02,31.9076
2006-08-03,32.234
2006-08-04,32.3934
2006-08-07,32.4465
2006-08-08,32.3629
2006-08-09,32.0518
2006-08-10,32.3478
2006-08-11,32.196
2006-08-14,32.0442
2006-08-15,32.5603
2006-08-16,32.492
2006-08-17,32.6059
2006-08-18,32.6286
2006-08-21,32.6059
2006-08-22,32.5982
2006-08-23,32.4616
2006-08-24,32.5223
2006-08-25,32.4313
2006-08-28,32.6134
2006-08-29,32.4996
2006-08-30,32.6286
2006-08-31,32.4768
2006-09-01,32.5907
2006-09-05,32.5755
2006-09-06,32.5527
2006-09-07,32.2263
2006-09-08,32.4009
2006-09-11,32.3934
2006-09-12,32.7197
2006-09-13,32.8563
2006-09-14,32.9626
2006-09-15,33.0233
2006-09-18,32.8942
2006-09-19,33.0233
2006-09-20,33.3725
2006-09-21,33.3193
2006-09-22,33.3193
2006-09-25,33.6608
2006-09-26,33.6001
2006-09-27,33.5014
2006-09-28,33.4635
2006-09-29,33.2509
2006-10-02,33.1902
2006-10-03,33.2966
2006-10-04,33.4635
2006-10-05,33.4104
2006-10-06,33.2889
2006-10-09,33.4787
2006-10-10,33.5622
2006-10-11,33.8149
2006-10-12,33.7767
2006-10-13,33.7614
2006-10-16,33.6004
2006-10-17,33.6157
2006-10-18,33.677
2006-10-19,33.3246
2006-10-20,33.1407
2006-10-23,32.9338
2006-10-24,32.9951
2006-10-25,32.8878
2006-10-26,33.1024
2006-10-27,32.972
2006-10-30,33.2326
2006-10-31,33.3169
2006-11-01,33.248
2006-11-02,32.9185
2006-11-03,32.7652
2006-11-06,32.9338
2006-11-07,32.9185
2006-11-08,33.0947
2006-11-09,33.0104
2006-11-10,32.9951
2006-11-13,33.1024
2006-11-14,33.2556
2006-11-15,33.4088
2006-11-16,33.6234
2006-11-17,33.5238
2006-11-20,33.5008
2006-11-21,33.2556
2006-11-22,33.248
2006-11-24,33.0793
2006-11-27,32.6809
2006-11-28,32.658
2006-11-29,32.972
2006-11-30,32.9491
2006-12-01,33.0717
2006-12-04,33.4319
2006-12-05,33.4395
2006-12-06,33.5008
2006-12-07,33.4472
2006-12-08,33.6081
2006-12-11,33.6157
2006-12-12,33.7843
2006-12-13,33.6617
2006-12-14,33.8149
2006-12-15,33.8609
2006-12-18,33.8303
2006-12-19,33.9452
2006-12-20,33.9222
2006-12-21,33.838
2006-12-22,33.7536
2006-12-26,33.9375
2006-12-27,34.1904
2006-12-28,33.9375
2006-12-29,33.6388
2007-01-03,33.7001
2007-01-04,33.4395
2007-01-05,32.9874
2007-01-08,32.8572
2007-01-09,32.8265
2007-01-10,32.989
2007-01-11,33.2212
2007-01-12,32.9736
2007-01-16,33.1206
2007-01-17,33.0433
2007-01-18,33.376
2007-01-19,33.1052
2007-01-22,33.0819
2007-01-23,33.0897
2007-01-24,33.2599
2007-01-25,32.6795
2007-01-26,32.6254
2007-01-29,32.5635
2007-01-30,32.6176
2007-01-31,32.6718
2007-02-01,32.989
2007-02-02,32.9117
2007-02-05,33.02
2007-02-06,33.1593
2007-02-07,33.198
2007-02-08,33.1361
2007-02-09,33.1206
2007-02-12,33.3605
2007-02-13,33.7165
2007-02-14,33.8713
2007-02-15,33.8558
2007-02-16,33.9487
2007-02-20,34.1499
2007-02-21,34.0415
2007-02-22,34.0028
2007-02-23,33.8868
2007-02-26,33.763
2007-02-27,32.8188
2007-02-28,32.8421
2007-03-01,32.5712
2007-03-02,32.192
2007-03-05,31.6117
2007-03-06,32.2074
2007-03-07,31.9521
2007-03-08,32.1379
2007-03-09,32.0836
2007-03-12,32.014
2007-03-13,31.1163
2007-03-14,31.2324
2007-03-15,31.4801
2007-03-16,31.364
2007-03-19,31.7432
2007-03-20,31.9908
2007-03-21,32.7647
2007-03-22,32.4861
2007-03-23,32.4706
2007-03-26,32.3468
2007-03-27,32.0991
2007-03-28,31.5962
2007-03-29,31.9986
2007-03-30,31.7355
2007-04-02,31.1705
2007-04-03,31.689
2007-04-04,31.5033
2007-04-05,31.5807
2007-04-09,31.2867
2007-04-10,31.5188
2007-04-11,31.1279
2007-04-12,30.9402
2007-04-13,31.206
2007-04-16,31.8237
2007-04-17,31.6908
2007-04-18,32.1208
2007-04-19,32.7229
2007-04-20,32.8949
2007-04-23,32.6603
2007-04-24,32.4414
2007-04-25,32.8167
2007-04-26,32.7698
2007-04-27,32.8871
2007-04-30,32.5744
2007-05-01,32.848
2007-05-02,32.9575
2007-05-03,33.153
2007-05-04,33.1843
2007-05-07,33.3953
2007-05-08,33.2781
2007-05-09,33.4892
2007-05-10,32.9497
2007-05-11,33.0982
2007-05-14,32.934
2007-05-15,33.0279
2007-05-16,33.3563
2007-05-17,33.3328
2007-05-18,33.5204
2007-05-21,33.5048
2007-05-22,33.3171
2007-05-23,33.1608
2007-05-24,32.9575
2007-05-25,32.9262
2007-05-29,32.8871
2007-05-30,32.9105
2007-05-31,32.9262
2007-06-01,33.1138
2007-06-04,33.1138
2007-06-05,33.0826
2007-06-06,32.6526
2007-06-07,32.1052
2007-06-08,32.4883
2007-06-11,32.6134
2007-06-12,32.2225
2007-06-13,32.7229
2007-06-14,32.5821
2007-06-15,32.6447
2007-06-18,32.6603
2007-06-19,32.9184
2007-06-20,32.6916
2007-06-21,32.7151
2007-06-22,32.2069
2007-06-25,32.027
2007-06-26,32.0662
2007-06-27,32.3711
2007-06-28,32.1756
2007-06-29,31.8003
2007-07-02,32.4023
2007-07-03,32.6838
2007-07-05,32.2537
2007-07-06,32.2225
2007-07-09,32.0036
2007-07-10,31.4406
2007-07-11,31.6384
2007-07-12,32.5322
2007-07-13,32.5797
2007-07-16,32.5717
2007-07-17,32.5639
2007-07-18,32.1842
2007-07-19,31.7808
2007-07-20,31.0373
2007-07-23,31.069
2007-07-24,30.1435
2007-07-25,30.6497
2007-07-26,30.1277
2007-07-27,29.7718
2007-07-30,30.0644
2007-07-31,29.5898
2007-08-01,30.4994
2007-08-02,30.4125
2007-08-03,29.2418
2007-08-06,31.1243
2007-08-07,31.4724
2007-08-08,32.6983
2007-08-09,31.7966
2007-08-10,31.1638
2007-08-13,30.183
2007-08-14,29.4237
2007-08-15,29.5186
2007-08-16,31.2271
2007-08-17,32.2712
2007-08-20,31.5515
2007-08-21,31.9469
2007-08-22,32.113
2007-08-23,31.7887
2007-08-24,32.287
2007-08-27,31.8757
2007-08-28,30.8395
2007-08-29,31.4011
2007-08-30,31.1401
2007-08-31,31.4328
2007-09-04,31.4407
2007-09-05,31.0373
2007-09-06,31.4169
2007-09-07,30.8237
2007-09-10,31.0215
2007-09-11,31.5831
2007-09-12,31.4011
2007-09-13,32.0102
2007-09-14,32.2395
2007-09-17,32.1367
2007-09-18,33.608
2007-09-19,33.774
2007-09-20,33.1966
2007-09-21,32.8802
2007-09-24,32.2
2007-09-25,32.2
2007-09-26,32.2316
2007-09-27,32.374
2007-09-28,31.939
2007-10-01,32.8644
2007-10-02,32.9118
2007-10-03,32.9118
2007-10-04,33.2045
2007-10-05,33.2915
2007-10-08,33.2757
2007-10-09,33.2441
2007-10-10,33.0839
2007-10-11,32.756
2007-10-12,32.3322
2007-10-15,31.9004
2007-10-16,30.9167
2007-10-17,30.8047
2007-10-18,29.7412
2007-10-19,28.7895
2007-10-22,28.7895
2007-10-23,29.3813
2007-10-24,28.8775
2007-10-25,28.9814
2007-10-26,29.7892
2007-10-29,29.5812
2007-10-30,29.1094
2007-10-31,29.6292
2007-11-01,28.0777
2007-11-02,27.558
2007-11-05,27.2621
2007-11-06,27.622
2007-11-07,26.2144
2007-11-08,26.7823
2007-11-09,27.334
2007-11-12,27.526
2007-11-13,28.5496
2007-11-14,28.3337
2007-11-15,27.4221
2007-11-16,26.9342
2007-11-19,26.4464
2007-11-20,26.4384
2007-11-21,26.2704
2007-11-23,27.1901
2007-11-26,26.0225
2007-11-27,26.8542
2007-11-28,28.8535
2007-11-29,28.3977
2007-11-30,28.8695
2007-12-03,28.7655
2007-12-04,28.3896
2007-12-05,28.9654
2007-12-06,29.0774
2007-12-07,28.7335
2007-12-10,29.5012
2007-12-11,27.1581
2007-12-12,26.8382
2007-12-13,26.8622
2007-12-14,26.0945
2007-12-17,26.0385
2007-12-18,25.7186
2007-12-19,25.3827
2007-12-20,24.7589
2007-12-21,25.5986
2007-12-24,25.7106
2007-12-26,25.6306
2007-12-27,24.9349
2007-12-28,24.831
2007-12-31,24.5191
2008-01-02,23.6554
2008-01-03,23.2635
2008-01-04,21.8881
2008-01-07,22.2159
2008-01-08,21.4082
2008-01-09,22.1471
2008-01-10,22.4562
2008-01-11,22.92
2008-01-14,23.0746
2008-01-15,22.2528
2008-01-16,22.977
2008-01-17,23.213
2008-01-18,23.9127
2008-01-22,24.7995
2008-01-23,28.3551
2008-01-24,28.4934
2008-01-25,27.6147
2008-01-28,28.5341
2008-01-29,28.9491
2008-01-30,28.5666
2008-01-31,29.5105
2008-02-01,29.9417
2008-02-04,28.6235
2008-02-05,27.7774
2008-02-06,27.574
2008-02-07,28.1924
2008-02-08,27.0858
2008-02-11,26.9312
2008-02-12,27.4926
2008-02-13,27.5333
2008-02-14,27.1427
2008-02-15,27.0858
2008-02-19,26.7034
2008-02-20,27.3461
2008-02-21,26.7766
2008-02-22,27.6635
2008-02-25,27.7774
2008-02-26,27.9401
2008-02-27,27.574
2008-02-28,26.5976
2008-02-29,25.3528
2008-03-03,24.9134
2008-03-04,24.9785
2008-03-05,25.3609
2008-03-06,24.2299
2008-03-07,24.4415
2008-03-10,24.5066
2008-03-11,26.6872
2008-03-12,26.0444
2008-03-13,25.963
2008-03-14,25.5644
2008-03-17,26.0362
2008-03-18,26.9312
2008-03-19,27.0126
2008-03-20,28.4934
2008-03-24,28.6886
2008-03-25,28.5341
2008-03-26,27.3869
2008-03-27,26.6302
2008-03-28,26.3535
2008-03-31,26.1013
2008-04-01,27.8669
2008-04-02,27.81
2008-04-03,27.8587
2008-04-04,27.6798
2008-04-07,27.8913
2008-04-08,27.4438
2008-04-09,27.2241
2008-04-10,26.8531
2008-04-11,26.3664
2008-04-14,25.1371
2008-04-15,25.8054
2008-04-16,26.8366
2008-04-17,27.6864
2008-04-18,28.437
2008-04-21,27.6451
2008-04-22,27.5131
2008-04-23,27.4388
2008-04-24,28.5938
2008-04-25,29.1383
2008-04-28,29.4023
2008-04-29,28.6846
2008-04-30,28.2474
2008-05-01,30.3511
2008-05-02,30.12
2008-05-05,30.0211
2008-05-06,29.9303
2008-05-07,28.965
2008-05-08,28.4536
2008-05-09,28.1071
2008-05-12,29.1631
2008-05-13,28.7589
2008-05-14,29.1466
2008-05-15,29.5508
2008-05-16,28.2968
2008-05-19,28.4123
2008-05-20,27.8018
2008-05-21,27.0676
2008-05-22,27.6121
2008-05-23,26.9934
2008-05-27,26.5314
2008-05-28,25.9209
2008-05-29,26.5066
2008-05-30,25.9291
2008-06-02,25.3269
2008-06-03,24.7659
2008-06-04,23.9575
2008-06-05,24.4112
2008-06-06,23.1407
2008-06-09,22.3322
2008-06-10,22.6457
2008-06-11,21.7052
2008-06-12,22.2415
2008-06-13,21.862
2008-06-16,22.5467
2008-06-17,21.6558
2008-06-18,20.0883
2008-06-19,20.0718
2008-06-20,20.4513
2008-06-23,19.8078
2008-06-24,20.3441
2008-06-25,20.6493
2008-06-26,20.0553
2008-06-27,19.5356
2008-06-30,18.7765
2008-07-01,19.7087
2008-07-02,19.5438
2008-07-03,19.0405
2008-07-07,17.869
2008-07-08,19.7087
2008-07-09,18.5048
2008-07-10,19.0265
2008-07-11,18.6226
2008-07-14,17.6128
2008-07-15,16.6534
2008-07-16,19.7502
2008-07-17,23.1163
2008-07-18,22.2326
2008-07-21,21.7783
2008-07-22,24.1597
2008-07-23,24.3701
2008-07-24,23.0237
2008-07-25,22.7796
2008-07-28,21.8455
2008-07-29,23.4781
2008-07-30,24.3112
2008-07-31,23.6043
2008-08-01,24.4795
2008-08-04,24.5552
2008-08-05,25.8764
2008-08-06,26.1878
2008-08-07,24.8498
2008-08-08,25.4052
2008-08-11,26.6589
2008-08-12,25.3294
2008-08-13,24.1429
2008-08-14,24.5973
2008-08-15,25.2621
2008-08-18,24.4626
2008-08-19,23.1415
2008-08-20,23.6969
2008-08-21,23.7558
2008-08-22,24.1261
2008-08-25,23.4192
2008-08-26,23.7727
2008-08-27,23.5875
2008-08-28,24.5973
2008-08-29,25.3378
2008-09-02,25.8848
2008-09-03,26.2298
2008-09-04,25.22
2008-09-05,26.7179
2008-09-08,28.8385
2008-09-09,27.0713
2008-09-10,26.4655
2008-09-11,27.6604
2008-09-12,28.6702
2008-09-15,27.6857
2008-09-16,30.2102
2008-09-17,29.7726
2008-09-18,33.1807
2008-09-19,34.687
2008-09-22,33.2396
2008-09-23,33.3995
2008-09-24,32.7768
2008-09-25,33.1555
2008-09-26,33.6603
2008-09-29,30.8581
2008-09-30,32.3812
2008-10-01,33.1302
2008-10-02,31.6828
2008-10-03,30.7572
2008-10-06,30.7572
2008-10-07,28.7712
2008-10-08,28.2494
2008-10-09,24.9339
2008-10-10,25.2452
2008-10-13,27.6688
2008-10-14,29.4276
2008-10-15,27.3183
2008-10-16,28.6664
2008-10-17,28.7602
2008-10-20,28.5896
2008-10-21,27.9156
2008-10-22,26.6103
2008-10-23,25.8424
2008-10-24,27.6937
2008-10-27,27.7108
2008-10-28,30.6969
2008-10-29,29.1271
2008-10-30,29.1954
2008-10-31,30.2362
2008-11-03,30.2447
2008-11-04,30.9444
2008-11-05,28.3678
2008-11-06,26.9345
2008-11-07,27.2331
2008-11-10,26.4055
2008-11-11,25.5693
2008-11-12,24.4262
2008-11-13,25.4158
2008-11-14,23.0013
2008-11-17,22.6686
2008-11-18,22.5065
2008-11-19,19.9726
2008-11-20,19.6313
2008-11-21,21.1414
2008-11-24,22.6856
2008-11-25,24.1787
2008-11-26,25.2708
2008-11-28,25.5693
2008-12-01,21.2183
2008-12-02,23.1549
2008-12-03,23.8118
2008-12-04,23.3255
2008-12-05,25.0831
2008-12-08,25.8509
2008-12-09,25.1684
2008-12-10,25.5182
2008-12-11,23.2232
2008-12-12,23.189
2008-12-15,22.6345
2008-12-16,25.3305
2008-12-17,25.5864
2008-12-18,24.1872
2008-12-19,23.4535
2008-12-22,22.9245
2008-12-23,21.986
2008-12-24,22.1396
2008-12-26,22.1823
2008-12-29,21.9179
2008-12-30,22.6259
2008-12-31,23.5474
2009-01-02,22.7454
2009-01-05,21.9605
2009-01-06,21.9263
2009-01-07,20.2146
2009-01-08,20.4145
2009-01-09,20.0408
2009-01-12,19.2065
2009-01-13,19.389
2009-01-14,18.9457
2009-01-15,18.2939
2009-01-16,18.1809
2009-01-20,16.0431
2009-01-21,17.0946
2009-01-22,17.0686
2009-01-23,17.4945
2009-01-26,17.1034
2009-01-27,17.9028
2009-01-28,19.6236
2009-01-29,17.9464
2009-01-30,17.1554
2009-02-02,16.7991
2009-02-03,15.8953
2009-02-04,16.2864
2009-02-05,15.1479
2009-02-06,16.5037
2009-02-09,16.999
2009-02-10,14.8264
2009-02-11,15.3565
2009-02-12,14.4179
2009-02-13,13.3402
2009-02-17,12.419
2009-02-18,12.7493
2009-02-19,12.2278
2009-02-20,12.8623
2009-02-23,12.8797
2009-02-24,14.6526
2009-02-25,14.5135
2009-02-26,14.7916
2009-02-27,14.0442
2009-03-02,13.5923
2009-03-03,13.4098
2009-03-04,13.1838
2009-03-05,11.6021
2009-03-06,11.8976
2009-03-09,12.4798
2009-03-10,14.5396
2009-03-11,14.7916
2009-03-12,15.9301
2009-03-13,15.0002
2009-03-16,14.6526
2009-03-17,15.1913
2009-03-18,16.9208
2009-03-19,15.2261
2009-03-20,15.061
2009-03-23,16.5905
2009-03-24,15.4086
2009-03-25,16.356
2009-03-26,16.156
2009-03-27,15.4173
2009-03-30,14.1137
2009-03-31,14.7134
2009-04-01,15.0263
2009-04-02,15.1131
2009-04-03,15.7649
2009-04-06,15.1393
2009-04-07,15.0334
2009-04-08,14.9263
2009-04-09,18.1509
2009-04-13,18.7673
2009-04-14,17.2041
2009-04-15,18.4814
2009-04-16,18.9013
2009-04-17,20.8754
2009-04-20,17.6597
2009-04-21,19.7499
2009-04-22,19.0353
2009-04-23,19.8034
2009-04-24,20.8575
2009-04-27,20.0982
2009-04-28,19.9821
2009-04-29,21.4292
2009-04-30,20.6431
2009-05-01,20.3662
2009-05-04,23.0371
2009-05-05,22.0455
2009-05-06,24.8414
2009-05-07,22.4922
2009-05-08,23.7428
2009-05-11,21.724
2009-05-12,20.0714
2009-05-13,19.196
2009-05-14,19.9285
2009-05-15,19.2854
2009-05-18,20.2501
2009-05-19,20.1072
2009-05-20,19.3926
2009-05-21,18.6244
2009-05-22,18.2045
2009-05-26,19.4461
2009-05-27,18.9728
2009-05-28,19.607
2009-05-29,20.0447
2009-06-01,19.8838
2009-06-02,19.1693
2009-06-03,19.3568
2009-06-04,19.8928
2009-06-05,19.1871
2009-06-08,19.5444
2009-06-09,20.0893
2009-06-10,19.8303
2009-06-11,20.1607
2009-06-12,20.6967
2009-06-15,20.1876
2009-06-16,19.8838
2009-06-17,19.2764
2009-06-18,19.9106
2009-06-19,20.2322
2009-06-22,19.2675
2009-06-23,19.3479
2009-06-24,19.4998
2009-06-25,19.9196
2009-06-26,20.2144
2009-06-29,20.1161
2009-06-30,19.6606
2009-07-01,19.3747
2009-07-02,18.6155
2009-07-06,18.8208
2009-07-07,18.5886
2009-07-08,18.4085
2009-07-09,18.7504
2009-07-10,18.5615
2009-07-13,19.6592
2009-07-14,19.4522
2009-07-15,20.3159
2009-07-16,20.154
2009-07-17,18.7684
2009-07-20,18.8764
2009-07-21,18.1476
2009-07-22,18.3725
2009-07-23,19.2272
2009-07-24,18.9303
2009-07-27,19.5782
2009-07-28,19.7671
2009-07-29,19.848
2009-07-30,20.3339
2009-07-31,20.6039
2009-08-03,20.6399
2009-08-04,21.3056
2009-08-05,21.7735
2009-08-06,22.1604
2009-08-07,23.2401
2009-08-10,23.3031
2009-08-11,22.6552
2009-08-12,23.1321
2009-08-13,23.1861
2009-08-14,25.3275
2009-08-17,23.8609
2009-08-18,24.7876
2009-08-19,24.7336
2009-08-20,24.9765
2009-08-21,25.2015
2009-08-24,24.7067
2009-08-25,24.7156
2009-08-26,24.8506
2009-08-27,25.2015
2009-08-28,25.4804
2009-08-31,25.1295
2009-09-01,24.0138
2009-09-02,23.519
2009-09-03,23.6989
2009-09-04,23.8339
2009-09-08,23.8789
2009-09-09,24.2297
2009-09-10,24.2568
2009-09-11,24.0948
2009-09-14,24.6076
2009-09-15,25.4894
2009-09-16,26.5241
2009-09-17,26.0473
2009-09-18,26.3171
2009-09-21,25.7054
2009-09-22,26.1102
2009-09-23,25.4624
2009-09-24,24.9586
2009-09-25,24.4187
2009-09-28,25.1925
2009-09-29,24.6526
2009-09-30,24.4547
2009-10-01,22.9792
2009-10-02,24.0229
2009-10-05,24.1938
2009-10-06,24.0049
2009-10-07,24.2388
2009-10-08,24.0229
2009-10-09,24.5627
2009-10-12,24.9676
2009-10-13,24.9586
2009-10-14,25.8177
2009-10-15,25.854
2009-10-16,25.5554
2009-10-19,24.3614
2009-10-20,23.9453
2009-10-21,23.1673
2009-10-22,23.7914
2009-10-23,23.6286
2009-10-26,23.0678
2009-10-27,22.9773
2009-10-28,22.3983
2009-10-29,22.9954
2009-10-30,21.6204
2009-11-02,22.6336
2009-11-03,22.4707
2009-11-04,21.6927
2009-11-05,22.2446
2009-11-06,22.1088
2009-11-09,22.8235
2009-11-10,22.7059
2009-11-11,22.7602
2009-11-12,22.4165
2009-11-13,22.0817
2009-11-16,22.4888
2009-11-17,22.5431
2009-11-18,22.6607
2009-11-19,22.3079
2009-11-20,22.2536
2009-11-23,22.6788
2009-11-24,22.6969
2009-11-25,22.5973
2009-11-27,21.946
2009-11-30,22.534
2009-12-01,23.1311
2009-12-02,23.701
2009-12-03,23.1673
2009-12-04,24.108
2009-12-07,23.4205
2009-12-08,23.3663
2009-12-09,23.3482
2009-12-10,23.4205
2009-12-11,23.4296
2009-12-14,23.7101
2009-12-15,23.3844
2009-12-16,23.2125
2009-12-17,22.9592
2009-12-18,23.0949
2009-12-21,23.4386
2009-12-22,23.303
2009-12-23,23.1492
2009-12-24,23.4024
2009-12-28,23.113
2009-12-29,23.113
2009-12-30,23.0768
2009-12-31,23.0044
2010-01-04,23.3572
2010-01-05,23.6557
2010-01-06,24.1833
2010-01-07,25.1659
2010-01-08,24.8748
2010-01-11,24.902
2010-01-12,24.9385
2010-01-13,25.3934
2010-01-14,25.9484
2010-01-15,25.2933
2010-01-19,25.6026
2010-01-20,25.9393
2010-01-21,26.4306
2010-01-22,25.6572
2010-01-25,25.1022
2010-01-26,24.429
2010-01-27,25.6845
2010-01-28,25.8028
2010-01-29,25.366
2010-02-01,25.6755
2010-02-02,25.8482
2010-02-03,25.2751
2010-02-04,24.5018
2010-02-05,25.0477
2010-02-08,24.6928
2010-02-09,24.7383
2010-02-10,24.9475
2010-02-11,24.7474
2010-02-12,24.4835
2010-02-16,24.9293
2010-02-17,24.7474
2010-02-18,24.802
2010-02-19,24.802
2010-02-22,25.6299
2010-02-23,25.2478
2010-02-24,25.9301
2010-02-25,25.6936
2010-02-26,25.9938
2010-03-01,25.3024
2010-03-02,25.3024
2010-03-03,24.902
2010-03-04,25.2751
2010-03-05,25.9666
2010-03-08,26.1122
2010-03-09,26.2122
2010-03-10,26.9492
2010-03-11,27.6862
2010-03-12,27.8954
2010-03-15,28.0046
2010-03-16,28.7416
2010-03-17,29.2238
2010-03-18,29.0418
2010-03-19,28.969
2010-03-22,29.1054
2010-03-23,29.1783
2010-03-24,29.242
2010-03-25,29.3512
2010-03-26,29.3512
2010-03-29,29.3512
2010-03-30,29.1146
2010-03-31,29.4603
2010-04-01,29.524
2010-04-05,29.9334
2010-04-06,30.5248
2010-04-07,30.3695
2010-04-08,30.7351
2010-04-09,30.9636
2010-04-12,31.1098
2010-04-13,30.6254
2010-04-14,31.5759
2010-04-15,31.2469
2010-04-16,30.8722
2010-04-19,31.1189
2010-04-20,31.5576
2010-04-21,32.0694
2010-04-22,31.3475
2010-04-23,31.3292
2010-04-26,30.4335
2010-04-27,29.8029
2010-04-28,29.8669
2010-04-29,30.6163
2010-04-30,30.397
2010-05-03,31.2286
2010-05-04,30.6345
2010-05-05,30.3421
2010-05-06,29.4099
2010-05-07,29.5105
2010-05-10,31.1189
2010-05-11,31.7679
2010-05-12,32.5173
2010-05-13,32.17
2010-05-14,31.1281
2010-05-17,30.8905
2010-05-18,29.7663
2010-05-19,29.5196
2010-05-20,27.8563
2010-05-21,28.6514
2010-05-24,27.509
2010-05-25,27.8745
2010-05-26,27.5181
2010-05-27,28.4046
2010-05-28,27.6461
2010-06-01,27.2257
2010-06-02,28.0847
2010-06-03,27.8197
2010-06-04,26.6682
2010-06-07,26.3483
2010-06-08,26.5128
2010-06-09,26.2752
2010-06-10,27.5547
2010-06-11,27.6004
2010-06-14,27.2439
2010-06-15,27.7374
2010-06-16,27.6826
2010-06-17,27.1343
2010-06-18,27.0612
2010-06-21,26.8601
2010-06-22,26.5494
2010-06-23,26.3209
2010-06-24,25.7177
2010-06-25,26.2661
2010-06-28,26.0924
2010-06-29,24.9043
2010-06-30,24.0909
2010-07-01,24.1549
2010-07-02,23.7985
2010-07-06,24.2555
2010-07-07,25.1287
2010-07-08,25.3125
2010-07-09,25.9007
2010-07-12,25.8272
2010-07-13,26.2959
2010-07-14,25.6066
2010-07-15,25.4228
2010-07-16,24.2463
2010-07-19,23.9797
2010-07-20,24.4301
2010-07-21,23.7959
2010-07-22,23.272
2010-07-23,23.465
2010-07-26,23.8786
2010-07-27,23.9522
2010-07-28,23.4558
2010-07-29,22.9871
2010-07-30,22.8308
2010-08-02,23.2996
2010-08-03,22.794
2010-08-04,23.0882
2010-08-05,23.1985
2010-08-06,23.1617
2010-08-09,23.2996
2010-08-10,23.1893
2010-08-11,22.2702
2010-08-12,21.9117
2010-08-13,21.9209
2010-08-16,21.9117
2010-08-17,21.9117
2010-08-18,21.9209
2010-08-19,21.3879
2010-08-20,21.2316
2010-08-23,20.7904
2010-08-24,20.5882
2010-08-25,20.4595
2010-08-26,20.4963
2010-08-27,20.8732
2010-08-30,20.0826
2010-08-31,20.3216
2010-09-01,21.1764
2010-09-02,21.25
2010-09-03,21.6452
2010-09-07,20.8455
2010-09-08,21.3235
2010-09-09,21.9852
2010-09-10,21.7463
2010-09-13,22.3989
2010-09-14,21.5624
2010-09-15,21.7004
2010-09-16,21.397
2010-09-17,21.204
2010-09-20,21.7739
2010-09-21,21.8474
2010-09-22,21.7555
2010-09-23,21.7371
2010-09-24,22.5183
2010-09-27,22.1139
2010-09-28,22.1232
2010-09-29,22.2793
2010-09-30,22.1323
2010-10-01,22.3989
2010-10-04,22.1139
2010-10-05,22.3345
2010-10-06,22.307
2010-10-07,22.1323
2010-10-08,21.6727
2010-10-11,21.5717
2010-10-12,21.8933
2010-10-13,21.6344
2010-10-14,21.1626
2010-10-15,20.9406
2010-10-18,21.3846
2010-10-19,21.2182
2010-10-20,21.2459
2010-10-21,20.9222
2010-10-22,20.9129
2010-10-25,20.6354
2010-10-26,20.8112
2010-10-27,20.8481
2010-10-28,21.4586
2010-10-29,21.6621
2010-11-01,21.0424
2010-11-02,21.1811
2010-11-03,21.2921
2010-11-04,22.3836
2010-11-05,23.6415
2010-11-08,23.401
2010-11-09,22.9941
2010-11-10,23.4565
2010-11-11,23.3825
2010-11-12,22.957
2010-11-15,23.1605
2010-11-16,22.6703
2010-11-17,22.4298
2010-11-18,22.6148
2010-11-19,22.6425
2010-11-22,22.3465
2010-11-23,21.8101
2010-11-24,21.9489
2010-11-26,21.6898
2010-11-29,21.9118
2010-11-30,21.4679
2010-12-01,21.9674
2010-12-02,22.8275
2010-12-03,22.8737
2010-12-06,22.7165
2010-12-07,22.8737
2010-12-08,23.6692
2010-12-09,25.0566
2010-12-10,25.1029
2010-12-13,24.8716
2010-12-14,24.5571
2010-12-15,24.2242
2010-12-16,24.3907
2010-12-17,24.178
2010-12-20,23.9468
2010-12-21,24.178
2010-12-22,24.5387
2010-12-23,24.363
2010-12-27,24.5017
2010-12-28,24.474
2010-12-29,24.4646
2010-12-30,24.4184
2010-12-31,24.3259
2011-01-03,24.8439
2011-01-04,24.8254
2011-01-05,25.5416
2011-01-06,25.03
2011-01-07,24.472
2011-01-10,24.6208
2011-01-11,24.7045
2011-01-12,24.9835
2011-01-13,25.0022
2011-01-14,25.83
2011-01-18,25.5788
2011-01-19,25.3742
2011-01-20,25.1603
2011-01-21,26.4067
2011-01-24,25.83
2011-01-25,25.9323
2011-01-26,25.4858
2011-01-27,25.8579
2011-01-28,25.3556
2011-01-31,25.6905
2011-02-01,26.509
2011-02-02,26.3416
2011-02-03,26.3787
2011-02-04,26.4159
2011-02-07,26.7043
2011-02-08,27.1135
2011-02-09,26.9182
2011-02-10,26.5555
2011-02-11,27.0856
2011-02-14,27.0578
2011-02-15,26.695
2011-02-16,26.7508
2011-02-17,26.4067
2011-02-18,26.4346
2011-02-22,25.7928
2011-02-23,25.7649
2011-02-24,25.7649
2011-02-25,25.7462
2011-02-28,25.6811
2011-03-01,25.1231
2011-03-02,25.1603
2011-03-03,25.1974
2011-03-04,24.565
2011-03-07,24.4812
2011-03-08,25.0858
2011-03-09,25.1603
2011-03-10,24.6859
2011-03-11,25.2068
2011-03-14,24.9743
2011-03-15,24.9649
2011-03-16,24.8905
2011-03-17,25.0114
2011-03-18,25.1044
2011-03-21,25.0022
2011-03-22,24.7789
2011-03-23,24.7324
2011-03-24,24.7975
2011-03-25,25.1882
2011-03-28,25.3648
2011-03-29,25.7276
2011-03-30,25.7741
2011-03-31,25.5323
2011-04-01,25.6997
2011-04-04,25.616
2011-04-05,25.523
2011-04-06,25.6447
2011-04-07,25.6447
2011-04-08,25.4949
2011-04-11,25.5323
2011-04-12,25.5323
2011-04-13,25.1299
2011-04-14,24.7742
2011-04-15,24.8116
2011-04-18,24.9052
2011-04-19,25.2235
2011-04-20,24.8865
2011-04-21,24.3156
2011-04-25,24.0348
2011-04-26,24.3812
2011-04-27,24.5121
2011-04-28,24.952
2011-04-29,25.1953
2011-05-02,24.8959
2011-05-03,25.186
2011-05-04,24.9895
2011-05-05,24.9427
2011-05-06,25.2421
2011-05-09,25.2609
2011-05-10,25.4575
2011-05-11,25.4293
2011-05-12,25.4387
2011-05-13,24.9333
2011-05-16,24.9427
2011-05-17,25.3545
2011-05-18,25.3171
2011-05-19,25.5511
2011-05-20,24.8584
2011-05-23,24.4466
2011-05-24,24.5121
2011-05-25,24.9708
2011-05-26,25.158
2011-05-27,25.5511
2011-05-31,25.7756
2011-06-01,24.2876
2011-06-02,24.5402
2011-06-03,24.4466
2011-06-06,24.091
2011-06-07,24.1472
2011-06-08,23.988
2011-06-09,24.2313
2011-06-10,24.1752
2011-06-13,24.4373
2011-06-14,24.6713
2011-06-15,24.3717
2011-06-16,24.5777
2011-06-17,24.5121
2011-06-20,24.587
2011-06-21,24.5309
2011-06-22,24.0629
2011-06-23,23.9412
2011-06-24,23.8196
2011-06-27,24.2313
2011-06-28,24.2033
2011-06-29,24.8491
2011-06-30,25.1485
2011-07-01,25.5791
2011-07-05,25.3919
2011-07-06,25.1942
2011-07-07,25.4202
2011-07-08,24.6011
2011-07-11,24.0551
2011-07-12,24.1397
2011-07-13,24.1962
2011-07-14,23.8668
2011-07-15,23.8479
2011-07-18,23.509
2011-07-19,23.8008
2011-07-20,24.1021
2011-07-21,24.7423
2011-07-22,24.6387
2011-07-25,24.5634
2011-07-26,24.78
2011-07-27,24.1962
2011-07-28,24.2527
2011-07-29,24.2339
2011-08-01,24.1115
2011-08-02,22.9723
2011-08-03,23.1512
2011-08-04,22.2945
2011-08-05,21.965
2011-08-08,20.1478
2011-08-09,20.8728
2011-08-10,18.7074
2011-08-11,19.8466
2011-08-12,19.3381
2011-08-15,19.9501
2011-08-16,19.5924
2011-08-17,19.7525
2011-08-18,18.6415
2011-08-19,18.1613
2011-08-22,18.039
2011-08-23,18.6226
2011-08-24,19.3381
2011-08-25,19.131
2011-08-26,19.5171
2011-08-29,20.4774
2011-08-30,20.4585
2011-08-31,20.9104
2011-09-01,20.4021
2011-09-02,19.6865
2011-09-06,19.6959
2011-09-07,20.9199
2011-09-08,20.3456
2011-09-09,19.6583
2011-09-12,20.0631
2011-09-13,20.3644
2011-09-14,20.7316
2011-09-15,21.1647
2011-09-16,21.3059
2011-09-19,20.6092
2011-09-20,20.9199
2011-09-21,19.7901
2011-09-22,19.4134
2011-09-23,19.6018
2011-09-26,20.7787
2011-09-27,20.7127
2011-09-28,20.0631
2011-09-29,20.7316
2011-09-30,20.0819
2011-10-03,19.4134
2011-10-04,19.7807
2011-10-05,19.7807
2011-10-06,20.628
2011-10-07,19.6865
2011-10-10,20.6939
2011-10-11,21.0517
2011-10-12,21.6298
2011-10-13,21.3833
2011-10-14,21.3927
2011-10-17,20.5489
2011-10-18,21.6868
2011-10-19,21.1652
2011-10-20,21.3643
2011-10-21,21.8669
2011-10-24,22.4548
2011-10-25,21.6298
2011-10-26,21.9428
2011-10-27,22.7867
2011-10-28,22.6825
2011-10-31,22.1514
2011-11-01,21.3169
2011-11-02,22.1514
2011-11-03,22.6255
2011-11-04,22.123
2011-11-07,22.3695
2011-11-08,22.9764
2011-11-09,21.6394
2011-11-10,21.8859
2011-11-11,22.3411
2011-11-14,21.9143
2011-11-15,22.2273
2011-11-16,21.7815
2011-11-17,21.4213
2011-11-18,21.4876
2011-11-21,20.9377
2011-11-22,20.767
2011-11-23,19.9704
2011-11-25,20.0747
2011-11-28,20.7006
2011-11-29,20.5678
2011-11-30,21.9712
2011-12-01,21.8669
2011-12-02,22.2273
2011-12-05,22.4358
2011-12-06,22.3505
2011-12-07,22.6539
2011-12-08,21.8289
2011-12-09,22.5876
2011-12-12,22.104
2011-12-13,21.9238
2011-12-14,22.0186
2011-12-15,22.4454
2011-12-16,22.7773
2011-12-19,22.3411
2011-12-20,23.2609
2011-12-21,23.441
2011-12-22,23.9911
2011-12-23,24.1333
2011-12-27,24.0763
2011-12-28,23.6876
2011-12-29,24.0669
2011-12-30,23.8772
2012-01-03,24.5315
2012-01-04,24.7224
2012-01-05,24.98
2012-01-06,24.6365
2012-01-09,25.2281
2012-01-10,25.4762
2012-01-11,25.4953
2012-01-12,25.8102
2012-01-13,25.9819
2012-01-17,25.9724
2012-01-18,26.1537
2012-01-19,25.877
2012-01-20,26.2205
2012-01-23,26.459
2012-01-24,26.44
2012-01-25,26.4304
2012-01-26,25.7911
2012-01-27,25.7625
2012-01-30,25.9533
2012-01-31,25.9724
2012-02-01,26.6307
2012-02-02,26.7644
2012-02-03,27.7853
2012-02-06,27.5181
2012-02-07,28.186
2012-02-08,28.291
2012-02-09,28.1097
2012-02-10,27.9475
2012-02-13,28.3005
2012-02-14,28.2051
2012-02-15,27.9666
2012-02-16,28.8063
2012-02-17,28.9398
2012-02-21,28.6917
2012-02-22,28.1097
2012-02-23,28.4151
2012-02-24,28.1097
2012-02-27,28.4246
2012-02-28,28.1097
2012-02-29,27.9093
2012-03-01,27.8807
2012-03-02,27.9379
2012-03-05,27.5944
2012-03-06,27.0219
2012-03-07,27.4418
2012-03-08,27.7853
2012-03-09,28.0907
2012-03-12,27.9475
2012-03-13,28.9875
2012-03-14,28.997
2012-03-15,29.7414
2012-03-16,29.6459
2012-03-19,29.9131
2012-03-20,29.9321
2012-03-21,29.6745
2012-03-22,29.4551
2012-03-23,29.5886
2012-03-26,29.9512
2012-03-27,29.665
2012-03-28,30.4188
2012-03-29,30.0849
2012-03-30,29.9417
2012-04-02,29.8749
2012-04-03,30.2279
2012-04-04,30.1607
2012-04-05,30.0551
2012-04-09,29.4213
2012-04-10,28.7876
2012-04-11,29.3637
2012-04-12,29.9398
2012-04-13,29.2772
2012-04-16,29.6326
2012-04-17,30.0359
2012-04-18,30.0454
2012-04-19,29.8918
2012-04-20,30.3143
2012-04-23,30.4104
2012-04-24,30.66
2012-04-25,31.1305
2012-04-26,31.1497
2012-04-27,31.3322
2012-04-30,30.8041
2012-05-01,31.0633
2012-05-02,30.9097
2012-05-03,30.7752
2012-05-04,30.3143
2012-05-07,30.5928
2012-05-08,30.4007
2012-05-09,30.0359
2012-05-10,30.4775
2012-05-11,30.4679
2012-05-14,29.9014
2012-05-15,29.5173
2012-05-16,29.4501
2012-05-17,28.922
2012-05-18,28.4707
2012-05-21,28.8164
2012-05-22,28.8739
2012-05-23,28.9507
2012-05-24,29.066
2012-05-25,29.2293
2012-05-29,29.3925
2012-05-30,28.9796
2012-05-31,29.0276
2012-06-01,27.2704
2012-06-04,26.5791
2012-06-05,26.7519
2012-06-06,27.2032
2012-06-07,27.424
2012-06-08,27.8177
2012-06-11,27.3281
2012-06-12,27.8465
2012-06-13,27.6641
2012-06-14,28.1634
2012-06-15,28.6243
2012-06-18,28.8644
2012-06-19,29.0756
2012-06-20,29.0372
2012-06-21,28.778
2012-06-22,29.2004
2012-06-25,28.4514
2012-06-26,28.2978
2012-06-27,28.7108
2012-06-28,28.9892
2012-06-29,29.6038
2012-07-02,29.8918
2012-07-03,30.0466
2012-07-05,29.8919
2012-07-06,29.9403
2012-07-09,29.8243
2012-07-10,29.66
2012-07-11,29.9692
2012-07-12,29.7567
2012-07-13,30.4041
2012-07-16,30.3848
2012-07-17,30.7811
2012-07-18,30.5588
2012-07-19,30.9261
2012-07-20,30.5877
2012-07-23,30.4428
2012-07-24,30.5975
2012-07-25,30.5394
2012-07-26,31.0034
2012-07-27,31.2836
2012-07-30,30.6264
2012-07-31,30.3365
2012-08-01,30.2495
2012-08-02,30.0369
2012-08-03,30.5685
2012-08-06,30.4718
2012-08-07,30.5877
2012-08-08,30.5104
2012-08-09,30.6361
2012-08-10,30.5202
2012-08-13,30.5298
2012-08-14,30.4814
2012-08-15,30.81
2012-08-16,30.6844
2012-08-17,30.8777
2012-08-20,30.7617
2012-08-21,30.5588
2012-08-22,30.7134
2012-08-23,29.9692
2012-08-24,30.0466
2012-08-27,30.1432
2012-08-28,30.4621
2012-08-29,30.6458
2012-08-30,30.5491
2012-08-31,30.5298
2012-09-04,30.665
2012-09-05,30.6844
2012-09-06,31.216
2012-09-07,31.7475
2012-09-10,31.5058
2012-09-11,31.4962
2012-09-12,31.7571
2012-09-13,32.4723
2012-09-14,32.7913
2012-09-17,32.4433
2012-09-18,32.308
2012-09-19,32.5303
2012-09-20,32.3467
2012-09-21,32.1824
2012-09-24,32.2017
2012-09-25,32.0665
2012-09-26,31.6315
2012-09-27,31.9891
2012-09-28,32.0567
2012-10-01,31.8055
2012-10-02,31.8925
2012-10-03,32.2523
2012-10-04,32.6314
2012-10-05,32.6704
2012-10-08,32.5536
2012-10-09,32.3106
2012-10-10,32.262
2012-10-11,32.2717
2012-10-12,31.4841
2012-10-15,31.5036
2012-10-16,30.8618
2012-10-17,31.3965
2012-10-18,29.1213
2012-10-19,28.9657
2012-10-22,28.5476
2012-10-23,28.0518
2012-10-24,28.0226
2012-10-25,28.1295
2012-10-26,28.1879
2012-10-31,28.1587
2012-11-01,28.499
2012-11-02,28.5866
2012-11-05,28.1392
2012-11-06,28.4018
2012-11-07,27.0114
2012-11-08,26.9141
2012-11-09,26.7682
2012-11-12,26.9336
2012-11-13,26.6905
2012-11-14,26.3308
2012-11-15,26.8363
2012-11-16,27.2934
2012-11-19,27.5656
2012-11-20,27.6725
2012-11-21,27.585
2012-11-23,28.0129
2012-11-26,27.8962
2012-11-27,27.3517
2012-11-28,27.4392
2012-11-29,27.4198
2012-11-30,27.4392
2012-12-03,27.1475
2012-12-04,26.9336
2012-12-05,27.0502
2012-12-06,27.4489
2012-12-07,27.6045
2012-12-10,27.5754
2012-12-11,27.6628
2012-12-12,28.0421
2012-12-13,27.7892
2012-12-14,27.4878
2012-12-17,28.3727
2012-12-18,28.8491
2012-12-19,28.7032
2012-12-20,28.8199
2012-12-21,28.5866
2012-12-24,28.431
2012-12-26,28.4212
2012-12-27,28.2463
2012-12-28,28.0907
2012-12-31,28.256
2013-01-02,29.4108
2013-01-03,29.215
2013-01-04,29.5772
2013-01-07,29.4011
2013-01-08,29.1759
2013-01-09,29.3912
2013-01-10,29.8905
2013-01-11,29.6555
2013-01-14,29.5969
2013-01-15,29.7046
2013-01-16,29.6947
2013-01-17,30.3311
2013-01-18,30.3702
2013-01-22,30.1647
2013-01-23,30.1059
2013-01-24,30.2528
2013-01-25,30.1353
2013-01-28,30.3606
2013-01-29,30.292
2013-01-30,29.8809
2013-01-31,29.685
2013-02-01,30.4193
2013-02-04,29.8809
2013-02-05,30.341
2013-02-06,30.4394
2013-02-07,30.2125
2013-02-08,30.2125
2013-02-11,30.1928
2013-02-12,30.1632
2013-02-13,30.0941
2013-02-14,29.9511
2013-02-15,29.8525
2013-02-19,29.9264
2013-02-20,29.5812
2013-02-21,29.6305
2013-02-22,30.1532
2013-02-25,29.5121
2013-02-26,29.6799
2013-02-27,29.9659
2013-02-28,29.9165
2013-03-01,30.2026
2013-03-04,30.6957
2013-03-05,29.9757
2013-03-06,30.2519
2013-03-07,30.7155
2013-03-08,30.962
2013-03-11,31.3369
2013-03-12,30.9325
2013-03-13,31.1396
2013-03-14,31.2679
2013-03-15,30.5676
2013-03-18,30.2913
2013-03-19,30.3998
2013-03-20,30.5182
2013-03-21,30.2321
2013-03-22,30.3506
2013-03-25,30.4196
2013-03-26,30.7846
2013-03-27,30.8339
2013-03-28,30.962
2013-04-01,30.4491
2013-04-02,30.2321
2013-04-03,29.7686
2013-04-04,30.2026
2013-04-05,29.6798
2013-04-08,29.9462
2013-04-09,30.4787
2013-04-10,30.8931
2013-04-11,30.8141
2013-04-12,30.5576
2013-04-15,29.7192
2013-04-16,29.9954
2013-04-17,29.6601
2013-04-18,28.8611
2013-04-19,29.2951
2013-04-22,29.3247
2013-04-23,29.5713
2013-04-24,29.8179
2013-04-25,30.2321
2013-04-26,30.1532
2013-04-29,30.3604
2013-04-30,30.3406
2013-05-01,29.956
2013-05-02,30.1632
2013-05-03,30.5083
2013-05-06,30.7352
2013-05-07,31.0607
2013-05-08,31.2892
2013-05-09,31.1303
2013-05-10,31.1998
2013-05-13,31.5277
2013-05-14,32.0146
2013-05-15,32.2829
2013-05-16,31.9748
2013-05-17,32.3127
2013-05-20,32.4319
2013-05-21,32.5412
2013-05-22,32.4021
2013-05-23,32.6406
2013-05-24,32.5909
2013-05-28,32.9784
2013-05-29,33.1274
2013-05-30,33.2566
2013-05-31,32.7697
2013-06-03,32.8592
2013-06-04,32.7499
2013-06-05,32.2531
2013-06-06,32.4418
2013-06-07,33.0778
2013-06-10,33.1771
2013-06-11,33.1175
2013-06-12,32.7797
2013-06-13,33.2069
2013-06-14,32.5909
2013-06-17,32.8691
2013-06-18,33.1374
2013-06-19,32.8095
2013-06-20,32.8393
2013-06-21,33.4752
2013-06-24,33.0181
2013-06-25,33.6243
2013-06-26,33.664
2013-06-27,33.8925
2013-06-28,33.7534
2013-07-01,33.7832
2013-07-02,33.9124
2013-07-03,33.9124
2013-07-05,34.6477
2013-07-08,34.7471
2013-07-09,34.8365
2013-07-10,34.5781
2013-07-11,34.4092
2013-07-12,34.598
2013-07-15,34.8862
2013-07-16,34.5781
2013-07-17,34.5881
2013-07-18,34.8563
2013-07-19,34.8762
2013-07-22,35.2141
2013-07-23,35.4923
2013-07-24,35.4525
2013-07-25,35.3929
2013-07-26,35.5022
2013-07-29,35.2538
2013-07-30,35.4028
2013-07-31,35.4625
2013-08-01,36.2176
2013-08-02,36.1779
2013-08-05,36.1878
2013-08-06,35.8202
2013-08-07,35.52
2013-08-08,35.48
2013-08-09,35.46
