date,close_price
1998-01-02,30.58
1998-01-05,31.04
1998-01-06,31.18
1998-01-07,31.34
1998-01-08,31.84
1998-01-09,31.44
1998-01-12,31.24
1998-01-13,31.44
1998-01-14,31.38
1998-01-15,31.44
1998-01-16,31.72
1998-01-20,32.64
1998-01-21,33.3
1998-01-22,32.96
1998-01-23,33.08
1998-01-26,32.88
1998-01-27,33.28
1998-01-28,33.36
1998-01-29,33.74
1998-01-30,33.54
1998-02-02,34.62
1998-02-03,35.16
1998-02-04,35.16
1998-02-05,35.62
1998-02-06,35.58
1998-02-09,35.7
1998-02-10,35.74
1998-02-11,36.06
1998-02-12,35.88
1998-02-13,35.94
1998-02-17,36.66
1998-02-18,36.58
1998-02-19,36.6
1998-02-20,36.66
1998-02-23,37.1
1998-02-24,36.5
1998-02-25,36.92
1998-02-26,36.92
1998-02-27,37.2
1998-03-02,37.64
1998-03-03,38.1
1998-03-04,38.44
1998-03-05,38.56
1998-03-06,39.56
1998-03-09,39.22
1998-03-10,39.98
1998-03-11,41.5
1998-03-12,40.92
1998-03-13,39.64
1998-03-16,40.96
1998-03-17,42.2
1998-03-18,43.26
1998-03-19,45.1
1998-03-20,46.06
1998-03-23,44.9
1998-03-24,43.54
1998-03-25,44.0
1998-03-26,44.68
1998-03-27,44.9
1998-03-30,44.04
1998-03-31,44.9
1998-04-01,44.8
1998-04-02,44.88
1998-04-03,45.14
1998-04-06,45.64
1998-04-07,45.8
1998-04-08,46.18
1998-04-09,46.6
1998-04-13,46.66
1998-04-14,47.16
1998-04-15,47.42
1998-04-16,47.12
1998-04-17,47.14
1998-04-20,46.9
1998-04-21,45.76
1998-04-22,44.34
1998-04-23,44.12
1998-04-24,45.6
1998-04-27,44.16
1998-04-28,45.16
1998-04-29,45.4
1998-04-30,45.9
1998-05-01,46.1
1998-05-04,46.1
1998-05-05,46.18
1998-05-06,46.4
1998-05-07,46.66
1998-05-08,46.72
1998-05-11,46.92
1998-05-12,46.82
1998-05-13,47.12
1998-05-14,48.76
1998-05-15,49.56
1998-05-18,48.38
1998-05-19,48.04
1998-05-20,48.32
1998-05-21,48.36
1998-05-22,47.5
1998-05-26,47.6
1998-05-27,46.8
1998-05-28,46.7
1998-05-29,46.9
1998-06-01,47.06
1998-06-02,49.0
1998-06-03,50.1
1998-06-04,50.76
1998-06-05,51.22
1998-06-08,52.12
1998-06-09,51.96
1998-06-10,51.36
1998-06-11,51.2
1998-06-12,51.06
1998-06-15,50.1
1998-06-16,51.2
1998-06-17,52.24
1998-06-18,52.72
1998-06-19,54.08
1998-06-22,52.14
1998-06-23,52.4
1998-06-24,52.26
1998-06-25,52.02
1998-06-26,52.12
1998-06-29,52.28
1998-06-30,52.26
1998-07-01,52.04
1998-07-02,51.76
1998-07-06,52.32
1998-07-07,51.9
1998-07-08,51.96
1998-07-09,51.64
1998-07-10,51.58
1998-07-13,51.3
1998-07-14,51.34
1998-07-15,50.94
1998-07-16,50.7
1998-07-17,50.58
1998-07-20,50.82
1998-07-21,50.16
1998-07-22,48.96
1998-07-23,48.06
1998-07-24,48.18
1998-07-27,47.28
1998-07-28,46.2
1998-07-29,45.98
1998-07-30,46.4
1998-07-31,46.84
1998-08-03,47.2
1998-08-04,46.12
1998-08-05,45.98
1998-08-06,45.5
1998-08-07,46.76
1998-08-10,46.86
1998-08-11,46.08
1998-08-12,46.0
1998-08-13,46.44
1998-08-14,46.48
1998-08-17,46.44
1998-08-18,48.12
1998-08-19,48.2
1998-08-20,47.42
1998-08-21,46.2
1998-08-24,46.2
1998-08-25,46.66
1998-08-26,46.5
1998-08-27,45.02
1998-08-28,42.5
1998-08-31,40.16
1998-09-01,40.8
1998-09-02,42.6
1998-09-03,40.5
1998-09-04,39.84
1998-09-08,40.6
1998-09-09,39.94
1998-09-10,38.54
1998-09-11,38.34
1998-09-14,40.06
1998-09-15,39.58
1998-09-16,40.3
1998-09-17,39.64
1998-09-18,39.46
1998-09-21,39.3
1998-09-22,39.4
1998-09-23,40.7
1998-09-24,40.56
1998-09-25,39.98
1998-09-28,40.72
1998-09-29,40.7
1998-09-30,39.76
1998-10-01,38.74
1998-10-02,39.3
1998-10-05,39.66
1998-10-06,40.52
1998-10-07,39.64
1998-10-08,39.04
1998-10-09,40.7
1998-10-12,41.4
1998-10-13,41.7
1998-10-14,43.46
1998-10-15,45.2
1998-10-16,44.32
1998-10-19,44.16
1998-10-20,43.5
1998-10-21,42.6
1998-10-22,42.2
1998-10-23,41.86
1998-10-26,41.62
1998-10-27,41.4
1998-10-28,41.22
1998-10-29,42.1
1998-10-30,42.96
1998-11-02,43.02
1998-11-03,44.5426
1998-11-04,45.7
1998-11-05,45.3826
1998-11-06,45.22
1998-11-09,44.82
1998-11-10,44.5
1998-11-11,44.5026
1998-11-12,44.5
1998-11-13,44.28
1998-11-16,44.48
1998-11-17,44.48
1998-11-18,44.6
1998-11-19,44.5
1998-11-20,44.82
1998-11-23,46.46
1998-11-24,46.08
1998-11-25,46.16
1998-11-27,46.14
1998-11-30,45.02
1998-12-01,45.12
1998-12-02,44.48
1998-12-03,44.44
1998-12-04,44.48
1998-12-07,44.22
1998-12-08,43.02
1998-12-09,42.46
1998-12-10,41.76
1998-12-11,40.44
1998-12-14,41.8026
1998-12-15,42.2
1998-12-16,42.3426
1998-12-17,41.02
1998-12-18,40.12
1998-12-21,39.16
1998-12-22,39.62
1998-12-23,42.8
1998-12-24,45.06
1998-12-28,45.08
1998-12-29,45.66
1998-12-30,45.58
1998-12-31,47.24
1999-01-04,46.52
1999-01-05,45.4
1999-01-06,45.08
1999-01-07,43.92
1999-01-08,43.48
1999-01-11,41.76
1999-01-12,41.78
1999-01-13,41.54
1999-01-14,42.28
1999-01-15,42.58
1999-01-19,42.06
1999-01-20,42.54
1999-01-21,41.56
1999-01-22,41.52
1999-01-25,42.6
1999-01-26,42.36
1999-01-27,42.28
1999-01-28,42.78
1999-01-29,43.0
1999-02-01,45.98
1999-02-02,49.28
1999-02-03,50.48
1999-02-04,47.66
1999-02-05,47.4
1999-02-08,48.58
1999-02-09,47.96
1999-02-10,48.16
1999-02-11,48.22
1999-02-12,47.36
1999-02-16,47.74
1999-02-17,47.42
1999-02-18,47.94
1999-02-19,48.06
1999-02-22,48.04
1999-02-23,47.8
1999-02-24,47.94
1999-02-25,47.96
1999-02-26,47.46
1999-03-01,47.76
1999-03-02,48.38
1999-03-03,48.18
1999-03-04,48.7
1999-03-05,48.22
1999-03-08,48.6
1999-03-09,48.36
1999-03-10,49.08
1999-03-11,50.12
1999-03-12,52.84
1999-03-15,49.7
1999-03-16,48.0026
1999-03-17,50.2
1999-03-18,51.86
1999-03-19,50.8
1999-03-22,50.78
1999-03-23,48.9
1999-03-24,48.7
1999-03-25,48.56
1999-03-26,48.48
1999-03-29,48.4
1999-03-30,47.34
1999-03-31,47.2
1999-04-01,48.5
1999-04-05,47.68
1999-04-06,47.78
1999-04-07,46.68
1999-04-08,47.0
1999-04-09,46.96
1999-04-12,47.24
1999-04-13,47.0
1999-04-14,46.9226
1999-04-15,47.1
1999-04-16,48.0
1999-04-19,48.0
1999-04-20,48.12
1999-04-21,49.06
1999-04-22,49.7
1999-04-23,49.52
1999-04-26,49.6
1999-04-27,49.78
1999-04-28,49.66
1999-04-29,49.26
1999-04-30,49.4
1999-05-03,49.0
1999-05-04,49.28
1999-05-05,49.94
1999-05-06,50.0
1999-05-07,49.54
1999-05-10,49.82
1999-05-11,50.7
1999-05-12,50.12
1999-05-13,49.2
1999-05-14,47.94
1999-05-17,46.94
1999-05-18,47.46
1999-05-19,48.2
1999-05-20,47.9
1999-05-21,48.6
1999-05-24,48.02
1999-05-25,47.5
1999-05-26,46.98
1999-05-27,46.32
1999-05-28,46.24
1999-06-01,46.38
1999-06-02,46.32
1999-06-03,46.08
1999-06-04,46.7
1999-06-07,47.62
1999-06-08,47.82
1999-06-09,47.24
1999-06-10,46.56
1999-06-11,46.4
1999-06-14,45.92
1999-06-15,46.22
1999-06-16,46.5
1999-06-17,46.38
1999-06-18,45.6
1999-06-21,45.76
1999-06-22,44.96
1999-06-23,45.22
1999-06-24,44.64
1999-06-25,44.58
1999-06-28,44.5
1999-06-29,44.82
1999-06-30,44.98
1999-07-01,44.9
1999-07-02,45.5
1999-07-06,45.84
1999-07-07,46.26
1999-07-08,46.26
1999-07-09,45.76
1999-07-12,45.64
1999-07-13,45.48
1999-07-14,45.9
1999-07-15,45.6
1999-07-16,45.6
1999-07-19,45.26
1999-07-20,45.02
1999-07-21,44.82
1999-07-22,44.64
1999-07-23,44.3
1999-07-26,43.96
1999-07-27,43.74
1999-07-28,43.22
1999-07-29,43.42
1999-07-30,42.58
1999-08-02,41.86
1999-08-03,41.6
1999-08-04,41.4
1999-08-05,41.84
1999-08-06,40.8
1999-08-09,40.3
1999-08-10,40.6
1999-08-11,42.48
1999-08-12,42.6
1999-08-13,42.08
1999-08-16,41.38
1999-08-17,41.0
1999-08-18,40.56
1999-08-19,40.2
1999-08-20,40.32
1999-08-23,41.2
1999-08-24,40.76
1999-08-25,40.38
1999-08-26,40.1
1999-08-27,40.42
1999-08-30,40.06
1999-08-31,40.08
1999-09-01,40.32
1999-09-02,40.48
1999-09-03,40.6
1999-09-07,40.2
1999-09-08,40.12
1999-09-09,40.0
1999-09-10,39.8
1999-09-13,39.5
1999-09-14,38.8
1999-09-15,39.32
1999-09-16,39.88
1999-09-17,40.1
1999-09-20,40.4
1999-09-21,40.04
1999-09-22,39.08
1999-09-23,38.86
1999-09-24,38.68
1999-09-27,38.0226
1999-09-28,37.44
1999-09-29,37.24
1999-09-30,36.8
1999-10-01,36.74
1999-10-04,37.8
1999-10-05,38.28
1999-10-06,38.72
1999-10-07,38.2
1999-10-08,38.28
1999-10-11,38.88
1999-10-12,38.02
1999-10-13,38.3
1999-10-14,38.12
1999-10-15,37.56
1999-10-18,37.14
1999-10-19,37.52
1999-10-20,37.12
1999-10-21,36.0
1999-10-22,36.18
1999-10-25,36.66
1999-10-26,37.04
1999-10-27,37.4
1999-10-28,38.94
1999-10-29,41.72
1999-11-01,41.66
1999-11-02,42.84
1999-11-03,42.98
1999-11-04,43.26
1999-11-05,42.56
1999-11-08,41.76
1999-11-09,40.2
1999-11-10,39.72
1999-11-11,39.16
1999-11-12,39.0
1999-11-15,38.62
1999-11-16,38.0
1999-11-17,37.88
1999-11-18,38.34
1999-11-19,37.1
1999-11-22,38.3
1999-11-23,37.76
1999-11-24,37.82
1999-11-26,37.66
1999-11-29,37.48
1999-11-30,37.34
1999-12-01,37.2
1999-12-02,36.94
1999-12-03,36.94
1999-12-06,36.72
1999-12-07,36.16
1999-12-08,36.0
1999-12-09,35.7
1999-12-10,35.9
1999-12-13,35.7
1999-12-14,34.92
1999-12-15,35.02
1999-12-16,34.5
1999-12-17,35.0
1999-12-20,35.06
1999-12-21,34.48
1999-12-22,34.52
1999-12-23,34.34
1999-12-27,34.26
1999-12-28,34.2
1999-12-29,34.4
1999-12-30,34.2
1999-12-31,36.6
2000-01-03,35.3
2000-01-04,34.06
2000-01-05,34.64
2000-01-06,36.02
2000-01-07,36.56
2000-01-10,36.2
2000-01-11,35.46
2000-01-12,34.88
2000-01-13,35.12
2000-01-14,34.1
2000-01-18,33.98
2000-01-19,34.16
2000-01-20,34.08
2000-01-21,34.22
2000-01-24,33.94
2000-01-25,34.06
2000-01-26,34.22
2000-01-27,33.88
2000-01-28,33.2
2000-01-31,33.0
2000-02-01,33.5
2000-02-02,32.8
2000-02-03,33.36
2000-02-04,33.04
2000-02-07,33.16
2000-02-08,32.64
2000-02-09,31.76
2000-02-10,30.92
2000-02-11,29.94
2000-02-14,28.5
2000-02-15,30.54
2000-02-16,33.24
2000-02-17,32.66
2000-02-18,33.56
2000-02-22,32.365
2000-02-23,32.16
2000-02-24,30.74
2000-02-25,29.7
2000-02-28,29.2
2000-02-29,28.9
2000-03-01,29.22
2000-03-02,29.16
2000-03-03,29.36
2000-03-06,28.86
2000-03-07,28.98
2000-03-08,28.8
2000-03-09,27.9
2000-03-10,27.26
2000-03-13,29.64
2000-03-14,29.0426
2000-03-15,32.6
2000-03-16,34.08
2000-03-17,33.86
2000-03-20,33.56
2000-03-21,35.84
2000-03-22,36.06
2000-03-23,35.46
2000-03-24,35.98
2000-03-27,34.1
2000-03-28,33.16
2000-03-29,33.38
2000-03-30,34.76
2000-03-31,36.38
2000-04-03,35.6
2000-04-04,36.12
2000-04-05,36.76
2000-04-06,37.2
2000-04-07,36.8
2000-04-10,36.4
2000-04-11,36.1
2000-04-12,37.4
2000-04-13,37.86
2000-04-14,36.94
2000-04-17,37.18
2000-04-18,37.66
2000-04-19,37.66
2000-04-20,38.32
2000-04-24,38.8
2000-04-25,39.0
2000-04-26,38.5
2000-04-27,38.34
2000-04-28,38.32
2000-05-01,37.18
2000-05-02,34.98
2000-05-03,34.86
2000-05-04,35.48
2000-05-05,35.88
2000-05-08,36.0026
2000-05-09,35.36
2000-05-10,35.1
2000-05-11,35.44
2000-05-12,35.4
2000-05-15,37.86
2000-05-16,38.5
2000-05-17,37.94
2000-05-18,37.96
2000-05-19,37.3
2000-05-22,36.66
2000-05-23,35.9
2000-05-24,36.12
2000-05-25,36.88
2000-05-26,36.52
2000-05-30,37.94
2000-05-31,37.64
2000-06-01,38.72
2000-06-02,38.44
2000-06-05,38.84
2000-06-06,38.8
2000-06-07,39.24
2000-06-08,39.14
2000-06-09,39.08
2000-06-12,38.4
2000-06-13,38.6
2000-06-14,37.46
2000-06-15,36.94
2000-06-16,36.58
2000-06-19,36.96
2000-06-20,37.0
2000-06-21,36.78
2000-06-22,35.68
2000-06-23,35.28
2000-06-26,35.8
2000-06-27,35.2
2000-06-28,34.72
2000-06-29,34.96
2000-06-30,35.2
2000-07-03,35.08
2000-07-05,35.0
2000-07-06,34.8
2000-07-07,35.2
2000-07-10,35.4
2000-07-11,35.64
2000-07-12,35.8
2000-07-13,36.06
2000-07-14,36.32
2000-07-17,36.4026
2000-07-18,36.36
2000-07-19,36.0426
2000-07-20,35.36
2000-07-21,35.2
2000-07-24,34.56
2000-07-25,35.62
2000-07-26,37.2
2000-07-27,38.0
2000-07-28,37.42
2000-07-31,36.58
2000-08-01,37.2426
2000-08-02,37.88
2000-08-03,39.24
2000-08-04,41.4026
2000-08-07,41.06
2000-08-08,40.72
2000-08-09,40.84
2000-08-10,40.92
2000-08-11,40.82
2000-08-14,41.1
2000-08-15,40.54
2000-08-16,40.92
2000-08-17,40.84
2000-08-18,40.36
2000-08-21,40.28
2000-08-22,40.0
2000-08-23,39.2
2000-08-24,38.48
2000-08-25,37.72
2000-08-28,37.94
2000-08-29,37.88
2000-08-30,38.2
2000-08-31,38.26
2000-09-01,39.04
2000-09-05,38.9
2000-09-06,38.22
2000-09-07,37.68
2000-09-08,37.88
2000-09-11,37.86
2000-09-12,38.32
2000-09-13,38.08
2000-09-14,38.48
2000-09-15,38.24
2000-09-18,38.96
2000-09-19,37.16
2000-09-20,37.1
2000-09-21,36.6
2000-09-22,36.9
2000-09-25,37.22
2000-09-26,38.14
2000-09-27,38.2
2000-09-28,39.36
2000-09-29,41.46
2000-10-02,41.4
2000-10-03,40.16
2000-10-04,39.38
2000-10-05,39.48
2000-10-06,38.88
2000-10-09,39.14
2000-10-10,38.64
2000-10-11,37.52
2000-10-12,35.54
2000-10-13,37.86
2000-10-16,37.74
2000-10-17,37.74
2000-10-18,37.7
2000-10-19,38.92
2000-10-20,39.14
2000-10-23,38.56
2000-10-24,38.68
2000-10-25,39.58
2000-10-26,39.8
2000-10-27,39.82
2000-10-30,41.68
2000-10-31,42.06
2000-11-01,42.1
2000-11-02,42.28
2000-11-03,41.88
2000-11-06,42.9
2000-11-07,42.64
2000-11-08,42.42
2000-11-09,40.7
2000-11-10,40.74
2000-11-13,42.94
2000-11-14,43.8
2000-11-15,43.54
2000-11-16,43.08
2000-11-17,42.26
2000-11-20,41.98
2000-11-21,41.36
2000-11-22,41.28
2000-11-24,41.8226
2000-11-27,41.66
2000-11-28,41.46
2000-11-29,42.98
2000-11-30,43.5
2000-12-01,43.0
2000-12-04,43.1
2000-12-05,43.8
2000-12-06,43.4
2000-12-07,43.2
2000-12-08,45.78
2000-12-11,46.1
2000-12-12,45.46
2000-12-13,45.6
2000-12-14,45.0
2000-12-15,44.76
2000-12-18,45.22
2000-12-19,44.54
2000-12-20,43.52
2000-12-21,43.42
2000-12-22,43.74
2000-12-26,43.98
2000-12-27,45.04
2000-12-28,46.16
2000-12-29,47.06
2001-01-02,48.22
2001-01-03,46.68
2001-01-04,45.8
2001-01-05,44.9
2001-01-08,44.74
2001-01-09,43.96
2001-01-10,44.7
2001-01-11,43.4
2001-01-12,43.86
2001-01-16,44.8
2001-01-17,45.0
2001-01-18,45.28
2001-01-19,44.82
2001-01-22,44.88
2001-01-23,44.7
2001-01-24,44.3
2001-01-25,44.44
2001-01-26,44.44
2001-01-29,44.5
2001-01-30,45.4
2001-01-31,45.14
2001-02-01,45.9
2001-02-02,46.56
2001-02-05,45.96
2001-02-06,45.5
2001-02-07,45.1
2001-02-08,46.0
2001-02-09,45.9
2001-02-12,46.24
2001-02-13,46.96
2001-02-14,46.52
2001-02-15,46.6
2001-02-16,46.58
2001-02-20,45.72
2001-02-21,45.76
2001-02-22,45.6
2001-02-23,45.52
2001-02-26,46.64
2001-02-27,47.14
2001-02-28,46.7
2001-03-01,46.76
2001-03-02,46.34
2001-03-05,47.4
2001-03-06,47.32
2001-03-07,47.44
2001-03-08,47.72
2001-03-09,47.46
2001-03-12,46.7
2001-03-13,46.0
2001-03-14,43.78
2001-03-15,45.2
2001-03-16,43.32
2001-03-19,43.22
2001-03-20,42.9
2001-03-21,43.18
2001-03-22,42.88
2001-03-23,44.16
2001-03-26,44.26
2001-03-27,45.22
2001-03-28,43.14
2001-03-29,42.1
2001-03-30,43.4
2001-04-02,42.5
2001-04-03,41.94
2001-04-04,43.2
2001-04-05,45.02
2001-04-06,44.54
2001-04-09,44.24
2001-04-10,43.0
2001-04-11,42.9
2001-04-12,42.6
2001-04-16,42.64
2001-04-17,44.98
2001-04-18,45.4
2001-04-19,45.92
2001-04-20,45.76
2001-04-23,45.64
2001-04-24,44.72
2001-04-25,43.76
2001-04-26,44.04
2001-04-27,44.78
2001-04-30,45.54
2001-05-01,45.52
2001-05-02,45.4
2001-05-03,45.32
2001-05-04,45.8
2001-05-07,46.3
2001-05-08,46.1
2001-05-09,45.92
2001-05-10,45.44
2001-05-11,45.36
2001-05-14,44.9
2001-05-15,44.86
2001-05-16,44.7
2001-05-17,44.56
2001-05-18,44.82
2001-05-21,45.34
2001-05-22,45.24
2001-05-23,45.34
2001-05-24,45.0
2001-05-25,45.2
2001-05-29,45.4
2001-05-30,45.24
2001-05-31,45.5
2001-06-01,45.48
2001-06-04,45.64
2001-06-05,45.66
2001-06-06,45.9
2001-06-07,45.58
2001-06-08,45.3
2001-06-11,45.14
2001-06-12,45.6202
2001-06-13,45.7
2001-06-14,45.2
2001-06-15,43.6
2001-06-18,44.19
2001-06-19,43.96
2001-06-20,43.78
2001-06-21,43.04
2001-06-22,44.6
2001-06-25,44.32
2001-06-26,44.74
2001-06-27,45.04
2001-06-28,45.16
2001-06-29,46.0
2001-07-02,45.94
2001-07-03,45.9
2001-07-05,45.84
2001-07-06,46.74
2001-07-09,47.0
2001-07-10,46.98
2001-07-11,46.94
2001-07-12,45.98
2001-07-13,45.98
2001-07-16,45.405
2001-07-17,45.92
2001-07-18,45.98
2001-07-19,45.26
2001-07-20,45.24
2001-07-23,45.3
2001-07-24,45.16
2001-07-25,45.2
2001-07-26,45.2
2001-07-27,45.32
2001-07-30,45.0
2001-07-31,45.82
2001-08-01,46.2
2001-08-02,45.02
2001-08-03,45.12
2001-08-06,45.84
2001-08-07,45.8
2001-08-08,45.88
2001-08-09,46.235
2001-08-10,45.8
2001-08-13,46.16
2001-08-14,46.1
2001-08-15,46.26
2001-08-16,46.36
2001-08-17,46.14
2001-08-20,46.54
2001-08-21,46.26
2001-08-22,46.42
2001-08-23,46.54
2001-08-24,46.4
2001-08-27,46.5
2001-08-28,46.6
2001-08-29,46.56
2001-08-30,46.4
2001-08-31,46.26
2001-09-04,46.3
2001-09-05,46.32
2001-09-06,46.6
2001-09-07,45.86
2001-09-10,45.48
2001-09-17,42.76
2001-09-18,42.5
2001-09-19,40.94
2001-09-20,41.72
2001-09-21,41.66
2001-09-24,42.46
2001-09-25,43.36
2001-09-26,45.24
2001-09-27,46.36
2001-09-28,46.6
2001-10-01,46.72
2001-10-02,46.74
2001-10-03,48.5
2001-10-04,47.72
2001-10-05,48.08
2001-10-08,48.34
2001-10-09,48.7
2001-10-10,49.86
2001-10-11,49.82
2001-10-12,49.06
2001-10-15,49.9
2001-10-16,49.66
2001-10-17,49.56
2001-10-18,49.64
2001-10-19,49.77
2001-10-22,49.64
2001-10-23,49.0402
2001-10-24,48.96
2001-10-25,48.92
2001-10-26,48.38
2001-10-29,48.2
2001-10-30,46.66
2001-10-31,47.08
2001-11-01,47.74
2001-11-02,47.94
2001-11-05,47.54
2001-11-06,48.54
2001-11-07,47.3
2001-11-08,47.18
2001-11-09,46.24
2001-11-12,45.4
2001-11-13,45.2
2001-11-14,45.3
2001-11-15,44.8
2001-11-16,44.76
2001-11-19,44.28
2001-11-20,44.88
2001-11-21,44.9
2001-11-23,45.2
2001-11-26,44.74
2001-11-27,44.98
2001-11-28,45.5
2001-11-29,46.74
2001-11-30,46.76
2001-12-03,46.6
2001-12-04,46.7
2001-12-05,46.68
2001-12-06,46.4
2001-12-07,45.9
2001-12-10,45.04
2001-12-11,45.48
2001-12-12,46.08
2001-12-13,45.54
2001-12-14,46.7
2001-12-17,46.84
2001-12-18,46.42
2001-12-19,47.06
2001-12-20,47.3
2001-12-21,47.1
2001-12-24,47.34
2001-12-26,47.6
2001-12-27,48.68
2001-12-28,49.36
2001-12-31,50.1
2002-01-02,49.66
2002-01-03,49.46
2002-01-04,49.12
2002-01-07,49.1
2002-01-08,47.8
2002-01-09,48.52
2002-01-10,47.9
2002-01-11,49.3
2002-01-14,49.34
2002-01-15,49.62
2002-01-16,49.76
2002-01-17,49.915
2002-01-18,49.9
2002-01-22,49.6
2002-01-23,49.0
2002-01-24,49.28
2002-01-25,49.36
2002-01-28,49.48
2002-01-29,49.18
2002-01-30,49.16
2002-01-31,49.06
2002-02-01,49.04
2002-02-04,48.62
2002-02-05,48.56
2002-02-06,48.34
2002-02-07,48.26
2002-02-08,48.8
2002-02-11,49.06
2002-02-12,49.02
2002-02-13,49.2
2002-02-14,49.0
2002-02-15,48.9
2002-02-19,48.66
2002-02-20,48.68
2002-02-21,48.44
2002-02-22,48.82
2002-02-25,48.5
2002-02-26,49.0
2002-02-27,48.44
2002-02-28,48.5
2002-03-01,48.9
2002-03-04,48.44
2002-03-05,48.0
2002-03-06,47.0
2002-03-07,46.3
2002-03-08,47.9
2002-03-11,47.8
2002-03-12,47.6
2002-03-13,47.66
2002-03-14,48.0
2002-03-15,48.8
2002-03-18,49.08
2002-03-19,48.92
2002-03-20,48.74
2002-03-21,48.3
2002-03-22,47.82
2002-03-25,47.74
2002-03-26,47.72
2002-03-27,47.56
2002-03-28,47.16
2002-04-01,47.2
2002-04-02,48.16
2002-04-03,48.0
2002-04-04,47.28
2002-04-05,47.3
2002-04-08,46.92
2002-04-09,47.72
2002-04-10,47.3
2002-04-11,47.06
2002-04-12,47.12
2002-04-15,47.0
2002-04-16,46.8
2002-04-17,47.1
2002-04-18,46.98
2002-04-19,47.04
2002-04-22,46.58
2002-04-23,47.7
2002-04-24,47.58
2002-04-25,47.36
2002-04-26,46.52
2002-04-29,47.64
2002-04-30,48.76
2002-05-01,49.7
2002-05-02,49.4
2002-05-03,49.36
2002-05-06,49.0
2002-05-07,49.955
2002-05-08,50.0
2002-05-09,50.2
2002-05-10,50.32
2002-05-13,51.62
2002-05-14,51.88
2002-05-15,51.92
2002-05-16,51.68
2002-05-17,52.12
2002-05-20,51.54
2002-05-21,51.6
2002-05-22,50.4
2002-05-23,50.4
2002-05-24,50.96
2002-05-28,51.02
2002-05-29,50.28
2002-05-30,49.44
2002-05-31,49.54
2002-06-03,48.98
2002-06-04,49.68
2002-06-05,49.38
2002-06-06,49.78
2002-06-07,49.54
2002-06-10,49.0
2002-06-11,48.12
2002-06-12,48.64
2002-06-13,49.28
2002-06-14,48.7
2002-06-17,49.18
2002-06-18,49.14
2002-06-19,48.16
2002-06-20,48.24
2002-06-21,48.06
2002-06-24,47.2
2002-06-25,46.22
2002-06-26,45.22
2002-06-27,44.9
2002-06-28,44.6
2002-07-01,44.4
2002-07-02,43.6
2002-07-03,44.44
2002-07-05,45.12
2002-07-08,45.94
2002-07-09,46.2
2002-07-10,45.88
2002-07-11,45.02
2002-07-12,44.138
2002-07-15,43.2
2002-07-16,43.92
2002-07-17,43.9
2002-07-18,44.46
2002-07-19,44.68
2002-07-22,41.62
2002-07-23,39.98
2002-07-24,41.6
2002-07-25,41.66
2002-07-26,42.18
2002-07-29,45.7002
2002-07-30,46.84
2002-07-31,46.0
2002-08-01,46.48
2002-08-02,46.88
2002-08-05,45.6
2002-08-06,46.34
2002-08-07,46.74
2002-08-08,47.18
2002-08-09,47.52
2002-08-12,48.46
2002-08-13,49.16
2002-08-14,48.8
2002-08-15,49.88
2002-08-16,49.94
2002-08-19,49.72
2002-08-20,48.94
2002-08-21,49.46
2002-08-22,49.98
2002-08-23,50.1
2002-08-26,50.0
2002-08-27,50.02
2002-08-28,49.48
2002-08-29,49.46
2002-08-30,48.8
2002-09-03,48.22
2002-09-04,48.14
2002-09-05,49.0
2002-09-06,49.0602
2002-09-09,49.82
2002-09-10,50.42
2002-09-11,50.16
2002-09-12,50.18
2002-09-13,49.7
2002-09-16,49.84
2002-09-17,49.9
2002-09-18,49.74
2002-09-19,48.28
2002-09-20,48.1
2002-09-23,47.08
2002-09-24,47.8
2002-09-25,47.95
2002-09-26,48.14
2002-09-27,48.72
2002-09-30,49.2
2002-10-01,48.78
2002-10-02,47.8
2002-10-03,48.24
2002-10-04,48.6
2002-10-07,47.72
2002-10-08,46.72
2002-10-09,45.28
2002-10-10,45.24
2002-10-11,46.96
2002-10-14,47.1
2002-10-15,48.68
2002-10-16,48.18
2002-10-17,49.12
2002-10-18,49.2
2002-10-21,48.7
2002-10-22,49.12
2002-10-23,49.2
2002-10-24,49.08
2002-10-25,48.85
2002-10-28,49.14
2002-10-29,48.6
2002-10-30,48.72
2002-10-31,49.2
2002-11-01,49.16
2002-11-04,49.32
2002-11-05,49.42
2002-11-06,49.4
2002-11-07,49.14
2002-11-08,50.0
2002-11-11,49.3
2002-11-12,48.6
2002-11-13,48.6002
2002-11-14,49.0
2002-11-15,49.26
2002-11-18,49.0
2002-11-19,49.2
2002-11-20,48.44
2002-11-21,48.3
2002-11-22,48.02
2002-11-25,47.18
2002-11-26,46.7
2002-11-27,47.42
2002-11-29,48.22
2002-12-02,48.22
2002-12-03,47.76
2002-12-04,47.16
2002-12-05,46.9
2002-12-06,46.7002
2002-12-09,46.1
2002-12-10,46.8
2002-12-11,47.38
2002-12-12,47.7
2002-12-13,47.26
2002-12-16,47.12
2002-12-17,47.9
2002-12-18,47.7
2002-12-19,47.36
2002-12-20,47.28
2002-12-23,47.04
2002-12-24,47.84
2002-12-26,48.3602
2002-12-27,48.38
2002-12-30,48.36
2002-12-31,48.48
2003-01-02,47.88
2003-01-03,48.0
2003-01-06,47.16
2003-01-07,47.0
2003-01-08,47.32
2003-01-09,47.16
2003-01-10,46.96
2003-01-13,46.675
2003-01-14,46.5
2003-01-15,46.5
2003-01-16,46.26
2003-01-17,46.26
2003-01-21,45.38
2003-01-22,45.5
2003-01-23,46.16
2003-01-24,45.76
2003-01-27,44.78
2003-01-28,44.96
2003-01-29,44.86
2003-01-30,44.7602
2003-01-31,44.52
2003-02-03,45.32
2003-02-04,44.02
2003-02-05,44.76
2003-02-06,43.3
2003-02-07,42.6
2003-02-10,42.0
2003-02-11,42.46
2003-02-12,41.96
2003-02-13,41.2
2003-02-14,40.7
2003-02-18,41.8
2003-02-19,42.84
2003-02-20,41.7
2003-02-21,42.0
2003-02-24,42.34
2003-02-25,42.0002
2003-02-26,41.86
2003-02-27,41.88
2003-02-28,41.34
2003-03-03,42.28
2003-03-04,42.66
2003-03-05,42.1
2003-03-06,42.24
2003-03-07,42.76
2003-03-10,45.09
2003-03-11,44.86
2003-03-12,45.04
2003-03-13,45.638
2003-03-14,45.56
2003-03-17,46.0
2003-03-18,45.28
2003-03-19,45.94
2003-03-20,46.04
2003-03-21,45.8
2003-03-24,44.6
2003-03-25,44.44
2003-03-26,44.0
2003-03-27,43.7
2003-03-28,43.64
2003-03-31,42.8
2003-04-01,43.68
2003-04-02,46.42
2003-04-03,45.96
2003-04-04,46.2
2003-04-07,46.3
2003-04-08,46.28
2003-04-09,46.58
2003-04-10,46.6
2003-04-11,46.68
2003-04-14,47.7
2003-04-15,47.34
2003-04-16,47.44
2003-04-17,47.86
2003-04-21,48.08
2003-04-22,48.84
2003-04-23,48.52
2003-04-24,48.04
2003-04-25,47.1
2003-04-28,47.06
2003-04-29,46.94
2003-04-30,46.64
2003-05-01,46.66
2003-05-02,47.04
2003-05-05,48.5766
2003-05-06,49.2
2003-05-07,49.22
2003-05-08,48.5
2003-05-09,48.3
2003-05-12,49.28
2003-05-13,49.24
2003-05-14,49.12
2003-05-15,49.14
2003-05-16,49.17
2003-05-19,48.94
2003-05-20,48.9
2003-05-21,48.58
2003-05-22,48.82
2003-05-23,49.22
2003-05-27,49.24
2003-05-28,48.56
2003-05-29,47.94
2003-05-30,47.44
2003-06-02,47.7
2003-06-03,48.34
2003-06-04,48.4
2003-06-05,48.06
2003-06-06,47.96
2003-06-09,47.87
2003-06-10,48.0
2003-06-11,48.1
2003-06-12,48.36
2003-06-13,48.96
2003-06-16,49.36
2003-06-17,49.68
2003-06-18,49.985
2003-06-19,49.82
2003-06-20,49.88
2003-06-23,50.02
2003-06-24,50.12
2003-06-25,49.28
2003-06-26,49.17
2003-06-27,48.72
2003-06-30,48.54
2003-07-01,48.4
2003-07-02,48.418
2003-07-03,48.14
2003-07-07,48.02
2003-07-08,47.48
2003-07-09,48.315
2003-07-10,48.88
2003-07-11,48.86
2003-07-14,49.36
2003-07-15,48.7
2003-07-16,48.0794
2003-07-17,47.94
2003-07-18,47.82
2003-07-21,47.4
2003-07-22,47.5
2003-07-23,47.88
2003-07-24,47.96
2003-07-25,47.74
2003-07-28,48.18
2003-07-29,48.36
2003-07-30,48.1648
2003-07-31,48.06
2003-08-01,47.86
2003-08-04,48.065
2003-08-05,47.8
2003-08-06,47.92
2003-08-07,48.04
2003-08-08,48.3
2003-08-11,49.76
2003-08-12,50.358
2003-08-13,50.1
2003-08-14,50.23
2003-08-15,50.2
2003-08-18,50.36
2003-08-19,50.568
2003-08-20,50.7348
2003-08-21,50.84
2003-08-22,50.88
2003-08-25,50.28
2003-08-26,50.6
2003-08-27,50.52
2003-08-28,50.5
2003-08-29,50.46
2003-09-02,50.52
2003-09-03,50.53
2003-09-04,50.44
2003-09-05,50.32
2003-09-08,50.42
2003-09-09,50.5002
2003-09-10,50.48
2003-09-11,50.56
2003-09-12,50.26
2003-09-15,49.68
2003-09-16,50.42
2003-09-17,49.8
2003-09-18,50.0
2003-09-19,50.755
2003-09-22,50.56
2003-09-23,50.44
2003-09-24,50.2
2003-09-25,50.26
2003-09-26,50.03
2003-09-29,50.14
2003-09-30,50.0
2003-10-01,50.24
2003-10-02,50.22
2003-10-03,50.67
2003-10-06,50.48
2003-10-07,50.4
2003-10-08,50.5
2003-10-09,50.47
2003-10-10,50.45
2003-10-13,50.656
2003-10-14,50.95
2003-10-15,51.12
2003-10-16,51.834
2003-10-17,51.29
2003-10-20,50.58
2003-10-21,50.8
2003-10-22,50.52
2003-10-23,50.58
2003-10-24,50.88
2003-10-27,51.04
2003-10-28,51.84
2003-10-29,51.82
2003-10-30,52.02
2003-10-31,51.96
2003-11-03,52.6
2003-11-04,53.3102
2003-11-05,53.44
2003-11-06,53.42
2003-11-07,53.29
2003-11-10,53.26
2003-11-11,53.44
2003-11-12,53.72
2003-11-13,53.84
2003-11-14,54.38
2003-11-17,54.43
2003-11-18,54.58
2003-11-19,54.79
2003-11-20,54.765
2003-11-21,55.16
2003-11-24,55.596
2003-11-25,56.12
2003-11-26,55.72
2003-11-28,56.02
2003-12-01,56.08
2003-12-02,56.02
2003-12-03,55.97
2003-12-04,56.08
2003-12-05,55.998
2003-12-08,56.15
2003-12-09,55.88
2003-12-10,55.9
2003-12-11,55.762
2003-12-12,55.62
2003-12-15,55.26
2003-12-16,55.32
2003-12-17,54.7
2003-12-18,55.22
2003-12-19,55.36
2003-12-22,55.5
2003-12-23,55.26
2003-12-24,55.4
2003-12-26,55.338
2003-12-29,56.1
2003-12-30,56.35
2003-12-31,56.28
2004-01-02,56.06
2004-01-05,56.68
2004-01-06,57.24
2004-01-07,57.3202
2004-01-08,56.7
2004-01-09,57.16
2004-01-12,57.0
2004-01-13,57.32
2004-01-14,57.435
2004-01-15,57.16
2004-01-16,57.45
2004-01-20,57.8
2004-01-21,58.26
2004-01-22,58.98
2004-01-23,59.7578
2004-01-26,60.24
2004-01-27,60.0
2004-01-28,59.298
2004-01-29,59.06
2004-01-30,59.62
2004-02-02,59.8
2004-02-03,60.462
2004-02-04,60.38
2004-02-05,59.96
2004-02-06,60.12
2004-02-09,60.3002
2004-02-10,61.24
2004-02-11,61.24
2004-02-12,61.2
2004-02-13,61.27
2004-02-17,61.32
2004-02-18,61.8
2004-02-19,62.164
2004-02-20,62.28
2004-02-23,63.08
2004-02-24,63.428
2004-02-25,63.5
2004-02-26,63.14
2004-02-27,62.68
2004-03-01,62.462
2004-03-02,62.06
2004-03-03,61.16
2004-03-04,61.3
2004-03-05,61.96
2004-03-08,62.64
2004-03-09,63.12
2004-03-10,62.4202
2004-03-11,61.04
2004-03-12,61.48
2004-03-15,61.22
2004-03-16,61.16
2004-03-17,61.14
2004-03-18,61.27
2004-03-19,61.64
2004-03-22,61.28
2004-03-23,60.8
2004-03-24,60.66
2004-03-25,60.8002
2004-03-26,61.08
2004-03-29,61.48
2004-03-30,61.96
2004-03-31,62.2402
2004-04-01,62.56
2004-04-02,62.78
2004-04-05,63.52
2004-04-06,63.0
2004-04-07,62.98
2004-04-08,62.878
2004-04-12,63.48
2004-04-13,62.36
2004-04-14,62.58
2004-04-15,61.8
2004-04-16,61.54
2004-04-19,61.82
2004-04-20,61.7
2004-04-21,61.32
2004-04-22,61.18
2004-04-23,62.08
2004-04-26,62.08
2004-04-27,62.0
2004-04-28,62.04
2004-04-29,62.28
2004-04-30,62.3
2004-05-03,61.958
2004-05-04,61.56
2004-05-05,62.12
2004-05-06,60.92
2004-05-07,60.94
2004-05-10,57.9
2004-05-11,58.64
2004-05-12,57.62
2004-05-13,57.08
2004-05-14,57.76
2004-05-17,57.61
2004-05-18,58.75
2004-05-19,59.28
2004-05-20,59.8
2004-05-21,59.4
2004-05-24,58.68
2004-05-25,58.08
2004-05-26,58.3
2004-05-27,59.12
2004-05-28,59.4
2004-06-01,59.92
2004-06-02,59.83
2004-06-03,59.05
2004-06-04,59.48
2004-06-07,59.82
2004-06-08,59.74
2004-06-09,59.8
2004-06-10,59.7
2004-06-14,59.16
2004-06-15,59.399
2004-06-16,58.9
2004-06-17,58.78
2004-06-18,58.16
2004-06-21,57.8
2004-06-22,57.54
2004-06-23,57.968
2004-06-24,58.1
2004-06-25,58.46
2004-06-28,58.25
2004-06-29,58.76
2004-06-30,59.1
2004-07-01,59.65
2004-07-02,59.92
2004-07-06,60.0802
2004-07-07,59.982
2004-07-08,60.0598
2004-07-09,59.92
2004-07-12,60.145
2004-07-13,60.4
2004-07-14,60.0
2004-07-15,60.12
2004-07-16,60.42
2004-07-19,60.3252
2004-07-20,59.94
2004-07-21,59.86
2004-07-22,59.0
2004-07-23,58.8152
2004-07-26,58.0802
2004-07-27,58.2
2004-07-28,58.0
2004-07-29,58.43
2004-07-30,57.92
2004-08-02,57.88
2004-08-03,57.44
2004-08-04,56.9202
2004-08-05,57.02
2004-08-06,57.0202
2004-08-09,55.8
2004-08-10,57.36
2004-08-11,56.92
2004-08-12,56.56
2004-08-13,56.6
2004-08-16,56.698
2004-08-17,57.6022
2004-08-18,57.6426
2004-08-19,57.622
2004-08-20,57.88
2004-08-23,57.22
2004-08-24,56.6978
2004-08-25,57.44
2004-08-26,57.4
2004-08-27,57.4802
2004-08-30,57.35
2004-08-31,57.74
2004-09-01,57.46
2004-09-02,57.66
2004-09-03,57.34
2004-09-07,57.78
2004-09-08,57.98
2004-09-09,57.6
2004-09-10,57.438
2004-09-13,57.42
2004-09-14,57.52
2004-09-15,57.4402
2004-09-16,57.43
2004-09-17,57.46
2004-09-20,57.4402
2004-09-21,57.6
2004-09-22,58.0
2004-09-23,58.18
2004-09-24,57.64
2004-09-27,57.4402
2004-09-28,57.4402
2004-09-29,57.45
2004-09-30,57.422
2004-10-01,57.002
2004-10-04,56.7
2004-10-05,57.0602
2004-10-06,56.72
2004-10-07,56.72
2004-10-08,56.84
2004-10-11,56.88
2004-10-12,56.8
2004-10-13,56.8
2004-10-14,56.2
2004-10-15,56.8202
2004-10-18,56.84
2004-10-19,56.3
2004-10-20,56.04
2004-10-21,54.82
2004-10-22,54.3
2004-10-25,54.06
2004-10-26,56.08
2004-10-27,55.92
2004-10-28,55.78
2004-10-29,55.9242
2004-11-01,56.18
2004-11-02,55.804
2004-11-03,55.32
2004-11-04,55.82
2004-11-05,55.3
2004-11-08,56.14
2004-11-09,56.638
2004-11-10,56.56
2004-11-11,56.378
2004-11-12,55.26
2004-11-15,55.698
2004-11-16,56.8
2004-11-17,57.22
2004-11-18,56.78
2004-11-19,56.88
2004-11-22,55.78
2004-11-23,55.6602
2004-11-24,55.98
2004-11-26,56.06
2004-11-29,55.98
2004-11-30,55.6
2004-12-01,55.7702
2004-12-02,56.31
2004-12-03,56.54
2004-12-06,56.06
2004-12-07,56.0202
2004-12-08,56.35
2004-12-09,56.06
2004-12-10,55.84
2004-12-13,55.84
2004-12-14,56.04
2004-12-15,56.52
2004-12-16,57.2
2004-12-17,57.25
2004-12-20,57.4
2004-12-21,58.12
2004-12-22,59.38
2004-12-23,59.36
2004-12-27,58.74
2004-12-28,59.055
2004-12-29,59.3
2004-12-30,59.24
2004-12-31,58.6
2005-01-03,57.92
2005-01-04,57.13
2005-01-05,57.138
2005-01-06,57.375
2005-01-07,58.24
2005-01-10,58.52
2005-01-11,57.58
2005-01-12,57.5
2005-01-13,57.4
2005-01-14,57.27
2005-01-18,57.7998
2005-01-19,57.78
2005-01-20,58.434
2005-01-21,60.1
2005-01-24,59.998
2005-01-25,59.58
2005-01-26,59.28
2005-01-27,58.92
2005-01-28,59.96
2005-01-31,59.8822
2005-02-01,60.28
2005-02-02,60.1
2005-02-03,60.1
2005-02-04,60.34
2005-02-07,60.92
2005-02-08,60.68
2005-02-09,60.68
2005-02-10,60.56
2005-02-11,61.26
2005-02-14,60.86
2005-02-15,60.68
2005-02-16,60.44
2005-02-17,60.16
2005-02-18,60.04
2005-02-22,60.0
2005-02-23,60.68
2005-02-24,60.2
2005-02-25,60.34
2005-02-28,60.202
2005-03-01,60.422
2005-03-02,60.1
2005-03-03,59.62
2005-03-04,59.52
2005-03-07,60.04
2005-03-08,60.12
2005-03-09,60.482
2005-03-10,60.16
2005-03-11,60.04
2005-03-14,60.12
2005-03-15,59.5602
2005-03-16,57.4
2005-03-17,58.84
2005-03-18,58.373
2005-03-21,58.14
2005-03-22,57.69
2005-03-23,57.202
2005-03-24,57.8798
2005-03-28,57.38
2005-03-29,57.24
2005-03-30,57.9
2005-03-31,57.12
2005-04-01,56.4982
2005-04-04,57.7
2005-04-05,58.43
2005-04-06,58.5698
2005-04-07,58.04
2005-04-08,57.68
2005-04-11,58.22
2005-04-12,58.3
2005-04-13,57.64
2005-04-14,57.24
2005-04-15,56.9
2005-04-18,56.72
2005-04-19,56.4
2005-04-20,55.21
2005-04-21,55.88
2005-04-22,54.86
2005-04-25,55.1
2005-04-26,55.04
2005-04-27,54.87
2005-04-28,55.862
2005-04-29,55.9602
2005-05-02,56.64
2005-05-03,56.38
2005-05-04,56.66
2005-05-05,56.22
2005-05-06,55.71
2005-05-09,55.6
2005-05-10,55.28
2005-05-11,55.4
2005-05-12,55.48
2005-05-13,55.28
2005-05-16,55.06
2005-05-17,55.135
2005-05-18,55.2002
2005-05-19,55.816
2005-05-20,56.0002
2005-05-23,55.7
2005-05-24,56.9402
2005-05-25,56.8602
2005-05-26,56.5
2005-05-27,56.8
2005-05-31,56.3
2005-06-01,56.22
2005-06-02,56.16
2005-06-03,55.8002
2005-06-06,55.5
2005-06-07,55.486
2005-06-08,55.38
2005-06-09,55.38
2005-06-10,55.4
2005-06-13,55.92
2005-06-14,56.14
2005-06-15,55.86
2005-06-16,55.66
2005-06-17,55.04
2005-06-20,55.2
2005-06-21,55.8
2005-06-22,55.42
2005-06-23,55.6
2005-06-24,55.14
2005-06-27,55.52
2005-06-28,55.42
2005-06-29,55.58
2005-06-30,55.678
2005-07-01,55.74
2005-07-05,56.38
2005-07-06,56.8
2005-07-07,56.87
2005-07-08,56.64
2005-07-11,56.7
2005-07-12,56.26
2005-07-13,56.1
2005-07-14,55.66
2005-07-15,55.952
2005-07-18,55.7402
2005-07-19,55.72
2005-07-20,55.88
2005-07-21,55.72
2005-07-22,55.87
2005-07-25,56.02
2005-07-26,55.86
2005-07-27,55.8
2005-07-28,55.7
2005-07-29,55.64
2005-08-01,55.902
2005-08-02,55.6004
2005-08-03,55.62
2005-08-04,55.7
2005-08-05,55.74
2005-08-08,55.46
2005-08-09,55.4
2005-08-10,55.36
2005-08-11,55.78
2005-08-12,55.96
2005-08-15,55.42
2005-08-16,55.479
2005-08-17,55.2902
2005-08-18,56.5
2005-08-19,56.62
2005-08-22,56.4
2005-08-23,56.458
2005-08-24,56.14
2005-08-25,55.838
2005-08-26,55.44
2005-08-29,55.44
2005-08-30,55.202
2005-08-31,55.262
2005-09-01,55.07
2005-09-02,55.162
2005-09-06,55.78
2005-09-07,55.98
2005-09-08,56.18
2005-09-09,55.84
2005-09-12,55.366
2005-09-13,55.26
2005-09-14,55.16
2005-09-15,54.94
2005-09-16,54.5
2005-09-19,54.376
2005-09-20,54.26
2005-09-21,53.46
2005-09-22,53.86
2005-09-23,55.0402
2005-09-26,54.88
2005-09-27,54.9
2005-09-28,54.46
2005-09-29,54.16
2005-09-30,54.66
2005-10-03,54.64
2005-10-04,54.86
2005-10-05,55.16
2005-10-06,54.9998
2005-10-07,54.96
2005-10-10,55.36
2005-10-11,55.4
2005-10-12,55.949
2005-10-13,55.52
2005-10-14,55.642
2005-10-17,55.809
2005-10-18,55.74
2005-10-19,55.74
2005-10-20,55.58
2005-10-21,55.76
2005-10-24,56.3
2005-10-25,56.287
2005-10-26,56.1202
2005-10-27,55.9
2005-10-28,56.1
2005-10-31,56.26
2005-11-01,56.52
2005-11-02,57.32
2005-11-03,58.6002
2005-11-04,58.24
2005-11-07,59.56
2005-11-08,59.74
2005-11-09,59.62
2005-11-10,59.482
2005-11-11,59.74
2005-11-14,59.4498
2005-11-15,59.26
2005-11-16,58.42
2005-11-17,59.2
2005-11-18,59.198
2005-11-21,58.26
2005-11-22,57.7
2005-11-23,58.38
2005-11-25,58.14
2005-11-28,58.2
2005-11-29,58.71
2005-11-30,59.18
2005-12-01,60.142
2005-12-02,60.43
2005-12-05,59.34
2005-12-06,59.74
2005-12-07,59.64
2005-12-08,59.6
2005-12-09,59.64
2005-12-12,59.5
2005-12-13,59.23
2005-12-14,59.2
2005-12-15,59.12
2005-12-16,59.48
2005-12-19,59.17
2005-12-20,58.978
2005-12-21,59.04
2005-12-22,58.78
2005-12-23,59.14
2005-12-27,58.88
2005-12-28,58.8
2005-12-29,58.9402
2005-12-30,58.71
2006-01-03,59.22
2006-01-04,59.4
2006-01-05,59.295
2006-01-06,59.48
2006-01-09,59.48
2006-01-10,59.38
2006-01-11,59.17
2006-01-12,58.88
2006-01-13,59.08
2006-01-17,58.86
2006-01-18,59.156
2006-01-19,59.26
2006-01-20,58.9
2006-01-23,58.78
2006-01-24,58.98
2006-01-25,58.94
2006-01-26,58.82
2006-01-27,58.66
2006-01-30,58.58
2006-01-31,58.768
2006-02-01,58.175
2006-02-02,58.158
2006-02-03,57.76
2006-02-06,57.7
2006-02-07,57.48
2006-02-08,57.86
2006-02-09,57.82
2006-02-10,57.92
2006-02-13,58.2
2006-02-14,58.54
2006-02-15,58.3
2006-02-16,58.1
2006-02-17,58.06
2006-02-21,57.82
2006-02-22,57.66
2006-02-23,57.62
2006-02-24,57.6402
2006-02-27,57.96
2006-02-28,57.7
2006-03-01,57.82
2006-03-02,57.815
2006-03-03,58.25
2006-03-06,58.62
2006-03-07,58.8004
2006-03-08,59.1002
2006-03-09,59.62
2006-03-10,59.93
2006-03-13,60.02
2006-03-14,59.64
2006-03-15,59.46
2006-03-16,59.51
2006-03-17,59.17
2006-03-20,59.71
2006-03-21,59.88
2006-03-22,60.0
2006-03-23,59.92
2006-03-24,60.004
2006-03-27,59.92
2006-03-28,59.958
2006-03-29,59.8942
2006-03-30,59.9
2006-03-31,60.2
2006-04-03,60.1
2006-04-04,60.03
2006-04-05,59.7994
2006-04-06,59.8494
2006-04-07,59.28
2006-04-10,58.98
2006-04-11,58.42
2006-04-12,58.0008
2006-04-13,57.8406
2006-04-17,57.36
2006-04-18,57.02
2006-04-19,57.44
2006-04-20,57.404
2006-04-21,57.64
2006-04-24,57.538
2006-04-25,57.621
2006-04-26,58.76
2006-04-27,58.24
2006-04-28,58.74
2006-05-01,59.5998
2006-05-02,59.2802
2006-05-03,59.06
2006-05-04,58.24
2006-05-05,58.96
2006-05-08,59.26
2006-05-09,59.7
2006-05-10,59.682
2006-05-11,59.68
2006-05-12,59.6
2006-05-15,59.88
2006-05-16,60.28
2006-05-17,60.4952
2006-05-18,61.52
2006-05-19,61.06
2006-05-22,61.88
2006-05-23,60.78
2006-05-24,61.62
2006-05-25,61.26
2006-05-26,61.52
2006-05-30,61.29
2006-05-31,61.28
2006-06-01,61.3
2006-06-02,61.1
2006-06-05,61.12
2006-06-06,60.9
2006-06-07,60.46
2006-06-08,60.22
2006-06-09,60.44
2006-06-12,60.44
2006-06-13,60.2606
2006-06-14,60.08
2006-06-15,61.36
2006-06-16,61.064
2006-06-19,61.7
2006-06-20,61.438
2006-06-21,61.63
2006-06-22,61.2102
2006-06-23,61.42
2006-06-26,60.9002
2006-06-27,60.82
2006-06-28,61.3404
2006-06-29,61.34
2006-06-30,61.04
2006-07-03,61.0
2006-07-05,60.02
2006-07-06,60.1394
2006-07-07,60.1
2006-07-10,60.602
2006-07-11,60.52
2006-07-12,60.29
2006-07-13,59.92
2006-07-14,59.8
2006-07-17,60.02
2006-07-18,60.06
2006-07-19,60.6
2006-07-20,60.52
2006-07-21,60.1202
2006-07-24,60.84
2006-07-25,60.502
2006-07-26,60.7
2006-07-27,60.795
2006-07-28,60.72
2006-07-31,61.08
2006-08-01,60.89
2006-08-02,60.86
2006-08-03,60.8
2006-08-04,61.0
2006-08-07,61.76
2006-08-08,61.88
2006-08-09,61.86
2006-08-10,62.038
2006-08-11,62.02
2006-08-14,61.601
2006-08-15,61.54
2006-08-16,62.98
2006-08-17,62.8
2006-08-18,63.4
2006-08-21,63.87
2006-08-22,63.66
2006-08-23,63.46
2006-08-24,64.16
2006-08-25,63.9898
2006-08-28,63.96
2006-08-29,64.036
2006-08-30,63.92
2006-08-31,64.0402
2006-09-01,63.91
2006-09-05,64.2792
2006-09-06,63.96
2006-09-07,64.01
2006-09-08,64.16
2006-09-11,64.03
2006-09-12,64.26
2006-09-13,64.36
2006-09-14,64.5702
2006-09-15,64.5
2006-09-18,63.6512
2006-09-19,62.8802
2006-09-20,63.29
2006-09-21,62.796
2006-09-22,62.325
2006-09-25,62.38
2006-09-26,63.0982
2006-09-27,63.3594
2006-09-28,63.364
2006-09-29,63.6
2006-10-02,63.52
2006-10-03,64.77
2006-10-04,64.8396
2006-10-05,65.6
2006-10-06,65.5196
2006-10-09,65.38
2006-10-10,66.118
2006-10-11,66.0802
2006-10-12,66.58
2006-10-13,65.9
2006-10-16,66.0102
2006-10-17,65.82
2006-10-18,66.16
2006-10-19,66.5402
2006-10-20,66.48
2006-10-23,66.68
2006-10-24,67.1
2006-10-25,67.88
2006-10-26,69.87
2006-10-27,69.2602
2006-10-30,69.6224
2006-10-31,70.3
2006-11-01,69.82
2006-11-02,69.43
2006-11-03,70.0
2006-11-06,71.639
2006-11-07,71.4
2006-11-08,71.9
2006-11-09,71.35
2006-11-10,71.46
2006-11-13,70.93
2006-11-14,71.08
2006-11-15,71.2
2006-11-16,71.22
2006-11-17,71.2398
2006-11-20,71.49
2006-11-21,71.5
2006-11-22,71.7
2006-11-24,71.75
2006-11-27,71.137
2006-11-28,70.66
2006-11-29,70.2
2006-11-30,71.37
2006-12-01,71.32
2006-12-04,71.44
2006-12-05,72.0002
2006-12-06,72.52
2006-12-07,71.8
2006-12-08,71.5
2006-12-11,71.89
2006-12-12,72.62
2006-12-13,73.2
2006-12-14,73.5002
2006-12-15,75.8
2006-12-18,75.62
2006-12-19,75.478
2006-12-20,74.52
2006-12-21,73.3
2006-12-22,73.16
2006-12-26,73.16
2006-12-27,73.29
2006-12-28,73.34
2006-12-29,73.18
2007-01-03,72.72
2007-01-04,72.36
2007-01-05,71.41
2007-01-08,71.7
2007-01-09,72.8
2007-01-10,73.02
2007-01-11,73.2822
2007-01-12,73.36
2007-01-16,72.4
2007-01-17,72.406
2007-01-18,72.638
2007-01-19,73.06
2007-01-22,72.798
2007-01-23,72.478
2007-01-24,71.6802
2007-01-25,71.718
2007-01-26,71.0
2007-01-29,72.04
2007-01-30,72.64
2007-01-31,73.2822
2007-02-01,73.5
2007-02-02,72.76
2007-02-05,72.435
2007-02-06,72.641
2007-02-07,72.4778
2007-02-08,72.38
2007-02-09,72.62
2007-02-12,72.36
2007-02-13,72.19
2007-02-14,72.2
2007-02-15,71.122
2007-02-16,72.3
2007-02-20,72.68
2007-02-21,71.58
2007-02-22,71.44
2007-02-23,71.22
2007-02-26,71.124
2007-02-27,69.58
2007-02-28,70.46
2007-03-01,70.8
2007-03-02,71.24
2007-03-05,71.2
2007-03-06,71.62
2007-03-07,71.74
2007-03-08,72.5
2007-03-09,72.76
2007-03-12,72.765
2007-03-13,72.0602
2007-03-14,71.295
2007-03-15,71.1152
2007-03-16,70.4002
2007-03-19,71.7602
2007-03-20,71.94
2007-03-21,72.8
2007-03-22,72.22
2007-03-23,72.0396
2007-03-26,72.178
2007-03-27,71.68
2007-03-28,71.7
2007-03-29,72.076
2007-03-30,72.54
2007-04-02,72.064
2007-04-03,72.2156
2007-04-04,72.44
2007-04-05,72.61
2007-04-09,72.662
2007-04-10,73.278
2007-04-11,73.04
2007-04-12,73.158
2007-04-13,73.12
2007-04-16,73.3
2007-04-17,73.26
2007-04-18,72.92
2007-04-19,72.604
2007-04-20,72.7576
2007-04-23,72.6822
2007-04-24,72.398
2007-04-25,72.3
2007-04-26,72.6
2007-04-27,72.52
2007-04-30,72.54
2007-05-01,71.9802
2007-05-02,72.3794
2007-05-03,72.282
2007-05-04,72.68
2007-05-07,73.56
2007-05-08,72.4
2007-05-09,72.72
2007-05-10,72.7402
2007-05-11,73.4
2007-05-14,72.783
2007-05-15,72.62
2007-05-16,72.544
2007-05-17,72.2398
2007-05-18,72.1
2007-05-21,72.5
2007-05-22,72.86
2007-05-23,72.78
2007-05-24,72.4
2007-05-25,72.8
2007-05-29,72.615
2007-05-30,72.54
2007-05-31,72.56
2007-06-01,72.56
2007-06-04,72.8
2007-06-05,72.4
2007-06-06,72.1202
2007-06-07,72.32
2007-06-08,72.22
2007-06-11,72.58
2007-06-12,72.36
2007-06-13,72.498
2007-06-14,72.5004
2007-06-15,72.42
2007-06-18,72.26
2007-06-19,72.54
2007-06-20,72.22
2007-06-21,71.88
2007-06-22,71.5398
2007-06-25,71.136
2007-06-26,70.811
2007-06-27,71.02
2007-06-28,71.7
2007-06-29,71.978
2007-07-02,72.439
2007-07-03,72.736
2007-07-05,73.29
2007-07-06,74.06
2007-07-09,74.3588
2007-07-10,73.985
2007-07-11,73.695
2007-07-12,73.46
2007-07-13,73.5198
2007-07-16,72.94
2007-07-17,73.2
2007-07-18,72.9
2007-07-19,72.66
2007-07-20,72.72
2007-07-23,72.76
2007-07-24,72.7
2007-07-25,72.665
2007-07-26,71.88
2007-07-27,72.04
2007-07-30,71.9
2007-07-31,71.99
2007-08-01,71.96
2007-08-02,71.8
2007-08-03,71.66
2007-08-06,73.459
2007-08-07,73.46
2007-08-08,73.52
2007-08-09,72.702
2007-08-10,72.44
2007-08-13,72.9
2007-08-14,72.5
2007-08-15,73.14
2007-08-16,75.86
2007-08-17,79.0
2007-08-20,79.16
2007-08-21,79.5108
2007-08-22,78.6
2007-08-23,78.94
2007-08-24,79.8
2007-08-27,79.3
2007-08-28,79.26
2007-08-29,79.29
2007-08-30,78.878
2007-08-31,78.72
2007-09-04,79.22
2007-09-05,79.53
2007-09-06,79.9
2007-09-07,79.56
2007-09-10,78.86
2007-09-11,78.79
2007-09-12,78.842
2007-09-13,79.098
2007-09-14,79.8
2007-09-17,78.82
2007-09-18,78.96
2007-09-19,78.4
2007-09-20,78.301
2007-09-21,78.06
2007-09-24,77.915
2007-09-25,77.8798
2007-09-26,77.96
2007-09-27,78.04
2007-09-28,79.26
2007-10-01,79.258
2007-10-02,79.76
2007-10-03,79.43
2007-10-04,79.44
2007-10-05,80.5012
2007-10-08,82.2
2007-10-09,81.68
2007-10-10,83.17
2007-10-11,83.7994
2007-10-12,84.72
2007-10-15,84.112
2007-10-16,84.82
2007-10-17,86.42
2007-10-18,85.962
2007-10-19,84.8
2007-10-22,84.22
2007-10-23,85.34
2007-10-24,84.94
2007-10-25,85.0
2007-10-26,84.8
2007-10-29,85.63
2007-10-30,85.842
2007-10-31,88.18
2007-11-01,87.99
2007-11-02,88.1998
2007-11-05,88.74
2007-11-06,89.48
2007-11-07,89.945
2007-11-08,89.6958
2007-11-09,88.38
2007-11-12,89.3024
2007-11-13,90.42
2007-11-14,91.64
2007-11-15,90.3
2007-11-16,90.86
2007-11-19,90.98
2007-11-20,91.045
2007-11-21,89.422
2007-11-23,89.5
2007-11-26,90.9
2007-11-27,91.505
2007-11-28,91.8
2007-11-29,92.7
2007-11-30,93.6
2007-12-03,95.62
2007-12-04,96.4
2007-12-05,98.26
2007-12-06,99.12
2007-12-07,99.1
2007-12-10,99.4598
2007-12-11,99.14
2007-12-12,95.7
2007-12-13,94.26
2007-12-14,95.24
2007-12-17,90.58
2007-12-18,90.0866
2007-12-19,89.4
2007-12-20,88.84
2007-12-21,89.0
2007-12-24,90.8
2007-12-26,91.598
2007-12-27,91.42
2007-12-28,93.66
2007-12-31,94.44
2008-01-02,92.198
2008-01-03,92.8
2008-01-04,90.48
2008-01-07,88.7
2008-01-08,88.0
2008-01-09,86.6
2008-01-10,89.2
2008-01-11,87.34
2008-01-14,86.7788
2008-01-15,85.2
2008-01-16,84.16
2008-01-17,87.2648
2008-01-18,88.15
2008-01-22,91.0
2008-01-23,92.08
2008-01-24,92.32
2008-01-25,92.579
2008-01-28,91.8
2008-01-29,92.76
2008-01-30,92.4
2008-01-31,91.42
2008-02-01,90.4
2008-02-04,90.42
2008-02-05,90.785
2008-02-06,90.2
2008-02-07,90.5
2008-02-08,91.64
2008-02-11,92.9
2008-02-12,93.16
2008-02-13,95.8
2008-02-14,95.1
2008-02-15,95.36
2008-02-19,95.96
2008-02-20,95.4
2008-02-21,94.08
2008-02-22,92.88
2008-02-25,93.0
2008-02-26,92.54
2008-02-27,93.6
2008-02-28,93.0
2008-02-29,93.4
2008-03-03,89.5
2008-03-04,91.1998
2008-03-05,92.06
2008-03-06,90.4398
2008-03-07,89.2
2008-03-10,87.04
2008-03-11,87.7
2008-03-12,87.04
2008-03-13,86.7402
2008-03-14,86.3042
2008-03-17,85.2602
2008-03-18,86.1
2008-03-19,85.2996
2008-03-20,86.9
2008-03-24,86.84
2008-03-25,86.4358
2008-03-26,85.565
2008-03-27,87.32
2008-03-28,89.1756
2008-03-31,89.32
2008-04-01,88.0
2008-04-02,87.2
2008-04-03,87.0
2008-04-04,87.305
2008-04-07,87.8768
2008-04-08,88.2078
2008-04-09,87.4
2008-04-10,87.36
2008-04-11,86.9
2008-04-14,85.8198
2008-04-15,85.6
2008-04-16,86.26
2008-04-17,85.56
2008-04-18,85.68
2008-04-21,85.48
2008-04-22,84.82
2008-04-23,84.79
2008-04-24,84.4
2008-04-25,84.6
2008-04-28,85.57
2008-04-29,87.4
2008-04-30,89.0
2008-05-01,89.08
2008-05-02,88.74
2008-05-05,86.6
2008-05-06,86.6
2008-05-07,85.3
2008-05-08,85.3
2008-05-09,83.5
2008-05-12,81.8
2008-05-13,82.5436
2008-05-14,82.3002
2008-05-15,81.0
2008-05-16,81.54
2008-05-19,82.32
2008-05-20,82.02
2008-05-21,80.7
2008-05-22,81.96
2008-05-23,82.68
2008-05-27,85.41
2008-05-28,86.7592
2008-05-29,88.19
2008-05-30,90.0
2008-06-02,88.1
2008-06-03,89.3
2008-06-04,88.12
2008-06-05,87.0102
2008-06-06,85.8
2008-06-09,84.5
2008-06-10,84.2798
2008-06-11,84.0
2008-06-12,84.4004
2008-06-13,84.54
2008-06-16,84.08
2008-06-17,84.0
2008-06-18,83.96
2008-06-19,83.18
2008-06-20,82.96
2008-06-23,81.7
2008-06-24,81.761
2008-06-25,81.43
2008-06-26,80.56
2008-06-27,80.2
2008-06-30,80.3
2008-07-01,79.8998
2008-07-02,78.8202
2008-07-03,77.9
2008-07-07,78.8602
2008-07-08,79.1998
2008-07-09,79.538
2008-07-10,79.398
2008-07-11,78.16
2008-07-14,77.5398
2008-07-15,76.6602
2008-07-16,76.9712
2008-07-17,77.24
2008-07-18,78.161
2008-07-21,78.5
2008-07-22,78.9998
2008-07-23,78.72
2008-07-24,76.76
2008-07-25,75.1
2008-07-28,74.24
2008-07-29,74.476
2008-07-30,75.7
2008-07-31,76.3
2008-08-01,77.7
2008-08-04,76.3998
2008-08-05,77.0
2008-08-06,77.36
2008-08-07,76.84
2008-08-08,77.2
2008-08-11,77.86
2008-08-12,76.9
2008-08-13,76.3
2008-08-14,78.0
2008-08-15,79.98
2008-08-18,78.478
2008-08-19,78.0
2008-08-20,77.2002
2008-08-21,76.64
2008-08-22,77.58
2008-08-25,77.2
2008-08-26,76.726
2008-08-27,76.9998
2008-08-28,78.498
2008-08-29,77.9
2008-09-02,80.0
2008-09-03,80.2
2008-09-04,79.36
2008-09-05,78.4002
2008-09-08,79.7
2008-09-09,78.82
2008-09-10,78.02
2008-09-11,78.1
2008-09-12,79.74
2008-09-15,80.5602
2008-09-16,83.22
2008-09-17,83.3
2008-09-18,85.5
2008-09-19,90.9
2008-09-22,87.0
2008-09-23,85.5
2008-09-24,89.1998
2008-09-25,88.4002
2008-09-26,88.9998
2008-09-29,88.2
2008-09-30,87.7398
2008-10-01,91.3
2008-10-02,92.1
2008-10-03,92.0
2008-10-06,87.6
2008-10-07,82.48
2008-10-08,79.0
2008-10-09,76.9
2008-10-10,76.8
2008-10-13,79.1
2008-10-14,79.22
2008-10-15,76.18
2008-10-16,75.5798
2008-10-17,79.42
2008-10-20,82.5
2008-10-21,81.6
2008-10-22,78.3
2008-10-23,76.96
2008-10-24,74.12
2008-10-27,70.34
2008-10-28,72.22
2008-10-29,73.56
2008-10-30,74.9
2008-10-31,76.78
2008-11-03,77.5802
2008-11-04,79.38
2008-11-05,77.3
2008-11-06,74.72
2008-11-07,73.92
2008-11-10,70.88
2008-11-11,69.6
2008-11-12,67.0002
2008-11-13,68.1
2008-11-14,67.88
2008-11-17,62.7806
2008-11-18,62.16
2008-11-19,55.3
2008-11-20,51.4798
2008-11-21,58.2
2008-11-24,59.78
2008-11-25,64.1972
2008-11-26,67.48
2008-11-28,69.98
2008-12-01,65.12
2008-12-02,66.8408
2008-12-03,68.0
2008-12-04,65.48
2008-12-05,67.9
2008-12-08,70.8308
2008-12-09,70.83
2008-12-10,69.1002
2008-12-11,66.46
2008-12-12,65.2
2008-12-15,62.82
2008-12-16,66.7998
2008-12-17,66.58
2008-12-18,64.78
2008-12-19,63.82
2008-12-22,62.52
2008-12-23,62.8
2008-12-24,62.3
2008-12-26,62.38
2008-12-29,61.4802
2008-12-30,61.14
2008-12-31,63.8
2009-01-02,66.55
2009-01-05,66.78
2009-01-06,66.52
2009-01-07,63.66
2009-01-08,65.32
2009-01-09,62.8
2009-01-12,62.78
2009-01-13,64.02
2009-01-14,62.14
2009-01-15,61.6
2009-01-16,60.46
2009-01-20,57.38
2009-01-21,58.88
2009-01-22,59.22
2009-01-23,57.0
2009-01-26,56.0
2009-01-27,57.12
2009-01-28,59.62
2009-01-29,58.06
2009-01-30,59.7822
2009-02-02,59.06
2009-02-03,59.5004
2009-02-04,59.8798
2009-02-05,57.1
2009-02-06,58.2
2009-02-09,58.5694
2009-02-10,56.22
2009-02-11,58.3
2009-02-12,57.86
2009-02-13,57.06
2009-02-17,55.32
2009-02-18,52.34
2009-02-19,50.44
2009-02-20,47.4198
2009-02-23,47.488
2009-02-24,51.19
2009-02-25,51.46
2009-02-26,51.0
2009-02-27,48.796
2009-03-02,48.4482
2009-03-03,47.6
2009-03-04,49.0024
2009-03-05,45.9998
2009-03-06,46.5606
2009-03-09,46.38
2009-03-10,54.48
2009-03-11,54.8578
2009-03-12,55.8
2009-03-13,54.8012
2009-03-16,53.0
2009-03-17,54.04
2009-03-18,54.96
2009-03-19,55.82
2009-03-20,55.14
2009-03-23,59.3
2009-03-24,58.3398
2009-03-25,58.0
2009-03-26,59.3498
2009-03-27,58.3
2009-03-30,55.8998
2009-03-31,57.5002
2009-04-01,56.14
2009-04-02,58.1402
2009-04-03,60.2582
2009-04-06,59.94
2009-04-07,58.579
2009-04-08,58.14
2009-04-09,61.2
2009-04-13,61.455
2009-04-14,60.0598
2009-04-15,60.31
2009-04-16,60.46
2009-04-17,60.1174
2009-04-20,58.4952
2009-04-21,58.0
2009-04-22,56.4
2009-04-23,56.2026
2009-04-24,57.66
2009-04-27,58.86
2009-04-28,58.1
2009-04-29,61.3038
2009-04-30,61.04
2009-05-01,60.6998
2009-05-04,61.98
2009-05-05,61.98
2009-05-06,61.7
2009-05-07,61.12
2009-05-08,62.4
2009-05-11,59.58
2009-05-12,58.78
2009-05-13,57.12
2009-05-14,58.4288
2009-05-15,57.84
2009-05-18,58.94
2009-05-19,59.94
2009-05-20,59.7
2009-05-21,58.44
2009-05-22,58.16
2009-05-26,59.85
2009-05-27,58.6558
2009-05-28,58.2528
2009-05-29,59.4
2009-06-01,59.543
2009-06-02,59.82
2009-06-03,58.54
2009-06-04,58.58
2009-06-05,58.38
2009-06-08,58.63
2009-06-09,59.5796
2009-06-10,58.7
2009-06-11,59.06
2009-06-12,59.68
2009-06-15,58.481
2009-06-16,58.2
2009-06-17,57.38
2009-06-18,56.54
2009-06-19,56.2002
2009-06-22,55.5158
2009-06-23,55.235
2009-06-24,55.9
2009-06-25,56.3
2009-06-26,55.999
2009-06-29,57.1578
2009-06-30,57.84
2009-07-01,58.3806
2009-07-02,57.7
2009-07-06,57.16
2009-07-07,56.08
2009-07-08,55.94
2009-07-09,55.3628
2009-07-10,54.8998
2009-07-13,56.6598
2009-07-14,57.499
2009-07-15,58.788
2009-07-16,58.46
2009-07-17,59.0
2009-07-20,59.36
2009-07-21,59.74
2009-07-22,60.01
2009-07-23,61.28
2009-07-24,62.4356
2009-07-27,62.6578
2009-07-28,62.4366
2009-07-29,62.4598
2009-07-30,63.78
2009-07-31,63.54
2009-08-03,65.566
2009-08-04,65.9512
2009-08-05,69.0976
2009-08-06,70.06
2009-08-07,70.6
2009-08-10,67.7422
2009-08-11,65.199
2009-08-12,66.7004
2009-08-13,67.34
2009-08-14,66.54
2009-08-17,64.5966
2009-08-18,65.4418
2009-08-19,65.2068
2009-08-20,65.42
2009-08-21,66.5602
2009-08-24,66.4602
2009-08-25,66.9098
2009-08-26,65.98
2009-08-27,65.74
2009-08-28,66.1
2009-08-31,65.5966
2009-09-01,64.557
2009-09-02,63.8016
2009-09-03,64.098
2009-09-04,64.2
2009-09-08,64.035
2009-09-09,64.819
2009-09-10,65.0
2009-09-11,65.1
2009-09-14,65.17
2009-09-15,65.98
2009-09-16,67.86
2009-09-17,67.23
2009-09-18,66.88
2009-09-21,66.364
2009-09-22,67.16
2009-09-23,67.074
2009-09-24,66.18
2009-09-25,65.3582
2009-09-28,65.9
2009-09-29,66.76
2009-09-30,66.22
2009-10-01,65.0024
2009-10-02,65.278
2009-10-05,65.6208
2009-10-06,65.9224
2009-10-07,65.7248
2009-10-08,65.7
2009-10-09,65.74
2009-10-12,65.58
2009-10-13,65.871
2009-10-14,67.042
2009-10-15,67.099
2009-10-16,66.24
2009-10-19,66.521
2009-10-20,66.054
2009-10-21,65.9
2009-10-22,66.7014
2009-10-23,66.22
2009-10-26,65.82
2009-10-27,65.958
2009-10-28,65.558
2009-10-29,66.042
2009-10-30,65.6
2009-11-02,65.181
2009-11-03,66.36
2009-11-04,67.6
2009-11-05,67.8798
2009-11-06,68.48
2009-11-09,68.56
2009-11-10,67.7604
2009-11-11,67.98
2009-11-12,68.05
2009-11-13,68.0602
2009-11-16,68.66
2009-11-17,68.722
2009-11-18,69.056
2009-11-19,68.9852
2009-11-20,68.88
2009-11-23,68.641
2009-11-24,68.2004
2009-11-25,68.002
2009-11-27,67.64
2009-11-30,67.12
2009-12-01,67.0
2009-12-02,66.716
2009-12-03,65.918
2009-12-04,66.4
2009-12-07,66.3928
2009-12-08,66.22
2009-12-09,65.6
2009-12-10,65.5236
2009-12-11,65.782
2009-12-14,66.1622
2009-12-15,66.1534
2009-12-16,66.16
2009-12-17,65.798
2009-12-18,65.878
2009-12-21,65.9422
2009-12-22,66.076
2009-12-23,65.72
2009-12-24,65.62
2009-12-28,65.5
2009-12-29,65.667
2009-12-30,65.756
2009-12-31,65.8356
2010-01-04,66.1962
2010-01-05,66.48
2010-01-06,66.258
2010-01-07,66.4244
2010-01-08,66.438
2010-01-11,66.5002
2010-01-12,66.0234
2010-01-13,66.058
2010-01-14,65.9182
2010-01-15,64.96
2010-01-19,66.7388
2010-01-20,69.36
2010-01-21,72.85
2010-01-22,69.92
2010-01-25,68.67
2010-01-26,68.04
2010-01-27,71.32
2010-01-28,73.96
2010-01-29,76.45
2010-02-01,75.28
2010-02-02,75.38
2010-02-03,74.31
2010-02-04,72.31
2010-02-05,73.6
2010-02-08,74.37
2010-02-09,74.46
2010-02-10,74.42
2010-02-11,76.64
2010-02-12,77.6
2010-02-16,76.04
2010-02-17,76.2
2010-02-18,76.62
2010-02-19,78.81
2010-02-22,79.6
2010-02-23,79.03
2010-02-24,79.67
2010-02-25,79.27
2010-02-26,80.1
2010-03-01,81.89
2010-03-02,80.79
2010-03-03,82.92
2010-03-04,82.75
2010-03-05,83.34
2010-03-08,82.7
2010-03-09,82.43
2010-03-10,82.05
2010-03-11,82.35
2010-03-12,82.17
2010-03-15,82.15
2010-03-16,82.27
2010-03-17,82.45
2010-03-18,82.29
2010-03-19,82.02
2010-03-22,82.33
2010-03-23,82.3
2010-03-24,81.43
2010-03-25,81.66
2010-03-26,81.28
2010-03-29,81.73
2010-03-30,81.58
2010-03-31,81.25
2010-04-01,81.63
2010-04-05,81.13
2010-04-06,80.86
2010-04-07,79.89
2010-04-08,79.67
2010-04-09,80.49
2010-04-12,80.45
2010-04-13,80.5
2010-04-14,80.85
2010-04-15,80.12
2010-04-16,78.75
2010-04-19,79.51
2010-04-20,79.96
2010-04-21,78.85
2010-04-22,78.76
2010-04-23,79.05
2010-04-26,79.2
2010-04-27,76.7
2010-04-28,77.09
2010-04-29,78.03
2010-04-30,77.03
2010-05-03,78.44
2010-05-04,76.6
2010-05-05,76.68
2010-05-06,74.54
2010-05-07,74.69
2010-05-10,78.27
2010-05-11,77.68
2010-05-12,77.95
2010-05-13,77.35
2010-05-14,76.28
2010-05-17,76.34
2010-05-18,75.52
2010-05-19,75.74
2010-05-20,72.51
2010-05-21,73.25
2010-05-24,70.85
2010-05-25,70.76
2010-05-26,70.3
2010-05-27,73.26
2010-05-28,70.83
2010-06-01,70.25
2010-06-02,72.27
2010-06-03,72.38
2010-06-04,69.97
2010-06-07,70.0
2010-06-08,72.71
2010-06-09,71.86
2010-06-10,74.13
2010-06-11,74.38
2010-06-14,74.99
2010-06-15,77.27
2010-06-16,77.48
2010-06-17,79.22
2010-06-18,79.87
2010-06-21,79.79
2010-06-22,79.4
2010-06-23,79.11
2010-06-24,78.68
2010-06-25,81.01
2010-06-28,81.01
2010-06-29,80.03
2010-06-30,79.68
2010-07-01,78.78
2010-07-02,77.3
2010-07-06,77.49
2010-07-07,79.81
2010-07-08,79.38
2010-07-09,79.72
2010-07-12,79.38
2010-07-13,79.9
2010-07-14,79.37
2010-07-15,79.72
2010-07-16,77.17
2010-07-19,77.38
2010-07-20,78.14
2010-07-21,76.58
2010-07-22,78.32
2010-07-23,78.7
2010-07-26,78.69
2010-07-27,78.44
2010-07-28,77.81
2010-07-29,77.98
2010-07-30,78.15
2010-08-02,79.9
2010-08-03,79.81
2010-08-04,80.8
2010-08-05,80.75
2010-08-06,80.35
2010-08-09,80.69
2010-08-10,79.68
2010-08-11,77.47
2010-08-12,77.07
2010-08-13,76.81
2010-08-16,76.88
2010-08-17,77.42
2010-08-18,78.81
2010-08-19,77.56
2010-08-20,77.82
2010-08-23,77.25
2010-08-24,76.57
2010-08-25,76.8
2010-08-26,76.31
2010-08-27,78.72
2010-08-30,77.9
2010-08-31,78.85
2010-09-01,80.88
2010-09-02,81.33
2010-09-03,81.63
2010-09-07,80.78
2010-09-08,81.63
2010-09-09,82.28
2010-09-10,82.64
2010-09-13,83.33
2010-09-14,83.14
2010-09-15,83.45
2010-09-16,83.47
2010-09-17,83.15
2010-09-20,83.56
2010-09-21,83.11
2010-09-22,82.44
2010-09-23,81.31
2010-09-24,83.22
2010-09-27,82.81
2010-09-28,83.12
2010-09-29,82.4
2010-09-30,82.63
2010-10-01,82.77
2010-10-04,82.11
2010-10-05,83.48
2010-10-06,83.48
2010-10-07,83.22
2010-10-08,83.17
2010-10-11,82.88
2010-10-12,83.34
2010-10-13,83.59
2010-10-14,83.62
2010-10-15,83.4
2010-10-18,83.53
2010-10-19,82.36
2010-10-20,82.94
2010-10-21,82.98
2010-10-22,83.29
2010-10-25,83.32
2010-10-26,82.13
2010-10-27,80.59
2010-10-28,80.17
2010-10-29,79.62
2010-11-01,79.84
2010-11-02,80.48
2010-11-03,81.2
2010-11-04,82.95
2010-11-05,83.74
2010-11-08,82.27
2010-11-09,80.77
2010-11-10,82.01
2010-11-11,81.18
2010-11-12,80.27
2010-11-15,80.16
2010-11-16,79.99
2010-11-17,79.62
2010-11-18,80.8
2010-11-19,80.79
2010-11-22,80.05
2010-11-23,79.05
2010-11-24,80.25
2010-11-26,79.76
2010-11-29,79.61
2010-11-30,79.77
2010-12-01,80.68
2010-12-02,81.28
2010-12-03,80.92
2010-12-06,80.44
2010-12-07,79.86
2010-12-08,80.48
2010-12-09,80.46
2010-12-10,80.7
2010-12-13,80.31
2010-12-14,80.29
2010-12-15,79.55
2010-12-16,79.8
2010-12-17,80.01
2010-12-20,79.56
2010-12-21,80.45
2010-12-22,80.13
2010-12-23,79.86
2010-12-27,80.15
2010-12-28,79.98
2010-12-29,79.97
2010-12-30,79.4
2010-12-31,80.07
2011-01-03,80.45
2011-01-04,80.14
2011-01-05,80.85
2011-01-06,80.41
2011-01-07,79.8
2011-01-10,79.67
2011-01-11,79.39
2011-01-12,80.67
2011-01-13,80.7
2011-01-14,81.63
2011-01-18,81.86
2011-01-19,80.91
2011-01-20,80.67
2011-01-21,80.41
2011-01-24,82.91
2011-01-25,83.27
2011-01-26,83.07
2011-01-27,83.06
2011-01-28,81.5
2011-01-31,81.73
2011-02-01,83.41
2011-02-02,82.51
2011-02-03,83.07
2011-02-04,83.15
2011-02-07,84.08
2011-02-08,84.25
2011-02-09,83.78
2011-02-10,84.33
2011-02-11,84.87
2011-02-14,85.22
2011-02-15,84.98
2011-02-16,84.93
2011-02-17,84.94
2011-02-18,85.16
2011-02-22,83.15
2011-02-23,82.88
2011-02-24,83.39
2011-02-25,84.84
2011-02-28,87.24
2011-03-01,85.31
2011-03-02,84.97
2011-03-03,86.8
2011-03-04,85.49
2011-03-07,85.08
2011-03-08,86.38
2011-03-09,86.04
2011-03-10,85.02
2011-03-11,85.31
2011-03-14,84.27
2011-03-15,82.53
2011-03-16,80.94
2011-03-17,82.79
2011-03-18,83.43
2011-03-21,85.15
2011-03-22,84.96
2011-03-23,84.75
2011-03-24,85.1
2011-03-25,85.22
2011-03-28,84.42
2011-03-29,84.66
2011-03-30,85.46
2011-03-31,83.64
2011-04-01,83.64
2011-04-04,83.07
2011-04-05,81.98
2011-04-06,81.96
2011-04-07,81.92
2011-04-08,81.83
2011-04-11,82.31
2011-04-12,81.75
2011-04-13,80.8
2011-04-14,80.79
2011-04-15,80.85
2011-04-18,80.32
2011-04-19,80.53
2011-04-20,81.74
2011-04-21,82.35
2011-04-25,82.39
2011-04-26,82.94
2011-04-27,82.93
2011-04-28,83.28
2011-04-29,83.21
2011-05-02,81.87
2011-05-03,82.28
2011-05-04,81.55
2011-05-05,79.65
2011-05-06,80.29
2011-05-09,80.74
2011-05-10,81.18
2011-05-11,80.12
2011-05-12,80.74
2011-05-13,79.64
2011-05-16,79.47
2011-05-17,78.86
2011-05-18,79.63
2011-05-19,79.26
2011-05-20,78.77
2011-05-23,77.98
2011-05-24,77.7
2011-05-25,78.18
2011-05-26,78.25
2011-05-27,78.02
2011-05-31,78.98
2011-06-01,77.06
2011-06-02,77.16
2011-06-03,76.2
2011-06-06,75.38
2011-06-07,74.89
2011-06-08,74.37
2011-06-09,75.02
2011-06-10,74.01
2011-06-13,74.28
2011-06-14,75.07
2011-06-15,73.81
2011-06-16,75.05
2011-06-17,75.55
2011-06-20,76.1
2011-06-21,76.43
2011-06-22,76.02
2011-06-23,75.64
2011-06-24,75.51
2011-06-27,75.65
2011-06-28,76.39
2011-06-29,77.01
2011-06-30,77.45
2011-07-01,78.07
2011-07-05,77.3
2011-07-06,76.47
2011-07-07,77.76
2011-07-08,76.93
2011-07-11,75.25
2011-07-12,75.8
2011-07-13,76.38
2011-07-14,76.13
2011-07-15,75.36
2011-07-18,75.08
2011-07-19,76.24
2011-07-20,76.12
2011-07-21,77.26
2011-07-22,76.96
2011-07-25,75.9
2011-07-26,75.5
2011-07-27,74.75
2011-07-28,74.84
2011-07-29,74.3
2011-08-01,74.93
2011-08-02,73.42
2011-08-03,73.99
2011-08-04,70.93
2011-08-05,71.4
2011-08-08,67.08
2011-08-09,72.65
2011-08-10,67.52
2011-08-11,71.94
2011-08-12,71.55
2011-08-15,72.61
2011-08-16,71.71
2011-08-17,72.3
2011-08-18,69.53
2011-08-19,68.26
2011-08-22,67.8
2011-08-23,69.62
2011-08-24,70.7
2011-08-25,68.96
2011-08-26,69.77
2011-08-29,72.76
2011-08-30,72.35
2011-08-31,72.84
2011-09-01,71.48
2011-09-02,69.28
2011-09-06,68.48
2011-09-07,70.7
2011-09-08,69.48
2011-09-09,67.82
2011-09-12,69.18
2011-09-13,68.87
2011-09-14,69.56
2011-09-15,70.82
2011-09-16,71.64
2011-09-19,69.53
2011-09-20,69.79
2011-09-21,67.22
2011-09-22,66.2
2011-09-23,66.45
2011-09-26,72.36
2011-09-27,72.0
2011-09-28,70.76
2011-09-29,72.59
2011-09-30,71.11
2011-10-03,70.23
2011-10-04,73.19
2011-10-05,73.3
2011-10-06,73.63
2011-10-07,71.72
2011-10-10,74.36
2011-10-11,73.27
2011-10-12,74.7
2011-10-13,74.11
2011-10-14,74.68
2011-10-17,72.65
2011-10-18,74.91
2011-10-19,74.1
2011-10-20,75.91
2011-10-21,77.35
2011-10-24,77.31
2011-10-25,75.55
2011-10-26,77.99
2011-10-27,80.36
2011-10-28,79.84
2011-10-31,78.08
2011-11-01,75.53
2011-11-02,77.78
2011-11-03,78.89
2011-11-04,77.04
2011-11-07,77.04
2011-11-08,78.18
2011-11-09,75.33
2011-11-10,75.96
2011-11-11,77.0
2011-11-14,75.76
2011-11-15,75.97
2011-11-16,74.78
2011-11-17,74.05
2011-11-18,75.39
2011-11-21,74.42
2011-11-22,74.42
2011-11-23,72.81
2011-11-25,72.87
2011-11-28,75.58
2011-11-29,75.14
2011-11-30,78.94
2011-12-01,77.78
2011-12-02,77.6
2011-12-05,78.02
2011-12-06,78.19
2011-12-07,78.79
2011-12-08,76.7
2011-12-09,77.8
2011-12-12,76.29
2011-12-13,75.69
2011-12-14,75.6
2011-12-15,74.87
2011-12-16,75.06
2011-12-19,73.96
2011-12-20,76.12
2011-12-21,76.12
2011-12-22,76.76
2011-12-23,77.66
2011-12-27,77.25
2011-12-28,76.51
2011-12-29,76.91
2011-12-30,76.36
2012-01-03,77.69
2012-01-04,76.76
2012-01-05,77.06
2012-01-06,76.32
2012-01-09,76.29
2012-01-10,77.48
2012-01-11,77.95
2012-01-12,78.5
2012-01-13,77.8
2012-01-17,77.99
2012-01-18,78.86
2012-01-19,79.5
2012-01-20,79.83
2012-01-23,79.11
2012-01-24,78.35
2012-01-25,79.93
2012-01-26,79.55
2012-01-27,79.5
2012-01-30,78.69
2012-01-31,78.49
2012-02-01,78.64
2012-02-02,78.74
2012-02-03,80.02
2012-02-06,79.85
2012-02-07,79.9
2012-02-08,79.62
2012-02-09,79.25
2012-02-10,78.71
2012-02-13,79.45
2012-02-14,78.85
2012-02-15,78.0
2012-02-16,78.89
2012-02-17,79.43
2012-02-21,79.61
2012-02-22,78.87
2012-02-23,79.32
2012-02-24,80.05
2012-02-27,80.39
2012-02-28,79.45
2012-02-29,78.49
2012-03-01,78.84
2012-03-02,78.22
2012-03-05,79.15
2012-03-06,78.44
2012-03-07,78.81
2012-03-08,78.94
2012-03-09,79.37
2012-03-12,79.55
2012-03-13,80.82
2012-03-14,80.63
2012-03-15,81.33
2012-03-16,81.03
2012-03-19,81.41
2012-03-20,81.47
2012-03-21,81.28
2012-03-22,80.93
2012-03-23,81.5
2012-03-26,82.29
2012-03-27,81.72
2012-03-28,81.73
2012-03-29,81.42
2012-03-30,81.16
2012-04-02,81.71
2012-04-03,81.58
2012-04-04,81.11
2012-04-05,80.91
2012-04-09,79.75
2012-04-10,78.76
2012-04-11,79.06
2012-04-12,80.09
2012-04-13,78.75
2012-04-16,79.67
2012-04-17,80.85
2012-04-18,79.72
2012-04-19,79.26
2012-04-20,78.88
2012-04-23,78.84
2012-04-24,79.81
2012-04-25,79.98
2012-04-26,80.5
2012-04-27,80.54
2012-04-30,80.38
2012-05-01,81.41
2012-05-02,81.16
2012-05-03,81.3
2012-05-04,81.07
2012-05-07,82.51
2012-05-08,82.29
2012-05-09,81.52
2012-05-10,81.67
2012-05-11,81.65
2012-05-14,80.51
2012-05-15,80.22
2012-05-16,80.59
2012-05-17,79.99
2012-05-18,78.86
2012-05-21,79.85
2012-05-22,79.62
2012-05-23,79.74
2012-05-24,79.75
2012-05-25,79.13
2012-05-29,79.75
2012-05-30,78.77
2012-05-31,79.38
2012-06-01,79.07
2012-06-04,79.05
2012-06-05,79.17
2012-06-06,80.42
2012-06-07,80.58
2012-06-08,81.29
2012-06-11,80.22
2012-06-12,81.29
2012-06-13,80.45
2012-06-14,81.65
2012-06-15,82.48
2012-06-18,82.19
2012-06-19,82.98
2012-06-20,82.37
2012-06-21,81.04
2012-06-22,81.77
2012-06-25,80.56
2012-06-26,81.36
2012-06-27,81.93
2012-06-28,82.21
2012-06-29,83.26
2012-07-02,83.6
2012-07-03,83.78
2012-07-05,83.24
2012-07-06,82.65
2012-07-09,83.42
2012-07-10,83.09
2012-07-11,84.08
2012-07-12,83.58
2012-07-13,84.41
2012-07-16,83.93
2012-07-17,85.13
2012-07-18,84.95
2012-07-19,84.63
2012-07-20,83.7
2012-07-23,83.61
2012-07-24,83.79
2012-07-25,84.05
2012-07-26,84.75
2012-07-27,85.14
2012-07-30,85.22
2012-07-31,84.9
2012-08-01,84.62
2012-08-02,84.1
2012-08-03,85.57
2012-08-06,85.2
2012-08-07,84.67
2012-08-08,84.64
2012-08-09,84.55
2012-08-10,84.77
2012-08-13,84.91
2012-08-14,84.85
2012-08-15,84.68
2012-08-16,85.1
2012-08-17,85.82
2012-08-20,85.68
2012-08-21,85.23
2012-08-22,85.74
2012-08-23,85.15
2012-08-24,85.42
2012-08-27,85.37
2012-08-28,84.95
2012-08-29,84.52
2012-08-30,84.08
2012-08-31,84.45
2012-09-04,84.2
2012-09-05,85.2
2012-09-06,86.35
2012-09-07,86.6
2012-09-10,86.53
2012-09-11,86.68
2012-09-12,86.65
2012-09-13,88.35
2012-09-14,88.5
2012-09-17,88.45
2012-09-18,88.55
2012-09-19,88.89
2012-09-20,89.35
2012-09-21,89.61
2012-09-24,88.74
2012-09-25,88.11
2012-09-26,88.32
2012-09-27,88.27
2012-09-28,88.22
2012-10-01,88.66
2012-10-02,88.82
2012-10-03,89.51
2012-10-04,90.28
2012-10-05,90.34
2012-10-08,90.22
2012-10-09,89.26
2012-10-10,88.69
2012-10-11,88.73
2012-10-12,88.33
2012-10-15,89.17
2012-10-16,89.93
2012-10-17,90.41
2012-10-18,90.61
2012-10-19,89.11
2012-10-22,88.4
2012-10-23,87.06
2012-10-24,86.94
2012-10-25,87.07
2012-10-26,86.54
2012-10-31,86.41
2012-11-01,87.61
2012-11-02,87.04
2012-11-05,86.9
2012-11-06,87.14
2012-11-07,85.56
2012-11-08,84.8
2012-11-09,85.09
2012-11-12,85.25
2012-11-13,85.9
2012-11-14,84.88
2012-11-15,85.35
2012-11-16,85.95
2012-11-19,86.75
2012-11-20,86.81
2012-11-21,87.49
2012-11-23,87.89
2012-11-26,88.25
2012-11-27,87.99
2012-11-28,88.27
2012-11-29,87.89
2012-11-30,88.18
2012-12-03,87.81
2012-12-04,87.3
2012-12-05,87.41
2012-12-06,87.38
2012-12-07,87.26
2012-12-10,87.17
2012-12-11,87.24
2012-12-12,89.41
2012-12-13,89.45
2012-12-14,89.12
2012-12-17,89.96
2012-12-18,90.35
2012-12-19,90.11
2012-12-20,90.62
2012-12-21,89.81
2012-12-24,89.46
2012-12-26,89.33
2012-12-27,89.31
2012-12-28,88.67
2012-12-31,89.66
2013-01-02,93.1
2013-01-03,93.48
2013-01-04,93.83
2013-01-07,93.37
2013-01-08,93.79
2013-01-09,93.21
2013-01-10,94.63
2013-01-11,94.36
2013-01-14,95.22
2013-01-15,95.39
2013-01-16,94.96
2013-01-17,95.32
2013-01-18,95.1
2013-01-22,95.88
2013-01-23,96.48
2013-01-24,97.23
2013-01-25,97.18
2013-01-28,97.23
2013-01-29,97.32
2013-01-30,96.87
2013-01-31,96.84
2013-02-01,97.99
2013-02-04,96.45
2013-02-05,97.82
2013-02-06,97.71
2013-02-07,97.03
2013-02-08,97.21
2013-02-11,97.07
2013-02-12,97.65
2013-02-13,97.99
2013-02-14,99.14
2013-02-15,99.59
2013-02-19,100.99
2013-02-20,100.08
2013-02-21,100.12
2013-02-22,101.16
2013-02-25,98.63
2013-02-26,98.79
2013-02-27,101.19
2013-02-28,101.58
2013-03-01,102.1
2013-03-04,101.89
2013-03-05,102.63
2013-03-06,103.19
2013-03-07,103.49
2013-03-08,103.63
2013-03-11,104.06
2013-03-12,102.89
2013-03-13,103.64
2013-03-14,103.91
2013-03-15,102.9
2013-03-18,101.95
2013-03-19,101.84
2013-03-20,102.26
2013-03-21,102.03
2013-03-22,102.43
2013-03-25,102.5
2013-03-26,103.72
2013-03-27,103.03
2013-03-28,104.32
2013-04-01,103.43
2013-04-02,105.05
2013-04-03,104.2
2013-04-04,105.1
2013-04-05,104.23
2013-04-08,105.22
2013-04-09,105.06
2013-04-10,106.26
2013-04-11,106.73
2013-04-12,106.96
2013-04-15,104.69
2013-04-16,107.46
2013-04-17,105.33
2013-04-18,103.13
2013-04-19,105.29
2013-04-22,104.7
2013-04-23,106.68
2013-04-24,106.64
2013-04-25,107.49
2013-04-26,107.05
2013-04-29,106.46
2013-04-30,106.28
2013-05-01,106.2
2013-05-02,107.22
2013-05-03,108.54
2013-05-06,109.85
2013-05-07,109.81
2013-05-08,110.92
2013-05-09,110.53
2013-05-10,111.69
2013-05-13,111.66
2013-05-14,112.62
2013-05-15,112.73
2013-05-16,111.51
2013-05-17,112.97
2013-05-20,113.04
2013-05-21,112.69
2013-05-22,111.69
2013-05-23,111.41
2013-05-24,110.69
2013-05-28,112.1
2013-05-29,113.09
2013-05-30,114.73
2013-05-31,114.26
2013-06-03,113.91
2013-06-04,113.39
2013-06-05,111.47
2013-06-06,113.04
2013-06-07,115.53
2013-06-10,114.97
2013-06-11,113.37
2013-06-12,112.83
2013-06-13,115.07
2013-06-14,114.08
2013-06-17,114.8
2013-06-18,115.09
2013-06-19,113.93
2013-06-20,111.35
2013-06-21,112.54
2013-06-24,110.55
2013-06-25,112.25
2013-06-26,113.05
2013-06-27,113.01
2013-06-28,112.29
2013-07-01,113.03
2013-07-02,112.37
2013-07-03,112.64
2013-07-05,114.75
2013-07-08,114.96
2013-07-09,115.83
2013-07-10,114.94
2013-07-11,117.3
2013-07-12,116.91
2013-07-15,117.17
2013-07-16,117.13
2013-07-17,117.92
2013-07-18,118.45
2013-07-19,118.88
2013-07-22,118.88
2013-07-23,118.26
2013-07-24,116.35
2013-07-25,117.23
2013-07-26,117.22
2013-07-29,116.27
2013-07-30,115.8
2013-07-31,115.99
2013-08-01,117.35
2013-08-02,117.62
2013-08-05,118.15
2013-08-06,117.78
2013-08-07,116.88
2013-08-08,117.67
2013-08-09,116.67
