date,close_price
2009-09-01,19.77
2009-09-02,18.7
2009-09-03,18.6
2009-09-04,18.5
2009-09-08,18.46
2009-09-09,18.65
2009-09-10,19.15
2009-09-11,19.28
2009-09-14,19.51
2009-09-15,20.83
2009-09-16,21.89
2009-09-17,21.46
2009-09-18,21.82
2009-09-21,21.32
2009-09-22,21.45
2009-09-23,20.9
2009-09-24,20.55
2009-09-25,21.18
2009-09-28,21.84
2009-09-29,21.96
2009-09-30,21.78
2009-10-01,21.59
2009-10-02,21.56
2009-10-05,21.24
2009-10-06,22.04
2009-10-07,21.97
2009-10-08,22.88
2009-10-09,23.22
2009-10-12,22.94
2009-10-13,22.6
2009-10-14,22.68
2009-10-15,22.83
2009-10-16,22.7
2009-10-19,22.94
2009-10-20,22.35
2009-10-21,21.82
2009-10-22,22.68
2009-10-23,22.61
2009-10-26,22.6
2009-10-27,22.52
2009-10-28,22.52
2009-10-29,23.66
2009-10-30,22.37
2009-11-02,22.33
2009-11-03,21.99
2009-11-04,22.53
2009-11-05,23.98
2009-11-06,23.34
2009-11-09,24.0
2009-11-10,24.77
2009-11-11,25.15
2009-11-12,24.81
2009-11-13,25.02
2009-11-16,25.5
2009-11-17,25.49
2009-11-18,25.52
2009-11-19,25.16
2009-11-20,25.06
2009-11-23,25.99
2009-11-24,26.62
2009-11-25,26.37
2009-11-27,25.79
2009-11-30,25.83
2009-12-01,25.83
2009-12-02,25.84
2009-12-03,24.62
2009-12-04,24.47
2009-12-07,24.72
2009-12-08,24.31
2009-12-09,24.05
2009-12-10,24.05
2009-12-11,24.43
2009-12-14,24.62
2009-12-15,24.27
2009-12-16,24.32
2009-12-17,24.06
2009-12-18,25.2
2009-12-21,25.62
2009-12-22,26.04
2009-12-23,26.13
2009-12-24,26.35
2009-12-28,26.53
2009-12-29,25.9
2009-12-30,25.06
2009-12-31,25.05
2010-01-04,24.93
2010-01-05,24.64
2010-01-06,24.79
2010-01-07,25.15
2010-01-08,26.1
2010-01-11,26.61
2010-01-12,25.63
2010-01-13,25.72
2010-01-14,26.0
2010-01-15,25.6
2010-01-19,25.98
2010-01-20,26.8
2010-01-21,27.13
2010-01-22,27.52
2010-01-25,27.5
2010-01-26,27.53
2010-01-27,26.93
2010-01-28,26.16
2010-01-29,25.82
2010-02-01,26.02
2010-02-02,26.89
2010-02-03,26.33
2010-02-04,25.94
2010-02-05,25.95
2010-02-08,25.86
2010-02-09,26.25
2010-02-10,26.42
2010-02-11,25.79
2010-02-12,25.14
2010-02-16,25.31
2010-02-17,26.26
2010-02-18,26.19
2010-02-19,26.3
2010-02-22,26.36
2010-02-23,25.93
2010-02-24,25.84
2010-02-25,25.39
2010-02-26,25.31
2010-03-01,26.07
2010-03-02,25.76
2010-03-03,25.35
2010-03-04,25.42
2010-03-05,25.94
2010-03-08,25.93
2010-03-09,25.81
2010-03-10,25.67
2010-03-11,25.6
2010-03-12,25.76
2010-03-15,25.78
2010-03-16,25.74
2010-03-17,25.4
2010-03-18,25.45
2010-03-19,25.21
2010-03-22,25.25
2010-03-23,25.15
2010-03-24,25.0
2010-03-25,24.98
2010-03-26,25.46
2010-03-29,25.78
2010-03-30,26.56
2010-03-31,26.42
2010-04-01,26.14
2010-04-05,26.37
2010-04-06,26.36
2010-04-07,26.24
2010-04-08,26.3
2010-04-09,26.54
2010-04-12,26.43
2010-04-13,27.0
2010-04-14,26.84
2010-04-15,26.91
2010-04-16,27.21
2010-04-19,27.69
2010-04-20,27.81
2010-04-21,28.06
2010-04-22,27.95
2010-04-23,27.79
2010-04-26,27.22
2010-04-27,26.68
2010-04-28,27.12
2010-04-29,27.46
2010-04-30,27.61
2010-05-03,27.28
2010-05-04,28.52
2010-05-05,28.96
2010-05-06,27.79
2010-05-07,26.12
2010-05-10,26.56
2010-05-11,26.45
2010-05-12,26.37
2010-05-13,26.05
2010-05-14,25.87
2010-05-17,25.53
2010-05-18,25.4
2010-05-19,25.33
2010-05-20,24.74
2010-05-21,24.72
2010-05-24,25.02
2010-05-25,24.77
2010-05-26,24.68
2010-05-27,25.56
2010-05-28,25.46
2010-06-01,25.11
2010-06-02,25.86
2010-06-03,25.91
2010-06-04,24.78
2010-06-07,24.74
2010-06-08,25.09
2010-06-09,25.15
2010-06-10,25.29
2010-06-11,25.47
2010-06-14,25.51
2010-06-15,25.5
2010-06-16,25.52
2010-06-17,25.29
2010-06-18,24.66
2010-06-21,24.55
2010-06-22,23.9
2010-06-23,23.84
2010-06-24,23.54
2010-06-25,23.37
2010-06-28,23.71
2010-06-29,22.85
2010-06-30,22.72
2010-07-01,22.41
2010-07-02,22.42
2010-07-06,22.68
2010-07-07,22.78
2010-07-08,22.75
2010-07-09,22.61
2010-07-12,22.48
2010-07-13,22.88
2010-07-14,22.53
2010-07-15,22.42
2010-07-16,21.54
2010-07-19,21.84
2010-07-20,21.67
2010-07-21,20.65
2010-07-22,21.19
2010-07-23,21.54
2010-07-26,21.85
2010-07-27,21.56
2010-07-28,21.3
2010-07-29,21.06
2010-07-30,21.09
2010-08-02,21.44
2010-08-03,21.11
2010-08-04,21.46
2010-08-05,21.5
2010-08-06,21.46
2010-08-09,21.68
2010-08-10,21.38
2010-08-11,23.29
2010-08-12,22.75
2010-08-13,22.87
2010-08-16,22.61
2010-08-17,22.54
2010-08-18,22.49
2010-08-19,22.02
2010-08-20,22.81
2010-08-23,22.98
2010-08-24,22.27
2010-08-25,22.59
2010-08-26,22.49
2010-08-27,22.71
2010-08-30,22.1
2010-08-31,21.58
2010-09-01,22.17
2010-09-02,22.16
2010-09-03,22.51
2010-09-07,22.44
2010-09-08,22.63
2010-09-09,23.05
2010-09-10,23.32
2010-09-13,23.27
2010-09-14,24.05
2010-09-15,24.47
2010-09-16,24.18
2010-09-17,24.24
2010-09-20,24.63
2010-09-21,24.21
2010-09-22,24.21
2010-09-23,24.46
2010-09-24,24.93
2010-09-27,24.67
2010-09-28,25.03
2010-09-29,25.16
2010-09-30,24.86
2010-10-01,24.79
2010-10-04,24.36
2010-10-05,24.87
2010-10-06,24.71
2010-10-07,24.47
2010-10-08,24.51
2010-10-11,24.66
2010-10-12,24.76
2010-10-13,24.97
2010-10-14,24.77
2010-10-15,24.63
2010-10-18,24.86
2010-10-19,24.41
2010-10-20,24.84
2010-10-21,24.89
2010-10-22,24.67
2010-10-25,24.65
2010-10-26,24.36
2010-10-27,24.37
2010-10-28,24.36
2010-10-29,24.16
2010-11-01,24.39
2010-11-02,23.02
2010-11-03,23.8
2010-11-04,24.09
2010-11-05,24.12
2010-11-08,23.41
2010-11-09,23.18
2010-11-10,23.09
2010-11-11,23.4
2010-11-12,23.12
2010-11-15,23.45
2010-11-16,23.11
2010-11-17,23.45
2010-11-18,24.0
2010-11-19,23.5
2010-11-22,23.4
2010-11-23,23.06
2010-11-24,23.28
2010-11-26,23.28
2010-11-29,23.0
2010-11-30,22.86
2010-12-01,23.55
2010-12-02,22.76
2010-12-03,22.99
2010-12-06,23.31
2010-12-07,23.44
2010-12-08,23.73
2010-12-09,23.68
2010-12-10,24.17
2010-12-13,24.18
2010-12-14,24.46
2010-12-15,24.44
2010-12-16,24.3
2010-12-17,24.84
2010-12-20,24.89
2010-12-21,25.19
2010-12-22,25.16
2010-12-23,25.22
2010-12-27,25.4
2010-12-28,25.95
2010-12-29,25.65
2010-12-30,25.99
2010-12-31,25.68
2011-01-03,25.36
2011-01-04,25.48
2011-01-05,25.4
2011-01-06,25.41
2011-01-07,25.28
2011-01-10,25.21
2011-01-11,25.65
2011-01-12,25.95
2011-01-13,26.47
2011-01-14,26.79
2011-01-18,26.23
2011-01-19,26.04
2011-01-20,25.9
2011-01-21,26.06
2011-01-24,26.4
2011-01-25,26.2
2011-01-26,26.19
2011-01-27,25.76
2011-01-28,25.24
2011-01-31,25.68
2011-02-01,26.29
2011-02-02,26.14
2011-02-03,26.6
2011-02-04,27.42
2011-02-07,28.0
2011-02-08,27.67
2011-02-09,27.2
2011-02-10,27.29
2011-02-11,27.77
2011-02-14,27.59
2011-02-15,27.84
2011-02-16,28.07
2011-02-17,28.0
2011-02-18,28.04
2011-02-22,27.36
2011-02-23,27.08
2011-02-24,27.02
2011-02-25,27.41
2011-02-28,27.31
2011-03-01,27.1
2011-03-02,27.29
2011-03-03,28.13
2011-03-04,27.9
2011-03-07,27.49
2011-03-08,28.05
2011-03-09,27.99
2011-03-10,27.48
2011-03-11,27.89
2011-03-14,27.09
2011-03-15,27.14
2011-03-16,26.82
2011-03-17,27.01
2011-03-18,27.05
2011-03-21,27.46
2011-03-22,27.26
2011-03-23,27.14
2011-03-24,27.27
2011-03-25,27.9
2011-03-28,28.01
2011-03-29,28.06
2011-03-30,28.5
2011-03-31,28.2
2011-04-01,28.19
2011-04-04,27.97
2011-04-05,27.99
2011-04-06,27.93
2011-04-07,28.15
2011-04-08,27.83
2011-04-11,27.58
2011-04-12,27.42
2011-04-13,28.36
2011-04-14,29.19
2011-04-15,29.3
2011-04-18,28.8
2011-04-19,29.25
2011-04-20,29.19
2011-04-21,29.42
2011-04-25,29.13
2011-04-26,29.4
2011-04-27,29.49
2011-04-28,29.27
2011-04-29,29.36
2011-05-02,29.5
2011-05-03,29.58
2011-05-04,29.23
2011-05-05,28.81
2011-05-06,29.19
2011-05-09,29.08
2011-05-10,29.47
2011-05-11,29.84
2011-05-12,29.87
2011-05-13,29.84
2011-05-16,29.36
2011-05-17,29.13
2011-05-18,29.15
2011-05-19,29.13
2011-05-20,28.85
2011-05-23,28.66
2011-05-24,29.07
2011-05-25,29.07
2011-05-26,28.92
2011-05-27,28.68
2011-05-31,29.0
2011-06-01,28.1
2011-06-02,27.73
2011-06-03,27.62
2011-06-06,27.41
2011-06-07,27.7
2011-06-08,27.6
2011-06-09,28.11
2011-06-10,27.67
2011-06-13,27.46
2011-06-14,27.45
2011-06-15,26.92
2011-06-16,26.88
2011-06-17,26.66
2011-06-20,26.8
2011-06-21,27.32
2011-06-22,27.18
2011-06-23,27.2
2011-06-24,26.36
2011-06-27,26.78
2011-06-28,27.11
2011-06-29,26.76
2011-06-30,27.19
2011-07-01,27.65
2011-07-05,27.75
2011-07-06,27.85
2011-07-07,28.14
2011-07-08,28.08
2011-07-11,27.63
2011-07-12,27.68
2011-07-13,27.72
2011-07-14,27.51
2011-07-15,27.6
2011-07-18,27.28
2011-07-19,27.73
2011-07-20,27.61
2011-07-21,28.13
2011-07-22,27.88
2011-07-25,27.44
2011-07-26,27.13
2011-07-27,26.75
2011-07-28,26.49
2011-07-29,26.41
2011-08-01,25.52
2011-08-02,24.53
2011-08-03,25.01
2011-08-04,24.05
2011-08-05,24.06
2011-08-08,22.27
2011-08-09,24.5
2011-08-10,23.02
2011-08-11,24.74
2011-08-12,25.6
2011-08-15,25.54
2011-08-16,25.7
2011-08-17,25.49
2011-08-18,24.2
2011-08-19,23.82
2011-08-22,23.62
2011-08-23,24.8
2011-08-24,24.47
2011-08-25,24.28
2011-08-26,24.69
2011-08-29,25.44
2011-08-30,25.27
2011-08-31,25.54
2011-09-01,25.2
2011-09-02,24.54
2011-09-06,24.26
2011-09-07,25.07
2011-09-08,24.62
2011-09-09,23.62
2011-09-12,23.46
2011-09-13,23.75
2011-09-14,24.19
2011-09-15,24.2
2011-09-16,24.69
2011-09-19,24.25
2011-09-20,24.49
2011-09-21,23.62
2011-09-22,23.25
2011-09-23,23.38
2011-09-26,24.0
2011-09-27,24.33
2011-09-28,24.1
2011-09-29,24.53
2011-09-30,23.97
2011-10-03,23.21
2011-10-04,23.66
2011-10-05,24.2
2011-10-06,24.48
2011-10-07,24.12
2011-10-10,24.57
2011-10-11,24.81
2011-10-12,24.69
2011-10-13,24.63
2011-10-14,24.9
2011-10-17,24.17
2011-10-18,24.5
2011-10-19,24.25
2011-10-20,23.74
2011-10-21,24.5
2011-10-24,24.97
2011-10-25,24.42
2011-10-26,24.48
2011-10-27,25.16
2011-10-28,25.96
2011-10-31,25.68
2011-11-01,24.63
2011-11-02,24.92
2011-11-03,25.36
2011-11-04,25.23
2011-11-07,25.27
2011-11-08,25.17
2011-11-09,24.29
2011-11-10,24.6
2011-11-11,24.89
2011-11-14,24.94
2011-11-15,25.0
2011-11-16,24.69
2011-11-17,24.08
2011-11-18,24.06
2011-11-21,23.54
2011-11-22,23.53
2011-11-23,23.17
2011-11-25,23.25
2011-11-28,23.78
2011-11-29,23.76
2011-11-30,24.81
2011-12-01,25.21
2011-12-02,24.95
2011-12-05,25.03
2011-12-06,24.88
2011-12-07,24.84
2011-12-08,24.29
2011-12-09,24.83
2011-12-12,24.49
2011-12-13,24.02
2011-12-14,24.01
2011-12-15,24.12
2011-12-16,24.06
2011-12-19,23.94
2011-12-20,24.77
2011-12-21,24.62
2011-12-22,24.9
2011-12-23,25.26
2011-12-27,25.27
2011-12-28,24.94
2011-12-29,25.35
2011-12-30,25.41
2012-01-03,25.63
2012-01-04,25.52
2012-01-05,25.66
2012-01-06,25.47
2012-01-09,23.26
2012-01-10,22.98
2012-01-11,22.88
2012-01-12,22.85
2012-01-13,22.79
2012-01-17,22.84
2012-01-18,22.9
2012-01-19,23.29
2012-01-20,23.51
2012-01-23,23.64
2012-01-24,23.75
2012-01-25,24.04
2012-01-26,24.12
2012-01-27,23.91
2012-01-30,24.32
2012-01-31,23.96
2012-02-01,24.0
2012-02-02,24.11
2012-02-03,25.0
2012-02-06,25.15
2012-02-07,25.1
2012-02-08,24.94
2012-02-09,24.85
2012-02-10,25.38
2012-02-13,25.45
2012-02-14,25.73
2012-02-15,25.31
2012-02-16,25.85
2012-02-17,26.06
2012-02-21,26.08
2012-02-22,25.87
2012-02-23,25.83
2012-02-24,25.89
2012-02-27,25.82
2012-02-28,26.21
2012-02-29,25.83
2012-03-01,25.5
2012-03-02,25.33
2012-03-05,25.15
2012-03-06,25.04
2012-03-07,24.98
2012-03-08,25.21
2012-03-09,25.37
2012-03-12,25.08
2012-03-13,25.8
2012-03-14,25.77
2012-03-15,25.94
2012-03-16,25.71
2012-03-19,25.65
2012-03-20,25.5
2012-03-21,25.44
2012-03-22,25.46
2012-03-23,25.38
2012-03-26,25.8
2012-03-27,25.79
2012-03-28,25.95
2012-03-29,25.94
2012-03-30,25.94
2012-04-02,26.31
2012-04-03,26.44
2012-04-04,26.23
2012-04-05,26.11
2012-04-09,25.59
2012-04-10,25.39
2012-04-11,25.65
2012-04-12,26.04
2012-04-13,25.47
2012-04-16,25.39
2012-04-17,25.56
2012-04-18,25.59
2012-04-19,25.6
2012-04-20,25.88
2012-04-23,25.46
2012-04-24,25.44
2012-04-25,25.75
2012-04-26,25.97
2012-04-27,25.95
2012-04-30,25.92
2012-05-01,26.05
2012-05-02,26.21
2012-05-03,25.8
2012-05-04,27.17
2012-05-07,26.57
2012-05-08,26.43
2012-05-09,25.95
2012-05-10,25.88
2012-05-11,25.85
2012-05-14,25.52
2012-05-15,25.24
2012-05-16,25.12
2012-05-17,25.09
2012-05-18,24.64
2012-05-21,24.83
2012-05-22,24.63
2012-05-23,24.28
2012-05-24,24.75
2012-05-25,24.89
2012-05-29,24.96
2012-05-30,24.49
2012-05-31,24.27
2012-06-01,23.99
2012-06-04,23.99
2012-06-05,24.06
2012-06-06,24.5
2012-06-07,24.52
2012-06-08,24.59
2012-06-11,24.41
2012-06-12,24.28
2012-06-13,24.47
2012-06-14,24.55
2012-06-15,24.74
2012-06-18,24.84
2012-06-19,25.11
2012-06-20,25.17
2012-06-21,24.81
2012-06-22,24.95
2012-06-25,24.5
2012-06-26,24.51
2012-06-27,25.03
2012-06-28,24.86
2012-06-29,25.67
2012-07-02,25.83
2012-07-03,25.69
2012-07-05,25.45
2012-07-06,25.52
2012-07-09,25.53
2012-07-10,25.35
2012-07-11,25.46
2012-07-12,25.26
2012-07-13,25.38
2012-07-16,25.14
2012-07-17,25.62
2012-07-18,25.5
2012-07-19,25.37
2012-07-20,25.0
2012-07-23,24.68
2012-07-24,24.06
2012-07-25,24.27
2012-07-26,24.19
2012-07-27,24.35
2012-07-30,24.43
2012-07-31,24.41
2012-08-01,24.4
2012-08-02,24.01
2012-08-03,24.13
2012-08-06,24.13
2012-08-07,24.34
2012-08-08,24.4
2012-08-09,24.57
2012-08-10,26.29
2012-08-13,26.92
2012-08-14,26.7
2012-08-15,26.77
2012-08-16,26.87
2012-08-17,27.1
2012-08-20,27.1
2012-08-21,26.96
2012-08-22,26.61
2012-08-23,26.34
2012-08-24,26.41
2012-08-27,26.45
2012-08-28,26.47
2012-08-29,26.47
2012-08-30,26.4
2012-08-31,26.31
2012-09-04,26.43
2012-09-05,26.48
2012-09-06,26.76
2012-09-07,27.73
2012-09-10,27.7
2012-09-11,27.94
2012-09-12,27.64
2012-09-13,27.95
2012-09-14,27.82
2012-09-17,27.87
2012-09-18,28.41
2012-09-19,28.51
2012-09-20,28.38
2012-09-21,28.52
2012-09-24,28.42
2012-09-25,28.06
2012-09-26,27.8
2012-09-27,28.65
2012-09-28,28.4
2012-10-01,28.32
2012-10-02,28.57
2012-10-03,28.76
2012-10-04,28.69
2012-10-05,28.6
2012-10-08,28.6
2012-10-09,27.92
2012-10-10,27.86
2012-10-11,28.11
2012-10-12,27.81
2012-10-15,27.83
2012-10-16,28.23
2012-10-17,28.05
2012-10-18,27.43
2012-10-19,27.24
2012-10-22,27.43
2012-10-23,26.8
2012-10-24,26.63
2012-10-25,26.77
2012-10-26,26.56
2012-10-31,26.62
2012-11-01,26.82
2012-11-02,26.69
2012-11-05,26.76
2012-11-06,27.25
2012-11-07,26.92
2012-11-08,26.9
2012-11-09,27.09
2012-11-12,27.07
2012-11-13,26.8
2012-11-14,26.74
2012-11-15,26.62
2012-11-16,26.79
2012-11-19,27.2
2012-11-20,27.54
2012-11-21,27.67
2012-11-23,28.04
2012-11-26,27.9
2012-11-27,27.78
2012-11-28,27.82
2012-11-29,27.81
2012-11-30,27.93
2012-12-03,27.76
2012-12-04,27.7
2012-12-05,27.63
2012-12-06,27.77
2012-12-07,27.93
2012-12-10,28.0
2012-12-11,28.12
2012-12-12,28.21
2012-12-13,28.18
2012-12-14,28.06
2012-12-17,28.25
2012-12-18,28.42
2012-12-19,28.51
2012-12-20,29.04
2012-12-21,28.75
2012-12-24,28.69
2012-12-26,28.51
2012-12-27,28.5
2012-12-28,28.37
2012-12-31,28.55
2013-01-02,29.24
2013-01-03,29.05
2013-01-04,29.07
2013-01-07,29.24
2013-01-08,29.24
2013-01-09,29.43
2013-01-10,29.63
2013-01-11,29.38
2013-01-14,29.67
2013-01-15,29.96
2013-01-16,30.13
2013-01-17,30.47
2013-01-18,30.68
2013-01-22,30.8
2013-01-23,30.58
2013-01-24,30.74
2013-01-25,31.38
2013-01-28,31.14
2013-01-29,31.34
2013-01-30,31.14
2013-01-31,31.07
2013-02-01,31.335
2013-02-04,30.89
2013-02-05,31.4
2013-02-06,31.425
2013-02-07,31.82
2013-02-08,31.84
2013-02-11,32.1212
2013-02-12,32.44
2013-02-13,32.05
2013-02-14,32.73
2013-02-15,32.8
2013-02-19,33.03
2013-02-20,32.73
2013-02-21,32.18
2013-02-22,32.67
2013-02-25,31.68
2013-02-26,32.075
2013-02-27,32.425
2013-02-28,32.73
2013-03-01,32.94
2013-03-04,33.04
2013-03-05,33.35
2013-03-06,33.26
2013-03-07,33.36
2013-03-08,33.43
2013-03-11,33.68
2013-03-12,34.02
2013-03-13,34.32
2013-03-14,34.38
2013-03-15,34.31
2013-03-18,33.89
2013-03-19,33.84
2013-03-20,34.14
2013-03-21,34.18
2013-03-22,34.64
2013-03-25,34.43
2013-03-26,34.78
2013-03-27,34.9
2013-03-28,34.99
2013-04-01,34.72
2013-04-02,34.9
2013-04-03,34.53
2013-04-04,34.75
2013-04-05,34.51
2013-04-08,34.45
2013-04-09,34.5
2013-04-10,34.78
2013-04-11,35.42
2013-04-12,35.26
2013-04-15,34.37
2013-04-16,34.92
2013-04-17,34.56
2013-04-18,34.19
2013-04-19,34.56
2013-04-22,33.99
2013-04-23,34.3
2013-04-24,34.24
2013-04-25,34.45
2013-04-26,33.74
2013-04-29,33.76
2013-04-30,33.41
2013-05-01,33.2
2013-05-02,33.59
2013-05-03,34.15
2013-05-06,34.26
2013-05-07,34.31
2013-05-08,34.61
2013-05-09,34.65
2013-05-10,33.56
2013-05-13,33.74
2013-05-14,33.8
2013-05-15,33.7
2013-05-16,33.72
2013-05-17,34.36
2013-05-20,34.09
2013-05-21,34.14
2013-05-22,34.16
2013-05-23,34.42
2013-05-24,34.4
2013-05-28,34.93
2013-05-29,34.83
2013-05-30,36.71
2013-05-31,36.78
2013-06-03,37.28
2013-06-04,37.75
2013-06-05,37.48
2013-06-06,37.49
2013-06-07,38.18
2013-06-10,37.87
2013-06-11,37.99
2013-06-12,37.53
2013-06-13,38.04
2013-06-14,37.81
2013-06-17,37.93
2013-06-18,38.05
2013-06-19,37.57
2013-06-20,36.16
2013-06-21,37.05
2013-06-24,36.54
2013-06-25,36.84
2013-06-26,36.36
2013-06-27,37.11
2013-06-28,36.9
2013-07-01,37.36
2013-07-02,37.3
2013-07-03,37.39
2013-07-05,37.55
2013-07-08,38.25
2013-07-09,37.32
2013-07-10,37.92
2013-07-11,38.61
2013-07-12,38.52
2013-07-15,39.09
2013-07-16,38.58
2013-07-17,38.61
2013-07-18,38.83
2013-07-19,38.78
2013-07-22,38.86
2013-07-23,38.78
2013-07-24,38.79
2013-07-25,38.73
2013-07-26,38.33
2013-07-29,38.17
2013-07-30,38.59
2013-07-31,38.52
2013-08-01,38.92
2013-08-02,36.66
2013-08-05,37.1
2013-08-06,37.2
2013-08-07,36.91
2013-08-08,37.35
2013-08-09,36.96
