date,close_price
1998-01-02,6.57661
1998-01-05,6.25474
1998-01-06,5.81978
1998-01-07,5.38482
1998-01-08,5.16734
1998-01-09,5.05425
1998-01-12,4.83677
1998-01-13,5.11514
1998-01-14,5.55011
1998-01-15,5.55011
1998-01-16,5.33262
1998-01-20,5.27173
1998-01-21,5.21953
1998-01-22,5.11514
1998-01-23,5.21953
1998-01-26,5.27173
1998-01-27,5.05425
1998-01-28,4.89766
1998-01-29,5.11514
1998-01-30,5.00205
1998-02-02,5.00205
1998-02-03,5.16734
1998-02-04,5.27173
1998-02-05,5.21953
1998-02-06,5.11514
1998-02-09,5.16734
1998-02-10,5.21953
1998-02-11,5.16734
1998-02-12,5.81978
1998-02-13,5.76759
1998-02-17,5.6545
1998-02-18,5.6023
1998-02-19,5.6023
1998-02-20,5.6023
1998-02-23,5.27173
1998-02-24,5.38482
1998-02-25,5.55011
1998-02-26,5.6023
1998-02-27,6.14165
1998-03-02,6.08946
1998-03-03,6.08946
1998-03-04,6.25474
1998-03-05,6.25474
1998-03-06,6.03726
1998-03-09,5.81978
1998-03-10,5.81978
1998-03-11,5.55011
1998-03-12,5.6545
1998-03-13,5.6545
1998-03-16,5.38482
1998-03-17,5.21953
1998-03-18,5.43702
1998-03-19,5.27173
1998-03-20,5.38482
1998-03-23,5.6545
1998-03-24,5.48921
1998-03-25,5.21953
1998-03-26,5.21953
1998-03-27,5.18462
1998-03-30,4.91404
1998-03-31,5.07115
1998-04-01,5.07115
1998-04-02,5.07115
1998-04-03,4.91404
1998-04-06,4.85294
1998-04-07,4.69583
1998-04-08,4.91404
1998-04-09,4.91404
1998-04-13,4.91404
1998-04-14,4.53
1998-04-15,4.80057
1998-04-16,4.80057
1998-04-17,5.01878
1998-04-20,5.01878
1998-04-21,4.91404
1998-04-22,4.85294
1998-04-23,4.80057
1998-04-24,4.63474
1998-04-27,4.53
1998-04-28,4.58237
1998-04-29,4.53
1998-04-30,4.47763
1998-05-01,4.31179
1998-05-04,4.36416
1998-05-05,4.31179
1998-05-06,4.25942
1998-05-07,4.41653
1998-05-08,4.36416
1998-05-11,4.31179
1998-05-12,4.31179
1998-05-13,4.25942
1998-05-14,4.25942
1998-05-15,4.19832
1998-05-18,4.09358
1998-05-19,3.92774
1998-05-20,4.04121
1998-05-21,4.14595
1998-05-22,4.04121
1998-05-26,3.92774
1998-05-27,3.7619
1998-05-28,3.7619
1998-05-29,3.823
1998-06-01,3.7619
1998-06-02,3.87537
1998-06-03,3.7619
1998-06-04,3.7619
1998-06-05,3.87537
1998-06-08,3.823
1998-06-09,3.823
1998-06-10,3.7619
1998-06-11,3.65716
1998-06-12,3.65716
1998-06-15,3.60479
1998-06-16,3.49133
1998-06-17,3.60479
1998-06-18,3.60479
1998-06-19,3.49133
1998-06-22,3.49133
1998-06-23,3.5437
1998-06-24,3.5437
1998-06-25,3.65716
1998-06-26,3.62236
1998-06-29,3.50833
1998-06-30,3.50833
1998-07-01,3.50833
1998-07-02,3.45571
1998-07-06,3.40308
1998-07-07,3.06979
1998-07-08,2.68388
1998-07-09,2.63125
1998-07-10,2.68388
1998-07-13,2.63125
1998-07-14,2.63125
1998-07-15,2.57863
1998-07-16,2.63125
1998-07-17,2.526
1998-07-20,2.526
1998-07-21,2.526
1998-07-22,2.46461
1998-07-23,2.46461
1998-07-24,2.35936
1998-07-27,2.41198
1998-07-28,2.30673
1998-07-29,2.30673
1998-07-30,2.30673
1998-07-31,2.24533
1998-08-03,2.30673
1998-08-04,2.19271
1998-08-05,2.08746
1998-08-06,2.30673
1998-08-07,2.24533
1998-08-10,2.02606
1998-08-11,1.92081
1998-08-12,1.92081
1998-08-13,1.86819
1998-08-14,2.35936
1998-08-17,2.57863
1998-08-18,2.57863
1998-08-19,2.526
1998-08-20,2.35936
1998-08-21,2.19271
1998-08-24,2.02606
1998-08-25,2.02606
1998-08-26,1.92081
1998-08-27,1.75417
1998-08-28,1.5349
1998-08-31,1.48227
1998-09-01,1.48227
1998-09-02,1.36825
1998-09-03,1.36825
1998-09-04,1.42965
1998-09-08,1.58752
1998-09-09,1.48227
1998-09-10,1.58752
1998-09-11,1.58752
1998-09-14,1.5349
1998-09-15,1.70154
1998-09-16,1.64892
1998-09-17,1.48227
1998-09-18,1.5349
1998-09-21,1.42965
1998-09-22,1.36825
1998-09-23,1.42965
1998-09-24,1.263
1998-09-25,1.21038
1998-09-28,1.21038
1998-09-29,1.21038
1998-09-30,1.09635
1998-10-01,0.991105
1998-10-02,0.991105
1998-10-05,1.21038
1998-10-06,1.21038
1998-10-07,1.14898
1998-10-08,1.14898
1998-10-09,1.263
1998-10-12,1.21038
1998-10-13,1.21038
1998-10-14,1.14898
1998-10-15,1.21038
1998-10-16,1.04373
1998-10-19,1.14898
1998-10-20,1.21038
1998-10-21,1.21038
1998-10-22,1.263
1998-10-23,1.31563
1998-10-26,1.42965
1998-10-27,1.64892
1998-10-28,1.58752
1998-10-29,1.64892
1998-10-30,1.64892
1998-11-02,2.08746
1998-11-03,2.24533
1998-11-04,2.14008
1998-11-05,1.92081
1998-11-06,1.92081
1998-11-09,2.02606
1998-11-10,1.97344
1998-11-11,1.86819
1998-11-12,1.86819
1998-11-13,1.80679
1998-11-16,1.58752
1998-11-17,1.48227
1998-11-18,1.36825
1998-11-19,1.36825
1998-11-20,1.14898
1998-11-23,1.14898
1998-11-24,1.21038
1998-11-25,1.31563
1998-11-27,1.36825
1998-11-30,1.21038
1998-12-01,1.09635
1998-12-02,1.09635
1998-12-03,1.09635
1998-12-04,1.14898
1998-12-07,1.14898
1998-12-08,1.14898
1998-12-09,1.14898
1998-12-10,1.04373
1998-12-11,1.09635
1998-12-14,1.04373
1998-12-15,1.09635
1998-12-16,1.04373
1998-12-17,0.991105
1998-12-18,0.929709
1998-12-21,0.877084
1998-12-22,0.929709
1998-12-23,0.929709
1998-12-24,0.877084
1998-12-28,0.877084
1998-12-29,0.710438
1998-12-30,0.710438
1998-12-31,0.771834
1999-01-04,0.877084
1999-01-05,0.877084
1999-01-06,1.04373
1999-01-07,0.929709
1999-01-08,0.929709
1999-01-11,1.04373
1999-01-12,0.929709
1999-01-13,0.991105
1999-01-14,0.991105
1999-01-15,0.929709
1999-01-19,0.929709
1999-01-20,0.877084
1999-01-21,0.877084
1999-01-22,0.929709
1999-01-25,0.877084
1999-01-26,0.929709
1999-01-27,0.824459
1999-01-28,0.824459
1999-01-29,0.710438
1999-02-01,0.771834
1999-02-02,0.771834
1999-02-03,0.771834
1999-02-04,0.710438
1999-02-05,0.657813
1999-02-08,0.710438
1999-02-09,0.710438
1999-02-10,0.657813
1999-02-11,0.710438
1999-02-12,0.710438
1999-02-16,0.710438
1999-02-17,0.710438
1999-02-18,0.710438
1999-02-19,0.657813
1999-02-22,0.657813
1999-02-23,0.657813
1999-02-24,0.657813
1999-02-25,0.657813
1999-02-26,0.657813
1999-03-01,0.657813
1999-03-02,0.657813
1999-03-03,0.710438
1999-03-04,0.771834
1999-03-05,0.824459
1999-03-08,1.04373
1999-03-09,0.991105
1999-03-10,1.04373
1999-03-11,1.09635
1999-03-12,1.09635
1999-03-15,1.04373
1999-03-16,1.04373
1999-03-17,0.991105
1999-03-18,1.04373
1999-03-19,1.14898
1999-03-22,1.263
1999-03-23,1.21038
1999-03-24,1.21038
1999-03-25,1.21038
1999-03-26,1.21038
1999-03-29,1.21038
1999-03-30,1.21038
1999-03-31,1.21038
1999-04-01,1.21038
1999-04-05,1.21038
1999-04-06,1.21038
1999-04-07,1.263
1999-04-08,1.21038
1999-04-09,1.263
1999-04-12,1.21038
1999-04-13,1.263
1999-04-14,1.31563
1999-04-15,1.31563
1999-04-16,1.64892
1999-04-19,1.64892
1999-04-20,1.48227
1999-04-21,1.48227
1999-04-22,1.48227
1999-04-23,1.58752
1999-04-26,1.5349
1999-04-27,1.70154
1999-04-28,1.80679
1999-04-29,1.92081
1999-04-30,2.08746
1999-05-03,2.02606
1999-05-04,2.02606
1999-05-05,1.92081
1999-05-06,1.80679
1999-05-07,1.70154
1999-05-10,1.70154
1999-05-11,1.58752
1999-05-12,1.48227
1999-05-13,1.64892
1999-05-14,1.58752
1999-05-17,1.64892
1999-05-18,1.64892
1999-05-19,1.80679
1999-05-20,1.97344
1999-05-21,1.92081
1999-05-24,1.92081
1999-05-25,1.86819
1999-05-26,1.75417
1999-05-27,1.86819
1999-05-28,1.86819
1999-06-01,1.86819
1999-06-02,1.92081
1999-06-03,1.86819
1999-06-04,1.97344
1999-06-07,2.02606
1999-06-08,1.97344
1999-06-09,1.97344
1999-06-10,1.92081
1999-06-11,1.86819
1999-06-14,1.86819
1999-06-15,1.92081
1999-06-16,1.92081
1999-06-17,1.97344
1999-06-18,1.97344
1999-06-21,1.86819
1999-06-22,1.80679
1999-06-23,2.02606
1999-06-24,2.14008
1999-06-25,2.24533
1999-06-28,2.24533
1999-06-29,2.35936
1999-06-30,2.57863
1999-07-01,2.63125
1999-07-02,2.74527
1999-07-06,2.68388
1999-07-07,2.85052
1999-07-08,3.06979
1999-07-09,3.18381
1999-07-12,3.12242
1999-07-13,3.06979
1999-07-14,2.7979
1999-07-15,2.85052
1999-07-16,2.7979
1999-07-19,2.7979
1999-07-20,2.46461
1999-07-21,2.526
1999-07-22,2.41198
1999-07-23,2.7979
1999-07-26,2.85052
1999-07-27,2.90315
1999-07-28,3.01717
1999-07-29,3.45571
1999-07-30,3.34169
1999-08-02,3.06979
1999-08-03,2.7979
1999-08-04,3.12242
1999-08-05,3.12242
1999-08-06,3.12242
1999-08-09,3.23644
1999-08-10,3.12242
1999-08-11,3.23644
1999-08-12,3.18381
1999-08-13,3.28906
1999-08-16,3.28906
1999-08-17,3.23644
1999-08-18,3.18381
1999-08-19,3.12242
1999-08-20,3.06979
1999-08-23,3.28906
1999-08-24,3.18381
1999-08-25,3.06979
1999-08-26,2.74527
1999-08-27,2.7979
1999-08-30,2.85052
1999-08-31,2.85052
1999-09-01,2.85052
1999-09-02,2.85052
1999-09-03,2.85052
1999-09-07,2.90315
1999-09-08,3.01717
1999-09-09,3.12242
1999-09-10,3.01717
1999-09-13,3.01717
1999-09-14,2.96454
1999-09-15,2.90315
1999-09-16,2.85052
1999-09-17,2.90315
1999-09-20,2.90315
1999-09-21,2.7979
1999-09-22,2.74527
1999-09-23,2.90315
1999-09-24,2.7979
1999-09-27,3.01717
1999-09-28,3.12242
1999-09-29,3.18381
1999-09-30,3.28906
1999-10-01,3.40308
1999-10-04,3.12242
1999-10-05,3.01717
1999-10-06,2.96454
1999-10-07,3.01717
1999-10-08,2.85052
1999-10-11,2.85052
1999-10-12,3.06979
1999-10-13,2.90315
1999-10-14,2.96454
1999-10-15,2.90315
1999-10-18,2.85052
1999-10-19,2.96454
1999-10-20,2.85052
1999-10-21,2.96454
1999-10-22,3.06979
1999-10-25,3.18381
1999-10-26,3.06979
1999-10-27,3.12242
1999-10-28,3.18381
1999-10-29,3.12242
1999-11-01,3.01717
1999-11-02,3.01717
1999-11-03,3.06979
1999-11-04,2.96454
1999-11-05,2.90315
1999-11-08,2.7979
1999-11-09,2.7979
1999-11-10,2.96454
1999-11-11,2.85052
1999-11-12,2.96454
1999-11-15,2.85052
1999-11-16,2.74527
1999-11-17,2.85052
1999-11-18,2.90315
1999-11-19,2.90315
1999-11-22,2.74527
1999-11-23,2.90315
1999-11-24,2.7979
1999-11-26,2.7979
1999-11-29,2.68388
1999-11-30,2.57863
1999-12-01,2.46461
1999-12-02,2.63125
1999-12-03,2.57863
1999-12-06,2.41198
1999-12-07,2.30673
1999-12-08,2.41198
1999-12-09,2.41198
1999-12-10,2.41198
1999-12-13,2.24533
1999-12-14,2.24533
1999-12-15,2.30673
1999-12-16,2.41198
1999-12-17,2.35936
1999-12-20,2.24533
1999-12-21,2.19271
1999-12-22,2.19271
1999-12-23,2.14008
1999-12-27,2.02606
1999-12-28,1.97344
1999-12-29,1.97344
1999-12-30,1.97344
1999-12-31,2.08746
2000-01-03,2.02606
2000-01-04,1.80679
2000-01-05,1.75417
2000-01-06,1.86819
2000-01-07,1.80679
2000-01-10,1.86819
2000-01-11,1.80679
2000-01-12,1.86819
2000-01-13,1.86819
2000-01-14,1.92081
2000-01-18,2.14008
2000-01-19,2.30673
2000-01-20,2.30673
2000-01-21,2.30673
2000-01-24,2.19271
2000-01-25,2.19271
2000-01-26,2.19271
2000-01-27,2.14008
2000-01-28,2.14008
2000-01-31,2.19271
2000-02-01,2.24533
2000-02-02,2.35936
2000-02-03,2.526
2000-02-04,2.35936
2000-02-07,2.30673
2000-02-08,2.41198
2000-02-09,2.46461
2000-02-10,2.41198
2000-02-11,2.41198
2000-02-14,2.30673
2000-02-15,2.41198
2000-02-16,2.41198
2000-02-17,2.57863
2000-02-18,2.526
2000-02-22,2.41198
2000-02-23,2.35936
2000-02-24,2.7979
2000-02-25,2.74527
2000-02-28,2.526
2000-02-29,2.526
2000-03-01,2.526
2000-03-02,2.526
2000-03-03,2.46461
2000-03-06,2.526
2000-03-07,2.57863
2000-03-08,2.526
2000-03-09,2.41198
2000-03-10,2.46461
2000-03-13,2.526
2000-03-14,2.41198
2000-03-15,2.41198
2000-03-16,2.46461
2000-03-17,2.30673
2000-03-20,2.35936
2000-03-21,2.24533
2000-03-22,2.35936
2000-03-23,2.35936
2000-03-24,2.35936
2000-03-27,2.35936
2000-03-28,2.41198
2000-03-29,2.41198
2000-03-30,2.526
2000-03-31,2.85052
2000-04-03,2.90315
2000-04-04,2.526
2000-04-05,2.74527
2000-04-06,2.63125
2000-04-07,2.68388
2000-04-10,2.57863
2000-04-11,2.63125
2000-04-12,2.68388
2000-04-13,2.74527
2000-04-14,2.526
2000-04-17,2.74527
2000-04-18,2.74527
2000-04-19,2.96454
2000-04-20,2.96454
2000-04-24,3.01717
2000-04-25,3.06979
2000-04-26,3.12242
2000-04-27,3.45571
2000-04-28,3.28906
2000-05-01,3.40308
2000-05-02,3.40308
2000-05-03,3.62236
2000-05-04,3.50833
2000-05-05,3.45571
2000-05-08,3.72761
2000-05-09,3.78023
2000-05-10,3.62236
2000-05-11,3.72761
2000-05-12,3.67498
2000-05-15,3.72761
2000-05-16,3.72761
2000-05-17,4.49944
2000-05-18,4.49944
2000-05-19,4.55206
2000-05-22,4.43804
2000-05-23,4.43804
2000-05-24,4.49944
2000-05-25,4.71871
2000-05-26,4.82396
2000-05-30,4.77134
2000-05-31,5.04323
2000-06-01,4.87659
2000-06-02,4.87659
2000-06-05,4.93798
2000-06-06,4.82396
2000-06-07,4.77134
2000-06-08,4.60469
2000-06-09,4.65731
2000-06-12,4.77134
2000-06-13,4.93798
2000-06-14,5.20988
2000-06-15,5.20988
2000-06-16,5.31513
2000-06-19,5.2625
2000-06-20,5.15725
2000-06-21,5.31513
2000-06-22,5.64842
2000-06-23,5.86769
2000-06-26,5.75367
2000-06-27,5.81507
2000-06-28,5.86769
2000-06-29,6.08696
2000-06-30,6.85002
2000-07-03,7.13069
2000-07-05,6.47288
2000-07-06,6.35886
2000-07-07,6.25361
2000-07-10,6.03434
2000-07-11,6.47288
2000-07-12,6.13959
2000-07-13,6.13959
2000-07-14,6.03434
2000-07-17,5.64842
2000-07-18,6.08696
2000-07-19,6.08696
2000-07-20,5.97294
2000-07-21,5.81507
2000-07-24,5.20988
2000-07-25,4.77134
2000-07-26,5.09586
2000-07-27,5.2625
2000-07-28,4.87659
2000-07-31,4.99061
2000-08-01,5.09586
2000-08-02,5.75367
2000-08-03,5.70104
2000-08-04,5.86769
2000-08-07,6.03434
2000-08-08,5.97294
2000-08-09,5.97294
2000-08-10,5.81507
2000-08-11,5.86769
2000-08-14,6.25361
2000-08-15,6.03434
2000-08-16,6.13959
2000-08-17,6.13959
2000-08-18,6.03434
2000-08-21,6.25361
2000-08-22,6.19221
2000-08-23,6.57813
2000-08-24,6.41148
2000-08-25,6.25361
2000-08-28,6.41148
2000-08-29,6.47288
2000-08-30,6.5255
2000-08-31,6.69215
2000-09-01,6.74477
2000-09-05,6.69215
2000-09-06,6.69215
2000-09-07,6.85002
2000-09-08,6.74477
2000-09-11,6.91142
2000-09-12,6.91142
2000-09-13,6.7974
2000-09-14,6.47288
2000-09-15,6.7974
2000-09-18,6.85002
2000-09-19,6.69215
2000-09-20,6.47288
2000-09-21,6.13959
2000-09-22,5.97294
2000-09-25,5.5344
2000-09-26,5.97294
2000-09-27,5.97294
2000-09-28,5.75367
2000-09-29,6.25361
2000-10-02,6.57813
2000-10-03,6.57813
2000-10-04,6.41148
2000-10-05,6.30623
2000-10-06,6.19221
2000-10-09,6.30623
2000-10-10,6.57813
2000-10-11,6.5255
2000-10-12,6.63075
2000-10-13,6.25361
2000-10-16,5.92032
2000-10-17,5.81507
2000-10-18,5.70104
2000-10-19,5.81507
2000-10-20,5.86769
2000-10-23,5.92032
2000-10-24,5.70104
2000-10-25,5.15725
2000-10-26,5.31513
2000-10-27,4.87659
2000-10-30,5.15725
2000-10-31,4.99061
2000-11-01,5.2625
2000-11-02,5.09586
2000-11-03,5.09586
2000-11-06,4.87659
2000-11-07,4.87659
2000-11-08,4.93798
2000-11-09,5.04323
2000-11-10,4.99061
2000-11-13,4.87659
2000-11-14,5.20988
2000-11-15,5.48177
2000-11-16,5.37652
2000-11-17,5.2625
2000-11-20,5.31513
2000-11-21,5.70104
2000-11-22,5.81507
2000-11-24,5.70104
2000-11-27,5.59579
2000-11-28,5.2625
2000-11-29,4.99061
2000-11-30,5.15725
2000-12-01,5.37652
2000-12-04,5.81507
2000-12-05,5.59579
2000-12-06,5.92032
2000-12-07,5.86769
2000-12-08,5.92032
2000-12-11,6.41148
2000-12-12,6.25361
2000-12-13,6.19221
2000-12-14,6.03434
2000-12-15,5.92032
2000-12-18,6.19221
2000-12-19,6.13959
2000-12-20,6.30623
2000-12-21,7.06929
2000-12-22,7.45521
2000-12-26,8.44632
2000-12-27,8.3323
2000-12-28,8.93748
2000-12-29,8.88486
2001-01-02,7.89375
2001-01-03,7.7885
2001-01-04,7.56923
2001-01-05,7.89375
2001-01-08,8.55157
2001-01-09,7.94638
2001-01-10,8.16565
2001-01-11,8.11302
2001-01-12,8.55157
2001-01-16,8.71821
2001-01-17,7.94638
2001-01-18,7.72711
2001-01-19,7.94638
2001-01-22,8.11302
2001-01-23,7.84113
2001-01-24,7.94638
2001-01-25,8.22705
2001-01-26,8.16565
2001-01-29,7.9113
2001-01-30,7.73588
2001-01-31,7.62186
2001-02-01,7.7885
2001-02-02,7.93761
2001-02-05,7.98146
2001-02-06,8.45509
2001-02-07,8.74452
2001-02-08,8.34984
2001-02-09,8.9638
2001-02-12,9.09536
2001-02-13,8.77961
2001-02-14,8.81469
2001-02-15,8.56911
2001-02-16,8.63927
2001-02-20,8.77084
2001-02-21,8.40246
2001-02-22,8.24459
2001-02-23,7.80604
2001-02-26,8.02532
2001-02-27,8.05163
2001-02-28,7.999
2001-03-01,7.96392
2001-03-02,8.05163
2001-03-05,8.3323
2001-03-06,8.40246
2001-03-07,9.22692
2001-03-08,9.63038
2001-03-09,9.16552
2001-03-12,8.68313
2001-03-13,8.37615
2001-03-14,8.06917
2001-03-15,7.8499
2001-03-16,7.85867
2001-03-19,8.03409
2001-03-20,8.19196
2001-03-21,7.80604
2001-03-22,7.49907
2001-03-23,7.77096
2001-03-26,7.60432
2001-03-27,7.58677
2001-03-28,7.45521
2001-03-29,7.13946
2001-03-30,7.53415
2001-04-02,7.19209
2001-04-03,6.68338
2001-04-04,7.06052
2001-04-05,7.24471
2001-04-06,7.32365
2001-04-09,7.69202
2001-04-10,7.88498
2001-04-11,7.63063
2001-04-12,7.9113
2001-04-16,7.98146
2001-04-17,7.38505
2001-04-18,7.0079
2001-04-19,6.78863
2001-04-20,6.70969
2001-04-23,6.96404
2001-04-24,6.77109
2001-04-25,6.85879
2001-04-26,7.01667
2001-04-27,6.83248
2001-04-30,7.32365
2001-05-01,7.70957
2001-05-02,7.10438
2001-05-03,7.19209
2001-05-04,7.27102
2001-05-07,7.34996
2001-05-08,7.31488
2001-05-09,7.37627
2001-05-10,7.56046
2001-05-11,7.578
2001-05-14,7.98146
2001-05-15,8.10425
2001-05-16,7.93761
2001-05-17,8.01655
2001-05-18,7.92007
2001-05-21,8.04286
2001-05-22,7.92884
2001-05-23,7.86744
2001-05-24,7.71834
2001-05-25,7.56046
2001-05-29,7.34119
2001-05-30,7.2798
2001-05-31,7.2798
2001-06-01,7.27102
2001-06-04,7.89375
2001-06-05,7.68325
2001-06-06,7.28857
2001-06-07,7.13069
2001-06-08,7.26225
2001-06-11,7.32365
2001-06-12,7.44644
2001-06-13,7.20963
2001-06-14,6.99036
2001-06-15,6.91142
2001-06-18,6.88511
2001-06-19,6.77986
2001-06-20,6.45534
2001-06-21,6.12204
2001-06-22,6.13959
2001-06-25,5.76244
2001-06-26,5.92909
2001-06-27,5.75367
2001-06-28,5.51686
2001-06-29,5.80629
2001-07-02,5.65719
2001-07-03,5.54317
2001-07-05,5.70982
2001-07-06,5.67473
2001-07-09,5.52563
2001-07-10,5.35898
2001-07-11,5.27127
2001-07-12,5.20988
2001-07-13,5.473
2001-07-16,5.28004
2001-07-17,5.61334
2001-07-18,5.51686
2001-07-19,5.56071
2001-07-20,5.65719
2001-07-23,5.70982
2001-07-24,5.55194
2001-07-25,5.92909
2001-07-26,6.04311
2001-07-27,6.04311
2001-07-30,5.91154
2001-07-31,5.65719
2001-08-01,5.65719
2001-08-02,5.62211
2001-08-03,5.49931
2001-08-06,5.38529
2001-08-07,5.36775
2001-08-08,5.15725
2001-08-09,5.052
2001-08-10,5.13971
2001-08-13,5.19234
2001-08-14,5.29759
2001-08-15,5.67473
2001-08-16,5.67473
2001-08-17,5.56071
2001-08-20,5.40284
2001-08-21,5.3239
2001-08-22,5.34144
2001-08-23,5.28882
2001-08-24,5.28882
2001-08-27,5.42038
2001-08-28,5.34144
2001-08-29,5.24496
2001-08-30,5.23619
2001-08-31,5.25373
2001-09-04,5.35898
2001-09-05,5.34144
2001-09-06,5.41161
2001-09-07,5.30636
2001-09-10,5.41161
2001-09-17,5.42038
2001-09-18,4.92921
2001-09-19,4.67486
2001-09-20,4.2714
2001-09-21,4.35911
2001-09-24,4.53452
2001-09-25,4.47313
2001-09-26,4.39419
2001-09-27,4.47313
2001-09-28,4.88536
2001-10-01,4.82396
2001-10-02,4.88536
2001-10-03,5.15725
2001-10-04,5.70104
2001-10-05,5.73613
2001-10-08,5.66596
2001-10-09,5.86769
2001-10-10,6.04311
2001-10-11,5.82384
2001-10-12,5.80629
2001-10-15,5.67473
2001-10-16,6.03434
2001-10-17,5.92909
2001-10-18,5.72736
2001-10-19,5.91154
2001-10-22,5.88523
2001-10-23,6.09573
2001-10-24,6.19221
2001-10-25,6.38517
2001-10-26,6.51673
2001-10-29,6.56936
2001-10-30,6.29746
2001-10-31,6.41148
2001-11-01,6.44657
2001-11-02,5.92032
2001-11-05,5.52563
2001-11-06,5.44669
2001-11-07,5.39406
2001-11-08,5.80629
2001-11-09,5.97294
2001-11-12,6.07819
2001-11-13,5.99048
2001-11-14,5.84138
2001-11-15,5.54317
2001-11-16,5.42915
2001-11-19,5.40284
2001-11-20,5.59579
2001-11-21,5.67473
2001-11-23,5.52563
2001-11-26,5.48177
2001-11-27,5.57825
2001-11-28,5.42915
2001-11-29,5.48177
2001-11-30,5.58702
2001-12-03,5.66596
2001-12-04,5.78875
2001-12-05,5.87646
2001-12-06,5.57825
2001-12-07,5.49054
2001-12-10,5.38529
2001-12-11,5.58702
2001-12-12,5.52563
2001-12-13,5.34144
2001-12-14,5.42915
2001-12-17,5.38529
2001-12-18,5.65719
2001-12-19,5.56948
2001-12-20,5.5344
2001-12-21,5.77121
2001-12-24,5.87646
2001-12-26,5.78875
2001-12-27,5.76244
2001-12-28,5.90277
2001-12-31,5.84138
2002-01-02,5.83261
2002-01-03,5.66596
2002-01-04,5.59579
2002-01-07,5.38529
2002-01-08,5.43792
2002-01-09,5.35021
2002-01-10,5.31513
2002-01-11,5.21865
2002-01-14,5.23619
2002-01-15,5.29759
2002-01-16,5.17479
2002-01-17,5.10463
2002-01-18,4.98184
2002-01-22,4.55206
2002-01-23,4.79765
2002-01-24,4.94675
2002-01-25,4.91167
2002-01-28,4.81519
2002-01-29,4.66609
2002-01-30,4.8415
2002-01-31,5.09586
2002-02-01,4.9029
2002-02-04,4.65731
2002-02-05,4.83273
2002-02-06,5.04323
2002-02-07,5.08709
2002-02-08,4.99938
2002-02-11,4.87659
2002-02-12,4.82396
2002-02-13,4.82396
2002-02-14,4.72748
2002-02-15,4.72748
2002-02-19,4.73625
2002-02-20,4.75379
2002-02-21,4.94675
2002-02-22,5.15725
2002-02-25,5.31513
2002-02-26,5.29759
2002-02-27,5.36775
2002-02-28,5.48177
2002-03-01,5.41161
2002-03-04,5.61334
2002-03-05,5.63965
2002-03-06,5.78875
2002-03-07,5.92032
2002-03-08,5.97294
2002-03-11,6.13959
2002-03-12,6.08696
2002-03-13,6.06942
2002-03-14,6.13959
2002-03-15,6.33254
2002-03-18,6.48165
2002-03-19,6.32377
2002-03-20,6.23607
2002-03-21,6.27115
2002-03-22,6.25361
2002-03-25,6.1659
2002-03-26,6.13082
2002-03-27,6.44657
2002-03-28,6.74477
2002-04-01,7.06052
2002-04-02,7.13946
2002-04-03,6.88511
2002-04-04,6.76232
2002-04-05,6.66584
2002-04-08,6.67461
2002-04-09,6.49919
2002-04-10,6.76232
2002-04-11,6.69215
2002-04-12,6.61321
2002-04-15,6.92019
2002-04-16,6.92019
2002-04-17,7.12192
2002-04-18,6.99036
2002-04-19,7.09561
2002-04-22,7.04298
2002-04-23,7.19209
2002-04-24,7.06929
2002-04-25,7.27102
2002-04-26,7.35873
2002-04-29,7.32365
2002-04-30,7.45521
2002-05-01,7.46398
2002-05-02,7.23594
2002-05-03,7.33242
2002-05-06,6.91142
2002-05-07,6.85002
2002-05-08,7.08684
2002-05-09,6.83248
2002-05-10,6.7974
2002-05-13,7.04298
2002-05-14,7.02544
2002-05-15,6.80617
2002-05-16,6.7974
2002-05-17,6.67461
2002-05-20,6.5869
2002-05-21,6.63952
2002-05-22,6.62198
2002-05-23,6.64829
2002-05-24,6.46411
2002-05-28,6.70969
2002-05-29,6.63952
2002-05-30,6.35009
2002-05-31,6.59567
2002-06-03,6.35886
2002-06-04,6.315
2002-06-05,6.40271
2002-06-06,6.33254
2002-06-07,6.39394
2002-06-10,6.25361
2002-06-11,6.18344
2002-06-12,6.22729
2002-06-13,6.13959
2002-06-14,6.1659
2002-06-17,6.35009
2002-06-18,6.40271
2002-06-19,6.49919
2002-06-20,6.34132
2002-06-21,6.39394
2002-06-24,6.38517
2002-06-25,6.45534
2002-06-26,6.35886
2002-06-27,6.33254
2002-06-28,6.32377
2002-07-01,6.27115
2002-07-02,6.09573
2002-07-03,6.07819
2002-07-05,6.315
2002-07-08,6.06942
2002-07-09,6.13082
2002-07-10,5.91154
2002-07-11,5.6835
2002-07-12,5.92909
2002-07-15,5.81507
2002-07-16,5.81507
2002-07-17,5.77121
2002-07-18,5.72736
2002-07-19,5.56948
2002-07-22,5.13094
2002-07-23,4.60469
2002-07-24,5.21865
2002-07-25,5.08709
2002-07-26,4.85904
2002-07-29,4.99061
2002-07-30,4.66609
2002-07-31,4.83273
2002-08-01,4.78888
2002-08-02,4.64854
2002-08-05,4.51698
2002-08-06,4.74502
2002-08-07,4.57838
2002-08-08,4.79765
2002-08-09,4.75379
2002-08-12,5.10463
2002-08-13,4.78888
2002-08-14,4.88536
2002-08-15,5.08709
2002-08-16,5.20111
2002-08-19,5.28882
2002-08-20,5.09586
2002-08-21,5.15725
2002-08-22,5.31513
2002-08-23,5.24496
2002-08-26,5.42038
2002-08-27,5.40284
2002-08-28,5.19234
2002-08-29,5.20111
2002-08-30,5.20988
2002-09-03,5.04323
2002-09-04,5.2625
2002-09-05,5.052
2002-09-06,5.21865
2002-09-09,5.14848
2002-09-10,5.39406
2002-09-11,5.45546
2002-09-12,5.19234
2002-09-13,5.46423
2002-09-16,5.58702
2002-09-17,5.56948
2002-09-18,5.66596
2002-09-19,5.48177
2002-09-20,5.54317
2002-09-23,5.65719
2002-09-24,5.59579
2002-09-25,5.5344
2002-09-26,5.62211
2002-09-27,5.57792
2002-09-30,5.7101
2002-10-01,5.93921
2002-10-02,5.8599
2002-10-03,5.97446
2002-10-04,5.78059
2002-10-07,5.68366
2002-10-08,5.72772
2002-10-09,5.37525
2002-10-10,5.64842
2002-10-11,5.65723
2002-10-14,5.83347
2002-10-15,6.15069
2002-10-16,6.0802
2002-10-17,6.13307
2002-10-18,6.12426
2002-10-21,6.06257
2002-10-22,5.89515
2002-10-23,5.96564
2002-10-24,5.92158
2002-10-25,5.98327
2002-10-28,6.05376
2002-10-29,5.94802
2002-10-30,6.12426
2002-10-31,6.14188
2002-11-01,6.12426
2002-11-04,6.21238
2002-11-05,6.0802
2002-11-06,6.10663
2002-11-07,6.07139
2002-11-08,6.02733
2002-11-11,5.92158
2002-11-12,5.93921
2002-11-13,5.73654
2002-11-14,5.85109
2002-11-15,5.79822
2002-11-18,6.03614
2002-11-19,6.01852
2002-11-20,6.36218
2002-11-21,6.44149
2002-11-22,6.36218
2002-11-25,6.33574
2002-11-26,6.16832
2002-11-27,5.94802
2002-11-29,6.10663
2002-12-02,6.20357
2002-12-03,6.54723
2002-12-04,6.23881
2002-12-05,6.21238
2002-12-06,6.3005
2002-12-09,6.09782
2002-12-10,6.3798
2002-12-11,6.48555
2002-12-12,6.76753
2002-12-13,6.85564
2002-12-16,6.89089
2002-12-17,6.85564
2002-12-18,6.76753
2002-12-19,6.69703
2002-12-20,6.80277
2002-12-23,6.96139
2002-12-24,7.00545
2002-12-26,7.08475
2002-12-27,6.96139
2002-12-30,6.92597
2002-12-31,6.89944
2003-01-02,7.11173
2003-01-03,7.20903
2003-01-06,7.12057
2003-01-07,6.94367
2003-01-08,6.93482
2003-01-09,7.12057
2003-01-10,7.11173
2003-01-13,7.10288
2003-01-14,7.12942
2003-01-15,7.21787
2003-01-16,7.39478
2003-01-17,7.41247
2003-01-21,7.29748
2003-01-22,7.35056
2003-01-23,7.3594
2003-01-24,7.17365
2003-01-27,6.80214
2003-01-28,7.02327
2003-01-29,7.20903
2003-01-30,7.12942
2003-01-31,7.14711
2003-02-03,7.20018
2003-02-04,7.11173
2003-02-05,7.08519
2003-02-06,7.13826
2003-02-07,7.10288
2003-02-10,7.28864
2003-02-11,7.23556
2003-02-12,7.02327
2003-02-13,7.02327
2003-02-14,7.02327
2003-02-18,7.21787
2003-02-19,7.14711
2003-02-20,7.15596
2003-02-21,7.28864
2003-02-24,7.51862
2003-02-25,7.11173
2003-02-26,7.20903
2003-02-27,7.25325
2003-02-28,7.19134
2003-03-03,7.19134
2003-03-04,7.31517
2003-03-05,7.3594
2003-03-06,7.34171
2003-03-07,7.32402
2003-03-10,7.25325
2003-03-11,7.10288
2003-03-12,6.79329
2003-03-13,6.6783
2003-03-14,6.57216
2003-03-17,6.59869
2003-03-18,6.66946
2003-03-19,6.63407
2003-03-20,6.84636
2003-03-21,6.74907
2003-03-24,6.69599
2003-03-25,6.73137
2003-03-26,6.74022
2003-03-27,6.84636
2003-03-28,6.97956
2003-03-31,6.93516
2003-04-01,7.1394
2003-04-02,7.05948
2003-04-03,6.873
2003-04-04,6.84637
2003-04-07,6.81085
2003-04-08,6.70429
2003-04-09,6.67765
2003-04-10,6.97068
2003-04-11,6.92628
2003-04-14,6.88188
2003-04-15,6.89964
2003-04-16,6.89964
2003-04-17,7.08612
2003-04-21,7.13052
2003-04-22,7.12164
2003-04-23,7.05948
2003-04-24,7.07724
2003-04-25,6.98844
2003-04-28,6.93516
2003-04-29,7.03284
2003-04-30,7.12164
2003-05-01,7.29036
2003-05-02,7.41468
2003-05-05,7.59227
2003-05-06,7.67219
2003-05-07,7.79651
2003-05-08,7.74323
2003-05-09,7.98299
2003-05-12,8.05402
2003-05-13,8.33818
2003-05-14,8.61346
2003-05-15,8.79105
2003-05-16,8.69337
2003-05-19,8.74665
2003-05-20,8.69337
2003-05-21,9.02193
2003-05-22,9.35936
2003-05-23,9.21729
2003-05-27,9.16401
2003-05-28,8.92425
2003-05-29,8.79105
2003-05-30,9.14625
2003-06-02,9.35048
2003-06-03,9.35048
2003-06-04,9.5636
2003-06-05,9.5192
2003-06-06,9.5192
2003-06-09,9.33272
2003-06-10,9.36824
2003-06-11,9.88327
2003-06-12,9.63464
2003-06-13,9.35048
2003-06-16,9.22617
2003-06-17,8.94201
2003-06-18,9.03081
2003-06-19,9.11073
2003-06-20,8.95089
2003-06-23,8.88873
2003-06-24,8.96865
2003-06-25,9.45704
2003-06-26,9.27056
2003-06-27,9.16804
2003-06-30,9.04331
2003-07-01,8.92748
2003-07-02,8.83839
2003-07-03,8.90075
2003-07-07,8.58001
2003-07-08,8.47309
2003-07-09,8.74929
2003-07-10,8.43745
2003-07-11,8.51764
2003-07-14,8.65128
2003-07-15,8.38399
2003-07-16,8.35726
2003-07-17,8.46418
2003-07-18,8.61564
2003-07-21,8.55328
2003-07-22,8.50873
2003-07-23,8.36617
2003-07-24,8.2058
2003-07-25,8.43745
2003-07-28,8.47309
2003-07-29,8.61564
2003-07-30,8.41963
2003-07-31,8.50873
2003-08-01,8.45527
2003-08-04,8.36617
2003-08-05,8.42854
2003-08-06,8.83839
2003-08-07,9.2215
2003-08-08,9.18586
2003-08-11,9.35515
2003-08-12,9.47097
2003-08-13,9.57789
2003-08-14,9.31951
2003-08-15,9.46206
2003-08-18,9.57789
2003-08-19,9.4086
2003-08-20,9.4086
2003-08-21,9.65807
2003-08-22,9.55116
2003-08-25,9.37297
2003-08-26,9.32842
2003-08-27,9.36406
2003-08-28,9.64917
2003-08-29,9.69371
2003-09-02,9.47988
2003-09-03,9.50661
2003-09-04,9.57789
2003-09-05,9.55116
2003-09-08,9.57789
2003-09-09,9.33733
2003-09-10,9.16804
2003-09-11,9.10568
2003-09-12,9.05222
2003-09-15,9.07895
2003-09-16,9.21259
2003-09-17,9.0344
2003-09-18,8.9453
2003-09-19,9.07004
2003-09-22,9.24823
2003-09-23,9.37297
2003-09-24,9.59571
2003-09-25,9.37297
2003-09-26,9.07895
2003-09-29,9.39643
2003-09-30,9.61994
2003-10-01,9.81663
2003-10-02,9.82557
2003-10-03,9.80769
2003-10-06,9.80769
2003-10-07,10.1027
2003-10-08,10.1474
2003-10-09,10.1117
2003-10-10,10.2905
2003-10-13,10.3352
2003-10-14,10.1474
2003-10-15,9.90603
2003-10-16,10.0401
2003-10-17,10.0312
2003-10-20,9.84345
2003-10-21,10.0938
2003-10-22,10.1027
2003-10-23,9.95074
2003-10-24,9.91497
2003-10-27,10.0312
2003-10-28,10.067
2003-10-29,10.5319
2003-10-30,10.3888
2003-10-31,10.7017
2003-11-03,10.5497
2003-11-04,10.5766
2003-11-05,10.7107
2003-11-06,10.8627
2003-11-07,10.9163
2003-11-10,11.0057
2003-11-11,10.8627
2003-11-12,10.666
2003-11-13,10.9878
2003-11-14,11.2292
2003-11-17,11.0504
2003-11-18,11.1488
2003-11-19,11.0772
2003-11-20,10.8627
2003-11-21,10.6392
2003-11-24,10.5319
2003-11-25,10.7464
2003-11-26,10.961
2003-11-28,10.9074
2003-12-01,11.3097
2003-12-02,11.4349
2003-12-03,11.0594
2003-12-04,11.5511
2003-12-05,11.4259
2003-12-08,11.5868
2003-12-09,11.5243
2003-12-10,11.4796
2003-12-11,11.4438
2003-12-12,11.7835
2003-12-15,11.4438
2003-12-16,11.5511
2003-12-17,11.6315
2003-12-18,11.8372
2003-12-19,11.6941
2003-12-22,11.6315
2003-12-23,11.6584
2003-12-24,11.8372
2003-12-26,12.1143
2003-12-29,12.4719
2003-12-30,12.2613
2003-12-31,12.0821
2004-01-02,11.9745
2004-01-05,12.3151
2004-01-06,12.3241
2004-01-07,12.1806
2004-01-08,12.1089
2004-01-09,12.1269
2004-01-12,12.1269
2004-01-13,12.091
2004-01-14,12.0193
2004-01-15,11.5174
2004-01-16,11.6429
2004-01-20,12.2165
2004-01-21,12.1
2004-01-22,11.9297
2004-01-23,12.1717
2004-01-26,11.9207
2004-01-27,11.7594
2004-01-28,11.4815
2004-01-29,11.2395
2004-01-30,11.1499
2004-02-02,11.0692
2004-02-03,11.0782
2004-02-04,11.0424
2004-02-05,10.7018
2004-02-06,10.89
2004-02-09,11.0692
2004-02-10,11.3202
2004-02-11,11.4636
2004-02-12,11.6249
2004-02-13,11.5353
2004-02-17,11.5532
2004-02-18,11.374
2004-02-19,11.1678
2004-02-20,11.1678
2004-02-23,11.2037
2004-02-24,10.9796
2004-02-25,10.9975
2004-02-26,11.2306
2004-02-27,11.4726
2004-03-01,11.7773
2004-03-02,11.9924
2004-03-03,11.9028
2004-03-04,11.858
2004-03-05,12.0731
2004-03-08,11.6698
2004-03-09,11.7863
2004-03-10,11.3829
2004-03-11,11.3292
2004-03-12,11.5712
2004-03-15,11.5622
2004-03-16,11.4188
2004-03-17,11.7594
2004-03-18,11.7415
2004-03-19,11.5174
2004-03-22,11.3202
2004-03-23,11.2127
2004-03-24,10.8541
2004-03-25,11.132
2004-03-26,11.3023
2004-03-29,11.3829
2004-03-30,11.7021
2004-03-31,12.0526
2004-04-01,11.9897
2004-04-02,12.0346
2004-04-05,12.0706
2004-04-06,12.0346
2004-04-07,12.1065
2004-04-08,12.3582
2004-04-12,12.502
2004-04-13,12.2413
2004-04-14,12.0076
2004-04-15,12.3492
2004-04-16,12.5918
2004-04-19,12.6817
2004-04-20,12.475
2004-04-21,12.457
2004-04-22,12.6997
2004-04-23,12.6548
2004-04-26,12.475
2004-04-27,12.8884
2004-04-28,12.7446
2004-04-29,12.3582
2004-04-30,12.3851
2004-05-03,12.6458
2004-05-04,12.6548
2004-05-05,12.5829
2004-05-06,12.4031
2004-05-07,12.2054
2004-05-10,11.5672
2004-05-11,11.8279
2004-05-12,11.9447
2004-05-13,11.8818
2004-05-14,12.1784
2004-05-17,12.2234
2004-05-18,12.0076
2004-05-19,11.8638
2004-05-20,11.9897
2004-05-21,11.9537
2004-05-24,12.1604
2004-05-25,12.448
2004-05-26,12.1874
2004-05-27,11.9178
2004-05-28,11.8638
2004-06-01,12.1245
2004-06-02,12.0436
2004-06-03,11.8279
2004-06-04,11.783
2004-06-07,11.9897
2004-06-08,11.9088
2004-06-09,11.738
2004-06-10,12.0885
2004-06-14,12.1874
2004-06-15,12.5379
2004-06-16,12.9334
2004-06-17,13.0412
2004-06-18,12.9244
2004-06-21,12.8076
2004-06-22,12.9783
2004-06-23,13.3468
2004-06-24,13.1491
2004-06-25,13.3828
2004-06-28,13.0322
2004-06-29,13.0999
2004-06-30,13.2621
2004-07-01,13.6047
2004-07-02,13.6318
2004-07-06,13.8662
2004-07-07,13.9113
2004-07-08,13.8482
2004-07-09,13.9383
2004-07-12,13.8752
2004-07-13,13.8752
2004-07-14,14.1908
2004-07-15,14.1186
2004-07-16,14.4252
2004-07-19,14.3981
2004-07-20,14.0465
2004-07-21,13.758
2004-07-22,13.776
2004-07-23,13.74
2004-07-26,13.6498
2004-07-27,13.4605
2004-07-28,13.5236
2004-07-29,13.5597
2004-07-30,13.8392
2004-08-02,13.74
2004-08-03,13.9924
2004-08-04,13.4244
2004-08-05,12.8925
2004-08-06,12.5769
2004-08-09,12.8294
2004-08-10,12.9195
2004-08-11,12.7663
2004-08-12,12.4958
2004-08-13,12.9736
2004-08-16,12.7032
2004-08-17,12.4057
2004-08-18,12.7212
2004-08-19,12.8925
2004-08-20,12.9646
2004-08-23,12.5589
2004-08-24,12.4417
2004-08-25,12.4958
2004-08-26,12.6581
2004-08-27,12.7212
2004-08-30,12.631
2004-08-31,12.7482
2004-09-01,13.0728
2004-09-02,13.163
2004-09-03,13.0548
2004-09-07,12.9827
2004-09-08,13.163
2004-09-09,13.6228
2004-09-10,13.4334
2004-09-13,13.5867
2004-09-14,13.5506
2004-09-15,13.3884
2004-09-16,13.3974
2004-09-17,13.6408
2004-09-20,13.7129
2004-09-21,14.0916
2004-09-22,13.9564
2004-09-23,13.8301
2004-09-24,14.1096
2004-09-27,14.1457
2004-09-28,14.1908
2004-09-29,14.1411
2004-09-30,14.2948
2004-10-01,14.5479
2004-10-04,14.6112
2004-10-05,14.9186
2004-10-06,15.2261
2004-10-07,15.0091
2004-10-08,15.1447
2004-10-11,14.9096
2004-10-12,14.7016
2004-10-13,14.123
2004-10-14,14.3581
2004-10-15,14.3219
2004-10-18,13.9512
2004-10-19,14.0235
2004-10-20,14.6384
2004-10-21,14.6926
2004-10-22,14.5751
2004-10-25,14.6112
2004-10-26,14.9548
2004-10-27,14.5751
2004-10-28,14.2676
2004-10-29,14.5299
2004-11-01,14.4756
2004-11-02,14.6836
2004-11-03,15.1899
2004-11-04,15.3617
2004-11-05,15.3617
2004-11-08,15.1266
2004-11-09,15.0271
2004-11-10,15.3798
2004-11-11,15.1899
2004-11-12,15.5696
2004-11-15,15.2441
2004-11-16,15.2441
2004-11-17,15.3526
2004-11-18,15.3978
2004-11-19,15.5787
2004-11-22,15.868
2004-11-23,16.0669
2004-11-24,16.302
2004-11-26,16.4015
2004-11-29,16.2026
2004-11-30,16.2568
2004-12-01,15.9856
2004-12-02,15.0362
2004-12-03,15.1537
2004-12-06,15.2441
2004-12-07,14.7016
2004-12-08,14.4666
2004-12-09,14.4666
2004-12-10,14.349
2004-12-13,14.8101
2004-12-14,14.9186
2004-12-15,15.3346
2004-12-16,15.1447
2004-12-17,15.4883
2004-12-20,15.4521
2004-12-21,15.3707
2004-12-22,15.0
2004-12-23,15.0543
2004-12-27,14.774
2004-12-28,15.0452
2004-12-29,15.0362
2004-12-30,14.8322
2004-12-31,14.9501
2005-01-03,14.0072
2005-01-04,13.8984
2005-01-05,13.7624
2005-01-06,14.1704
2005-01-07,14.1885
2005-01-10,14.5512
2005-01-11,14.5874
2005-01-12,14.6872
2005-01-13,14.7506
2005-01-14,15.0135
2005-01-18,15.2855
2005-01-19,15.1949
2005-01-20,15.0679
2005-01-21,15.2765
2005-01-24,15.4034
2005-01-25,15.5303
2005-01-26,15.6663
2005-01-27,15.8658
2005-01-28,15.7298
2005-01-31,15.9383
2005-02-01,16.0924
2005-02-02,16.3825
2005-02-03,16.1468
2005-02-04,16.5276
2005-02-07,16.3191
2005-02-08,16.4641
2005-02-09,16.4369
2005-02-10,17.0262
2005-02-11,17.0534
2005-02-14,17.1985
2005-02-15,17.126
2005-02-16,17.7425
2005-02-17,17.2348
2005-02-18,17.9238
2005-02-22,17.9963
2005-02-23,18.2683
2005-02-24,18.4406
2005-02-25,19.6373
2005-02-28,19.6554
2005-03-01,19.2565
2005-03-02,19.9818
2005-03-03,20.4532
2005-03-04,21.0879
2005-03-07,20.8703
2005-03-08,20.7706
2005-03-09,20.3263
2005-03-10,19.7642
2005-03-11,19.9093
2005-03-14,19.9183
2005-03-15,19.8186
2005-03-16,19.8821
2005-03-17,20.6074
2005-03-18,20.6436
2005-03-21,20.3263
2005-03-22,19.8549
2005-03-23,18.7851
2005-03-24,19.0843
2005-03-28,19.2565
2005-03-29,18.6491
2005-03-30,19.0078
2005-03-31,19.9437
2005-04-01,20.4253
2005-04-04,20.5252
2005-04-05,20.2345
2005-04-06,20.398
2005-04-07,19.762
2005-04-08,19.2804
2005-04-11,19.3804
2005-04-12,18.808
2005-04-13,18.0084
2005-04-14,18.2083
2005-04-15,17.5904
2005-04-18,17.754
2005-04-19,18.3991
2005-04-20,17.8903
2005-04-21,18.5263
2005-04-22,18.7171
2005-04-25,18.9533
2005-04-26,18.6989
2005-04-27,17.9539
2005-04-28,17.4723
2005-04-29,17.4814
2005-05-02,18.1083
2005-05-03,17.3088
2005-05-04,17.8539
2005-05-05,18.181
2005-05-06,18.1719
2005-05-09,18.7716
2005-05-10,18.4809
2005-05-11,18.5535
2005-05-12,17.5268
2005-05-13,16.8272
2005-05-16,16.6273
2005-05-17,17.2179
2005-05-18,17.2724
2005-05-19,17.545
2005-05-20,17.4996
2005-05-23,17.9448
2005-05-24,18.0629
2005-05-25,17.963
2005-05-26,18.0629
2005-05-27,18.4173
2005-05-31,18.599
2005-06-01,18.8443
2005-06-02,19.0805
2005-06-03,19.0624
2005-06-06,19.3713
2005-06-07,19.0169
2005-06-08,19.1805
2005-06-09,19.7438
2005-06-10,19.5076
2005-06-13,20.1709
2005-06-14,20.1163
2005-06-15,20.4889
2005-06-16,20.8432
2005-06-17,21.2339
2005-06-20,21.5701
2005-06-21,20.7705
2005-06-22,20.9704
2005-06-23,21.1885
2005-06-24,20.925
2005-06-27,21.1067
2005-06-28,20.7069
2005-06-29,20.8163
2005-06-30,20.698
2005-07-01,21.991
2005-07-05,23.3023
2005-07-06,22.9289
2005-07-07,23.1566
2005-07-08,22.8652
2005-07-11,22.9107
2005-07-12,23.5026
2005-07-13,23.1384
2005-07-14,22.3188
2005-07-15,22.2915
2005-07-18,21.9273
2005-07-19,22.5556
2005-07-20,22.6558
2005-07-21,22.5829
2005-07-22,23.2203
2005-07-25,23.4935
2005-07-26,23.3569
2005-07-27,23.3933
2005-07-28,23.5937
2005-07-29,23.7849
2005-08-01,24.1674
2005-08-02,24.7684
2005-08-03,24.8594
2005-08-04,25.6607
2005-08-05,25.9066
2005-08-08,26.0432
2005-08-09,25.9703
2005-08-10,26.3983
2005-08-11,26.371
2005-08-12,26.4894
2005-08-15,25.8155
2005-08-16,25.1235
2005-08-17,24.3404
2005-08-18,24.1674
2005-08-19,24.6591
2005-08-22,24.8412
2005-08-23,25.0324
2005-08-24,25.7063
2005-08-25,25.9339
2005-08-26,25.597
2005-08-29,26.3073
2005-08-30,27.5457
2005-08-31,28.7477
2005-09-01,29.9315
2005-09-02,28.9298
2005-09-06,29.5672
2005-09-07,30.1227
2005-09-08,29.7311
2005-09-09,30.323
2005-09-12,29.8131
2005-09-13,29.4215
2005-09-14,30.578
2005-09-15,30.5962
2005-09-16,30.7874
2005-09-19,32.5722
2005-09-20,31.8073
2005-09-21,33.1459
2005-09-22,32.7088
2005-09-23,32.0987
2005-09-26,33.246
2005-09-27,33.328
2005-09-28,34.3297
2005-09-29,35.1047
2005-09-30,34.8676
2005-10-03,35.4512
2005-10-04,34.4026
2005-10-05,32.3875
2005-10-06,29.7159
2005-10-07,30.9833
2005-10-10,29.7615
2005-10-11,31.5395
2005-10-12,30.2447
2005-10-13,28.9317
2005-10-14,29.7159
2005-10-17,30.4545
2005-10-18,28.5761
2005-10-19,28.9773
2005-10-20,26.8984
2005-10-21,26.9805
2005-10-24,28.0017
2005-10-25,29.6065
2005-10-26,29.2691
2005-10-27,28.3026
2005-10-28,28.6673
2005-10-31,29.2418
2005-11-01,28.3664
2005-11-02,27.482
2005-11-03,27.792
2005-11-04,26.4334
2005-11-07,25.8042
2005-11-08,26.169
2005-11-09,25.631
2005-11-10,24.3818
2005-11-11,24.9927
2005-11-14,25.4486
2005-11-15,25.6492
2005-11-16,26.7708
2005-11-17,26.7343
2005-11-18,26.2145
2005-11-21,27.0261
2005-11-22,27.3634
2005-11-23,26.4881
2005-11-25,26.8619
2005-11-28,25.3939
2005-11-29,25.6036
2005-11-30,26.3969
2005-12-01,27.3087
2005-12-02,27.7737
2005-12-05,28.4485
2005-12-06,28.4485
2005-12-07,28.1293
2005-12-08,28.7129
2005-12-09,28.4029
2005-12-12,29.6065
2005-12-13,30.2174
2005-12-14,30.7462
2005-12-15,30.3998
2005-12-16,29.187
2005-12-19,29.2691
2005-12-20,29.6156
2005-12-21,30.0533
2005-12-22,29.4879
2005-12-23,29.3329
2005-12-27,27.9561
2005-12-28,28.6137
2005-12-29,28.6319
2005-12-30,28.9516
2006-01-03,30.1023
2006-01-04,30.2211
2006-01-05,29.3169
2006-01-06,29.4356
2006-01-09,29.0794
2006-01-10,29.8923
2006-01-11,29.4539
2006-01-12,29.5452
2006-01-13,29.7005
2006-01-17,30.5407
2006-01-18,29.9105
2006-01-19,30.3307
2006-01-20,30.6046
2006-01-23,30.3124
2006-01-24,30.6777
2006-01-25,29.3626
2006-01-26,28.8146
2006-01-27,29.4996
2006-01-30,31.3536
2006-01-31,31.9837
2006-02-01,31.043
2006-02-02,30.6868
2006-02-03,30.6868
2006-02-06,30.8604
2006-02-07,28.9516
2006-02-08,28.7963
2006-02-09,27.8465
2006-02-10,27.0154
2006-02-13,26.2117
2006-02-14,26.3213
2006-02-15,26.4309
2006-02-16,26.9789
2006-02-17,27.1524
2006-02-21,28.0474
2006-02-22,26.9789
2006-02-23,26.8236
2006-02-24,27.3898
2006-02-27,26.4491
2006-02-28,27.1158
2006-03-01,27.746
2006-03-02,28.979
2006-03-03,28.7872
2006-03-06,27.7004
2006-03-07,27.2528
2006-03-08,27.4081
2006-03-09,27.1706
2006-03-10,27.399
2006-03-13,27.7826
2006-03-14,28.3671
2006-03-15,28.4036
2006-03-16,28.9516
2006-03-17,28.7507
2006-03-20,27.5725
2006-03-21,27.2072
2006-03-22,27.5725
2006-03-23,28.0657
2006-03-24,28.4767
2006-03-27,28.7507
2006-03-28,28.9972
2006-03-29,29.2712
2006-03-30,28.9602
2006-03-31,28.704
2006-04-03,28.9327
2006-04-04,29.2163
2006-04-05,29.2071
2006-04-06,29.134
2006-04-07,28.6309
2006-04-10,28.9602
2006-04-11,28.951
2006-04-12,28.6675
2006-04-13,28.7772
2006-04-17,29.4175
2006-04-18,29.9664
2006-04-19,30.4969
2006-04-20,30.0212
2006-04-21,30.3871
2006-04-24,29.7651
2006-04-25,29.3626
2006-04-26,29.2437
2006-04-27,28.7132
2006-04-28,28.9968
2006-05-01,29.3444
2006-05-02,30.6158
2006-05-03,30.3871
2006-05-04,30.1493
2006-05-05,30.0578
2006-05-08,30.0395
2006-05-09,30.2682
2006-05-10,30.1859
2006-05-11,29.8932
2006-05-12,28.8961
2006-05-15,28.1095
2006-05-16,28.2558
2006-05-17,27.3777
2006-05-18,26.9569
2006-05-19,26.9569
2006-05-22,26.8289
2006-05-23,26.8563
2006-05-24,26.5727
2006-05-25,27.4143
2006-05-26,27.4783
2006-05-30,27.3137
2006-05-31,27.9723
2006-06-01,27.9723
2006-06-02,28.082
2006-06-05,27.4783
2006-06-06,27.3777
2006-06-07,26.6459
2006-06-08,26.8929
2006-06-09,26.4264
2006-06-12,25.7586
2006-06-13,24.725
2006-06-14,25.9599
2006-06-15,27.1399
2006-06-16,27.4234
2006-06-19,26.2526
2006-06-20,26.1428
2006-06-21,26.7282
2006-06-22,26.6368
2006-06-23,27.9265
2006-06-26,27.2954
2006-06-27,26.591
2006-06-28,27.1033
2006-06-29,27.8822
2006-06-30,27.7356
2006-07-03,28.1755
2006-07-05,27.6989
2006-07-06,27.3048
2006-07-07,26.9198
2006-07-10,26.7365
2006-07-11,27.1031
2006-07-12,27.1215
2006-07-13,26.8832
2006-07-14,27.039
2006-07-17,26.6265
2006-07-18,26.5624
2006-07-19,26.8465
2006-07-20,26.5074
2006-07-21,26.1499
2006-07-24,27.0206
2006-07-25,27.5248
2006-07-26,28.6063
2006-07-27,28.6613
2006-07-28,29.5321
2006-07-31,30.1645
2006-08-01,30.2195
2006-08-02,30.4395
2006-08-03,29.8987
2006-08-04,29.6696
2006-08-07,29.7704
2006-08-08,29.4037
2006-08-09,29.7337
2006-08-10,29.5229
2006-08-11,29.2571
2006-08-14,28.6063
2006-08-15,28.7988
2006-08-16,28.7163
2006-08-17,28.478
2006-08-18,28.6063
2006-08-21,28.753
2006-08-22,29.1288
2006-08-23,28.8996
2006-08-24,29.2846
2006-08-25,29.6512
2006-08-28,29.0646
2006-08-29,29.0096
2006-08-30,28.9363
2006-08-31,28.8905
2006-09-01,29.2571
2006-09-05,29.5687
2006-09-06,28.7713
2006-09-07,28.5422
2006-09-08,27.7356
2006-09-11,26.6449
2006-09-12,26.6632
2006-09-13,27.0848
2006-09-14,26.6998
2006-09-15,26.6357
2006-09-18,26.9657
2006-09-19,26.7182
2006-09-20,26.4157
2006-09-21,26.5532
2006-09-22,26.4157
2006-09-25,26.3149
2006-09-26,26.654
2006-09-27,26.489
2006-09-28,26.6176
2006-09-29,26.5809
2006-10-02,26.5993
2006-10-03,26.0298
2006-10-04,26.4247
2006-10-05,26.5074
2006-10-06,26.5901
2006-10-09,26.4798
2006-10-10,26.7554
2006-10-11,26.8564
2006-10-12,27.2697
2006-10-13,27.3249
2006-10-16,28.2158
2006-10-17,27.9219
2006-10-18,27.9402
2006-10-19,28.3719
2006-10-20,28.1331
2006-10-23,27.8668
2006-10-24,28.574
2006-10-25,29.0975
2006-10-26,29.4098
2006-10-27,29.7772
2006-10-30,29.3731
2006-10-31,29.8323
2006-11-01,29.2628
2006-11-02,29.1434
2006-11-03,29.52
2006-11-06,29.5751
2006-11-07,29.2628
2006-11-08,29.869
2006-11-09,29.9517
2006-11-10,29.6302
2006-11-13,29.5017
2006-11-14,29.6394
2006-11-15,30.0619
2006-11-16,29.5476
2006-11-17,29.8782
2006-11-20,29.6854
2006-11-21,30.2456
2006-11-22,30.0068
2006-11-24,29.8966
2006-11-27,29.8966
2006-11-28,30.2824
2006-11-29,31.1917
2006-11-30,31.2927
2006-12-01,31.2651
2006-12-04,30.9253
2006-12-05,31.0172
2006-12-06,30.9896
2006-12-07,30.8426
2006-12-08,29.4741
2006-12-11,29.1526
2006-12-12,28.7118
2006-12-13,28.6842
2006-12-14,28.8863
2006-12-15,28.5648
2006-12-18,28.1974
2006-12-19,28.3719
2006-12-20,27.9494
2006-12-21,27.6096
2006-12-22,27.334
2006-12-26,26.9207
2006-12-27,27.0952
2006-12-28,26.994
2006-12-29,26.6995
2007-01-03,25.6043
2007-01-04,25.5491
2007-01-05,25.6871
2007-01-08,25.7792
2007-01-09,25.7056
2007-01-10,25.4018
2007-01-11,25.1257
2007-01-12,25.7884
2007-01-16,25.6871
2007-01-17,25.9725
2007-01-18,25.8528
2007-01-19,26.6443
2007-01-22,26.6351
2007-01-23,27.4818
2007-01-24,27.5647
2007-01-25,26.7456
2007-01-26,26.6903
2007-01-29,26.3682
2007-01-30,27.0493
2007-01-31,27.2517
2007-02-01,27.2517
2007-02-02,27.1229
2007-02-05,27.2425
2007-02-06,26.902
2007-02-07,26.7916
2007-02-08,27.0585
2007-02-09,27.2425
2007-02-12,26.8376
2007-02-13,27.1965
2007-02-14,27.2149
2007-02-15,26.9572
2007-02-16,27.3346
2007-02-20,26.9296
2007-02-21,26.9756
2007-02-22,27.2333
2007-02-23,28.0248
2007-02-26,28.7795
2007-02-27,28.0064
2007-02-28,28.0064
2007-03-01,27.9788
2007-03-02,27.5187
2007-03-05,27.2702
2007-03-06,27.8316
2007-03-07,27.8684
2007-03-08,27.9052
2007-03-09,27.7303
2007-03-12,27.4818
2007-03-13,27.0769
2007-03-14,27.4634
2007-03-15,27.3346
2007-03-16,27.1873
2007-03-19,27.8684
2007-03-20,27.9788
2007-03-21,28.2825
2007-03-22,28.1169
2007-03-23,28.3102
2007-03-26,28.5587
2007-03-27,28.6323
2007-03-28,28.5955
2007-03-29,28.6139
2007-03-30,28.4664
2007-04-02,29.075
2007-04-03,29.5545
2007-04-04,29.6836
2007-04-05,29.9879
2007-04-09,30.0248
2007-04-10,30.7625
2007-04-11,30.5781
2007-04-12,30.9377
2007-04-13,31.0576
2007-04-16,30.9746
2007-04-17,30.7256
2007-04-18,30.3015
2007-04-19,29.9326
2007-04-20,30.2738
2007-04-23,30.3752
2007-04-24,30.449
2007-04-25,31.1037
2007-04-26,30.9746
2007-04-27,31.0392
2007-04-30,31.1129
2007-05-01,31.74
2007-05-02,32.8097
2007-05-03,33.2062
2007-05-04,32.7728
2007-05-07,32.8373
2007-05-08,32.5422
2007-05-09,31.7031
2007-05-10,31.2605
2007-05-11,31.6201
2007-05-14,31.8045
2007-05-15,31.491
2007-05-16,31.657
2007-05-17,32.1549
2007-05-18,32.4961
2007-05-21,32.8373
2007-05-22,32.4869
2007-05-23,32.5146
2007-05-24,31.9521
2007-05-25,32.1365
2007-05-29,32.0074
2007-05-30,32.3855
2007-05-31,32.2103
2007-06-01,32.284
2007-06-04,33.4091
2007-06-05,33.6027
2007-06-06,33.114
2007-06-07,32.5054
2007-06-08,32.782
2007-06-11,32.6252
2007-06-12,32.6252
2007-06-13,33.4736
2007-06-14,34.1191
2007-06-15,34.405
2007-06-18,34.7001
2007-06-19,34.5248
2007-06-20,33.6304
2007-06-21,34.0453
2007-06-22,33.3814
2007-06-25,32.782
2007-06-26,32.1365
2007-06-27,32.4132
2007-06-28,32.0601
2007-06-29,31.9215
2007-07-02,32.3743
2007-07-03,32.6145
2007-07-05,32.5221
2007-07-06,32.5498
2007-07-09,32.5868
2007-07-10,32.6052
2007-07-11,32.2819
2007-07-12,32.7069
2007-07-13,33.5292
2007-07-16,33.0857
2007-07-17,33.1042
2007-07-18,33.7694
2007-07-19,34.1667
2007-07-20,33.7047
2007-07-23,32.984
2007-07-24,31.6998
2007-07-25,31.7275
2007-07-26,31.4319
2007-07-27,31.2194
2007-07-30,31.3949
2007-07-31,31.4411
2007-08-01,31.7737
2007-08-02,32.171
2007-08-03,32.5406
2007-08-06,32.9656
2007-08-07,32.9194
2007-08-08,32.7161
2007-08-09,31.2563
2007-08-10,31.4134
2007-08-13,31.6536
2007-08-14,31.053
2007-08-15,30.5357
2007-08-16,30.24
2007-08-17,30.9514
2007-08-20,30.471
2007-08-21,30.4895
2007-08-22,30.009
2007-08-23,30.2585
2007-08-24,30.4895
2007-08-27,30.0737
2007-08-28,29.4731
2007-08-29,29.2791
2007-08-30,29.2791
2007-08-31,29.7503
2007-09-04,30.3139
2007-09-05,31.2748
2007-09-06,31.3395
2007-09-07,31.4041
2007-09-10,31.2656
2007-09-11,31.7183
2007-09-12,32.0694
2007-09-13,32.1156
2007-09-14,32.3281
2007-09-17,32.3096
2007-09-18,32.9009
2007-09-19,32.7438
2007-09-20,32.6514
2007-09-21,32.8085
2007-09-24,32.4482
2007-09-25,32.5406
2007-09-26,32.1802
2007-09-27,32.7523
2007-09-28,32.5949
2007-10-01,33.2985
2007-10-02,33.4096
2007-10-03,33.1689
2007-10-04,33.6873
2007-10-05,34.1316
2007-10-08,33.7336
2007-10-09,34.2983
2007-10-10,34.3445
2007-10-11,34.4649
2007-10-12,34.7148
2007-10-15,34.9092
2007-10-16,34.974
2007-10-17,34.8074
2007-10-18,35.5202
2007-10-19,34.7796
2007-10-22,34.4279
2007-10-23,34.1594
2007-10-24,34.4001
2007-10-25,35.2518
2007-10-26,35.8813
2007-10-29,35.9646
2007-10-30,35.6128
2007-10-31,36.5385
2007-11-01,36.4367
2007-11-02,37.0754
2007-11-05,36.7052
2007-11-06,37.5383
2007-11-07,37.168
2007-11-08,37.9456
2007-11-09,37.2143
2007-11-12,35.909
2007-11-13,36.2053
2007-11-14,35.9738
2007-11-15,35.4091
2007-11-16,35.3721
2007-11-19,34.937
2007-11-20,35.2425
2007-11-21,34.5019
2007-11-23,35.0666
2007-11-26,35.0111
2007-11-27,34.576
2007-11-28,35.187
2007-11-29,35.1499
2007-11-30,35.0203
2007-12-03,34.6871
2007-12-04,34.576
2007-12-05,34.8352
2007-12-06,35.511
2007-12-07,35.4925
2007-12-10,35.6869
2007-12-11,35.0296
2007-12-12,35.7517
2007-12-13,36.0757
2007-12-14,35.3628
2007-12-17,34.8537
2007-12-18,35.298
2007-12-19,35.4091
2007-12-20,35.5665
2007-12-21,36.2238
2007-12-24,36.2978
2007-12-26,36.3349
2007-12-27,36.2515
2007-12-28,36.6114
2007-12-31,36.3889
2008-01-02,37.1122
2008-01-03,37.5017
2008-01-04,36.4909
2008-01-07,36.2219
2008-01-08,35.7304
2008-01-09,36.3054
2008-01-10,36.3796
2008-01-11,36.6763
2008-01-14,37.4831
2008-01-15,36.6485
2008-01-16,35.6748
2008-01-17,34.154
2008-01-18,34.5063
2008-01-22,33.8572
2008-01-23,33.3657
2008-01-24,33.9407
2008-01-25,33.5326
2008-01-28,33.9036
2008-01-29,34.2189
2008-01-30,34.1632
2008-01-31,34.562
2008-02-01,34.9515
2008-02-04,35.2111
2008-02-05,34.3394
2008-02-06,34.0427
2008-02-07,34.6454
2008-02-08,35.7675
2008-02-11,38.1693
2008-02-12,38.2528
2008-02-13,39.1431
2008-02-14,39.7922
2008-02-15,39.9591
2008-02-19,40.4599
2008-02-20,41.582
2008-02-21,40.9514
2008-02-22,41.1647
2008-02-25,42.7968
2008-02-26,42.9081
2008-02-27,42.0642
2008-02-28,42.8802
2008-02-29,42.0178
2008-03-03,42.7319
2008-03-04,42.9081
2008-03-05,43.0935
2008-03-06,41.7767
2008-03-07,41.415
2008-03-10,40.9143
2008-03-11,42.6113
2008-03-12,43.3254
2008-03-13,45.3377
2008-03-14,44.5124
2008-03-17,42.6484
2008-03-18,44.3362
2008-03-19,41.0626
2008-03-20,41.1276
2008-03-24,41.6932
2008-03-25,43.0842
2008-03-26,43.891
2008-03-27,42.704
2008-03-28,42.2656
2008-03-31,42.8507
2008-04-01,43.3243
2008-04-02,43.3708
2008-04-03,42.5071
2008-04-04,43.1107
2008-04-07,43.6308
2008-04-08,44.4574
2008-04-09,45.4418
2008-04-10,45.4975
2008-04-11,44.2716
2008-04-14,45.061
2008-04-15,45.7204
2008-04-16,47.3921
2008-04-17,46.0083
2008-04-18,46.7327
2008-04-21,48.0236
2008-04-22,49.8718
2008-04-23,49.3145
2008-04-24,48.1351
2008-04-25,50.7169
2008-04-28,49.9553
2008-04-29,47.7079
2008-04-30,47.9958
2008-05-01,47.3642
2008-05-02,48.8502
2008-05-05,50.754
2008-05-06,52.7786
2008-05-07,52.1935
2008-05-08,52.435
2008-05-09,52.6579
2008-05-12,51.9056
2008-05-13,54.0974
2008-05-14,53.0387
2008-05-15,52.9551
2008-05-16,54.4689
2008-05-19,54.6918
2008-05-20,53.4844
2008-05-21,51.7106
2008-05-22,50.2154
2008-05-23,48.8223
2008-05-27,49.3795
2008-05-28,49.9646
2008-05-29,48.6273
2008-05-30,50.7169
2008-06-02,51.5899
2008-06-03,51.3577
2008-06-04,49.9368
2008-06-05,52.0449
2008-06-06,53.9116
2008-06-09,55.7969
2008-06-10,54.5617
2008-06-11,55.3883
2008-06-12,54.1531
2008-06-13,54.9982
2008-06-16,56.6049
2008-06-17,59.391
2008-06-18,61.2949
2008-06-19,59.0381
2008-06-20,59.3075
2008-06-23,63.0316
2008-06-24,60.747
2008-06-25,59.2889
2008-06-26,58.4809
2008-06-27,59.7595
2008-06-30,61.3495
2008-07-01,62.6047
2008-07-02,64.5573
2008-07-03,61.9259
2008-07-07,60.0663
2008-07-08,57.314
2008-07-09,53.7714
2008-07-10,57.1839
2008-07-11,59.0249
2008-07-14,58.5879
2008-07-15,55.2591
2008-07-16,52.6835
2008-07-17,50.6007
2008-07-18,50.545
2008-07-21,51.9304
2008-07-22,47.4673
2008-07-23,43.841
2008-07-24,45.4217
2008-07-25,44.901
2008-07-28,45.5053
2008-07-29,43.7573
2008-07-30,47.2255
2008-07-31,46.4631
2008-08-01,45.7192
2008-08-04,42.2045
2008-08-05,41.7489
2008-08-06,43.218
2008-08-07,41.879
2008-08-08,40.3541
2008-08-11,40.475
2008-08-12,41.7861
2008-08-13,43.7573
2008-08-14,43.1808
2008-08-15,42.2789
2008-08-18,41.7675
2008-08-19,43.6178
2008-08-20,45.1241
2008-08-21,45.9238
2008-08-22,44.2687
2008-08-25,44.6034
2008-08-26,45.9795
2008-08-27,46.9559
2008-08-28,45.7285
2008-08-29,45.0869
2008-09-02,41.9999
2008-09-03,42.0836
2008-09-04,41.5629
2008-09-05,41.2747
2008-09-08,39.6754
2008-09-09,36.1978
2008-09-10,37.3508
2008-09-11,37.3508
2008-09-12,39.2105
2008-09-15,35.8166
2008-09-16,35.8352
2008-09-17,34.7008
2008-09-18,35.798
2008-09-19,38.6991
2008-09-22,38.1226
2008-09-23,38.2156
2008-09-24,36.7
2008-09-25,37.5554
2008-09-26,35.2866
2008-09-29,31.015
2008-09-30,33.4187
2008-10-01,31.9187
2008-10-02,28.0616
2008-10-03,26.9716
2008-10-06,24.6611
2008-10-07,20.7015
2008-10-08,21.0183
2008-10-09,16.7699
2008-10-10,14.8786
2008-10-13,19.1084
2008-10-14,20.0493
2008-10-15,14.9345
2008-10-16,17.0587
2008-10-17,18.9127
2008-10-20,21.6611
2008-10-21,21.7729
2008-10-22,19.6115
2008-10-23,20.068
2008-10-24,19.1363
2008-10-27,16.5463
2008-10-28,18.0929
2008-10-29,19.332
2008-10-30,20.7015
2008-10-31,20.5152
2008-11-03,19.2388
2008-11-04,21.4002
2008-11-05,23.1797
2008-11-06,21.0276
2008-11-07,21.8009
2008-11-10,22.0897
2008-11-11,20.8785
2008-11-12,18.7264
2008-11-13,20.1518
2008-11-14,19.8257
2008-11-17,19.5649
2008-11-18,19.658
2008-11-19,18.0183
2008-11-20,12.9874
2008-11-21,15.8382
2008-11-24,17.0308
2008-11-25,16.8444
2008-11-26,18.8661
2008-11-28,15.9593
2008-12-01,13.9935
2008-12-02,13.2855
2008-12-03,13.1364
2008-12-04,10.975
2008-12-05,10.6861
2008-12-08,13.1644
2008-12-09,13.537
2008-12-10,16.6115
2008-12-11,15.391
2008-12-12,15.4656
2008-12-15,14.5712
2008-12-16,15.1209
2008-12-17,15.0463
2008-12-18,14.655
2008-12-19,14.9066
2008-12-22,14.5339
2008-12-23,14.1892
2008-12-24,14.0215
2008-12-26,14.3383
2008-12-29,14.5153
2008-12-30,14.6603
2008-12-31,15.1471
2009-01-02,16.1582
2009-01-05,16.9445
2009-01-06,17.9181
2009-01-07,17.0943
2009-01-08,16.4952
2009-01-09,15.6245
2009-01-12,15.0348
2009-01-13,15.222
2009-01-14,14.4356
2009-01-15,14.3794
2009-01-16,14.3233
2009-01-20,12.8629
2009-01-21,14.2109
2009-01-22,13.2935
2009-01-23,13.9582
2009-01-26,14.7726
2009-01-27,14.6416
2009-01-28,15.6807
2009-01-29,15.6245
2009-01-30,14.782
2009-02-02,14.7258
2009-02-03,15.4279
2009-02-04,16.0177
2009-02-05,16.7479
2009-02-06,16.9352
2009-02-09,17.6467
2009-02-10,16.8509
2009-02-11,16.8603
2009-02-12,17.3003
2009-02-13,17.4501
2009-02-17,16.0645
2009-02-18,15.3718
2009-02-19,15.6901
2009-02-20,14.7258
2009-02-23,13.8833
2009-02-24,14.5948
2009-02-25,14.9599
2009-02-26,14.4356
2009-02-27,14.6697
2009-03-02,12.685
2009-03-03,13.125
2009-03-04,13.8177
2009-03-05,13.5743
2009-03-06,13.1437
2009-03-09,13.1718
2009-03-10,13.7803
2009-03-11,14.6041
2009-03-12,14.8756
2009-03-13,14.4731
2009-03-16,14.8663
2009-03-17,15.896
2009-03-18,16.3735
2009-03-19,16.7947
2009-03-20,16.4764
2009-03-23,18.2552
2009-03-24,18.1428
2009-03-25,18.0773
2009-03-26,17.7777
2009-03-27,17.1037
2009-03-30,16.3091
2009-03-31,16.0459
2009-04-01,16.4877
2009-04-02,17.6627
2009-04-03,18.7061
2009-04-06,18.5933
2009-04-07,17.4653
2009-04-08,18.3301
2009-04-09,19.4205
2009-04-13,19.4675
2009-04-14,19.7495
2009-04-15,19.6743
2009-04-16,19.6743
2009-04-17,20.2759
2009-04-20,18.3771
2009-04-21,18.4993
2009-04-22,18.2079
2009-04-23,18.7437
2009-04-24,19.5145
2009-04-27,19.0727
2009-04-28,18.7155
2009-04-29,18.7061
2009-04-30,18.5933
2009-05-01,19.5803
2009-05-04,21.4039
2009-05-05,19.1385
2009-05-06,20.1067
2009-05-07,20.5767
2009-05-08,22.3533
2009-05-11,21.0279
2009-05-12,20.8117
2009-05-13,19.2607
2009-05-14,19.4487
2009-05-15,18.6779
2009-05-18,19.7777
2009-05-19,20.3041
2009-05-20,20.5955
2009-05-21,19.6555
2009-05-22,19.2607
2009-05-26,19.6461
2009-05-27,19.5803
2009-05-28,20.9057
2009-05-29,21.2629
2009-06-01,23.0395
2009-06-02,22.7011
2009-06-03,21.3381
2009-06-04,22.0055
2009-06-05,21.9115
2009-06-08,21.5449
2009-06-09,21.4979
2009-06-10,22.4567
2009-06-11,22.8045
2009-06-12,22.4003
2009-06-15,21.6013
2009-06-16,21.1689
2009-06-17,20.8587
2009-06-18,20.6143
2009-06-19,19.7683
2009-06-22,18.1985
2009-06-23,18.0951
2009-06-24,18.3771
2009-06-25,18.4241
2009-06-26,18.3771
2009-06-29,18.3815
2009-06-30,18.7401
2009-07-01,18.5514
2009-07-02,17.57
2009-07-06,16.9189
2009-07-07,16.5792
2009-07-08,16.4094
2009-07-09,16.9
2009-07-10,16.8434
2009-07-13,17.1926
2009-07-14,17.3907
2009-07-15,18.1362
2009-07-16,18.7212
2009-07-17,18.9854
2009-07-20,19.1647
2009-07-21,19.3723
2009-07-22,19.2213
2009-07-23,19.9479
2009-07-24,20.0706
2009-07-27,20.3065
2009-07-28,19.8535
2009-07-29,19.4289
2009-07-30,20.0989
2009-07-31,20.2687
2009-08-03,21.0614
2009-08-04,21.9955
2009-08-05,22.0333
2009-08-06,23.0335
2009-08-07,23.0618
2009-08-10,23.0807
2009-08-11,22.4579
2009-08-12,22.2503
2009-08-13,22.9863
2009-08-14,22.3258
2009-08-17,20.9764
2009-08-18,21.2218
2009-08-19,21.6464
2009-08-20,21.703
2009-08-21,22.4296
2009-08-24,22.5806
2009-08-25,22.0521
2009-08-26,21.9861
2009-08-27,21.8729
2009-08-28,22.2597
2009-08-31,21.4765
2009-09-01,21.2689
2009-09-02,20.8915
2009-09-03,20.3725
2009-09-04,20.9576
2009-09-08,21.7879
2009-09-09,22.2975
2009-09-10,23.8356
2009-09-11,24.6565
2009-09-14,25.5718
2009-09-15,26.6853
2009-09-16,27.2514
2009-09-17,26.355
2009-09-18,26.2984
2009-09-21,26.5626
2009-09-22,27.393
2009-09-23,26.6758
2009-09-24,26.204
2009-09-25,25.9398
2009-09-28,26.5532
2009-09-29,27.0403
2009-09-30,26.8416
2009-10-01,25.044
2009-10-02,25.2711
2009-10-05,25.9807
2009-10-06,26.2456
2009-10-07,26.0753
2009-10-08,26.7754
2009-10-09,27.0876
2009-10-12,27.4472
2009-10-13,27.9013
2009-10-14,26.9079
2009-10-15,27.3526
2009-10-16,27.0687
2009-10-19,27.3809
2009-10-20,27.3147
2009-10-21,27.239
2009-10-22,26.4348
2009-10-23,25.3278
2009-10-26,24.3628
2009-10-27,24.921
2009-10-28,23.464
2009-10-29,24.6372
2009-10-30,23.1896
2009-11-02,22.7922
2009-11-03,23.1707
2009-11-04,23.0098
2009-11-05,23.4829
2009-11-06,22.9247
2009-11-09,23.9181
2009-11-10,23.9654
2009-11-11,23.8235
2009-11-12,23.3883
2009-11-13,23.7383
2009-11-16,23.8046
2009-11-17,22.9531
2009-11-18,22.7828
2009-11-19,22.111
2009-11-20,21.7609
2009-11-23,21.9123
2009-11-24,22.3948
2009-11-25,23.5302
2009-11-27,22.8679
2009-11-30,22.5746
2009-12-01,22.7828
2009-12-02,22.1394
2009-12-03,21.7988
2009-12-04,21.2879
2009-12-07,21.5433
2009-12-08,21.3636
2009-12-09,21.2311
2009-12-10,21.9029
2009-12-11,21.8082
2009-12-14,23.0571
2009-12-15,23.2274
2009-12-16,23.5302
2009-12-17,23.6627
2009-12-18,24.6182
2009-12-21,24.9778
2009-12-22,25.3751
2009-12-23,25.8482
2009-12-24,26.3213
2009-12-28,26.0847
2009-12-29,25.29
2009-12-30,25.0196
2009-12-31,24.5831
2010-01-04,26.642
2010-01-05,27.5149
2010-01-06,27.1733
2010-01-07,27.2587
2010-01-08,27.4105
2010-01-11,26.5471
2010-01-12,26.1771
2010-01-13,26.3953
2010-01-14,26.234
2010-01-15,26.4523
2010-01-19,26.7843
2010-01-20,26.2435
2010-01-21,25.7786
2010-01-22,25.1999
2010-01-25,25.5699
2010-01-26,25.1999
2010-01-27,24.6211
2010-01-28,24.2795
2010-01-29,23.5395
2010-02-01,24.5167
2010-02-02,24.9057
2010-02-03,24.4978
2010-02-04,22.9323
2010-02-05,23.2359
2010-02-08,22.9607
2010-02-09,23.2833
2010-02-10,23.16
2010-02-11,23.8336
2010-02-12,23.6913
2010-02-16,24.5262
2010-02-17,24.9722
2010-02-18,26.0538
2010-02-19,26.1866
2010-02-22,25.7027
2010-02-23,24.9342
2010-02-24,25.1524
2010-02-25,25.3517
2010-02-26,25.2473
2010-03-01,25.3042
2010-03-02,25.3517
2010-03-03,25.4276
2010-03-04,24.8298
2010-03-05,24.9057
2010-03-08,24.2606
2010-03-09,24.3554
2010-03-10,24.3554
2010-03-11,24.4788
2010-03-12,24.2985
2010-03-15,24.0708
2010-03-16,24.1372
2010-03-17,23.7482
2010-03-18,22.5527
2010-03-19,22.9607
2010-03-22,22.0499
2010-03-23,22.0594
2010-03-24,21.955
2010-03-25,21.2624
2010-03-26,21.2055
2010-03-29,22.0878
2010-03-30,22.3306
2010-03-31,22.4924
2010-04-01,22.9588
2010-04-05,23.4157
2010-04-06,23.3586
2010-04-07,22.9112
2010-04-08,22.9398
2010-04-09,23.3966
2010-04-12,23.1492
2010-04-13,23.3966
2010-04-14,23.4823
2010-04-15,23.1587
2010-04-16,22.8065
2010-04-19,22.6352
2010-04-20,22.6923
2010-04-21,22.559
2010-04-22,22.7494
2010-04-23,23.6727
2010-04-26,23.2919
2010-04-27,22.54
2010-04-28,22.5495
2010-04-29,22.4448
2010-04-30,22.6637
2010-05-03,22.9398
2010-05-04,22.5209
2010-05-05,22.0545
2010-05-06,21.4168
2010-05-07,20.8837
2010-05-10,21.9974
2010-05-11,22.1592
2010-05-12,22.3782
2010-05-13,22.1783
2010-05-14,21.5691
2010-05-17,21.2454
2010-05-18,21.1788
2010-05-19,21.0456
2010-05-20,19.9985
2010-05-21,20.008
2010-05-24,19.751
2010-05-25,19.7986
2010-05-26,20.1318
2010-05-27,21.1503
2010-05-28,21.2359
2010-06-01,20.5887
2010-06-02,22.1973
2010-06-03,23.6727
2010-06-04,22.8826
2010-06-07,22.7494
2010-06-08,22.8065
2010-06-09,22.3496
2010-06-10,23.2253
2010-06-11,23.4633
2010-06-14,23.4347
2010-06-15,24.1296
2010-06-16,23.9773
2010-06-17,23.7012
2010-06-18,23.4538
2010-06-21,23.311
2010-06-22,22.5209
2010-06-23,22.3496
2010-06-24,21.7785
2010-06-25,21.807
2010-06-28,21.3787
2010-06-29,20.2566
2010-06-30,20.0178
2010-07-01,19.8936
2010-07-02,19.6167
2010-07-06,19.6262
2010-07-07,20.4762
2010-07-08,20.4571
2010-07-09,20.5431
2010-07-12,20.2757
2010-07-13,20.4667
2010-07-14,20.438
2010-07-15,20.438
2010-07-16,19.9318
2010-07-19,19.9987
2010-07-20,20.524
2010-07-21,20.1515
2010-07-22,20.7341
2010-07-23,20.8105
2010-07-26,20.9633
2010-07-27,20.3043
2010-07-28,20.1611
2010-07-29,20.1133
2010-07-30,20.0847
2010-08-02,20.6768
2010-08-03,20.8391
2010-08-04,21.4313
2010-08-05,21.3644
2010-08-06,21.2976
2010-08-09,21.0397
2010-08-10,21.2403
2010-08-11,20.4285
2010-08-12,20.0847
2010-08-13,19.8745
2010-08-16,19.9796
2010-08-17,20.3616
2010-08-18,19.9605
2010-08-19,19.865
2010-08-20,19.4734
2010-08-23,19.6453
2010-08-24,19.3302
2010-08-25,19.1392
2010-08-26,19.1869
2010-08-27,19.9127
2010-08-30,19.8841
2010-08-31,19.7408
2010-09-01,20.3043
2010-09-02,20.3998
2010-09-03,20.7245
2010-09-07,20.2948
2010-09-08,20.1802
2010-09-09,19.97
2010-09-10,20.2375
2010-09-13,20.6768
2010-09-14,20.5335
2010-09-15,20.4762
2010-09-16,20.6768
2010-09-17,20.5049
2010-09-20,20.7436
2010-09-21,20.1993
2010-09-22,19.9605
2010-09-23,19.9509
2010-09-24,20.5813
2010-09-27,20.7054
2010-09-28,20.7341
2010-09-29,21.6111
2010-09-30,21.7069
2010-10-01,21.8602
2010-10-04,21.3331
2010-10-05,21.3715
2010-10-06,21.6206
2010-10-07,21.5152
2010-10-08,22.1094
2010-10-11,22.3011
2010-10-12,22.8473
2010-10-13,22.2723
2010-10-14,22.004
2010-10-15,22.0327
2010-10-18,21.7261
2010-10-19,21.036
2010-10-20,21.2277
2010-10-21,21.0169
2010-10-22,20.3269
2010-10-25,20.2598
2010-10-26,20.3652
2010-10-27,20.4994
2010-10-28,20.4419
2010-10-29,20.7773
2010-11-01,20.9306
2010-11-02,21.151
2010-11-03,21.3523
2010-11-04,21.381
2010-11-05,21.3331
2010-11-08,21.7644
2010-11-09,22.0711
2010-11-10,22.4448
2010-11-11,22.2052
2010-11-12,21.7644
2010-11-15,21.4002
2010-11-16,21.0456
2010-11-17,21.1798
2010-11-18,21.3235
2010-11-19,21.7165
2010-11-22,21.6015
2010-11-23,20.9115
2010-11-24,21.266
2010-11-26,21.1606
2010-11-29,21.1127
2010-11-30,20.2694
2010-12-01,20.5185
2010-12-02,20.7198
2010-12-03,21.2373
2010-12-06,21.6015
2010-12-07,21.8123
2010-12-08,21.9465
2010-12-09,21.8698
2010-12-10,21.9561
2010-12-13,21.9561
2010-12-14,22.0711
2010-12-15,22.5503
2010-12-16,22.5886
2010-12-17,22.349
2010-12-20,24.3136
2010-12-21,24.3232
2010-12-22,24.3424
2010-12-23,24.5532
2010-12-27,24.5053
2010-12-28,24.7736
2010-12-29,25.0516
2010-12-30,24.9602
2010-12-31,24.893
2011-01-03,25.4696
2011-01-04,25.1717
2011-01-05,25.4889
2011-01-06,25.6522
2011-01-07,25.8925
2011-01-10,25.9214
2011-01-11,26.2385
2011-01-12,26.8056
2011-01-13,26.623
2011-01-14,26.5941
2011-01-18,26.6038
2011-01-19,26.7095
2011-01-20,26.7191
2011-01-21,26.7287
2011-01-24,27.0363
2011-01-25,26.3827
2011-01-26,26.969
2011-01-27,26.6422
2011-01-28,26.2962
2011-01-31,28.3914
2011-02-01,29.0642
2011-02-02,29.2949
2011-02-03,29.2757
2011-02-04,28.8624
2011-02-07,30.0542
2011-02-08,30.3041
2011-02-09,29.6313
2011-02-10,29.5832
2011-02-11,29.6217
2011-02-14,30.3041
2011-02-15,29.5159
2011-02-16,29.4775
2011-02-17,29.3045
2011-02-18,29.2372
2011-02-22,30.7558
2011-02-23,33.0721
2011-02-24,33.024
2011-02-25,34.0428
2011-02-28,34.187
2011-03-01,32.3897
2011-03-02,32.5723
2011-03-03,32.2647
2011-03-04,32.2167
2011-03-07,32.1302
2011-03-08,31.3517
2011-03-09,32.2551
2011-03-10,30.8711
2011-03-11,31.5055
2011-03-14,32.2647
2011-03-15,32.2936
2011-03-16,33.2931
2011-03-17,32.7357
2011-03-18,31.9572
2011-03-21,32.4377
2011-03-22,32.3897
2011-03-23,32.4089
2011-03-24,32.5531
2011-03-25,32.8702
2011-03-28,31.7842
2011-03-29,32.0437
2011-03-30,33.0406
2011-03-31,32.2796
2011-04-01,32.2315
2011-04-04,32.559
2011-04-05,32.559
2011-04-06,32.4434
2011-04-07,33.1851
2011-04-08,32.7709
2011-04-11,32.1159
2011-04-12,30.7769
2011-04-13,31.1911
2011-04-14,31.4705
2011-04-15,31.509
2011-04-18,30.8058
2011-04-19,30.8347
2011-04-20,31.0274
2011-04-21,31.4608
2011-04-25,31.3453
2011-04-26,31.8751
2011-04-27,31.8751
2011-04-28,32.0003
2011-04-29,32.4627
2011-05-02,32.0388
2011-05-03,30.17
2011-05-04,29.5824
2011-05-05,29.7462
2011-05-06,29.8136
2011-05-09,30.1411
2011-05-10,30.459
2011-05-11,29.7847
2011-05-12,29.3802
2011-05-13,28.677
2011-05-16,28.5132
2011-05-17,27.993
2011-05-18,28.8311
2011-05-19,28.8407
2011-05-20,29.5343
2011-05-23,29.0912
2011-05-24,29.7944
2011-05-25,29.8522
2011-05-26,29.9292
2011-05-27,29.9485
2011-05-31,30.1604
2011-06-01,29.332
2011-06-02,29.4283
2011-06-03,29.4091
2011-06-06,28.5806
2011-06-07,28.6673
2011-06-08,28.5132
2011-06-09,28.677
2011-06-10,28.1664
2011-06-13,27.2802
2011-06-14,27.9256
2011-06-15,27.7329
2011-06-16,27.1164
2011-06-17,26.9912
2011-06-20,27.0586
2011-06-21,27.7137
2011-06-22,27.9352
2011-06-23,27.9449
2011-06-24,27.1068
2011-06-27,26.9816
2011-06-28,27.4729
2011-06-29,28.0797
2011-06-30,28.6981
2011-07-01,29.1523
2011-07-05,29.2586
2011-07-06,29.2102
2011-07-07,29.4905
2011-07-08,29.5581
2011-07-11,28.7561
2011-07-12,28.7851
2011-07-13,28.9493
2011-07-14,29.2102
2011-07-15,31.7612
2011-07-18,31.8385
2011-07-19,32.4955
2011-07-20,32.5922
2011-07-21,32.8434
2011-07-22,33.2202
2011-07-25,32.7274
2011-07-26,32.9497
2011-07-27,32.3603
2011-07-28,32.312
2011-07-29,33.2589
2011-08-01,33.2202
2011-08-02,32.998
2011-08-03,33.1043
2011-08-04,30.3408
2011-08-05,29.703
2011-08-08,26.3211
2011-08-09,28.099
2011-08-10,27.7512
2011-08-11,29.8963
2011-08-12,30.2538
2011-08-15,31.1814
2011-08-16,30.5823
2011-08-17,30.5823
2011-08-18,28.8334
2011-08-19,28.2923
2011-08-22,27.442
2011-08-23,28.5725
2011-08-24,29.1039
2011-08-25,28.5242
2011-08-26,29.4711
2011-08-29,30.6983
2011-08-30,31.3843
2011-08-31,31.2394
2011-09-01,31.9738
2011-09-02,31.0655
2011-09-06,29.9253
2011-09-07,30.4181
2011-09-08,30.8915
2011-09-09,29.3938
2011-09-12,29.703
2011-09-13,30.3891
2011-09-14,30.476
2011-09-15,30.6017
2011-09-16,30.708
2011-09-19,30.0026
2011-09-20,29.4421
2011-09-21,28.4565
2011-09-22,26.2245
2011-09-23,25.1133
2011-09-26,26.6303
2011-09-27,26.7559
2011-09-28,26.3404
2011-09-29,25.9216
2011-09-30,24.8068
2011-10-03,23.2849
2011-10-04,24.3706
2011-10-05,24.6129
2011-10-06,25.117
2011-10-07,24.5645
2011-10-10,25.9022
2011-10-11,25.7859
2011-10-12,25.9507
2011-10-13,26.0379
2011-10-14,26.891
2011-10-17,26.4063
2011-10-18,26.4645
2011-10-19,26.2803
2011-10-20,26.5033
2011-10-21,26.9492
2011-10-24,27.4436
2011-10-25,26.4257
2011-10-26,27.2982
2011-10-27,28.2482
2011-10-28,28.8104
2011-10-31,27.2982
2011-11-01,26.1349
2011-11-02,27.1043
2011-11-03,28.1706
2011-11-04,26.2124
2011-11-07,26.0186
2011-11-08,26.2803
2011-11-09,24.8068
2011-11-10,24.7583
2011-11-11,25.6502
2011-11-14,24.865
2011-11-15,24.6711
2011-11-16,24.642
2011-11-17,23.915
2011-11-18,23.5951
2011-11-21,23.3527
2011-11-22,22.9456
2011-11-23,22.0537
2011-11-25,21.7726
2011-11-28,22.6257
2011-11-29,23.0716
2011-11-30,24.5935
2011-12-01,24.516
2011-12-02,24.7196
2011-12-05,24.3706
2011-12-06,24.9716
2011-12-07,24.7486
2011-12-08,23.4981
2011-12-09,23.9247
2011-12-12,23.0134
2011-12-13,22.7226
2011-12-14,21.9083
2011-12-15,22.0828
2011-12-16,22.2864
2011-12-19,21.4042
2011-12-20,22.0925
2011-12-21,22.267
2011-12-22,22.7808
2011-12-23,23.0037
2011-12-27,22.8099
2011-12-28,21.9665
2011-12-29,22.0343
2011-12-30,21.6175
2012-01-03,22.868
2012-01-04,23.1298
2012-01-05,22.8971
2012-01-06,23.1491
2012-01-09,22.8196
2012-01-10,22.5772
2012-01-11,21.8986
2012-01-12,21.5658
2012-01-13,20.797
2012-01-17,20.2715
2012-01-18,20.8749
2012-01-19,20.1061
2012-01-20,20.3785
2012-01-23,21.6923
2012-01-24,21.8773
2012-01-25,22.7823
2012-01-26,21.2933
2012-01-27,21.4393
2012-01-30,21.089
2012-01-31,20.5634
2012-02-01,20.4272
2012-02-02,21.5074
2012-02-03,21.7021
2012-02-06,22.0524
2012-02-07,21.5853
2012-02-08,21.488
2012-02-09,21.7313
2012-02-10,21.4977
2012-02-13,22.0427
2012-02-14,22.0914
2012-02-15,22.3833
2012-02-16,23.1229
2012-02-17,24.0475
2012-02-21,23.9501
2012-02-22,23.376
2012-02-23,24.3102
2012-02-24,24.7579
2012-02-27,24.5049
2012-02-28,24.3978
2012-02-29,24.3297
2012-03-01,24.2421
2012-03-02,23.6874
2012-03-05,23.5609
2012-03-06,22.938
2012-03-07,23.4344
2012-03-08,23.9209
2012-03-09,23.882
2012-03-12,23.5706
2012-03-13,24.0183
2012-03-14,23.5803
2012-03-15,23.7944
2012-03-16,24.3783
2012-03-19,24.7482
2012-03-20,24.8844
2012-03-21,24.5146
2012-03-22,23.7652
2012-03-23,24.028
2012-03-26,23.5511
2012-03-27,23.5706
2012-03-28,22.6071
2012-03-29,22.5682
2012-03-30,22.539
2012-04-02,22.685
2012-04-03,22.1205
2012-04-04,21.634
2012-04-05,21.5658
2012-04-09,20.9138
2012-04-10,20.1936
2012-04-11,19.5611
2012-04-12,20.175
2012-04-13,19.4712
2012-04-16,18.7577
2012-04-17,18.6795
2012-04-18,17.6629
2012-04-19,17.5945
2012-04-20,17.0471
2012-04-23,17.6042
2012-04-24,17.3599
2012-04-25,17.6629
2012-04-26,17.1644
2012-04-27,17.3208
2012-04-30,18.0539
2012-05-01,19.0998
2012-05-02,16.3629
2012-05-03,16.8125
2012-05-04,16.9884
2012-05-07,16.7636
2012-05-08,16.5584
2012-05-09,17.1253
2012-05-10,16.7441
2012-05-11,14.4666
2012-05-14,15.1703
2012-05-15,14.3199
2012-05-16,13.7237
2012-05-17,13.2447
2012-05-18,14.0072
2012-05-21,14.5839
2012-05-22,14.5741
2012-05-23,14.7598
2012-05-24,15.2192
2012-05-25,15.4831
2012-05-29,15.9523
2012-05-30,16.0696
2012-05-31,16.5388
2012-06-01,15.229
2012-06-04,16.138
2012-06-05,16.6072
2012-06-06,17.7802
2012-06-07,17.4478
2012-06-08,17.9073
2012-06-11,17.2133
2012-06-12,17.096
2012-06-13,16.5095
2012-06-14,16.92
2012-06-15,17.6824
2012-06-18,17.3012
2012-06-19,18.2885
2012-06-20,18.611
2012-06-21,17.702
2012-06-22,18.0343
2012-06-25,16.6756
2012-06-26,16.6854
2012-06-27,17.5163
2012-06-28,17.3697
2012-06-29,18.2005
2012-07-02,18.2885
2012-07-03,18.7283
2012-07-05,19.2268
2012-07-06,19.6081
2012-07-09,19.5396
2012-07-10,18.2689
2012-07-11,18.6501
2012-07-12,18.3241
2012-07-13,18.7562
2012-07-16,18.8249
2012-07-17,18.874
2012-07-18,18.8348
2012-07-19,17.9608
2012-07-20,16.8904
2012-07-23,17.1457
2012-07-24,16.5369
2012-07-25,16.9297
2012-07-26,17.8233
2012-07-27,18.0884
2012-07-30,18.3536
2012-07-31,18.4812
2012-08-01,18.3732
2012-08-02,17.6269
2012-08-03,17.5582
2012-08-06,17.3912
2012-08-07,19.0312
2012-08-08,19.5222
2012-08-09,19.9444
2012-08-10,19.3356
2012-08-13,18.7169
2012-08-14,18.8348
2012-08-15,18.6482
2012-08-16,18.6678
2012-08-17,18.7857
2012-08-20,19.0312
2012-08-21,19.3847
2012-08-22,19.5811
2012-08-23,18.9231
2012-08-24,19.0017
2012-08-27,18.9526
2012-08-28,19.0017
2012-08-29,19.1686
2012-08-30,18.6973
2012-08-31,19.0213
2012-09-04,18.8544
2012-09-05,19.1883
2012-09-06,19.3552
2012-09-07,19.9641
2012-09-10,19.1785
2012-09-11,19.748
2012-09-12,19.532
2012-09-13,19.5025
2012-09-14,20.1408
2012-09-17,19.7873
2012-09-18,19.6302
2012-09-19,19.365
2012-09-20,19.1588
2012-09-21,19.0017
2012-09-24,19.0508
2012-09-25,18.7464
2012-09-26,18.4518
2012-09-27,18.7267
2012-09-28,18.5402
2012-10-01,18.9231
2012-10-02,19.2079
2012-10-03,18.6973
2012-10-04,19.0901
2012-10-05,18.8642
2012-10-08,19.0606
2012-10-09,19.2374
2012-10-10,19.0803
2012-10-11,19.8768
2012-10-12,19.9063
2012-10-15,19.788
2012-10-16,20.1036
2012-10-17,20.7941
2012-10-18,21.2972
2012-10-19,20.5673
2012-10-22,20.4982
2012-10-23,20.153
2012-10-24,19.7978
2012-10-25,19.9261
2012-10-26,19.8176
2012-10-31,19.9951
2012-11-01,19.7781
2012-11-02,18.2195
2012-11-05,18.0025
2012-11-06,18.2689
2012-11-07,17.312
2012-11-08,16.9865
2012-11-09,16.7793
2012-11-12,17.0161
2012-11-13,17.1739
2012-11-14,16.6116
2012-11-15,16.1677
2012-11-16,16.4144
2012-11-19,17.2035
2012-11-20,17.3613
2012-11-21,17.3811
2012-11-23,17.4994
2012-11-26,16.9668
2012-11-27,17.1443
2012-11-28,17.2232
2012-11-29,17.2824
2012-11-30,16.8484
2012-12-03,16.6906
2012-12-04,16.6511
2012-12-05,16.6906
2012-12-06,16.8583
2012-12-07,16.9865
2012-12-10,16.7695
2012-12-11,16.8583
2012-12-12,16.7399
2012-12-13,16.4637
2012-12-14,16.3354
2012-12-17,16.5229
2012-12-18,16.9865
2012-12-19,16.9865
2012-12-20,17.3416
2012-12-21,17.0753
2012-12-24,16.7695
2012-12-26,16.9372
2012-12-27,16.6018
2012-12-28,16.3552
2012-12-31,16.3848
2013-01-02,16.3369
2013-01-03,16.5342
2013-01-04,17.2149
2013-01-07,17.3925
2013-01-08,16.6625
2013-01-09,16.8302
2013-01-10,16.4652
2013-01-11,16.7098
2013-01-14,16.7892
2013-01-15,17.2353
2013-01-16,17.1659
2013-01-17,17.4139
2013-01-18,17.6618
2013-01-22,18.594
2013-01-23,18.3163
2013-01-24,18.6039
2013-01-25,19.1295
2013-01-28,18.7918
2013-01-29,18.8216
2013-01-30,19.9619
2013-01-31,20.0066
2013-02-01,20.1553
2013-02-04,19.9124
2013-02-05,20.319
2013-02-06,20.3289
2013-02-07,20.0513
2013-02-08,20.0215
2013-02-11,19.8727
2013-02-12,19.8182
2013-02-13,20.4032
2013-02-14,20.1901
2013-02-15,19.8082
2013-02-19,20.1608
2013-02-20,20.0319
2013-02-21,20.0319
2013-02-22,20.2898
2013-02-25,18.9802
2013-02-26,19.5702
2013-02-27,19.9818
2013-02-28,19.9828
2013-03-01,19.4761
2013-03-04,19.308
2013-03-05,19.3179
2013-03-06,19.5757
2013-03-07,20.6765
2013-03-08,21.1525
2013-03-11,21.2913
2013-03-12,21.3112
2013-03-13,21.2021
2013-03-14,22.3326
2013-03-15,22.2731
2013-03-18,21.9756
2013-03-19,20.8649
2013-03-20,20.7161
2013-03-21,20.5079
2013-03-22,20.2104
2013-03-25,20.2004
2013-03-26,20.5674
2013-03-27,20.3492
2013-03-28,20.2302
2013-04-01,20.1906
2013-04-02,19.7741
2013-04-03,19.0105
2013-04-04,19.1692
2013-04-05,19.5757
2013-04-08,19.5658
2013-04-09,19.9922
2013-04-10,20.1708
2013-04-11,20.0482
2013-04-12,19.6
2013-04-15,18.863
2013-04-16,18.9925
2013-04-17,18.3949
2013-04-18,18.8929
2013-04-19,18.5144
2013-04-22,18.5343
2013-04-23,18.8431
2013-04-24,19.2215
2013-04-25,19.1917
2013-04-26,19.1717
2013-04-29,19.2713
2013-04-30,19.4506
2013-05-01,19.102
2013-05-02,19.0522
2013-05-03,19.1817
2013-05-06,19.361
2013-05-07,19.0522
2013-05-08,19.112
2013-05-09,19.4904
2013-05-10,20.0581
2013-05-13,20.4665
2013-05-14,20.6656
2013-05-15,20.566
2013-05-16,19.8191
2013-05-17,20.1876
2013-05-20,20.7553
2013-05-21,20.7553
2013-05-22,21.0142
2013-05-23,21.562
2013-05-24,21.5719
2013-05-28,22.0848
2013-05-29,22.4982
2013-05-30,22.4384
2013-05-31,21.7711
2013-06-03,22.0699
2013-06-04,21.6317
2013-06-05,21.4524
2013-06-06,21.5719
2013-06-07,21.9106
2013-06-10,21.8209
2013-06-11,21.2433
2013-06-12,21.0043
2013-06-13,20.9047
2013-06-14,20.6158
2013-06-17,20.9644
2013-06-18,21.1636
2013-06-19,20.7254
2013-06-20,20.0083
2013-06-21,20.1278
2013-06-24,19.5004
2013-06-25,19.7095
2013-06-26,20.2971
2013-06-27,20.5063
2013-06-28,20.3171
2013-07-01,20.6955
2013-07-02,20.835
2013-07-03,20.9146
2013-07-05,20.9445
2013-07-08,20.825
2013-07-09,21.064
2013-07-10,21.3329
2013-07-11,21.33
2013-07-12,21.23
2013-07-15,21.68
2013-07-16,21.71
2013-07-17,21.75
2013-07-18,22.32
2013-07-19,22.57
2013-07-22,22.39
2013-07-23,22.34
2013-07-24,22.18
2013-07-25,22.6
2013-07-26,22.86
2013-07-29,22.75
2013-07-30,23.05
2013-07-31,23.3
2013-08-01,24.88
2013-08-02,24.94
2013-08-05,25.48
2013-08-06,25.12
2013-08-07,24.84
2013-08-08,25.0
2013-08-09,25.03
