date,close_price
1998-01-02,37.4768
1998-01-05,37.4768
1998-01-06,36.4225
1998-01-07,35.7801
1998-01-08,35.0594
1998-01-09,34.3881
1998-01-12,34.3098
1998-01-13,34.7999
1998-01-14,35.4959
1998-01-15,35.393
1998-01-16,36.2166
1998-01-20,37.5551
1998-01-21,36.4473
1998-01-22,36.3443
1998-01-23,35.7513
1998-01-26,35.8295
1998-01-27,37.2215
1998-01-28,37.5304
1998-01-29,38.3252
1998-01-30,38.9183
1998-02-02,40.3844
1998-02-03,40.2567
1998-02-04,39.6143
1998-02-05,39.5607
1998-02-06,39.8696
1998-02-09,39.7172
1998-02-10,39.8202
1998-02-11,39.3548
1998-02-12,39.2518
1998-02-13,38.9718
1998-02-17,39.0748
1998-02-18,39.2271
1998-02-19,39.1242
1998-02-20,39.0995
1998-02-23,39.8449
1998-02-24,39.9478
1998-02-25,40.5903
1998-02-26,41.0804
1998-02-27,41.4922
1998-03-02,41.1339
1998-03-03,41.3893
1998-03-04,41.1051
1998-03-05,40.7221
1998-03-06,41.6981
1998-03-09,42.0853
1998-03-10,42.4436
1998-03-11,42.878
1998-03-12,42.7745
1998-03-13,42.3856
1998-03-16,43.0559
1998-03-17,43.2379
1998-03-18,43.3952
1998-03-19,44.2227
1998-03-20,44.4006
1998-03-23,43.4448
1998-03-24,44.3758
1998-03-25,43.4697
1998-03-26,43.6517
1998-03-27,42.9814
1998-03-30,42.6959
1998-03-31,43.8089
1998-04-01,43.0849
1998-04-02,44.2206
1998-04-03,44.2578
1998-04-06,44.1027
1998-04-07,43.2896
1998-04-08,42.669
1998-04-09,43.1345
1998-04-13,44.0654
1998-04-14,43.9103
1998-04-15,43.3269
1998-04-16,42.3587
1998-04-17,43.1345
1998-04-20,42.5511
1998-04-21,42.1663
1998-04-22,43.1345
1998-04-23,42.9421
1998-04-24,41.7753
1998-04-27,40.0685
1998-04-28,39.8761
1998-04-29,40.6892
1998-04-30,41.5829
1998-05-01,42.4766
1998-05-04,42.1663
1998-05-05,41.7008
1998-05-06,40.8071
1998-05-07,40.6519
1998-05-08,40.925
1998-05-11,40.7326
1998-05-12,40.4595
1998-05-13,40.4968
1998-05-14,40.4223
1998-05-15,40.534
1998-05-18,40.8443
1998-05-19,41.4277
1998-05-20,42.1663
1998-05-21,42.9793
1998-05-22,41.9739
1998-05-26,42.2408
1998-05-27,41.2726
1998-05-28,40.9622
1998-05-29,40.8443
1998-06-01,40.925
1998-06-02,40.7698
1998-06-03,40.3416
1998-06-04,40.4223
1998-06-05,41.2353
1998-06-08,41.1981
1998-06-09,40.8878
1998-06-10,40.534
1998-06-11,39.9978
1998-06-12,39.7608
1998-06-15,39.0623
1998-06-16,38.9812
1998-06-17,40.7338
1998-06-18,40.5778
1998-06-19,40.266
1998-06-22,40.2286
1998-06-23,40.5404
1998-06-24,41.9812
1998-06-25,41.557
1998-06-26,41.2452
1998-06-29,41.1641
1998-06-30,41.2452
1998-07-01,43.0726
1998-07-02,43.1163
1998-07-06,43.5404
1998-07-07,43.1911
1998-07-08,43.9333
1998-07-09,43.9333
1998-07-10,44.476
1998-07-13,43.8959
1998-07-14,44.32
1998-07-15,44.0893
1998-07-16,43.7774
1998-07-17,44.2078
1998-07-20,44.4011
1998-07-21,42.9604
1998-07-22,43.4656
1998-07-23,43.0352
1998-07-24,42.0622
1998-07-27,43.1163
1998-07-28,42.3741
1998-07-29,42.7234
1998-07-30,42.8044
1998-07-31,42.0622
1998-08-03,41.9437
1998-08-04,39.9167
1998-08-05,40.6963
1998-08-06,40.5404
1998-08-07,40.3471
1998-08-10,39.3741
1998-08-11,36.8356
1998-08-12,37.8897
1998-08-13,37.8149
1998-08-14,36.7234
1998-08-17,37.8149
1998-08-18,39.2182
1998-08-19,39.1371
1998-08-20,38.3949
1998-08-21,37.503
1998-08-24,37.503
1998-08-25,37.1475
1998-08-26,37.1101
1998-08-27,35.1205
1998-08-28,34.9646
1998-08-31,32.6693
1998-09-01,34.6153
1998-09-02,35.5134
1998-09-03,34.8523
1998-09-04,34.6527
1998-09-08,36.449
1998-09-09,35.9812
1998-09-10,34.5779
1998-09-11,35.6819
1998-09-14,37.1687
1998-09-15,37.7207
1998-09-16,37.9905
1998-09-17,37.4447
1998-09-18,37.0495
1998-09-21,36.4222
1998-09-22,36.6229
1998-09-23,37.4071
1998-09-24,36.3845
1998-09-25,35.914
1998-09-28,35.7572
1998-09-29,35.3244
1998-09-30,34.3834
1998-10-01,33.1727
1998-10-02,33.5616
1998-10-05,33.1287
1998-10-06,32.6206
1998-10-07,32.307
1998-10-08,31.1715
1998-10-09,33.1727
1998-10-12,33.8753
1998-10-13,33.7184
1998-10-14,33.5992
1998-10-15,35.2867
1998-10-16,38.0344
1998-10-19,38.2665
1998-10-20,39.954
1998-10-21,39.3643
1998-10-22,39.3267
1998-10-23,39.2075
1998-10-26,39.1698
1998-10-27,38.072
1998-10-28,38.1912
1998-10-29,39.7595
1998-10-30,40.3868
1998-11-02,40.5813
1998-11-03,40.7758
1998-11-04,41.9551
1998-11-05,42.5009
1998-11-06,42.6577
1998-11-09,41.5223
1998-11-10,40.8134
1998-11-11,40.0293
1998-11-12,40.23
1998-11-13,41.0894
1998-11-16,41.9551
1998-11-17,42.5385
1998-11-18,42.112
1998-11-19,42.2688
1998-11-20,42.5385
1998-11-23,42.8146
1998-11-24,42.8522
1998-11-25,42.7769
1998-11-27,42.3817
1998-11-30,40.5437
1998-12-01,39.954
1998-12-02,40.9326
1998-12-03,40.7005
1998-12-04,42.8146
1998-12-07,42.3064
1998-12-08,41.8359
1998-12-09,42.3064
1998-12-10,42.6577
1998-12-11,41.4789
1998-12-14,40.8108
1998-12-15,40.8928
1998-12-16,40.5335
1998-12-17,41.2835
1998-12-18,40.9306
1998-12-21,41.2457
1998-12-22,40.5335
1998-12-23,41.9138
1998-12-24,41.9958
1998-12-28,41.7184
1998-12-29,42.2668
1998-12-30,43.1366
1998-12-31,42.9412
1999-01-04,41.5987
1999-01-05,41.9516
1999-01-06,43.1366
1999-01-07,43.4139
1999-01-08,43.4895
1999-01-11,43.1366
1999-01-12,42.0336
1999-01-13,41.0882
1999-01-14,40.8487
1999-01-15,41.876
1999-01-19,41.6365
1999-01-20,41.0503
1999-01-21,40.0608
1999-01-22,39.3927
1999-01-25,39.2729
1999-01-26,39.4746
1999-01-27,38.2897
1999-01-28,38.92
1999-01-29,39.3549
1999-02-01,38.92
1999-02-02,38.6427
1999-02-03,38.92
1999-02-04,38.3716
1999-02-05,38.4473
1999-02-08,38.4095
1999-02-09,38.0943
1999-02-10,37.817
1999-02-11,38.5292
1999-02-12,38.3275
1999-02-16,38.6427
1999-02-17,39.5503
1999-02-18,40.1806
1999-02-19,40.7352
1999-02-22,42.4244
1999-02-23,41.6806
1999-02-24,41.5231
1999-02-25,40.8928
1999-02-26,41.5231
1999-03-01,41.4411
1999-03-02,41.4789
1999-03-03,41.8382
1999-03-04,42.3865
1999-03-05,43.9244
1999-03-08,43.1744
1999-03-09,43.0546
1999-03-10,43.4139
1999-03-11,43.6426
1999-03-12,43.4399
1999-03-15,44.0355
1999-03-16,43.6426
1999-03-17,42.4134
1999-03-18,43.0851
1999-03-19,42.3311
1999-03-22,41.9382
1999-03-23,40.8675
1999-03-24,40.2338
1999-03-25,40.5126
1999-03-26,40.633
1999-03-29,40.9498
1999-03-30,39.5622
1999-03-31,39.6383
1999-04-01,39.6383
1999-04-05,39.9551
1999-04-06,39.9994
1999-04-07,40.1958
1999-04-08,40.4746
1999-04-09,40.4303
1999-04-12,40.8675
1999-04-13,41.0259
1999-04-14,41.0639
1999-04-15,40.5506
1999-04-16,40.8675
1999-04-19,41.5834
1999-04-20,41.5011
1999-04-21,41.2666
1999-04-22,41.1842
1999-04-23,40.9498
1999-04-26,40.7914
1999-04-27,41.6214
1999-04-28,41.5834
1999-04-29,41.6595
1999-04-30,41.2223
1999-05-03,41.5834
1999-05-04,40.5506
1999-05-05,40.633
1999-05-06,41.0639
1999-05-07,41.7798
1999-05-10,41.5011
1999-05-11,41.7798
1999-05-12,41.5834
1999-05-13,41.8179
1999-05-14,41.1462
1999-05-17,40.5126
1999-05-18,40.0754
1999-05-19,40.4303
1999-05-20,39.9551
1999-05-21,39.7586
1999-05-24,38.7702
1999-05-25,37.9782
1999-05-26,39.0047
1999-05-27,37.8958
1999-05-28,38.3711
1999-06-01,37.7818
1999-06-02,37.503
1999-06-03,37.9402
1999-06-04,38.0542
1999-06-07,38.4534
1999-06-08,38.257
1999-06-09,37.6994
1999-06-10,37.465
1999-06-11,37.1333
1999-06-14,36.9739
1999-06-15,37.0121
1999-06-16,37.8919
1999-06-17,38.6887
1999-06-18,38.5676
1999-06-21,38.5676
1999-06-22,38.1277
1999-06-23,37.6496
1999-06-24,36.6934
1999-06-25,36.9356
1999-06-28,36.8974
1999-06-29,37.452
1999-06-30,38.013
1999-07-01,38.4911
1999-07-02,38.4082
1999-07-06,38.6505
1999-07-07,38.8481
1999-07-08,38.1277
1999-07-09,38.2489
1999-07-12,37.5731
1999-07-13,36.8974
1999-07-14,36.9739
1999-07-15,37.809
1999-07-16,38.6059
1999-07-19,38.7652
1999-07-20,37.809
1999-07-21,37.5731
1999-07-22,37.4138
1999-07-23,36.4958
1999-07-26,37.2544
1999-07-27,37.8536
1999-07-28,37.2926
1999-07-29,36.534
1999-07-30,35.3419
1999-08-02,35.0997
1999-08-03,34.9021
1999-08-04,34.424
1999-08-05,34.0287
1999-08-06,33.8694
1999-08-09,33.5889
1999-08-10,33.1873
1999-08-11,33.0725
1999-08-12,33.9459
1999-08-13,35.5013
1999-08-16,35.3419
1999-08-17,36.1005
1999-08-18,35.9794
1999-08-19,34.8638
1999-08-20,35.5778
1999-08-23,36.6169
1999-08-24,36.3747
1999-08-25,36.177
1999-08-26,34.8256
1999-08-27,34.8256
1999-08-30,33.5506
1999-08-31,33.3084
1999-09-01,33.7865
1999-09-02,33.149
1999-09-03,34.9021
1999-09-07,33.9076
1999-09-08,33.3084
1999-09-09,33.0279
1999-09-10,33.4678
1999-09-13,33.2559
1999-09-14,32.0941
1999-09-15,31.6127
1999-09-16,31.8951
1999-09-17,31.9337
1999-09-20,31.6962
1999-09-21,31.0928
1999-09-22,31.0928
1999-09-23,30.9323
1999-09-24,31.9337
1999-09-27,32.1776
1999-09-28,32.0556
1999-09-29,32.2161
1999-09-30,32.537
1999-10-01,32.935
1999-10-04,34.0583
1999-10-05,33.5384
1999-10-06,34.9826
1999-10-07,34.9826
1999-10-08,36.1444
1999-10-11,35.3035
1999-10-12,34.5846
1999-10-13,33.7823
1999-10-14,33.6218
1999-10-15,32.614
1999-10-18,33.3394
1999-10-19,34.6231
1999-10-20,35.066
1999-10-21,35.1431
1999-10-22,35.9839
1999-10-25,35.1045
1999-10-26,34.8221
1999-10-27,36.2664
1999-10-28,39.2383
1999-10-29,37.993
1999-11-01,37.8711
1999-11-02,38.192
1999-11-03,37.6721
1999-11-04,38.314
1999-11-05,38.9173
1999-11-08,38.5964
1999-11-09,37.9096
1999-11-10,37.2677
1999-11-11,37.1907
1999-11-12,37.794
1999-11-15,38.3525
1999-11-16,38.3525
1999-11-17,37.5501
1999-11-18,36.8697
1999-11-19,36.1059
1999-11-22,34.7002
1999-11-23,34.0583
1999-11-24,34.2188
1999-11-26,34.6231
1999-11-29,33.4164
1999-11-30,33.9427
1999-12-01,34.3022
1999-12-02,34.2637
1999-12-03,34.9441
1999-12-06,32.6975
1999-12-07,31.9337
1999-12-08,30.6884
1999-12-09,31.1313
1999-12-10,31.6127
1999-12-13,31.1213
1999-12-14,30.6751
1999-12-15,29.9057
1999-12-16,29.4207
1999-12-17,29.2203
1999-12-20,29.0586
1999-12-21,29.4595
1999-12-22,29.1362
1999-12-23,29.9897
1999-12-27,29.9897
1999-12-28,29.5436
1999-12-29,30.4294
1999-12-30,30.229
1999-12-31,30.1902
2000-01-03,29.0198
2000-01-04,27.8042
2000-01-05,27.7654
2000-01-06,28.5737
2000-01-07,28.5349
2000-01-10,27.6425
2000-01-11,26.8731
2000-01-12,27.358
2000-01-13,27.6813
2000-01-14,28.4896
2000-01-18,27.843
2000-01-19,27.927
2000-01-20,26.7567
2000-01-21,26.3105
2000-01-24,26.1101
2000-01-25,26.0648
2000-01-26,27.2416
2000-01-27,27.6813
2000-01-28,27.5197
2000-01-31,28.5737
2000-02-01,28.4896
2000-02-02,28.2892
2000-02-03,28.4896
2000-02-04,28.0046
2000-02-07,27.4421
2000-02-08,27.6813
2000-02-09,27.08
2000-02-10,26.1101
2000-02-11,26.0648
2000-02-14,25.7868
2000-02-15,26.3105
2000-02-16,26.2265
2000-02-17,25.6639
2000-02-18,24.5711
2000-02-22,23.9633
2000-02-23,23.9633
2000-02-24,23.7241
2000-02-25,22.793
2000-02-28,24.1702
2000-02-29,23.7629
2000-03-01,23.4008
2000-03-02,23.1163
2000-03-03,23.6853
2000-03-06,23.4008
2000-03-07,22.4309
2000-03-08,21.8231
2000-03-09,22.0688
2000-03-10,22.0235
2000-03-13,22.2459
2000-03-14,22.4488
2000-03-15,24.1696
2000-03-16,27.0746
2000-03-17,27.1139
2000-03-20,25.9296
2000-03-21,27.5653
2000-03-22,28.1346
2000-03-23,28.8739
2000-03-24,28.4225
2000-03-27,27.5195
2000-03-28,27.7682
2000-03-29,27.2775
2000-03-30,26.7867
2000-03-31,27.441
2000-04-03,28.7496
2000-04-04,28.3374
2000-04-05,28.2196
2000-04-06,28.0103
2000-04-07,27.7682
2000-04-10,28.1346
2000-04-11,28.501
2000-04-12,29.646
2000-04-13,28.9917
2000-04-14,26.7867
2000-04-17,27.441
2000-04-18,28.1346
2000-04-19,27.441
2000-04-20,27.6439
2000-04-24,28.6646
2000-04-25,29.8554
2000-04-26,29.2796
2000-04-27,28.1346
2000-04-28,27.6831
2000-05-01,28.2982
2000-05-02,27.8925
2000-05-03,27.1924
2000-05-04,26.6232
2000-05-05,26.4596
2000-05-08,27.5195
2000-05-09,27.5653
2000-05-10,27.4803
2000-05-11,28.3374
2000-05-12,29.2403
2000-05-15,29.6067
2000-05-16,29.3188
2000-05-17,29.1553
2000-05-18,29.8946
2000-05-19,28.8739
2000-05-22,29.9339
2000-05-23,30.3461
2000-05-24,31.9818
2000-05-25,31.7724
2000-05-26,32.309
2000-05-30,33.1268
2000-05-31,33.0418
2000-06-01,34.1868
2000-06-02,35.3318
2000-06-05,33.7353
2000-06-06,33.1661
2000-06-07,33.3297
2000-06-08,32.6754
2000-06-09,32.309
2000-06-12,33.0418
2000-06-13,32.771
2000-06-14,33.0151
2000-06-15,31.0827
2000-06-16,29.5526
2000-06-19,30.377
2000-06-20,30.377
2000-06-21,29.8428
2000-06-22,30.0934
2000-06-23,30.377
2000-06-26,30.7529
2000-06-27,30.9574
2000-06-28,31.2476
2000-06-29,30.6672
2000-06-30,29.7637
2000-07-03,30.6276
2000-07-05,30.997
2000-07-06,31.6169
2000-07-07,32.6062
2000-07-10,32.8963
2000-07-11,32.771
2000-07-12,32.4413
2000-07-13,31.8213
2000-07-14,32.8502
2000-07-17,32.771
2000-07-18,32.7315
2000-07-19,33.4701
2000-07-20,34.1296
2000-07-21,33.9648
2000-07-24,34.0901
2000-07-25,34.8287
2000-07-26,34.2945
2000-07-27,34.0505
2000-07-28,33.7207
2000-07-31,33.7207
2000-08-01,33.8394
2000-08-02,33.9648
2000-08-03,35.1189
2000-08-04,36.6028
2000-08-07,36.7281
2000-08-08,36.6424
2000-08-09,37.0183
2000-08-10,37.2227
2000-08-11,37.1832
2000-08-14,37.0579
2000-08-15,36.7677
2000-08-16,36.273
2000-08-17,36.5237
2000-08-18,35.9433
2000-08-21,36.2335
2000-08-22,36.6885
2000-08-23,37.0974
2000-08-24,36.7677
2000-08-25,36.4379
2000-08-28,36.273
2000-08-29,35.9829
2000-08-30,36.5237
2000-08-31,37.1832
2000-09-01,36.8072
2000-09-05,37.0974
2000-09-06,37.5129
2000-09-07,37.6316
2000-09-08,38.2516
2000-09-11,38.456
2000-09-12,38.3373
2000-09-13,38.145
2000-09-14,38.0188
2000-09-15,37.3548
2000-09-18,36.1129
2000-09-19,36.8567
2000-09-20,36.777
2000-09-21,36.1129
2000-09-22,35.9469
2000-09-25,37.6071
2000-09-26,37.5208
2000-09-27,37.7267
2000-09-28,38.7228
2000-09-29,38.8091
2000-10-02,39.6791
2000-10-03,39.7189
2000-10-04,39.8451
2000-10-05,39.181
2000-10-06,37.813
2000-10-09,37.647
2000-10-10,35.6149
2000-10-11,35.2363
2000-10-12,33.9547
2000-10-13,35.6945
2000-10-16,36.2789
2000-10-17,35.6149
2000-10-18,35.6149
2000-10-19,36.8169
2000-10-20,36.8965
2000-10-23,36.3985
2000-10-24,37.0626
2000-10-25,37.6868
2000-10-26,37.3149
2000-10-27,38.4372
2000-10-30,40.0509
2000-10-31,40.0509
2000-11-01,36.5247
2000-11-02,36.1926
2000-11-03,35.9004
2000-11-06,36.1129
2000-11-07,35.8207
2000-11-08,35.2828
2000-11-09,35.3227
2000-11-10,34.9508
2000-11-13,34.2004
2000-11-14,34.1207
2000-11-15,33.4964
2000-11-16,33.5761
2000-11-17,32.6265
2000-11-20,32.2081
2000-11-21,32.8323
2000-11-22,31.8362
2000-11-24,31.7499
2000-11-27,32.0819
2000-11-28,33.0382
2000-11-29,34.1605
2000-11-30,34.5324
2000-12-01,33.6226
2000-12-04,32.8722
2000-12-05,33.9547
2000-12-06,34.8644
2000-12-07,35.8207
2000-12-08,36.611
2000-12-11,37.3548
2000-12-12,36.6508
2000-12-13,35.9552
2000-12-14,35.3732
2000-12-15,35.1591
2000-12-18,36.7512
2000-12-19,36.497
2000-12-20,36.1224
2000-12-21,38.2162
2000-12-22,39.0925
2000-12-26,39.4269
2000-12-27,39.9286
2000-12-28,40.0959
2000-12-29,39.7213
2001-01-02,39.2998
2001-01-03,40.5976
2001-01-04,41.7682
2001-01-05,40.6778
2001-01-08,40.223
2001-01-09,39.7614
2001-01-10,39.8885
2001-01-11,39.6343
2001-01-12,38.5506
2001-01-16,39.0523
2001-01-17,38.5506
2001-01-18,37.8817
2001-01-19,37.4201
2001-01-22,38.2964
2001-01-23,39.0055
2001-01-24,39.7614
2001-01-25,40.0959
2001-01-26,40.7648
2001-01-29,40.6243
2001-01-30,40.7715
2001-01-31,40.2631
2001-02-01,39.7346
2001-02-02,39.9955
2001-02-05,40.2965
2001-02-06,39.6008
2001-02-07,39.0925
2001-02-08,38.9587
2001-02-09,39.9754
2001-02-12,40.7915
2001-02-13,40.6979
2001-02-14,41.2999
2001-02-15,41.2397
2001-02-16,42.8251
2001-02-20,42.2431
2001-02-21,42.1428
2001-02-22,42.1027
2001-02-23,42.0692
2001-02-26,43.0258
2001-02-27,43.1596
2001-02-28,42.5107
2001-03-01,42.8452
2001-03-02,42.9656
2001-03-05,42.6779
2001-03-06,42.4906
2001-03-07,42.7983
2001-03-08,43.3268
2001-03-09,42.3702
2001-03-12,40.3835
2001-03-13,41.61
2001-03-14,40.2757
2001-03-15,41.4415
2001-03-16,40.9294
2001-03-19,41.2057
2001-03-20,39.7838
2001-03-21,38.3485
2001-03-22,37.2637
2001-03-23,38.8135
2001-03-26,39.6154
2001-03-27,40.5588
2001-03-28,40.7272
2001-03-29,40.4644
2001-03-30,41.0978
2001-04-02,41.1787
2001-04-03,40.424
2001-04-04,39.3189
2001-04-05,40.4105
2001-04-06,39.7906
2001-04-09,40.0264
2001-04-10,40.7137
2001-04-11,40.397
2001-04-12,40.4105
2001-04-16,40.2016
2001-04-17,36.8526
2001-04-18,36.7246
2001-04-19,35.0332
2001-04-20,35.1815
2001-04-23,34.9591
2001-04-24,35.0737
2001-04-25,35.1545
2001-04-26,34.8378
2001-04-27,35.7879
2001-04-30,34.6626
2001-05-01,35.2556
2001-05-02,34.7704
2001-05-03,34.6424
2001-05-04,35.478
2001-05-07,35.734
2001-05-08,36.1922
2001-05-09,36.1653
2001-05-10,36.0642
2001-05-11,36.0507
2001-05-14,36.3068
2001-05-15,36.4079
2001-05-16,37.8836
2001-05-17,37.9038
2001-05-18,37.769
2001-05-21,37.7893
2001-05-22,38.517
2001-05-23,38.1194
2001-05-24,38.2407
2001-05-25,37.8701
2001-05-29,37.7488
2001-05-30,37.7421
2001-05-31,38.3418
2001-06-01,38.1531
2001-06-04,38.4025
2001-06-05,39.2852
2001-06-06,39.0157
2001-06-07,38.7798
2001-06-08,38.3351
2001-06-11,38.207
2001-06-12,38.3822
2001-06-13,38.2459
2001-06-14,38.0015
2001-06-15,37.5397
2001-06-18,37.6212
2001-06-19,37.8656
2001-06-20,38.2459
2001-06-21,39.3189
2001-06-22,39.0472
2001-06-25,38.959
2001-06-26,38.5787
2001-06-27,39.2374
2001-06-28,39.3528
2001-06-29,38.9793
2001-07-02,39.1763
2001-07-03,39.0608
2001-07-05,38.8979
2001-07-06,38.0762
2001-07-09,37.9336
2001-07-10,37.336
2001-07-11,37.336
2001-07-12,38.7349
2001-07-13,39.0133
2001-07-16,38.2663
2001-07-17,40.5073
2001-07-18,41.1252
2001-07-19,41.4105
2001-07-20,40.745
2001-07-23,40.4937
2001-07-24,39.9844
2001-07-25,40.6567
2001-07-26,40.8536
2001-07-27,41.2678
2001-07-30,40.9147
2001-07-31,41.8179
2001-08-01,41.7772
2001-08-02,41.9877
2001-08-03,41.7228
2001-08-06,41.8043
2001-08-07,42.3883
2001-08-08,42.3748
2001-08-09,42.334
2001-08-10,42.4155
2001-08-13,42.6871
2001-08-14,42.5921
2001-08-15,42.4427
2001-08-16,42.5513
2001-08-17,42.5377
2001-08-20,42.5377
2001-08-21,42.5106
2001-08-22,42.7754
2001-08-23,42.7822
2001-08-24,42.205
2001-08-27,41.4376
2001-08-28,41.2203
2001-08-29,40.093
2001-08-30,40.3103
2001-08-31,40.5073
2001-09-04,40.3171
2001-09-05,39.5226
2001-09-06,38.9929
2001-09-07,38.1712
2001-09-10,38.2663
2001-09-17,37.2328
2001-09-18,37.5818
2001-09-19,37.5339
2001-09-20,36.2198
2001-09-21,34.8441
2001-09-24,35.8913
2001-09-25,37.1575
2001-09-26,36.4457
2001-09-27,37.2396
2001-09-28,37.5887
2001-10-01,37.5408
2001-10-02,37.1233
2001-10-03,36.9864
2001-10-04,36.781
2001-10-05,34.7346
2001-10-08,33.4
2001-10-09,33.5711
2001-10-10,35.1384
2001-10-11,34.8441
2001-10-12,34.2555
2001-10-15,33.8654
2001-10-16,33.5437
2001-10-17,32.3733
2001-10-18,31.4631
2001-10-19,30.7718
2001-10-22,30.5733
2001-10-23,31.4973
2001-10-24,32.6471
2001-10-25,32.8524
2001-10-26,32.9004
2001-10-29,32.4692
2001-10-30,31.7916
2001-10-31,31.5452
2001-11-01,32.2296
2001-11-02,32.0654
2001-11-05,32.784
2001-11-06,33.5779
2001-11-07,33.6464
2001-11-08,34.3582
2001-11-09,34.1118
2001-11-12,34.0707
2001-11-13,34.8031
2001-11-14,34.1392
2001-11-15,34.0297
2001-11-16,33.8791
2001-11-19,34.324
2001-11-20,34.3992
2001-11-21,34.1734
2001-11-23,35.0015
2001-11-26,35.1384
2001-11-27,35.0494
2001-11-28,34.5635
2001-11-29,35.0905
2001-11-30,35.1453
2001-12-03,34.6114
2001-12-04,35.1932
2001-12-05,36.3978
2001-12-06,37.1369
2001-12-07,36.9727
2001-12-10,36.7947
2001-12-11,36.6579
2001-12-12,36.8649
2001-12-13,36.4301
2001-12-14,36.9132
2001-12-17,36.927
2001-12-18,37.2996
2001-12-19,38.0173
2001-12-20,38.9904
2001-12-21,39.0387
2001-12-24,38.9214
2001-12-26,39.3354
2001-12-27,39.2871
2001-12-28,40.1566
2001-12-31,39.5217
2002-01-02,39.3009
2002-01-03,39.3354
2002-01-04,40.0117
2002-01-07,40.1359
2002-01-08,39.7633
2002-01-09,39.4734
2002-01-10,39.4734
2002-01-11,39.225
2002-01-14,38.6384
2002-01-15,39.1836
2002-01-16,38.1623
2002-01-17,38.8454
2002-01-18,38.8869
2002-01-22,38.735
2002-01-23,39.2043
2002-01-24,39.3768
2002-01-25,39.3837
2002-01-28,39.363
2002-01-29,37.2651
2002-01-30,38.2865
2002-01-31,38.8109
2002-02-01,38.459
2002-02-04,37.41
2002-02-05,37.1133
2002-02-06,36.7476
2002-02-07,37.5412
2002-02-08,37.9966
2002-02-11,38.5901
2002-02-12,38.5073
2002-02-13,38.9559
2002-02-14,39.2181
2002-02-15,39.0939
2002-02-19,38.3348
2002-02-20,38.9214
2002-02-21,38.5418
2002-02-22,38.9697
2002-02-25,39.9703
2002-02-26,40.6121
2002-02-27,40.9157
2002-02-28,41.3022
2002-03-01,41.6817
2002-03-04,42.9446
2002-03-05,42.6893
2002-03-06,43.6416
2002-03-07,43.2276
2002-03-08,43.4139
2002-03-11,43.4829
2002-03-12,43.5243
2002-03-13,43.1836
2002-03-14,43.2531
2002-03-15,44.6647
2002-03-18,44.3101
2002-03-19,44.8177
2002-03-20,44.1432
2002-03-21,44.025
2002-03-22,43.9207
2002-03-25,43.3157
2002-03-26,43.4826
2002-03-27,44.0598
2002-03-28,43.5104
2002-04-01,43.2392
2002-04-02,43.6842
2002-04-03,42.7524
2002-04-04,42.968
2002-04-05,43.2183
2002-04-08,43.7677
2002-04-09,43.7538
2002-04-10,43.8372
2002-04-11,43.1349
2002-04-12,43.4617
2002-04-15,43.121
2002-04-16,43.8233
2002-04-17,43.9485
2002-04-18,43.9833
2002-04-19,44.331
2002-04-22,43.879
2002-04-23,43.9554
2002-04-24,43.8094
2002-04-25,44.0667
2002-04-26,43.6425
2002-04-29,43.5313
2002-04-30,43.6356
2002-05-01,44.1084
2002-05-02,44.5465
2002-05-03,44.2614
2002-05-06,43.3435
2002-05-07,43.5243
2002-05-08,44.2267
2002-05-09,44.025
2002-05-10,43.879
2002-05-13,44.331
2002-05-14,44.8803
2002-05-15,44.9707
2002-05-16,45.0889
2002-05-17,45.1515
2002-05-20,44.8525
2002-05-21,44.9012
2002-05-22,44.9916
2002-05-23,45.4366
2002-05-24,45.228
2002-05-28,44.6787
2002-05-29,44.6439
2002-05-30,44.4283
2002-05-31,44.5743
2002-06-03,44.2823
2002-06-04,43.7329
2002-06-05,44.2127
2002-06-06,43.1697
2002-06-07,43.5243
2002-06-10,43.9833
2002-06-11,43.4756
2002-06-12,43.6232
2002-06-13,42.7122
2002-06-14,43.0485
2002-06-17,44.2118
2002-06-18,44.366
2002-06-19,44.1698
2002-06-20,44.0296
2002-06-21,43.6792
2002-06-24,43.7073
2002-06-25,43.5461
2002-06-26,42.7472
2002-06-27,42.8733
2002-06-28,43.0625
2002-07-01,42.9294
2002-07-02,42.7682
2002-07-03,42.3478
2002-07-05,43.5881
2002-07-08,44.0366
2002-07-09,43.504
2002-07-10,42.0885
2002-07-11,42.1936
2002-07-12,41.1915
2002-07-15,40.764
2002-07-16,40.0843
2002-07-17,40.1964
2002-07-18,37.8908
2002-07-19,37.2181
2002-07-22,36.3001
2002-07-23,35.0737
2002-07-24,37.3793
2002-07-25,37.2812
2002-07-26,38.2202
2002-07-29,40.4487
2002-07-30,40.2104
2002-07-31,40.75
2002-08-01,40.2104
2002-08-02,39.6848
2002-08-05,38.2552
2002-08-06,39.1943
2002-08-07,39.2363
2002-08-08,41.5629
2002-08-09,41.6119
2002-08-12,40.8621
2002-08-13,40.1613
2002-08-14,40.3576
2002-08-15,40.6589
2002-08-16,40.743
2002-08-19,41.2826
2002-08-20,40.5047
2002-08-21,40.715
2002-08-22,41.4718
2002-08-23,40.708
2002-08-26,41.2616
2002-08-27,41.2125
2002-08-28,40.75
2002-08-29,40.8131
2002-08-30,40.9953
2002-09-03,39.7899
2002-09-04,40.0282
2002-09-05,39.9791
2002-09-06,40.5748
2002-09-09,40.792
2002-09-10,39.7619
2002-09-11,39.4583
2002-09-12,37.9953
2002-09-13,37.8822
2002-09-16,38.0659
2002-09-17,38.5253
2002-09-18,38.073
2002-09-19,36.1365
2002-09-20,35.9033
2002-09-23,35.3167
2002-09-24,33.5144
2002-09-25,34.4615
2002-09-26,35.875
2002-09-27,34.5039
2002-09-30,33.9455
2002-10-01,35.458
2002-10-02,28.1925
2002-10-03,26.5599
2002-10-04,26.1995
2002-10-07,24.9839
2002-10-08,26.4398
2002-10-09,25.1464
2002-10-10,27.3374
2002-10-11,28.1077
2002-10-14,28.9488
2002-10-15,29.8252
2002-10-16,28.1148
2002-10-17,29.281
2002-10-18,29.5354
2002-10-21,29.705
2002-10-22,29.6838
2002-10-23,29.8746
2002-10-24,29.5849
2002-10-25,30.1573
2002-10-28,30.3552
2002-10-29,30.023
2002-10-30,30.3835
2002-10-31,30.85
2002-11-01,31.6557
2002-11-04,31.6627
2002-11-05,31.2104
2002-11-06,30.8075
2002-11-07,29.8958
2002-11-08,29.8676
2002-11-11,30.1573
2002-11-12,30.9418
2002-11-13,31.0973
2002-11-14,32.0161
2002-11-15,31.9596
2002-11-18,31.5002
2002-11-19,31.8253
2002-11-20,32.6451
2002-11-21,33.4791
2002-11-22,33.6275
2002-11-25,34.0869
2002-11-26,33.4367
2002-11-27,33.9243
2002-11-29,33.4508
2002-12-02,33.4437
2002-12-03,32.4402
2002-12-04,31.9808
2002-12-05,31.8041
2002-12-06,31.8606
2002-12-09,30.8994
2002-12-10,31.1468
2002-12-11,31.0972
2002-12-12,30.74
2002-12-13,30.2898
2002-12-16,31.2687
2002-12-17,30.9829
2002-12-18,30.5399
2002-12-19,30.9258
2002-12-20,31.4903
2002-12-23,31.5117
2002-12-24,31.2616
2002-12-26,31.3974
2002-12-27,30.69
2002-12-30,30.8614
2002-12-31,30.8614
2003-01-02,32.0405
2003-01-03,31.969
2003-01-06,33.2195
2003-01-07,32.9622
2003-01-08,32.6478
2003-01-09,33.2623
2003-01-10,32.998
2003-01-13,32.8979
2003-01-14,33.2981
2003-01-15,32.462
2003-01-16,31.183
2003-01-17,30.8186
2003-01-21,30.547
2003-01-22,29.7682
2003-01-23,30.0754
2003-01-24,29.1537
2003-01-27,28.9393
2003-01-28,28.925
2003-01-29,29.2894
2003-01-30,28.482
2003-01-31,28.9322
2003-02-03,28.875
2003-02-04,28.7678
2003-02-05,28.6249
2003-02-06,28.6035
2003-02-07,28.5892
2003-02-10,29.1965
2003-02-11,28.925
2003-02-12,28.5392
2003-02-13,28.5677
2003-02-14,29.1537
2003-02-18,29.4967
2003-02-19,29.318
2003-02-20,29.0608
2003-02-21,29.4109
2003-02-24,28.8679
2003-02-25,28.7964
2003-02-26,28.5177
2003-02-27,28.8679
2003-02-28,29.2894
2003-03-03,29.2251
2003-03-04,28.7035
2003-03-05,28.9179
2003-03-06,28.6463
2003-03-07,28.6535
2003-03-10,27.6388
2003-03-11,27.3959
2003-03-12,27.2798
2003-03-13,27.7865
2003-03-14,27.258
2003-03-17,28.0327
2003-03-18,27.5766
2003-03-19,27.4825
2003-03-20,28.0399
2003-03-21,28.9522
2003-03-24,28.1196
2003-03-25,28.2861
2003-03-26,28.0544
2003-03-27,27.8083
2003-03-28,27.6707
2003-03-31,27.3666
2003-04-01,27.8734
2003-04-02,28.3657
2003-04-03,28.2065
2003-04-04,28.3875
2003-04-07,28.192
2003-04-08,28.1196
2003-04-09,27.3666
2003-04-10,28.0617
2003-04-11,28.4599
2003-04-14,29.2635
2003-04-15,30.0454
2003-04-16,29.0028
2003-04-17,29.22
2003-04-21,29.2635
2003-04-22,30.3929
2003-04-23,30.5449
2003-04-24,30.2553
2003-04-25,30.0816
2003-04-28,30.6608
2003-04-29,31.1748
2003-04-30,31.4499
2003-05-01,31.7178
2003-05-02,32.0074
2003-05-05,31.7685
2003-05-06,32.0001
2003-05-07,31.8915
2003-05-08,31.5078
2003-05-09,31.6961
2003-05-12,32.4273
2003-05-13,32.8544
2003-05-14,32.8182
2003-05-15,32.5648
2003-05-16,32.4345
2003-05-19,31.6816
2003-05-20,31.6526
2003-05-21,31.725
2003-05-22,32.0653
2003-05-23,32.4345
2003-05-27,32.9775
2003-05-28,33.2671
2003-05-29,32.782
2003-05-30,33.5712
2003-06-02,34.0852
2003-06-03,35.0192
2003-06-04,36.3296
2003-06-05,37.3142
2003-06-06,37.5024
2003-06-09,36.1703
2003-06-10,36.3368
2003-06-11,36.1613
2003-06-12,35.8615
2003-06-13,35.0863
2003-06-16,35.686
2003-06-17,35.2107
2003-06-18,34.8816
2003-06-19,34.6256
2003-06-20,34.4209
2003-06-23,33.8066
2003-06-24,34.143
2003-06-25,34.5525
2003-06-26,34.611
2003-06-27,34.4209
2003-06-30,34.1576
2003-07-01,34.5159
2003-07-02,34.8085
2003-07-03,34.4721
2003-07-07,34.8962
2003-07-08,35.1229
2003-07-09,35.0937
2003-07-10,34.8816
2003-07-11,34.9328
2003-07-14,35.8907
2003-07-15,35.2692
2003-07-16,33.9382
2003-07-17,33.4044
2003-07-18,33.3825
2003-07-21,33.2728
2003-07-22,33.653
2003-07-23,34.1576
2003-07-24,34.1284
2003-07-25,35.1229
2003-07-28,34.984
2003-07-29,35.1375
2003-07-30,35.0937
2003-07-31,35.4227
2003-08-01,35.101
2003-08-04,35.1887
2003-08-05,34.377
2003-08-06,34.3185
2003-08-07,34.2746
2003-08-08,34.4209
2003-08-11,34.2673
2003-08-12,34.494
2003-08-13,34.1796
2003-08-14,34.2673
2003-08-15,34.3404
2003-08-18,34.6549
2003-08-19,34.9181
2003-08-20,35.2253
2003-08-21,35.3423
2003-08-22,34.9547
2003-08-25,35.1083
2003-08-26,35.1156
2003-08-27,35.4154
2003-08-28,35.7445
2003-08-29,36.0443
2003-09-02,36.1832
2003-09-03,35.7957
2003-09-04,35.6787
2003-09-05,35.6055
2003-09-08,35.8103
2003-09-09,35.5178
2003-09-10,34.7426
2003-09-11,34.8317
2003-09-12,34.6543
2003-09-15,34.9278
2003-09-16,34.9647
2003-09-17,35.0017
2003-09-18,35.7703
2003-09-19,36.1103
2003-09-22,35.5929
2003-09-23,35.6595
2003-09-24,34.9795
2003-09-25,34.8539
2003-09-26,34.95
2003-09-29,34.743
2003-09-30,34.4844
2003-10-01,34.7726
2003-10-02,34.6469
2003-10-03,35.0682
2003-10-06,35.5338
2003-10-07,35.5929
2003-10-08,35.3934
2003-10-09,35.5855
2003-10-10,35.1938
2003-10-13,35.519
2003-10-14,35.5338
2003-10-15,34.6765
2003-10-16,34.95
2003-10-17,34.9943
2003-10-20,35.0239
2003-10-21,34.8169
2003-10-22,34.95
2003-10-23,34.8243
2003-10-24,34.6543
2003-10-27,37.0932
2003-10-28,37.2928
2003-10-29,37.5514
2003-10-30,37.7436
2003-10-31,38.0244
2003-11-03,38.4605
2003-11-04,38.3496
2003-11-05,38.2905
2003-11-06,38.2831
2003-11-07,39.0295
2003-11-10,38.66
2003-11-11,38.5048
2003-11-12,38.9335
2003-11-13,39.34
2003-11-14,38.6822
2003-11-17,38.357
2003-11-18,37.7805
2003-11-19,37.8027
2003-11-20,37.4627
2003-11-21,37.581
2003-11-24,37.9875
2003-11-25,38.4161
2003-11-26,38.6231
2003-11-28,38.5418
2003-12-01,39.5764
2003-12-02,39.8869
2003-12-03,39.6873
2003-12-04,39.7243
2003-12-05,39.5025
2003-12-08,40.116
2003-12-09,39.9312
2003-12-10,39.6799
2003-12-11,40.045
2003-12-12,39.9704
2003-12-15,39.3885
2003-12-16,39.5601
2003-12-17,39.5601
2003-12-18,39.9555
2003-12-19,40.2464
2003-12-22,40.045
2003-12-23,40.6791
2003-12-24,40.6567
2003-12-26,40.694
2003-12-29,41.5594
2003-12-30,41.9622
2003-12-31,41.7981
2004-01-02,41.4773
2004-01-05,41.1715
2004-01-06,41.1491
2004-01-07,40.8283
2004-01-08,40.9551
2004-01-09,40.6194
2004-01-12,41.1193
2004-01-13,40.3658
2004-01-14,39.8362
2004-01-15,41.9622
2004-01-16,42.2979
2004-01-20,42.1562
2004-01-21,42.9544
2004-01-22,43.2155
2004-01-23,43.0439
2004-01-26,43.4617
2004-01-27,43.2304
2004-01-28,42.6859
2004-01-29,42.5963
2004-01-30,42.5963
2004-02-02,42.8052
2004-02-03,42.7604
2004-02-04,42.3725
2004-02-05,41.9548
2004-02-06,42.4471
2004-02-09,42.1562
2004-02-10,42.283
2004-02-11,43.2453
2004-02-12,43.029
2004-02-13,42.9842
2004-02-17,42.9469
2004-02-18,42.6859
2004-02-19,42.8052
2004-02-20,42.3576
2004-02-23,42.3725
2004-02-24,42.1487
2004-02-25,42.3203
2004-02-26,42.1264
2004-02-27,42.9246
2004-03-01,42.7977
2004-03-02,42.656
2004-03-03,42.8574
2004-03-04,42.8649
2004-03-05,43.2677
2004-03-08,43.1484
2004-03-09,42.8574
2004-03-10,41.5445
2004-03-11,40.2869
2004-03-12,41.1378
2004-03-15,40.6634
2004-03-16,41.0098
2004-03-17,41.0248
2004-03-18,40.9646
2004-03-19,40.2567
2004-03-22,40.0308
2004-03-23,40.0233
2004-03-24,39.5188
2004-03-25,40.0158
2004-03-26,39.9781
2004-03-29,40.8516
2004-03-30,40.8968
2004-03-31,40.8667
2004-04-01,41.1754
2004-04-02,40.6031
2004-04-05,40.6709
2004-04-06,40.5881
2004-04-07,40.3998
2004-04-08,40.0082
2004-04-12,39.6468
2004-04-13,38.9766
2004-04-14,38.6151
2004-04-15,38.4118
2004-04-16,39.5263
2004-04-19,39.2402
2004-04-20,38.826
2004-04-21,38.8185
2004-04-22,39.6242
2004-04-23,39.5941
2004-04-26,39.4736
2004-04-27,39.5564
2004-04-28,38.7808
2004-04-29,38.9766
2004-04-30,38.8712
2004-05-03,39.1649
2004-05-04,39.5263
2004-05-05,40.2944
2004-05-06,39.9706
2004-05-07,38.9992
2004-05-10,38.4947
2004-05-11,38.713
2004-05-12,38.5624
2004-05-13,39.692
2004-05-14,39.6844
2004-05-17,39.6769
2004-05-18,40.5805
2004-05-19,40.4977
2004-05-20,41.0022
2004-05-21,41.1905
2004-05-24,41.2507
2004-05-25,41.8983
2004-05-26,42.6438
2004-05-27,42.4255
2004-05-28,42.6438
2004-06-01,42.1468
2004-06-02,42.0941
2004-06-03,41.8456
2004-06-04,41.9435
2004-06-07,42.5911
2004-06-08,42.6815
2004-06-09,42.1995
2004-06-10,42.5309
2004-06-14,41.9381
2004-06-15,41.9837
2004-06-16,41.6721
2004-06-17,41.4213
2004-06-18,41.2541
2004-06-21,41.5201
2004-06-22,41.5581
2004-06-23,41.9153
2004-06-24,41.8697
2004-06-25,41.5581
2004-06-28,41.4593
2004-06-29,41.1173
2004-06-30,41.7101
2004-07-01,41.1857
2004-07-02,41.3529
2004-07-06,40.9349
2004-07-07,41.1781
2004-07-08,40.5929
2004-07-09,40.3953
2004-07-12,41.2389
2004-07-13,41.9077
2004-07-14,42.0977
2004-07-15,42.3409
2004-07-16,42.7513
2004-07-19,43.8154
2004-07-20,44.2866
2004-07-21,44.1726
2004-07-22,44.2182
2004-07-23,43.899
2004-07-26,44.0966
2004-07-27,44.2334
2004-07-28,44.127
2004-07-29,44.4766
2004-07-30,44.4462
2004-08-02,44.659
2004-08-03,44.2714
2004-08-04,44.5602
2004-08-05,44.2942
2004-08-06,43.0553
2004-08-09,43.1313
2004-08-10,44.0966
2004-08-11,44.3702
2004-08-12,44.9098
2004-08-13,45.153
2004-08-16,45.2138
2004-08-17,45.1834
2004-08-18,45.4874
2004-08-19,44.8794
2004-08-20,45.0618
2004-08-23,45.2062
2004-08-24,45.2974
2004-08-25,45.5862
2004-08-26,45.5862
2004-08-27,45.495
2004-08-30,45.3886
2004-08-31,45.7002
2004-09-01,45.6546
2004-09-02,46.293
2004-09-03,46.0954
2004-09-07,46.5971
2004-09-08,46.2474
2004-09-09,45.8978
2004-09-10,45.8902
2004-09-13,46.0588
2004-09-14,46.4727
2004-09-15,46.787
2004-09-16,46.764
2004-09-17,46.4651
2004-09-20,45.9744
2004-09-21,45.8594
2004-09-22,45.3841
2004-09-23,45.0545
2004-09-24,45.3228
2004-09-27,45.0008
2004-09-28,45.2385
2004-09-29,45.1311
2004-09-30,45.4991
2004-10-01,46.1047
2004-10-04,46.7334
2004-10-05,46.3807
2004-10-06,46.833
2004-10-07,47.454
2004-10-08,47.4003
2004-10-11,47.753
2004-10-12,47.96
2004-10-13,47.4923
2004-10-14,47.3237
2004-10-15,47.7453
2004-10-18,48.2896
2004-10-19,46.5034
2004-10-20,45.2921
2004-10-21,45.7828
2004-10-22,45.5681
2004-10-25,45.5221
2004-10-26,46.3501
2004-10-27,47.1704
2004-10-28,47.3697
2004-10-29,47.1704
2004-11-01,46.9327
2004-11-02,46.0051
2004-11-03,46.6107
2004-11-04,47.6457
2004-11-05,47.6917
2004-11-08,48.006
2004-11-09,48.098
2004-11-10,47.8756
2004-11-11,47.8067
2004-11-12,48.6193
2004-11-15,48.5733
2004-11-16,48.2513
2004-11-17,48.397
2004-11-18,48.1286
2004-11-19,47.316
2004-11-22,47.822
2004-11-23,47.9906
2004-11-24,47.937
2004-11-26,47.822
2004-11-29,47.4617
2004-11-30,47.2087
2004-12-01,47.8143
2004-12-02,48.1746
2004-12-03,47.6917
2004-12-06,47.5077
2004-12-07,46.1737
2004-12-08,46.1277
2004-12-09,45.8134
2004-12-10,45.7904
2004-12-13,46.4092
2004-12-14,46.6798
2004-12-15,46.6876
2004-12-16,46.2622
2004-12-17,46.0148
2004-12-20,46.0534
2004-12-21,47.3836
2004-12-22,47.6233
2004-12-23,47.8476
2004-12-27,47.7471
2004-12-28,47.9791
2004-12-29,47.778
2004-12-30,47.6388
2004-12-31,47.2289
2005-01-03,46.6489
2005-01-04,46.4014
2005-01-05,45.9916
2005-01-06,45.9684
2005-01-07,45.8446
2005-01-10,46.0998
2005-01-11,46.1076
2005-01-12,45.7441
2005-01-13,45.1795
2005-01-14,45.3883
2005-01-18,46.0689
2005-01-19,45.6977
2005-01-20,45.7828
2005-01-21,45.0249
2005-01-24,44.9089
2005-01-25,43.9112
2005-01-26,44.267
2005-01-27,44.0582
2005-01-28,44.0814
2005-01-31,44.7465
2005-02-01,44.4603
2005-02-02,44.7078
2005-02-03,44.9398
2005-02-04,45.4657
2005-02-07,45.5894
2005-02-08,45.6203
2005-02-09,45.2569
2005-02-10,45.0635
2005-02-11,45.1563
2005-02-14,45.311
2005-02-15,45.5585
2005-02-16,45.3883
2005-02-17,45.3729
2005-02-18,44.7929
2005-02-22,43.9112
2005-02-23,44.2747
2005-02-24,44.0659
2005-02-25,44.615
2005-02-28,44.1123
2005-03-01,44.4139
2005-03-02,44.1819
2005-03-03,44.3288
2005-03-04,44.9475
2005-03-07,45.1641
2005-03-08,45.3342
2005-03-09,45.0326
2005-03-10,45.1409
2005-03-11,44.5005
2005-03-14,44.8908
2005-03-15,44.438
2005-03-16,43.9774
2005-03-17,44.032
2005-03-18,43.9618
2005-03-21,43.4543
2005-03-22,42.9781
2005-03-23,42.697
2005-03-24,42.3769
2005-03-28,42.3691
2005-03-29,41.9554
2005-03-30,42.6814
2005-03-31,42.9625
2005-04-01,42.6736
2005-04-04,42.5955
2005-04-05,42.494
2005-04-06,43.2669
2005-04-07,43.4231
2005-04-08,42.7205
2005-04-11,42.5721
2005-04-12,43.2669
2005-04-13,42.5955
2005-04-14,41.9241
2005-04-15,41.729
2005-04-18,42.4316
2005-04-19,42.5955
2005-04-20,42.2442
2005-04-21,42.9078
2005-04-22,43.3841
2005-04-25,43.7744
2005-04-26,43.9149
2005-04-27,44.6722
2005-04-28,44.1257
2005-04-29,44.6332
2005-05-02,44.7737
2005-05-03,44.5473
2005-05-04,45.5466
2005-05-05,44.9845
2005-05-06,44.4536
2005-05-09,44.5317
2005-05-10,44.2272
2005-05-11,44.2194
2005-05-12,43.7198
2005-05-13,43.2904
2005-05-16,43.8603
2005-05-17,44.1257
2005-05-18,44.3834
2005-05-19,44.1804
2005-05-20,44.3834
2005-05-23,44.2741
2005-05-24,44.3287
2005-05-25,44.0242
2005-05-26,44.2116
2005-05-27,44.0555
2005-05-31,43.6417
2005-06-01,44.4068
2005-06-02,44.2116
2005-06-03,44.235
2005-06-06,44.0555
2005-06-07,44.0867
2005-06-08,44.2663
2005-06-09,44.1726
2005-06-10,43.9852
2005-06-13,44.0957
2005-06-14,44.5767
2005-06-15,45.1601
2005-06-16,45.3966
2005-06-17,46.051
2005-06-20,45.8618
2005-06-21,45.7987
2005-06-22,45.8933
2005-06-23,45.4045
2005-06-24,45.4282
2005-06-27,45.436
2005-06-28,46.0431
2005-06-29,46.3427
2005-06-30,45.5622
2005-07-01,45.4676
2005-07-05,45.9327
2005-07-06,45.4439
2005-07-07,45.4833
2005-07-08,46.051
2005-07-11,46.4452
2005-07-12,46.6817
2005-07-13,47.1942
2005-07-14,47.1154
2005-07-15,47.2809
2005-07-18,46.5319
2005-07-19,47.2809
2005-07-20,49.7486
2005-07-21,49.386
2005-07-22,49.6856
2005-07-25,49.1337
2005-07-26,49.386
2005-07-27,49.0312
2005-07-28,49.0154
2005-07-29,48.1718
2005-08-01,47.8407
2005-08-02,47.7382
2005-08-03,48.3216
2005-08-04,47.6594
2005-08-05,46.9419
2005-08-08,46.9892
2005-08-09,47.0523
2005-08-10,47.0602
2005-08-11,47.3203
2005-08-12,47.5017
2005-08-15,48.0141
2005-08-16,47.754
2005-08-17,47.9353
2005-08-18,47.888
2005-08-19,48.022
2005-08-22,47.9905
2005-08-23,47.6121
2005-08-24,47.549
2005-08-25,47.6042
2005-08-26,46.9104
2005-08-29,46.9971
2005-08-30,47.1469
2005-08-31,47.754
2005-09-01,48.1482
2005-09-02,48.0299
2005-09-06,48.5581
2005-09-07,48.6764
2005-09-08,48.1009
2005-09-09,48.4478
2005-09-12,48.7237
2005-09-13,48.1507
2005-09-14,48.4053
2005-09-15,47.6814
2005-09-16,48.6598
2005-09-19,48.2701
2005-09-20,47.7371
2005-09-21,47.0848
2005-09-22,47.0132
2005-09-23,47.2439
2005-09-26,47.045
2005-09-27,46.87
2005-09-28,46.5677
2005-09-29,47.1405
2005-09-30,46.878
2005-10-03,47.2757
2005-10-04,46.2416
2005-10-05,45.9313
2005-10-06,46.2336
2005-10-07,46.0188
2005-10-10,45.4859
2005-10-11,44.6824
2005-10-12,44.6586
2005-10-13,44.6983
2005-10-14,44.8733
2005-10-17,45.3904
2005-10-18,44.9847
2005-10-19,44.046
2005-10-20,43.5608
2005-10-21,43.7835
2005-10-24,44.0142
2005-10-25,44.4597
2005-10-26,44.571
2005-10-27,44.404
2005-10-28,45.8995
2005-10-31,45.9711
2005-11-01,45.637
2005-11-02,45.9472
2005-11-03,45.8041
2005-11-04,46.0745
2005-11-07,46.4802
2005-11-08,46.1541
2005-11-09,46.512
2005-11-10,47.7848
2005-11-11,47.4905
2005-11-14,47.3473
2005-11-15,46.7745
2005-11-16,46.6314
2005-11-17,47.2121
2005-11-18,47.3712
2005-11-21,47.6973
2005-11-22,46.7189
2005-11-23,46.8541
2005-11-25,46.9336
2005-11-28,46.8461
2005-11-29,46.7427
2005-11-30,45.8756
2005-12-01,46.17
2005-12-02,46.162
2005-12-05,45.9552
2005-12-06,45.8995
2005-12-07,45.5256
2005-12-08,45.279
2005-12-09,45.3029
2005-12-12,45.3586
2005-12-13,45.4069
2005-12-14,46.5957
2005-12-15,46.0575
2005-12-16,46.3547
2005-12-19,46.1861
2005-12-20,46.178
2005-12-21,46.2503
2005-12-22,46.4511
2005-12-23,46.4672
2005-12-27,46.3467
2005-12-28,46.0816
2005-12-29,45.8407
2005-12-30,45.5515
2006-01-03,46.2343
2006-01-04,46.6439
2006-01-05,46.9411
2006-01-06,46.2744
2006-01-09,46.6037
2006-01-10,46.4913
2006-01-11,46.3547
2006-01-12,46.3226
2006-01-13,46.4029
2006-01-17,46.0736
2006-01-18,45.7603
2006-01-19,45.2945
2006-01-20,43.9932
2006-01-23,43.7844
2006-01-24,44.5876
2006-01-25,44.5394
2006-01-26,45.166
2006-01-27,45.182
2006-01-30,44.8607
2006-01-31,44.5796
2006-02-01,44.3868
2006-02-02,44.3466
2006-02-03,44.194
2006-02-06,44.1619
2006-02-07,43.937
2006-02-08,44.4109
2006-02-09,44.6278
2006-02-10,44.5555
2006-02-13,44.4993
2006-02-14,45.3909
2006-02-15,45.3266
2006-02-16,45.7844
2006-02-17,45.6479
2006-02-21,45.415
2006-02-22,46.411
2006-02-23,46.1218
2006-02-24,45.9853
2006-02-27,46.3146
2006-02-28,45.9772
2006-03-01,45.921
2006-03-02,45.6399
2006-03-03,45.68
2006-03-06,45.2222
2006-03-07,45.2463
2006-03-08,45.431
2006-03-09,44.9892
2006-03-10,45.2704
2006-03-13,45.5541
2006-03-14,46.0412
2006-03-15,46.4795
2006-03-16,46.7636
2006-03-17,46.8854
2006-03-20,46.861
2006-03-21,46.9503
2006-03-22,47.2263
2006-03-23,47.3156
2006-03-24,47.2506
2006-03-27,47.0883
2006-03-28,47.2425
2006-03-29,47.1695
2006-03-30,46.9341
2006-03-31,47.0558
2006-04-03,47.5266
2006-04-04,47.7133
2006-04-05,47.8594
2006-04-06,47.7539
2006-04-07,47.2994
2006-04-10,47.3724
2006-04-11,46.788
2006-04-12,46.8042
2006-04-13,46.9016
2006-04-17,47.0152
2006-04-18,48.7361
2006-04-19,45.408
2006-04-20,44.6775
2006-04-21,44.8885
2006-04-24,44.3771
2006-04-25,44.1661
2006-04-26,44.3284
2006-04-27,45.4973
2006-04-28,46.1873
2006-05-01,45.1564
2006-05-02,44.9535
2006-05-03,44.6531
2006-05-04,44.6856
2006-05-05,45.4567
2006-05-08,45.3756
2006-05-09,45.8382
2006-05-10,45.8707
2006-05-11,45.3674
2006-05-12,45.2619
2006-05-15,45.8464
2006-05-16,45.4486
2006-05-17,45.0509
2006-05-18,44.5801
2006-05-19,45.0346
2006-05-22,44.9616
2006-05-23,44.5314
2006-05-24,44.7099
2006-05-25,44.8804
2006-05-26,44.8479
2006-05-30,44.3771
2006-05-31,44.434
2006-06-01,45.1158
2006-06-02,44.9535
2006-06-05,44.2148
2006-06-06,44.2067
2006-06-07,45.1564
2006-06-08,45.5054
2006-06-09,45.2863
2006-06-12,45.0671
2006-06-13,44.5256
2006-06-14,43.6313
2006-06-15,44.8046
2006-06-16,44.3451
2006-06-19,43.6888
2006-06-20,43.6067
2006-06-21,43.6067
2006-06-22,43.3934
2006-06-23,41.7197
2006-06-26,42.212
2006-06-27,41.6376
2006-06-28,42.2202
2006-06-29,42.9175
2006-06-30,42.6878
2006-07-03,43.1226
2006-07-05,43.2211
2006-07-06,43.4918
2006-07-07,43.6395
2006-07-10,43.4508
2006-07-11,43.2867
2006-07-12,43.3278
2006-07-13,42.5073
2006-07-14,42.7452
2006-07-17,42.7042
2006-07-18,42.5401
2006-07-19,43.6231
2006-07-20,45.6824
2006-07-21,45.1984
2006-07-24,45.5758
2006-07-25,46.5029
2006-07-26,47.0526
2006-07-27,47.0608
2006-07-28,47.832
2006-07-31,47.9797
2006-08-01,47.6843
2006-08-02,47.6843
2006-08-03,47.7746
2006-08-04,48.1274
2006-08-07,48.0453
2006-08-08,47.5941
2006-08-09,46.9952
2006-08-10,47.3644
2006-08-11,47.1182
2006-08-14,46.9869
2006-08-15,47.4792
2006-08-16,47.6515
2006-08-17,46.9952
2006-08-18,46.9623
2006-08-21,46.8967
2006-08-22,47.1428
2006-08-23,46.6506
2006-08-24,46.6834
2006-08-25,46.4455
2006-08-28,46.8639
2006-08-29,46.7326
2006-08-30,47.1182
2006-08-31,47.0198
2006-09-01,47.1264
2006-09-05,47.2167
2006-09-06,46.8557
2006-09-07,46.1501
2006-09-08,46.6095
2006-09-11,46.8721
2006-09-12,47.2085
2006-09-13,47.0096
2006-09-14,47.2583
2006-09-15,47.5899
2006-09-18,47.8303
2006-09-19,47.6148
2006-09-20,48.195
2006-09-21,47.5816
2006-09-22,47.5899
2006-09-25,48.0873
2006-09-26,47.8303
2006-09-27,47.7723
2006-09-28,47.8966
2006-09-29,47.134
2006-10-02,46.8107
2006-10-03,46.7195
2006-10-04,47.1257
2006-10-05,46.7278
2006-10-06,46.562
2006-10-09,46.8273
2006-10-10,46.7609
2006-10-11,47.2169
2006-10-12,47.308
2006-10-13,47.4158
2006-10-16,47.7723
2006-10-17,47.9132
2006-10-18,47.764
2006-10-19,48.5681
2006-10-20,48.3774
2006-10-23,48.5681
2006-10-24,48.3194
2006-10-25,48.3194
2006-10-26,48.4354
2006-10-27,48.5349
2006-10-30,48.8831
2006-10-31,48.195
2006-11-01,48.1536
2006-11-02,47.8386
2006-11-03,47.9132
2006-11-06,48.0956
2006-11-07,48.2862
2006-11-08,48.4769
2006-11-09,48.5432
2006-11-10,48.8665
2006-11-13,48.7836
2006-11-14,49.2395
2006-11-15,49.0488
2006-11-16,49.1815
2006-11-17,49.024
2006-11-20,49.2644
2006-11-21,48.7173
2006-11-22,48.5598
2006-11-24,48.51
2006-11-27,47.8883
2006-11-28,47.8552
2006-11-29,48.5515
2006-11-30,48.2365
2006-12-01,48.0375
2006-12-04,48.5266
2006-12-05,48.6261
2006-12-06,48.9908
2006-12-07,48.9411
2006-12-08,49.0074
2006-12-11,49.1981
2006-12-12,49.1566
2006-12-13,48.9974
2006-12-14,49.2988
2006-12-15,49.6672
2006-12-18,49.5081
2006-12-19,49.6253
2006-12-20,49.6923
2006-12-21,49.4746
2006-12-22,49.3239
2006-12-26,49.7174
2006-12-27,49.8514
2006-12-28,49.6839
2006-12-29,49.1732
2007-01-03,49.5751
2007-01-04,49.6002
2007-01-05,49.0225
2007-01-08,48.922
2007-01-09,48.788
2007-01-10,48.7629
2007-01-11,48.4782
2007-01-12,48.6206
2007-01-16,48.7629
2007-01-17,48.6373
2007-01-18,49.8346
2007-01-19,49.9016
2007-01-22,49.5165
2007-01-23,49.3909
2007-01-24,49.9519
2007-01-25,49.056
2007-01-26,49.0392
2007-01-29,49.0141
2007-01-30,49.3155
2007-01-31,49.6588
2007-02-01,50.2282
2007-02-02,50.6719
2007-02-05,50.337
2007-02-06,50.9901
2007-02-07,51.1659
2007-02-08,51.0152
2007-02-09,50.7808
2007-02-12,50.7891
2007-02-13,51.2496
2007-02-14,51.6934
2007-02-15,51.7604
2007-02-16,52.0115
2007-02-20,52.8823
2007-02-21,52.9074
2007-02-22,52.7149
2007-02-23,52.74
2007-02-26,52.472
2007-02-27,50.7891
2007-02-28,50.6133
2007-03-01,50.3621
2007-03-02,50.1695
2007-03-05,48.9974
2007-03-06,50.0774
2007-03-07,49.6755
2007-03-08,49.8597
2007-03-09,50.3705
2007-03-12,50.27
2007-03-13,48.7979
2007-03-14,49.1279
2007-03-15,49.7711
2007-03-16,49.6019
2007-03-19,50.1604
2007-03-20,50.609
2007-03-21,51.4722
2007-03-22,51.2691
2007-03-23,51.2606
2007-03-26,51.0998
2007-03-27,50.7021
2007-03-28,49.9065
2007-03-29,50.4736
2007-03-30,49.9235
2007-04-02,49.5511
2007-04-03,50.1435
2007-04-04,50.1096
2007-04-05,50.4651
2007-04-09,50.3128
2007-04-10,50.6767
2007-04-11,50.1689
2007-04-12,50.3551
2007-04-13,50.3635
2007-04-16,51.3876
2007-04-17,52.8771
2007-04-18,53.1987
2007-04-19,53.4272
2007-04-20,53.6557
2007-04-23,53.1817
2007-04-24,52.894
2007-04-25,53.4949
2007-04-26,53.224
2007-04-27,53.1563
2007-04-30,52.437
2007-05-01,52.4116
2007-05-02,52.7586
2007-05-03,52.7586
2007-05-04,52.8686
2007-05-07,53.131
2007-05-08,53.114
2007-05-09,53.3341
2007-05-10,52.547
2007-05-11,52.8517
2007-05-14,52.2677
2007-05-15,52.437
2007-05-16,53.4949
2007-05-17,53.5964
2007-05-18,53.6218
2007-05-21,53.4187
2007-05-22,53.6557
2007-05-23,53.6472
2007-05-24,52.9702
2007-05-25,52.9278
2007-05-29,53.131
2007-05-30,53.351
2007-05-31,53.2494
2007-06-01,53.8757
2007-06-04,53.6895
2007-06-05,53.2664
2007-06-06,52.9532
2007-06-07,52.3608
2007-06-08,52.8009
2007-06-11,53.2918
2007-06-12,52.2677
2007-06-13,52.6702
2007-06-14,52.6103
2007-06-15,53.0807
2007-06-18,52.9011
2007-06-19,53.2517
2007-06-20,52.4051
2007-06-21,52.2341
2007-06-22,51.4216
2007-06-25,51.1138
2007-06-26,51.1223
2007-06-27,51.6098
2007-06-28,51.4986
2007-06-29,50.8316
2007-07-02,51.9946
2007-07-03,52.1229
2007-07-05,52.1485
2007-07-06,52.063
2007-07-09,51.319
2007-07-10,50.156
2007-07-11,50.3185
2007-07-12,51.4986
2007-07-13,51.5328
2007-07-16,51.9775
2007-07-17,52.1913
2007-07-18,49.9764
2007-07-19,48.7107
2007-07-20,48.1463
2007-07-23,48.0694
2007-07-24,46.6412
2007-07-25,47.0945
2007-07-26,45.8031
2007-07-27,45.3841
2007-07-30,46.0084
2007-07-31,44.9565
2007-08-01,44.8453
2007-08-02,45.2045
2007-08-03,43.0067
2007-08-06,45.9913
2007-08-07,46.4274
2007-08-08,48.0351
2007-08-09,45.7005
2007-08-10,45.9143
2007-08-13,45.4953
2007-08-14,44.8111
2007-08-15,44.1869
2007-08-16,47.8299
2007-08-17,50.0277
2007-08-20,49.2837
2007-08-21,50.1303
2007-08-22,50.404
2007-08-23,49.7284
2007-08-24,50.1902
2007-08-27,49.3607
2007-08-28,47.7786
2007-08-29,48.2489
2007-08-30,47.2056
2007-08-31,47.7529
2007-09-04,48.266
2007-09-05,46.9747
2007-09-06,46.8636
2007-09-07,46.4958
2007-09-10,45.7262
2007-09-11,46.684
2007-09-12,46.1222
2007-09-13,46.252
2007-09-14,46.4597
2007-09-17,46.1482
2007-09-18,47.9135
2007-09-19,48.225
2007-09-20,47.2212
2007-09-21,46.3991
2007-09-24,45.5684
2007-09-25,45.2482
2007-09-26,45.3694
2007-09-27,45.0665
2007-09-28,44.3916
2007-10-01,45.9924
2007-10-02,46.3732
2007-10-03,46.3905
2007-10-04,46.6328
2007-10-05,46.9616
2007-10-08,46.4857
2007-10-09,46.9962
2007-10-10,46.503
2007-10-11,46.2088
2007-10-12,45.5598
2007-10-15,44.9454
2007-10-16,43.232
2007-10-17,42.3667
2007-10-18,40.9302
2007-10-19,40.3678
2007-10-22,40.2985
2007-10-23,40.1428
2007-10-24,39.814
2007-10-25,39.7447
2007-10-26,40.835
2007-10-29,40.6966
2007-10-30,40.6706
2007-10-31,40.3937
2007-11-01,38.3948
2007-11-02,38.6371
2007-11-05,38.5765
2007-11-06,38.6804
2007-11-07,36.5257
2007-11-08,37.642
2007-11-09,38.9746
2007-11-12,39.4592
2007-11-13,41.3196
2007-11-14,40.1168
2007-11-15,38.7929
2007-11-16,37.7112
2007-11-19,37.2007
2007-11-20,36.7766
2007-11-21,36.2747
2007-11-23,37.2872
2007-11-26,35.3748
2007-11-27,36.6988
2007-11-28,39.1736
2007-11-29,38.5246
2007-11-30,39.6322
2007-12-03,39.7361
2007-12-04,38.7583
2007-12-05,39.3899
2007-12-06,40.0476
2007-12-07,39.3899
2007-12-10,40.7139
2007-12-11,38.1871
2007-12-12,37.4424
2007-12-13,37.0297
2007-12-14,36.213
2007-12-17,35.9935
2007-12-18,36.2043
2007-12-19,36.8716
2007-12-20,36.775
2007-12-21,38.742
2007-12-24,39.1108
2007-12-26,39.2864
2007-12-27,38.4083
2007-12-28,38.742
2007-12-31,38.2063
2008-01-02,37.5829
2008-01-03,36.3887
2008-01-04,35.1154
2008-01-07,35.6335
2008-01-08,34.1495
2008-01-09,35.493
2008-01-10,36.6697
2008-01-11,37.1965
2008-01-14,36.5906
2008-01-15,35.133
2008-01-16,37.1877
2008-01-17,33.1485
2008-01-18,32.0772
2008-01-22,32.8762
2008-01-23,34.8959
2008-01-24,36.2657
2008-01-25,35.0013
2008-01-28,36.1867
2008-01-29,36.3096
2008-01-30,37.135
2008-01-31,38.2063
2008-02-01,39.5411
2008-02-04,37.6707
2008-02-05,36.2745
2008-02-06,35.7037
2008-02-07,36.4765
2008-02-08,35.8442
2008-02-11,34.8871
2008-02-12,35.4227
2008-02-13,35.01
2008-02-14,34.4393
2008-02-15,34.4568
2008-02-19,33.7543
2008-02-20,34.2724
2008-02-21,33.6051
2008-02-22,34.4393
2008-02-25,34.4393
2008-02-26,34.29
2008-02-27,34.2197
2008-02-28,32.6304
2008-02-29,31.7698
2008-03-03,31.5152
2008-03-04,32.2879
2008-03-05,31.9191
2008-03-06,30.9268
2008-03-07,31.761
2008-03-10,31.7786
2008-03-11,34.5183
2008-03-12,33.4019
2008-03-13,33.9824
2008-03-14,32.8214
2008-03-17,32.8482
2008-03-18,34.3665
2008-03-19,33.6609
2008-03-20,35.3221
2008-03-24,35.1792
2008-03-25,34.9916
2008-03-26,33.2948
2008-03-27,32.1516
2008-03-28,31.2764
2008-03-31,31.321
2008-04-01,33.5002
2008-04-02,33.1519
2008-04-03,33.1429
2008-04-04,32.2677
2008-04-07,33.0358
2008-04-08,32.3124
2008-04-09,31.3925
2008-04-10,31.3299
2008-04-11,30.8477
2008-04-14,29.767
2008-04-15,29.9903
2008-04-16,30.8119
2008-04-17,30.7405
2008-04-18,30.4011
2008-04-21,29.5884
2008-04-22,29.0972
2008-04-23,28.9007
2008-04-24,30.3654
2008-04-25,30.9548
2008-04-28,31.8122
2008-04-29,31.3299
2008-04-30,30.928
2008-05-01,33.268
2008-05-02,33.7681
2008-05-05,34.6165
2008-05-06,35.9562
2008-05-07,35.0542
2008-05-08,34.688
2008-05-09,34.7594
2008-05-12,35.3935
2008-05-13,35.0363
2008-05-14,35.206
2008-05-15,35.0988
2008-05-16,34.2682
2008-05-19,34.295
2008-05-20,33.2055
2008-05-21,32.7053
2008-05-22,33.2501
2008-05-23,32.9554
2008-05-27,33.0715
2008-05-28,31.8122
2008-05-29,33.1429
2008-05-30,33.2055
2008-06-02,32.6339
2008-06-03,32.4999
2008-06-04,32.482
2008-06-05,33.0804
2008-06-06,31.446
2008-06-09,30.285
2008-06-10,30.7316
2008-06-11,29.3112
2008-06-12,29.0199
2008-06-13,28.0365
2008-06-16,29.1656
2008-06-17,28.6283
2008-06-18,26.5886
2008-06-19,26.1516
2008-06-20,26.8345
2008-06-23,24.9951
2008-06-24,25.933
2008-06-25,25.7327
2008-06-26,24.8859
2008-06-27,24.467
2008-06-30,23.3379
2008-07-01,24.5399
2008-07-02,23.3561
2008-07-03,22.7734
2008-07-07,21.2527
2008-07-08,23.9389
2008-07-09,22.0358
2008-07-10,21.4803
2008-07-11,21.7171
2008-07-14,19.4407
2008-07-15,18.9672
2008-07-16,21.9356
2008-07-17,25.7873
2008-07-18,26.4065
2008-07-21,24.9314
2008-07-22,28.2641
2008-07-23,28.9288
2008-07-24,26.0514
2008-07-25,25.4049
2008-07-28,24.4306
2008-07-29,26.4885
2008-07-30,27.3353
2008-07-31,26.0878
2008-08-01,26.8072
2008-08-04,27.0257
2008-08-05,28.7376
2008-08-06,28.9197
2008-08-07,27.7269
2008-08-08,28.5099
2008-08-11,29.8849
2008-08-12,28.0911
2008-08-13,27.3171
2008-08-14,27.6813
2008-08-15,27.7178
2008-08-18,26.6888
2008-08-19,25.5233
2008-08-20,24.4761
2008-08-21,23.4108
2008-08-22,24.4852
2008-08-25,23.5382
2008-08-26,23.7932
2008-08-27,24.0026
2008-08-28,25.4049
2008-08-29,25.5597
2008-09-02,26.5431
2008-09-03,26.9893
2008-09-04,24.7493
2008-09-05,27.3991
2008-09-08,30.3766
2008-09-09,29.0472
2008-09-10,28.8104
2008-09-11,29.4159
2008-09-12,30.318
2008-09-15,28.3185
2008-09-16,30.2994
2008-09-17,29.1648
2008-09-18,33.7404
2008-09-19,37.6557
2008-09-22,36.1212
2008-09-23,34.8471
2008-09-24,33.4707
2008-09-25,32.1129
2008-09-26,32.364
2008-09-29,29.9553
2008-09-30,30.2436
2008-10-01,32.5221
2008-10-02,32.0292
2008-10-03,31.3038
2008-10-06,29.9181
2008-10-07,27.7698
2008-10-08,25.5006
2008-10-09,21.6039
2008-10-10,22.4688
2008-10-13,22.8408
2008-10-14,27.2211
2008-10-15,26.3376
2008-10-16,27.0909
2008-10-17,27.5001
2008-10-20,26.04
2008-10-21,27.1467
2008-10-22,25.3053
2008-10-23,24.1614
2008-10-24,22.8873
2008-10-27,24.1707
2008-10-28,26.4957
2008-10-29,25.3239
2008-10-30,24.7287
2008-10-31,25.6959
2008-11-03,25.4541
2008-11-04,27.156
2008-11-05,25.1937
2008-11-06,23.343
2008-11-07,22.8222
2008-11-10,22.1898
2008-11-11,21.7062
2008-11-12,20.367
2008-11-13,21.855
2008-11-14,20.4414
2008-11-17,20.1717
2008-11-18,19.8927
2008-11-19,18.2559
2008-11-20,15.5217
2008-11-21,15.8937
2008-11-24,17.8095
2008-11-25,18.8511
2008-11-26,19.8276
2008-11-28,20.9715
2008-12-01,16.9632
2008-12-02,18.6
2008-12-03,19.53
2008-12-04,18.9069
2008-12-05,20.5623
2008-12-08,21.5109
2008-12-09,20.0043
2008-12-10,19.8369
2008-12-11,17.5328
2008-12-12,18.1091
2008-12-15,17.3345
2008-12-16,18.8081
2008-12-17,18.0241
2008-12-18,18.0996
2008-12-19,17.9957
2008-12-22,18.0429
2008-12-23,17.9863
2008-12-24,18.1658
2008-12-26,18.0524
2008-12-29,17.6651
2008-12-30,18.4019
2008-12-31,18.8553
2009-01-02,19.8472
2009-01-05,18.298
2009-01-06,19.2899
2009-01-07,17.8068
2009-01-08,17.8446
2009-01-09,16.8716
2009-01-12,15.3885
2009-01-13,15.8986
2009-01-14,15.3129
2009-01-15,13.8676
2009-01-16,13.6314
2009-01-20,12.2239
2009-01-21,13.0929
2009-01-22,14.321
2009-01-23,16.1253
2009-01-26,16.2103
2009-01-27,16.3898
2009-01-28,18.8176
2009-01-29,17.0983
2009-01-30,15.653
2009-02-02,15.9364
2009-02-03,15.738
2009-02-04,15.8797
2009-02-05,16.097
2009-02-06,17.854
2009-02-09,18.0335
2009-02-10,14.7839
2009-02-11,15.7002
2009-02-12,15.6246
2009-02-13,14.7083
2009-02-17,13.1402
2009-02-18,12.9324
2009-02-19,11.8271
2009-02-20,12.8851
2009-02-23,12.8568
2009-02-24,14.1699
2009-02-25,14.3493
2009-02-26,15.5679
2009-02-27,14.1699
2009-03-02,13.8203
2009-03-03,13.4708
2009-03-04,13.1874
2009-03-05,11.7043
2009-03-06,12.1861
2009-03-09,12.7151
2009-03-10,14.4249
2009-03-11,15.6476
2009-03-12,17.363
2009-03-13,16.8228
2009-03-16,16.6332
2009-03-17,17.5052
2009-03-18,19.6566
2009-03-19,17.7706
2009-03-20,16.965
2009-03-23,19.5334
2009-03-24,18.1307
2009-03-25,19.1353
2009-03-26,18.851
2009-03-27,18.5382
2009-03-30,16.5764
2009-03-31,17.4104
2009-04-01,18.1686
2009-04-02,17.8843
2009-04-03,18.5003
2009-04-06,17.8179
2009-04-07,17.1071
2009-04-08,15.477
2009-04-09,18.5761
2009-04-13,20.2916
2009-04-14,18.5003
2009-04-15,18.0075
2009-04-16,19.1448
2009-04-17,20.5665
2009-04-20,17.7232
2009-04-21,20.339
2009-04-22,19.9978
2009-04-23,20.0357
2009-04-24,20.8508
2009-04-27,19.3154
2009-04-28,19.1543
2009-04-29,20.5854
2009-04-30,19.9599
2009-05-01,19.9978
2009-05-04,22.9927
2009-05-05,22.68
2009-05-06,24.6324
2009-05-07,21.5616
2009-05-08,21.7227
2009-05-11,20.9456
2009-05-12,19.9409
2009-05-13,19.287
2009-05-14,20.2916
2009-05-15,19.467
2009-05-18,20.5759
2009-05-19,20.1779
2009-05-20,19.2017
2009-05-21,19.7514
2009-05-22,19.2301
2009-05-26,20.0073
2009-05-27,19.268
2009-05-28,19.7703
2009-05-29,20.5191
2009-06-01,20.1589
2009-06-02,19.7609
2009-06-03,19.704
2009-06-04,21.3531
2009-06-05,20.6138
2009-06-08,20.4906
2009-06-09,20.4906
2009-06-10,20.8413
2009-06-11,21.6203
2009-06-12,21.5159
2009-06-15,20.7464
2009-06-16,20.148
2009-06-17,19.4545
2009-06-18,20.2145
2009-06-19,20.3664
2009-06-22,19.445
2009-06-23,19.4735
2009-06-24,19.654
2009-06-25,20.072
2009-06-26,20.2715
2009-06-29,20.5564
2009-06-30,20.091
2009-07-01,20.3284
2009-07-02,19.8345
2009-07-06,19.9295
2009-07-07,20.1385
2009-07-08,19.54
2009-07-09,19.711
2009-07-10,19.217
2009-07-13,20.4044
2009-07-14,20.7084
2009-07-15,21.6488
2009-07-16,21.5254
2009-07-17,21.0694
2009-07-20,21.6299
2009-07-21,19.5115
2009-07-22,19.882
2009-07-23,20.6704
2009-07-24,21.1834
2009-07-27,22.1998
2009-07-28,22.3138
2009-07-29,21.6203
2009-07-30,22.5513
2009-07-31,22.6843
2009-08-03,23.8242
2009-08-04,24.2137
2009-08-05,25.3631
2009-08-06,25.0401
2009-08-07,26.18
2009-08-10,26.18
2009-08-11,24.9831
2009-08-12,25.5436
2009-08-13,25.914
2009-08-14,26.2085
2009-08-17,25.1161
2009-08-18,25.3441
2009-08-19,25.3726
2009-08-20,25.4011
2009-08-21,25.6955
2009-08-24,25.3061
2009-08-25,24.9451
2009-08-26,25.1161
2009-08-27,25.0021
2009-08-28,25.4391
2009-08-31,25.2681
2009-09-01,24.4511
2009-09-02,23.3777
2009-09-03,23.8432
2009-09-04,24.1377
2009-09-08,24.8691
2009-09-09,25.6575
2009-09-10,26.275
2009-09-11,26.313
2009-09-14,26.3035
2009-09-15,27.5311
2009-09-16,29.758
2009-09-17,28.7873
2009-09-18,29.1299
2009-09-21,28.2449
2009-09-22,28.3305
2009-09-23,28.0736
2009-09-24,27.3693
2009-09-25,27.1695
2009-09-28,28.1782
2009-09-29,28.4542
2009-09-30,28.1497
2009-10-01,26.9601
2009-10-02,27.4645
2009-10-05,28.4733
2009-10-06,28.3495
2009-10-07,29.0347
2009-10-08,28.3876
2009-10-09,28.8063
2009-10-12,28.6731
2009-10-13,28.6255
2009-10-14,29.9198
2009-10-15,29.463
2009-10-16,28.5208
2009-10-19,28.9586
2009-10-20,30.0911
2009-10-21,28.8254
2009-10-22,30.1291
2009-10-23,29.3678
2009-10-26,28.4257
2009-10-27,27.7595
2009-10-28,26.6366
2009-10-29,27.1219
2009-10-30,26.3511
2009-11-02,26.2179
2009-11-03,26.0941
2009-11-04,25.6754
2009-11-05,25.8467
2009-11-06,26.1988
2009-11-09,27.0077
2009-11-10,26.6556
2009-11-11,27.2456
2009-11-12,26.6842
2009-11-13,26.4843
2009-11-16,27.1314
2009-11-17,27.3979
2009-11-18,27.7024
2009-11-19,26.6937
2009-11-20,26.5414
2009-11-23,27.2647
2009-11-24,27.2171
2009-11-25,27.3122
2009-11-27,26.4558
2009-11-30,27.1029
2009-12-01,26.9697
2009-12-02,27.3122
2009-12-03,26.275
2009-12-04,26.884
2009-12-07,26.1798
2009-12-08,26.3796
2009-12-09,27.1314
2009-12-10,26.7317
2009-12-11,27.6088
2009-12-14,27.9234
2009-12-15,26.7317
2009-12-16,26.6745
2009-12-17,26.3885
2009-12-18,26.9415
2009-12-21,27.647
2009-12-22,28.1236
2009-12-23,28.2857
2009-12-24,28.7528
2009-12-28,28.381
2009-12-29,28.5622
2009-12-30,28.6384
2009-12-31,28.219
2010-01-04,29.077
2010-01-05,29.1342
2010-01-06,29.8873
2010-01-07,31.4127
2010-01-08,31.0695
2010-01-11,30.6977
2010-01-12,31.0504
2010-01-13,31.6701
2010-01-14,32.4995
2010-01-15,31.3936
2010-01-19,31.4603
2010-01-20,31.9751
2010-01-21,34.1774
2010-01-22,33.8913
2010-01-25,33.8055
2010-01-26,33.2431
2010-01-27,33.7388
2010-01-28,33.5958
2010-01-29,32.9666
2010-02-01,33.7388
2010-02-02,33.5672
2010-02-03,32.9285
2010-02-04,31.8893
2010-02-05,32.4232
2010-02-08,31.9179
2010-02-09,32.4232
2010-02-10,32.9571
2010-02-11,33.3956
2010-02-12,33.2907
2010-02-16,33.9009
2010-02-17,33.5672
2010-02-18,33.1001
2010-02-19,33.8818
2010-02-22,34.511
2010-02-23,33.5481
2010-02-24,34.3013
2010-02-25,34.1202
2010-02-26,34.3871
2010-03-01,34.0916
2010-03-02,34.0725
2010-03-03,33.92
2010-03-04,34.063
2010-03-05,34.9782
2010-03-08,34.6064
2010-03-09,33.9867
2010-03-10,34.7398
2010-03-11,34.8066
2010-03-12,35.1216
2010-03-15,35.6276
2010-03-16,36.0285
2010-03-17,36.525
2010-03-18,36.2481
2010-03-19,36.4295
2010-03-22,36.3531
2010-03-23,36.334
2010-03-24,36.6491
2010-03-25,36.4199
2010-03-26,35.8567
2010-03-29,36.1526
2010-03-30,36.1431
2010-03-31,36.2767
2010-04-01,36.2195
2010-04-05,37.1359
2010-04-06,38.7206
2010-04-07,38.9211
2010-04-08,39.1407
2010-04-09,39.618
2010-04-12,39.8662
2010-04-13,39.4175
2010-04-14,40.5058
2010-04-15,40.1813
2010-04-16,38.9307
2010-04-19,39.093
2010-04-20,40.3722
2010-04-21,41.4605
2010-04-22,42.6156
2010-04-23,42.2338
2010-04-26,40.649
2010-04-27,39.723
2010-04-28,39.5416
2010-04-29,40.0763
2010-04-30,40.0763
2010-05-03,41.1646
2010-05-04,40.1908
2010-05-05,40.6013
2010-05-06,39.6562
2010-05-07,38.5965
2010-05-10,40.6968
2010-05-11,41.2696
2010-05-12,41.7087
2010-05-13,41.4223
2010-05-14,40.2576
2010-05-17,40.1144
2010-05-18,38.9307
2010-05-19,38.7111
2010-05-20,36.0572
2010-05-21,36.9164
2010-05-24,35.6276
2010-05-25,36.2004
2010-05-26,36.2576
2010-05-27,37.2696
2010-05-28,36.3722
2010-06-01,35.5512
2010-06-02,36.7923
2010-06-03,36.229
2010-06-04,34.5297
2010-06-07,34.3388
2010-06-08,35.1789
2010-06-09,34.9784
2010-06-10,35.9903
2010-06-11,35.8087
2010-06-14,36.0286
2010-06-15,37.0418
2010-06-16,36.8411
2010-06-17,36.6977
2010-06-18,37.5389
2010-06-21,37.2713
2010-06-22,36.583
2010-06-23,36.105
2010-06-24,35.2352
2010-06-25,36.8124
2010-06-28,36.8793
2010-06-29,35.608
2010-06-30,35.1969
2010-07-01,34.8432
2010-07-02,33.7726
2010-07-06,34.4226
2010-07-07,36.6595
2010-07-08,36.4779
2010-07-09,37.4242
2010-07-12,37.2426
2010-07-13,38.3037
2010-07-14,37.3573
2010-07-15,37.0418
2010-07-16,34.5756
2010-07-19,34.6234
2010-07-20,35.1969
2010-07-21,34.5851
2010-07-22,35.6175
2010-07-23,36.0764
2010-07-26,36.9845
2010-07-27,37.3955
2010-07-28,37.233
2010-07-29,37.0801
2010-07-30,36.6882
2010-08-02,37.7014
2010-08-03,37.5198
2010-08-04,37.1948
2010-08-05,36.5352
2010-08-06,35.5219
2010-08-09,35.694
2010-08-10,35.933
2010-08-11,34.6807
2010-08-12,34.6807
2010-08-13,34.327
2010-08-16,34.4704
2010-08-17,34.7381
2010-08-18,34.7954
2010-08-19,33.9256
2010-08-20,33.8013
2010-08-23,33.4476
2010-08-24,32.7307
2010-08-25,32.377
2010-08-26,31.8512
2010-08-27,32.5586
2010-08-30,31.9659
2010-08-31,32.8836
2010-09-01,33.9351
2010-09-02,34.6807
2010-09-03,35.2638
2010-09-07,34.5087
2010-09-08,34.9579
2010-09-09,35.1013
2010-09-10,35.0535
2010-09-13,36.3457
2010-09-14,35.9341
2010-09-15,36.1064
2010-09-16,35.5417
2010-09-17,35.3502
2010-09-20,36.0011
2010-09-21,35.1301
2010-09-22,34.4696
2010-09-23,33.7995
2010-09-24,34.7089
2010-09-27,33.8665
2010-09-28,35.0343
2010-09-29,34.9769
2010-09-30,35.5225
2010-10-01,35.5417
2010-10-04,35.5417
2010-10-05,37.0062
2010-10-06,37.4561
2010-10-07,37.0062
2010-10-08,37.0349
2010-10-11,36.9488
2010-10-12,37.2934
2010-10-13,36.8243
2010-10-14,36.9105
2010-10-15,36.5372
2010-10-18,37.5327
2010-10-19,36.7573
2010-10-20,34.393
2010-10-21,34.1058
2010-10-22,34.7185
2010-10-25,33.7325
2010-10-26,33.9431
2010-10-27,34.7185
2010-10-28,34.1633
2010-10-29,34.2877
2010-11-01,34.3547
2010-11-02,34.4217
2010-11-03,35.3885
2010-11-04,36.3744
2010-11-05,36.9392
2010-11-08,37.1785
2010-11-09,36.3744
2010-11-10,36.6329
2010-11-11,36.4032
2010-11-12,35.6565
2010-11-15,36.0394
2010-11-16,35.1971
2010-11-17,35.4077
2010-11-18,35.8288
2010-11-19,35.5704
2010-11-22,35.4651
2010-11-23,34.929
2010-11-24,35.1492
2010-11-26,35.0726
2010-11-29,35.4459
2010-11-30,34.9386
2010-12-01,35.7523
2010-12-02,37.3795
2010-12-03,37.8677
2010-12-06,37.7241
2010-12-07,37.1115
2010-12-08,38.2985
2010-12-09,38.7771
2010-12-10,39.1983
2010-12-13,38.9295
2010-12-14,39.0831
2010-12-15,38.5553
2010-12-16,38.9103
2010-12-17,39.7164
2010-12-20,40.0714
2010-12-21,40.9254
2010-12-22,40.9734
2010-12-23,40.5608
2010-12-27,40.7335
2010-12-28,41.0502
2010-12-29,40.983
2010-12-30,40.7335
2010-12-31,40.5416
2011-01-03,41.0598
2011-01-04,41.5779
2011-01-05,41.4436
2011-01-06,39.63
2011-01-07,39.3805
2011-01-10,39.323
2011-01-11,39.5053
2011-01-12,40.2825
2011-01-13,40.3209
2011-01-14,40.532
2011-01-18,37.1831
2011-01-19,36.569
2011-01-20,37.2023
2011-01-21,37.9124
2011-01-24,37.5765
2011-01-25,37.4998
2011-01-26,36.8857
2011-01-27,36.8281
2011-01-28,36.4347
2011-01-31,36.6362
2011-02-01,37.3654
2011-02-02,37.2023
2011-02-03,36.8665
2011-02-04,37.02
2011-02-07,37.567
2011-02-08,37.8164
2011-02-09,37.9412
2011-02-10,37.6917
2011-02-11,38.2099
2011-02-14,38.2962
2011-02-15,38.1427
2011-02-16,37.9124
2011-02-17,37.5861
2011-02-18,38.0467
2011-02-22,36.2523
2011-02-23,36.1084
2011-02-24,36.8377
2011-02-25,37.2599
2011-02-28,37.2983
2011-03-01,36.569
2011-03-02,36.617
2011-03-03,37.2791
2011-03-04,36.8377
2011-03-07,36.473
2011-03-08,37.1447
2011-03-09,37.5478
2011-03-10,37.3271
2011-03-11,37.6638
2011-03-14,36.8557
2011-03-15,36.1726
2011-03-16,35.5377
2011-03-17,35.7878
2011-03-18,36.3458
2011-03-21,36.2496
2011-03-22,35.8263
2011-03-23,35.4126
2011-03-24,35.4222
2011-03-25,35.403
2011-03-28,35.1336
2011-03-29,35.0374
2011-03-30,35.3645
2011-03-31,35.3453
2011-04-01,35.5569
2011-04-04,35.6531
2011-04-05,35.5858
2011-04-06,36.0091
2011-04-07,36.8942
2011-04-08,36.3939
2011-04-11,36.7499
2011-04-12,37.0
2011-04-13,36.9134
2011-04-14,36.5863
2011-04-15,36.5382
2011-04-18,36.0379
2011-04-19,35.2491
2011-04-20,35.201
2011-04-21,34.9124
2011-04-25,35.0086
2011-04-26,35.7301
2011-04-27,36.5478
2011-04-28,36.5574
2011-04-29,36.519
2011-05-02,36.4612
2011-05-03,36.5574
2011-05-04,36.4035
2011-05-05,36.1438
2011-05-06,36.0476
2011-05-09,35.8455
2011-05-10,36.0187
2011-05-11,35.6916
2011-05-12,35.5954
2011-05-13,35.0278
2011-05-16,35.2876
2011-05-17,35.8167
2011-05-18,35.9033
2011-05-19,35.6435
2011-05-20,35.0951
2011-05-23,34.4506
2011-05-24,34.4025
2011-05-25,33.8156
2011-05-26,34.0465
2011-05-27,34.5275
2011-05-31,34.72
2011-06-01,33.2096
2011-06-02,33.123
2011-06-03,32.8247
2011-06-06,32.6227
2011-06-07,32.7959
2011-06-08,32.5169
2011-06-09,32.6997
2011-06-10,32.5169
2011-06-13,32.459
2011-06-14,33.2213
2011-06-15,32.6231
2011-06-16,32.7582
2011-06-17,33.1827
2011-06-20,33.0959
2011-06-21,33.3564
2011-06-22,32.9318
2011-06-23,32.7003
2011-06-24,32.5845
2011-06-27,32.7678
2011-06-28,32.7292
2011-06-29,33.038
2011-06-30,33.3757
2011-07-01,34.1283
2011-07-05,33.1055
2011-07-06,32.7485
2011-07-07,33.4529
2011-07-08,32.6134
2011-07-11,31.8608
2011-07-12,31.4845
2011-07-13,31.9187
2011-07-14,31.4363
2011-07-15,31.4363
2011-07-18,31.1564
2011-07-19,31.3205
2011-07-20,31.7257
2011-07-21,32.7389
2011-07-22,32.5748
2011-07-25,32.4783
2011-07-26,32.3626
2011-07-27,31.6196
2011-07-28,31.3012
2011-07-29,30.9635
2011-08-01,30.7415
2011-08-02,29.6608
2011-08-03,30.0082
2011-08-04,28.8889
2011-08-05,28.1074
2011-08-08,25.3285
2011-08-09,25.7723
2011-08-10,23.3408
2011-08-11,24.0645
2011-08-12,23.5434
2011-08-15,24.4408
2011-08-16,23.775
2011-08-17,23.9197
2011-08-18,22.4917
2011-08-19,21.797
2011-08-22,21.7777
2011-08-23,22.5882
2011-08-24,22.9645
2011-08-25,22.5689
2011-08-26,23.1382
2011-08-29,24.3153
2011-08-30,24.2092
2011-08-31,24.653
2011-09-01,23.582
2011-09-02,22.6268
2011-09-06,21.8838
2011-09-07,22.6847
2011-09-08,21.7584
2011-09-09,21.5075
2011-09-12,21.8934
2011-09-13,23.0758
2011-09-14,23.6573
2011-09-15,24.2
2011-09-16,24.1225
2011-09-19,23.6767
2011-09-20,23.7736
2011-09-21,22.0194
2011-09-22,21.341
2011-09-23,21.7577
2011-09-26,22.7366
2011-09-27,22.6687
2011-09-28,21.9612
2011-09-29,23.1727
2011-09-30,22.2811
2011-10-03,21.5348
2011-10-04,22.7656
2011-10-05,23.1145
2011-10-06,24.2291
2011-10-07,22.7753
2011-10-10,24.0546
2011-10-11,24.5392
2011-10-12,25.3436
2011-10-13,24.7912
2011-10-14,24.8493
2011-10-17,23.6379
2011-10-18,24.985
2011-10-19,22.4749
2011-10-20,22.3586
2011-10-21,23.6185
2011-10-24,24.326
2011-10-25,23.4441
2011-10-26,24.3454
2011-10-27,25.2952
2011-10-28,25.111
2011-10-31,24.7718
2011-11-01,24.0353
2011-11-02,24.7815
2011-11-03,25.2079
2011-11-04,24.8397
2011-11-07,25.237
2011-11-08,26.0608
2011-11-09,24.7137
2011-11-10,24.859
2011-11-11,25.6634
2011-11-14,25.0723
2011-11-15,25.3339
2011-11-16,24.8687
2011-11-17,24.2097
2011-11-18,24.1322
2011-11-21,23.3956
2011-11-22,23.1242
2011-11-23,22.1745
2011-11-25,22.2714
2011-11-28,22.9886
2011-11-29,23.2018
2011-11-30,24.452
2011-12-01,24.3745
2011-12-02,24.4617
2011-12-05,25.1207
2011-12-06,25.1013
2011-12-07,25.8864
2011-12-08,24.9463
2011-12-09,25.7216
2011-12-12,24.985
2011-12-13,24.3428
2011-12-14,24.3525
2011-12-15,24.3915
2011-12-16,24.0801
2011-12-19,23.4672
2011-12-20,24.4401
2011-12-21,24.5569
2011-12-22,25.2087
2011-12-23,25.5006
2011-12-27,25.3839
2011-12-28,24.9266
2011-12-29,25.3449
2011-12-30,25.1114
2012-01-03,26.0065
2012-01-04,26.0649
2012-01-05,26.6389
2012-01-06,27.1741
2012-01-09,27.6021
2012-01-10,27.7092
2012-01-11,27.9038
2012-01-12,28.4583
2012-01-13,28.6237
2012-01-17,28.5654
2012-01-18,28.5945
2012-01-19,27.8065
2012-01-20,28.7891
2012-01-23,28.6918
2012-01-24,28.7794
2012-01-25,28.3708
2012-01-26,27.1351
2012-01-27,27.3103
2012-01-30,27.0573
2012-01-31,26.9114
2012-02-01,27.2616
2012-02-02,27.534
2012-02-03,29.2464
2012-02-06,29.0032
2012-02-07,29.2951
2012-02-08,29.6453
2012-02-09,29.6064
2012-02-10,29.3048
2012-02-13,29.3145
2012-02-14,29.188
2012-02-15,28.828
2012-02-16,29.6356
2012-02-17,30.2972
2012-02-21,29.9177
2012-02-22,28.6918
2012-02-23,28.8767
2012-02-24,28.5459
2012-02-27,28.7016
2012-02-28,28.6432
2012-02-29,28.9351
2012-03-01,29.3729
2012-03-02,28.721
2012-03-05,28.3027
2012-03-06,27.8162
2012-03-07,28.6529
2012-03-08,29.2464
2012-03-09,29.5967
2012-03-12,29.6259
2012-03-13,30.9924
2012-03-14,31.3145
2012-03-15,32.7397
2012-03-16,32.4176
2012-03-19,32.4859
2012-03-20,32.4176
2012-03-21,31.9686
2012-03-22,31.4512
2012-03-23,31.5488
2012-03-26,31.949
2012-03-27,31.5781
2012-03-28,31.7831
2012-03-29,31.6171
2012-03-30,31.5879
2012-04-02,31.5586
2012-04-03,31.7929
2012-04-04,31.2853
2012-04-05,30.9534
2012-04-09,30.397
2012-04-10,29.6942
2012-04-11,29.8991
2012-04-12,30.6117
2012-04-13,29.8503
2012-04-16,30.0846
2012-04-17,31.2365
2012-04-18,30.7679
2012-04-19,30.8948
2012-04-20,30.8655
2012-04-23,30.6801
2012-04-24,31.1291
2012-04-25,31.2755
2012-04-26,31.5879
2012-04-27,31.744
2012-04-30,31.2462
2012-05-01,31.8124
2012-05-02,31.705
2012-05-03,31.5391
2012-05-04,31.0607
2012-05-07,31.0803
2012-05-08,30.7191
2012-05-09,30.6312
2012-05-10,30.8265
2012-05-11,30.7777
2012-05-14,29.8015
2012-05-15,29.4696
2012-05-16,29.3232
2012-05-17,29.1085
2012-05-18,28.5228
2012-05-21,28.718
2012-05-22,28.923
2012-05-23,29.1963
2012-05-24,29.5184
2012-05-25,29.6746
2012-05-29,30.2798
2012-05-30,29.3623
2012-05-31,29.7527
2012-06-01,28.025
2012-06-04,27.3514
2012-06-05,27.5174
2012-06-06,27.859
2012-06-07,28.2787
2012-06-08,28.7571
2012-06-11,27.8395
2012-06-12,28.5814
2012-06-13,28.395
2012-06-14,29.0033
2012-06-15,29.4154
2012-06-18,29.1112
2012-06-19,29.6705
2012-06-20,29.6313
2012-06-21,29.1799
2012-06-22,29.749
2012-06-25,28.6501
2012-06-26,29.0916
2012-06-27,29.3271
2012-06-28,29.4841
2012-06-29,30.1317
2012-07-02,30.4947
2012-07-03,30.789
2012-07-05,30.22
2012-07-06,30.0434
2012-07-09,29.8079
2012-07-10,29.4547
2012-07-11,29.7392
2012-07-12,29.3565
2012-07-13,30.1022
2012-07-16,30.22
2012-07-17,31.3876
2012-07-18,31.0049
2012-07-19,30.6026
2012-07-20,30.063
2012-07-23,29.5331
2012-07-24,29.2879
2012-07-25,29.2486
2012-07-26,29.9354
2012-07-27,30.2003
2012-07-30,29.8766
2012-07-31,29.6705
2012-08-01,29.6999
2012-08-02,29.1701
2012-08-03,30.063
2012-08-06,29.8079
2012-08-07,29.9158
2012-08-08,29.9943
2012-08-09,30.0532
2012-08-10,30.2494
2012-08-13,30.2102
2012-08-14,30.0826
2012-08-15,30.4064
2012-08-16,30.269
2012-08-17,30.897
2012-08-20,30.5437
2012-08-21,30.3671
2012-08-22,30.3475
2012-08-23,29.955
2012-08-24,30.1415
2012-08-27,30.1218
2012-08-28,30.4358
2012-08-29,30.6811
2012-08-30,30.3671
2012-08-31,30.1317
2012-09-04,30.1317
2012-09-05,29.9158
2012-09-06,31.0736
2012-09-07,31.5936
2012-09-10,31.103
2012-09-11,31.1423
2012-09-12,31.7339
2012-09-13,32.6409
2012-09-14,32.5028
2012-09-17,31.9606
2012-09-18,31.6156
2012-09-19,31.5466
2012-09-20,31.2311
2012-09-21,30.8171
2012-09-24,31.1128
2012-09-25,30.334
2012-09-26,30.2847
2012-09-27,30.679
2012-09-28,30.5903
2012-10-01,30.6002
2012-10-02,30.3734
2012-10-03,30.7678
2012-10-04,31.2311
2012-10-05,31.31
2012-10-08,31.1424
2012-10-09,30.9649
2012-10-10,30.8072
2012-10-11,31.1227
2012-10-12,30.472
2012-10-15,30.4424
2012-10-16,30.6396
2012-10-17,29.851
2012-10-18,29.22
2012-10-19,29.0229
2012-10-22,29.1116
2012-10-23,28.944
2012-10-24,28.737
2012-10-25,29.1313
2012-10-26,28.8158
2012-10-31,29.4172
2012-11-01,30.0777
2012-11-02,29.8411
2012-11-05,29.5749
2012-11-06,29.7129
2012-11-07,28.4215
2012-11-08,28.1257
2012-11-09,28.0173
2012-11-12,28.2243
2012-11-13,27.968
2012-11-14,27.4357
2012-11-15,27.6624
2012-11-16,27.6821
2012-11-19,28.1948
2012-11-20,28.5004
2012-11-21,28.244
2012-11-23,28.7764
2012-11-26,29.3679
2012-11-27,29.1806
2012-11-28,29.2595
2012-11-29,29.013
2012-11-30,29.2003
2012-12-03,28.6581
2012-12-04,28.4018
2012-12-05,28.4511
2012-12-06,28.5102
2012-12-07,28.6877
2012-12-10,28.8454
2012-12-11,29.0031
2012-12-12,28.9932
2012-12-13,28.5969
2012-12-14,28.3789
2012-12-17,29.0824
2012-12-18,30.1427
2012-12-19,29.8949
2012-12-20,30.1129
2012-12-21,29.8751
2012-12-24,29.8157
2012-12-26,29.9841
2012-12-27,29.9445
2012-12-28,29.8652
2012-12-31,29.9742
2013-01-02,30.9948
2013-01-03,31.3913
2013-01-04,32.2633
2013-01-07,32.0452
2013-01-08,31.6291
2013-01-09,31.2823
2013-01-10,31.8074
2013-01-11,31.5003
2013-01-14,31.4111
2013-01-15,31.5894
2013-01-16,32.7092
2013-01-17,33.1847
2013-01-18,33.3433
2013-01-22,33.4721
2013-01-23,33.1749
2013-01-24,33.2442
2013-01-25,33.3631
2013-01-28,33.5909
2013-01-29,33.6008
2013-01-30,33.9675
2013-01-31,34.1062
2013-02-01,34.7404
2013-02-04,33.9774
2013-02-05,34.5025
2013-02-06,34.7998
2013-02-07,34.78
2013-02-08,35.0376
2013-02-11,34.7305
2013-02-12,34.6809
2013-02-13,34.7701
2013-02-14,34.9782
2013-02-15,34.4926
2013-02-19,35.0377
2013-02-20,34.3738
2013-02-21,33.2739
2013-02-22,33.9873
2013-02-25,33.1946
2013-02-26,33.2639
2013-02-27,33.5612
2013-02-28,34.0864
2013-03-01,34.1557
2013-03-04,34.8494
2013-03-05,34.4729
2013-03-06,34.9485
2013-03-07,35.0278
2013-03-08,35.9692
2013-03-11,36.3555
2013-03-12,35.989
2013-03-13,36.2975
2013-03-14,36.5862
2013-03-15,36.6161
2013-03-18,35.969
2013-03-19,35.7599
2013-03-20,35.9092
2013-03-21,35.8694
2013-03-22,36.0884
2013-03-25,35.8694
2013-03-26,35.9092
2013-03-27,35.511
2013-03-28,35.8097
2013-04-01,35.0829
2013-04-02,35.0033
2013-04-03,34.0774
2013-04-04,34.0974
2013-04-05,34.3662
2013-04-08,34.4856
2013-04-09,34.8042
2013-04-10,35.2821
2013-04-11,35.302
2013-04-12,34.8938
2013-04-15,34.0177
2013-04-16,34.615
2013-04-17,34.2965
2013-04-18,34.1272
2013-04-19,34.7245
2013-04-22,34.5055
2013-04-23,34.9336
2013-04-24,35.6803
2013-04-25,36.0486
2013-04-26,35.7599
2013-04-29,36.0486
2013-04-30,36.0884
2013-05-01,35.6404
2013-05-02,36.0486
2013-05-03,36.8749
2013-05-06,37.2831
2013-05-07,37.6813
2013-05-08,37.8306
2013-05-09,37.5419
2013-05-10,37.761
2013-05-13,38.1293
2013-05-14,38.866
2013-05-15,39.2642
2013-05-16,39.2742
2013-05-17,39.7122
2013-05-20,39.6027
2013-05-21,39.4733
2013-05-22,38.4777
2013-05-23,38.5474
2013-05-24,38.7465
2013-05-28,39.3588
2013-05-29,39.4434
2013-05-30,40.0208
2013-05-31,39.3638
2013-06-03,38.6868
2013-06-04,38.3981
2013-06-05,37.8008
2013-06-06,38.0497
2013-06-07,38.7465
2013-06-10,38.7067
2013-06-11,37.97
2013-06-12,37.6
2013-06-13,37.94
2013-06-14,37.36
2013-06-17,37.58
2013-06-18,37.8
2013-06-19,37.46
2013-06-20,37.5
2013-06-21,38.67
2013-06-24,38.47
2013-06-25,39.71
2013-06-26,39.82
2013-06-27,40.02
2013-06-28,39.88
2013-07-01,40.24
2013-07-02,40.74
2013-07-03,40.93
2013-07-05,42.55
2013-07-08,42.4
2013-07-09,42.52
2013-07-10,41.61
2013-07-11,40.96
2013-07-12,41.64
2013-07-15,41.54
2013-07-16,40.83
2013-07-17,41.04
2013-07-18,42.15
2013-07-19,42.18
2013-07-22,42.66
2013-07-23,42.86
2013-07-24,42.84
2013-07-25,42.68
2013-07-26,42.34
2013-07-29,42.03
2013-07-30,42.14
2013-07-31,42.55
2013-08-01,43.38
2013-08-02,43.1
2013-08-05,43.2
2013-08-06,42.65
2013-08-07,42.43
2013-08-08,42.43
2013-08-09,42.31
