date,close_price
1998-01-02,10.6903
1998-01-05,10.7463
1998-01-06,10.6217
1998-01-07,10.4862
1998-01-08,10.0473
1998-01-09,9.46034
1998-01-12,9.68611
1998-01-13,9.67346
1998-01-14,9.84324
1998-01-15,9.86672
1998-01-16,9.85407
1998-01-20,10.1376
1998-01-21,9.65179
1998-01-22,9.66263
1998-01-23,9.74209
1998-01-26,9.73126
1998-01-27,9.68611
1998-01-28,9.97869
1998-01-29,9.60664
1998-01-30,9.68611
1998-02-02,9.85407
1998-02-03,9.9227
1998-02-04,9.9227
1998-02-05,10.0022
1998-02-06,10.0925
1998-02-09,10.1033
1998-02-10,10.0798
1998-02-11,10.1033
1998-02-12,10.0582
1998-02-13,10.125
1998-02-17,10.3291
1998-02-18,10.3851
1998-02-19,10.4302
1998-02-20,10.5097
1998-02-23,10.3399
1998-02-24,10.1828
1998-02-25,10.2153
1998-02-26,10.3342
1998-02-27,10.5048
1998-03-02,10.425
1998-03-03,10.4467
1998-03-04,10.4014
1998-03-05,10.2544
1998-03-06,10.4467
1998-03-09,10.3106
1998-03-10,10.3342
1998-03-11,10.2326
1998-03-12,10.6627
1998-03-13,10.8896
1998-03-16,11.0947
1998-03-17,11.0947
1998-03-18,11.2762
1998-03-19,11.1963
1998-03-20,10.1872
1998-03-23,10.0275
1998-03-24,10.0166
1998-03-25,9.97124
1998-03-26,9.96035
1998-03-27,9.98212
1998-03-30,9.93675
1998-03-31,10.0057
1998-04-01,10.0965
1998-04-02,10.1527
1998-04-03,10.2199
1998-04-06,10.0729
1998-04-07,9.846
1998-04-08,9.66451
1998-04-09,9.25615
1998-04-13,9.05288
1998-04-14,9.3469
1998-04-15,9.43764
1998-04-16,9.64273
1998-04-17,9.59736
1998-04-20,9.63003
1998-04-21,9.82423
1998-04-22,9.73348
1998-04-23,9.63003
1998-04-24,9.63003
1998-04-27,9.43764
1998-04-28,9.47213
1998-04-29,9.52839
1998-04-30,9.85689
1998-05-01,9.91497
1998-05-04,10.1182
1998-05-05,10.062
1998-05-06,9.99301
1998-05-07,10.2544
1998-05-08,10.2435
1998-05-11,10.3106
1998-05-12,10.2435
1998-05-13,10.2326
1998-05-14,10.2997
1998-05-15,10.2326
1998-05-18,9.94764
1998-05-19,10.0511
1998-05-20,10.062
1998-05-21,10.062
1998-05-22,10.0275
1998-05-26,9.80063
1998-05-27,9.699
1998-05-28,9.68002
1998-05-29,9.46474
1998-06-01,9.37352
1998-06-02,9.53224
1998-06-03,9.55596
1998-06-04,9.60157
1998-06-05,9.68002
1998-06-08,10.0795
1998-06-09,9.96644
1998-06-10,9.68002
1998-06-11,9.86245
1998-06-12,9.88617
1998-06-15,9.53224
1998-06-16,9.46474
1998-06-17,9.61251
1998-06-18,9.49758
1998-06-19,9.29325
1998-06-22,9.41913
1998-06-23,9.25859
1998-06-24,9.13271
1998-06-25,9.14548
1998-06-26,9.41913
1998-06-29,9.31515
1998-06-30,9.34981
1998-07-01,9.40636
1998-07-02,9.43008
1998-07-06,9.55596
1998-07-07,9.43008
1998-07-08,9.53224
1998-07-09,9.46474
1998-07-10,9.5213
1998-07-13,9.45197
1998-07-14,9.40636
1998-07-15,9.37352
1998-07-16,9.98833
1998-07-17,9.69279
1998-07-20,9.81684
1998-07-21,9.86245
1998-07-22,9.82961
1998-07-23,9.49758
1998-07-24,9.32792
1998-07-27,9.28231
1998-07-28,9.41913
1998-07-29,9.45197
1998-07-30,9.89711
1998-07-31,10.1252
1998-08-03,9.96644
1998-08-04,9.47569
1998-08-05,9.55596
1998-08-06,9.56691
1998-08-07,9.49758
1998-08-10,9.36075
1998-08-11,9.16737
1998-08-12,9.21298
1998-08-13,9.25859
1998-08-14,9.15643
1998-08-17,9.13271
1998-08-18,9.11082
1998-08-19,9.07615
1998-08-20,8.96305
1998-08-21,8.68939
1998-08-24,8.75689
1998-08-25,8.42669
1998-08-26,8.02715
1998-08-27,7.81005
1998-08-28,7.57389
1998-08-31,7.47107
1998-09-01,8.03291
1998-09-02,7.8493
1998-09-03,8.1137
1998-09-04,7.91908
1998-09-08,8.17062
1998-09-09,8.17062
1998-09-10,7.79239
1998-09-11,7.78137
1998-09-14,7.82727
1998-09-15,6.54201
1998-09-16,6.60994
1998-09-17,6.27761
1998-09-18,5.94527
1998-09-21,5.8296
1998-09-22,5.80757
1998-09-23,5.77268
1998-09-24,5.54317
1998-09-25,5.70291
1998-09-28,5.97832
1998-09-29,5.97832
1998-09-30,5.46238
1998-10-01,5.53215
1998-10-02,5.58907
1998-10-05,5.57805
1998-10-06,5.38159
1998-10-07,5.39445
1998-10-08,5.30264
1998-10-09,5.35956
1998-10-12,5.58907
1998-10-13,5.77268
1998-10-14,6.00219
1998-10-15,5.97832
1998-10-16,6.28862
1998-10-19,6.36941
1998-10-20,6.2317
1998-10-21,6.28862
1998-10-22,6.26659
1998-10-23,6.094
1998-10-26,6.2317
1998-10-27,6.12888
1998-10-28,5.8755
1998-10-29,5.85347
1998-10-30,6.26659
1998-11-02,6.58791
1998-11-03,6.67971
1998-11-04,6.74765
1998-11-05,6.71276
1998-11-06,6.85047
1998-11-09,6.82844
1998-11-10,6.74765
1998-11-11,6.75866
1998-11-12,6.79355
1998-11-13,6.80457
1998-11-16,6.95513
1998-11-17,7.06896
1998-11-18,7.21769
1998-11-19,7.20667
1998-11-20,7.34438
1998-11-23,7.06896
1998-11-24,7.10385
1998-11-25,6.98818
1998-11-27,6.9131
1998-11-30,6.86687
1998-12-01,7.00557
1998-12-02,6.9353
1998-12-03,6.65788
1998-12-04,6.55432
1998-12-07,6.57651
1998-12-08,6.58946
1998-12-09,6.58946
1998-12-10,6.54322
1998-12-11,6.53028
1998-12-14,6.39157
1998-12-15,6.32314
1998-12-16,6.21957
1998-12-17,6.288
1998-12-18,6.33424
1998-12-21,6.21957
1998-12-22,5.96435
1998-12-23,6.39157
1998-12-24,6.2991
1998-12-28,6.31204
1998-12-29,6.35828
1998-12-30,6.46185
1998-12-31,6.55432
1999-01-04,6.68193
1999-01-05,6.51918
1999-01-06,6.80769
1999-01-07,6.82063
1999-01-08,7.02777
1999-01-11,6.99263
1999-01-12,6.78549
1999-01-13,6.62275
1999-01-14,6.53028
1999-01-15,6.64679
1999-01-19,6.76145
1999-01-20,6.84283
1999-01-21,7.02777
1999-01-22,6.76145
1999-01-25,6.60055
1999-01-26,6.66898
1999-01-27,6.69302
1999-01-28,6.83173
1999-01-29,7.01667
1999-02-01,7.15538
1999-02-02,7.37546
1999-02-03,7.43279
1999-02-04,7.49012
1999-02-05,7.5604
1999-02-08,7.86
1999-02-09,7.39765
1999-02-10,7.43279
1999-02-11,7.65287
1999-02-12,7.39765
1999-02-16,7.43279
1999-02-17,7.44388
1999-02-18,7.45498
1999-02-19,7.58259
1999-02-22,7.84891
1999-02-23,7.82486
1999-02-24,7.73239
1999-02-25,7.65707
1999-02-26,7.63287
1999-03-01,7.76132
1999-03-02,7.61053
1999-03-03,7.55095
1999-03-04,7.69058
1999-03-05,7.72595
1999-03-08,7.56399
1999-03-09,7.50441
1999-03-10,7.55095
1999-03-11,7.61053
1999-03-12,7.23819
1999-03-15,7.37782
1999-03-16,7.30707
1999-03-17,7.33128
1999-03-18,7.35362
1999-03-19,7.31824
1999-03-22,7.07436
1999-03-23,6.97011
1999-03-24,6.78394
1999-03-25,6.89937
1999-03-26,6.99245
1999-03-29,7.05202
1999-03-30,7.01665
1999-03-31,6.62012
1999-04-01,6.78394
1999-04-05,6.95894
1999-04-06,7.20282
1999-04-07,7.07436
1999-04-08,6.95894
1999-04-09,6.98128
1999-04-12,7.09857
1999-04-13,7.35362
1999-04-14,7.90095
1999-04-15,8.92487
1999-04-16,8.9137
1999-04-19,9.12221
1999-04-20,9.28603
1999-04-21,9.30837
1999-04-22,9.93762
1999-04-23,9.92459
1999-04-26,9.40146
1999-04-27,9.52991
1999-04-28,9.5988
1999-04-29,9.98416
1999-04-30,9.94879
1999-05-03,9.97113
1999-05-04,10.1815
1999-05-05,10.0996
1999-05-06,9.92459
1999-05-07,9.87805
1999-05-10,9.94879
1999-05-11,10.1703
1999-05-12,10.0065
1999-05-13,9.86688
1999-05-14,9.70491
1999-05-17,9.4722
1999-05-18,9.41263
1999-05-19,9.39029
1999-05-20,9.51874
1999-05-21,9.5988
1999-05-24,9.28603
1999-05-25,9.39029
1999-05-26,9.5988
1999-05-27,9.39379
1999-05-28,9.4986
1999-06-01,9.68576
1999-06-02,9.80368
1999-06-03,9.69699
1999-06-04,9.83737
1999-06-07,9.8617
1999-06-08,9.35823
1999-06-09,9.58095
1999-06-10,9.75689
1999-06-11,9.46304
1999-06-14,9.63897
1999-06-15,9.58095
1999-06-16,9.67453
1999-06-17,10.0601
1999-06-18,10.5392
1999-06-21,10.7039
1999-06-22,10.528
1999-06-23,10.4812
1999-06-24,10.8668
1999-06-25,10.8331
1999-06-28,10.6684
1999-06-29,10.6684
1999-06-30,10.6796
1999-07-01,10.3408
1999-07-02,10.3989
1999-07-06,10.3184
1999-07-07,10.2117
1999-07-08,10.6216
1999-07-09,10.6684
1999-07-12,10.6927
1999-07-13,10.5991
1999-07-14,10.6328
1999-07-15,11.2879
1999-07-16,11.5218
1999-07-19,11.7558
1999-07-20,11.8962
1999-07-21,11.9561
1999-07-22,12.0609
1999-07-23,11.9317
1999-07-26,11.9561
1999-07-27,11.8625
1999-07-28,12.1189
1999-07-29,12.0497
1999-07-30,12.0833
1999-08-02,12.0964
1999-08-03,12.1432
1999-08-04,11.9561
1999-08-05,11.5218
1999-08-06,11.4283
1999-08-09,11.4058
1999-08-10,11.2299
1999-08-11,11.2074
1999-08-12,11.2542
1999-08-13,11.2186
1999-08-16,11.2186
1999-08-17,11.3347
1999-08-18,11.301
1999-08-19,11.1606
1999-08-20,11.0783
1999-08-23,11.2767
1999-08-24,11.3347
1999-08-25,11.4283
1999-08-26,11.5218
1999-08-27,11.535
1999-08-30,10.9868
1999-08-31,11.1278
1999-09-01,10.9041
1999-09-02,10.8214
1999-09-03,11.0921
1999-09-07,11.1748
1999-09-08,11.0695
1999-09-09,10.3044
1999-09-10,9.78737
1999-09-13,9.2008
1999-09-14,9.45837
1999-09-15,9.89453
1999-09-16,9.67081
1999-09-17,9.95281
1999-09-20,9.78737
1999-09-21,9.68209
1999-09-22,9.64637
1999-09-23,9.44709
1999-09-24,9.2948
1999-09-27,9.45837
1999-09-28,9.16508
1999-09-29,9.41137
1999-09-30,9.36437
1999-10-01,9.37753
1999-10-04,9.57681
1999-10-05,9.25908
1999-10-06,9.54109
1999-10-07,9.69337
1999-10-08,9.75353
1999-10-11,9.87009
1999-10-12,9.78737
1999-10-13,9.83437
1999-10-14,9.65953
1999-10-15,9.40009
1999-10-18,9.58809
1999-10-19,9.42453
1999-10-20,9.3418
1999-10-21,9.31736
1999-10-22,9.45837
1999-10-25,9.38881
1999-10-26,9.43581
1999-10-27,9.40009
1999-10-28,9.28352
1999-10-29,9.51853
1999-11-01,9.43581
1999-11-02,9.56553
1999-11-03,8.6368
1999-11-04,8.37736
1999-11-05,8.27207
1999-11-08,8.10851
1999-11-09,7.81335
1999-11-10,7.96751
1999-11-11,7.94307
1999-11-12,7.88479
1999-11-15,8.14235
1999-11-16,8.23635
1999-11-17,7.95435
1999-11-18,8.00135
1999-11-19,8.03707
1999-11-22,8.13107
1999-11-23,8.10851
1999-11-24,7.92051
1999-11-26,7.92051
1999-11-29,7.91673
1999-11-30,7.66868
1999-12-01,7.4907
1999-12-02,7.51531
1999-12-03,7.39602
1999-12-06,7.53803
1999-12-07,7.59863
1999-12-08,7.56265
1999-12-09,7.71602
1999-12-10,7.77472
1999-12-13,7.84667
1999-12-14,7.82206
1999-12-15,7.94135
1999-12-16,8.14206
1999-12-17,7.95271
1999-12-20,7.84667
1999-12-21,8.21401
1999-12-22,8.60408
1999-12-23,8.8881
1999-12-27,8.79343
1999-12-28,8.99414
1999-12-29,8.95816
1999-12-30,9.01875
1999-12-31,9.14751
2000-01-03,8.93544
2000-01-04,8.71011
2000-01-05,8.72147
2000-01-06,9.04147
2000-01-07,9.2668
2000-01-10,9.44479
2000-01-11,8.8294
2000-01-12,8.91082
2000-01-13,9.07745
2000-01-14,8.84076
2000-01-18,8.73473
2000-01-19,8.54538
2000-01-20,8.35603
2000-01-21,8.1307
2000-01-24,7.88265
2000-01-25,7.6933
2000-01-26,7.6933
2000-01-27,7.56265
2000-01-28,7.30135
2000-01-31,7.23129
2000-02-01,7.0533
2000-02-02,6.92265
2000-02-03,7.07791
2000-02-04,7.12525
2000-02-07,7.01732
2000-02-08,6.98324
2000-02-09,6.92265
2000-02-10,6.92265
2000-02-11,6.63862
2000-02-14,6.71057
2000-02-15,6.80525
2000-02-16,7.01732
2000-02-17,6.80525
2000-02-18,7.72738
2000-02-22,7.70466
2000-02-23,7.24265
2000-02-24,6.62726
2000-02-25,6.53258
2000-02-28,6.4235
2000-02-29,6.35092
2000-03-01,6.47125
2000-03-02,6.30317
2000-03-03,6.61451
2000-03-06,6.328
2000-03-07,5.96891
2000-03-08,5.92116
2000-03-09,6.11216
2000-03-10,6.11216
2000-03-13,6.01666
2000-03-14,6.0052
2000-03-15,6.48271
2000-03-16,7.10348
2000-03-17,6.80551
2000-03-20,6.87619
2000-03-21,7.07865
2000-03-22,7.01944
2000-03-23,7.29449
2000-03-24,7.29449
2000-03-27,7.36516
2000-03-28,7.1264
2000-03-29,7.21044
2000-03-30,6.91248
2000-03-31,7.16269
2000-04-03,7.11494
2000-04-04,7.37853
2000-04-05,7.22191
2000-04-06,7.01944
2000-04-07,6.96023
2000-04-10,6.90102
2000-04-11,6.91248
2000-04-12,6.82843
2000-04-13,7.34224
2000-04-14,6.97169
2000-04-17,7.13977
2000-04-18,7.17415
2000-04-19,6.90102
2000-04-20,6.87619
2000-04-24,6.9354
2000-04-25,7.05573
2000-04-26,6.91248
2000-04-27,6.85327
2000-04-28,6.78068
2000-05-01,6.78068
2000-05-02,6.60114
2000-05-03,6.47125
2000-05-04,6.45788
2000-05-05,6.51901
2000-05-08,6.49418
2000-05-09,6.41013
2000-05-10,6.38721
2000-05-11,6.55339
2000-05-12,6.60114
2000-05-15,6.53047
2000-05-16,6.57822
2000-05-17,6.54193
2000-05-18,6.54193
2000-05-19,6.50564
2000-05-22,6.38721
2000-05-23,6.36238
2000-05-24,6.49418
2000-05-25,6.30317
2000-05-26,6.24396
2000-05-30,6.39829
2000-05-31,6.27684
2000-06-01,6.44649
2000-06-02,6.44649
2000-06-05,6.42143
2000-06-06,6.36167
2000-06-07,6.25371
2000-06-08,6.08407
2000-06-09,6.18046
2000-06-12,6.19395
2000-06-13,6.13226
2000-06-14,6.26528
2000-06-15,6.36167
2000-06-16,6.27684
2000-06-19,6.0725
2000-06-20,6.01274
2000-06-21,5.97611
2000-06-22,5.84309
2000-06-23,5.77177
2000-06-26,5.7949
2000-06-27,5.77177
2000-06-28,5.66381
2000-06-29,5.62718
2000-06-30,5.38621
2000-07-03,5.45754
2000-07-05,5.37464
2000-07-06,5.49417
2000-07-07,5.27825
2000-07-10,5.39778
2000-07-11,5.31295
2000-07-12,5.50573
2000-07-13,5.68694
2000-07-14,5.89129
2000-07-17,6.95157
2000-07-18,6.86867
2000-07-19,6.68746
2000-07-20,6.38673
2000-07-21,6.3019
2000-07-24,6.36167
2000-07-25,6.22865
2000-07-26,6.06093
2000-07-27,6.15732
2000-07-28,6.10913
2000-07-31,6.16889
2000-08-01,6.36167
2000-08-02,6.31347
2000-08-03,6.25371
2000-08-04,6.27684
2000-08-07,6.39829
2000-08-08,6.63927
2000-08-09,6.53131
2000-08-10,6.53131
2000-08-11,6.69903
2000-08-14,6.71059
2000-08-15,6.54288
2000-08-16,6.5795
2000-08-17,6.6624
2000-08-18,6.72409
2000-08-21,6.78385
2000-08-22,7.09615
2000-08-23,6.83204
2000-08-24,6.90337
2000-08-25,6.90337
2000-08-28,6.85518
2000-08-29,6.92843
2000-08-30,6.87789
2000-08-31,6.90122
2000-09-01,6.80402
2000-09-05,7.04702
2000-09-06,6.98676
2000-09-07,6.88956
2000-09-08,6.73209
2000-09-11,6.81569
2000-09-12,6.75542
2000-09-13,6.75542
2000-09-14,6.76709
2000-09-15,6.45216
2000-09-18,6.29469
2000-09-19,6.23248
2000-09-20,6.24609
2000-09-21,6.14889
2000-09-22,6.06335
2000-09-25,6.11195
2000-09-26,6.11195
2000-09-27,5.84368
2000-09-28,5.92922
2000-09-29,5.84368
2000-10-02,6.05169
2000-10-03,6.32968
2000-10-04,6.46382
2000-10-05,6.23248
2000-10-06,5.94088
2000-10-09,5.95449
2000-10-10,5.84368
2000-10-11,5.71149
2000-10-12,5.62595
2000-10-13,5.64928
2000-10-16,5.84368
2000-10-17,5.78342
2000-10-18,5.85729
2000-10-19,6.05169
2000-10-20,6.05169
2000-10-23,6.13528
2000-10-24,6.16055
2000-10-25,6.13528
2000-10-26,6.07502
2000-10-27,6.18388
2000-10-30,6.65822
2000-10-31,6.60962
2000-11-01,6.64656
2000-11-02,6.71848
2000-11-03,6.60962
2000-11-06,6.84096
2000-11-07,6.62128
2000-11-08,6.57268
2000-11-09,6.58629
2000-11-10,6.34329
2000-11-13,6.36662
2000-11-14,6.45216
2000-11-15,6.56102
2000-11-16,6.39189
2000-11-17,6.42688
2000-11-20,6.32968
2000-11-21,6.46382
2000-11-22,6.35496
2000-11-24,6.36662
2000-11-27,6.47548
2000-11-28,6.44049
2000-11-29,6.70719
2000-11-30,6.87786
2000-12-01,7.18585
2000-12-04,7.3938
2000-12-05,7.2349
2000-12-06,6.49924
2000-12-07,6.47374
2000-12-08,6.74446
2000-12-11,6.77977
2000-12-12,7.03872
2000-12-13,6.85432
2000-12-14,6.68169
2000-12-15,6.53456
2000-12-18,6.96418
2000-12-19,6.62087
2000-12-20,6.62087
2000-12-21,6.68169
2000-12-22,6.96418
2000-12-26,7.12308
2000-12-27,7.35652
2000-12-28,7.3683
2000-12-29,7.43107
2001-01-02,7.41734
2001-01-03,7.51543
2001-01-04,7.78615
2001-01-05,7.5782
2001-01-08,7.41734
2001-01-09,7.43107
2001-01-10,7.3683
2001-01-11,7.30748
2001-01-12,7.41734
2001-01-16,7.5527
2001-01-17,7.3683
2001-01-18,7.44284
2001-01-19,7.22117
2001-01-22,7.24667
2001-01-23,7.40557
2001-01-24,7.31925
2001-01-25,7.31925
2001-01-26,7.20939
2001-01-29,7.3016
2001-01-30,7.45265
2001-01-31,7.36633
2001-02-01,7.3271
2001-02-02,7.28394
2001-02-05,7.09169
2001-02-06,7.19959
2001-02-07,7.37614
2001-02-08,7.22901
2001-02-09,7.11915
2001-02-12,7.20939
2001-02-13,7.30944
2001-02-14,7.26628
2001-02-15,7.54093
2001-02-16,7.34868
2001-02-20,7.28983
2001-02-21,7.2859
2001-02-22,7.18978
2001-02-23,7.14073
2001-02-26,7.5115
2001-02-27,7.46408
2001-02-28,7.33556
2001-03-01,7.43047
2001-03-02,7.6104
2001-03-05,7.92873
2001-03-06,7.97223
2001-03-07,8.427
2001-03-08,8.42897
2001-03-09,8.3222
2001-03-12,8.10866
2001-03-13,8.11657
2001-03-14,7.86348
2001-03-15,7.91884
2001-03-16,7.66378
2001-03-19,7.92675
2001-03-20,7.64599
2001-03-21,7.39092
2001-03-22,7.37708
2001-03-23,7.2189
2001-03-26,7.5234
2001-03-27,7.60051
2001-03-28,7.49572
2001-03-29,7.45419
2001-03-30,7.42256
2001-04-02,7.34545
2001-04-03,7.13388
2001-04-04,7.26636
2001-04-05,7.34149
2001-04-06,7.1754
2001-04-09,7.28415
2001-04-10,7.5926
2001-04-11,7.3059
2001-04-12,7.61237
2001-04-16,7.53131
2001-04-17,7.58469
2001-04-18,8.08889
2001-04-19,8.02759
2001-04-20,7.88523
2001-04-23,7.76462
2001-04-24,7.8101
2001-04-25,7.9663
2001-04-26,8.01573
2001-04-27,8.16007
2001-04-30,8.21741
2001-05-01,8.31627
2001-05-02,8.32616
2001-05-03,8.33604
2001-05-04,8.52388
2001-05-07,8.54761
2001-05-08,8.47643
2001-05-09,8.5219
2001-05-10,8.67613
2001-05-11,8.64251
2001-05-14,8.51399
2001-05-15,8.52783
2001-05-16,8.91933
2001-05-17,8.95492
2001-05-18,8.85408
2001-05-21,8.84617
2001-05-22,8.86397
2001-05-23,8.59902
2001-05-24,8.59111
2001-05-25,8.60495
2001-05-29,8.46654
2001-05-30,8.30525
2001-05-31,8.42672
2001-06-01,8.66168
2001-06-04,8.60592
2001-06-05,8.65371
2001-06-06,8.56411
2001-06-07,8.58203
2001-06-08,8.45459
2001-06-11,8.10414
2001-06-12,7.89507
2001-06-13,7.71387
2001-06-14,7.74971
2001-06-15,7.81343
2001-06-18,7.90702
2001-06-19,7.9787
2001-06-20,8.09419
2001-06-21,8.01255
2001-06-22,7.82737
2001-06-25,7.65015
2001-06-26,7.78754
2001-06-27,7.73577
2001-06-28,7.7756
2001-06-29,7.71984
2001-07-02,8.00458
2001-07-03,8.0225
2001-07-05,8.00259
2001-07-06,7.73378
2001-07-09,7.98467
2001-07-10,7.93688
2001-07-11,7.85126
2001-07-12,8.31123
2001-07-13,8.29729
2001-07-16,8.21366
2001-07-17,8.52428
2001-07-18,8.42473
2001-07-19,8.38291
2001-07-20,8.42273
2001-07-23,8.25747
2001-07-24,8.03047
2001-07-25,8.07627
2001-07-26,8.12804
2001-07-27,8.16587
2001-07-30,8.04441
2001-07-31,8.1141
2001-08-01,8.07627
2001-08-02,8.21366
2001-08-03,8.25149
2001-08-06,8.10414
2001-08-07,8.01852
2001-08-08,7.94485
2001-08-09,7.98268
2001-08-10,8.16985
2001-08-13,8.33512
2001-08-14,8.31521
2001-08-15,8.22361
2001-08-16,8.25946
2001-08-17,8.17583
2001-08-20,7.96874
2001-08-21,7.86719
2001-08-22,7.93887
2001-08-23,7.87516
2001-08-24,7.94485
2001-08-27,7.89308
2001-08-28,7.90104
2001-08-29,7.86492
2001-08-30,7.57801
2001-08-31,7.57601
2001-09-04,7.67633
2001-09-05,7.54391
2001-09-06,7.42152
2001-09-07,7.15267
2001-09-10,7.1005
2001-09-17,6.47452
2001-09-18,6.30197
2001-09-19,5.88866
2001-09-20,5.87462
2001-09-21,6.02309
2001-09-24,6.42436
2001-09-25,6.53471
2001-09-26,6.34009
2001-09-27,6.46047
2001-09-28,6.62901
2001-10-01,6.44843
2001-10-02,6.70324
2001-10-03,6.75741
2001-10-04,6.80757
2001-10-05,6.93197
2001-10-08,6.7213
2001-10-09,6.61697
2001-10-10,6.82162
2001-10-11,7.12056
2001-10-12,6.80356
2001-10-15,6.76945
2001-10-16,6.81961
2001-10-17,6.57283
2001-10-18,6.41031
2001-10-19,6.25181
2001-10-22,6.42636
2001-10-23,6.42837
2001-10-24,6.49659
2001-10-25,6.45646
2001-10-26,6.58286
2001-10-29,6.32404
2001-10-30,6.21971
2001-10-31,6.28993
2001-11-01,6.44242
2001-11-02,6.58687
2001-11-05,6.79754
2001-11-06,6.92194
2001-11-07,6.94601
2001-11-08,6.97209
2001-11-09,6.8798
2001-11-12,6.77346
2001-11-13,7.07843
2001-11-14,7.08445
2001-11-15,7.11856
2001-11-16,7.17273
2001-11-19,7.20884
2001-11-20,7.11856
2001-11-21,7.04432
2001-11-23,7.15869
2001-11-26,7.2891
2001-11-27,7.33324
2001-11-28,7.22583
2001-11-29,7.1004
2001-11-30,7.3209
2001-12-03,7.29258
2001-12-04,7.4888
2001-12-05,7.71941
2001-12-06,7.96216
2001-12-07,7.84686
2001-12-10,7.71537
2001-12-11,7.70728
2001-12-12,7.82056
2001-12-13,7.74167
2001-12-14,7.71537
2001-12-17,7.6648
2001-12-18,7.92171
2001-12-19,7.90552
2001-12-20,7.73762
2001-12-21,7.72144
2001-12-24,7.83472
2001-12-26,7.80235
2001-12-27,7.88934
2001-12-28,7.91968
2001-12-31,7.79629
2002-01-02,7.88125
2002-01-03,7.96216
2002-01-04,8.04106
2002-01-07,8.00869
2002-01-08,7.84483
2002-01-09,7.86709
2002-01-10,7.72751
2002-01-11,7.60613
2002-01-14,7.47262
2002-01-15,7.26426
2002-01-16,7.1085
2002-01-17,7.27033
2002-01-18,7.12063
2002-01-22,7.07815
2002-01-23,7.14086
2002-01-24,7.28044
2002-01-25,7.4443
2002-01-28,7.52724
2002-01-29,7.36338
2002-01-30,7.42407
2002-01-31,7.62232
2002-02-01,7.4969
2002-02-04,7.53533
2002-02-05,7.67693
2002-02-06,7.60613
2002-02-07,7.68098
2002-02-08,7.77808
2002-02-11,7.90148
2002-02-12,7.88125
2002-02-13,7.89945
2002-02-14,7.87922
2002-02-15,7.77808
2002-02-19,7.63648
2002-02-20,7.73762
2002-02-21,8.0269
2002-02-22,8.11793
2002-02-25,8.43148
2002-02-26,8.61556
2002-02-27,8.57482
2002-02-28,8.47092
2002-03-01,8.57889
2002-03-04,9.21655
2002-03-05,8.95171
2002-03-06,9.19618
2002-03-07,8.98227
2002-03-08,8.99042
2002-03-11,9.54048
2002-03-12,9.47325
2002-03-13,9.29804
2002-03-14,9.4488
2002-03-15,9.54455
2002-03-18,9.52418
2002-03-19,9.76865
2002-03-20,9.67901
2002-03-21,9.26749
2002-03-22,9.32249
2002-03-25,9.16358
2002-03-26,9.30823
2002-03-27,9.44473
2002-03-28,9.61993
2002-04-01,9.57104
2002-04-02,9.43047
2002-04-03,9.29397
2002-04-04,9.57715
2002-04-05,9.64438
2002-04-08,9.73605
2002-04-09,9.91126
2002-04-10,10.2209
2002-04-11,9.92552
2002-04-12,9.96626
2002-04-15,9.80125
2002-04-16,10.1557
2002-04-17,9.69735
2002-04-18,9.5527
2002-04-19,9.41213
2002-04-22,8.99449
2002-04-23,8.82947
2002-04-24,8.84985
2002-04-25,8.8417
2002-04-26,8.85392
2002-04-29,8.52389
2002-04-30,8.67464
2002-05-01,8.48314
2002-05-02,8.57482
2002-05-03,8.5137
2002-05-06,8.17144
2002-05-07,8.36498
2002-05-08,8.60538
2002-05-09,8.39554
2002-05-10,8.32423
2002-05-13,8.18978
2002-05-14,8.50963
2002-05-15,8.75613
2002-05-16,8.6176
2002-05-17,8.57278
2002-05-20,8.47295
2002-05-21,8.23052
2002-05-22,8.22237
2002-05-23,8.25293
2002-05-24,8.22848
2002-05-28,8.09402
2002-05-29,7.78411
2002-05-30,7.53983
2002-05-31,7.55625
2002-06-03,7.30786
2002-06-04,7.10669
2002-06-05,7.23602
2002-06-06,6.97942
2002-06-07,7.0369
2002-06-10,7.01637
2002-06-11,6.95889
2002-06-12,6.95068
2002-06-13,6.79057
2002-06-14,6.65098
2002-06-17,6.77209
2002-06-18,6.75156
2002-06-19,6.63866
2002-06-20,6.45391
2002-06-21,6.28969
2002-06-24,6.36769
2002-06-25,6.56271
2002-06-26,6.56065
2002-06-27,6.65508
2002-06-28,6.79262
2002-07-01,6.64482
2002-07-02,6.49291
2002-07-03,6.47033
2002-07-05,6.80288
2002-07-08,6.69819
2002-07-09,6.52371
2002-07-10,6.2979
2002-07-11,6.2589
2002-07-12,6.15831
2002-07-15,6.14394
2002-07-16,5.86271
2002-07-17,5.98998
2002-07-18,5.86477
2002-07-19,5.94277
2002-07-22,5.93045
2002-07-23,5.73134
2002-07-24,6.14394
2002-07-25,6.146
2002-07-26,6.17473
2002-07-29,6.72693
2002-07-30,6.70435
2002-07-31,6.62018
2002-08-01,6.41901
2002-08-02,6.09673
2002-08-05,5.86477
2002-08-06,6.20142
2002-08-07,6.31227
2002-08-08,6.46212
2002-08-09,6.47649
2002-08-12,6.37796
2002-08-13,6.25069
2002-08-14,6.35538
2002-08-15,6.38001
2002-08-16,6.2589
2002-08-19,6.43954
2002-08-20,6.2589
2002-08-21,6.36359
2002-08-22,6.48265
2002-08-23,6.32048
2002-08-26,6.4457
2002-08-27,6.42928
2002-08-28,6.28197
2002-08-29,6.17212
2002-08-30,6.17626
2002-09-03,5.83014
2002-09-04,5.95035
2002-09-05,5.84051
2002-09-06,5.93999
2002-09-09,6.05191
2002-09-10,6.083
2002-09-11,6.0374
2002-09-12,5.92963
2002-09-13,5.79284
2002-09-16,5.73688
2002-09-17,5.53791
2002-09-18,5.22495
2002-09-19,5.09438
2002-09-20,5.11511
2002-09-23,5.06744
2002-09-24,4.8664
2002-09-25,5.01355
2002-09-26,5.19179
2002-09-27,4.99283
2002-09-30,4.89334
2002-10-01,5.07158
2002-10-02,4.78142
2002-10-03,4.83324
2002-10-04,4.59282
2002-10-07,4.4353
2002-10-08,4.34826
2002-10-09,4.07882
2002-10-10,4.41043
2002-10-11,4.80215
2002-10-14,4.82288
2002-10-15,5.26433
2002-10-16,4.55966
2002-10-17,5.03635
2002-10-18,5.08195
2002-10-21,5.35138
2002-10-22,5.17936
2002-10-23,5.36589
2002-10-24,5.17314
2002-10-25,5.22081
2002-10-28,5.07573
2002-10-29,5.00733
2002-10-30,4.97625
2002-10-31,4.96381
2002-11-01,5.02599
2002-11-04,5.22081
2002-11-05,5.27884
2002-11-06,5.43014
2002-11-07,5.26433
2002-11-08,5.26433
2002-11-11,5.07573
2002-11-12,5.23117
2002-11-13,5.33895
2002-11-14,5.54828
2002-11-15,5.78869
2002-11-18,5.71201
2002-11-19,5.70994
2002-11-20,5.82185
2002-11-21,6.03118
2002-11-22,6.07056
2002-11-25,6.24259
2002-11-26,6.19239
2002-11-27,6.57549
2002-11-29,6.58177
2002-12-02,6.48966
2002-12-03,6.15889
2002-12-04,6.22379
2002-12-05,6.23635
2002-12-06,6.20914
2002-12-09,6.06259
2002-12-10,6.1254
2002-12-11,6.07306
2002-12-12,6.16727
2002-12-13,6.05213
2002-12-16,6.18611
2002-12-17,6.17773
2002-12-18,6.03119
2002-12-19,5.95374
2002-12-20,5.98514
2002-12-23,5.97676
2002-12-24,5.93699
2002-12-26,5.94117
2002-12-27,5.82185
2002-12-30,5.85325
2002-12-31,5.88884
2003-01-02,6.06887
2003-01-03,6.04166
2003-01-06,6.16727
2003-01-07,6.11284
2003-01-08,5.94536
2003-01-09,6.00817
2003-01-10,5.99979
2003-01-13,5.98095
2003-01-14,5.97886
2003-01-15,5.88256
2003-01-16,5.84488
2003-01-17,5.78626
2003-01-21,5.56017
2003-01-22,5.33617
2003-01-23,5.4534
2003-01-24,5.30477
2003-01-27,5.12683
2003-01-28,5.15195
2003-01-29,5.27965
2003-01-30,5.11427
2003-01-31,5.17079
2003-02-03,5.26081
2003-02-04,5.23359
2003-02-05,5.25453
2003-02-06,5.22522
2003-02-07,5.17079
2003-02-10,5.19591
2003-02-11,5.12683
2003-02-12,5.08018
2003-02-13,4.97421
2003-02-14,5.08653
2003-02-18,5.23489
2003-02-19,5.19462
2003-02-20,5.17979
2003-02-21,5.27304
2003-02-24,5.06958
2003-02-25,5.08018
2003-02-26,5.01447
2003-02-27,5.09289
2003-02-28,5.06958
2003-03-03,5.09925
2003-03-04,4.90215
2003-03-05,4.90851
2003-03-06,4.88731
2003-03-07,4.93818
2003-03-10,4.80254
2003-03-11,4.70504
2003-03-12,4.69233
2003-03-13,4.89155
2003-03-14,4.9191
2003-03-17,5.22429
2003-03-18,5.29847
2003-03-19,5.28364
2003-03-20,5.45955
2003-03-21,5.84528
2003-03-24,5.59519
2003-03-25,5.26244
2003-03-26,5.24761
2003-03-27,5.27304
2003-03-28,5.21158
2003-03-31,5.2137
2003-04-01,5.19886
2003-04-02,5.45531
2003-04-03,5.30695
2003-04-04,5.28576
2003-04-07,5.44683
2003-04-08,5.44683
2003-04-09,5.42988
2003-04-10,5.38113
2003-04-11,5.33662
2003-04-14,5.39808
2003-04-15,5.42564
2003-04-16,5.29211
2003-04-17,5.3557
2003-04-21,5.47014
2003-04-22,5.67149
2003-04-23,5.67149
2003-04-24,5.61638
2003-04-25,5.53796
2003-04-28,5.68208
2003-04-29,5.71811
2003-04-30,5.74354
2003-05-01,5.73083
2003-05-02,5.9131
2003-05-05,5.94913
2003-05-06,6.07417
2003-05-07,6.06569
2003-05-08,6.08477
2003-05-09,6.27763
2003-05-12,6.48321
2003-05-13,6.44466
2003-05-14,6.4361
2003-05-15,6.51958
2003-05-16,6.51102
2003-05-19,6.3248
2003-05-20,6.2135
2003-05-21,6.22849
2003-05-22,6.61589
2003-05-23,6.76572
2003-05-27,7.22804
2003-05-28,7.2259
2003-05-29,7.15955
2003-05-30,7.34148
2003-06-02,7.56622
2003-06-03,7.5812
2003-06-04,8.29395
2003-06-05,8.49086
2003-06-06,8.55935
2003-06-09,8.34318
2003-06-10,8.29823
2003-06-11,8.36458
2003-06-12,8.61928
2003-06-13,8.49514
2003-06-16,8.64711
2003-06-17,8.91894
2003-06-18,8.67921
2003-06-19,8.40953
2003-06-20,8.46304
2003-06-23,8.10987
2003-06-24,7.97717
2003-06-25,7.90012
2003-06-26,7.90226
2003-06-27,7.70534
2003-06-30,7.6818
2003-07-01,7.61117
2003-07-02,7.85517
2003-07-03,8.005
2003-07-07,8.24044
2003-07-08,8.30037
2003-07-09,8.15696
2003-07-10,7.91082
2003-07-11,8.07991
2003-07-14,8.127
2003-07-15,7.92366
2003-07-16,7.86159
2003-07-17,8.15482
2003-07-18,8.25114
2003-07-21,8.12486
2003-07-22,8.13342
2003-07-23,8.18051
2003-07-24,8.13984
2003-07-25,9.67235
2003-07-28,9.49256
2003-07-29,9.40694
2003-07-30,9.44119
2003-07-31,9.92491
2003-08-01,10.0705
2003-08-04,10.0576
2003-08-05,9.89923
2003-08-06,9.92063
2003-08-07,10.0469
2003-08-08,10.0619
2003-08-11,10.1026
2003-08-12,10.3466
2003-08-13,10.3378
2003-08-14,10.3551
2003-08-15,10.5317
2003-08-18,10.6824
2003-08-19,10.7643
2003-08-20,10.704
2003-08-21,10.6932
2003-08-22,10.6092
2003-08-25,10.536
2003-08-26,10.5338
2003-08-27,10.6803
2003-08-28,10.6501
2003-08-29,10.7427
2003-09-02,10.747
2003-09-03,10.4735
2003-09-04,10.508
2003-09-05,10.2581
2003-09-08,10.3895
2003-09-09,10.7018
2003-09-10,10.3507
2003-09-11,10.284
2003-09-12,10.3184
2003-09-15,10.3615
2003-09-16,10.3874
2003-09-17,10.1871
2003-09-18,10.312
2003-09-19,10.2948
2003-09-22,10.1871
2003-09-23,10.4886
2003-09-24,10.2517
2003-09-25,10.0169
2003-09-26,9.7994
2003-09-29,9.77355
2003-09-30,9.5668
2003-10-01,9.8274
2003-10-02,10.1246
2003-10-03,10.3981
2003-10-06,10.6523
2003-10-07,10.8763
2003-10-08,10.9495
2003-10-09,10.9516
2003-10-10,10.943
2003-10-13,11.0292
2003-10-14,11.0679
2003-10-15,11.2381
2003-10-16,10.9667
2003-10-17,10.8547
2003-10-20,10.7901
2003-10-21,10.7126
2003-10-22,10.5338
2003-10-23,10.4907
2003-10-24,10.3787
2003-10-27,10.5984
2003-10-28,9.98246
2003-10-29,10.1978
2003-10-30,10.1892
2003-10-31,10.2151
2003-11-03,10.2086
2003-11-04,10.2495
2003-11-05,10.0794
2003-11-06,10.0665
2003-11-07,9.86832
2003-11-10,9.69817
2003-11-11,9.64218
2003-11-12,10.0043
2003-11-13,9.92629
2003-11-14,9.78535
2003-11-17,9.59237
2003-11-18,9.50131
2003-11-19,9.59888
2003-11-20,9.55118
2003-11-21,9.49697
2003-11-24,9.90027
2003-11-25,9.95664
2003-11-26,9.9935
2003-11-28,10.0716
2003-12-01,10.2147
2003-12-02,10.0455
2003-12-03,10.0347
2003-12-04,10.052
2003-12-05,9.91978
2003-12-08,10.0065
2003-12-09,10.0087
2003-12-10,9.81571
2003-12-11,10.1106
2003-12-12,10.1995
2003-12-15,10.232
2003-12-16,10.245
2003-12-17,10.4185
2003-12-18,10.8109
2003-12-19,10.8196
2003-12-22,10.7481
2003-12-23,10.7784
2003-12-24,10.7134
2003-12-26,10.722
2003-12-29,10.7589
2003-12-30,10.7155
2003-12-31,10.6071
2004-01-02,10.5768
2004-01-05,11.0408
2004-01-06,11.3638
2004-01-07,11.5395
2004-01-08,11.4766
2004-01-09,11.2598
2004-01-12,11.1991
2004-01-13,11.1947
2004-01-14,11.3617
2004-01-15,11.3552
2004-01-16,11.5048
2004-01-20,11.2446
2004-01-21,11.3855
2004-01-22,11.6457
2004-01-23,11.2316
2004-01-26,11.4571
2004-01-27,11.6696
2004-01-28,11.3031
2004-01-29,11.0278
2004-01-30,10.9714
2004-02-02,10.7893
2004-02-03,10.7632
2004-02-04,10.5681
2004-02-05,10.7459
2004-02-06,10.9497
2004-02-09,10.876
2004-02-10,10.9844
2004-02-11,11.2619
2004-02-12,11.288
2004-02-13,11.2748
2004-02-17,11.4907
2004-02-18,11.2922
2004-02-19,11.1985
2004-02-20,11.0436
2004-02-23,10.7667
2004-02-24,10.6358
2004-02-25,10.7514
2004-02-26,10.928
2004-02-27,10.7732
2004-03-01,11.1941
2004-03-02,11.5409
2004-03-03,11.4209
2004-03-04,11.4754
2004-03-05,11.5648
2004-03-08,11.6259
2004-03-09,11.4405
2004-03-10,11.048
2004-03-11,10.9608
2004-03-12,11.748
2004-03-15,11.4667
2004-03-16,11.5714
2004-03-17,11.9508
2004-03-18,12.206
2004-03-19,12.1449
2004-03-22,11.82
2004-03-23,11.9552
2004-03-24,11.7982
2004-03-25,11.9552
2004-03-26,12.2889
2004-03-29,12.5571
2004-03-30,12.7076
2004-03-31,12.7621
2004-04-01,12.869
2004-04-02,13.0565
2004-04-05,13.0849
2004-04-06,13.9964
2004-04-07,14.0357
2004-04-08,13.9005
2004-04-12,14.075
2004-04-13,13.8961
2004-04-14,13.7369
2004-04-15,13.8721
2004-04-16,14.3279
2004-04-19,14.3715
2004-04-20,13.9637
2004-04-21,14.1731
2004-04-22,14.0662
2004-04-23,13.7369
2004-04-26,13.6802
2004-04-27,13.6562
2004-04-28,13.316
2004-04-29,13.0892
2004-04-30,13.0609
2004-05-03,13.3029
2004-05-04,13.3749
2004-05-05,13.4512
2004-05-06,13.026
2004-05-07,12.7381
2004-05-10,12.1144
2004-05-11,12.0315
2004-05-12,11.9284
2004-05-13,12.2288
2004-05-14,12.6586
2004-05-17,12.3384
2004-05-18,12.5994
2004-05-19,12.5599
2004-05-20,12.3735
2004-05-21,12.003
2004-05-24,12.2113
2004-05-25,12.4941
2004-05-26,12.5643
2004-05-27,12.7923
2004-05-28,12.7397
2004-06-01,12.948
2004-06-02,13.073
2004-06-03,12.9502
2004-06-04,13.0489
2004-06-07,13.4545
2004-06-08,13.4918
2004-06-09,13.4765
2004-06-10,13.5313
2004-06-14,13.255
2004-06-15,13.5225
2004-06-16,13.3559
2004-06-17,13.437
2004-06-18,13.4962
2004-06-21,13.4567
2004-06-22,13.5971
2004-06-23,13.7637
2004-06-24,13.8076
2004-06-25,13.8843
2004-06-28,13.8602
2004-06-29,13.7725
2004-06-30,13.7023
2004-07-01,13.5072
2004-07-02,13.266
2004-07-06,13.0533
2004-07-07,13.0884
2004-07-08,12.9546
2004-07-09,13.2068
2004-07-12,13.3603
2004-07-13,13.4721
2004-07-14,13.6957
2004-07-15,14.1211
2004-07-16,13.9633
2004-07-19,13.7681
2004-07-20,13.812
2004-07-21,13.5357
2004-07-22,13.5949
2004-07-23,14.2746
2004-07-26,14.8316
2004-07-27,15.2153
2004-07-28,15.1079
2004-07-29,15.3929
2004-07-30,15.2197
2004-08-02,15.3359
2004-08-03,15.1999
2004-08-04,15.1342
2004-08-05,14.6167
2004-08-06,14.3645
2004-08-09,14.3689
2004-08-10,14.9566
2004-08-11,14.8623
2004-08-12,14.643
2004-08-13,14.3009
2004-08-16,14.7303
2004-08-17,14.6642
2004-08-18,14.8074
2004-08-19,14.6686
2004-08-20,14.9506
2004-08-23,14.9792
2004-08-24,15.0013
2004-08-25,15.1819
2004-08-26,15.1224
2004-08-27,15.1334
2004-08-30,14.8427
2004-08-31,14.8228
2004-09-01,15.1577
2004-09-02,15.5938
2004-09-03,15.6423
2004-09-07,15.9639
2004-09-08,15.7106
2004-09-09,15.7701
2004-09-10,15.7062
2004-09-13,15.4881
2004-09-14,15.4683
2004-09-15,15.3559
2004-09-16,15.4749
2004-09-17,15.6291
2004-09-20,15.7767
2004-09-21,15.9375
2004-09-22,16.0586
2004-09-23,15.8956
2004-09-24,15.7767
2004-09-27,15.5498
2004-09-28,15.9155
2004-09-29,16.1005
2004-09-30,16.2877
2004-10-01,16.6027
2004-10-04,16.5344
2004-10-05,16.519
2004-10-06,16.5389
2004-10-07,16.2679
2004-10-08,16.1291
2004-10-11,16.2987
2004-10-12,16.3252
2004-10-13,16.0256
2004-10-14,15.7723
2004-10-15,15.9243
2004-10-18,16.0586
2004-10-19,16.2283
2004-10-20,16.0058
2004-10-21,14.8889
2004-10-22,14.5717
2004-10-25,14.8801
2004-10-26,15.2017
2004-10-27,15.3868
2004-10-28,15.2392
2004-10-29,15.4374
2004-11-01,15.4066
2004-11-02,15.3427
2004-11-03,15.5806
2004-11-04,16.323
2004-11-05,16.3891
2004-11-08,16.2106
2004-11-09,16.4596
2004-11-10,16.5653
2004-11-11,16.7129
2004-11-12,16.9118
2004-11-15,16.9317
2004-11-16,16.9339
2004-11-17,17.29
2004-11-18,17.2944
2004-11-19,17.018
2004-11-22,17.5576
2004-11-23,17.3895
2004-11-24,17.6925
2004-11-26,17.6151
2004-11-29,17.6328
2004-11-30,17.6129
2004-12-01,17.6107
2004-12-02,17.4868
2004-12-03,17.6571
2004-12-06,17.2104
2004-12-07,16.9627
2004-12-08,17.0357
2004-12-09,17.0865
2004-12-10,17.1374
2004-12-13,17.2347
2004-12-14,17.5001
2004-12-15,18.1613
2004-12-16,18.0331
2004-12-17,18.0795
2004-12-20,18.1658
2004-12-21,18.367
2004-12-22,18.5218
2004-12-23,18.4135
2004-12-27,18.2675
2004-12-28,18.6855
2004-12-29,18.6855
2004-12-30,18.5417
2004-12-31,18.5218
2005-01-03,18.2012
2005-01-04,17.7588
2005-01-05,17.0113
2005-01-06,16.9339
2005-01-07,16.5889
2005-01-10,16.4319
2005-01-11,16.6575
2005-01-12,16.6907
2005-01-13,16.7283
2005-01-14,16.8897
2005-01-18,17.0755
2005-01-19,17.0158
2005-01-20,16.7327
2005-01-21,16.5336
2005-01-24,16.328
2005-01-25,16.2638
2005-01-26,16.3523
2005-01-27,16.4607
2005-01-28,16.5226
2005-01-31,17.0489
2005-02-01,17.4802
2005-02-02,16.1002
2005-02-03,15.9852
2005-02-04,16.3324
2005-02-07,16.5447
2005-02-08,16.7349
2005-02-09,16.3058
2005-02-10,16.3656
2005-02-11,16.4717
2005-02-14,16.5071
2005-02-15,16.2351
2005-02-16,16.4562
2005-02-17,16.1832
2005-02-18,16.0011
2005-02-22,15.6613
2005-02-23,16.0433
2005-02-24,16.2098
2005-02-25,16.4785
2005-02-28,16.3564
2005-03-01,16.5962
2005-03-02,16.6761
2005-03-03,16.4852
2005-03-04,16.8893
2005-03-07,17.0203
2005-03-08,16.9093
2005-03-09,16.6406
2005-03-10,16.6761
2005-03-11,16.6761
2005-03-14,16.8071
2005-03-15,16.8693
2005-03-16,16.4296
2005-03-17,16.4696
2005-03-18,16.3008
2005-03-21,16.3519
2005-03-22,16.0988
2005-03-23,15.99
2005-03-24,16.1809
2005-03-28,15.8901
2005-03-29,15.2639
2005-03-30,15.4859
2005-03-31,15.6058
2005-04-01,15.7124
2005-04-04,15.5503
2005-04-05,15.7013
2005-04-06,15.4526
2005-04-07,15.1662
2005-04-08,14.8442
2005-04-11,14.822
2005-04-12,15.2639
2005-04-13,14.9486
2005-04-14,14.6843
2005-04-15,14.1758
2005-04-18,14.4623
2005-04-19,14.7354
2005-04-20,14.6643
2005-04-21,15.9478
2005-04-22,15.8279
2005-04-25,15.7479
2005-04-26,15.557
2005-04-27,15.2816
2005-04-28,15.1373
2005-04-29,15.1084
2005-05-02,15.3949
2005-05-03,14.691
2005-05-04,15.175
2005-05-05,15.0352
2005-05-06,15.1662
2005-05-09,15.0396
2005-05-10,14.8886
2005-05-11,14.9019
2005-05-12,14.3623
2005-05-13,14.2909
2005-05-16,14.6322
2005-05-17,14.7973
2005-05-18,15.1341
2005-05-19,15.3483
2005-05-20,15.2591
2005-05-23,15.4353
2005-05-24,15.3148
2005-05-25,15.1743
2005-05-26,15.355
2005-05-27,15.3595
2005-05-31,15.123
2005-06-01,15.4264
2005-06-02,15.9618
2005-06-03,15.9194
2005-06-06,15.8391
2005-06-07,15.935
2005-06-08,15.8235
2005-06-09,15.8212
2005-06-10,15.9417
2005-06-13,16.0599
2005-06-14,16.0354
2005-06-15,15.9016
2005-06-16,16.1492
2005-06-17,16.5061
2005-06-20,16.5619
2005-06-21,16.7314
2005-06-22,16.718
2005-06-23,16.2853
2005-06-24,16.138
2005-06-27,16.3477
2005-06-28,16.7917
2005-06-29,16.7716
2005-06-30,16.6132
2005-07-01,16.6779
2005-07-05,16.6824
2005-07-06,16.698
2005-07-07,16.6177
2005-07-08,16.7426
2005-07-11,17.1888
2005-07-12,16.9924
2005-07-13,17.0951
2005-07-14,17.626
2005-07-15,17.4743
2005-07-18,17.3985
2005-07-19,17.6885
2005-07-20,18.0588
2005-07-21,18.6388
2005-07-22,19.2211
2005-07-25,18.9757
2005-07-26,19.0359
2005-07-27,18.7347
2005-07-28,19.1095
2005-07-29,19.0582
2005-08-01,19.1318
2005-08-02,19.1631
2005-08-03,19.0471
2005-08-04,19.056
2005-08-05,18.7816
2005-08-08,18.8909
2005-08-09,19.085
2005-08-10,19.4776
2005-08-11,19.3415
2005-08-12,19.0939
2005-08-15,19.2389
2005-08-16,18.7957
2005-08-17,18.8001
2005-08-18,18.874
2005-08-19,19.0822
2005-08-22,18.9322
2005-08-23,18.8516
2005-08-24,18.7822
2005-08-25,19.2479
2005-08-26,18.9815
2005-08-29,19.2434
2005-08-30,19.0262
2005-08-31,19.3531
2005-09-01,19.3598
2005-09-02,19.2994
2005-09-06,19.6217
2005-09-07,20.0359
2005-09-08,19.8075
2005-09-09,19.8501
2005-09-12,20.8619
2005-09-13,20.656
2005-09-14,20.2978
2005-09-15,20.2083
2005-09-16,20.5888
2005-09-19,20.3202
2005-09-20,20.0314
2005-09-21,20.1903
2005-09-22,20.0359
2005-09-23,20.0918
2005-09-26,19.577
2005-09-27,19.6105
2005-09-28,19.3755
2005-09-29,19.4717
2005-09-30,19.6822
2005-10-03,19.6978
2005-10-04,19.2859
2005-10-05,18.6793
2005-10-06,18.5203
2005-10-07,18.6166
2005-10-10,18.3479
2005-10-11,18.0883
2005-10-12,17.9875
2005-10-13,18.0032
2005-10-14,18.2271
2005-10-17,18.2494
2005-10-18,18.0435
2005-10-19,18.3009
2005-10-20,18.0838
2005-10-21,17.4973
2005-10-24,18.0636
2005-10-25,18.142
2005-10-26,18.1577
2005-10-27,18.1308
2005-10-28,18.6681
2005-10-31,19.1337
2005-11-01,19.2703
2005-11-02,19.3531
2005-11-03,19.4247
2005-11-04,19.3665
2005-11-07,19.774
2005-11-08,19.9799
2005-11-09,19.7896
2005-11-10,19.6777
2005-11-11,19.5053
2005-11-14,19.4986
2005-11-15,19.2807
2005-11-16,19.301
2005-11-17,19.3594
2005-11-18,19.6065
2005-11-21,19.7345
2005-11-22,19.9726
2005-11-23,19.921
2005-11-25,19.9142
2005-11-28,19.8895
2005-11-29,19.8244
2005-11-30,20.0086
2005-12-01,20.5275
2005-12-02,20.2444
2005-12-05,20.3882
2005-12-06,20.1433
2005-12-07,19.8918
2005-12-08,19.4515
2005-12-09,19.7008
2005-12-12,19.7255
2005-12-13,19.766
2005-12-14,19.8311
2005-12-15,19.8603
2005-12-16,19.9951
2005-12-19,19.7345
2005-12-20,19.4807
2005-12-21,19.8918
2005-12-22,20.1321
2005-12-23,20.4668
2005-12-27,20.3276
2005-12-28,20.5657
2005-12-29,20.5679
2005-12-30,20.1523
2006-01-03,20.3949
2006-01-04,21.4687
2006-01-05,21.1677
2006-01-06,21.3901
2006-01-09,21.6057
2006-01-10,21.5721
2006-01-11,21.7675
2006-01-12,21.9045
2006-01-13,21.7001
2006-01-17,21.3519
2006-01-18,21.6327
2006-01-19,21.5024
2006-01-20,21.0711
2006-01-23,20.979
2006-01-24,21.2059
2006-01-25,21.1273
2006-01-26,21.116
2006-01-27,22.3403
2006-01-30,22.1112
2006-01-31,21.8731
2006-02-01,22.4504
2006-02-02,21.9899
2006-02-03,22.4953
2006-02-06,22.9176
2006-02-07,22.3448
2006-02-08,22.4055
2006-02-09,22.3942
2006-02-10,22.4167
2006-02-13,22.3628
2006-02-14,22.6076
2006-02-15,23.3287
2006-02-16,23.441
2006-02-17,23.5311
2006-02-21,23.7226
2006-02-22,24.207
2006-02-23,24.0425
2006-02-24,24.234
2006-02-27,24.5337
2006-02-28,24.3715
2006-03-01,24.6283
2006-03-02,24.3624
2006-03-03,24.4548
2006-03-06,23.8263
2006-03-07,23.7407
2006-03-08,23.5649
2006-03-09,23.3081
2006-03-10,23.5559
2006-03-13,23.5649
2006-03-14,23.8803
2006-03-15,24.3219
2006-03-16,24.3512
2006-03-17,24.2791
2006-03-20,24.3827
2006-03-21,23.7519
2006-03-22,24.0921
2006-03-23,23.6325
2006-03-24,23.7024
2006-03-27,23.8601
2006-03-28,23.5694
2006-03-29,23.7114
2006-03-30,23.4365
2006-03-31,23.6978
2006-04-03,23.6213
2006-04-04,23.788
2006-04-05,24.0583
2006-04-06,23.628
2006-04-07,23.7812
2006-04-10,24.3039
2006-04-11,24.0583
2006-04-12,23.9254
2006-04-13,24.0583
2006-04-17,24.1507
2006-04-18,24.7252
2006-04-19,25.178
2006-04-20,24.7792
2006-04-21,24.7184
2006-04-24,24.9369
2006-04-25,24.8175
2006-04-26,25.3402
2006-04-27,24.5404
2006-04-28,23.405
2006-05-01,24.2723
2006-05-02,23.842
2006-05-03,23.9479
2006-05-04,23.8961
2006-05-05,24.3895
2006-05-08,24.3782
2006-05-09,24.8468
2006-05-10,25.8696
2006-05-11,26.3089
2006-05-12,25.6083
2006-05-15,25.3943
2006-05-16,25.3875
2006-05-17,24.6037
2006-05-18,24.3959
2006-05-19,24.7392
2006-05-22,24.0503
2006-05-23,24.3168
2006-05-24,24.484
2006-05-25,24.5946
2006-05-26,24.8476
2006-05-30,24.24
2006-05-31,24.8951
2006-06-01,25.4598
2006-06-02,25.3378
2006-06-05,24.6534
2006-06-06,24.2513
2006-06-07,23.8899
2006-06-08,23.4788
2006-06-09,23.5849
2006-06-12,22.8779
2006-06-13,22.7966
2006-06-14,23.6414
2006-06-15,24.2152
2006-06-16,24.0028
2006-06-19,24.1858
2006-06-20,24.5856
2006-06-21,25.0645
2006-06-22,24.9651
2006-06-23,25.0216
2006-06-26,25.2678
2006-06-27,25.0532
2006-06-28,25.5434
2006-06-29,26.9484
2006-06-30,27.5922
2006-07-03,27.4747
2006-07-05,27.0049
2006-07-06,26.9597
2006-07-07,26.5734
2006-07-10,26.7474
2006-07-11,26.8942
2006-07-12,26.8535
2006-07-13,26.0697
2006-07-14,25.8167
2006-07-17,25.3807
2006-07-18,25.6744
2006-07-19,26.3679
2006-07-20,25.3401
2006-07-21,24.7121
2006-07-24,25.7467
2006-07-25,25.636
2006-07-26,25.5569
2006-07-27,25.2158
2006-07-28,26.1329
2006-07-31,26.4063
2006-08-01,26.3385
2006-08-02,26.3521
2006-08-03,26.919
2006-08-04,27.1991
2006-08-07,27.6464
2006-08-08,27.0568
2006-08-09,26.4085
2006-08-10,26.6706
2006-08-11,26.1217
2006-08-14,26.0923
2006-08-15,26.9032
2006-08-16,27.2884
2006-08-17,28.0587
2006-08-18,27.6916
2006-08-21,27.4356
2006-08-22,27.2498
2006-08-23,27.0051
2006-08-24,26.6109
2006-08-25,25.8496
2006-08-28,26.0943
2006-08-29,26.015
2006-08-30,25.7771
2006-08-31,26.0445
2006-09-01,26.1759
2006-09-05,26.7038
2006-09-06,25.9652
2006-09-07,25.7545
2006-09-08,25.7363
2006-09-11,25.1201
2006-09-12,25.5687
2006-09-13,25.9425
2006-09-14,25.478
2006-09-15,25.3761
2006-09-18,25.4984
2006-09-19,25.5392
2006-09-20,25.8066
2006-09-21,25.5505
2006-09-22,25.2401
2006-09-25,25.7522
2006-09-26,26.7536
2006-09-27,26.6222
2006-09-28,27.277
2006-09-29,27.0006
2006-10-02,27.0708
2006-10-03,27.0686
2006-10-04,27.4968
2006-10-05,29.4589
2006-10-06,29.7738
2006-10-09,30.4898
2006-10-10,30.2315
2006-10-11,29.8599
2006-10-12,30.7866
2006-10-13,30.6212
2006-10-16,31.2556
2006-10-17,30.9294
2006-10-18,31.2216
2006-10-19,31.1469
2006-10-20,30.0208
2006-10-23,30.3607
2006-10-24,30.4966
2006-10-25,30.2972
2006-10-26,30.4083
2006-10-27,29.6923
2006-10-30,30.0208
2006-10-31,28.7248
2006-11-01,28.2037
2006-11-02,27.7596
2006-11-03,27.4175
2006-11-06,27.6486
2006-11-07,27.2544
2006-11-08,27.3473
2006-11-09,26.9372
2006-11-10,27.0776
2006-11-13,27.0595
2006-11-14,27.5687
2006-11-15,27.9232
2006-11-16,27.93
2006-11-17,27.6368
2006-11-20,27.4778
2006-11-21,27.7209
2006-11-22,28.18
2006-11-24,28.2141
2006-11-27,27.4437
2006-11-28,26.9073
2006-11-29,27.2551
2006-11-30,27.2437
2006-12-01,26.9551
2006-12-04,27.7482
2006-12-05,27.9846
2006-12-06,27.98
2006-12-07,27.9073
2006-12-08,27.8777
2006-12-11,27.6209
2006-12-12,27.4232
2006-12-13,27.5709
2006-12-14,28.0073
2006-12-15,27.4596
2006-12-18,27.296
2006-12-19,27.146
2006-12-20,27.2778
2006-12-21,27.1005
2006-12-22,26.9028
2006-12-26,27.0187
2006-12-27,27.3391
2006-12-28,27.1369
2006-12-29,26.8096
2007-01-03,26.7937
2007-01-04,26.8142
2007-01-05,26.4097
2007-01-08,26.3597
2007-01-09,26.6619
2007-01-10,25.962
2007-01-11,26.3483
2007-01-12,26.5028
2007-01-16,26.9505
2007-01-17,27.3005
2007-01-18,27.2164
2007-01-19,27.4414
2007-01-22,26.8869
2007-01-23,27.4778
2007-01-24,27.7959
2007-01-25,27.6346
2007-01-26,28.405
2007-01-29,28.9822
2007-01-30,29.5458
2007-01-31,30.6094
2007-02-01,31.1003
2007-02-02,31.6752
2007-02-05,31.7343
2007-02-06,31.7002
2007-02-07,31.8229
2007-02-08,31.3798
2007-02-09,30.7935
2007-02-12,31.2321
2007-02-13,31.5639
2007-02-14,32.9721
2007-02-15,32.6417
2007-02-16,32.9129
2007-02-20,32.7055
2007-02-21,33.2227
2007-02-22,32.8536
2007-02-23,32.9311
2007-02-26,32.5369
2007-02-27,31.0058
2007-02-28,30.623
2007-03-01,30.9989
2007-03-02,30.5068
2007-03-05,30.4658
2007-03-06,30.582
2007-03-07,30.6549
2007-03-08,31.2427
2007-03-09,31.8853
2007-03-12,31.4797
2007-03-13,30.6184
2007-03-14,31.0878
2007-03-15,31.0878
2007-03-16,31.5572
2007-03-19,32.3843
2007-03-20,32.7579
2007-03-21,33.487
2007-03-22,33.7422
2007-03-23,34.2389
2007-03-26,33.9017
2007-03-27,33.2432
2007-03-28,32.603
2007-03-29,33.0268
2007-03-30,32.922
2007-04-02,33.1111
2007-04-03,33.4141
2007-04-04,33.061
2007-04-05,33.6557
2007-04-09,33.5919
2007-04-10,33.4939
2007-04-11,33.4665
2007-04-12,33.4301
2007-04-13,33.6032
2007-04-16,34.1319
2007-04-17,34.2686
2007-04-18,33.8402
2007-04-19,33.6351
2007-04-20,35.3167
2007-04-23,38.6387
2007-04-24,39.0261
2007-04-25,38.3972
2007-04-26,39.2311
2007-04-27,44.0524
2007-04-30,41.9471
2007-05-01,41.8696
2007-05-02,41.6463
2007-05-03,41.3957
2007-05-04,41.0585
2007-05-07,40.5982
2007-05-08,40.3886
2007-05-09,41.1223
2007-05-10,40.6711
2007-05-11,41.7329
2007-05-14,41.0084
2007-05-15,40.302
2007-05-16,40.6354
2007-05-17,40.439
2007-05-18,39.85
2007-05-21,40.1285
2007-05-22,40.0189
2007-05-23,39.9002
2007-05-24,39.3294
2007-05-25,40.06
2007-05-29,40.3797
2007-05-30,41.0372
2007-05-31,43.0281
2007-06-01,42.9459
2007-06-04,43.2016
2007-06-05,46.1241
2007-06-06,43.6628
2007-06-07,42.6765
2007-06-08,42.8637
2007-06-11,43.6309
2007-06-12,43.5532
2007-06-13,44.0555
2007-06-14,44.5807
2007-06-15,44.4665
2007-06-18,44.0875
2007-06-19,46.1834
2007-06-20,47.494
2007-06-21,47.1469
2007-06-22,46.7542
2007-06-25,45.7816
2007-06-26,44.9825
2007-06-27,46.3889
2007-06-28,47.0693
2007-06-29,46.1469
2007-07-02,47.9369
2007-07-03,48.6903
2007-07-05,48.0373
2007-07-06,48.5762
2007-07-09,53.7087
2007-07-10,51.042
2007-07-11,52.2338
2007-07-12,52.6265
2007-07-13,54.1425
2007-07-16,53.905
2007-07-17,54.4667
2007-07-18,54.1333
2007-07-19,54.526
2007-07-20,52.8959
2007-07-23,52.3297
2007-07-24,51.0922
2007-07-25,50.2566
2007-07-26,53.1014
2007-07-27,53.1379
2007-07-30,54.526
2007-07-31,54.2795
2007-08-01,54.8137
2007-08-02,57.0786
2007-08-03,54.8137
2007-08-06,56.9781
2007-08-07,56.9188
2007-08-08,54.7407
2007-08-09,49.8273
2007-08-10,52.4347
2007-08-13,54.4119
2007-08-14,51.1744
2007-08-15,49.3255
2007-08-16,48.0212
2007-08-17,48.3279
2007-08-20,49.1699
2007-08-21,50.7809
2007-08-22,52.8403
2007-08-23,51.568
2007-08-24,53.3483
2007-08-27,52.5382
2007-08-28,50.0852
2007-08-29,51.0372
2007-08-30,51.0829
2007-08-31,54.1812
2007-09-04,55.5633
2007-09-05,54.0302
2007-09-06,54.2041
2007-09-07,52.3323
2007-09-10,51.5406
2007-09-11,53.6183
2007-09-12,52.9364
2007-09-13,54.8356
2007-09-14,54.7807
2007-09-17,55.6686
2007-09-18,61.5082
2007-09-19,60.2634
2007-09-20,59.6135
2007-09-21,60.2222
2007-09-24,58.8218
2007-09-25,61.3068
2007-09-26,60.0574
2007-09-27,59.8423
2007-09-28,58.4557
2007-10-01,60.689
2007-10-02,61.7004
2007-10-03,60.9636
2007-10-04,62.4876
2007-10-05,63.412
2007-10-08,62.5196
2007-10-09,63.92
2007-10-10,63.499
2007-10-11,62.5882
2007-10-12,64.0024
2007-10-15,64.1946
2007-10-16,62.5745
2007-10-17,62.9681
2007-10-18,63.1054
2007-10-19,59.6089
2007-10-22,61.2061
2007-10-23,61.705
2007-10-24,61.0048
2007-10-25,50.877
2007-10-26,53.6046
2007-10-29,54.648
2007-10-30,54.3185
2007-10-31,54.6846
2007-11-01,55.7006
2007-11-02,55.5175
2007-11-05,55.8654
2007-11-06,58.4602
2007-11-07,57.3207
2007-11-08,57.1056
2007-11-09,55.4169
2007-11-12,52.0303
2007-11-13,54.291
2007-11-14,54.9192
2007-11-15,51.6814
2007-11-16,51.5621
2007-11-19,48.5674
2007-11-20,49.6726
2007-11-21,49.1086
2007-11-23,48.8196
2007-11-26,48.439
2007-11-27,49.879
2007-11-28,52.328
2007-11-29,53.0022
2007-11-30,53.4975
2007-12-03,54.0249
2007-12-04,53.9103
2007-12-05,55.9098
2007-12-06,58.3451
2007-12-07,57.1939
2007-12-10,56.7858
2007-12-11,54.2634
2007-12-12,57.249
2007-12-13,56.9371
2007-12-14,55.9511
2007-12-17,53.1856
2007-12-18,53.3186
2007-12-19,52.1446
2007-12-20,54.7404
2007-12-21,56.7858
2007-12-24,57.5471
2007-12-26,59.3678
2007-12-27,58.7028
2007-12-28,59.0376
2007-12-31,58.4551
2008-01-02,56.6941
2008-01-03,57.492
2008-01-04,54.2359
2008-01-07,52.7683
2008-01-08,49.8607
2008-01-09,47.6043
2008-01-10,48.3289
2008-01-11,45.4671
2008-01-14,47.4208
2008-01-15,43.9537
2008-01-16,42.1926
2008-01-17,39.6152
2008-01-18,39.3584
2008-01-22,39.1474
2008-01-23,41.6515
2008-01-24,42.4036
2008-01-25,44.981
2008-01-28,46.3569
2008-01-29,44.2381
2008-01-30,44.3206
2008-01-31,44.0179
2008-02-01,43.1007
2008-02-04,45.8616
2008-02-05,43.7611
2008-02-06,43.1465
2008-02-07,44.2014
2008-02-08,45.0727
2008-02-11,46.8063
2008-02-12,45.9533
2008-02-13,48.0079
2008-02-14,47.1365
2008-02-15,46.8522
2008-02-19,47.8795
2008-02-20,48.4816
2008-02-21,47.7093
2008-02-22,49.208
2008-02-25,48.8494
2008-02-26,49.1252
2008-02-27,48.6379
2008-02-28,48.4448
2008-02-29,46.2934
2008-03-03,46.7807
2008-03-04,44.9602
2008-03-05,45.5027
2008-03-06,44.3626
2008-03-07,42.4318
2008-03-10,42.1467
2008-03-11,45.4567
2008-03-12,46.5048
2008-03-13,46.937
2008-03-14,45.4475
2008-03-17,44.381
2008-03-18,47.1392
2008-03-19,45.3647
2008-03-20,45.0981
2008-03-24,46.9737
2008-03-25,47.8472
2008-03-26,46.1371
2008-03-27,44.0408
2008-03-28,43.6178
2008-03-31,43.057
2008-04-01,45.2728
2008-04-02,46.3669
2008-04-03,46.3026
2008-04-04,47.5714
2008-04-07,47.2496
2008-04-08,47.0197
2008-04-09,45.5119
2008-04-10,46.514
2008-04-11,44.3534
2008-04-14,43.5902
2008-04-15,43.7373
2008-04-16,45.4751
2008-04-17,45.4015
2008-04-18,50.7526
2008-04-21,50.0814
2008-04-22,49.6309
2008-04-23,49.9895
2008-04-24,50.0906
2008-04-25,51.4146
2008-04-28,53.4006
2008-04-29,52.9409
2008-04-30,57.8322
2008-05-01,60.3791
2008-05-02,61.7674
2008-05-05,62.4478
2008-05-06,63.8269
2008-05-07,62.3926
2008-05-08,62.6776
2008-05-09,61.4916
2008-05-12,62.5213
2008-05-13,65.0038
2008-05-14,66.2174
2008-05-15,67.3116
2008-05-16,67.2748
2008-05-19,64.9486
2008-05-20,64.1855
2008-05-21,63.9138
2008-05-22,63.7849
2008-05-23,62.4861
2008-05-27,62.2559
2008-05-28,65.3783
2008-05-29,64.273
2008-05-30,64.7612
2008-06-02,65.0191
2008-06-03,65.0375
2008-06-04,64.5862
2008-06-05,64.4757
2008-06-06,61.9151
2008-06-09,60.2847
2008-06-10,60.3032
2008-06-11,58.2307
2008-06-12,63.9691
2008-06-13,66.5389
2008-06-16,68.1508
2008-06-17,67.2113
2008-06-18,66.2257
2008-06-19,66.4836
2008-06-20,65.2033
2008-06-23,67.81
2008-06-24,65.3231
2008-06-25,66.6863
2008-06-26,61.6295
2008-06-27,59.1887
2008-06-30,60.2847
2008-07-01,59.9532
2008-07-02,56.9412
2008-07-03,57.2176
2008-07-07,59.0505
2008-07-08,60.4505
2008-07-09,59.99
2008-07-10,61.0124
2008-07-11,60.8558
2008-07-14,62.0532
2008-07-15,58.3136
2008-07-16,59.9071
2008-07-17,61.9795
2008-07-18,60.9756
2008-07-21,63.8954
2008-07-22,64.6046
2008-07-23,64.1164
2008-07-24,60.2387
2008-07-25,60.8742
2008-07-28,59.4466
2008-07-29,60.9479
2008-07-30,65.0099
2008-07-31,61.0492
2008-08-01,62.3296
2008-08-04,60.9019
2008-08-05,62.1822
2008-08-06,64.7888
2008-08-07,63.1677
2008-08-08,64.052
2008-08-11,67.4231
2008-08-12,65.0283
2008-08-13,65.2217
2008-08-14,65.3875
2008-08-15,64.4296
2008-08-18,63.2875
2008-08-19,61.3348
2008-08-20,62.3275
2008-08-21,60.3974
2008-08-22,61.3301
2008-08-25,60.9145
2008-08-26,59.677
2008-08-27,59.557
2008-08-28,62.0412
2008-08-29,60.2127
2008-09-02,58.5873
2008-09-03,57.0727
2008-09-04,53.7666
2008-09-05,55.0041
2008-09-08,55.6136
2008-09-09,49.4353
2008-09-10,52.252
2008-09-11,53.4618
2008-09-12,53.9882
2008-09-15,50.3773
2008-09-16,52.8061
2008-09-17,49.4538
2008-09-18,50.248
2008-09-19,54.0344
2008-09-22,53.4526
2008-09-23,53.3695
2008-09-24,48.9921
2008-09-25,44.7993
2008-09-26,42.1766
2008-09-29,38.6118
2008-09-30,40.699
2008-10-01,39.5907
2008-10-02,35.2964
2008-10-03,34.4468
2008-10-06,33.3848
2008-10-07,32.4059
2008-10-08,32.5444
2008-10-09,30.5866
2008-10-10,30.0417
2008-10-13,35.8228
2008-10-14,32.2396
2008-10-15,27.7237
2008-10-16,30.0786
2008-10-17,29.7
2008-10-20,31.7964
2008-10-21,30.1248
2008-10-22,27.9915
2008-10-23,26.6524
2008-10-24,24.9809
2008-10-27,24.8516
2008-10-28,28.1854
2008-10-29,29.5338
2008-10-30,29.1736
2008-10-31,24.1589
2008-11-03,24.3991
2008-11-04,26.6339
2008-11-05,24.5838
2008-11-06,21.2314
2008-11-07,22.6906
2008-11-10,20.7143
2008-11-11,20.114
2008-11-12,18.3501
2008-11-13,20.7789
2008-11-14,19.9108
2008-11-17,18.9965
2008-11-18,19.3936
2008-11-19,18.3363
2008-11-20,16.5669
2008-11-21,19.1185
2008-11-24,20.9624
2008-11-25,21.9682
2008-11-26,22.8528
2008-11-28,23.8213
2008-12-01,20.9717
2008-12-02,21.7633
2008-12-03,22.9087
2008-12-04,20.9903
2008-12-05,21.6329
2008-12-08,23.5606
2008-12-09,25.0692
2008-12-10,25.0971
2008-12-11,23.1695
2008-12-12,23.1043
2008-12-15,22.3407
2008-12-16,23.6817
2008-12-17,24.2404
2008-12-18,23.5606
2008-12-19,24.7153
2008-12-22,23.1322
2008-12-23,23.1508
2008-12-24,23.0857
2008-12-26,23.393
2008-12-29,22.6107
2008-12-30,23.7468
2008-12-31,24.9016
2009-01-02,27.239
2009-01-05,28.0213
2009-01-06,29.3902
2009-01-07,26.1401
2009-01-08,27.4905
2009-01-09,26.4102
2009-01-12,24.4453
2009-01-13,24.557
2009-01-14,22.8342
2009-01-15,24.3521
2009-01-16,24.4732
2009-01-20,22.4617
2009-01-21,24.3242
2009-01-22,23.6444
2009-01-23,23.8027
2009-01-26,23.0484
2009-01-27,22.9646
2009-01-28,24.6967
2009-01-29,23.4675
2009-01-30,22.3313
2009-02-02,22.5735
2009-02-03,22.8342
2009-02-04,23.7748
2009-02-05,24.6688
2009-02-06,26.2798
2009-02-09,25.5535
2009-02-10,23.8306
2009-02-11,24.0728
2009-02-12,23.1881
2009-02-13,22.9646
2009-02-17,20.6178
2009-02-18,20.8288
2009-02-19,20.0967
2009-02-20,20.0404
2009-02-23,19.1486
2009-02-24,20.5378
2009-02-25,19.3082
2009-02-26,19.3833
2009-02-27,19.5992
2009-03-02,17.3089
2009-03-03,18.623
2009-03-04,20.6129
2009-03-05,18.2851
2009-03-06,18.1255
2009-03-09,18.4446
2009-03-10,20.0685
2009-03-11,20.8476
2009-03-12,21.514
2009-03-13,21.1386
2009-03-16,21.1198
2009-03-17,21.805
2009-03-18,22.9877
2009-03-19,22.7437
2009-03-20,22.1054
2009-03-23,25.5784
2009-03-24,24.6586
2009-03-25,24.3019
2009-03-26,25.325
2009-03-27,24.6116
2009-03-30,23.0534
2009-03-31,23.8795
2009-04-01,24.743
2009-04-02,27.1742
2009-04-03,27.7374
2009-04-06,27.559
2009-04-07,25.4564
2009-04-08,25.0434
2009-04-09,28.0565
2009-04-13,28.2912
2009-04-14,27.0709
2009-04-15,26.8456
2009-04-16,28.2161
2009-04-17,27.8969
2009-04-20,25.5878
2009-04-21,26.3481
2009-04-22,27.9814
2009-04-23,29.5959
2009-04-24,31.2385
2009-04-27,29.9244
2009-04-28,29.3706
2009-04-29,31.3324
2009-04-30,31.8487
2009-05-01,31.9332
2009-05-04,32.0552
2009-05-05,31.9613
2009-05-06,31.7736
2009-05-07,28.5258
2009-05-08,31.8675
2009-05-11,30.5252
2009-05-12,29.6522
2009-05-13,27.6341
2009-05-14,28.141
2009-05-15,27.7092
2009-05-18,29.549
2009-05-19,30.7223
2009-05-20,31.0102
2009-05-21,30.4534
2009-05-22,30.2458
2009-05-26,31.5009
2009-05-27,30.878
2009-05-28,30.5949
2009-05-29,30.7648
2009-06-01,33.6337
2009-06-02,34.3981
2009-06-03,33.1335
2009-06-04,34.1621
2009-06-05,34.2565
2009-06-08,33.8696
2009-06-09,33.9734
2009-06-10,33.8224
2009-06-11,34.181
2009-06-12,33.4732
2009-06-15,32.0671
2009-06-16,31.7085
2009-06-17,30.7554
2009-06-18,30.208
2009-06-19,30.4534
2009-06-22,28.8774
2009-06-23,29.7078
2009-06-24,30.6893
2009-06-25,32.4068
2009-06-26,32.6616
2009-06-29,34.0866
2009-06-30,33.1712
2009-07-01,33.8507
2009-07-02,32.4918
2009-07-06,32.2558
2009-07-07,30.5006
2009-07-08,30.3213
2009-07-09,30.6421
2009-07-10,30.3024
2009-07-13,31.2744
2009-07-14,30.7742
2009-07-15,33.2467
2009-07-16,34.0772
2009-07-17,34.3509
2009-07-20,36.276
2009-07-21,37.4934
2009-07-22,37.2669
2009-07-23,38.8901
2009-07-24,39.3053
2009-07-27,38.8052
2009-07-28,37.9464
2009-07-29,37.5312
2009-07-30,38.9562
2009-07-31,40.636
2009-08-03,42.1081
2009-08-04,42.3346
2009-08-05,42.3535
2009-08-06,42.5234
2009-08-07,44.5146
2009-08-10,44.6656
2009-08-11,42.5139
2009-08-12,43.7879
2009-08-13,45.7508
2009-08-14,44.1654
2009-08-17,41.6174
2009-08-18,42.3724
2009-08-19,42.1686
2009-08-20,42.9549
2009-08-21,44.4803
2009-08-24,44.2718
2009-08-25,45.494
2009-08-26,43.6655
2009-08-27,43.3434
2009-08-28,43.2202
2009-08-31,42.9549
2009-09-01,41.7896
2009-09-02,42.1402
2009-09-03,43.6087
2009-09-04,44.4045
2009-09-08,44.1392
2009-09-09,44.6792
2009-09-10,44.4424
2009-09-11,45.0013
2009-09-14,44.954
2009-09-15,45.0771
2009-09-16,45.3045
2009-09-17,44.3476
2009-09-18,43.6371
2009-09-21,42.4339
2009-09-22,43.2297
2009-09-23,42.6897
2009-09-24,41.6949
2009-09-25,41.8181
2009-09-28,42.1402
2009-09-29,42.1023
2009-09-30,42.4623
2009-10-01,40.8517
2009-10-02,40.2833
2009-10-05,41.6949
2009-10-06,42.4813
2009-10-07,43.0307
2009-10-08,44.5845
2009-10-09,44.8213
2009-10-12,45.2761
2009-10-13,44.7645
2009-10-14,46.4603
2009-10-15,46.6308
2009-10-16,46.2045
2009-10-19,47.853
2009-10-20,47.8246
2009-10-21,47.4077
2009-10-22,47.3509
2009-10-23,46.034
2009-10-26,45.854
2009-10-27,44.0918
2009-10-28,42.377
2009-10-29,43.4855
2009-10-30,40.8896
2009-11-02,41.7328
2009-11-03,42.377
2009-11-04,42.8792
2009-11-05,44.5655
2009-11-06,43.7223
2009-11-09,44.575
2009-11-10,44.4992
2009-11-11,44.9161
2009-11-12,44.1392
2009-11-13,44.5276
2009-11-16,46.2708
2009-11-17,45.9298
2009-11-18,45.7348
2009-11-19,44.8695
2009-11-20,44.2705
2009-11-23,44.4797
2009-11-24,43.8712
2009-11-25,44.0708
2009-11-27,43.1105
2009-11-30,42.6921
2009-12-01,44.7935
2009-12-02,41.1898
2009-12-03,40.8856
2009-12-04,41.5702
2009-12-07,42.8348
2009-12-08,42.8062
2009-12-09,43.4338
2009-12-10,44.0233
2009-12-11,43.3292
2009-12-14,44.261
2009-12-15,43.8331
2009-12-16,44.5177
2009-12-17,44.261
2009-12-18,44.7459
2009-12-21,44.86
2009-12-22,44.4036
2009-12-23,45.0026
2009-12-24,45.1928
2009-12-28,45.1072
2009-12-29,44.5748
2009-12-30,44.0708
2009-12-31,43.662
2010-01-04,44.6889
2010-01-05,45.6872
2010-01-06,46.0676
2010-01-07,48.5112
2010-01-08,51.0879
2010-01-11,52.286
2010-01-12,50.7171
2010-01-13,50.1466
2010-01-14,50.2892
2010-01-15,49.2338
2010-01-19,50.2512
2010-01-20,48.9581
2010-01-21,47.0279
2010-01-22,45.4305
2010-01-25,45.3354
2010-01-26,44.9741
2010-01-27,44.1944
2010-01-28,43.3862
2010-01-29,42.9488
2010-02-01,44.6033
2010-02-02,48.5587
2010-02-03,49.3669
2010-02-04,47.684
2010-02-05,47.9977
2010-02-08,47.6269
2010-02-09,49.6141
2010-02-10,49.424
2010-02-11,52.1719
2010-02-12,52.0673
2010-02-16,54.2922
2010-02-17,53.8391
2010-02-18,54.8215
2010-02-19,55.2316
2010-02-22,54.5068
2010-02-23,53.0094
2010-02-24,53.3909
2010-02-25,53.4195
2010-02-26,54.173
2010-03-01,56.2712
2010-03-02,56.4715
2010-03-03,56.4238
2010-03-04,56.9579
2010-03-05,57.9116
2010-03-08,57.3203
2010-03-09,58.3027
2010-03-10,57.3775
2010-03-11,56.7004
2010-03-12,57.4729
2010-03-15,57.3489
2010-03-16,57.9116
2010-03-17,57.368
2010-03-18,56.481
2010-03-19,55.451
2010-03-22,57.2059
2010-03-23,59.4853
2010-03-24,59.018
2010-03-25,58.7033
2010-03-26,59.533
2010-03-29,60.2197
2010-03-30,59.2564
2010-03-31,59.0466
2010-04-01,59.409
2010-04-05,62.585
2010-04-06,62.0605
2010-04-07,61.6885
2010-04-08,62.0414
2010-04-09,63.0237
2010-04-12,62.0795
2010-04-13,62.957
2010-04-14,64.5688
2010-04-15,63.8917
2010-04-16,62.833
2010-04-19,62.8902
2010-04-20,63.9012
2010-04-21,63.5865
2010-04-22,64.9122
2010-04-23,66.5431
2010-04-26,67.0486
2010-04-27,69.1659
2010-04-28,70.3485
2010-04-29,72.3323
2010-04-30,68.9561
2010-05-03,69.7858
2010-05-04,67.3824
2010-05-05,67.1058
2010-05-06,64.4067
2010-05-07,62.3466
2010-05-10,68.7367
2010-05-11,68.3743
2010-05-12,71.6075
2010-05-13,70.711
2010-05-14,68.174
2010-05-17,67.9356
2010-05-18,66.7624
2010-05-19,65.4861
2010-05-20,61.0688
2010-05-21,62.9141
2010-05-24,61.4512
2010-05-25,62.1014
2010-05-26,63.0671
2010-05-27,66.4614
2010-05-28,65.161
2010-06-01,63.2679
2010-06-02,66.7674
2010-06-03,67.4558
2010-06-04,63.3635
2010-06-07,60.1222
2010-06-08,62.3117
2010-06-09,63.1531
2010-06-10,67.4367
2010-06-11,69.129
2010-06-14,69.2055
2010-06-15,72.0166
2010-06-16,71.2038
2010-06-17,70.5919
2010-06-18,71.0891
2010-06-21,71.701
2010-06-22,69.0238
2010-06-23,69.9226
2010-06-24,68.1251
2010-06-25,69.3298
2010-06-28,67.3602
2010-06-29,63.3061
2010-06-30,62.2926
2010-07-01,62.0249
2010-07-02,61.4321
2010-07-06,60.6672
2010-07-07,64.3961
2010-07-08,65.9259
2010-07-09,68.4502
2010-07-12,67.5514
2010-07-13,70.5441
2010-07-14,71.2995
2010-07-15,69.4445
2010-07-16,66.4327
2010-07-19,67.5514
2010-07-20,69.3107
2010-07-21,69.8557
2010-07-22,72.5042
2010-07-23,73.6325
2010-07-26,74.4547
2010-07-27,75.8985
2010-07-28,76.281
2010-07-29,75.6212
2010-07-30,76.214
2010-08-02,77.8012
2010-08-03,76.4913
2010-08-04,77.9351
2010-08-05,77.9733
2010-08-06,77.5144
2010-08-09,77.5717
2010-08-10,77.8586
2010-08-11,74.3304
2010-08-12,74.5121
2010-08-13,74.2731
2010-08-16,74.4452
2010-08-17,77.0172
2010-08-18,78.3462
2010-08-19,77.937
2010-08-20,76.3063
2010-08-23,73.3423
2010-08-24,71.6828
2010-08-25,70.4454
2010-08-26,69.6589
2010-08-27,73.1025
2010-08-30,70.8387
2010-08-31,71.3759
2010-09-01,76.6324
2010-09-02,78.3878
2010-09-03,79.7979
2010-09-07,77.63
2010-09-08,78.4454
2010-09-09,78.2056
2010-09-10,78.5892
2010-09-13,81.3039
2010-09-14,81.6012
2010-09-15,79.9705
2010-09-16,80.6132
2010-09-17,81.6204
2010-09-20,84.3638
2010-09-21,85.4765
2010-09-22,84.8146
2010-09-23,84.6803
2010-09-24,87.1072
2010-09-27,85.9849
2010-09-28,87.2702
2010-09-29,87.5004
2010-09-30,86.8482
2010-10-01,87.6635
2010-10-04,85.9273
2010-10-05,88.3829
2010-10-06,89.3038
2010-10-07,88.4117
2010-10-08,89.1599
2010-10-11,89.227
2010-10-12,88.594
2010-10-13,89.0352
2010-10-14,89.8793
2010-10-15,89.7642
2010-10-18,87.6251
2010-10-19,86.3398
2010-10-20,88.335
2010-10-21,89.8601
2010-10-22,89.7066
2010-10-25,90.5987
2010-10-26,85.3038
2010-10-27,85.5628
2010-10-28,85.3614
2010-10-29,84.4981
2010-11-01,84.5364
2010-11-02,87.558
2010-11-03,87.6827
2010-11-04,91.7018
2010-11-05,92.4692
2010-11-08,91.4524
2010-11-09,89.4573
2010-11-10,90.7426
2010-11-11,91.1071
2010-11-12,90.2822
2010-11-15,90.1959
2010-11-16,87.5388
2010-11-17,88.2774
2010-11-18,90.2139
2010-11-19,90.7815
2010-11-22,91.9551
2010-11-23,91.3009
2010-11-24,94.8602
2010-11-26,94.4466
2010-11-29,93.5712
2010-11-30,93.5519
2010-12-01,96.6399
2010-12-02,99.9683
2010-12-03,98.9101
2010-12-06,101.046
2010-12-07,101.95
2010-12-08,101.123
2010-12-09,100.257
2010-12-10,100.969
2010-12-13,102.604
2010-12-14,104.105
2010-12-15,104.48
2010-12-16,104.393
2010-12-17,103.961
2010-12-20,105.019
2010-12-21,106.962
2010-12-22,107.077
2010-12-23,106.635
2010-12-27,105.644
2010-12-28,105.923
2010-12-29,105.875
2010-12-30,105.971
2010-12-31,105.856
2011-01-03,107.51
2011-01-04,107.202
2011-01-05,108.713
2011-01-06,106.086
2011-01-07,105.673
2011-01-10,106.885
2011-01-11,107.26
2011-01-12,107.626
2011-01-13,108.645
2011-01-14,108.203
2011-01-18,109.55
2011-01-19,107.077
2011-01-20,103.835
2011-01-21,101.036
2011-01-24,102.056
2011-01-25,102.979
2011-01-26,105.557
2011-01-27,105.711
2011-01-28,101.354
2011-01-31,101.883
2011-02-01,103.345
2011-02-02,102.681
2011-02-03,103.518
2011-02-04,105.48
2011-02-07,107.501
2011-02-08,107.481
2011-02-09,107.481
2011-02-10,106.721
2011-02-11,107.414
2011-02-14,109.117
2011-02-15,108.328
2011-02-16,107.125
2011-02-17,107.82
2011-02-18,106.074
2011-02-22,99.4116
2011-02-23,97.136
2011-02-24,97.2421
2011-02-25,98.6595
2011-02-28,97.4446
2011-03-01,96.4611
2011-03-02,96.7021
2011-03-03,100.154
2011-03-04,98.7945
2011-03-07,96.1236
2011-03-08,96.5093
2011-03-09,96.49
2011-03-10,95.0533
2011-03-11,95.1208
2011-03-14,94.0698
2011-03-15,96.4611
2011-03-16,95.3908
2011-03-17,96.4129
2011-03-18,96.3936
2011-03-21,98.9488
2011-03-22,98.081
2011-03-23,99.0452
2011-03-24,100.154
2011-03-25,100.839
2011-03-28,101.109
2011-03-29,103.78
2011-03-30,105.65
2011-03-31,105.766
2011-04-01,107.26
2011-04-04,106.749
2011-04-05,106.904
2011-04-06,106.335
2011-04-07,106.229
2011-04-08,104.888
2011-04-11,103.577
2011-04-12,102.005
2011-04-13,102.111
2011-04-14,101.629
2011-04-15,101.292
2011-04-18,99.1416
2011-04-19,101.562
2011-04-20,104.242
2011-04-21,105.11
2011-04-25,104.397
2011-04-26,112.207
2011-04-27,114.762
2011-04-28,113.46
2011-04-29,115.9
2011-05-02,114.087
2011-05-03,111.734
2011-05-04,108.591
2011-05-05,111.763
2011-05-06,113.055
2011-05-09,113.509
2011-05-10,114.135
2011-05-11,109.941
2011-05-12,108.948
2011-05-13,106.335
2011-05-16,106.171
2011-05-17,102.69
2011-05-18,104.52
2011-05-19,105.873
2011-05-20,102.886
2011-05-23,100.74
2011-05-24,99.2615
2011-05-25,101.659
2011-05-26,102.239
2011-05-27,101.417
2011-05-31,101.688
2011-06-01,97.2896
2011-06-02,99.6674
2011-06-03,98.0629
2011-06-06,96.6613
2011-06-07,97.5989
2011-06-08,93.1041
2011-06-09,93.3071
2011-06-10,89.7307
2011-06-13,90.3396
2011-06-14,92.7175
2011-06-15,89.373
2011-06-16,89.7693
2011-06-17,90.5909
2011-06-20,90.4363
2011-06-21,94.2157
2011-06-22,92.8141
2011-06-23,95.1147
2011-06-24,93.4231
2011-06-27,94.1577
2011-06-28,97.3186
2011-06-29,97.6376
2011-06-30,99.9478
2011-07-01,103.863
2011-07-05,102.142
2011-07-06,103.147
2011-07-07,105.129
2011-07-08,103.196
2011-07-11,100.228
2011-07-12,99.9091
2011-07-13,102.2
2011-07-14,100.856
2011-07-15,101.146
2011-07-18,99.9864
2011-07-19,102.915
2011-07-20,103.138
2011-07-21,104.008
2011-07-22,103.205
2011-07-25,103.012
2011-07-26,106.994
2011-07-27,103.109
2011-07-28,102.2
2011-07-29,101.485
2011-08-01,100.373
2011-08-02,95.801
2011-08-03,98.1692
2011-08-04,90.2333
2011-08-05,89.2957
2011-08-08,80.9635
2011-08-09,87.8361
2011-08-10,83.2157
2011-08-11,88.9574
2011-08-12,91.2482
2011-08-15,92.9591
2011-08-16,90.533
2011-08-17,88.7834
2011-08-18,80.8513
2011-08-19,77.4631
2011-08-22,77.5407
2011-08-23,81.5891
2011-08-24,84.0162
2011-08-25,82.56
2011-08-26,84.8803
2011-08-29,87.8704
2011-08-30,88.4238
2011-08-31,89.8995
2011-09-01,88.0937
2011-09-02,84.3754
2011-09-06,83.2201
2011-09-07,87.8122
2011-09-08,87.4724
2011-09-09,85.6084
2011-09-12,84.4531
2011-09-13,89.6374
2011-09-14,91.5111
2011-09-15,94.977
2011-09-16,94.841
2011-09-19,94.2294
2011-09-20,91.6276
2011-09-21,89.1131
2011-09-22,82.9386
2011-09-23,83.5793
2011-09-26,86.9481
2011-09-27,89.1714
2011-09-28,84.5308
2011-09-29,83.7735
2011-09-30,79.3174
2011-10-03,78.6572
2011-10-04,82.9677
2011-10-05,85.7734
2011-10-06,87.3656
2011-10-07,87.3753
2011-10-10,91.2587
2011-10-11,92.9479
2011-10-12,93.0644
2011-10-13,92.7635
2011-10-14,94.7343
2011-10-17,89.5014
2011-10-18,90.9771
2011-10-19,87.8996
2011-10-20,89.1617
2011-10-21,91.4917
2011-10-24,95.9478
2011-10-25,90.8995
2011-10-26,92.0936
2011-10-27,98.7147
2011-10-28,99.8214
2011-10-31,96.5497
2011-11-01,93.2586
2011-11-02,95.8119
2011-11-03,100.152
2011-11-04,100.21
2011-11-07,98.1419
2011-11-08,98.7341
2011-11-09,93.6469
2011-11-10,94.3459
2011-11-11,95.8604
2011-11-14,96.4623
2011-11-15,96.3847
2011-11-16,95.1323
2011-11-17,92.0712
2011-11-18,91.691
2011-11-21,88.9128
2011-11-22,87.2654
2011-11-23,84.7893
2011-11-25,84.4871
2011-11-28,88.1427
2011-11-29,86.271
2011-11-30,93.9428
2011-12-01,93.8843
2011-12-02,93.3969
2011-12-05,93.2312
2011-12-06,94.3133
2011-12-07,92.1589
2011-12-08,89.3612
2011-12-09,92.9485
2011-12-12,90.0728
2011-12-13,86.9242
2011-12-14,85.3547
2011-12-15,84.5456
2011-12-16,85.1598
2011-12-19,83.7073
2011-12-20,87.7235
2011-12-21,85.7447
2011-12-22,85.8811
2011-12-23,86.8462
2011-12-27,86.6122
2011-12-28,85.5497
2011-12-29,86.7974
2011-12-30,85.8714
2012-01-03,88.7568
2012-01-04,90.0533
2012-01-05,92.3831
2012-01-06,91.1451
2012-01-09,93.7771
2012-01-10,96.2824
2012-01-11,96.1167
2012-01-12,96.7503
2012-01-13,95.1808
2012-01-17,96.7503
2012-01-18,98.6219
2012-01-19,102.853
2012-01-20,102.044
2012-01-23,102.716
2012-01-24,104.1
2012-01-25,106.284
2012-01-26,104.412
2012-01-27,103.847
2012-01-30,102.57
2012-01-31,101.361
2012-02-01,103.33
2012-02-02,110.544
2012-02-03,117.056
2012-02-06,116.802
2012-02-07,116.578
2012-02-08,116.451
2012-02-09,118.196
2012-02-10,117.26
2012-02-13,119.785
2012-02-14,118.459
2012-02-15,117.845
2012-02-16,119.892
2012-02-17,119.064
2012-02-21,119.99
2012-02-22,119.657
2012-02-23,119.833
2012-02-24,119.011
2012-02-27,118.904
2012-02-28,119.041
2012-02-29,118.004
2012-03-01,118.962
2012-03-02,116.811
2012-03-05,117.534
2012-03-06,112.772
2012-03-07,115.138
2012-03-08,117.358
2012-03-09,116.292
2012-03-12,114.933
2012-03-13,121.632
2012-03-14,121.026
2012-03-15,124.312
2012-03-16,124.83
2012-03-19,125.221
2012-03-20,120.684
2012-03-21,121.026
2012-03-22,117.456
2012-03-23,118.943
2012-03-26,121.221
2012-03-27,119.842
2012-03-28,115.363
2012-03-29,117.045
2012-03-30,117.368
2012-04-02,118.933
2012-04-03,117.036
2012-04-04,112.938
2012-04-05,113.026
2012-04-09,112.997
2012-04-10,109.446
2012-04-11,109.261
2012-04-12,113.495
2012-04-13,111.432
2012-04-16,111.647
2012-04-17,113.427
2012-04-18,114.219
2012-04-19,112.283
2012-04-20,113.446
2012-04-23,112.156
2012-04-24,113.398
2012-04-25,112.605
2012-04-26,113.574
2012-04-27,115.735
2012-04-30,113.173
2012-05-01,108.547
2012-05-02,109.926
2012-05-03,107.901
2012-05-04,104.86
2012-05-07,103.187
2012-05-08,104.684
2012-05-09,104.469
2012-05-10,103.412
2012-05-11,104.156
2012-05-14,101.3
2012-05-15,100.733
2012-05-16,98.8379
2012-05-17,95.0972
2012-05-18,95.4801
2012-05-21,97.7088
2012-05-22,99.0833
2012-05-23,99.643
2012-05-24,98.3274
2012-05-25,97.0805
2012-05-29,99.1226
2012-05-30,97.2376
2012-05-31,95.2936
2012-06-01,91.8867
2012-06-04,90.0901
2012-06-05,90.7086
2012-06-06,93.9289
2012-06-07,95.5587
2012-06-08,95.0187
2012-06-11,90.6693
2012-06-12,95.0383
2012-06-13,91.8573
2012-06-14,91.386
2012-06-15,92.9471
2012-06-18,92.6427
2012-06-19,94.8812
2012-06-20,93.654
2012-06-21,89.6973
2012-06-22,88.745
2012-06-25,88.2443
2012-06-26,88.1166
2012-06-27,89.0199
2012-06-28,90.5024
2012-06-29,95.0285
2012-07-02,94.3511
2012-07-03,97.7383
2012-07-05,97.5125
2012-07-06,94.626
2012-07-09,93.7718
2012-07-10,85.2989
2012-07-11,82.0295
2012-07-12,84.2287
2012-07-13,87.1447
2012-07-16,84.9356
2012-07-17,84.9258
2012-07-18,85.8487
2012-07-19,87.0956
2012-07-20,84.4152
2012-07-23,85.9174
2012-07-24,85.3578
2012-07-25,85.397
2012-07-26,87.6257
2012-07-27,90.8362
2012-07-30,88.7253
2012-07-31,94.2529
2012-08-01,92.2304
2012-08-02,93.5656
2012-08-03,97.1885
2012-08-06,96.5601
2012-08-07,99.1226
2012-08-08,99.1226
2012-08-09,99.3779
2012-08-10,99.3975
2012-08-13,98.7986
2012-08-14,98.9852
2012-08-15,98.9164
2012-08-16,100.988
2012-08-17,101.263
2012-08-20,101.371
2012-08-21,101.322
2012-08-22,100.207
2012-08-23,99.0231
2012-08-24,98.737
2012-08-27,97.0697
2012-08-28,95.5898
2012-08-29,96.4975
2012-08-30,94.4257
2012-08-31,95.9647
2012-09-04,94.0606
2012-09-05,94.1297
2012-09-06,97.1881
2012-09-07,99.2106
2012-09-10,96.0141
2012-09-11,96.9513
2012-09-12,97.1684
2012-09-13,98.7567
2012-09-14,101.115
2012-09-17,98.5594
2012-09-18,97.7208
2012-09-19,97.8688
2012-09-20,95.6688
2012-09-21,94.8795
2012-09-24,93.9126
2012-09-25,91.2193
2012-09-26,91.0614
2012-09-27,91.4659
2012-09-28,90.9628
2012-10-01,91.022
2012-10-02,90.5089
2012-10-03,89.4533
2012-10-04,90.7457
2012-10-05,90.7457
2012-10-08,90.9134
2012-10-09,89.6309
2012-10-10,86.5922
2012-10-11,85.428
2012-10-12,86.4245
2012-10-15,87.9537
2012-10-16,90.2524
2012-10-17,91.1403
2012-10-18,91.8112
2012-10-19,90.7753
2012-10-22,92.1467
2012-10-23,92.2256
2012-10-24,91.022
2012-10-25,92.7978
2012-10-26,92.4821
2012-10-31,92.3834
2012-11-01,97.4249
2012-11-02,98.7271
2012-11-05,99.6052
2012-11-06,100.523
2012-11-07,96.9118
2012-11-08,95.3826
2012-11-09,95.7378
2012-11-12,97.3657
2012-11-13,96.2607
2012-11-14,93.0444
2012-11-15,93.6561
2012-11-16,94.6032
2012-11-19,97.2571
2012-11-20,97.2366
2012-11-21,97.3755
2012-11-23,98.5852
2012-11-26,98.7439
2012-11-27,98.8629
2012-11-28,99.2
2012-11-29,99.0413
2012-11-30,97.5639
2012-12-03,96.5524
2012-12-04,96.5326
2012-12-05,100.291
2012-12-06,99.5768
2012-12-07,100.806
2012-12-10,102.383
2012-12-11,104.614
2012-12-12,105.001
2012-12-13,104.574
2012-12-14,105.388
2012-12-17,104.931
2012-12-18,107.827
2012-12-19,107.034
2012-12-20,106.806
2012-12-21,107.133
2012-12-24,106.171
2012-12-26,106.29
2012-12-27,105.943
2012-12-28,105.041
2012-12-31,107.341
2013-01-02,112.319
2013-01-03,113.112
2013-01-04,112.884
2013-01-07,111.546
2013-01-08,110.286
2013-01-09,112.052
2013-01-10,111.426
2013-01-11,109.572
2013-01-14,110.554
2013-01-15,110.96
2013-01-16,111.03
2013-01-17,113.36
2013-01-18,114.59
2013-01-22,114.688
2013-01-23,114.212
2013-01-24,114.48
2013-01-25,115.918
2013-01-28,115.026
2013-01-29,115.165
2013-01-30,114.431
2013-01-31,113.866
2013-02-01,115.353
2013-02-04,115.413
2013-02-05,116.404
2013-02-06,119.31
2013-02-07,117.902
2013-02-08,118.371
2013-02-11,118.278
2013-02-12,118.021
2013-02-13,117.951
2013-02-14,117.693
2013-02-15,118.09
2013-02-19,117.832
2013-02-20,114.317
2013-02-21,111.917
2013-02-22,112.325
2013-02-25,110.802
2013-02-26,112.963
2013-02-27,115.363
2013-02-28,115.522
2013-03-01,114.427
2013-03-04,113.71
2013-03-05,115.841
2013-03-06,116.348
2013-03-07,116.816
2013-03-08,119.127
2013-03-11,119.127
2013-03-12,118.121
2013-03-13,117.275
2013-03-14,116.737
2013-03-15,116.876
2013-03-18,115.791
2013-03-19,114.725
2013-03-20,115.651
2013-03-21,113.57
2013-03-22,112.943
2013-03-25,111.867
2013-03-26,112.684
2013-03-27,113.311
2013-03-28,115.422
2013-04-01,112.216
2013-04-02,111.27
2013-04-03,112.057
2013-04-04,113.66
2013-04-05,112.545
2013-04-08,112.325
2013-04-09,114.566
2013-04-10,117.713
2013-04-11,117.743
2013-04-12,116.508
2013-04-15,109.458
2013-04-16,110.892
2013-04-17,107.755
2013-04-18,105.454
2013-04-19,106.659
2013-04-22,107.127
2013-04-23,107.078
2013-04-24,109.597
2013-04-25,111.628
2013-04-26,110.722
2013-04-29,112.803
2013-04-30,106.072
2013-05-01,103.094
2013-05-02,105.982
2013-05-03,110.155
2013-05-06,110.284
2013-05-07,112.515
2013-05-08,114.516
2013-05-09,113.67
2013-05-10,113.899
2013-05-13,112.863
2013-05-14,114.277
2013-05-15,114.158
2013-05-16,113.909
2013-05-17,115.861
2013-05-20,117.583
2013-05-21,118.39
2013-05-22,117.5
2013-05-23,116.94
2013-05-24,116.24
2013-05-28,117.24
2013-05-29,117.86
2013-05-30,117.77
2013-05-31,119.81
2013-06-03,118.42
2013-06-04,118.27
2013-06-05,115.96
2013-06-06,117.24
2013-06-07,118.6
2013-06-10,118.43
2013-06-11,117.36
2013-06-12,115.73
2013-06-13,118.31
2013-06-14,116.07
2013-06-17,116.08
2013-06-18,117.36
2013-06-19,115.78
2013-06-20,112.4
2013-06-21,111.03
2013-06-24,106.02
2013-06-25,107.49
2013-06-26,107.28
2013-06-27,108.49
2013-06-28,108.84
2013-07-01,110.42
2013-07-02,110.19
2013-07-03,108.9
2013-07-05,110.7
2013-07-08,110.83
2013-07-09,112.67
2013-07-10,113.71
2013-07-11,115.29
2013-07-12,115.42
2013-07-15,117.27
2013-07-16,116.07
2013-07-17,116.52
2013-07-18,117.07
2013-07-19,118.12
2013-07-22,118.03
2013-07-23,117.65
2013-07-24,116.28
2013-07-25,116.54
2013-07-26,115.86
2013-07-29,116.45
2013-07-30,118.44
2013-07-31,121.27
2013-08-01,122.98
2013-08-02,123.03
2013-08-05,122.66
2013-08-06,122.04
2013-08-07,122.21
2013-08-08,123.71
2013-08-09,124.01
