date,close_price
2001-07-02,19.4422
2001-07-03,18.991
2001-07-05,18.4085
2001-07-06,17.7851
2001-07-09,17.6538
2001-07-10,17.5144
2001-07-11,16.9647
2001-07-12,17.0303
2001-07-13,16.4561
2001-07-16,15.9147
2001-07-17,16.5299
2001-07-18,17.1124
2001-07-19,17.703
2001-07-20,17.6374
2001-07-23,17.0632
2001-07-24,17.0303
2001-07-25,17.7194
2001-07-26,17.7276
2001-07-27,17.3503
2001-07-30,16.694
2001-07-31,16.8991
2001-08-01,17.1862
2001-08-02,17.3339
2001-08-03,17.5144
2001-08-06,17.3503
2001-08-07,17.2601
2001-08-08,17.0303
2001-08-09,17.1949
2001-08-10,17.1373
2001-08-13,16.4617
2001-08-14,16.3545
2001-08-15,16.025
2001-08-16,16.2887
2001-08-17,16.3134
2001-08-20,16.1156
2001-08-21,16.1486
2001-08-22,16.3875
2001-08-23,16.3545
2001-08-24,16.1239
2001-08-27,16.0662
2001-08-28,16.0745
2001-08-29,15.9262
2001-08-30,16.3545
2001-08-31,16.7665
2001-09-04,16.7253
2001-09-05,16.5028
2001-09-06,16.2309
2001-09-07,15.267
2001-09-10,15.6543
2001-09-17,12.7789
2001-09-18,12.1608
2001-09-19,10.8261
2001-09-20,10.7438
2001-09-21,11.1227
2001-09-24,11.7159
2001-09-25,11.683
2001-09-26,11.3287
2001-09-27,11.1063
2001-09-28,11.6912
2001-10-01,11.9631
2001-10-02,12.3668
2001-10-03,12.474
2001-10-04,12.6882
2001-10-05,12.787
2001-10-08,12.8612
2001-10-09,12.4822
2001-10-10,12.5564
2001-10-11,12.3998
2001-10-12,12.5564
2001-10-15,12.5976
2001-10-16,12.441
2001-10-17,12.3668
2001-10-18,12.2268
2001-10-19,12.3504
2001-10-22,12.3091
2001-10-23,12.3668
2001-10-24,12.1279
2001-10-25,12.0702
2001-10-26,12.1444
2001-10-29,11.9466
2001-10-30,11.6995
2001-10-31,11.131
2001-11-01,11.3205
2001-11-02,11.3864
2001-11-05,11.5265
2001-11-06,11.8972
2001-11-07,12.0054
2001-11-08,12.4448
2001-11-09,12.536
2001-11-12,12.5277
2001-11-13,12.594
2001-11-14,12.5692
2001-11-15,12.5608
2001-11-16,12.9174
2001-11-19,13.4065
2001-11-20,13.4895
2001-11-21,13.8874
2001-11-23,13.9372
2001-11-26,14.0698
2001-11-27,13.9869
2001-11-28,13.6801
2001-11-29,14.0118
2001-11-30,13.9372
2001-12-03,14.3103
2001-12-04,14.5342
2001-12-05,14.8741
2001-12-06,15.0482
2001-12-07,15.67
2001-12-10,15.5871
2001-12-11,15.4545
2001-12-12,15.5788
2001-12-13,15.7197
2001-12-14,15.6286
2001-12-17,15.8358
2001-12-18,15.4627
2001-12-19,15.5456
2001-12-20,15.2388
2001-12-21,15.3383
2001-12-24,15.7446
2001-12-26,15.6783
2001-12-27,16.1923
2001-12-28,16.1675
2001-12-31,16.1923
2002-01-02,16.3084
2002-01-03,16.5406
2002-01-04,16.4659
2002-01-07,16.1343
2002-01-08,15.7363
2002-01-09,16.0845
2002-01-10,16.2007
2002-01-11,16.1426
2002-01-14,16.0597
2002-01-15,16.325
2002-01-16,16.5571
2002-01-17,16.5903
2002-01-18,16.6566
2002-01-22,17.6515
2002-01-23,17.2619
2002-01-24,17.9914
2002-01-25,18.3977
2002-01-28,18.4061
2002-01-29,18.033
2002-01-30,17.5935
2002-01-31,18.1988
2002-02-01,18.1573
2002-02-04,17.7925
2002-02-05,17.6599
2002-02-06,17.0629
2002-02-07,17.021
2002-02-08,17.6873
2002-02-11,17.4791
2002-02-12,17.7955
2002-02-13,17.8704
2002-02-14,18.0953
2002-02-15,18.7115
2002-02-19,18.1869
2002-02-20,17.7955
2002-02-21,18.2951
2002-02-22,19.1446
2002-02-25,18.9863
2002-02-26,18.7448
2002-02-27,19.3194
2002-02-28,19.2195
2002-03-01,19.0113
2002-03-04,19.5943
2002-03-05,19.2028
2002-03-06,20.0688
2002-03-07,20.0522
2002-03-08,20.0439
2002-03-11,21.0265
2002-03-12,19.9773
2002-03-13,19.994
2002-03-14,19.9273
2002-03-15,20.3686
2002-03-18,19.9773
2002-03-19,19.944
2002-03-20,19.9523
2002-03-21,20.2771
2002-03-22,19.7774
2002-03-25,19.7524
2002-03-26,19.9357
2002-03-27,21.3263
2002-03-28,21.0016
2002-04-01,21.0515
2002-04-02,21.1098
2002-04-03,20.1188
2002-04-04,19.9273
2002-04-05,19.0363
2002-04-08,18.978
2002-04-09,19.2195
2002-04-10,19.8607
2002-04-11,20.3354
2002-04-12,20.4603
2002-04-15,20.6851
2002-04-16,20.5852
2002-04-17,19.7774
2002-04-18,19.6858
2002-04-19,19.9606
2002-04-22,19.8107
2002-04-23,20.0688
2002-04-24,19.7274
2002-04-25,20.3936
2002-04-26,20.1022
2002-04-29,19.2945
2002-04-30,19.8773
2002-05-01,20.4519
2002-05-02,21.6927
2002-05-03,22.9668
2002-05-06,21.6843
2002-05-07,21.3263
2002-05-08,21.8926
2002-05-09,22.5945
2002-05-10,22.3019
2002-05-13,21.5165
2002-05-14,21.7171
2002-05-15,21.6502
2002-05-16,21.6836
2002-05-17,21.926
2002-05-20,21.4497
2002-05-21,20.6559
2002-05-22,21.0903
2002-05-23,21.4078
2002-05-24,21.3077
2002-05-28,21.0653
2002-05-29,20.8146
2002-05-30,22.1182
2002-05-31,21.834
2002-06-03,21.7839
2002-06-04,20.6976
2002-06-05,20.7812
2002-06-06,20.6892
2002-06-07,20.472
2002-06-10,20.965
2002-06-11,20.3885
2002-06-12,20.823
2002-06-13,20.5807
2002-06-14,19.9539
2002-06-17,20.9316
2002-06-18,20.8815
2002-06-19,21.3912
2002-06-20,22.1515
2002-06-21,21.483
2002-06-24,21.6585
2002-06-25,21.9844
2002-06-26,21.6168
2002-06-27,21.7756
2002-06-28,22.912
2002-07-01,22.1766
2002-07-02,21.0319
2002-07-03,20.5138
2002-07-05,20.9066
2002-07-08,21.0737
2002-07-09,20.564
2002-07-10,19.2771
2002-07-11,19.6281
2002-07-12,19.2939
2002-07-15,18.8844
2002-07-16,18.9764
2002-07-17,19.5111
2002-07-18,19.4359
2002-07-19,18.9429
2002-07-22,18.5167
2002-07-23,18.1908
2002-07-24,19.8955
2002-07-25,20.4052
2002-07-26,19.8787
2002-07-29,20.7644
2002-07-30,21.2491
2002-07-31,21.3077
2002-08-01,20.8815
2002-08-02,20.4888
2002-08-05,20.4136
2002-08-06,20.5723
2002-08-07,20.8815
2002-08-08,21.8794
2002-08-09,21.7285
2002-08-12,21.5859
2002-08-13,19.7913
2002-08-14,19.1707
2002-08-15,19.0365
2002-08-16,19.59
2002-08-19,19.2881
2002-08-20,18.6339
2002-08-21,19.0281
2002-08-22,18.6508
2002-08-23,18.0554
2002-08-26,17.2251
2002-08-27,16.9819
2002-08-28,17.6192
2002-08-29,17.6276
2002-08-30,17.6947
2002-09-03,16.94
2002-09-04,17.4934
2002-09-05,17.1748
2002-09-06,17.2671
2002-09-09,17.5606
2002-09-10,17.527
2002-09-11,17.5606
2002-09-12,17.8289
2002-09-13,16.898
2002-09-16,17.7367
2002-09-17,17.1664
2002-09-18,17.4431
2002-09-19,17.9379
2002-09-20,18.3824
2002-09-23,18.4076
2002-09-24,18.0973
2002-09-25,18.4327
2002-09-26,19.0449
2002-09-27,18.5501
2002-09-30,18.3404
2002-10-01,18.9778
2002-10-02,18.8269
2002-10-03,18.6843
2002-10-04,18.1476
2002-10-07,18.2146
2002-10-08,18.3237
2002-10-09,17.5437
2002-10-10,18.4495
2002-10-11,18.7597
2002-10-14,18.4747
2002-10-15,18.7849
2002-10-16,18.5753
2002-10-17,17.9296
2002-10-18,17.6612
2002-10-21,18.6508
2002-10-22,18.4998
2002-10-23,18.8101
2002-10-24,18.8269
2002-10-25,18.2901
2002-10-28,17.3257
2002-10-29,18.2566
2002-10-30,19.5145
2002-10-31,18.8269
2002-11-01,19.2881
2002-11-04,18.2398
2002-11-05,18.8688
2002-11-06,19.0456
2002-11-07,18.3552
2002-11-08,18.1026
2002-11-11,16.8396
2002-11-12,17.1764
2002-11-13,17.1343
2002-11-14,17.5637
2002-11-15,17.8247
2002-11-18,17.9005
2002-11-19,17.8331
2002-11-20,18.3047
2002-11-21,19.5171
2002-11-22,20.258
2002-11-25,18.953
2002-11-26,18.7004
2002-11-27,18.1699
2002-11-29,18.0183
2002-12-02,17.7236
2002-12-03,17.5637
2002-12-04,17.6731
2002-12-05,17.4205
2002-12-06,17.7742
2002-12-09,17.5973
2002-12-10,17.8247
2002-12-11,18.1278
2002-12-12,18.2036
2002-12-13,18.1952
2002-12-16,18.1699
2002-12-17,18.1446
2002-12-18,18.431
2002-12-19,18.7172
2002-12-20,19.256
2002-12-23,19.4161
2002-12-24,19.5507
2002-12-26,19.2982
2002-12-27,19.2897
2002-12-30,19.3655
2002-12-31,19.576
2003-01-02,19.7781
2003-01-03,19.7023
2003-01-06,19.8707
2003-01-07,19.6518
2003-01-08,19.5254
2003-01-09,19.9802
2003-01-10,20.0897
2003-01-13,19.6602
2003-01-14,19.6687
2003-01-15,18.9951
2003-01-16,18.4983
2003-01-17,18.7087
2003-01-21,18.2877
2003-01-22,17.4795
2003-01-23,17.4374
2003-01-24,17.3195
2003-01-27,16.7891
2003-01-28,17.3616
2003-01-29,17.2269
2003-01-30,16.9659
2003-01-31,17.37
2003-02-03,17.471
2003-02-04,17.3532
2003-02-05,17.3616
2003-02-06,17.1511
2003-02-07,17.0585
2003-02-10,17.3195
2003-02-11,17.0922
2003-02-12,16.848
2003-02-13,16.9912
2003-02-14,17.3447
2003-02-18,17.37
2003-02-19,17.3784
2003-02-20,16.8286
2003-02-21,17.04
2003-02-24,16.7017
2003-02-25,16.9554
2003-02-26,16.6341
2003-02-27,16.8962
2003-02-28,16.6341
2003-03-03,16.7609
2003-03-04,16.2535
2003-03-05,15.8138
2003-03-06,15.8223
2003-03-07,15.4924
2003-03-10,15.1372
2003-03-11,14.7905
2003-03-12,14.706
2003-03-13,15.3064
2003-03-14,15.4671
2003-03-17,16.3296
2003-03-18,16.3635
2003-03-19,16.4396
2003-03-20,16.2366
2003-03-21,16.465
2003-03-24,16.0506
2003-03-25,15.9999
2003-03-26,15.7039
2003-03-27,15.6108
2003-03-28,15.5601
2003-03-31,15.5093
2003-04-01,15.8053
2003-04-02,15.9238
2003-04-03,15.6193
2003-04-04,15.4924
2003-04-07,15.5939
2003-04-08,15.6616
2003-04-09,15.6869
2003-04-10,15.7546
2003-04-11,15.5263
2003-04-14,15.8223
2003-04-15,16.4057
2003-04-16,16.6087
2003-04-17,17.336
2003-04-21,17.2514
2003-04-22,17.6911
2003-04-23,17.7757
2003-04-24,17.226
2003-04-25,17.1499
2003-04-28,17.5727
2003-04-29,17.9364
2003-04-30,18.1224
2003-05-01,18.0886
2003-05-02,18.0125
2003-05-05,17.928
2003-05-06,18.6045
2003-05-07,18.8751
2003-05-08,18.7899
2003-05-09,19.0277
2003-05-12,19.1381
2003-05-13,19.0956
2003-05-14,19.0786
2003-05-15,19.1635
2003-05-16,19.5541
2003-05-19,19.0107
2003-05-20,18.7985
2003-05-21,18.4249
2003-05-22,18.357
2003-05-23,18.5182
2003-05-27,19.0192
2003-05-28,19.0616
2003-05-29,19.0107
2003-05-30,19.5116
2003-06-02,19.7579
2003-06-03,19.7154
2003-06-04,19.8003
2003-06-05,20.1145
2003-06-06,20.0805
2003-06-09,19.4522
2003-06-10,19.3843
2003-06-11,19.8428
2003-06-12,20.2079
2003-06-13,19.8683
2003-06-16,20.2419
2003-06-17,19.9447
2003-06-18,20.5305
2003-06-19,20.0975
2003-06-20,20.5391
2003-06-23,20.4117
2003-06-24,20.3353
2003-06-25,20.9975
2003-06-26,20.938
2003-06-27,20.8362
2003-06-30,20.8701
2003-07-01,21.3626
2003-07-02,21.2947
2003-07-03,21.4306
2003-07-07,21.4815
2003-07-08,21.6343
2003-07-09,21.6513
2003-07-10,21.5919
2003-07-11,21.439
2003-07-14,21.3287
2003-07-15,21.8211
2003-07-16,22.3305
2003-07-17,21.4051
2003-07-18,21.4306
2003-07-21,21.1504
2003-07-22,22.0843
2003-07-23,21.6683
2003-07-24,21.6088
2003-07-25,22.2202
2003-07-28,21.8466
2003-07-29,21.906
2003-07-30,22.1267
2003-07-31,22.0334
2003-08-01,22.1267
2003-08-04,22.0588
2003-08-05,21.6938
2003-08-06,21.6683
2003-08-07,21.6
2003-08-08,21.3699
2003-08-11,21.4381
2003-08-12,22.0261
2003-08-13,21.8641
2003-08-14,22.1538
2003-08-15,22.222
2003-08-18,22.6907
2003-08-19,22.7162
2003-08-20,22.5373
2003-08-21,23.0656
2003-08-22,22.8014
2003-08-25,22.8185
2003-08-26,22.9718
2003-08-27,22.9973
2003-08-28,23.0059
2003-08-29,23.0059
2003-09-02,23.0911
2003-09-03,23.236
2003-09-04,23.466
2003-09-05,22.9973
2003-09-08,23.2871
2003-09-09,22.8525
2003-09-10,22.4094
2003-09-11,21.9834
2003-09-12,21.5573
2003-09-15,21.4466
2003-09-16,21.5489
2003-09-17,21.5489
2003-09-18,22.3669
2003-09-19,22.5117
2003-09-22,22.0431
2003-09-23,21.8982
2003-09-24,21.3529
2003-09-25,21.3018
2003-09-26,21.2251
2003-09-29,21.4722
2003-09-30,21.4892
2003-10-01,21.7023
2003-10-02,21.813
2003-10-03,21.8982
2003-10-06,21.8811
2003-10-07,22.0261
2003-10-08,21.9578
2003-10-09,22.0431
2003-10-10,22.2646
2003-10-13,22.5287
2003-10-14,22.7418
2003-10-15,22.6991
2003-10-16,22.7929
2003-10-17,22.5031
2003-10-20,23.057
2003-10-21,22.8269
2003-10-22,22.5798
2003-10-23,22.8014
2003-10-24,22.844
2003-10-27,22.8269
2003-10-28,23.1167
2003-10-29,23.3041
2003-10-30,23.1167
2003-10-31,23.3127
2003-11-03,23.5853
2003-11-04,23.5938
2003-11-05,23.7216
2003-11-06,23.8153
2003-11-07,23.8239
2003-11-10,23.4575
2003-11-11,22.9122
2003-11-12,22.844
2003-11-13,22.9295
2003-11-14,22.4849
2003-11-17,22.5961
2003-11-18,22.6986
2003-11-19,22.9295
2003-11-20,22.7756
2003-11-21,22.9722
2003-11-24,23.1774
2003-11-25,23.28
2003-11-26,22.9637
2003-11-28,22.9894
2003-12-01,23.2202
2003-12-02,23.1774
2003-12-03,22.9381
2003-12-04,23.2202
2003-12-05,22.9381
2003-12-08,23.3911
2003-12-09,23.2373
2003-12-10,23.0321
2003-12-11,23.1005
2003-12-12,23.1261
2003-12-15,24.2888
2003-12-16,24.5368
2003-12-17,24.9985
2003-12-18,25.0498
2003-12-19,25.0498
2003-12-22,24.9386
2003-12-23,25.2122
2003-12-24,25.1353
2003-12-26,25.0925
2003-12-29,25.4345
2003-12-30,25.4431
2003-12-31,25.6738
2004-01-02,25.0925
2004-01-05,25.3746
2004-01-06,25.2892
2004-01-07,25.4601
2004-01-08,25.7764
2004-01-09,25.4858
2004-01-12,25.4345
2004-01-13,25.6397
2004-01-14,27.683
2004-01-15,27.9822
2004-01-16,28.2301
2004-01-20,27.7514
2004-01-21,27.7856
2004-01-22,27.6146
2004-01-23,27.341
2004-01-26,27.4693
2004-01-27,28.2473
2004-01-28,28.1532
2004-01-29,28.7346
2004-01-30,27.8968
2004-02-02,28.4952
2004-02-03,28.6662
2004-02-04,28.025
2004-02-05,27.6573
2004-02-06,27.6146
2004-02-09,27.6659
2004-02-10,28.1447
2004-02-11,28.6833
2004-02-12,28.2045
2004-02-13,28.196
2004-02-17,28.3584
2004-02-18,28.0507
2004-02-19,27.9992
2004-02-20,27.4934
2004-02-23,26.9704
2004-02-24,26.8418
2004-02-25,27.3133
2004-02-26,26.919
2004-02-27,27.8534
2004-03-01,27.7506
2004-03-02,27.4162
2004-03-03,27.5105
2004-03-04,27.4248
2004-03-05,27.742
2004-03-08,27.3133
2004-03-09,26.3703
2004-03-10,25.8817
2004-03-11,25.5902
2004-03-12,26.4903
2004-03-15,26.0103
2004-03-16,25.6331
2004-03-17,26.2075
2004-03-18,25.916
2004-03-19,26.0875
2004-03-22,25.7874
2004-03-23,25.9589
2004-03-24,25.7102
2004-03-25,26.4561
2004-03-26,26.7218
2004-03-29,26.7647
2004-03-30,27.0991
2004-03-31,27.1077
2004-04-01,27.3391
2004-04-02,27.6906
2004-04-05,27.8791
2004-04-06,27.6992
2004-04-07,27.9221
2004-04-08,27.6049
2004-04-12,28.2306
2004-04-13,27.862
2004-04-14,27.9049
2004-04-15,28.0078
2004-04-16,28.1621
2004-04-19,27.9992
2004-04-20,27.2962
2004-04-21,27.3563
2004-04-22,28.1364
2004-04-23,27.9906
2004-04-26,28.2564
2004-04-27,28.7793
2004-04-28,28.565
2004-04-29,27.7591
2004-04-30,27.622
2004-05-03,27.502
2004-05-04,27.3563
2004-05-05,27.4248
2004-05-06,27.0476
2004-05-07,26.7389
2004-05-10,25.9245
2004-05-11,25.8731
2004-05-12,25.8045
2004-05-13,25.7358
2004-05-14,25.7959
2004-05-17,25.2628
2004-05-18,25.3489
2004-05-19,25.6154
2004-05-20,25.5552
2004-05-21,25.3918
2004-05-24,25.3058
2004-05-25,25.5122
2004-05-26,25.4434
2004-05-27,25.8132
2004-05-28,25.8132
2004-06-01,25.968
2004-06-02,26.4581
2004-06-03,26.3377
2004-06-04,26.8364
2004-06-07,27.3609
2004-06-08,27.4297
2004-06-09,27.1889
2004-06-10,27.2835
2004-06-14,26.8622
2004-06-15,26.8708
2004-06-16,27.3351
2004-06-17,27.3695
2004-06-18,27.7479
2004-06-21,27.9027
2004-06-22,28.0918
2004-06-23,28.1777
2004-06-24,28.023
2004-06-25,27.7392
2004-06-28,27.6533
2004-06-29,28.5561
2004-06-30,28.5991
2004-07-01,28.9
2004-07-02,28.7109
2004-07-06,28.4702
2004-07-07,28.4357
2004-07-08,28.4873
2004-07-09,28.6593
2004-07-12,28.9431
2004-07-13,30.0953
2004-07-14,29.9663
2004-07-15,29.4675
2004-07-16,29.373
2004-07-19,29.3472
2004-07-20,29.201
2004-07-21,29.8373
2004-07-22,28.7109
2004-07-23,28.6335
2004-07-26,28.6335
2004-07-27,28.8141
2004-07-28,29.1838
2004-07-29,29.6739
2004-07-30,29.459
2004-08-02,29.4933
2004-08-03,29.5536
2004-08-04,29.7771
2004-08-05,29.33
2004-08-06,29.0548
2004-08-09,28.9345
2004-08-10,29.2106
2004-08-11,28.9258
2004-08-12,28.477
2004-08-13,28.6237
2004-08-16,29.1933
2004-08-17,29.038
2004-08-18,29.1933
2004-08-19,29.2106
2004-08-20,29.2451
2004-08-23,29.4435
2004-08-24,29.4953
2004-08-25,30.3066
2004-08-26,29.9958
2004-08-27,29.9613
2004-08-30,29.4004
2004-08-31,29.6766
2004-09-01,29.6507
2004-09-02,30.6517
2004-09-03,30.2892
2004-09-07,31.2385
2004-09-08,30.8674
2004-09-09,30.7552
2004-09-10,30.9278
2004-09-13,31.0746
2004-09-14,31.3162
2004-09-15,31.1954
2004-09-16,31.5578
2004-09-17,31.9202
2004-09-20,31.4111
2004-09-21,31.9375
2004-09-22,31.5578
2004-09-23,31.1349
2004-09-24,31.5664
2004-09-27,31.1177
2004-09-28,31.1695
2004-09-29,30.8933
2004-09-30,32.0152
2004-10-01,32.7141
2004-10-04,32.6019
2004-10-05,32.1101
2004-10-06,32.0411
2004-10-07,31.4888
2004-10-08,31.0141
2004-10-11,31.4024
2004-10-12,31.3421
2004-10-13,30.8502
2004-10-14,31.0659
2004-10-15,31.3162
2004-10-18,31.2385
2004-10-19,31.2039
2004-10-20,30.807
2004-10-21,31.2472
2004-10-22,30.6172
2004-10-25,30.4274
2004-10-26,30.8588
2004-10-27,31.0228
2004-10-28,30.8243
2004-10-29,30.6085
2004-11-01,31.4456
2004-11-02,31.506
2004-11-03,32.8435
2004-11-04,33.8532
2004-11-05,33.7756
2004-11-08,33.4304
2004-11-09,33.3354
2004-11-10,33.5605
2004-11-11,34.253
2004-11-12,34.3742
2004-11-15,34.1925
2004-11-16,34.4955
2004-11-17,34.2357
2004-11-18,34.1492
2004-11-19,33.8289
2004-11-22,34.1578
2004-11-23,34.4435
2004-11-24,33.8722
2004-11-26,33.8808
2004-11-29,33.9155
2004-11-30,34.4781
2004-12-01,35.3437
2004-12-02,35.2918
2004-12-03,35.1014
2004-12-06,35.0668
2004-12-07,33.8722
2004-12-08,33.8895
2004-12-09,33.8375
2004-12-10,33.7164
2004-12-13,34.2271
2004-12-14,34.305
2004-12-15,34.6426
2004-12-16,34.5647
2004-12-17,34.582
2004-12-20,34.3742
2004-12-21,34.582
2004-12-22,34.9542
2004-12-23,34.9715
2004-12-27,34.5128
2004-12-28,34.8244
2004-12-29,34.1492
2004-12-30,34.2011
2004-12-31,34.1233
2005-01-03,33.6644
2005-01-04,32.9892
2005-01-05,32.9027
2005-01-06,32.6344
2005-01-07,32.8507
2005-01-10,32.7122
2005-01-11,32.4353
2005-01-12,34.4435
2005-01-13,34.9715
2005-01-14,35.2485
2005-01-18,35.3264
2005-01-19,35.5688
2005-01-20,35.4563
2005-01-21,35.7159
2005-01-24,35.8371
2005-01-25,35.2225
2005-01-26,36.7374
2005-01-27,37.0317
2005-01-28,36.7807
2005-01-31,37.1616
2005-02-01,37.5251
2005-02-02,37.7676
2005-02-03,37.1963
2005-02-04,38.1138
2005-02-07,38.0445
2005-02-08,38.1138
2005-02-09,38.3042
2005-02-10,39.0593
2005-02-11,39.7451
2005-02-14,39.4586
2005-02-15,39.9881
2005-02-16,40.3701
2005-02-17,40.5697
2005-02-18,40.2311
2005-02-22,39.5281
2005-02-23,39.6062
2005-02-24,40.4482
2005-02-25,40.7519
2005-02-28,40.0402
2005-03-01,40.3701
2005-03-02,40.5783
2005-03-03,40.4222
2005-03-04,41.3682
2005-03-07,41.5592
2005-03-08,41.5592
2005-03-09,41.4724
2005-03-10,41.5071
2005-03-11,41.2293
2005-03-14,41.5853
2005-03-15,41.9325
2005-03-16,41.0557
2005-03-17,41.0731
2005-03-18,40.6131
2005-03-21,40.5958
2005-03-22,40.8648
2005-03-23,40.8909
2005-03-24,41.2293
2005-03-28,41.1773
2005-03-29,40.5002
2005-03-30,41.2727
2005-03-31,41.2641
2005-04-01,41.3682
2005-04-04,40.9776
2005-04-05,41.0124
2005-04-06,40.7173
2005-04-07,40.4916
2005-04-08,39.6322
2005-04-11,39.8406
2005-04-12,39.9447
2005-04-13,39.3545
2005-04-14,39.0334
2005-04-15,38.391
2005-04-18,39.016
2005-04-19,39.7364
2005-04-20,39.2243
2005-04-21,40.561
2005-04-22,40.1444
2005-04-25,40.9689
2005-04-26,40.8127
2005-04-27,40.127
2005-04-28,39.4152
2005-04-29,39.8145
2005-05-02,40.1183
2005-05-03,40.5697
2005-05-04,40.318
2005-05-05,40.344
2005-05-06,40.6738
2005-05-09,41.2293
2005-05-10,40.9603
2005-05-11,41.1425
2005-05-12,40.6987
2005-05-13,40.6465
2005-05-16,41.4646
2005-05-17,42.0214
2005-05-18,42.7089
2005-05-19,42.5087
2005-05-20,42.152
2005-05-23,42.2042
2005-05-24,42.7176
2005-05-25,42.4217
2005-05-26,42.8482
2005-05-27,43.1265
2005-05-31,43.0135
2005-06-01,43.1179
2005-06-02,43.057
2005-06-03,42.8307
2005-06-06,42.6132
2005-06-07,42.1433
2005-06-08,42.2129
2005-06-09,42.2477
2005-06-10,42.0214
2005-06-13,42.0388
2005-06-14,41.6821
2005-06-15,41.8213
2005-06-16,42.1867
2005-06-17,42.0041
2005-06-20,41.7952
2005-06-21,41.656
2005-06-22,42.0737
2005-06-23,41.4732
2005-06-24,41.1425
2005-06-27,41.2296
2005-06-28,42.0041
2005-06-29,41.5603
2005-06-30,41.4646
2005-07-01,41.1078
2005-07-05,41.2818
2005-07-06,40.7336
2005-07-07,40.5508
2005-07-08,40.8902
2005-07-11,41.2208
2005-07-12,40.8641
2005-07-13,40.6205
2005-07-14,40.9685
2005-07-15,40.3072
2005-07-18,40.3506
2005-07-19,40.7771
2005-07-20,41.5081
2005-07-21,41.595
2005-07-22,41.2818
2005-07-25,41.6299
2005-07-26,41.7952
2005-07-27,41.8213
2005-07-28,42.6915
2005-07-29,42.4044
2005-08-01,42.6045
2005-08-02,42.6828
2005-08-03,41.917
2005-08-04,41.3165
2005-08-05,41.3253
2005-08-08,41.595
2005-08-09,41.9605
2005-08-10,42.2564
2005-08-11,42.7276
2005-08-12,42.4396
2005-08-15,42.8147
2005-08-16,42.8759
2005-08-17,42.9281
2005-08-18,42.9718
2005-08-19,42.998
2005-08-22,43.0939
2005-08-23,42.8583
2005-08-24,42.2128
2005-08-25,42.3001
2005-08-26,42.3698
2005-08-29,42.4746
2005-08-30,41.9599
2005-08-31,41.9599
2005-09-01,41.9424
2005-09-02,40.8171
2005-09-06,41.5237
2005-09-07,41.7069
2005-09-08,41.323
2005-09-09,41.8203
2005-09-12,41.672
2005-09-13,41.7243
2005-09-14,41.5934
2005-09-15,41.8203
2005-09-16,42.1954
2005-09-19,41.0788
2005-09-20,40.9654
2005-09-21,40.5379
2005-09-22,40.8083
2005-09-23,41.1747
2005-09-26,41.4365
2005-09-27,41.3928
2005-09-28,41.8552
2005-09-29,41.7679
2005-09-30,42.1604
2005-10-03,41.9162
2005-10-04,41.6807
2005-10-05,41.5149
2005-10-06,41.5324
2005-10-07,41.5149
2005-10-10,41.1485
2005-10-11,41.1224
2005-10-12,41.2358
2005-10-13,41.4888
2005-10-14,41.6894
2005-10-17,41.9599
2005-10-18,41.6981
2005-10-19,42.1954
2005-10-20,41.6632
2005-10-21,41.2445
2005-10-24,41.6022
2005-10-25,41.5237
2005-10-26,40.0843
2005-10-27,39.1247
2005-10-28,39.84
2005-10-31,39.9447
2005-11-01,39.0374
2005-11-02,39.5173
2005-11-03,39.2904
2005-11-04,39.7877
2005-11-07,39.875
2005-11-08,39.6917
2005-11-09,39.3507
2005-11-10,39.0796
2005-11-11,38.9483
2005-11-14,38.2923
2005-11-15,39.2808
2005-11-16,39.272
2005-11-17,39.2195
2005-11-18,39.2632
2005-11-21,39.9717
2005-11-22,39.6918
2005-11-23,39.8055
2005-11-25,39.9717
2005-11-28,39.0271
2005-11-29,39.7792
2005-11-30,39.9192
2005-12-01,40.5315
2005-12-02,40.9076
2005-12-05,40.6714
2005-12-06,40.8901
2005-12-07,40.8463
2005-12-08,40.925
2005-12-09,41.3099
2005-12-12,41.2487
2005-12-13,41.756
2005-12-14,42.0272
2005-12-15,42.0883
2005-12-16,41.3887
2005-12-19,40.7414
2005-12-20,41.5286
2005-12-21,41.4499
2005-12-22,42.1321
2005-12-23,42.4557
2005-12-27,41.4236
2005-12-28,41.7735
2005-12-29,41.4061
2005-12-30,40.6976
2006-01-03,41.0913
2006-01-04,41.5023
2006-01-05,41.1262
2006-01-06,41.1613
2006-01-09,41.2312
2006-01-10,40.995
2006-01-11,40.4615
2006-01-12,40.2515
2006-01-13,39.8755
2006-01-17,39.5868
2006-01-18,39.5781
2006-01-19,39.6656
2006-01-20,39.4032
2006-01-23,38.3186
2006-01-24,38.5985
2006-01-25,38.4848
2006-01-26,40.8463
2006-01-27,40.514
2006-01-30,40.5752
2006-01-31,41.1088
2006-02-01,42.858
2006-02-02,42.4557
2006-02-03,42.8668
2006-02-06,43.7415
2006-02-07,43.6802
2006-02-08,44.2662
2006-02-09,44.424
2006-02-10,44.4328
2006-02-13,45.2832
2006-02-14,46.3353
2006-02-15,46.2126
2006-02-16,46.6422
2006-02-17,46.3791
2006-02-21,46.3265
2006-02-22,46.8789
2006-02-23,47.1244
2006-02-24,47.3875
2006-02-27,47.2734
2006-02-28,46.6334
2006-03-01,46.537
2006-03-02,46.3002
2006-03-03,46.423
2006-03-06,45.5813
2006-03-07,45.9759
2006-03-08,45.7303
2006-03-09,45.4059
2006-03-10,45.9233
2006-03-13,46.2126
2006-03-14,46.5019
2006-03-15,46.6509
2006-03-16,47.0104
2006-03-17,47.6329
2006-03-20,47.7118
2006-03-21,48.0098
2006-03-22,48.3079
2006-03-23,47.8784
2006-03-24,47.8083
2006-03-27,47.9748
2006-03-28,47.931
2006-03-29,49.2022
2006-03-30,49.1935
2006-03-31,49.4127
2006-04-03,48.571
2006-04-04,49.0094
2006-04-05,49.474
2006-04-06,49.1935
2006-04-07,48.7639
2006-04-10,49.4565
2006-04-11,48.7727
2006-04-12,48.5622
2006-04-13,49.0795
2006-04-17,49.0357
2006-04-18,50.3245
2006-04-19,50.5874
2006-04-20,51.245
2006-04-21,51.6484
2006-04-24,52.8407
2006-04-25,52.0692
2006-04-26,51.2012
2006-04-27,50.605
2006-04-28,50.1491
2006-05-01,50.079
2006-05-02,50.7628
2006-05-03,51.0609
2006-05-04,50.4998
2006-05-05,50.8154
2006-05-08,50.5349
2006-05-09,50.1666
2006-05-10,50.3333
2006-05-11,50.0694
2006-05-12,49.3925
2006-05-15,49.5507
2006-05-16,49.4189
2006-05-17,48.3551
2006-05-18,47.2386
2006-05-19,47.9946
2006-05-22,47.8276
2006-05-23,47.2737
2006-05-24,47.0978
2006-05-25,47.1418
2006-05-26,48.0034
2006-05-30,47.4847
2006-05-31,47.977
2006-06-01,48.3727
2006-06-02,48.0826
2006-06-05,47.4407
2006-06-06,46.8165
2006-06-07,46.4033
2006-06-08,46.5352
2006-06-09,46.289
2006-06-12,45.0582
2006-06-13,44.2142
2006-06-14,45.1549
2006-06-15,47.1858
2006-06-16,47.4759
2006-06-19,46.922
2006-06-20,46.5352
2006-06-21,47.6693
2006-06-22,47.1242
2006-06-23,46.9132
2006-06-26,47.0891
2006-06-27,46.8605
2006-06-28,47.555
2006-06-29,48.8034
2006-06-30,49.1464
2006-07-03,49.6387
2006-07-05,49.0672
2006-07-06,49.0848
2006-07-07,48.5572
2006-07-10,48.7507
2006-07-11,49.3925
2006-07-12,49.12
2006-07-13,48.0122
2006-07-14,47.1681
2006-07-17,47.2561
2006-07-18,46.8165
2006-07-19,48.4166
2006-07-20,47.4143
2006-07-21,47.432
2006-07-24,48.1441
2006-07-25,49.0936
2006-07-26,48.5309
2006-07-27,47.133
2006-07-28,46.7286
2006-07-31,46.9396
2006-08-01,46.5616
2006-08-02,46.5616
2006-08-03,46.6319
2006-08-04,46.2715
2006-08-07,46.1659
2006-08-08,46.2362
2006-08-09,45.5241
2006-08-10,45.9387
2006-08-11,45.9122
2006-08-14,45.7623
2006-08-15,46.4326
2006-08-16,47.2968
2006-08-17,47.5526
2006-08-18,47.0852
2006-08-21,47.0058
2006-08-22,46.7853
2006-08-23,47.1822
2006-08-24,46.5736
2006-08-25,46.2474
2006-08-28,47.0234
2006-08-29,46.6178
2006-08-30,46.4679
2006-08-31,46.2738
2006-09-01,46.653
2006-09-05,47.1469
2006-09-06,47.2616
2006-09-07,46.944
2006-09-08,47.2263
2006-09-11,46.997
2006-09-12,47.2616
2006-09-13,47.4908
2006-09-14,47.2174
2006-09-15,46.6443
2006-09-18,46.2915
2006-09-19,46.8735
2006-09-20,47.4203
2006-09-21,47.3497
2006-09-22,47.0764
2006-09-25,47.8612
2006-09-26,48.1523
2006-09-27,47.9141
2006-09-28,48.2317
2006-09-29,48.3815
2006-10-02,48.6726
2006-10-03,49.0871
2006-10-04,49.9073
2006-10-05,50.1102
2006-10-06,50.1366
2006-10-09,50.4893
2006-10-10,50.6305
2006-10-11,50.7716
2006-10-12,51.0096
2006-10-13,51.1596
2006-10-16,51.5477
2006-10-17,51.3007
2006-10-18,51.4771
2006-10-19,51.2302
2006-10-20,51.0009
2006-10-23,50.7804
2006-10-24,51.5564
2006-10-25,50.8421
2006-10-26,51.089
2006-10-27,51.0626
2006-10-30,51.3801
2006-10-31,51.1684
2006-11-01,50.992
2006-11-02,50.8774
2006-11-03,51.1331
2006-11-06,51.4594
2006-11-07,51.6887
2006-11-08,51.433
2006-11-09,51.265
2006-11-10,51.2915
2006-11-13,51.5038
2006-11-14,51.9902
2006-11-15,52.9452
2006-11-16,52.9806
2006-11-17,52.8392
2006-11-20,52.8214
2006-11-21,52.7861
2006-11-22,53.2194
2006-11-24,53.4582
2006-11-27,52.3439
2006-11-28,52.901
2006-11-29,53.6615
2006-11-30,53.3255
2006-12-01,53.3078
2006-12-04,53.7854
2006-12-05,54.3425
2006-12-06,54.1391
2006-12-07,54.3779
2006-12-08,54.2187
2006-12-11,54.3248
2006-12-12,54.1656
2006-12-13,54.3336
2006-12-14,54.9704
2006-12-15,55.5009
2006-12-18,55.4567
2006-12-19,56.1289
2006-12-20,56.3234
2006-12-21,56.2261
2006-12-22,55.7132
2006-12-26,56.0758
2006-12-27,56.8275
2006-12-28,56.4472
2006-12-29,55.9343
2007-01-03,56.235
2007-01-04,55.7574
2007-01-05,55.9609
2007-01-08,57.1016
2007-01-09,57.65
2007-01-10,58.5873
2007-01-11,58.5608
2007-01-12,59.0206
2007-01-16,59.7369
2007-01-17,59.9492
2007-01-18,58.773
2007-01-19,58.7907
2007-01-22,58.2159
2007-01-23,60.0995
2007-01-24,59.6927
2007-01-25,59.8607
2007-01-26,59.0029
2007-01-29,59.5778
2007-01-30,59.7723
2007-01-31,60.2941
2007-02-01,61.09
2007-02-02,60.4002
2007-02-05,60.8424
2007-02-06,61.5941
2007-02-07,61.6029
2007-02-08,61.3635
2007-02-09,60.424
2007-02-12,60.1492
2007-02-13,60.5392
2007-02-14,61.3014
2007-02-15,61.5408
2007-02-16,60.9292
2007-02-20,61.4167
2007-02-21,61.2394
2007-02-22,60.6988
2007-02-23,60.6722
2007-02-26,60.1758
2007-02-27,57.9509
2007-02-28,58.0041
2007-03-01,58.2967
2007-03-02,58.0219
2007-03-05,58.1637
2007-03-06,58.9349
2007-03-07,58.7842
2007-03-08,59.2717
2007-03-09,59.6439
2007-03-12,60.6101
2007-03-13,59.3249
2007-03-14,59.7592
2007-03-15,60.2821
2007-03-16,60.6278
2007-03-19,61.0267
2007-03-20,60.6456
2007-03-21,61.0888
2007-03-22,60.4949
2007-03-23,60.7963
2007-03-26,60.424
2007-03-27,60.0074
2007-03-28,59.0944
2007-03-29,59.2983
2007-03-30,59.254
2007-04-02,59.3692
2007-04-03,59.8301
2007-04-04,59.7414
2007-04-05,59.4224
2007-04-09,59.3515
2007-04-10,59.3249
2007-04-11,58.536
2007-04-12,58.4385
2007-04-13,58.1991
2007-04-16,58.403
2007-04-17,58.4119
2007-04-18,58.0839
2007-04-19,57.9421
2007-04-20,58.6335
2007-04-23,58.9881
2007-04-24,58.8551
2007-04-25,59.7326
2007-04-26,59.7414
2007-04-27,59.4135
2007-04-30,58.1991
2007-05-01,57.9155
2007-05-02,58.4119
2007-05-03,58.8462
2007-05-04,58.5803
2007-05-07,58.7399
2007-05-08,58.5448
2007-05-09,59.1919
2007-05-10,58.5965
2007-05-11,58.8542
2007-05-14,59.6893
2007-05-15,59.4761
2007-05-16,59.947
2007-05-17,60.2669
2007-05-18,60.8178
2007-05-21,61.0843
2007-05-22,60.6845
2007-05-23,60.4801
2007-05-24,60.9688
2007-05-25,61.4752
2007-05-29,61.8573
2007-05-30,62.5947
2007-05-31,62.7547
2007-06-01,62.8791
2007-06-04,62.6481
2007-06-05,62.2038
2007-06-06,61.804
2007-06-07,60.7467
2007-06-08,61.9373
2007-06-11,61.3775
2007-06-12,61.3153
2007-06-13,62.5593
2007-06-14,63.119
2007-06-15,63.8742
2007-06-18,63.2078
2007-06-19,63.9453
2007-06-20,63.2789
2007-06-21,63.3144
2007-06-22,62.6658
2007-06-25,62.4615
2007-06-26,62.266
2007-06-27,62.1061
2007-06-28,62.4881
2007-06-29,62.7547
2007-07-02,63.5809
2007-07-03,63.5899
2007-07-05,64.1941
2007-07-06,64.0164
2007-07-09,64.4961
2007-07-10,63.5543
2007-07-11,64.2385
2007-07-12,65.127
2007-07-13,65.1892
2007-07-16,65.2158
2007-07-17,65.3047
2007-07-18,64.9404
2007-07-19,66.1754
2007-07-20,65.3224
2007-07-23,66.0954
2007-07-24,65.1803
2007-07-25,65.3847
2007-07-26,61.4664
2007-07-27,63.2523
2007-07-30,62.6925
2007-07-31,61.111
2007-08-01,61.6796
2007-08-02,62.577
2007-08-03,61.7329
2007-08-06,62.2838
2007-08-07,61.7418
2007-08-08,61.8217
2007-08-09,60.9755
2007-08-10,60.6015
2007-08-13,59.9781
2007-08-14,58.7224
2007-08-15,57.2352
2007-08-16,56.22
2007-08-17,57.7784
2007-08-20,58.6779
2007-08-21,59.0342
2007-08-22,60.5036
2007-08-23,60.0316
2007-08-24,60.5214
2007-08-27,60.5302
2007-08-28,58.6067
2007-08-29,60.2631
2007-08-30,61.0022
2007-08-31,61.2872
2007-09-04,61.4119
2007-09-05,59.898
2007-09-06,60.6193
2007-09-07,59.5952
2007-09-10,59.5329
2007-09-11,60.7618
2007-09-12,60.9488
2007-09-13,61.8304
2007-09-14,62.6675
2007-09-17,60.9844
2007-09-18,61.4475
2007-09-19,61.679
2007-09-20,62.1332
2007-09-21,63.3622
2007-09-24,64.3596
2007-09-25,64.4843
2007-09-26,65.1789
2007-09-27,65.1967
2007-09-28,64.9563
2007-10-01,66.5504
2007-10-02,66.2386
2007-10-03,66.3098
2007-10-04,66.9332
2007-10-05,66.4257
2007-10-08,66.2119
2007-10-09,67.5388
2007-10-10,65.9804
2007-10-11,65.2946
2007-10-12,66.2476
2007-10-15,66.2564
2007-10-16,66.6127
2007-10-17,66.2921
2007-10-18,67.0757
2007-10-19,65.7311
2007-10-22,66.007
2007-10-23,66.1763
2007-10-24,66.7908
2007-10-25,66.7641
2007-10-26,67.1381
2007-10-29,67.2983
2007-10-30,65.8557
2007-10-31,66.6483
2007-11-01,66.4524
2007-11-02,66.6127
2007-11-05,66.2564
2007-11-06,67.4052
2007-11-07,66.3075
2007-11-08,66.0756
2007-11-09,65.8881
2007-11-12,65.3259
2007-11-13,66.0042
2007-11-14,65.4062
2007-11-15,64.7993
2007-11-16,64.3889
2007-11-19,63.5856
2007-11-20,63.1752
2007-11-21,62.9699
2007-11-23,63.7463
2007-11-26,63.0502
2007-11-27,63.9694
2007-11-28,66.1469
2007-11-29,65.8078
2007-11-30,64.3443
2007-12-03,64.6476
2007-12-04,64.3085
2007-12-05,65.7275
2007-12-06,66.3075
2007-12-07,65.6472
2007-12-10,65.8792
2007-12-11,63.8713
2007-12-12,64.1925
2007-12-13,65.1296
2007-12-14,65.6026
2007-12-17,63.9962
2007-12-18,64.13
2007-12-19,63.7731
2007-12-20,63.8266
2007-12-21,65.4062
2007-12-24,65.7721
2007-12-26,65.2099
2007-12-27,64.5316
2007-12-28,64.3353
2007-12-31,64.3085
2008-01-02,63.1394
2008-01-03,63.8713
2008-01-04,62.247
2008-01-07,61.0511
2008-01-08,59.0075
2008-01-09,60.6764
2008-01-10,61.0779
2008-01-11,59.302
2008-01-14,59.4894
2008-01-15,57.9187
2008-01-16,56.6247
2008-01-17,54.6078
2008-01-18,54.5186
2008-01-22,51.8323
2008-01-23,52.1804
2008-01-24,54.8934
2008-01-25,55.1433
2008-01-28,55.527
2008-01-29,56.5444
2008-01-30,55.4913
2008-01-31,56.3658
2008-02-01,57.3118
2008-02-04,57.3208
2008-02-05,55.7323
2008-02-06,55.402
2008-02-07,54.1762
2008-02-08,53.7557
2008-02-11,54.4446
2008-02-12,54.9367
2008-02-13,55.2947
2008-02-14,53.8451
2008-02-15,53.6483
2008-02-19,53.7826
2008-02-20,53.0131
2008-02-21,51.6798
2008-02-22,53.2278
2008-02-25,53.6215
2008-02-26,53.881
2008-02-27,53.2725
2008-02-28,52.8341
2008-02-29,52.6551
2008-03-03,51.9841
2008-03-04,51.4383
2008-03-05,52.5477
2008-03-06,52.1989
2008-03-07,51.4651
2008-03-10,50.5078
2008-03-11,51.0983
2008-03-12,50.5794
2008-03-13,50.472
2008-03-14,50.3736
2008-03-17,49.7741
2008-03-18,50.9552
2008-03-19,50.6331
2008-03-20,48.9867
2008-03-24,51.0268
2008-03-25,51.492
2008-03-26,50.8478
2008-03-27,51.0089
2008-03-28,51.3577
2008-03-31,51.1162
2008-04-01,53.1294
2008-04-02,54.2299
2008-04-03,54.1494
2008-04-04,56.0551
2008-04-07,55.2231
2008-04-08,55.1425
2008-04-09,56.5025
2008-04-10,56.5204
2008-04-11,55.2051
2008-04-14,55.9299
2008-04-15,54.8652
2008-04-16,55.8136
2008-04-17,55.4467
2008-04-18,56.9678
2008-04-21,55.7062
2008-04-22,54.9636
2008-04-23,55.8583
2008-04-24,55.6793
2008-04-25,57.6031
2008-04-28,57.281
2008-04-29,57.263
2008-04-30,56.422
2008-05-01,57.084
2008-05-02,57.9341
2008-05-05,57.1736
2008-05-06,57.4062
2008-05-07,56.0373
2008-05-08,56.8995
2008-05-09,56.621
2008-05-12,57.2677
2008-05-13,58.085
2008-05-14,58.9473
2008-05-15,59.54
2008-05-16,59.0281
2008-05-19,59.5491
2008-05-20,58.6419
2008-05-21,56.612
2008-05-22,55.6061
2008-05-23,55.139
2008-05-27,54.8067
2008-05-28,54.6002
2008-05-29,54.8965
2008-05-30,55.0582
2008-06-02,54.3935
2008-06-03,53.5044
2008-06-04,52.5074
2008-06-05,52.5882
2008-06-06,50.0644
2008-06-09,48.8787
2008-06-10,48.6991
2008-06-11,48.3039
2008-06-12,48.3668
2008-06-13,48.6722
2008-06-16,48.4027
2008-06-17,46.7051
2008-06-18,46.3908
2008-06-19,46.2651
2008-06-20,45.1513
2008-06-23,44.8729
2008-06-24,44.3609
2008-06-25,43.1933
2008-06-26,43.0046
2008-06-27,42.8789
2008-06-30,43.0316
2008-07-01,44.4148
2008-07-02,43.0585
2008-07-03,43.7682
2008-07-07,43.328
2008-07-08,46.1124
2008-07-09,45.8069
2008-07-10,46.2111
2008-07-11,42.3041
2008-07-14,42.4118
2008-07-15,40.7772
2008-07-16,42.3849
2008-07-17,41.873
2008-07-18,42.0436
2008-07-21,41.6844
2008-07-22,43.301
2008-07-23,44.1274
2008-07-24,42.9418
2008-07-25,43.301
2008-07-28,42.6544
2008-07-29,43.6694
2008-07-30,44.1813
2008-07-31,44.5585
2008-08-01,44.6393
2008-08-04,44.6753
2008-08-05,45.9238
2008-08-06,45.9866
2008-08-07,45.1472
2008-08-08,47.4934
2008-08-11,48.0259
2008-08-12,48.098
2008-08-13,47.719
2008-08-14,48.0348
2008-08-15,48.468
2008-08-18,48.0439
2008-08-19,46.979
2008-08-20,46.3744
2008-08-21,45.7608
2008-08-22,47.1144
2008-08-25,46.2662
2008-08-26,46.7263
2008-08-27,46.8798
2008-08-28,47.8995
2008-08-29,47.4663
2008-09-02,47.8093
2008-09-03,47.737
2008-09-04,46.7083
2008-09-05,46.6993
2008-09-08,47.0692
2008-09-09,46.4737
2008-09-10,44.8132
2008-09-11,46.7534
2008-09-12,47.8904
2008-09-15,47.0874
2008-09-16,46.0406
2008-09-17,43.7755
2008-09-18,44.2989
2008-09-19,45.1833
2008-09-22,43.9651
2008-09-23,42.8461
2008-09-24,42.088
2008-09-25,42.3497
2008-09-26,43.0626
2008-09-29,42.0971
2008-09-30,43.3604
2008-10-01,42.8461
2008-10-02,40.3374
2008-10-03,39.2093
2008-10-06,38.0272
2008-10-07,37.0797
2008-10-08,36.5653
2008-10-09,34.5259
2008-10-10,33.055
2008-10-13,35.311
2008-10-14,34.7064
2008-10-15,31.8368
2008-10-16,33.6777
2008-10-17,32.0173
2008-10-20,33.4972
2008-10-21,32.1797
2008-10-22,30.7448
2008-10-23,31.2501
2008-10-24,30.2846
2008-10-27,28.6423
2008-10-28,31.954
2008-10-29,32.0262
2008-10-30,32.5136
2008-10-31,33.461
2008-11-03,34.174
2008-11-04,34.9591
2008-11-05,32.8294
2008-11-06,30.5643
2008-11-07,31.5119
2008-11-10,31.3494
2008-11-11,30.2665
2008-11-12,28.9941
2008-11-13,31.0037
2008-11-14,30.131
2008-11-17,28.6853
2008-11-18,28.3761
2008-11-19,26.6396
2008-11-20,25.7122
2008-11-21,27.567
2008-11-24,28.9217
2008-11-25,29.0035
2008-11-26,30.0764
2008-11-28,30.9856
2008-12-01,28.7489
2008-12-02,29.6582
2008-12-03,30.3492
2008-12-04,29.1944
2008-12-05,30.04
2008-12-08,31.6948
2008-12-09,31.5493
2008-12-10,31.822
2008-12-11,31.5493
2008-12-12,31.9948
2008-12-15,31.8493
2008-12-16,34.4406
2008-12-17,34.186
2008-12-18,33.5859
2008-12-19,34.3314
2008-12-22,33.5769
2008-12-23,32.9949
2008-12-24,32.8222
2008-12-26,33.3586
2008-12-29,33.3859
2008-12-30,34.5769
2008-12-31,35.5407
2009-01-02,36.9954
2009-01-05,37.2772
2009-01-06,38.1047
2009-01-07,36.65
2009-01-08,35.868
2009-01-09,35.5316
2009-01-12,35.2862
2009-01-13,33.6313
2009-01-14,32.8859
2009-01-15,33.2041
2009-01-16,33.8678
2009-01-20,32.404
2009-01-21,33.5313
2009-01-22,33.4859
2009-01-23,33.6313
2009-01-26,34.2406
2009-01-27,34.7769
2009-01-28,36.1408
2009-01-29,34.2406
2009-01-30,34.2224
2009-02-02,31.8857
2009-02-03,35.3316
2009-02-04,34.2496
2009-02-05,34.7133
2009-02-06,35.3134
2009-02-09,35.4225
2009-02-10,33.795
2009-02-11,33.585
2009-02-12,33.2373
2009-02-13,33.9328
2009-02-17,32.6608
2009-02-18,32.7706
2009-02-19,32.8163
2009-02-20,32.0751
2009-02-23,31.0135
2009-02-24,31.6084
2009-02-25,30.437
2009-02-26,29.5219
2009-02-27,28.5702
2009-03-02,26.5935
2009-03-03,26.3006
2009-03-04,27.0968
2009-03-05,25.596
2009-03-06,25.9071
2009-03-09,25.5045
2009-03-10,27.2615
2009-03-11,27.6276
2009-03-12,28.0486
2009-03-13,27.8106
2009-03-16,28.4421
2009-03-17,29.0277
2009-03-18,29.9063
2009-03-19,29.2382
2009-03-20,28.7714
2009-03-23,30.437
2009-03-24,30.2174
2009-03-25,30.7756
2009-03-26,32.0293
2009-03-27,31.0593
2009-03-30,29.6775
2009-03-31,29.8788
2009-04-01,30.1991
2009-04-02,31.462
2009-04-03,30.7298
2009-04-06,31.2241
2009-04-07,30.5376
2009-04-08,30.8397
2009-04-09,32.0568
2009-04-13,31.2331
2009-04-14,31.1234
2009-04-15,31.3338
2009-04-16,32.734
2009-04-17,33.3288
2009-04-20,32.5235
2009-04-21,33.0359
2009-04-22,33.0543
2009-04-23,33.5759
2009-04-24,33.3563
2009-04-27,34.1616
2009-04-28,34.1707
2009-04-29,35.5251
2009-04-30,35.1316
2009-05-01,35.0401
2009-05-04,34.9394
2009-05-05,35.3055
2009-05-06,35.4885
2009-05-07,34.7198
2009-05-08,36.4494
2009-05-11,35.6166
2009-05-12,35.3512
2009-05-13,34.4086
2009-05-14,34.6021
2009-05-15,35.2377
2009-05-18,36.9322
2009-05-19,37.5862
2009-05-20,37.5493
2009-05-21,36.6375
2009-05-22,37.2454
2009-05-26,38.2216
2009-05-27,38.1019
2009-05-28,38.9124
2009-05-29,39.0506
2009-06-01,41.3071
2009-06-02,42.5872
2009-06-03,41.8965
2009-06-04,44.0424
2009-06-05,44.3463
2009-06-08,42.7715
2009-06-09,42.3478
2009-06-10,41.9425
2009-06-11,41.1044
2009-06-12,41.6662
2009-06-15,40.5518
2009-06-16,40.0913
2009-06-17,40.2294
2009-06-18,40.3584
2009-06-19,40.2479
2009-06-22,39.1519
2009-06-23,38.5716
2009-06-24,38.2493
2009-06-25,38.8296
2009-06-26,38.2125
2009-06-29,38.8203
2009-06-30,38.3966
2009-07-01,38.7098
2009-07-02,37.1718
2009-07-06,37.1441
2009-07-07,35.4955
2009-07-08,35.9837
2009-07-09,35.7165
2009-07-10,35.7442
2009-07-13,36.7572
2009-07-14,37.3928
2009-07-15,37.9453
2009-07-16,38.019
2009-07-17,37.6599
2009-07-20,38.1388
2009-07-21,38.5625
2009-07-22,38.5532
2009-07-23,38.498
2009-07-24,37.5309
2009-07-27,36.4257
2009-07-28,36.4625
2009-07-29,37.0888
2009-07-30,39.1243
2009-07-31,38.9216
2009-08-03,39.861
2009-08-04,40.294
2009-08-05,40.211
2009-08-06,40.6255
2009-08-07,41.6571
2009-08-10,41.0215
2009-08-11,40.469
2009-08-12,41.7584
2009-08-13,40.9436
2009-08-14,40.4807
2009-08-17,39.564
2009-08-18,39.7678
2009-08-19,39.453
2009-08-20,40.0269
2009-08-21,41.064
2009-08-24,41.4529
2009-08-25,41.7399
2009-08-26,41.6288
2009-08-27,43.0362
2009-08-28,42.8788
2009-08-31,42.6195
2009-09-01,42.3233
2009-09-02,42.1473
2009-09-03,41.851
2009-09-04,42.7955
2009-09-08,43.5269
2009-09-09,43.7306
2009-09-10,44.4435
2009-09-11,44.9991
2009-09-14,44.9344
2009-09-15,45.0176
2009-09-16,45.138
2009-09-17,46.8324
2009-09-18,47.3139
2009-09-21,46.9621
2009-09-22,47.2676
2009-09-23,46.6843
2009-09-24,46.1102
2009-09-25,45.7029
2009-09-28,46.6658
2009-09-29,46.9065
2009-09-30,46.9899
2009-10-01,45.4065
2009-10-02,44.5454
2009-10-05,45.1473
2009-10-06,46.2583
2009-10-07,46.2028
2009-10-08,46.7306
2009-10-09,47.2861
2009-10-12,47.4157
2009-10-13,47.4898
2009-10-14,48.4157
2009-10-15,48.1657
2009-10-16,48.3509
2009-10-19,48.9342
2009-10-20,47.7213
2009-10-21,47.5362
2009-10-22,48.1472
2009-10-23,47.7213
2009-10-26,47.2769
2009-10-27,47.2028
2009-10-28,46.5268
2009-10-29,47.7491
2009-10-30,46.6936
2009-11-02,47.1009
2009-11-03,45.6195
2009-11-04,45.8973
2009-11-05,47.712
2009-11-06,47.6843
2009-11-09,48.8786
2009-11-10,48.2954
2009-11-11,48.6287
2009-11-12,48.4982
2009-11-13,49.1864
2009-11-16,49.9585
2009-11-17,49.9678
2009-11-18,49.6143
2009-11-19,48.6935
2009-11-20,49.3167
2009-11-23,50.312
2009-11-24,50.2561
2009-11-25,50.6654
2009-11-27,49.9491
2009-11-30,49.7259
2009-12-01,50.6003
2009-12-02,51.0839
2009-12-03,50.9258
2009-12-04,50.9351
2009-12-07,51.9583
2009-12-08,51.7723
2009-12-09,51.5026
2009-12-10,51.5304
2009-12-11,51.8932
2009-12-14,52.3676
2009-12-15,52.6094
2009-12-16,52.3676
2009-12-17,52.0327
2009-12-18,52.0885
2009-12-21,51.9211
2009-12-22,52.2745
2009-12-23,51.7071
2009-12-24,51.8374
2009-12-28,52.0792
2009-12-29,52.2467
2009-12-30,52.2932
2009-12-31,51.4746
2010-01-04,52.3955
2010-01-05,52.4233
2010-01-06,52.5164
2010-01-07,52.8233
2010-01-08,53.3535
2010-01-11,53.0094
2010-01-12,52.5815
2010-01-13,52.8141
2010-01-14,53.1117
2010-01-15,52.7489
2010-01-19,52.8233
2010-01-20,52.1723
2010-01-21,50.6747
2010-01-22,49.9399
2010-01-25,49.8097
2010-01-26,49.5027
2010-01-27,49.9027
2010-01-28,49.6423
2010-01-29,49.5492
2010-02-01,50.3212
2010-02-02,51.0374
2010-02-03,50.9258
2010-02-04,49.5027
2010-02-05,49.1771
2010-02-08,48.5446
2010-02-09,49.5678
2010-02-10,49.4276
2010-02-11,50.0256
2010-02-12,49.5117
2010-02-16,50.5488
2010-02-17,50.6983
2010-02-18,51.5767
2010-02-19,51.8383
2010-02-22,51.3805
2010-02-23,50.7358
2010-02-24,51.3057
2010-02-25,51.2122
2010-02-26,52.6325
2010-03-01,54.5666
2010-03-02,54.8562
2010-03-03,55.1272
2010-03-04,55.8186
2010-03-05,56.0709
2010-03-08,55.6411
2010-03-09,56.5755
2010-03-10,56.9306
2010-03-11,57.1921
2010-03-12,56.9398
2010-03-15,56.3326
2010-03-16,56.6222
2010-03-17,56.6689
2010-03-18,57.1268
2010-03-19,58.8086
2010-03-22,58.5002
2010-03-23,58.6871
2010-03-24,58.4722
2010-03-25,58.5563
2010-03-26,58.8647
2010-03-29,59.201
2010-03-30,59.0421
2010-03-31,58.5376
2010-04-01,58.6871
2010-04-05,58.6217
2010-04-06,58.8647
2010-04-07,58.3974
2010-04-08,58.8459
2010-04-09,59.3786
2010-04-12,59.9579
2010-04-13,59.6309
2010-04-14,60.0046
2010-04-15,60.397
2010-04-16,59.9858
2010-04-19,59.6682
2010-04-20,60.3784
2010-04-21,61.593
2010-04-22,63.4803
2010-04-23,61.5462
2010-04-26,62.0321
2010-04-27,60.5932
2010-04-28,60.6773
2010-04-29,61.8546
2010-04-30,60.7427
2010-05-03,62.1442
2010-05-04,60.4904
2010-05-05,59.8924
2010-05-06,57.706
2010-05-07,56.2204
2010-05-10,59.3038
2010-05-11,59.5841
2010-05-12,60.7053
2010-05-13,59.739
2010-05-14,57.8165
2010-05-17,57.8728
2010-05-18,56.9912
2010-05-19,55.6782
2010-05-20,52.7898
2010-05-21,55.2844
2010-05-24,54.4498
2010-05-25,53.962
2010-05-26,53.9246
2010-05-27,55.622
2010-05-28,54.7967
2010-06-01,53.5963
2010-06-02,54.928
2010-06-03,55.0969
2010-06-04,52.4897
2010-06-07,51.083
2010-06-08,51.58
2010-06-09,51.4018
2010-06-10,53.043
2010-06-11,53.5776
2010-06-14,53.3243
2010-06-15,55.1531
2010-06-16,55.2281
2010-06-17,54.628
2010-06-18,54.9561
2010-06-21,54.656
2010-06-22,53.812
2010-06-23,53.9058
2010-06-24,53.0711
2010-06-25,52.8086
2010-06-28,53.0711
2010-06-29,50.2577
2010-06-30,49.8357
2010-07-01,49.3949
2010-07-02,49.2355
2010-07-06,49.1886
2010-07-07,50.8016
2010-07-08,51.6925
2010-07-09,51.5331
2010-07-12,51.0173
2010-07-13,52.3302
2010-07-14,52.6303
2010-07-15,52.5553
2010-07-16,50.7922
2010-07-19,50.8485
2010-07-20,51.1579
2010-07-21,50.8109
2010-07-22,52.349
2010-07-23,53.2118
2010-07-26,54.2621
2010-07-27,53.8026
2010-07-28,53.5776
2010-07-29,53.4462
2010-07-30,53.6432
2010-08-02,54.7029
2010-08-03,54.4309
2010-08-04,55.1531
2010-08-05,54.9655
2010-08-06,54.7967
2010-08-09,55.1719
2010-08-10,54.6842
2010-08-11,52.4521
2010-08-12,52.1035
2010-08-13,52.3013
2010-08-16,51.7645
2010-08-17,53.1019
2010-08-18,53.3374
2010-08-19,52.0941
2010-08-20,52.1224
2010-08-23,51.0863
2010-08-24,49.8902
2010-08-25,50.4458
2010-08-26,50.9733
2010-08-27,52.6027
2010-08-30,51.7645
2010-08-31,50.7284
2010-09-01,53.0171
2010-09-02,53.8271
2010-09-03,54.3828
2010-09-07,53.9496
2010-09-08,54.2322
2010-09-09,53.893
2010-09-10,55.0892
2010-09-13,55.692
2010-09-14,54.59
2010-09-15,54.411
2010-09-16,54.4959
2010-09-17,55.0044
2010-09-20,55.6167
2010-09-21,54.7313
2010-09-22,54.2981
2010-09-23,53.3845
2010-09-24,54.2981
2010-09-27,54.0532
2010-09-28,54.5995
2010-09-29,54.6277
2010-09-30,54.8726
2010-10-01,55.1551
2010-10-04,54.2886
2010-10-05,55.805
2010-10-06,55.8238
2010-10-07,55.4471
2010-10-08,56.0499
2010-10-11,55.7579
2010-10-12,56.0216
2010-10-13,56.8881
2010-10-14,56.7186
2010-10-15,56.6998
2010-10-18,56.9258
2010-10-19,55.8804
2010-10-20,56.8599
2010-10-21,57.5568
2010-10-22,57.7924
2010-10-25,57.538
2010-10-26,57.5663
2010-10-27,57.4909
2010-10-28,57.4627
2010-10-29,57.0483
2010-11-01,56.1252
2010-11-02,56.1911
2010-11-03,56.3325
2010-11-04,57.0766
2010-11-05,56.794
2010-11-08,56.7846
2010-11-09,56.2101
2010-11-10,54.8763
2010-11-11,54.2616
2010-11-12,52.9188
2010-11-15,52.6729
2010-11-16,52.1528
2010-11-17,51.9353
2010-11-18,52.6256
2010-11-19,52.654
2010-11-22,51.8786
2010-11-23,52.1812
2010-11-24,53.6849
2010-11-26,53.4389
2010-11-29,53.3443
2010-11-30,53.1458
2010-12-01,54.2239
2010-12-02,55.1505
2010-12-03,55.0087
2010-12-06,55.1789
2010-12-07,55.0182
2010-12-08,55.0939
2010-12-09,54.6872
2010-12-10,55.0276
2010-12-13,54.7912
2010-12-14,55.0466
2010-12-15,54.4791
2010-12-16,54.9614
2010-12-17,55.1789
2010-12-20,54.5831
2010-12-21,54.829
2010-12-22,55.1411
2010-12-23,55.1222
2010-12-27,54.8196
2010-12-28,55.0939
2010-12-29,54.9898
2010-12-30,54.9898
2010-12-31,55.1316
2011-01-03,55.4438
2011-01-04,55.3397
2011-01-05,55.699
2011-01-06,56.2097
2011-01-07,56.8339
2011-01-10,56.9095
2011-01-11,56.8906
2011-01-12,57.4958
2011-01-13,58.5549
2011-01-14,58.8197
2011-01-18,60.0302
2011-01-19,59.7653
2011-01-20,59.3965
2011-01-21,60.2382
2011-01-24,60.1436
2011-01-25,60.8339
2011-01-26,60.8056
2011-01-27,61.3635
2011-01-28,60.3611
2011-01-31,60.607
2011-02-01,61.6189
2011-02-02,61.9025
2011-02-03,62.4132
2011-02-04,62.4132
2011-02-07,62.8387
2011-02-08,63.3022
2011-02-09,63.3872
2011-02-10,63.7006
2011-02-11,63.4728
2011-02-14,63.1121
2011-02-15,62.7135
2011-02-16,62.78
2011-02-17,62.2674
2011-02-18,63.4158
2011-02-22,61.2804
2011-02-23,60.3504
2011-02-24,60.9957
2011-02-25,61.4512
2011-02-28,61.1666
2011-03-01,59.9043
2011-03-02,59.9422
2011-03-03,61.3089
2011-03-04,61.0906
2011-03-07,60.246
2011-03-08,61.3089
2011-03-09,61.3563
2011-03-10,59.9233
2011-03-11,60.4548
2011-03-14,59.8758
2011-03-15,59.183
2011-03-16,57.9017
2011-03-17,58.68
2011-03-18,59.6006
2011-03-21,60.5497
2011-03-22,60.3124
2011-03-23,60.189
2011-03-24,60.2649
2011-03-25,60.2649
2011-03-28,60.2364
2011-03-29,60.246
2011-03-30,60.711
2011-03-31,61.5082
2011-04-01,61.8309
2011-04-04,61.2519
2011-04-05,61.0811
2011-04-06,61.1666
2011-04-07,61.176
2011-04-08,60.3598
2011-04-11,60.7964
2011-04-12,60.2649
2011-04-13,59.705
2011-04-14,58.9932
2011-04-15,59.9803
2011-04-18,59.1356
2011-04-19,59.5057
2011-04-20,60.5306
2011-04-21,59.6861
2011-04-25,58.7464
2011-04-26,59.0881
2011-04-27,58.9268
2011-04-28,59.1925
2011-04-29,59.8663
2011-05-02,60.132
2011-05-03,60.5876
2011-05-04,60.0941
2011-05-05,59.6576
2011-05-06,60.692
2011-05-09,60.711
2011-05-10,60.9007
2011-05-11,60.3313
2011-05-12,60.56
2011-05-13,59.636
2011-05-16,59.0644
2011-05-17,58.3022
2011-05-18,58.6071
2011-05-19,58.931
2011-05-20,58.7309
2011-05-23,57.5973
2011-05-24,57.2734
2011-05-25,57.3114
2011-05-26,57.1685
2011-05-27,57.3496
2011-05-31,58.1879
2011-06-01,56.8066
2011-06-02,57.159
2011-06-03,56.8732
2011-06-06,56.6541
2011-06-07,56.778
2011-06-08,56.4541
2011-06-09,56.8446
2011-06-10,55.8634
2011-06-13,55.8253
2011-06-14,56.5779
2011-06-15,56.273
2011-06-16,56.797
2011-06-17,57.3876
2011-06-20,57.902
2011-06-21,58.2736
2011-06-22,58.1212
2011-06-23,57.6449
2011-06-24,57.3304
2011-06-27,57.1209
2011-06-28,57.6163
2011-06-29,57.9783
2011-06-30,58.8071
2011-07-01,59.5788
2011-07-05,59.0166
2011-07-06,59.0644
2011-07-07,59.5882
2011-07-08,58.931
2011-07-11,57.845
2011-07-12,57.6353
2011-07-13,57.3304
2011-07-14,56.4445
2011-07-15,55.8158
2011-07-18,55.1204
2011-07-19,55.6824
2011-07-20,56.254
2011-07-21,57.5305
2011-07-22,54.7012
2011-07-25,54.625
2011-07-26,54.2439
2011-07-27,52.5005
2011-07-28,52.0243
2011-07-29,52.5482
2011-08-01,51.8147
2011-08-02,50.4238
2011-08-03,50.7287
2011-08-04,48.8424
2011-08-05,48.4613
2011-08-08,44.8222
2011-08-09,46.0034
2011-08-10,42.7264
2011-08-11,43.4061
2011-08-12,44.6034
2011-08-15,45.6569
2011-08-16,45.5037
2011-08-17,45.4462
2011-08-18,43.0422
2011-08-19,43.3008
2011-08-22,43.8851
2011-08-23,44.9482
2011-08-24,45.2068
2011-08-25,44.6895
2011-08-26,45.4557
2011-08-29,46.7966
2011-08-30,48.4537
2011-08-31,48.2525
2011-09-01,46.7584
2011-09-02,45.0152
2011-09-06,44.8524
2011-09-07,46.835
2011-09-08,46.8445
2011-09-09,45.9634
2011-09-12,45.724
2011-09-13,46.7105
2011-09-14,47.8311
2011-09-15,49.8998
2011-09-16,53.8267
2011-09-19,51.6046
2011-09-20,51.7196
2011-09-21,50.4649
2011-09-22,49.6317
2011-09-23,49.3156
2011-09-26,50.9629
2011-09-27,50.9534
2011-09-28,50.6469
2011-09-29,51.2407
2011-09-30,50.599
2011-10-03,48.9996
2011-10-04,50.5703
2011-10-05,51.8824
2011-10-06,52.6007
2011-10-07,52.4762
2011-10-10,53.5298
2011-10-11,54.4014
2011-10-12,54.1715
2011-10-13,53.6447
2011-10-14,53.252
2011-10-17,51.3748
2011-10-18,52.1219
2011-10-19,51.2982
2011-10-20,51.5376
2011-10-21,52.7827
2011-10-24,53.3862
2011-10-25,52.2272
2011-10-26,51.8729
2011-10-27,53.7501
2011-10-28,53.3862
2011-10-31,53.5202
2011-11-01,51.2791
2011-11-02,51.7579
2011-11-03,52.8115
2011-11-04,52.1123
2011-11-07,53.0797
2011-11-08,53.8937
2011-11-09,52.1046
2011-11-10,52.8741
2011-11-11,53.1915
2011-11-14,52.9127
2011-11-15,53.0281
2011-11-16,52.2297
2011-11-17,50.9504
2011-11-18,51.6526
2011-11-21,50.6042
2011-11-22,50.3541
2011-11-23,49.2575
2011-11-25,49.2094
2011-11-28,51.1716
2011-11-29,51.1524
2011-11-30,52.7876
2011-12-01,53.2974
2011-12-02,52.3066
2011-12-05,52.8838
2011-12-06,52.5279
2011-12-07,52.4317
2011-12-08,50.9793
2011-12-09,51.9219
2011-12-12,51.6238
2011-12-13,51.5757
2011-12-14,51.162
2011-12-15,51.5468
2011-12-16,51.6911
2011-12-19,51.1716
2011-12-20,53.0858
2011-12-21,52.9511
2011-12-22,53.5282
2011-12-23,53.509
2011-12-27,53.509
2011-12-28,52.7107
2011-12-29,53.2974
2011-12-30,53.307
2012-01-03,54.0573
2012-01-04,54.2592
2012-01-05,54.2689
2012-01-06,54.3747
2012-01-09,54.8364
2012-01-10,55.0095
2012-01-11,54.9806
2012-01-12,55.3077
2012-01-13,54.923
2012-01-17,54.644
2012-01-18,54.6248
2012-01-19,57.7124
2012-01-20,57.5681
2012-01-23,56.9621
2012-01-24,56.9814
2012-01-25,57.3564
2012-01-26,56.3273
2012-01-27,56.0291
2012-01-30,55.7213
2012-01-31,55.7406
2012-02-01,56.8563
2012-02-02,56.5196
2012-02-03,57.039
2012-02-06,56.4235
2012-02-07,56.7794
2012-02-08,56.8659
2012-02-09,56.9626
2012-02-10,56.953
2012-02-13,57.8125
2012-02-14,57.5324
2012-02-15,56.4507
2012-02-16,57.0034
2012-02-17,57.7017
2012-02-21,57.3428
2012-02-22,57.43
2012-02-23,57.5852
2012-02-24,58.0313
2012-02-27,57.7889
2012-02-28,57.2556
2012-02-29,57.3622
2012-03-01,57.8276
2012-03-02,57.0228
2012-03-05,56.8095
2012-03-06,55.7232
2012-03-07,56.2858
2012-03-08,56.8773
2012-03-09,57.0422
2012-03-12,57.081
2012-03-13,56.9839
2012-03-14,57.013
2012-03-15,57.11
2012-03-16,56.9839
2012-03-19,56.8385
2012-03-20,55.9658
2012-03-21,55.9463
2012-03-22,55.5584
2012-03-23,55.8687
2012-03-26,56.9743
2012-03-27,56.79
2012-03-28,56.1791
2012-03-29,55.8978
2012-03-30,55.7912
2012-04-02,56.4991
2012-04-03,56.2567
2012-04-04,55.2578
2012-04-05,54.4626
2012-04-09,53.9292
2012-04-10,53.4249
2012-04-11,54.3753
2012-04-12,55.4226
2012-04-13,55.2384
2012-04-16,55.7136
2012-04-17,56.79
2012-04-18,56.8676
2012-04-19,54.2104
2012-04-20,53.9001
2012-04-23,53.7062
2012-04-24,53.6382
2012-04-25,53.3473
2012-04-26,53.9001
2012-04-27,54.5886
2012-04-30,54.1716
2012-05-01,53.871
2012-05-02,53.3377
2012-05-03,52.9691
2012-05-04,51.9023
2012-05-07,51.9023
2012-05-08,51.7666
2012-05-09,51.5629
2012-05-10,50.9686
2012-05-11,50.6955
2012-05-14,50.598
2012-05-15,50.1786
2012-05-16,49.6812
2012-05-17,49.2033
2012-05-18,48.8814
2012-05-21,49.6812
2012-05-22,49.7885
2012-05-23,50.0518
2012-05-24,49.3593
2012-05-25,48.8912
2012-05-29,49.1252
2012-05-30,49.1643
2012-05-31,49.135
2012-06-01,48.072
2012-06-04,47.9062
2012-06-05,49.1057
2012-06-06,49.1936
2012-06-07,49.2618
2012-06-08,49.057
2012-06-11,48.6767
2012-06-12,49.1643
2012-06-13,48.4815
2012-06-14,48.8132
2012-06-15,47.8379
2012-06-18,48.6669
2012-06-19,48.94
2012-06-20,48.1305
2012-06-21,46.9016
2012-06-22,47.0966
2012-06-25,46.414
2012-06-26,45.78
2012-06-27,46.5115
2012-06-28,46.5992
2012-06-29,48.072
2012-07-02,47.9354
2012-07-03,48.1109
2012-07-05,47.9159
2012-07-06,47.0674
2012-07-09,47.3502
2012-07-10,47.0674
2012-07-11,46.9698
2012-07-12,46.6578
2012-07-13,47.4283
2012-07-16,46.5505
2012-07-17,46.5798
2012-07-18,47.6819
2012-07-19,49.4081
2012-07-20,48.0622
2012-07-23,47.9939
2012-07-24,46.0141
2012-07-25,47.5063
2012-07-26,48.384
2012-07-27,49.0082
2012-07-30,49.4081
2012-07-31,49.3008
2012-08-01,49.0082
2012-08-02,48.3548
2012-08-03,49.5251
2012-08-06,49.4081
2012-08-07,49.7202
2012-08-08,49.6422
2012-08-09,49.3381
2012-08-10,49.0535
2012-08-13,48.8377
2012-08-14,48.2687
2012-08-15,48.3668
2012-08-16,49.0045
2012-08-17,49.1419
2012-08-20,50.0641
2012-08-21,49.7894
2012-08-22,49.2007
2012-08-23,48.406
2012-08-24,48.4747
2012-08-27,48.3569
2012-08-28,48.1117
2012-08-29,48.0038
2012-08-30,47.7291
2012-08-31,48.0333
2012-09-04,47.7193
2012-09-05,47.7586
2012-09-06,48.8082
2012-09-07,50.1229
2012-09-10,50.1622
2012-09-11,50.4074
2012-09-12,51.8594
2012-09-13,51.9771
2012-09-14,52.0164
2012-09-17,51.7024
2012-09-18,51.7515
2012-09-19,51.5455
2012-09-20,51.359
2012-09-21,51.8692
2012-09-24,51.6533
2012-09-25,51.3885
2012-09-26,51.6926
2012-09-27,53.0563
2012-09-28,52.7031
2012-10-01,53.174
2012-10-02,52.7915
2012-10-03,52.5461
2012-10-04,52.5854
2012-10-05,53.4193
2012-10-08,53.0269
2012-10-09,52.3892
2012-10-10,51.5552
2012-10-11,51.8692
2012-10-12,52.2715
2012-10-15,52.968
2012-10-16,53.5371
2012-10-17,53.5174
2012-10-18,53.7725
2012-10-19,53.0367
2012-10-22,52.7915
2012-10-23,51.8987
2012-10-24,51.7515
2012-10-25,52.3107
2012-10-26,53.2035
2012-10-31,52.5854
2012-11-01,53.2133
2012-11-02,52.7915
2012-11-05,53.3801
2012-11-06,54.3121
2012-11-07,53.2073
2012-11-08,52.6745
2012-11-09,52.8028
2012-11-12,53.6412
2012-11-13,53.3256
2012-11-14,52.9804
2012-11-15,53.7498
2012-11-16,53.444
2012-11-19,54.2233
2012-11-20,54.7855
2012-11-21,55.1998
2012-11-23,55.5352
2012-11-26,55.6732
2012-11-27,55.2787
2012-11-28,55.7325
2012-11-29,56.0383
2012-11-30,56.4526
2012-12-03,55.2787
2012-12-04,55.1998
2012-12-05,55.1603
2012-12-06,55.1504
2012-12-07,55.5648
2012-12-10,56.1369
2012-12-11,56.1467
2012-12-12,56.1862
2012-12-13,55.7917
2012-12-14,55.5845
2012-12-17,56.1171
2012-12-18,57.4686
2012-12-19,57.6855
2012-12-20,57.5573
2012-12-21,57.8039
2012-12-24,57.6559
2012-12-26,57.4785
2012-12-27,57.3797
2012-12-28,56.7682
2012-12-31,57.3304
2013-01-02,58.4352
2013-01-03,58.741
2013-01-04,58.6917
2013-01-07,58.8101
2013-01-08,58.307
2013-01-09,58.8298
2013-01-10,58.6719
2013-01-11,58.376
2013-01-14,58.6522
2013-01-15,58.9481
2013-01-16,58.3168
2013-01-17,59.3328
2013-01-18,58.2379
2013-01-22,58.7212
2013-01-23,58.889
2013-01-24,58.9383
2013-01-25,58.6424
2013-01-28,58.2478
2013-01-29,58.376
2013-01-30,58.3958
2013-01-31,58.0505
2013-02-01,58.0505
2013-02-04,57.5869
2013-02-05,58.8199
2013-02-06,58.6918
2013-02-07,59.6434
2013-02-08,59.9458
2013-02-11,59.7623
2013-02-12,58.9692
2013-02-13,58.6074
2013-02-14,58.6124
2013-02-15,58.5628
2013-02-19,58.543
2013-02-20,58.2554
2013-02-21,57.383
2013-02-22,58.2951
2013-02-25,57.5218
2013-02-26,58.0175
2013-02-27,59.3857
2013-02-28,59.584
2013-03-01,59.4551
2013-03-04,58.9594
2013-03-05,59.6236
2013-03-06,59.6732
2013-03-07,60.1788
2013-03-08,60.4267
2013-03-11,61.0116
2013-03-12,61.299
2013-03-13,62.8159
2013-03-14,62.6574
2013-03-15,62.8755
2013-03-18,62.8159
2013-03-19,63.0242
2013-03-20,63.2423
2013-03-21,62.5185
2013-03-22,62.1815
2013-03-25,62.0129
2013-03-26,62.1617
2013-03-27,62.0228
2013-03-28,62.6375
2013-04-01,61.7155
2013-04-02,61.309
2013-04-03,61.5668
2013-04-04,61.8245
2013-04-05,61.5469
2013-04-08,61.8147
2013-04-09,62.2013
2013-04-10,63.0836
2013-04-11,63.1332
2013-04-12,62.2608
2013-04-15,60.6844
2013-04-16,60.8926
2013-04-17,59.1378
2013-04-18,59.1477
2013-04-19,60.615
2013-04-22,60.5159
2013-04-23,60.8331
2013-04-24,61.1405
2013-04-25,61.3784
2013-04-26,61.3883
2013-04-29,61.6659
2013-04-30,62.3896
2013-05-01,61.9237
2013-05-02,62.8556
2013-05-03,63.8569
2013-05-06,64.303
2013-05-07,64.7591
2013-05-08,64.8186
2013-05-09,65.0277
2013-05-10,65.0775
2013-05-13,65.0177
2013-05-14,65.446
2013-05-15,66.203
2013-05-16,65.4859
2013-05-17,66.1432
2013-05-20,66.3723
2013-05-21,66.4918
2013-05-22,65.6353
2013-05-23,65.7548
2013-05-24,65.8544
2013-05-28,66.5217
2013-05-29,66.1432
2013-05-30,65.6751
2013-05-31,64.5895
2013-06-03,64.8385
2013-06-04,64.7289
2013-06-05,63.6632
2013-06-06,64.45
2013-06-07,65.2867
2013-06-10,64.6492
2013-06-11,64.6293
2013-06-12,64.4102
2013-06-13,64.6094
2013-06-14,64.221
2013-06-17,64.1512
2013-06-18,64.4301
2013-06-19,63.5736
2013-06-20,62.1692
2013-06-21,62.5875
2013-06-24,61.5517
2013-06-25,61.472
2013-06-26,62.5377
2013-06-27,62.6772
2013-06-28,63.2947
2013-07-01,63.2947
2013-07-02,62.8863
2013-07-03,63.3146
2013-07-05,64.0516
2013-07-08,64.8484
2013-07-09,66.183
2013-07-10,66.3723
2013-07-11,67.3085
2013-07-12,67.4778
2013-07-15,67.6969
2013-07-16,67.5774
2013-07-17,68.0256
2013-07-18,68.2348
2013-07-19,70.1271
2013-07-22,70.5056
2013-07-23,70.406
2013-07-24,70.8243
2013-07-25,70.7148
2013-07-26,70.4658
2013-07-29,70.1072
2013-07-30,70.3462
2013-07-31,70.894
2013-08-01,72.9756
2013-08-02,73.643
2013-08-05,73.7724
2013-08-06,73.8222
2013-08-07,74.38
2013-08-08,74.65
2013-08-09,74.41
