date,close_price
1998-01-02,18.4406
1998-01-05,18.8609
1998-01-06,18.4911
1998-01-07,18.1759
1998-01-08,18.8315
1998-01-09,18.3356
1998-01-12,18.386
1998-01-13,18.281
1998-01-14,18.2305
1998-01-15,18.0708
1998-01-16,18.5457
1998-01-20,19.0962
1998-01-21,18.7558
1998-01-22,18.7264
1998-01-23,18.281
1998-01-26,17.7178
1998-01-27,18.281
1998-01-28,18.1759
1998-01-29,18.2557
1998-01-30,18.2557
1998-02-02,18.5162
1998-02-03,18.7558
1998-02-04,19.3568
1998-02-05,19.2265
1998-02-06,19.5963
1998-02-09,18.8609
1998-02-10,18.9113
1998-02-11,18.8609
1998-02-12,19.0163
1998-02-13,19.0416
1998-02-17,19.3316
1998-02-18,19.6468
1998-02-19,19.1761
1998-02-20,19.4366
1998-02-23,20.5923
1998-02-24,20.8025
1998-02-25,20.9075
1998-02-26,21.2227
1998-02-27,20.5419
1998-03-02,20.8823
1998-03-03,20.8571
1998-03-04,21.3824
1998-03-05,21.3824
1998-03-06,22.1179
1998-03-09,22.8785
1998-03-10,23.2189
1998-03-11,23.0634
1998-03-12,22.5885
1998-03-13,23.034
1998-03-16,23.4836
1998-03-17,23.5089
1998-03-18,23.1684
1998-03-19,23.7442
1998-03-20,24.5049
1998-03-23,23.3366
1998-03-24,23.5341
1998-03-25,22.9584
1998-03-26,22.6683
1998-03-27,22.4036
1998-03-30,21.8531
1998-03-31,22.4331
1998-04-01,22.8238
1998-04-02,22.5381
1998-04-03,22.2734
1998-04-06,21.5925
1998-04-07,22.3279
1998-04-08,22.929
1998-04-09,23.824
1998-04-13,23.4038
1998-04-14,23.3239
1998-04-15,23.6391
1998-04-16,23.3239
1998-04-17,23.4291
1998-04-20,23.9292
1998-04-21,23.9543
1998-04-22,23.8745
1998-04-23,24.0342
1998-04-24,23.5341
1998-04-27,22.8533
1998-04-28,22.929
1998-04-29,22.5633
1998-04-30,23.3239
1998-05-01,23.4038
1998-05-04,23.3492
1998-05-05,23.0088
1998-05-06,23.1937
1998-05-07,23.3239
1998-05-08,23.7989
1998-05-11,23.7442
1998-05-12,23.824
1998-05-13,23.4542
1998-05-14,23.1684
1998-05-15,23.2988
1998-05-18,23.2988
1998-05-19,22.7188
1998-05-20,22.8785
1998-05-21,22.5381
1998-05-22,22.5633
1998-05-26,22.8785
1998-05-27,23.0634
1998-05-28,23.7989
1998-05-29,24.2696
1998-06-01,23.824
1998-06-02,24.1644
1998-06-03,24.3241
1998-06-04,24.6393
1998-06-05,24.4796
1998-06-08,25.4
1998-06-09,25.0849
1998-06-10,25.1899
1998-06-11,25.1352
1998-06-12,25.2151
1998-06-15,24.8999
1998-06-16,24.5848
1998-06-17,25.0596
1998-06-18,26.2153
1998-06-19,25.9505
1998-06-22,26.1102
1998-06-23,26.3203
1998-06-24,26.0052
1998-06-25,26.2153
1998-06-26,26.5305
1998-06-29,26.5305
1998-06-30,26.5305
1998-07-01,25.8455
1998-07-02,25.9001
1998-07-06,26.4758
1998-07-07,26.6355
1998-07-08,26.8709
1998-07-09,26.6355
1998-07-10,26.686
1998-07-13,26.6355
1998-07-14,27.2659
1998-07-15,26.8457
1998-07-16,26.7785
1998-07-17,26.9759
1998-07-20,27.3416
1998-07-21,27.1062
1998-07-22,27.371
1998-07-23,26.791
1998-07-24,26.0556
1998-07-27,25.69
1998-07-28,24.8999
1998-07-29,24.2947
1998-07-30,24.9545
1998-07-31,23.8871
1998-08-03,23.4291
1998-08-04,22.4331
1998-08-05,22.9037
1998-08-06,22.929
1998-08-07,24.1897
1998-08-10,24.715
1998-08-11,24.2696
1998-08-12,24.0594
1998-08-13,23.824
1998-08-14,23.2189
1998-08-17,23.2063
1998-08-18,24.9545
1998-08-19,24.6898
1998-08-20,24.5595
1998-08-21,24.1392
1998-08-24,24.1644
1998-08-25,23.5593
1998-08-26,24.1897
1998-08-27,23.2441
1998-08-28,22.2734
1998-08-31,19.7771
1998-09-01,20.9075
1998-09-02,18.9113
1998-09-03,20.9874
1998-09-04,20.9075
1998-09-08,23.1684
1998-09-09,22.7987
1998-09-10,21.7354
1998-09-11,21.643
1998-09-14,21.9077
1998-09-15,22.0127
1998-09-16,23.1139
1998-09-17,22.4583
1998-09-18,22.3532
1998-09-21,22.3784
1998-09-22,21.8783
1998-09-23,22.5381
1998-09-24,21.1429
1998-09-25,20.8025
1998-09-28,21.0125
1998-09-29,20.3822
1998-09-30,19.9872
1998-10-01,18.6508
1998-10-02,18.6508
1998-10-05,18.5961
1998-10-06,19.3316
1998-10-07,19.2812
1998-10-08,18.9113
1998-10-09,19.7518
1998-10-12,20.2267
1998-10-13,19.6468
1998-10-14,19.7266
1998-10-15,21.0924
1998-10-16,21.8531
1998-10-19,23.0634
1998-10-20,23.7442
1998-10-21,23.6938
1998-10-22,24.3241
1998-10-23,24.009
1998-10-26,23.3239
1998-10-27,23.0088
1998-10-28,23.3786
1998-10-29,23.614
1998-10-30,23.9039
1998-11-02,24.6898
1998-11-03,23.9543
1998-11-04,25.0596
1998-11-05,26.3581
1998-11-06,26.0177
1998-11-09,25.2404
1998-11-10,24.3494
1998-11-11,24.1392
1998-11-12,23.8745
1998-11-13,24.5049
1998-11-16,25.2949
1998-11-17,25.2698
1998-11-18,25.5051
1998-11-19,25.9505
1998-11-20,25.9254
1998-11-23,26.1354
1998-11-24,25.4253
1998-11-25,26.0556
1998-11-27,26.791
1998-11-30,26.4255
1998-12-01,26.3203
1998-12-02,25.5051
1998-12-03,24.1644
1998-12-04,25.4253
1998-12-07,26.1607
1998-12-08,27.476
1998-12-09,28.0518
1998-12-10,27.8165
1998-12-11,28.1316
1998-12-14,27.5013
1998-12-15,27.7367
1998-12-16,28.472
1998-12-17,28.2619
1998-12-18,27.5265
1998-12-21,27.2911
1998-12-22,28.367
1998-12-23,28.8923
1998-12-24,28.8923
1998-12-28,29.4975
1998-12-29,31.4685
1998-12-30,29.9682
1998-12-31,30.2833
1999-01-04,30.0228
1999-01-05,30.6279
1999-01-06,31.7542
1999-01-07,31.4685
1999-01-08,31.0188
1999-01-11,30.4557
1999-01-12,30.3884
1999-01-13,30.5985
1999-01-14,30.443
1999-01-15,31.2289
1999-01-19,31.5189
1999-01-20,31.0986
1999-01-21,30.3128
1999-01-22,30.0479
1999-01-25,29.9177
1999-01-26,30.9936
1999-01-27,32.5191
1999-01-28,34.2505
1999-01-29,34.8011
1999-02-01,33.305
1999-02-02,32.7544
1999-02-03,33.0948
1999-02-04,32.4645
1999-02-05,32.3342
1999-02-08,32.3593
1999-02-09,31.0734
1999-02-10,32.124
1999-02-11,33.99
1999-02-12,32.9393
1999-02-16,34.4985
1999-02-17,34.3555
1999-02-18,35.1961
1999-02-19,34.2505
1999-02-22,34.4102
1999-02-23,35.4062
1999-02-24,35.0406
1999-02-25,34.1455
1999-02-26,33.6202
1999-03-01,35.3012
1999-03-02,34.5657
1999-03-03,35.091
1999-03-04,36.377
1999-03-05,38.0328
1999-03-08,37.9529
1999-03-09,38.0874
1999-03-10,38.0874
1999-03-11,37.9823
1999-03-12,37.2175
1999-03-15,38.2975
1999-03-16,37.6126
1999-03-17,38.0874
1999-03-18,38.2681
1999-03-19,36.957
1999-03-22,37.4571
1999-03-23,37.0872
1999-03-24,36.9317
1999-03-25,38.0075
1999-03-26,38.2429
1999-03-29,38.5581
1999-03-30,37.8226
1999-03-31,38.4782
1999-04-01,37.7974
1999-04-05,37.9278
1999-04-06,38.8733
1999-04-07,38.1925
1999-04-08,37.5621
1999-04-09,37.7848
1999-04-12,37.7428
1999-04-13,37.3225
1999-04-14,36.1416
1999-04-15,34.9355
1999-04-16,34.3304
1999-04-19,32.7796
1999-04-20,34.5405
1999-04-21,35.3012
1999-04-22,36.5619
1999-04-23,36.5619
1999-04-26,37.3772
1999-04-27,36.9023
1999-04-28,35.9568
1999-04-29,34.1203
1999-04-30,33.99
1999-05-03,35.3012
1999-05-04,34.696
1999-05-05,34.4102
1999-05-06,33.2545
1999-05-07,33.1747
1999-05-10,34.0404
1999-05-11,34.4858
1999-05-12,34.2
1999-05-13,35.0658
1999-05-14,34.1203
1999-05-17,33.1747
1999-05-18,32.6241
1999-05-19,32.309
1999-05-20,32.2543
1999-05-21,31.6239
1999-05-24,32.5443
1999-05-25,31.1238
1999-05-26,30.9431
1999-05-27,29.8925
1999-05-28,30.4683
1999-06-01,30.548
1999-06-02,31.2583
1999-06-03,30.8885
1999-06-04,32.3342
1999-06-07,32.0694
1999-06-08,31.6786
1999-06-09,31.5441
1999-06-10,31.0986
1999-06-11,30.3884
1999-06-14,30.0228
1999-06-15,29.9682
1999-06-16,32.124
1999-06-17,31.9139
1999-06-18,31.2036
1999-06-21,32.3593
1999-06-22,31.8341
1999-06-23,31.1533
1999-06-24,30.5733
1999-06-25,30.733
1999-06-28,32.1493
1999-06-29,33.2545
1999-06-30,33.6202
1999-07-01,34.3052
1999-07-02,34.3304
1999-07-06,34.1455
1999-07-07,34.6707
1999-07-08,36.3517
1999-07-09,36.1668
1999-07-12,35.486
1999-07-13,35.1961
1999-07-14,35.3557
1999-07-15,35.1961
1999-07-16,35.9315
1999-07-19,36.0912
1999-07-20,34.5405
1999-07-21,33.6202
1999-07-22,32.7292
1999-07-23,32.414
1999-07-26,32.3593
1999-07-27,32.3593
1999-07-28,32.3342
1999-07-29,31.3886
1999-07-30,31.4685
1999-08-02,30.8885
1999-08-03,30.9431
1999-08-04,30.733
1999-08-05,30.8885
1999-08-06,30.1783
1999-08-09,30.0479
1999-08-10,30.3632
1999-08-11,31.5441
1999-08-12,31.5189
1999-08-13,31.3886
1999-08-16,31.8341
1999-08-17,33.1747
1999-08-18,33.1495
1999-08-19,32.3342
1999-08-20,32.9898
1999-08-23,33.6454
1999-08-24,34.2253
1999-08-25,33.0443
1999-08-26,32.9898
1999-08-27,32.309
1999-08-30,31.9644
1999-08-31,31.3634
1999-09-01,31.0188
1999-09-02,30.3128
1999-09-03,31.0986
1999-09-07,30.548
1999-09-08,30.2329
1999-09-09,30.0479
1999-09-10,29.3672
1999-09-13,28.9175
1999-09-14,28.367
1999-09-15,28.2115
1999-09-16,28.0266
1999-09-17,28.367
1999-09-20,27.8165
1999-09-21,28.0392
1999-09-22,28.7369
1999-09-23,29.5227
1999-09-24,30.3884
1999-09-27,30.4178
1999-09-28,30.443
1999-09-29,29.6824
1999-09-30,30.2329
1999-10-01,30.7035
1999-10-04,32.4392
1999-10-05,33.3848
1999-10-06,33.0696
1999-10-07,32.8847
1999-10-08,34.696
1999-10-11,35.3012
1999-10-12,33.9606
1999-10-13,32.414
1999-10-14,33.1747
1999-10-15,31.3088
1999-10-18,31.0734
1999-10-19,31.2289
1999-10-20,31.8341
1999-10-21,30.8633
1999-10-22,31.3634
1999-10-25,31.1238
1999-10-26,30.2833
1999-10-27,30.2329
1999-10-28,32.8847
1999-10-29,33.6999
1999-11-01,33.1495
1999-11-02,33.8302
1999-11-03,34.1706
1999-11-04,34.1706
1999-11-05,35.9063
1999-11-08,36.2467
1999-11-09,35.8264
1999-11-10,35.7214
1999-11-11,37.5789
1999-11-12,37.4277
1999-11-15,36.6669
1999-11-16,36.5871
1999-11-17,36.1416
1999-11-18,36.1416
1999-11-19,35.8517
1999-11-22,34.8556
1999-11-23,36.0366
1999-11-24,36.6669
1999-11-26,37.1923
1999-11-29,38.7682
1999-11-30,38.5329
1999-12-01,40.0542
1999-12-02,40.2391
1999-12-03,41.4999
1999-12-06,41.2897
1999-12-07,40.2643
1999-12-08,38.7934
1999-12-09,38.5917
1999-12-10,38.5329
1999-12-13,39.5037
1999-12-14,38.4194
1999-12-15,38.348
1999-12-16,37.8226
1999-12-17,38.079
1999-12-20,37.167
1999-12-21,36.5871
1999-12-22,36.7468
1999-12-23,37.4571
1999-12-27,37.6377
1999-12-28,38.348
1999-12-29,38.1127
1999-12-30,38.4279
1999-12-31,38.348
2000-01-03,37.4277
2000-01-04,35.3557
2000-01-05,35.9861
2000-01-06,36.5619
2000-01-07,39.138
2000-01-10,39.8987
2000-01-11,38.5076
2000-01-12,38.4279
2000-01-13,39.8987
2000-01-14,41.2939
2000-01-18,43.1262
2000-01-19,43.5464
2000-01-20,42.1849
2000-01-21,40.4534
2000-01-24,39.5037
2000-01-25,41.7646
2000-01-26,42.4454
2000-01-27,41.0838
2000-01-28,38.7136
2000-01-31,41.1342
2000-02-01,43.6558
2000-02-02,45.3368
2000-02-03,45.4376
2000-02-04,44.5466
2000-02-07,43.3364
2000-02-08,44.5971
2000-02-09,44.387
2000-02-10,43.8154
2000-02-11,43.3952
2000-02-14,42.5547
2000-02-15,41.5545
2000-02-16,40.134
2000-02-17,36.9821
2000-02-18,37.7723
2000-02-22,36.7721
2000-02-23,37.4528
2000-02-24,37.1418
2000-02-25,40.0332
2000-02-28,41.0838
2000-02-29,41.857
2000-03-01,39.1338
2000-03-02,41.9243
2000-03-03,42.0252
2000-03-06,42.0252
2000-03-07,38.1925
2000-03-08,38.4026
2000-03-09,37.4528
2000-03-10,37.0914
2000-03-13,36.2509
2000-03-14,36.4022
2000-03-15,41.8655
2000-03-16,47.0177
2000-03-17,45.3871
2000-03-20,43.992
2000-03-21,43.8154
2000-03-22,44.4458
2000-03-23,45.1266
2000-03-24,45.5973
2000-03-27,44.9669
2000-03-28,42.9749
2000-03-29,42.5547
2000-03-30,42.2352
2000-03-31,44.2189
2000-04-03,44.1264
2000-04-04,45.3871
2000-04-05,44.9669
2000-04-06,43.6558
2000-04-07,44.387
2000-04-10,45.5973
2000-04-11,48.2281
2000-04-12,46.2277
2000-04-13,45.9167
2000-04-14,42.706
2000-04-17,41.2351
2000-04-18,42.7648
2000-04-19,43.9667
2000-04-20,46.068
2000-04-24,47.1186
2000-04-25,47.8582
2000-04-26,46.068
2000-04-27,47.0177
2000-04-28,45.4965
2000-05-01,48.8584
2000-05-02,45.9671
2000-05-03,43.8659
2000-05-04,41.2939
2000-05-05,41.0502
2000-05-08,39.8735
2000-05-09,41.3948
2000-05-10,41.1342
2000-05-11,41.8319
2000-05-12,40.2433
2000-05-15,41.1847
2000-05-16,43.1851
2000-05-17,40.0836
2000-05-18,39.2935
2000-05-19,37.8226
2000-05-22,36.2509
2000-05-23,34.1581
2000-05-24,26.8457
2000-05-25,25.2655
2000-05-26,26.0052
2000-05-30,27.4257
2000-05-31,26.8961
2000-06-01,27.2155
2000-06-02,28.7872
2000-06-05,27.9467
2000-06-06,26.7364
2000-06-07,27.5769
2000-06-08,26.9465
2000-06-09,27.1062
2000-06-12,26.375
2000-06-13,26.9465
2000-06-14,27.3164
2000-06-15,27.8459
2000-06-16,27.4257
2000-06-19,26.8961
2000-06-20,26.5852
2000-06-21,27.1567
2000-06-22,26.9465
2000-06-23,26.9465
2000-06-26,26.7952
2000-06-27,27.787
2000-06-28,27.1062
2000-06-29,27.0558
2000-06-30,27.787
2000-07-03,28.4426
2000-07-05,28.0392
2000-07-06,27.6357
2000-07-07,29.1066
2000-07-10,31.0481
2000-07-11,29.8883
2000-07-12,30.7288
2000-07-13,30.6784
2000-07-14,30.2581
2000-07-17,29.8379
2000-07-18,28.5267
2000-07-19,27.7367
2000-07-20,27.6862
2000-07-21,27.1567
2000-07-24,26.5852
2000-07-25,26.686
2000-07-26,26.3162
2000-07-27,26.8457
2000-07-28,27.0558
2000-07-31,27.4257
2000-08-01,27.3164
2000-08-02,28.2661
2000-08-03,28.9469
2000-08-04,29.7874
2000-08-07,30.8381
2000-08-08,31.5189
2000-08-09,30.4683
2000-08-10,28.8377
2000-08-11,29.4176
2000-08-14,30.0479
2000-08-15,29.2075
2000-08-16,27.787
2000-08-17,27.787
2000-08-18,28.1064
2000-08-21,27.5265
2000-08-22,27.7367
2000-08-23,27.1062
2000-08-24,27.2659
2000-08-25,27.787
2000-08-28,27.7367
2000-08-29,29.2579
2000-08-30,30.0479
2000-08-31,28.9469
2000-09-01,29.6277
2000-09-05,30.4178
2000-09-06,30.7288
2000-09-07,30.6279
2000-09-08,31.6786
2000-09-11,31.6281
2000-09-12,31.7794
2000-09-13,32.2585
2000-09-14,31.2919
2000-09-15,29.7371
2000-09-18,28.6275
2000-09-19,28.1064
2000-09-20,28.7872
2000-09-21,29.7371
2000-09-22,29.4176
2000-09-25,29.3251
2000-09-26,28.4174
2000-09-27,29.1066
2000-09-28,30.2077
2000-09-29,29.4176
2000-10-02,27.6946
2000-10-03,28.4174
2000-10-04,28.9469
2000-10-05,28.3418
2000-10-06,28.1569
2000-10-09,28.7369
2000-10-10,27.787
2000-10-11,25.7446
2000-10-12,26.3162
2000-10-13,26.8961
2000-10-16,26.8961
2000-10-17,26.9465
2000-10-18,27.7367
2000-10-19,29.3167
2000-10-20,28.7369
2000-10-23,28.2073
2000-10-24,28.6864
2000-10-25,27.7786
2000-10-26,27.7534
2000-10-27,28.367
2000-10-30,29.0477
2000-10-31,30.8381
2000-11-01,30.0479
2000-11-02,30.4178
2000-11-03,29.7371
2000-11-06,29.0477
2000-11-07,29.9471
2000-11-08,29.8883
2000-11-09,28.5771
2000-11-10,27.7367
2000-11-13,28.9974
2000-11-14,30.9978
2000-11-15,30.7876
2000-11-16,29.7033
2000-11-17,30.3674
2000-11-20,29.3672
2000-11-21,30.3086
2000-11-22,28.9974
2000-11-24,29.7874
2000-11-27,30.8885
2000-11-28,29.5773
2000-11-29,30.6279
2000-11-30,27.476
2000-12-01,27.3668
2000-12-04,28.6275
2000-12-05,29.6277
2000-12-06,28.3165
2000-12-07,27.8963
2000-12-08,27.9972
2000-12-11,27.6862
2000-12-12,27.9467
2000-12-13,27.5685
2000-12-14,29.3672
2000-12-15,29.3672
2000-12-18,30.6279
2000-12-19,28.5267
2000-12-20,28.8965
2000-12-21,29.9976
2000-12-22,31.418
2000-12-26,30.3086
2000-12-27,31.2583
2000-12-28,32.4098
2000-12-29,33.5697
2001-01-02,34.5699
2001-01-03,35.8307
2001-01-04,36.7721
2001-01-05,34.8304
2001-01-08,35.3012
2001-01-09,35.091
2001-01-10,34.1497
2001-01-11,34.6707
2001-01-12,36.1921
2001-01-16,36.5619
2001-01-17,34.78
2001-01-18,34.8809
2001-01-19,33.9395
2001-01-22,35.5112
2001-01-23,35.7719
2001-01-24,36.0912
2001-01-25,36.2845
2001-01-26,34.6707
2001-01-29,36.9821
2001-01-30,36.7216
2001-01-31,38.8733
2001-02-01,38.8733
2001-02-02,37.0326
2001-02-05,36.1921
2001-02-06,36.7721
2001-02-07,37.8731
2001-02-08,36.0912
2001-02-09,34.8809
2001-02-12,35.6206
2001-02-13,35.9315
2001-02-14,36.7216
2001-02-15,35.9819
2001-02-16,35.8307
2001-02-20,37.125
2001-02-21,35.2002
2001-02-22,35.091
2001-02-23,34.6204
2001-02-26,36.0912
2001-02-27,36.1416
2001-02-28,35.1414
2001-03-01,33.9395
2001-03-02,32.5191
2001-03-05,31.729
2001-03-06,31.7794
2001-03-07,33.5697
2001-03-08,33.8807
2001-03-09,33.1495
2001-03-12,31.8887
2001-03-13,31.9896
2001-03-14,30.7456
2001-03-15,31.6281
2001-03-16,31.2583
2001-03-19,32.0988
2001-03-20,33.0402
2001-03-21,32.2585
2001-03-22,31.3591
2001-03-23,31.0481
2001-03-26,31.8887
2001-03-27,31.8887
2001-03-28,31.6281
2001-03-29,31.8887
2001-03-30,32.8889
2001-04-02,30.4178
2001-04-03,28.6275
2001-04-04,29.4176
2001-04-05,30.2581
2001-04-06,29.8883
2001-04-09,29.2075
2001-04-10,30.0143
2001-04-11,30.4935
2001-04-12,30.5943
2001-04-16,29.4176
2001-04-17,30.4514
2001-04-18,32.2669
2001-04-19,31.0819
2001-04-20,30.712
2001-04-23,30.4683
2001-04-24,28.7956
2001-04-25,29.4092
2001-04-26,29.2411
2001-04-27,29.6866
2001-04-30,29.3756
2001-05-01,30.2413
2001-05-02,30.275
2001-05-03,29.7202
2001-05-04,30.1404
2001-05-07,29.1654
2001-05-08,29.1991
2001-05-09,29.3167
2001-05-10,30.1825
2001-05-11,29.821
2001-05-14,30.3674
2001-05-15,29.8883
2001-05-16,30.4683
2001-05-17,30.4766
2001-05-18,30.0732
2001-05-21,31.107
2001-05-22,31.855
2001-05-23,30.9809
2001-05-24,31.7626
2001-05-25,31.5189
2001-05-29,30.9809
2001-05-30,31.334
2001-05-31,32.6956
2001-06-01,32.6367
2001-06-04,32.3593
2001-06-05,33.3764
2001-06-06,33.2167
2001-06-07,34.4522
2001-06-08,33.9564
2001-06-11,33.4352
2001-06-12,33.9143
2001-06-13,34.0404
2001-06-14,33.9731
2001-06-15,34.1076
2001-06-18,35.3263
2001-06-19,35.8139
2001-06-20,35.8222
2001-06-21,36.6039
2001-06-22,35.2843
2001-06-25,35.2591
2001-06-26,33.8135
2001-06-27,33.368
2001-06-28,35.4356
2001-06-29,35.2087
2001-07-02,35.5617
2001-07-03,35.4188
2001-07-05,34.7884
2001-07-06,34.0404
2001-07-09,35.2423
2001-07-10,34.9397
2001-07-11,35.4273
2001-07-12,36.2677
2001-07-13,36.2173
2001-07-16,37.4024
2001-07-17,37.1503
2001-07-18,36.6711
2001-07-19,36.9401
2001-07-20,37.2763
2001-07-23,36.7721
2001-07-24,35.3263
2001-07-25,35.1414
2001-07-26,35.4945
2001-07-27,34.7884
2001-07-30,35.3852
2001-07-31,36.2004
2001-08-01,35.4776
2001-08-02,36.4862
2001-08-03,36.1921
2001-08-06,34.965
2001-08-07,35.4104
2001-08-08,35.2843
2001-08-09,34.2505
2001-08-10,33.6285
2001-08-13,34.1328
2001-08-14,34.3514
2001-08-15,33.3595
2001-08-16,33.9143
2001-08-17,33.1579
2001-08-20,33.8471
2001-08-21,32.5359
2001-08-22,32.6283
2001-08-23,32.4098
2001-08-24,32.9393
2001-08-27,33.1579
2001-08-28,33.3259
2001-08-29,32.6115
2001-08-30,31.855
2001-08-31,31.5273
2001-09-04,31.5693
2001-09-05,31.1827
2001-09-06,29.4261
2001-09-07,28.6107
2001-09-10,28.6948
2001-09-17,27.0558
2001-09-18,27.1147
2001-09-19,26.7112
2001-09-20,26.4927
2001-09-21,26.1732
2001-09-24,28.1064
2001-09-25,28.1989
2001-09-26,28.367
2001-09-27,28.2241
2001-09-28,29.8294
2001-10-01,29.5185
2001-10-02,29.8883
2001-10-03,30.5102
2001-10-04,29.6361
2001-10-05,29.7874
2001-10-08,28.6107
2001-10-09,28.1989
2001-10-10,30.0564
2001-10-11,32.0064
2001-10-12,32.351
2001-10-15,32.0064
2001-10-16,32.931
2001-10-17,32.2081
2001-10-18,31.855
2001-10-19,32.8049
2001-10-22,32.7796
2001-10-23,33.1159
2001-10-24,33.368
2001-10-25,33.7041
2001-10-26,34.0656
2001-10-29,32.3593
2001-10-30,31.5777
2001-10-31,31.7711
2001-11-01,33.2251
2001-11-02,33.7882
2001-11-05,34.5195
2001-11-06,35.0658
2001-11-07,34.7968
2001-11-08,35.8391
2001-11-09,36.2089
2001-11-12,35.6794
2001-11-13,36.2257
2001-11-14,36.2845
2001-11-15,35.8811
2001-11-16,35.3516
2001-11-19,36.0829
2001-11-20,35.133
2001-11-21,34.385
2001-11-23,35.3012
2001-11-26,35.9483
2001-11-27,35.8055
2001-11-28,34.385
2001-11-29,34.5363
2001-11-30,34.4354
2001-12-03,33.7882
2001-12-04,34.3766
2001-12-05,36.3854
2001-12-06,35.7045
2001-12-07,36.1501
2001-12-10,35.6289
2001-12-11,34.7128
2001-12-12,34.3766
2001-12-13,34.965
2001-12-14,35.5617
2001-12-17,35.755
2001-12-18,36.4022
2001-12-19,36.3854
2001-12-20,36.646
2001-12-21,36.5703
2001-12-24,37.3603
2001-12-26,37.125
2001-12-27,37.1334
2001-12-28,38.0075
2001-12-31,37.4024
2002-01-02,37.2595
2002-01-03,37.7386
2002-01-04,37.6546
2002-01-07,37.1586
2002-01-08,37.2091
2002-01-09,37.1167
2002-01-10,37.5537
2002-01-11,36.6039
2002-01-14,36.2761
2002-01-15,36.0576
2002-01-16,35.2927
2002-01-17,36.419
2002-01-18,36.1585
2002-01-22,36.4611
2002-01-23,37.5369
2002-01-24,37.2091
2002-01-25,37.1503
2002-01-28,36.999
2002-01-29,36.6544
2002-01-30,38.4026
2002-01-31,38.5539
2002-02-01,38.0075
2002-02-04,37.6966
2002-02-05,37.8226
2002-02-06,37.5957
2002-02-07,37.3688
2002-02-08,37.0242
2002-02-11,37.6966
2002-02-12,37.394
2002-02-13,38.1336
2002-02-14,38.9489
2002-02-15,38.5371
2002-02-19,38.0075
2002-02-20,38.5875
2002-02-21,38.7051
2002-02-22,37.8983
2002-02-25,37.2763
2002-02-26,36.5367
2002-02-27,35.4692
2002-02-28,34.7632
2002-03-01,34.2925
2002-03-04,34.3177
2002-03-05,32.8637
2002-03-06,32.8133
2002-03-07,33.6118
2002-03-08,33.5361
2002-03-11,34.3346
2002-03-12,34.8473
2002-03-13,35.2759
2002-03-14,34.6623
2002-03-15,35.4524
2002-03-18,35.5029
2002-03-19,35.486
2002-03-20,35.0489
2002-03-21,34.469
2002-03-22,34.0404
2002-03-25,33.6118
2002-03-26,33.7882
2002-03-27,33.6958
2002-03-28,33.5529
2002-04-01,33.3595
2002-04-02,32.4854
2002-04-03,32.6536
2002-04-04,33.1074
2002-04-05,33.0234
2002-04-08,33.9227
2002-04-09,34.2841
2002-04-10,35.2927
2002-04-11,35.175
2002-04-12,35.2759
2002-04-15,35.2759
2002-04-16,36.0324
2002-04-17,35.713
2002-04-18,35.9568
2002-04-19,35.7045
2002-04-22,34.7128
2002-04-23,34.0572
2002-04-24,33.1662
2002-04-25,33.9143
2002-04-26,33.5444
2002-04-29,33.4184
2002-04-30,33.7966
2002-05-01,33.8218
2002-05-02,34.0825
2002-05-03,33.8302
2002-05-06,33.7715
2002-05-07,34.1833
2002-05-08,35.0994
2002-05-09,34.511
2002-05-10,33.8302
2002-05-13,33.5949
2002-05-14,34.074
2002-05-15,34.5951
2002-05-16,34.8473
2002-05-17,34.7548
2002-05-20,34.3346
2002-05-21,33.41
2002-05-22,32.9393
2002-05-23,33.452
2002-05-24,32.6619
2002-05-28,32.2585
2002-05-29,32.3426
2002-05-30,32.9898
2002-05-31,33.1495
2002-06-03,32.4939
2002-06-04,32.6872
2002-06-05,33.3344
2002-06-06,33.0485
2002-06-07,33.1915
2002-06-10,33.6958
2002-06-11,33.3764
2002-06-12,34.2337
2002-06-13,33.452
2002-06-14,33.4436
2002-06-17,34.1328
2002-06-18,34.2085
2002-06-19,34.3766
2002-06-20,33.7294
2002-06-21,33.1495
2002-06-24,32.4434
2002-06-25,31.7878
2002-06-26,31.5945
2002-06-27,32.4434
2002-06-28,32.3846
2002-07-01,31.7542
2002-07-02,30.7204
2002-07-03,31.7375
2002-07-05,33.0318
2002-07-08,32.3342
2002-07-09,31.2835
2002-07-10,30.4178
2002-07-11,31.4432
2002-07-12,31.0145
2002-07-15,30.9305
2002-07-16,28.9638
2002-07-17,29.0562
2002-07-18,28.5267
2002-07-19,27.8375
2002-07-22,27.0726
2002-07-23,26.7952
2002-07-24,29.4933
2002-07-25,28.6948
2002-07-26,28.9974
2002-07-29,30.3674
2002-07-30,29.5185
2002-07-31,29.0394
2002-08-01,27.787
2002-08-02,27.3164
2002-08-05,26.7785
2002-08-06,27.8039
2002-08-07,28.9385
2002-08-08,27.7618
2002-08-09,28.0476
2002-08-12,27.4088
2002-08-13,27.4257
2002-08-14,29.1066
2002-08-15,30.5859
2002-08-16,30.1741
2002-08-19,30.4766
2002-08-20,29.7622
2002-08-21,29.4092
2002-08-22,29.5269
2002-08-23,28.7788
2002-08-26,29.2159
2002-08-27,27.6946
2002-08-28,27.9636
2002-08-29,28.14
2002-08-30,28.0728
2002-09-03,27.4844
2002-09-04,28.367
2002-09-05,27.93
2002-09-06,29.0477
2002-09-09,29.2411
2002-09-10,28.5015
2002-09-11,28.8377
2002-09-12,28.1652
2002-09-13,28.5351
2002-09-16,28.4426
2002-09-17,28.098
2002-09-18,28.4426
2002-09-19,27.8711
2002-09-20,28.7872
2002-09-23,27.7114
2002-09-24,27.5265
2002-09-25,28.4931
2002-09-26,29.4176
2002-09-27,28.4931
2002-09-30,27.3332
2002-10-01,27.8543
2002-10-02,26.6608
2002-10-03,25.9715
2002-10-04,26.2825
2002-10-07,24.5007
2002-10-08,26.6524
2002-10-09,25.6017
2002-10-10,27.0894
2002-10-11,28.3585
2002-10-14,28.2325
2002-10-15,29.7118
2002-10-16,29.1487
2002-10-17,28.6864
2002-10-18,29.4933
2002-10-21,29.4597
2002-10-22,29.2495
2002-10-23,30.4094
2002-10-24,30.3086
2002-10-25,30.1993
2002-10-28,29.3251
2002-10-29,29.342
2002-10-30,28.2998
2002-10-31,28.367
2002-11-01,28.9805
2002-11-04,28.4426
2002-11-05,28.409
2002-11-06,28.2913
2002-11-07,27.0642
2002-11-08,27.0222
2002-11-11,26.6103
2002-11-12,27.2239
2002-11-13,26.7868
2002-11-14,28.098
2002-11-15,28.2829
2002-11-18,27.5013
2002-11-19,26.8037
2002-11-20,26.9129
2002-11-21,26.8373
2002-11-22,26.5178
2002-11-25,26.8793
2002-11-26,26.1901
2002-11-27,26.9129
2002-11-29,27.1398
2002-12-02,27.4508
2002-12-03,27.661
2002-12-04,27.1567
2002-12-05,26.106
2002-12-06,25.5765
2002-12-09,24.8033
2002-12-10,24.7108
2002-12-11,23.9459
2002-12-12,24.8537
2002-12-13,23.9375
2002-12-16,24.1308
2002-12-17,23.3156
2002-12-18,23.097
2002-12-19,23.2063
2002-12-20,23.4921
2002-12-23,22.9205
2002-12-24,22.8953
2002-12-26,23.24
2002-12-27,23.097
2002-12-30,23.7442
2002-12-31,23.5509
2003-01-02,24.3494
2003-01-03,23.7022
2003-01-06,24.0805
2003-01-07,24.4502
2003-01-08,24.652
2003-01-09,25.711
2003-01-10,25.7614
2003-01-13,25.6522
2003-01-14,26.0388
2003-01-15,25.6774
2003-01-16,25.3832
2003-01-17,25.4168
2003-01-21,24.6772
2003-01-22,24.4082
2003-01-23,24.9209
2003-01-24,24.2233
2003-01-27,24.1813
2003-01-28,24.4082
2003-01-29,24.6267
2003-01-30,24.3998
2003-01-31,24.2905
2003-02-03,24.5174
2003-02-04,24.0216
2003-02-05,24.1141
2003-02-06,24.3662
2003-02-07,24.0636
2003-02-10,24.0384
2003-02-11,24.0216
2003-02-12,24.1897
2003-02-13,23.7526
2003-02-14,24.1813
2003-02-18,25.0302
2003-02-19,24.6015
2003-02-20,24.5007
2003-02-21,25.2151
2003-02-24,24.7781
2003-02-25,25.1563
2003-02-26,25.2151
2003-02-27,25.4925
2003-02-28,25.7025
2003-03-03,25.5597
2003-03-04,24.5763
2003-03-05,24.1477
2003-03-06,24.1561
2003-03-07,24.4671
2003-03-10,23.7779
2003-03-11,23.6013
2003-03-12,24.0131
2003-03-13,25.1563
2003-03-14,24.7781
2003-03-17,25.9043
2003-03-18,26.0304
2003-03-19,25.9547
2003-03-20,25.8707
2003-03-21,26.2405
2003-03-24,25.3496
2003-03-25,26.0472
2003-03-26,26.2237
2003-03-27,25.6186
2003-03-28,25.5765
2003-03-31,25.2404
2003-04-01,25.5597
2003-04-02,26.5683
2003-04-03,26.4338
2003-04-04,26.5263
2003-04-07,27.1062
2003-04-08,27.619
2003-04-09,27.3164
2003-04-10,28.3838
2003-04-11,27.8543
2003-04-14,28.3838
2003-04-15,28.9974
2003-04-16,28.6359
2003-04-17,29.0562
2003-04-21,28.6528
2003-04-22,28.5015
2003-04-23,28.451
2003-04-24,28.2241
2003-04-25,27.7954
2003-04-28,28.9638
2003-04-29,29.2748
2003-04-30,29.0477
2003-05-01,28.8797
2003-05-02,29.3336
2003-05-05,28.8713
2003-05-06,29.3251
2003-05-07,28.9721
2003-05-08,29.4176
2003-05-09,29.6025
2003-05-12,30.4094
2003-05-13,30.5019
2003-05-14,30.1573
2003-05-15,29.7454
2003-05-16,29.6446
2003-05-19,28.6695
2003-05-20,28.72
2003-05-21,29.031
2003-05-22,29.4933
2003-05-23,29.2243
2003-05-27,30.1573
2003-05-28,31.4768
2003-05-29,30.8212
2003-05-30,31.2583
2003-06-02,31.2919
2003-06-03,31.3927
2003-06-04,31.4601
2003-06-05,31.0566
2003-06-06,29.6194
2003-06-09,29.4092
2003-06-10,29.4008
2003-06-11,29.5773
2003-06-12,29.9807
2003-06-13,29.2915
2003-06-16,29.9976
2003-06-17,30.0396
2003-06-18,30.3086
2003-06-19,29.9051
2003-06-20,30.2833
2003-06-23,30.0817
2003-06-24,30.4766
2003-06-25,30.4094
2003-06-26,30.5607
2003-06-27,30.4263
2003-06-30,30.7624
2003-07-01,30.7288
2003-07-02,30.7876
2003-07-03,30.4178
2003-07-07,31.0566
2003-07-08,31.0398
2003-07-09,30.9221
2003-07-10,30.5943
2003-07-11,31.0145
2003-07-14,31.1322
2003-07-15,31.0314
2003-07-16,30.9221
2003-07-17,30.7035
2003-07-18,30.7373
2003-07-21,30.5691
2003-07-22,30.7035
2003-07-23,30.7709
2003-07-24,30.3169
2003-07-25,30.796
2003-07-28,30.9978
2003-07-29,30.9305
2003-07-30,31.0986
2003-07-31,31.0902
2003-08-01,30.8129
2003-08-04,31.0734
2003-08-05,25.2992
2003-08-06,24.3326
2003-08-07,24.4502
2003-08-08,24.5679
2003-08-11,24.7781
2003-08-12,25.274
2003-08-13,25.4589
2003-08-14,25.8791
2003-08-15,26.0135
2003-08-18,25.7363
2003-08-19,25.6269
2003-08-20,25.6101
2003-08-21,25.8035
2003-08-22,25.9632
2003-08-25,26.3918
2003-08-26,26.5767
2003-08-27,26.728
2003-08-28,26.9381
2003-08-29,27.1483
2003-09-02,27.8711
2003-09-03,27.9551
2003-09-04,27.5685
2003-09-05,27.0474
2003-09-08,26.686
2003-09-09,26.0724
2003-09-10,25.9296
2003-09-11,26.5431
2003-09-12,26.3918
2003-09-15,25.9632
2003-09-16,26.0135
2003-09-17,26.4086
2003-09-18,26.7027
2003-09-19,27.4004
2003-09-22,27.0306
2003-09-23,27.5349
2003-09-24,26.9045
2003-09-25,26.7364
2003-09-26,26.2321
2003-09-29,26.3078
2003-09-30,26.1901
2003-10-01,27.0978
2003-10-02,26.7701
2003-10-03,27.0894
2003-10-06,27.661
2003-10-07,28.1149
2003-10-08,27.6778
2003-10-09,27.7367
2003-10-10,27.7114
2003-10-13,27.9888
2003-10-14,28.1569
2003-10-15,28.2746
2003-10-16,28.4846
2003-10-17,28.056
2003-10-20,28.1233
2003-10-21,28.5435
2003-10-22,28.4846
2003-10-23,28.6359
2003-10-24,28.4846
2003-10-27,28.3922
2003-10-28,29.1571
2003-10-29,29.6614
2003-10-30,29.2327
2003-10-31,29.6025
2003-11-03,29.5941
2003-11-04,29.7371
2003-11-05,29.342
2003-11-06,29.3924
2003-11-07,29.0058
2003-11-10,28.9469
2003-11-11,28.9638
2003-11-12,29.2411
2003-11-13,28.762
2003-11-14,28.678
2003-11-17,28.4846
2003-11-18,28.2325
2003-11-19,28.4259
2003-11-20,28.6528
2003-11-21,28.7369
2003-11-24,29.5521
2003-11-25,29.8379
2003-11-26,29.7538
2003-11-28,30.1068
2003-12-01,30.7288
2003-12-02,30.2581
2003-12-03,29.9051
2003-12-04,30.3842
2003-12-05,30.132
2003-12-08,30.2245
2003-12-09,30.3842
2003-12-10,30.2581
2003-12-11,30.3674
2003-12-12,30.2161
2003-12-15,29.7538
2003-12-16,30.0479
2003-12-17,30.2413
2003-12-18,30.6616
2003-12-19,30.7456
2003-12-22,30.2581
2003-12-23,30.485
2003-12-24,30.3086
2003-12-26,30.5943
2003-12-29,30.9642
2003-12-30,31.3591
2003-12-31,31.1994
2004-01-02,30.485
2004-01-05,30.4094
2004-01-06,30.7792
2004-01-07,31.1322
2004-01-08,31.3676
2004-01-09,31.8803
2004-01-12,31.7037
2004-01-13,31.7542
2004-01-14,31.0986
2004-01-15,31.2835
2004-01-16,30.9978
2004-01-20,30.6699
2004-01-21,30.7288
2004-01-22,30.6111
2004-01-23,31.334
2004-01-26,31.2079
2004-01-27,30.8381
2004-01-28,30.3506
2004-01-29,30.8969
2004-01-30,31.065
2004-02-02,31.2919
2004-02-03,31.2667
2004-02-04,31.3088
2004-02-05,31.8719
2004-02-06,32.0483
2004-02-09,32.2249
2004-02-10,33.1242
2004-02-11,32.8889
2004-02-12,31.7206
2004-02-13,31.6113
2004-02-17,31.7962
2004-02-18,31.7375
2004-02-19,31.5525
2004-02-20,32.1324
2004-02-23,32.0064
2004-02-24,32.2585
2004-02-25,32.5359
2004-02-26,32.5527
2004-02-27,32.6367
2004-03-01,33.5781
2004-03-02,33.2756
2004-03-03,32.2921
2004-03-04,32.3762
2004-03-05,32.1072
2004-03-08,31.7962
2004-03-09,31.5273
2004-03-10,31.5273
2004-03-11,31.7037
2004-03-12,32.1408
2004-03-15,31.4516
2004-03-16,31.1911
2004-03-17,31.3927
2004-03-18,31.3927
2004-03-19,31.3508
2004-03-22,30.8296
2004-03-23,30.6111
2004-03-24,30.6111
2004-03-25,31.0819
2004-03-26,30.8381
2004-03-29,31.2247
2004-03-30,31.3088
2004-03-31,31.6113
2004-04-01,31.3676
2004-04-02,31.6281
2004-04-05,31.9391
2004-04-06,31.9475
2004-04-07,32.0652
2004-04-08,31.8719
2004-04-12,31.687
2004-04-13,31.3004
2004-04-14,31.6701
2004-04-15,31.376
2004-04-16,31.9475
2004-04-19,31.9391
2004-04-20,31.7626
2004-04-21,32.1493
2004-04-22,32.1913
2004-04-23,32.3929
2004-04-26,32.0064
2004-04-27,31.9727
2004-04-28,31.9307
2004-04-29,31.6198
2004-04-30,31.5777
2004-05-03,31.6198
2004-05-04,31.5189
2004-05-05,31.4348
2004-05-06,30.6005
2004-05-07,30.0526
2004-05-10,30.6511
2004-05-11,30.4403
2004-05-12,30.7437
2004-05-13,30.3392
2004-05-14,30.2212
2004-05-17,29.9431
2004-05-18,30.6595
2004-05-19,30.8027
2004-05-20,30.9123
2004-05-21,30.828
2004-05-24,31.0471
2004-05-25,31.4769
2004-05-26,31.5527
2004-05-27,32.1343
2004-05-28,32.0163
2004-06-01,32.1343
2004-06-02,32.6568
2004-06-03,33.0782
2004-06-04,32.8253
2004-06-07,33.1372
2004-06-08,33.7356
2004-06-09,34.3423
2004-06-10,34.9912
2004-06-14,34.5277
2004-06-15,35.008
2004-06-16,34.9828
2004-06-17,35.084
2004-06-18,35.4294
2004-06-21,35.2609
2004-06-22,35.5053
2004-06-23,36.1374
2004-06-24,35.8171
2004-06-25,35.2694
2004-06-28,35.3115
2004-06-29,34.6794
2004-06-30,34.6794
2004-07-01,34.4771
2004-07-02,34.2665
2004-07-06,34.3845
2004-07-07,34.8985
2004-07-08,33.7861
2004-07-09,33.9462
2004-07-12,34.376
2004-07-13,34.73
2004-07-14,34.3845
2004-07-15,34.5362
2004-07-16,34.2496
2004-07-19,34.258
2004-07-20,34.553
2004-07-21,34.7304
2004-07-22,34.5783
2004-07-23,34.308
2004-07-26,33.9362
2004-07-27,34.8909
2004-07-28,34.8909
2004-07-29,35.1781
2004-07-30,34.384
2004-08-02,34.6797
2004-08-03,34.4093
2004-08-04,34.7726
2004-08-05,34.308
2004-08-06,33.5561
2004-08-09,33.9531
2004-08-10,34.4516
2004-08-11,34.2066
2004-08-12,34.2066
2004-08-13,34.4263
2004-08-16,34.5529
2004-08-17,34.874
2004-08-18,35.2457
2004-08-19,35.7779
2004-08-20,35.8201
2004-08-23,35.3217
2004-08-24,35.533
2004-08-25,35.516
2004-08-26,35.8539
2004-08-27,35.5414
2004-08-30,35.3555
2004-08-31,34.8233
2004-09-01,34.4346
2004-09-02,34.1728
2004-09-03,34.2995
2004-09-07,34.2488
2004-09-08,33.894
2004-09-09,33.6996
2004-09-10,34.2066
2004-09-13,34.7219
2004-09-14,35.0345
2004-09-15,34.9585
2004-09-16,35.0768
2004-09-17,34.8993
2004-09-20,34.6374
2004-09-21,34.9669
2004-09-22,34.5952
2004-09-23,34.4431
2004-09-24,34.9585
2004-09-27,34.8148
2004-09-28,34.9416
2004-09-29,35.2795
2004-09-30,35.0598
2004-10-01,35.6596
2004-10-04,36.6396
2004-10-05,36.4116
2004-10-06,36.1159
2004-10-07,37.7717
2004-10-08,37.7801
2004-10-11,37.9322
2004-10-12,38.3377
2004-10-13,38.38
2004-10-14,38.3546
2004-10-15,38.5743
2004-10-18,38.9545
2004-10-19,39.0643
2004-10-20,39.2248
2004-10-21,39.3008
2004-10-22,38.701
2004-10-25,38.853
2004-10-26,39.8584
2004-10-27,40.5596
2004-10-28,40.5849
2004-10-29,40.4413
2004-11-01,40.6018
2004-11-02,41.0327
2004-11-03,41.1344
2004-11-04,41.7862
2004-11-05,41.9132
2004-11-08,41.473
2004-11-09,41.5576
2004-11-10,41.3799
2004-11-11,41.2529
2004-11-12,41.5576
2004-11-15,42.0571
2004-11-16,41.1005
2004-11-17,41.3883
2004-11-18,40.9312
2004-11-19,40.2286
2004-11-22,41.3629
2004-11-23,42.091
2004-11-24,41.9979
2004-11-26,42.0402
2004-11-29,41.7777
2004-11-30,41.1597
2004-12-01,41.9809
2004-12-02,41.583
2004-12-03,40.5926
2004-12-06,40.9058
2004-12-07,40.7281
2004-12-08,41.3799
2004-12-09,40.7704
2004-12-10,40.1354
2004-12-13,39.873
2004-12-14,40.5079
2004-12-15,40.8042
2004-12-16,40.5248
2004-12-17,40.4571
2004-12-20,40.3725
2004-12-21,40.601
2004-12-22,40.4995
2004-12-23,40.2455
2004-12-27,40.1947
2004-12-28,40.6264
2004-12-29,41.2021
2004-12-30,40.9566
2004-12-31,40.8804
2005-01-03,40.5418
2005-01-04,39.9492
2005-01-05,40.0
2005-01-06,40.5757
2005-01-07,40.1269
2005-01-10,40.2455
2005-01-11,40.1269
2005-01-12,40.3048
2005-01-13,40.5079
2005-01-14,40.855
2005-01-18,41.5491
2005-01-19,40.9651
2005-01-20,40.474
2005-01-21,39.4497
2005-01-24,39.2465
2005-01-25,39.8899
2005-01-26,40.1101
2005-01-27,39.9153
2005-01-28,40.0507
2005-01-31,40.0084
2005-02-01,39.746
2005-02-02,39.8984
2005-02-03,39.2973
2005-02-04,39.255
2005-02-07,39.0938
2005-02-08,38.8902
2005-02-09,38.5933
2005-02-10,38.9581
2005-02-11,39.4247
2005-02-14,39.4417
2005-02-15,39.8573
2005-02-16,39.798
2005-02-17,39.1532
2005-02-18,38.8478
2005-02-22,38.5847
2005-02-23,38.7715
2005-02-24,39.5265
2005-02-25,39.4841
2005-02-28,39.3399
2005-03-01,39.5944
2005-03-02,38.1776
2005-03-03,38.0758
2005-03-04,37.9739
2005-03-07,37.7704
2005-03-08,39.0684
2005-03-09,38.7205
2005-03-10,38.0163
2005-03-11,38.203
2005-03-14,38.6527
2005-03-15,38.3473
2005-03-16,37.8127
2005-03-17,37.397
2005-03-18,36.905
2005-03-21,36.625
2005-03-22,36.8286
2005-03-23,37.0408
2005-03-24,37.0577
2005-03-28,37.694
2005-03-29,37.6855
2005-03-30,38.1605
2005-03-31,37.5158
2005-04-01,37.1765
2005-04-04,38.2878
2005-04-05,39.255
2005-04-06,39.2635
2005-04-07,39.781
2005-04-08,39.2041
2005-04-11,39.2804
2005-04-12,39.306
2005-04-13,38.8223
2005-04-14,38.5847
2005-04-15,38.0673
2005-04-18,37.5752
2005-04-19,37.2189
2005-04-20,36.5996
2005-04-21,37.3123
2005-04-22,34.1053
2005-04-25,35.1657
2005-04-26,35.3609
2005-04-27,35.1657
2005-04-28,34.241
2005-04-29,34.3937
2005-05-02,34.9876
2005-05-03,35.7342
2005-05-04,36.3342
2005-05-05,36.3682
2005-05-06,36.3767
2005-05-09,36.8021
2005-05-10,36.5213
2005-05-11,36.4533
2005-05-12,36.0959
2005-05-13,35.6962
2005-05-16,36.751
2005-05-17,37.2189
2005-05-18,38.2228
2005-05-19,38.2653
2005-05-20,38.2142
2005-05-23,37.8399
2005-05-24,37.9335
2005-05-25,38.6907
2005-05-26,38.5801
2005-05-27,38.546
2005-05-31,38.6311
2005-06-01,38.7502
2005-06-02,39.6264
2005-06-03,39.2606
2005-06-06,38.9033
2005-06-07,38.9884
2005-06-08,38.7757
2005-06-09,38.9884
2005-06-10,38.9884
2005-06-13,38.9288
2005-06-14,39.3883
2005-06-15,39.3542
2005-06-16,39.133
2005-06-17,39.5839
2005-06-20,39.4393
2005-06-21,39.065
2005-06-22,38.6736
2005-06-23,38.2142
2005-06-24,38.0951
2005-06-27,38.01
2005-06-28,38.6225
2005-06-29,38.4525
2005-06-30,38.1291
2005-07-01,38.2397
2005-07-05,38.563
2005-07-06,38.6141
2005-07-07,38.3419
2005-07-08,38.7247
2005-07-11,38.8098
2005-07-12,39.2606
2005-07-13,38.9713
2005-07-14,39.1075
2005-07-15,39.5158
2005-07-18,39.5244
2005-07-19,39.4138
2005-07-20,39.2181
2005-07-21,38.6821
2005-07-22,39.0735
2005-07-25,39.0395
2005-07-26,39.1585
2005-07-27,39.2436
2005-07-28,39.5924
2005-07-29,39.0905
2005-08-01,38.8182
2005-08-02,38.529
2005-08-03,37.919
2005-08-04,37.7229
2005-08-05,37.2964
2005-08-08,36.9041
2005-08-09,36.8273
2005-08-10,36.2473
2005-08-11,36.4947
2005-08-12,36.5203
2005-08-15,36.6652
2005-08-16,36.4521
2005-08-17,37.2709
2005-08-18,37.5181
2005-08-19,37.757
2005-08-22,37.6973
2005-08-23,37.2793
2005-08-24,37.0064
2005-08-25,37.0064
2005-08-26,36.8187
2005-08-29,37.0661
2005-08-30,36.7505
2005-08-31,37.0064
2005-09-01,36.8017
2005-09-02,36.7761
2005-09-06,36.8614
2005-09-07,36.9126
2005-09-08,36.742
2005-09-09,36.7164
2005-09-12,37.4328
2005-09-13,37.1343
2005-09-14,36.8529
2005-09-15,36.6397
2005-09-16,36.8359
2005-09-19,36.0512
2005-09-20,35.3092
2005-09-21,35.3774
2005-09-22,36.7505
2005-09-23,36.5117
2005-09-26,36.4776
2005-09-27,36.8444
2005-09-28,36.2047
2005-09-29,36.3241
2005-09-30,36.6993
2005-10-03,36.5458
2005-10-04,36.6141
2005-10-05,36.6056
2005-10-06,38.2857
2005-10-07,38.9083
2005-10-10,38.8912
2005-10-11,38.8316
2005-10-12,38.6354
2005-10-13,38.7293
2005-10-14,39.6333
2005-10-17,39.7441
2005-10-18,39.5395
2005-10-19,40.7164
2005-10-20,40.6141
2005-10-21,40.7591
2005-10-24,41.0235
2005-10-25,40.8444
2005-10-26,40.1791
2005-10-27,39.4798
2005-10-28,40.3241
2005-10-31,41.1941
2005-11-01,41.1088
2005-11-02,41.3391
2005-11-03,41.5096
2005-11-04,41.8678
2005-11-07,42.2687
2005-11-08,41.774
2005-11-09,41.5437
2005-11-10,42.6781
2005-11-11,42.7122
2005-11-14,42.4904
2005-11-15,41.9701
2005-11-16,42.0599
2005-11-17,42.5813
2005-11-18,42.6156
2005-11-21,42.2309
2005-11-22,42.094
2005-11-23,43.1541
2005-11-25,43.2395
2005-11-28,42.9917
2005-11-29,43.385
2005-11-30,42.6754
2005-12-01,41.7093
2005-12-02,42.171
2005-12-05,42.4104
2005-12-06,41.9145
2005-12-07,42.171
2005-12-08,41.2477
2005-12-09,41.47
2005-12-12,41.6154
2005-12-13,41.5896
2005-12-14,42.1026
2005-12-15,42.3078
2005-12-16,41.6752
2005-12-19,41.5896
2005-12-20,42.0855
2005-12-21,42.5898
2005-12-22,42.5728
2005-12-23,42.7437
2005-12-27,42.5813
2005-12-28,42.8292
2005-12-29,42.6925
2005-12-30,42.2651
2006-01-03,42.6156
2006-01-04,42.7694
2006-01-05,42.4617
2006-01-06,42.6156
2006-01-09,42.7523
2006-01-10,42.7437
2006-01-11,43.2994
2006-01-12,43.385
2006-01-13,43.6158
2006-01-17,43.2567
2006-01-18,43.3422
2006-01-19,43.2395
2006-01-20,42.4702
2006-01-23,41.9915
2006-01-24,42.3248
2006-01-25,42.6925
2006-01-26,42.8464
2006-01-27,42.7437
2006-01-30,42.4617
2006-01-31,42.6156
2006-02-01,42.2907
2006-02-02,42.8976
2006-02-03,42.3163
2006-02-06,42.077
2006-02-07,41.7383
2006-02-08,42.0126
2006-02-09,41.9869
2006-02-10,42.6209
2006-02-13,42.8781
2006-02-14,43.8292
2006-02-15,44.1462
2006-02-16,44.2833
2006-02-17,43.7264
2006-02-21,43.4864
2006-02-22,44.0948
2006-02-23,43.7606
2006-02-24,43.4607
2006-02-27,44.2576
2006-02-28,43.8548
2006-03-01,44.6775
2006-03-02,45.2944
2006-03-03,45.9028
2006-03-06,46.0228
2006-03-07,45.9456
2006-03-08,46.0656
2006-03-09,45.4829
2006-03-10,46.2627
2006-03-13,46.4084
2006-03-14,47.3338
2006-03-15,47.0853
2006-03-16,47.1796
2006-03-17,47.8564
2006-03-20,47.9678
2006-03-21,47.4538
2006-03-22,47.2823
2006-03-23,47.1281
2006-03-24,46.8196
2006-03-27,46.8882
2006-03-28,46.5112
2006-03-29,46.811
2006-03-30,46.4512
2006-03-31,46.4426
2006-04-03,46.4855
2006-04-04,46.8711
2006-04-05,47.1796
2006-04-06,48.482
2006-04-07,47.7622
2006-04-10,46.6311
2006-04-11,46.4512
2006-04-12,46.6912
2006-04-13,46.3483
2006-04-17,46.0913
2006-04-18,47.3509
2006-04-19,46.8454
2006-04-20,47.0167
2006-04-21,46.2541
2006-04-24,46.6826
2006-04-25,46.7254
2006-04-26,46.6912
2006-04-27,46.5969
2006-04-28,46.5883
2006-05-01,46.3827
2006-05-02,46.2541
2006-05-03,46.2199
2006-05-04,47.5652
2006-05-05,48.5591
2006-05-08,48.8425
2006-05-09,48.6106
2006-05-10,48.8339
2006-05-11,48.121
2006-05-12,47.4168
2006-05-15,47.7002
2006-05-16,47.4082
2006-05-17,46.3604
2006-05-18,45.9568
2006-05-19,46.4979
2006-05-22,46.4807
2006-05-23,46.0771
2006-05-24,46.1543
2006-05-25,46.7212
2006-05-26,46.7469
2006-05-30,45.9138
2006-05-31,45.347
2006-06-01,46.4034
2006-06-02,45.8623
2006-06-05,45.158
2006-06-06,45.1065
2006-06-07,44.8918
2006-06-08,45.9138
2006-06-09,45.536
2006-06-12,44.9004
2006-06-13,45.1495
2006-06-14,45.4758
2006-06-15,46.2144
2006-06-16,46.1199
2006-06-19,46.0169
2006-06-20,47.142
2006-06-21,47.8463
2006-06-22,47.4769
2006-06-23,47.7174
2006-06-26,48.31
2006-06-27,47.8118
2006-06-28,48.0867
2006-06-29,49.0744
2006-06-30,49.1345
2006-07-03,49.4523
2006-07-05,48.8425
2006-07-06,47.9235
2006-07-07,48.2241
2006-07-10,48.3615
2006-07-11,48.6793
2006-07-12,48.018
2006-07-13,47.2364
2006-07-14,45.9568
2006-07-17,46.3175
2006-07-18,45.4328
2006-07-19,46.1887
2006-07-20,45.8022
2006-07-21,45.158
2006-07-24,45.8193
2006-07-25,46.3518
2006-07-26,45.8709
2006-07-27,44.1532
2006-07-28,44.6439
2006-07-31,45.393
2006-08-01,44.9195
2006-08-02,45.1433
2006-08-03,43.9034
2006-08-04,44.5836
2006-08-07,44.2909
2006-08-08,44.532
2006-08-09,43.1888
2006-08-10,44.1015
2006-08-11,43.6709
2006-08-14,44.5061
2006-08-15,44.5836
2006-08-16,44.6697
2006-08-17,44.6525
2006-08-18,45.2122
2006-08-21,44.3253
2006-08-22,44.4372
2006-08-23,43.4815
2006-08-24,42.6721
2006-08-25,41.8111
2006-08-28,42.3019
2006-08-29,42.4483
2006-08-30,40.6144
2006-08-31,40.2958
2006-09-01,40.7607
2006-09-05,41.4753
2006-09-06,41.0879
2006-09-07,40.5885
2006-09-08,41.3462
2006-09-11,41.8714
2006-09-12,42.7583
2006-09-13,42.6464
2006-09-14,42.9391
2006-09-15,42.8875
2006-09-18,42.6291
2006-09-19,43.7742
2006-09-20,44.6955
2006-09-21,43.2748
2006-09-22,42.9649
2006-09-25,44.1703
2006-09-26,44.4028
2006-09-27,43.5332
2006-09-28,43.1113
2006-09-29,42.8013
2006-10-02,41.9833
2006-10-03,42.2933
2006-10-04,43.2921
2006-10-05,43.3954
2006-10-06,42.6464
2006-10-09,42.8702
2006-10-10,42.81
2006-10-11,43.1027
2006-10-12,46.409
2006-10-13,45.8407
2006-10-16,45.6341
2006-10-17,45.1519
2006-10-18,44.8333
2006-10-19,44.4545
2006-10-20,44.5061
2006-10-23,45.3499
2006-10-24,45.2639
2006-10-25,45.2122
2006-10-26,46.0388
2006-10-27,45.6427
2006-10-30,45.7546
2006-10-31,45.9785
2006-11-01,45.5135
2006-11-02,45.6341
2006-11-03,44.5578
2006-11-06,45.1433
2006-11-07,45.3069
2006-11-08,45.2035
2006-11-09,44.5664
2006-11-10,45.5652
2006-11-13,44.8678
2006-11-14,45.238
2006-11-15,45.713
2006-11-16,46.0841
2006-11-17,46.1272
2006-11-20,46.4293
2006-11-21,46.3517
2006-11-22,46.4293
2006-11-24,46.3776
2006-11-27,46.0755
2006-11-28,45.6611
2006-11-29,46.0237
2006-11-30,45.1001
2006-12-01,45.1001
2006-12-04,46.0496
2006-12-05,47.0163
2006-12-06,46.9818
2006-12-07,46.2826
2006-12-08,46.3517
2006-12-11,46.6538
2006-12-12,45.9028
2006-12-13,45.8683
2006-12-14,46.7401
2006-12-15,46.369
2006-12-18,46.438
2006-12-19,46.0237
2006-12-20,45.7388
2006-12-21,45.1433
2006-12-22,45.0743
2006-12-26,45.4799
2006-12-27,46.1014
2006-12-28,45.8425
2006-12-29,45.618
2007-01-03,45.5749
2007-01-04,46.6538
2007-01-05,46.0669
2007-01-08,46.3431
2007-01-09,46.6538
2007-01-10,46.9645
2007-01-11,47.7587
2007-01-12,48.2938
2007-01-16,48.501
2007-01-17,48.8808
2007-01-18,49.1139
2007-01-19,49.0189
2007-01-22,48.5787
2007-01-23,48.7771
2007-01-24,49.2174
2007-01-25,48.078
2007-01-26,47.8018
2007-01-29,47.75
2007-01-30,47.6982
2007-01-31,48.4578
2007-02-01,48.6995
2007-02-02,48.337
2007-02-05,48.57
2007-02-06,48.8635
2007-02-07,49.3123
2007-02-08,48.8463
2007-02-09,48.3456
2007-02-12,48.2764
2007-02-13,48.8647
2007-02-14,49.3406
2007-02-15,50.0673
2007-02-16,50.0328
2007-02-20,50.4221
2007-02-21,50.3182
2007-02-22,50.2144
2007-02-23,49.7646
2007-02-26,49.6521
2007-02-27,47.9996
2007-02-28,48.3197
2007-03-01,48.4321
2007-03-02,48.2591
2007-03-05,47.8525
2007-03-06,48.1985
2007-03-07,48.6225
2007-03-08,46.8403
2007-03-09,47.0565
2007-03-12,46.3903
2007-03-13,45.8626
2007-03-14,45.43
2007-03-15,46.0183
2007-03-16,45.828
2007-03-19,46.027
2007-03-20,46.0011
2007-03-21,47.0133
2007-03-22,46.9441
2007-03-23,47.2209
2007-03-26,47.1431
2007-03-27,46.8143
2007-03-28,46.4423
2007-03-29,46.4336
2007-03-30,46.5634
2007-04-02,46.6326
2007-04-03,47.1949
2007-04-04,47.1085
2007-04-05,47.4978
2007-04-09,47.4285
2007-04-10,47.2901
2007-04-11,46.7278
2007-04-12,47.3075
2007-04-13,46.8316
2007-04-16,47.0739
2007-04-17,48.0774
2007-04-18,47.5757
2007-04-19,47.8179
2007-04-20,47.6362
2007-04-23,47.4891
2007-04-24,46.9354
2007-04-25,47.1133
2007-04-26,46.9138
2007-04-27,47.2781
2007-04-30,46.48
2007-05-01,46.3672
2007-05-02,46.2718
2007-05-03,46.0983
2007-05-04,46.6448
2007-05-07,46.9138
2007-05-08,47.3475
2007-05-09,47.6771
2007-05-10,47.6597
2007-05-11,47.7118
2007-05-14,47.4255
2007-05-15,47.0005
2007-05-16,47.521
2007-05-17,48.215
2007-05-18,48.9177
2007-05-21,48.3624
2007-05-22,48.4926
2007-05-23,48.588
2007-05-24,48.8309
2007-05-25,48.9437
2007-05-29,49.0391
2007-05-30,49.0564
2007-05-31,49.013
2007-06-01,48.8569
2007-06-04,48.6747
2007-06-05,48.0848
2007-06-06,48.4579
2007-06-07,47.9634
2007-06-08,48.6314
2007-06-11,48.3364
2007-06-12,47.894
2007-06-13,48.5186
2007-06-14,48.3971
2007-06-15,48.666
2007-06-18,48.5967
2007-06-19,48.8916
2007-06-20,48.935
2007-06-21,49.6117
2007-06-22,49.6637
2007-06-25,49.6117
2007-06-26,49.7764
2007-06-27,50.6353
2007-06-28,50.5312
2007-06-29,50.7914
2007-07-02,52.2401
2007-07-03,52.0492
2007-07-05,52.1794
2007-07-06,53.2551
2007-07-09,53.2551
2007-07-10,52.5351
2007-07-11,52.6652
2007-07-12,53.5674
2007-07-13,54.6691
2007-07-16,53.6628
2007-07-17,53.9404
2007-07-18,54.1659
2007-07-19,53.9664
2007-07-20,53.1162
2007-07-23,52.7866
2007-07-24,52.1707
2007-07-25,52.3924
2007-07-26,51.3838
2007-07-27,50.975
2007-07-30,51.749
2007-07-31,52.0446
2007-08-01,52.2098
2007-08-02,52.8707
2007-08-03,52.6099
2007-08-06,54.723
2007-08-07,56.0447
2007-08-08,56.4882
2007-08-09,55.2447
2007-08-10,55.2012
2007-08-13,53.749
2007-08-14,53.0186
2007-08-15,50.8011
2007-08-16,51.5577
2007-08-17,50.6794
2007-08-20,50.3663
2007-08-21,52.462
2007-08-22,53.2534
2007-08-23,52.8795
2007-08-24,53.636
2007-08-27,53.1143
2007-08-28,51.3576
2007-08-29,53.2881
2007-08-30,53.0446
2007-08-31,53.6968
2007-09-04,53.5403
2007-09-05,51.3055
2007-09-06,50.7402
2007-09-07,49.5924
2007-09-10,49.8097
2007-09-11,50.9142
2007-09-12,50.888
2007-09-13,52.2273
2007-09-14,52.1142
2007-09-17,51.7315
2007-09-18,53.7403
2007-09-19,53.8273
2007-09-20,53.2099
2007-09-21,52.7664
2007-09-24,52.4099
2007-09-25,51.6185
2007-09-26,52.7577
2007-09-27,53.1403
2007-09-28,53.3316
2007-10-01,53.7229
2007-10-02,53.6272
2007-10-03,53.9055
2007-10-04,54.0011
2007-10-05,54.9403
2007-10-08,55.3577
2007-10-09,55.0881
2007-10-10,60.21
2007-10-11,60.2187
2007-10-12,59.1143
2007-10-15,57.8882
2007-10-16,57.41
2007-10-17,57.8709
2007-10-18,57.8447
2007-10-19,57.1491
2007-10-22,58.3056
2007-10-23,57.5665
2007-10-24,56.7578
2007-10-25,56.4187
2007-10-26,56.9404
2007-10-29,58.2708
2007-10-30,58.41
2007-10-31,58.4621
2007-11-01,56.4273
2007-11-02,56.9578
2007-11-05,57.3925
2007-11-06,58.5491
2007-11-07,57.5404
2007-11-08,57.9665
2007-11-09,56.8969
2007-11-12,57.2012
2007-11-13,58.5404
2007-11-14,57.4708
2007-11-15,57.6883
2007-11-16,58.1492
2007-11-19,57.8534
2007-11-20,57.5926
2007-11-21,57.5317
2007-11-23,58.0447
2007-11-26,56.8882
2007-11-27,57.2708
2007-11-28,58.2947
2007-11-29,58.4167
2007-11-30,58.7304
2007-12-03,58.3469
2007-12-04,60.2381
2007-12-05,60.7349
2007-12-06,61.8679
2007-12-07,62.626
2007-12-10,62.1729
2007-12-11,61.1097
2007-12-12,61.1183
2007-12-13,59.8459
2007-12-14,59.6193
2007-12-17,59.384
2007-12-18,59.6804
2007-12-19,59.5932
2007-12-20,60.09
2007-12-21,61.0225
2007-12-24,61.5889
2007-12-26,61.528
2007-12-27,60.9179
2007-12-28,61.2055
2007-12-31,60.8046
2008-01-02,59.4276
2008-01-03,58.4516
2008-01-04,57.2489
2008-01-07,57.397
2008-01-08,56.6737
2008-01-09,58.652
2008-01-10,60.9528
2008-01-11,57.9025
2008-01-14,56.4384
2008-01-15,55.776
2008-01-16,55.9765
2008-01-17,56.0724
2008-01-18,56.2554
2008-01-22,57.6062
2008-01-23,59.7588
2008-01-24,58.53
2008-01-25,57.1269
2008-01-28,57.7544
2008-01-29,58.0071
2008-01-30,57.6149
2008-01-31,59.1837
2008-02-01,59.018
2008-02-04,58.408
2008-02-05,56.5343
2008-02-06,55.6105
2008-02-07,56.3164
2008-02-08,55.0353
2008-02-11,55.776
2008-02-12,56.1421
2008-02-13,57.3781
2008-02-14,55.8408
2008-02-15,55.7708
2008-02-19,54.8712
2008-02-20,56.3387
2008-02-21,56.7492
2008-02-22,57.5964
2008-02-25,57.2121
2008-02-26,58.0332
2008-02-27,56.2862
2008-02-28,55.0284
2008-02-29,54.0414
2008-03-03,54.548
2008-03-04,54.4432
2008-03-05,53.0544
2008-03-06,52.408
2008-03-07,52.705
2008-03-10,52.6002
2008-03-11,54.5743
2008-03-12,54.6703
2008-03-13,54.3908
2008-03-14,53.2291
2008-03-17,52.8098
2008-03-18,53.8405
2008-03-19,53.2815
2008-03-20,55.3342
2008-03-24,57.1335
2008-03-25,58.0768
2008-03-26,58.1467
2008-03-27,57.0461
2008-03-28,56.2338
2008-03-31,56.6793
2008-04-01,58.0418
2008-04-02,57.8235
2008-04-03,58.4437
2008-04-04,58.0594
2008-04-07,57.9196
2008-04-08,58.5048
2008-04-09,57.6401
2008-04-10,58.138
2008-04-11,57.4741
2008-04-14,57.0461
2008-04-15,57.4479
2008-04-16,58.7319
2008-04-17,59.7713
2008-04-18,60.6273
2008-04-21,60.4352
2008-04-22,59.4831
2008-04-23,60.8021
2008-04-24,61.3
2008-04-25,62.5315
2008-04-28,61.8415
2008-04-29,62.0249
2008-04-30,62.1734
2008-05-01,62.8984
2008-05-02,62.942
2008-05-05,63.2739
2008-05-06,63.5359
2008-05-07,62.9333
2008-05-08,62.2171
2008-05-09,62.4267
2008-05-12,64.357
2008-05-13,64.6366
2008-05-14,64.9518
2008-05-15,65.1006
2008-05-16,64.1551
2008-05-19,63.1484
2008-05-20,62.492
2008-05-21,60.75
2008-05-22,62.0455
2008-05-23,62.4832
2008-05-27,63.5074
2008-05-28,64.0239
2008-05-29,63.9101
2008-05-30,62.3257
2008-06-02,61.5729
2008-06-03,61.424
2008-06-04,61.9317
2008-06-05,64.3303
2008-06-06,62.3869
2008-06-09,62.4307
2008-06-10,61.6166
2008-06-11,60.2335
2008-06-12,59.6821
2008-06-13,61.5291
2008-06-16,61.5991
2008-06-17,61.284
2008-06-18,60.4436
2008-06-19,61.5203
2008-06-20,60.146
2008-06-23,59.9621
2008-06-24,60.645
2008-06-25,62.0805
2008-06-26,60.4699
2008-06-27,61.4766
2008-06-30,61.5466
2008-07-01,63.5249
2008-07-02,63.1398
2008-07-03,63.201
2008-07-07,63.7963
2008-07-08,65.2931
2008-07-09,63.2272
2008-07-10,61.9667
2008-07-11,61.1702
2008-07-14,60.8726
2008-07-15,60.89
2008-07-16,63.4374
2008-07-17,64.8554
2008-07-18,63.3936
2008-07-21,60.9688
2008-07-22,62.9646
2008-07-23,55.3228
2008-07-24,55.1477
2008-07-25,53.9659
2008-07-28,52.8542
2008-07-29,54.0447
2008-07-30,55.1564
2008-07-31,54.7626
2008-08-01,54.4212
2008-08-04,54.745
2008-08-05,56.592
2008-08-06,57.6452
2008-08-07,57.7856
2008-08-08,58.7947
2008-08-11,58.8122
2008-08-12,59.488
2008-08-13,58.707
2008-08-14,58.9
2008-08-15,59.6021
2008-08-18,59.1633
2008-08-19,58.3296
2008-08-20,57.8469
2008-08-21,58.1541
2008-08-22,59.137
2008-08-25,58.312
2008-08-26,58.3735
2008-08-27,58.4349
2008-08-28,59.4792
2008-08-29,58.8386
2008-09-02,59.9794
2008-09-03,59.9618
2008-09-04,59.1721
2008-09-05,60.0759
2008-09-08,60.5147
2008-09-09,60.3128
2008-09-10,60.9535
2008-09-11,61.7344
2008-09-12,60.9798
2008-09-15,60.6288
2008-09-16,60.3304
2008-09-17,57.5398
2008-09-18,59.646
2008-09-19,57.8996
2008-09-22,56.4517
2008-09-23,56.3113
2008-09-24,56.8466
2008-09-25,57.8469
2008-09-26,58.0225
2008-09-29,56.0129
2008-09-30,56.8466
2008-10-01,56.8816
2008-10-02,54.4861
2008-10-03,55.1354
2008-10-06,53.117
2008-10-07,50.774
2008-10-08,49.8351
2008-10-09,48.7031
2008-10-10,47.4745
2008-10-13,52.0904
2008-10-14,51.1777
2008-10-15,46.8691
2008-10-16,50.7126
2008-10-17,50.8794
2008-10-20,50.8267
2008-10-21,49.098
2008-10-22,46.8603
2008-10-23,45.7809
2008-10-24,44.7805
2008-10-27,45.4737
2008-10-28,50.3616
2008-10-29,50.3002
2008-10-30,50.0282
2008-10-31,49.9931
2008-11-03,46.8603
2008-11-04,48.4223
2008-11-05,47.106
2008-11-06,46.834
2008-11-07,47.378
2008-11-10,46.4917
2008-11-11,45.7985
2008-11-12,43.0695
2008-11-13,43.8441
2008-11-14,42.1453
2008-11-17,41.6347
2008-11-18,41.1506
2008-11-19,39.9095
2008-11-20,39.6982
2008-11-21,41.1242
2008-11-24,43.3336
2008-11-25,44.5571
2008-11-26,45.1821
2008-11-28,45.1117
2008-12-01,42.2333
2008-12-02,44.0553
2008-12-03,45.1821
2008-12-04,46.344
2008-12-05,49.0462
2008-12-08,48.4652
2008-12-09,46.5904
2008-12-10,47.409
2008-12-11,45.719
2008-12-12,46.9425
2008-12-15,46.4759
2008-12-16,46.7752
2008-12-17,47.4971
2008-12-18,47.5146
2008-12-19,47.3298
2008-12-22,46.4144
2008-12-23,45.3317
2008-12-24,45.499
2008-12-26,45.2877
2008-12-29,44.6275
2008-12-30,44.9884
2008-12-31,46.2559
2009-01-02,46.9513
2009-01-05,45.9038
2009-01-06,45.1117
2009-01-07,44.0642
2009-01-08,44.5659
2009-01-09,43.2103
2009-01-12,43.5184
2009-01-13,43.0519
2009-01-14,41.934
2009-01-15,42.7262
2009-01-16,43.0343
2009-01-20,41.5907
2009-01-21,42.2068
2009-01-22,41.7668
2009-01-23,41.4674
2009-01-26,41.6172
2009-01-27,42.1805
2009-01-28,42.0397
2009-01-29,40.9393
2009-01-30,39.531
2009-02-02,39.8479
2009-02-03,40.5168
2009-02-04,37.8585
2009-02-05,38.5716
2009-02-06,39.7335
2009-02-09,39.7687
2009-02-10,38.73
2009-02-11,38.4651
2009-02-12,39.2071
2009-02-13,37.8467
2009-02-17,37.2636
2009-02-18,37.4933
2009-02-19,37.6788
2009-02-20,37.829
2009-02-23,36.4597
2009-02-24,37.5904
2009-02-25,37.0957
2009-02-26,36.7512
2009-02-27,37.5375
2009-03-02,36.1592
2009-03-03,36.0885
2009-03-04,35.9649
2009-03-05,34.9578
2009-03-06,34.41
2009-03-09,33.9507
2009-03-10,35.3819
2009-03-11,34.9048
2009-03-12,36.0974
2009-03-13,37.2901
2009-03-16,37.1487
2009-03-17,38.8537
2009-03-18,39.2866
2009-03-19,39.852
2009-03-20,39.5782
2009-03-23,41.9369
2009-03-24,40.921
2009-03-25,41.2214
2009-03-26,42.7233
2009-03-27,41.8574
2009-03-30,40.9033
2009-03-31,40.8415
2009-04-01,40.8857
2009-04-02,42.3257
2009-04-03,43.2091
2009-04-06,42.096
2009-04-07,41.0624
2009-04-08,42.096
2009-04-09,41.4069
2009-04-13,41.0359
2009-04-14,40.0023
2009-04-15,40.3644
2009-04-16,40.8591
2009-04-17,40.3026
2009-04-20,39.1895
2009-04-21,41.0093
2009-04-22,41.504
2009-04-23,41.2743
2009-04-24,42.5554
2009-04-27,42.149
2009-04-28,41.5835
2009-04-29,42.0429
2009-04-30,42.8028
2009-05-01,42.096
2009-05-04,42.1137
2009-05-05,42.0429
2009-05-06,41.3539
2009-05-07,40.5853
2009-05-08,41.0888
2009-05-11,40.6383
2009-05-12,41.4599
2009-05-13,40.4933
2009-05-14,39.704
2009-05-15,39.7307
2009-05-18,40.8923
2009-05-19,41.9212
2009-05-20,43.3223
2009-05-21,42.7902
2009-05-22,42.9233
2009-05-26,43.5352
2009-05-27,43.4199
2009-05-28,42.3202
2009-05-29,42.9144
2009-06-01,44.085
2009-06-02,43.8278
2009-06-03,42.8877
2009-06-04,42.4798
2009-06-05,42.1872
2009-06-08,42.1517
2009-06-09,41.8679
2009-06-10,41.2649
2009-06-11,41.052
2009-06-12,41.6994
2009-06-15,41.0875
2009-06-16,40.7683
2009-06-17,41.3624
2009-06-18,41.0165
2009-06-19,40.919
2009-06-22,40.2006
2009-06-23,39.9169
2009-06-24,39.8902
2009-06-25,41.0609
2009-06-26,41.1229
2009-06-29,40.9545
2009-06-30,40.5199
2009-07-01,40.5732
2009-07-02,39.5976
2009-07-06,40.5377
2009-07-07,39.5001
2009-07-08,40.8658
2009-07-09,40.3514
2009-07-10,39.9169
2009-07-13,39.8371
2009-07-14,39.9258
2009-07-15,41.593
2009-07-16,42.063
2009-07-17,42.0807
2009-07-20,42.9499
2009-07-21,42.8523
2009-07-22,43.2957
2009-07-23,43.0563
2009-07-24,43.615
2009-07-27,43.145
2009-07-28,43.3401
2009-07-29,43.2159
2009-07-30,43.5618
2009-07-31,43.9166
2009-08-03,44.2979
2009-08-04,43.8102
2009-08-05,43.5174
2009-08-06,43.2692
2009-08-07,44.5374
2009-08-10,43.7569
2009-08-11,43.3933
2009-08-12,43.7493
2009-08-13,43.509
2009-08-14,43.2064
2009-08-17,42.254
2009-08-18,42.1382
2009-08-19,42.7079
2009-08-20,42.6634
2009-08-21,43.1797
2009-08-24,42.8592
2009-08-25,44.1499
2009-08-26,44.7908
2009-08-27,45.672
2009-08-28,46.0993
2009-08-31,45.3694
2009-09-01,45.0845
2009-09-02,45.0934
2009-09-03,48.9387
2009-09-04,49.4105
2009-09-08,50.5409
2009-09-09,50.7546
2009-09-10,50.6478
2009-09-11,50.5498
2009-09-14,50.7367
2009-09-15,50.6478
2009-09-16,51.3599
2009-09-17,51.6091
2009-09-18,51.1819
2009-09-21,52.1521
2009-09-22,51.9563
2009-09-23,51.5735
2009-09-24,51.164
2009-09-25,50.0692
2009-09-28,50.3184
2009-09-29,50.2917
2009-09-30,50.2027
2009-10-01,49.6064
2009-10-02,50.3007
2009-10-05,50.63
2009-10-06,51.5557
2009-10-07,52.4992
2009-10-08,52.1164
2009-10-09,52.2233
2009-10-12,51.618
2009-10-13,52.0096
2009-10-14,52.2856
2009-10-15,52.4992
2009-10-16,51.983
2009-10-19,52.6594
2009-10-20,52.5705
2009-10-21,51.5704
2009-10-22,51.999
2009-10-23,51.5971
2009-10-26,51.49
2009-10-27,51.0078
2009-10-28,50.6953
2009-10-29,51.6865
2009-10-30,50.8114
2009-11-02,51.5168
2009-11-03,51.3918
2009-11-04,52.499
2009-11-05,53.0792
2009-11-06,53.0525
2009-11-09,53.9364
2009-11-10,53.5971
2009-11-11,53.9274
2009-11-12,53.7221
2009-11-13,53.9989
2009-11-16,54.5257
2009-11-17,54.1149
2009-11-18,54.2935
2009-11-19,53.9543
2009-11-20,53.6775
2009-11-23,54.0435
2009-11-24,53.9721
2009-11-25,54.3113
2009-11-27,54.2578
2009-11-30,53.5346
2009-12-01,54.1864
2009-12-02,54.2935
2009-12-03,52.6328
2009-12-04,52.8382
2009-12-07,52.9631
2009-12-08,52.49
2009-12-09,52.4007
2009-12-10,52.499
2009-12-11,53.0078
2009-12-14,53.0971
2009-12-15,52.6149
2009-12-16,52.481
2009-12-17,51.6596
2009-12-18,52.1418
2009-12-21,52.9364
2009-12-22,53.1685
2009-12-23,53.6507
2009-12-24,53.8829
2009-12-28,54.0614
2009-12-29,53.7668
2009-12-30,53.5971
2009-12-31,52.8025
2010-01-04,53.0167
2010-01-05,52.856
2010-01-06,53.5167
2010-01-07,53.2668
2010-01-08,52.981
2010-01-11,52.9453
2010-01-12,52.731
2010-01-13,52.99
2010-01-14,52.4274
2010-01-15,52.49
2010-01-19,52.6239
2010-01-20,52.0525
2010-01-21,51.2846
2010-01-22,50.9364
2010-01-25,51.4275
2010-01-26,51.7579
2010-01-27,51.3829
2010-01-28,51.2222
2010-01-29,51.3382
2010-02-01,51.6596
2010-02-02,52.4186
2010-02-03,52.1239
2010-02-04,52.3025
2010-02-05,52.3025
2010-02-08,51.9275
2010-02-09,52.4543
2010-02-10,53.0184
2010-02-11,53.4394
2010-02-12,53.0453
2010-02-16,54.3439
2010-02-17,54.6305
2010-02-18,54.5499
2010-02-19,54.7111
2010-02-22,54.3976
2010-02-23,54.1916
2010-02-24,54.5588
2010-02-25,54.9798
2010-02-26,54.6753
2010-03-01,55.1947
2010-03-02,54.9798
2010-03-03,54.317
2010-03-04,54.4334
2010-03-05,54.308
2010-03-08,54.326
2010-03-09,53.8603
2010-03-10,53.5737
2010-03-11,53.6184
2010-03-12,53.8693
2010-03-15,54.2096
2010-03-16,54.5409
2010-03-17,54.935
2010-03-18,54.8454
2010-03-19,54.335
2010-03-22,54.4782
2010-03-23,54.3976
2010-03-24,53.8065
2010-03-25,53.7528
2010-03-26,53.8513
2010-03-29,53.8245
2010-03-30,53.8424
2010-03-31,53.502
2010-04-01,53.8155
2010-04-05,54.4245
2010-04-06,55.2753
2010-04-07,55.2484
2010-04-08,54.5857
2010-04-09,54.7737
2010-04-12,53.9947
2010-04-13,53.6096
2010-04-14,53.3767
2010-04-15,52.8394
2010-04-16,53.0184
2010-04-19,53.2871
2010-04-20,53.2603
2010-04-21,53.2781
2010-04-22,53.9319
2010-04-23,53.8693
2010-04-26,53.7886
2010-04-27,53.0095
2010-04-28,52.705
2010-04-29,53.1349
2010-04-30,52.884
2010-05-03,53.0632
2010-05-04,53.6722
2010-05-05,54.243
2010-05-06,52.1402
2010-05-07,51.6459
2010-05-10,51.6639
2010-05-11,52.1222
2010-05-12,51.9425
2010-05-13,51.8166
2010-05-14,51.8975
2010-05-17,52.4457
2010-05-18,51.9245
2010-05-19,51.8975
2010-05-20,50.9
2010-05-21,51.5651
2010-05-24,50.9629
2010-05-25,50.7293
2010-05-26,50.253
2010-05-27,52.7782
2010-05-28,52.3468
2010-06-01,52.1133
2010-06-02,52.9939
2010-06-03,52.0324
2010-06-04,50.4417
2010-06-07,50.1452
2010-06-08,50.9
2010-06-09,51.6639
2010-06-10,51.8166
2010-06-11,51.6909
2010-06-14,51.6819
2010-06-15,53.1197
2010-06-16,52.3829
2010-06-17,52.6435
2010-06-18,52.266
2010-06-21,51.9515
2010-06-22,51.7628
2010-06-23,51.5381
2010-06-24,50.4507
2010-06-25,50.7472
2010-06-28,50.954
2010-06-29,50.0103
2010-06-30,49.2286
2010-07-01,49.2645
2010-07-02,48.7342
2010-07-06,48.4557
2010-07-07,48.7702
2010-07-08,50.1362
2010-07-09,50.5316
2010-07-12,50.235
2010-07-13,50.7742
2010-07-14,50.6304
2010-07-15,50.7922
2010-07-16,49.4083
2010-07-19,49.2196
2010-07-20,49.4622
2010-07-21,48.1142
2010-07-22,49.3184
2010-07-23,50.298
2010-07-26,50.0374
2010-07-27,51.4123
2010-07-28,50.7922
2010-07-29,50.5855
2010-07-30,51.0349
2010-08-02,51.0259
2010-08-03,50.7653
2010-08-04,51.7887
2010-08-05,50.8507
2010-08-06,51.004
2010-08-09,51.5632
2010-08-10,51.3467
2010-08-11,50.3997
2010-08-12,50.2013
2010-08-13,49.9218
2010-08-16,49.8946
2010-08-17,50.3276
2010-08-18,50.2555
2010-08-19,49.6151
2010-08-20,49.6873
2010-08-23,49.4798
2010-08-24,50.1021
2010-08-25,51.4911
2010-08-26,50.8146
2010-08-27,50.7064
2010-08-30,50.6072
2010-08-31,50.959
2010-09-01,52.1135
2010-09-02,52.7628
2010-09-03,52.7899
2010-09-07,52.9071
2010-09-08,53.3581
2010-09-09,53.1867
2010-09-10,53.6738
2010-09-13,54.1879
2010-09-14,54.9906
2010-09-15,55.189
2010-09-16,55.234
2010-09-17,55.2431
2010-09-20,55.2431
2010-09-21,55.2792
2010-09-22,56.2533
2010-09-23,56.3705
2010-09-24,57.7414
2010-09-27,57.552
2010-09-28,58.6344
2010-09-29,58.3277
2010-09-30,58.1744
2010-10-01,58.6884
2010-10-04,58.3367
2010-10-05,58.4269
2010-10-06,59.0132
2010-10-07,58.8057
2010-10-08,57.958
2010-10-11,57.9759
2010-10-12,57.1551
2010-10-13,57.083
2010-10-14,57.0018
2010-10-15,57.4168
2010-10-18,56.9748
2010-10-19,56.0458
2010-10-20,56.4607
2010-10-21,57.3626
2010-10-22,57.7324
2010-10-25,57.8046
2010-10-26,57.3897
2010-10-27,57.0593
2010-10-28,56.8511
2010-10-29,56.8602
2010-11-01,57.2764
2010-11-02,57.5751
2010-11-03,57.0773
2010-11-04,59.3214
2010-11-05,59.2037
2010-11-08,58.5704
2010-11-09,58.0546
2010-11-10,58.2717
2010-11-11,59.1495
2010-11-12,59.0319
2010-11-15,59.267
2010-11-16,59.5114
2010-11-17,60.6514
2010-11-18,60.1357
2010-11-19,60.2081
2010-11-22,60.8143
2010-11-23,60.5429
2010-11-24,61.122
2010-11-26,60.8234
2010-11-29,60.5701
2010-11-30,61.2758
2010-12-01,61.8278
2010-12-02,62.434
2010-12-03,61.9002
2010-12-06,62.5878
2010-12-07,62.9951
2010-12-08,62.6602
2010-12-09,64.1351
2010-12-10,64.4519
2010-12-13,63.9994
2010-12-14,64.3885
2010-12-15,64.3251
2010-12-16,65.2572
2010-12-17,64.9948
2010-12-20,65.4472
2010-12-21,65.4019
2010-12-22,65.42
2010-12-23,65.3023
2010-12-27,65.2299
2010-12-28,65.8272
2010-12-29,65.791
2010-12-30,65.9448
2010-12-31,65.3566
2011-01-03,65.5557
2011-01-04,65.3386
2011-01-05,64.2618
2011-01-06,63.9451
2011-01-07,63.9361
2011-01-10,63.7913
2011-01-11,64.307
2011-01-12,64.6599
2011-01-13,64.7414
2011-01-14,65.601
2011-01-18,65.7005
2011-01-19,65.1938
2011-01-20,65.411
2011-01-21,65.8452
2011-01-24,65.6643
2011-01-25,65.5376
2011-01-26,65.7457
2011-01-27,66.1167
2011-01-28,65.031
2011-01-31,65.031
2011-02-01,65.5105
2011-02-02,64.0718
2011-02-03,66.9763
2011-02-04,67.0396
2011-02-07,67.0578
2011-02-08,67.6278
2011-02-09,67.6957
2011-02-10,67.5597
2011-02-11,68.0678
2011-02-14,67.7139
2011-02-15,67.4145
2011-02-16,68.0496
2011-02-17,67.8772
2011-02-18,68.3672
2011-02-22,67.0424
2011-02-23,66.126
2011-02-24,66.2712
2011-02-25,66.7884
2011-02-28,67.723
2011-03-01,66.9064
2011-03-02,65.0735
2011-03-03,65.7813
2011-03-04,65.99
2011-03-07,65.5544
2011-03-08,66.7975
2011-03-09,67.2874
2011-03-10,66.5888
2011-03-11,65.8629
2011-03-14,65.2006
2011-03-15,64.9375
2011-03-16,63.2407
2011-03-17,63.9122
2011-03-18,63.8668
2011-03-21,64.4475
2011-03-22,64.9466
2011-03-23,64.3205
2011-03-24,65.4365
2011-03-25,64.8195
2011-03-28,64.6199
2011-03-29,65.255
2011-03-30,66.0626
2011-03-31,66.5979
2011-04-01,67.3872
2011-04-04,67.2693
2011-04-05,68.0314
2011-04-06,68.0496
2011-04-07,70.6627
2011-04-08,69.2927
2011-04-11,69.093
2011-04-12,69.3833
2011-04-13,69.3561
2011-04-14,69.211
2011-04-15,69.8098
2011-04-18,69.7917
2011-04-19,69.5558
2011-04-20,71.3431
2011-04-21,71.5247
2011-04-25,71.316
2011-04-26,72.3775
2011-04-27,73.675
2011-04-28,73.9291
2011-04-29,73.4028
2011-05-02,73.5208
2011-05-03,73.0309
2011-05-04,72.7496
2011-05-05,72.2323
2011-05-06,73.0943
2011-05-09,73.8565
2011-05-10,74.5914
2011-05-11,74.3639
2011-05-12,75.8381
2011-05-13,75.3011
2011-05-16,74.9736
2011-05-17,75.2193
2011-05-18,75.7744
2011-05-19,76.3113
2011-05-20,75.9473
2011-05-23,75.192
2011-05-24,73.9726
2011-05-25,73.0991
2011-05-26,73.5085
2011-05-27,74.2365
2011-05-31,75.01
2011-06-01,73.0263
2011-06-02,71.8887
2011-06-03,70.815
2011-06-06,70.7058
2011-06-07,71.2791
2011-06-08,71.8068
2011-06-09,71.9525
2011-06-10,71.2518
2011-06-13,71.3791
2011-06-14,72.1345
2011-06-15,70.9605
2011-06-16,71.7431
2011-06-17,72.5075
2011-06-20,73.9271
2011-06-21,73.9999
2011-06-22,73.2628
2011-06-23,73.2446
2011-06-24,72.0343
2011-06-27,72.6441
2011-06-28,72.7897
2011-06-29,72.8442
2011-06-30,73.8998
2011-07-01,74.1456
2011-07-05,73.9908
2011-07-06,75.192
2011-07-07,74.6369
2011-07-08,74.009
2011-07-11,73.3538
2011-07-12,73.4721
2011-07-13,73.6177
2011-07-14,73.1263
2011-07-15,72.6531
2011-07-18,71.9889
2011-07-19,73.4904
2011-07-20,73.4994
2011-07-21,74.191
2011-07-22,74.2911
2011-07-25,73.8088
2011-07-26,73.281
2011-07-27,71.3701
2011-07-28,71.2518
2011-07-29,71.3155
2011-08-01,70.6694
2011-08-02,69.0041
2011-08-03,70.3643
2011-08-04,69.8896
2011-08-05,70.1361
2011-08-08,64.6497
2011-08-09,67.9817
2011-08-10,64.2024
2011-08-11,66.2654
2011-08-12,66.4298
2011-08-15,67.5891
2011-08-16,68.575
2011-08-17,69.4148
2011-08-18,67.9726
2011-08-19,67.9269
2011-08-22,67.8904
2011-08-23,69.5062
2011-08-24,70.6382
2011-08-25,69.2871
2011-08-26,70.4282
2011-08-29,70.9668
2011-08-30,71.3137
2011-08-31,71.551
2011-09-01,72.5187
2011-09-02,71.7519
2011-09-06,71.6789
2011-09-07,73.5319
2011-09-08,73.7236
2011-09-09,72.1718
2011-09-12,72.6739
2011-09-13,73.6506
2011-09-14,74.8465
2011-09-15,75.6681
2011-09-16,76.8183
2011-09-19,77.6399
2011-09-20,77.6308
2011-09-21,77.1469
2011-09-22,76.0515
2011-09-23,76.1154
2011-09-26,77.01
2011-09-27,76.9278
2011-09-28,76.5992
2011-09-29,75.7593
2011-09-30,75.1752
2011-10-03,74.6456
2011-10-04,74.2532
2011-10-05,73.2581
2011-10-06,72.2265
2011-10-07,72.1261
2011-10-10,74.0158
2011-10-11,73.7967
2011-10-12,74.4631
2011-10-13,74.5817
2011-10-14,74.6456
2011-10-17,75.029
2011-10-18,77.156
2011-10-19,77.0557
2011-10-20,76.9552
2011-10-21,77.7586
2011-10-24,77.1195
2011-10-25,75.8506
2011-10-26,76.4806
2011-10-27,77.6764
2011-10-28,77.4756
2011-10-31,76.0788
2011-11-01,76.1245
2011-11-02,77.083
2011-11-03,77.3021
2011-11-04,76.4349
2011-11-07,76.8913
2011-11-08,77.8162
2011-11-09,76.4246
2011-11-10,75.8021
2011-11-11,76.0127
2011-11-14,76.4154
2011-11-15,77.3493
2011-11-16,75.9852
2011-11-17,74.8958
2011-11-18,74.7859
2011-11-21,74.5387
2011-11-22,74.9598
2011-11-23,74.0627
2011-11-25,74.2824
2011-11-28,75.2253
2011-11-29,76.443
2011-11-30,77.9902
2011-12-01,79.6929
2011-12-02,79.5556
2011-12-05,79.7387
2011-12-06,80.645
2011-12-07,80.1232
2011-12-08,78.4479
2011-12-09,77.3676
2011-12-12,77.157
2011-12-13,76.5711
2011-12-14,75.8296
2011-12-15,75.619
2011-12-16,75.5458
2011-12-19,75.1796
2011-12-20,76.6443
2011-12-21,76.8275
2011-12-22,76.626
2011-12-23,77.4683
2011-12-27,77.4408
2011-12-28,76.9831
2011-12-29,77.212
2011-12-30,76.324
2012-01-03,77.3859
2012-01-04,76.9465
2012-01-05,76.2873
2012-01-06,74.4747
2012-01-09,72.3507
2012-01-10,72.5613
2012-01-11,73.2296
2012-01-12,73.2296
2012-01-13,73.7789
2012-01-17,74.5295
2012-01-18,74.7951
2012-01-19,74.319
2012-01-20,74.4838
2012-01-23,74.7585
2012-01-24,74.8042
2012-01-25,75.793
2012-01-26,75.088
2012-01-27,74.7768
2012-01-30,74.5205
2012-01-31,75.3261
2012-02-01,76.1225
2012-02-02,78.3838
2012-02-03,78.1732
2012-02-06,77.862
2012-02-07,77.4134
2012-02-08,77.3766
2012-02-09,77.6153
2012-02-10,77.2022
2012-02-13,76.9635
2012-02-14,77.1195
2012-02-15,76.3208
2012-02-16,77.1103
2012-02-17,77.5236
2012-02-21,77.3491
2012-02-22,77.294
2012-02-23,77.8357
2012-02-24,77.4501
2012-02-27,78.2396
2012-02-28,78.3498
2012-02-29,79.0292
2012-03-01,79.1118
2012-03-02,79.1577
2012-03-05,80.4247
2012-03-06,80.3787
2012-03-07,80.7001
2012-03-08,81.0949
2012-03-09,82.013
2012-03-12,82.1047
2012-03-13,82.6006
2012-03-14,83.3626
2012-03-15,83.9501
2012-03-16,83.0137
2012-03-19,82.5914
2012-03-20,82.8025
2012-03-21,83.2065
2012-03-22,83.0779
2012-03-23,82.9219
2012-03-26,83.9869
2012-03-27,83.8032
2012-03-28,83.1239
2012-03-29,82.5363
2012-03-30,83.4085
2012-04-02,84.3174
2012-04-03,82.9219
2012-04-04,81.8018
2012-04-05,81.3979
2012-04-09,80.6726
2012-04-10,79.828
2012-04-11,80.1401
2012-04-12,80.1034
2012-04-13,79.2955
2012-04-16,79.7361
2012-04-17,80.5624
2012-04-18,80.8654
2012-04-19,80.0023
2012-04-20,80.4339
2012-04-23,79.5433
2012-04-24,79.3413
2012-04-25,80.1584
2012-04-26,80.8654
2012-04-27,81.4438
2012-04-30,80.9296
2012-05-01,79.9014
2012-05-02,79.4883
2012-05-03,77.3216
2012-05-04,76.6605
2012-05-07,76.4127
2012-05-08,75.8159
2012-05-09,75.9627
2012-05-10,76.9727
2012-05-11,77.6337
2012-05-14,77.3766
2012-05-15,77.7347
2012-05-16,77.9917
2012-05-17,76.7615
2012-05-18,76.0821
2012-05-21,76.8441
2012-05-22,76.4402
2012-05-23,76.6747
2012-05-24,77.8261
2012-05-25,77.8169
2012-05-29,79.7604
2012-05-30,79.1156
2012-05-31,79.7328
2012-06-01,78.8117
2012-06-04,79.7052
2012-06-05,79.8802
2012-06-06,80.7922
2012-06-07,81.1974
2012-06-08,81.704
2012-06-11,80.9488
2012-06-12,81.4369
2012-06-13,80.4697
2012-06-14,82.7449
2012-06-15,84.3201
2012-06-18,84.7162
2012-06-19,84.6056
2012-06-20,84.2371
2012-06-21,83.2423
2012-06-22,83.8318
2012-06-25,83.6937
2012-06-26,84.4767
2012-06-27,84.1174
2012-06-28,85.6004
2012-06-29,87.415
2012-07-02,86.9637
2012-07-03,86.8808
2012-07-05,86.5953
2012-07-06,86.3465
2012-07-09,86.4202
2012-07-10,86.5492
2012-07-11,87.111
2012-07-12,86.5953
2012-07-13,87.3322
2012-07-16,87.6177
2012-07-17,88.4466
2012-07-18,88.3085
2012-07-19,88.3822
2012-07-20,87.9401
2012-07-23,86.9176
2012-07-24,86.6966
2012-07-25,86.2821
2012-07-26,88.373
2012-07-27,89.3586
2012-07-30,88.8335
2012-07-31,88.6493
2012-08-01,88.3546
2012-08-02,88.2348
2012-08-03,89.5245
2012-08-06,88.8981
2012-08-07,88.2256
2012-08-08,88.3226
2012-08-09,88.0639
2012-08-10,88.0639
2012-08-13,88.2672
2012-08-14,88.2948
2012-08-15,89.0894
2012-08-16,89.1356
2012-08-17,88.7476
2012-08-20,88.6367
2012-08-21,87.9716
2012-08-22,88.2857
2012-08-23,87.5651
2012-08-24,88.9046
2012-08-27,89.1817
2012-08-28,89.2371
2012-08-29,89.7729
2012-08-30,91.094
2012-08-31,90.5582
2012-09-04,90.706
2012-09-05,90.706
2012-09-06,92.2579
2012-09-07,92.0824
2012-09-10,92.7936
2012-09-11,91.9253
2012-09-12,93.154
2012-09-13,94.9
2012-09-14,94.2625
2012-09-17,94.4103
2012-09-18,94.1609
2012-09-19,94.0777
2012-09-20,94.7798
2012-09-21,94.512
2012-09-24,94.7336
2012-09-25,93.7914
2012-09-26,93.2925
2012-09-27,92.5905
2012-09-28,92.5812
2012-10-01,92.8676
2012-10-02,91.9623
2012-10-03,92.0639
2012-10-04,93.7174
2012-10-05,93.9853
2012-10-08,93.6528
2012-10-09,92.0085
2012-10-10,93.7636
2012-10-11,90.8261
2012-10-12,90.1794
2012-10-15,89.117
2012-10-16,89.7637
2012-10-17,89.4404
2012-10-18,89.0062
2012-10-19,87.5743
2012-10-22,87.9254
2012-10-23,88.0547
2012-10-24,88.3226
2012-10-25,89.2464
2012-10-26,89.5512
2012-10-31,90.9553
2012-11-01,89.7453
2012-11-02,88.7845
2012-11-05,90.2718
2012-11-06,91.2048
2012-11-07,89.9207
2012-11-08,87.6298
2012-11-09,88.1933
2012-11-12,88.7014
2012-11-13,88.3965
2012-11-14,87.4654
2012-11-15,88.8088
2012-11-16,88.744
2012-11-19,89.4295
2012-11-20,89.9575
2012-11-21,89.5963
2012-11-23,89.8557
2012-11-26,89.1979
2012-11-27,89.3368
2012-11-28,94.8492
2012-11-29,94.3396
2012-11-30,96.3685
2012-12-03,96.8874
2012-12-04,96.6835
2012-12-05,98.0732
2012-12-06,97.6905
2012-12-07,97.75
2012-12-10,98.1368
2012-12-11,97.4425
2012-12-12,96.8969
2012-12-13,97.0556
2012-12-14,96.0835
2012-12-17,97.9782
2012-12-18,99.1189
2012-12-19,97.869
2012-12-20,98.3948
2012-12-21,98.7122
2012-12-24,98.5237
2012-12-26,97.8492
2012-12-27,97.2242
2012-12-28,96.262
2012-12-31,97.8789
2013-01-02,100.528
2013-01-03,101.569
2013-01-04,101.37
2013-01-07,100.508
2013-01-08,100.359
2013-01-09,100.349
2013-01-10,99.8732
2013-01-11,99.4264
2013-01-14,99.476
2013-01-15,100.349
2013-01-16,100.676
2013-01-17,100.259
2013-01-18,100.399
2013-01-22,101.32
2013-01-23,101.182
2013-01-24,102.075
2013-01-25,101.41
2013-01-28,101.679
2013-01-29,102.621
2013-01-30,101.599
2013-01-31,101.599
2013-02-01,103.33
2013-02-04,101.659
2013-02-05,102.443
2013-02-06,101.194
2013-02-07,101.274
2013-02-08,102.188
2013-02-11,101.451
2013-02-12,101.372
2013-02-13,101.084
2013-02-14,101.362
2013-02-15,101.582
2013-02-19,101.362
2013-02-20,100.528
2013-02-21,100.15
2013-02-22,100.557
2013-02-25,99.6023
2013-02-26,98.9359
2013-02-27,100.239
2013-02-28,100.846
2013-03-01,100.826
2013-03-04,102.835
2013-03-05,102.526
2013-03-06,102.01
2013-03-07,101.512
2013-03-08,102.526
2013-03-11,101.92
2013-03-12,103.153
2013-03-13,102.904
2013-03-14,102.556
2013-03-15,101.512
2013-03-18,101.184
2013-03-19,101.532
2013-03-20,102.556
2013-03-21,102.984
2013-03-22,104.357
2013-03-25,104.953
2013-03-26,105.341
2013-03-27,106.007
2013-03-28,105.6
2013-04-01,105.251
2013-04-02,107.111
2013-04-03,105.839
2013-04-04,105.799
2013-04-05,105.321
2013-04-08,106.405
2013-04-09,105.192
2013-04-10,105.361
2013-04-11,105.431
2013-04-12,105.58
2013-04-15,103.79
2013-04-16,105.113
2013-04-17,104.377
2013-04-18,103.104
2013-04-19,103.979
2013-04-22,104.575
2013-04-23,106.693
2013-04-24,107.141
2013-04-25,108.435
2013-04-26,108.673
2013-04-29,107.977
2013-04-30,107.828
2013-05-01,107.539
2013-05-02,108.136
2013-05-03,109.19
2013-05-06,108.474
2013-05-07,109.121
2013-05-08,109.031
2013-05-09,108.345
2013-05-10,109.429
2013-05-13,109.399
2013-05-14,110.772
2013-05-15,112.647
2013-05-16,111.241
2013-05-17,112.617
2013-05-20,111.739
2013-05-21,113.146
2013-05-22,113.066
2013-05-23,112.946
2013-05-24,113.964
2013-05-28,114.512
2013-05-29,112.637
2013-05-30,111.63
2013-05-31,109.595
2013-06-03,110.632
2013-06-04,110.533
2013-06-05,108.867
2013-06-06,110.742
2013-06-07,110.443
2013-06-10,109.954
2013-06-11,109.774
2013-06-12,109.186
2013-06-13,110.642
2013-06-14,110.692
2013-06-17,111.36
2013-06-18,111.769
2013-06-19,110.004
2013-06-20,107.351
2013-06-21,108.368
2013-06-24,109.495
2013-06-25,109.974
2013-06-26,111.051
2013-06-27,111.181
2013-06-28,110.403
2013-07-01,110.124
2013-07-02,110.642
2013-07-03,110.622
2013-07-05,111.43
2013-07-08,112.288
2013-07-09,113.096
2013-07-10,113.355
2013-07-11,115.609
2013-07-12,115.998
2013-07-15,115.609
2013-07-16,116.168
2013-07-17,117.095
2013-07-18,116.766
2013-07-19,117.744
2013-07-22,117.744
2013-07-23,118.751
2013-07-24,117.614
2013-07-25,117.145
2013-07-26,116.228
2013-07-29,116.726
2013-07-30,116.746
2013-07-31,117.046
2013-08-01,118.163
2013-08-02,119.02
2013-08-05,119.719
2013-08-06,119.09
2013-08-07,119.41
2013-08-08,117.45
2013-08-09,115.57
