date,close_price
1998-01-02,16.0388
1998-01-05,15.692
1998-01-06,15.6319
1998-01-07,15.6319
1998-01-08,15.8631
1998-01-09,15.7799
1998-01-12,15.9509
1998-01-13,15.9787
1998-01-14,15.9787
1998-01-15,15.7799
1998-01-16,16.0942
1998-01-20,16.0665
1998-01-21,16.1266
1998-01-22,16.0942
1998-01-23,16.0942
1998-01-26,16.0665
1998-01-27,16.3855
1998-01-28,16.2977
1998-01-29,16.8201
1998-01-30,16.589
1998-02-02,16.76
1998-02-03,17.1068
1998-02-04,17.1345
1998-02-05,16.9034
1998-02-06,16.9357
1998-02-09,16.9357
1998-02-10,16.9635
1998-02-11,16.9034
1998-02-12,16.9357
1998-02-13,16.9912
1998-02-17,17.2501
1998-02-18,17.2825
1998-02-19,17.1946
1998-02-20,17.3981
1998-02-23,17.2501
1998-02-24,17.0513
1998-02-25,16.9034
1998-02-26,16.9357
1998-02-27,16.9912
1998-03-02,17.079
1998-03-03,16.9635
1998-03-04,16.9635
1998-03-05,16.8201
1998-03-06,16.9357
1998-03-09,17.1946
1998-03-10,17.3981
1998-03-11,17.5136
1998-03-12,17.5414
1998-03-13,17.5969
1998-03-16,17.6847
1998-03-17,17.6847
1998-03-18,17.8085
1998-03-19,17.6914
1998-03-20,18.1319
1998-03-23,18.1038
1998-03-24,18.249
1998-03-25,18.3943
1998-03-26,18.249
1998-03-27,18.071
1998-03-30,18.249
1998-03-31,18.4224
1998-04-01,18.3053
1998-04-02,18.6286
1998-04-03,18.863
1998-04-06,18.8067
1998-04-07,18.863
1998-04-08,18.7177
1998-04-09,18.7177
1998-04-13,18.6568
1998-04-14,18.8067
1998-04-15,19.0692
1998-04-16,19.041
1998-04-17,19.0692
1998-04-20,18.863
1998-04-21,18.6005
1998-04-22,18.4834
1998-04-23,18.249
1998-04-24,18.0428
1998-04-27,17.8085
1998-04-28,17.8085
1998-04-29,17.8085
1998-04-30,18.3662
1998-05-01,18.3053
1998-05-04,18.5115
1998-05-05,18.3053
1998-05-06,18.2772
1998-05-07,18.3381
1998-05-08,18.6568
1998-05-11,18.4552
1998-05-12,18.6568
1998-05-13,18.6568
1998-05-14,18.5115
1998-05-15,18.3381
1998-05-18,18.4552
1998-05-19,18.249
1998-05-20,18.2209
1998-05-21,18.071
1998-05-22,18.071
1998-05-26,17.8976
1998-05-27,17.8366
1998-05-28,18.1038
1998-05-29,18.5115
1998-06-01,19.041
1998-06-02,18.952
1998-06-03,19.0692
1998-06-04,19.0082
1998-06-05,19.0692
1998-06-08,19.1582
1998-06-09,19.0692
1998-06-10,19.4769
1998-06-11,19.5659
1998-06-12,19.5097
1998-06-15,19.4207
1998-06-16,19.3035
1998-06-17,19.1863
1998-06-18,19.4589
1998-06-19,19.3402
1998-06-22,19.3687
1998-06-23,19.3687
1998-06-24,19.2216
1998-06-25,19.0127
1998-06-26,19.1029
1998-06-29,19.2216
1998-06-30,19.1314
1998-07-01,19.4873
1998-07-02,19.4019
1998-07-06,19.3402
1998-07-07,19.25
1998-07-08,19.3687
1998-07-09,19.4019
1998-07-10,19.5206
1998-07-13,19.3687
1998-07-14,19.2833
1998-07-15,19.3117
1998-07-16,19.4304
1998-07-17,19.3687
1998-07-20,19.4589
1998-07-21,19.2833
1998-07-22,19.3687
1998-07-23,19.2216
1998-07-24,19.1931
1998-07-27,19.4304
1998-07-28,19.4304
1998-07-29,19.3402
1998-07-30,19.4873
1998-07-31,19.046
1998-08-03,19.2216
1998-08-04,18.69
1998-08-05,18.8087
1998-08-06,18.8087
1998-08-07,19.046
1998-08-10,19.0127
1998-08-11,18.9558
1998-08-12,19.5775
1998-08-13,19.4304
1998-08-14,19.3402
1998-08-17,19.4873
1998-08-18,19.4873
1998-08-19,19.3687
1998-08-20,19.3117
1998-08-21,19.7579
1998-08-24,19.905
1998-08-25,19.7247
1998-08-26,19.9952
1998-08-27,20.0521
1998-08-28,20.2325
1998-08-31,20.0237
1998-09-01,20.1423
1998-09-02,19.6677
1998-09-03,19.6962
1998-09-04,19.8433
1998-09-08,20.0806
1998-09-09,19.9335
1998-09-10,19.962
1998-09-11,20.0806
1998-09-14,20.2325
1998-09-15,20.3511
1998-09-16,20.3179
1998-09-17,20.3251
1998-09-18,20.4788
1998-09-21,20.5365
1998-09-22,20.7767
1998-09-23,21.0793
1998-09-24,20.8391
1998-09-25,21.0169
1998-09-28,21.0457
1998-09-29,21.4972
1998-09-30,21.7374
1998-10-01,21.7374
1998-10-02,22.2178
1998-10-05,22.6069
1998-10-06,22.6694
1998-10-07,22.9672
1998-10-08,23.6013
1998-10-09,22.5493
1998-10-12,21.5885
1998-10-13,21.9776
1998-10-14,21.9776
1998-10-15,22.5205
1998-10-16,21.7086
1998-10-19,21.4972
1998-10-20,21.0169
1998-10-21,21.0169
1998-10-22,21.0457
1998-10-23,20.5365
1998-10-26,20.4452
1998-10-27,20.2675
1998-10-28,20.3875
1998-10-29,20.3875
1998-10-30,20.4164
1998-11-02,20.5989
1998-11-03,20.7478
1998-11-04,20.9592
1998-11-05,21.0793
1998-11-06,20.988
1998-11-09,20.719
1998-11-10,20.9592
1998-11-11,20.5653
1998-11-12,20.7767
1998-11-13,21.0457
1998-11-16,21.1658
1998-11-17,21.1994
1998-11-18,21.3771
1998-11-19,21.257
1998-11-20,21.5597
1998-11-23,21.5597
1998-11-24,21.5885
1998-11-25,21.7374
1998-11-27,21.5885
1998-11-30,20.988
1998-12-01,21.1369
1998-12-02,21.1369
1998-12-03,20.8679
1998-12-04,20.9592
1998-12-07,20.4452
1998-12-08,20.6854
1998-12-09,20.5365
1998-12-10,20.2963
1998-12-11,20.4164
1998-12-14,19.936
1998-12-15,20.2386
1998-12-16,20.2675
1998-12-17,20.6395
1998-12-18,20.4547
1998-12-21,20.5471
1998-12-22,20.4887
1998-12-23,20.6687
1998-12-24,20.6103
1998-12-28,20.3331
1998-12-29,20.7611
1998-12-30,20.7611
1998-12-31,20.8535
1999-01-04,20.8827
1999-01-05,21.0626
1999-01-06,21.155
1999-01-07,21.0966
1999-01-08,21.155
1999-01-11,20.6103
1999-01-12,20.3331
1999-01-13,20.4255
1999-01-14,20.3672
1999-01-15,20.3039
1999-01-19,20.3039
1999-01-20,20.2456
1999-01-21,20.3039
1999-01-22,20.4547
1999-01-25,20.3331
1999-01-26,20.1532
1999-01-27,19.7884
1999-01-28,19.7593
1999-01-29,19.6377
1999-02-01,19.5453
1999-02-02,19.4529
1999-02-03,19.4529
1999-02-04,19.3313
1999-02-05,19.3313
1999-02-08,19.3945
1999-02-09,19.0589
1999-02-10,19.0298
1999-02-11,18.9957
1999-02-12,18.631
1999-02-16,18.845
1999-02-17,19.2389
1999-02-18,19.6668
1999-02-19,19.5161
1999-02-22,19.5744
1999-02-23,19.4237
1999-02-24,19.3313
1999-02-25,19.1513
1999-02-26,19.1173
1999-03-01,19.2389
1999-03-02,19.5744
1999-03-03,19.6036
1999-03-04,20.0316
1999-03-05,20.7319
1999-03-08,20.4887
1999-03-09,20.2747
1999-03-10,20.0899
1999-03-11,20.3331
1999-03-12,20.5763
1999-03-15,20.2456
1999-03-16,20.3672
1999-03-17,20.2115
1999-03-18,20.4547
1999-03-19,20.2115
1999-03-22,20.0899
1999-03-23,19.91
1999-03-24,20.3331
1999-03-25,20.5272
1999-03-26,20.0348
1999-03-29,19.8477
1999-03-30,19.1436
1999-03-31,18.8974
1999-04-01,19.2027
1999-04-05,19.5424
1999-04-06,19.2322
1999-04-07,19.1732
1999-04-08,19.572
1999-04-09,19.5424
1999-04-12,19.6951
1999-04-13,19.3898
1999-04-14,19.2962
1999-04-15,19.2027
1999-04-16,19.572
1999-04-19,19.7886
1999-04-20,20.3746
1999-04-21,20.3746
1999-04-22,20.3105
1999-04-23,20.217
1999-04-26,20.1579
1999-04-27,20.0644
1999-04-28,20.0348
1999-04-29,20.281
1999-04-30,20.0348
1999-05-03,20.4977
1999-05-04,20.3105
1999-05-05,20.4336
1999-05-06,20.3746
1999-05-07,20.5272
1999-05-10,20.4336
1999-05-11,20.4041
1999-05-12,20.7438
1999-05-13,21.1427
1999-05-14,20.7438
1999-05-17,20.926
1999-05-18,20.8669
1999-05-19,21.1131
1999-05-20,21.1427
1999-05-21,21.2953
1999-05-24,21.3593
1999-05-25,21.5415
1999-05-26,21.6055
1999-05-27,21.1722
1999-05-28,21.4479
1999-06-01,21.0787
1999-06-02,20.99
1999-06-03,21.0491
1999-06-04,21.2362
1999-06-07,21.2362
1999-06-08,21.2362
1999-06-09,21.2362
1999-06-10,20.9556
1999-06-11,21.1427
1999-06-14,21.2017
1999-06-15,21.5119
1999-06-16,21.8172
1999-06-17,21.6409
1999-06-18,21.611
1999-06-21,21.2373
1999-06-22,21.2672
1999-06-23,21.1726
1999-06-24,20.9235
1999-06-25,20.8288
1999-06-28,20.769
1999-06-29,20.7392
1999-06-30,20.1164
1999-07-01,20.3655
1999-07-02,20.6146
1999-07-06,20.3954
1999-07-07,20.4901
1999-07-08,20.241
1999-07-09,20.4552
1999-07-12,20.3655
1999-07-13,20.3655
1999-07-14,20.3954
1999-07-15,20.4901
1999-07-16,20.52
1999-07-19,20.4901
1999-07-20,20.3307
1999-07-21,20.3655
1999-07-22,20.3307
1999-07-23,20.3008
1999-07-26,20.1463
1999-07-27,20.0816
1999-07-28,19.9919
1999-07-29,19.5535
1999-07-30,19.5535
1999-08-02,19.7727
1999-08-03,19.8325
1999-08-04,19.7428
1999-08-05,19.6481
1999-08-06,19.5535
1999-08-09,19.3991
1999-08-10,19.2745
1999-08-11,19.5236
1999-08-12,19.2745
1999-08-13,19.2446
1999-08-16,19.2098
1999-08-17,19.3044
1999-08-18,19.3044
1999-08-19,19.3991
1999-08-20,19.7428
1999-08-23,19.7428
1999-08-24,19.8026
1999-08-25,20.0517
1999-08-26,19.7727
1999-08-27,19.8673
1999-08-30,19.678
1999-08-31,19.678
1999-09-01,19.5834
1999-09-02,19.3044
1999-09-03,19.7727
1999-09-07,19.6183
1999-09-08,19.5834
1999-09-09,19.4588
1999-09-10,19.4588
1999-09-13,19.3044
1999-09-14,19.3044
1999-09-15,19.2745
1999-09-16,19.126
1999-09-17,19.2522
1999-09-20,19.0604
1999-09-21,18.6514
1999-09-22,18.6817
1999-09-23,18.3686
1999-09-24,18.3333
1999-09-27,18.3686
1999-09-28,18.0808
1999-09-29,18.0202
1999-09-30,18.2071
1999-10-01,18.4292
1999-10-04,18.6817
1999-10-05,16.758
1999-10-06,16.8842
1999-10-07,16.9448
1999-10-08,17.0407
1999-10-11,16.7883
1999-10-12,16.758
1999-10-13,16.4752
1999-10-14,16.5055
1999-10-15,16.1874
1999-10-18,16.3793
1999-10-19,16.0965
1999-10-20,15.935
1999-10-21,16.1571
1999-10-22,16.1874
1999-10-25,16.349
1999-10-26,16.3793
1999-10-27,16.662
1999-10-28,16.9145
1999-10-29,16.758
1999-11-01,17.071
1999-11-02,17.6113
1999-11-03,17.485
1999-11-04,17.2629
1999-11-05,17.5759
1999-11-08,17.5153
1999-11-09,17.1972
1999-11-10,16.9448
1999-11-11,17.0104
1999-11-12,16.9145
1999-11-15,16.8842
1999-11-16,16.9448
1999-11-17,16.9448
1999-11-18,16.9448
1999-11-19,16.7277
1999-11-22,16.4752
1999-11-23,16.2228
1999-11-24,16.4752
1999-11-26,16.5661
1999-11-29,16.1571
1999-11-30,16.662
1999-12-01,16.4399
1999-12-02,16.662
1999-12-03,16.8842
1999-12-06,16.8539
1999-12-07,16.9448
1999-12-08,16.9448
1999-12-09,16.8842
1999-12-10,16.4752
1999-12-13,16.3136
1999-12-14,16.349
1999-12-15,16.3136
1999-12-16,16.229
1999-12-17,16.229
1999-12-20,16.3572
1999-12-21,16.4855
1999-12-22,16.193
1999-12-23,16.4855
1999-12-27,16.3213
1999-12-28,16.2905
1999-12-29,16.034
1999-12-30,16.0648
1999-12-31,16.229
2000-01-03,15.4234
2000-01-04,15.3926
2000-01-05,15.9365
2000-01-06,15.8441
2000-01-07,15.9057
2000-01-10,16.1315
2000-01-11,16.1315
2000-01-12,16.229
2000-01-13,16.1623
2000-01-14,16.034
2000-01-18,15.8749
2000-01-19,16.3572
2000-01-20,17.2859
2000-01-21,19.1125
2000-01-24,19.3075
2000-01-25,18.3429
2000-01-26,18.3737
2000-01-27,17.9889
2000-01-28,17.091
2000-01-31,17.799
2000-02-01,17.8606
2000-02-02,17.2859
2000-02-03,17.5425
2000-02-04,16.9986
2000-02-07,16.8036
2000-02-08,16.9011
2000-02-09,16.6446
2000-02-10,16.4188
2000-02-11,16.6446
2000-02-14,16.8036
2000-02-15,16.9319
2000-02-16,16.7061
2000-02-17,16.6446
2000-02-18,16.5163
2000-02-22,16.2905
2000-02-23,15.8749
2000-02-24,15.4234
2000-02-25,15.1361
2000-02-28,15.2644
2000-02-29,15.4593
2000-03-01,15.0745
2000-03-02,15.1053
2000-03-03,15.1669
2000-03-06,15.2644
2000-03-07,15.1053
2000-03-08,15.2644
2000-03-09,15.5209
2000-03-10,15.8082
2000-03-13,15.68
2000-03-14,15.4234
2000-03-15,16.1623
2000-03-16,16.6297
2000-03-17,15.9411
2000-03-20,15.9776
2000-03-21,15.7168
2000-03-22,15.2265
2000-03-23,15.5864
2000-03-24,15.4873
2000-03-27,15.5186
2000-03-28,15.6803
2000-03-29,15.5864
2000-03-30,15.4873
2000-03-31,15.1587
2000-04-03,15.2891
2000-04-04,15.4195
2000-04-05,15.5186
2000-04-06,15.456
2000-04-07,15.3256
2000-04-10,15.7481
2000-04-11,15.5499
2000-04-12,15.5499
2000-04-13,15.7168
2000-04-14,15.3256
2000-04-17,15.2891
2000-04-18,15.8107
2000-04-19,15.7794
2000-04-20,16.0715
2000-04-24,16.7601
2000-04-25,17.1513
2000-04-26,17.8659
2000-04-27,17.1148
2000-04-28,16.9531
2000-05-01,16.7914
2000-05-02,16.3323
2000-05-03,16.108
2000-05-04,16.7236
2000-05-05,16.301
2000-05-08,16.9531
2000-05-09,16.8227
2000-05-10,16.4627
2000-05-11,16.7914
2000-05-12,16.8905
2000-05-15,17.3443
2000-05-16,17.3443
2000-05-17,17.1148
2000-05-18,17.5738
2000-05-19,17.5738
2000-05-22,17.2817
2000-05-23,16.854
2000-05-24,17.1826
2000-05-25,17.4121
2000-05-26,18.0276
2000-05-30,17.8659
2000-05-31,18.0276
2000-06-01,18.2572
2000-06-02,18.4554
2000-06-05,17.7355
2000-06-06,18.2259
2000-06-07,18.1267
2000-06-08,17.8972
2000-06-09,18.4189
2000-06-12,18.518
2000-06-13,18.5493
2000-06-14,17.8972
2000-06-15,18.2259
2000-06-16,18.0692
2000-06-19,17.7039
2000-06-20,17.6351
2000-06-21,17.6351
2000-06-22,17.3386
2000-06-23,17.1745
2000-06-26,17.3386
2000-06-27,16.9415
2000-06-28,17.1427
2000-06-29,16.7774
2000-06-30,16.2162
2000-07-03,16.5762
2000-07-05,16.3115
2000-07-06,16.5762
2000-07-07,16.7086
2000-07-10,16.7774
2000-07-11,16.841
2000-07-12,16.6451
2000-07-13,16.878
2000-07-14,16.7457
2000-07-17,16.7774
2000-07-18,16.9098
2000-07-19,17.1057
2000-07-20,17.1745
2000-07-21,17.0739
2000-07-24,17.0104
2000-07-25,16.878
2000-07-26,16.841
2000-07-27,16.7086
2000-07-28,16.7457
2000-07-31,16.5445
2000-08-01,17.1427
2000-08-02,17.2751
2000-08-03,17.2751
2000-08-04,17.3704
2000-08-07,17.868
2000-08-08,17.9369
2000-08-09,17.8998
2000-08-10,18.1327
2000-08-11,18.2969
2000-08-14,18.4663
2000-08-15,18.5986
2000-08-16,18.7628
2000-08-17,18.5986
2000-08-18,18.7628
2000-08-21,18.6304
2000-08-22,18.4292
2000-08-23,17.9369
2000-08-24,17.868
2000-08-25,17.8045
2000-08-28,18.2333
2000-08-29,18.101
2000-08-30,18.2969
2000-08-31,18.3975
2000-09-01,18.3657
2000-09-05,18.8951
2000-09-06,19.2604
2000-09-07,19.4245
2000-09-08,20.1498
2000-09-11,20.351
2000-09-12,20.6793
2000-09-13,20.8116
2000-09-14,20.1869
2000-09-15,20.6475
2000-09-18,20.351
2000-09-19,19.5251
2000-09-20,19.3928
2000-09-21,19.5673
2000-09-22,19.7338
2000-09-25,19.97
2000-09-26,19.9378
2000-09-27,20.2063
2000-09-28,20.2063
2000-09-29,20.4748
2000-10-02,20.609
2000-10-03,20.1365
2000-10-04,19.766
2000-10-05,19.2988
2000-10-06,19.2988
2000-10-09,19.1968
2000-10-10,19.4009
2000-10-11,19.5673
2000-10-12,19.766
2000-10-13,19.7016
2000-10-16,19.766
2000-10-17,19.8036
2000-10-18,19.4009
2000-10-19,19.6317
2000-10-20,19.5995
2000-10-23,19.6693
2000-10-24,19.5351
2000-10-25,19.2666
2000-10-26,19.0303
2000-10-27,19.2666
2000-10-30,19.5351
2000-10-31,19.4331
2000-11-01,19.868
2000-11-02,19.7016
2000-11-03,20.0345
2000-11-06,19.229
2000-11-07,19.4331
2000-11-08,19.4009
2000-11-09,19.4975
2000-11-10,19.5995
2000-11-13,19.8036
2000-11-14,19.3633
2000-11-15,19.6693
2000-11-16,20.0023
2000-11-17,20.1043
2000-11-20,20.1687
2000-11-21,20.0721
2000-11-22,19.9002
2000-11-24,19.9378
2000-11-27,19.868
2000-11-28,20.0023
2000-11-29,20.2707
2000-11-30,20.3728
2000-12-01,20.3728
2000-12-04,20.4372
2000-12-05,20.0345
2000-12-06,19.8358
2000-12-07,19.8358
2000-12-08,19.4331
2000-12-11,19.4009
2000-12-12,19.2988
2000-12-13,19.6317
2000-12-14,19.5351
2000-12-15,19.8358
2000-12-18,20.1365
2000-12-19,20.2063
2000-12-20,20.4496
2000-12-21,20.553
2000-12-22,20.9287
2000-12-26,21.3043
2000-12-27,21.1301
2000-12-28,21.1682
2000-12-29,21.2336
2001-01-02,20.7926
2001-01-03,20.112
2001-01-04,18.9904
2001-01-05,19.328
2001-01-08,19.671
2001-01-09,19.9051
2001-01-10,19.8724
2001-01-11,18.4079
2001-01-12,18.7509
2001-01-16,18.446
2001-01-17,18.446
2001-01-18,18.9196
2001-01-19,18.9523
2001-01-22,19.769
2001-01-23,19.9051
2001-01-24,20.0793
2001-01-25,19.9759
2001-01-26,19.4968
2001-01-29,19.5512
2001-01-30,19.8234
2001-01-31,19.2191
2001-02-01,19.1048
2001-02-02,18.9469
2001-02-05,19.0231
2001-02-06,19.2572
2001-02-07,20.1229
2001-02-08,20.6728
2001-02-09,20.9178
2001-02-12,20.6946
2001-02-13,20.651
2001-02-14,20.0684
2001-02-15,19.6438
2001-02-16,19.6002
2001-02-20,19.6438
2001-02-21,19.6819
2001-02-22,19.6547
2001-02-23,19.1211
2001-02-26,19.2735
2001-02-27,19.4314
2001-02-28,19.7635
2001-03-01,20.3624
2001-03-02,20.7871
2001-03-05,21.0158
2001-03-06,21.0484
2001-03-07,21.1138
2001-03-08,21.4568
2001-03-09,21.1464
2001-03-12,20.9777
2001-03-13,21.2826
2001-03-14,20.9613
2001-03-15,21.2499
2001-03-16,21.1083
2001-03-19,21.2608
2001-03-20,21.1642
2001-03-21,21.1531
2001-03-22,20.7173
2001-03-23,20.8
2001-03-26,21.4455
2001-03-27,21.6662
2001-03-28,21.6883
2001-03-29,21.7545
2001-03-30,21.9587
2001-04-02,22.378
2001-04-03,22.709
2001-04-04,23.1504
2001-04-05,23.338
2001-04-06,22.9959
2001-04-09,23.349
2001-04-10,23.9669
2001-04-11,23.3545
2001-04-12,23.1945
2001-04-16,23.9449
2001-04-17,23.7076
2001-04-18,23.7683
2001-04-19,23.0345
2001-04-20,22.9462
2001-04-23,23.1724
2001-04-24,23.2221
2001-04-25,23.3711
2001-04-26,23.5862
2001-04-27,23.3104
2001-04-30,23.0897
2001-05-01,23.2828
2001-05-02,22.8138
2001-05-03,22.7035
2001-05-04,23.0069
2001-05-07,23.1283
2001-05-08,22.9959
2001-05-09,23.338
2001-05-10,23.4318
2001-05-11,23.4704
2001-05-14,23.3324
2001-05-15,23.2552
2001-05-16,23.5035
2001-05-17,23.6911
2001-05-18,23.9118
2001-05-21,24.2759
2001-05-22,24.3311
2001-05-23,24.6731
2001-05-24,24.5076
2001-05-25,24.0993
2001-05-29,24.0828
2001-05-30,23.9504
2001-05-31,24.6676
2001-06-01,24.6842
2001-06-04,24.4745
2001-06-05,24.469
2001-06-06,24.1049
2001-06-07,24.0
2001-06-08,24.2428
2001-06-11,24.7173
2001-06-12,25.1311
2001-06-13,24.6897
2001-06-14,24.1214
2001-06-15,24.9159
2001-06-18,25.0593
2001-06-19,25.4787
2001-06-20,25.7104
2001-06-21,25.0213
2001-06-22,25.3282
2001-06-25,25.0827
2001-06-26,25.6629
2001-06-27,25.7243
2001-06-28,25.635
2001-06-29,25.9028
2001-07-02,25.9363
2001-07-03,25.9418
2001-07-05,26.0423
2001-07-06,25.7856
2001-07-09,25.7856
2001-07-10,25.7745
2001-07-11,25.4453
2001-07-12,25.1887
2001-07-13,24.7033
2001-07-16,24.6754
2001-07-17,24.4802
2001-07-18,24.4132
2001-07-19,24.4523
2001-07-20,24.2682
2001-07-23,23.6824
2001-07-24,23.6099
2001-07-25,23.8442
2001-07-26,23.6545
2001-07-27,23.6433
2001-07-30,23.8274
2001-07-31,23.5708
2001-08-01,24.0227
2001-08-02,24.3965
2001-08-03,24.642
2001-08-06,24.2403
2001-08-07,24.2068
2001-08-08,23.5987
2001-08-09,23.6545
2001-08-10,23.6712
2001-08-13,23.6545
2001-08-14,23.5875
2001-08-15,23.5764
2001-08-16,23.7661
2001-08-17,23.621
2001-08-20,23.8665
2001-08-21,24.0729
2001-08-22,24.5192
2001-08-23,24.4579
2001-08-24,24.5471
2001-08-27,24.5973
2001-08-28,24.2793
2001-08-29,24.3909
2001-08-30,24.2235
2001-08-31,24.1454
2001-09-04,24.3519
2001-09-05,24.1622
2001-09-06,24.4132
2001-09-07,24.536
2001-09-10,24.2737
2001-09-17,24.1622
2001-09-18,24.3016
2001-09-19,24.2124
2001-09-20,24.441
2001-09-21,24.1813
2001-09-24,23.6732
2001-09-25,23.803
2001-09-26,23.6619
2001-09-27,23.6958
2001-09-28,24.2773
2001-10-01,24.362
2001-10-02,24.8701
2001-10-03,25.2371
2001-10-04,25.2879
2001-10-05,25.3557
2001-10-08,25.0508
2001-10-09,24.6951
2001-10-10,24.712
2001-10-11,24.5201
2001-10-12,24.5709
2001-10-15,24.3168
2001-10-16,24.6782
2001-10-17,24.5991
2001-10-18,24.0176
2001-10-19,24.4354
2001-10-22,23.9724
2001-10-23,23.8087
2001-10-24,23.724
2001-10-25,23.7692
2001-10-26,23.5998
2001-10-29,23.6167
2001-10-30,23.4191
2001-10-31,23.5603
2001-11-01,23.2046
2001-11-02,22.9053
2001-11-05,23.4135
2001-11-06,23.5038
2001-11-07,23.4869
2001-11-08,23.8256
2001-11-09,23.7522
2001-11-12,23.453
2001-11-13,23.6563
2001-11-14,23.3457
2001-11-15,23.1763
2001-11-16,23.2328
2001-11-19,23.2102
2001-11-20,23.6675
2001-11-21,23.4135
2001-11-23,23.5095
2001-11-26,23.4191
2001-11-27,23.4812
2001-11-28,23.3062
2001-11-29,23.374
2001-11-30,23.374
2001-12-03,23.3683
2001-12-04,23.1933
2001-12-05,23.2102
2001-12-06,22.8941
2001-12-07,23.1538
2001-12-10,22.9787
2001-12-11,22.6231
2001-12-12,23.007
2001-12-13,23.0408
2001-12-14,23.0465
2001-12-17,22.9166
2001-12-18,23.1989
2001-12-19,23.6788
2001-12-20,23.5038
2001-12-21,23.5689
2001-12-24,23.6375
2001-12-26,23.7347
2001-12-27,23.9862
2001-12-28,23.9462
2001-12-31,23.9748
2002-01-02,24.2149
2002-01-03,24.0948
2002-01-04,23.8947
2002-01-07,23.7004
2002-01-08,23.2659
2002-01-09,23.3174
2002-01-10,23.4774
2002-01-11,23.4489
2002-01-14,23.6775
2002-01-15,24.0377
2002-01-16,23.9976
2002-01-17,23.809
2002-01-18,23.8776
2002-01-22,23.4089
2002-01-23,23.4317
2002-01-24,23.5403
2002-01-25,23.5117
2002-01-28,23.4489
2002-01-29,23.0659
2002-01-30,23.0659
2002-01-31,23.3917
2002-02-01,23.4774
2002-02-04,23.4832
2002-02-05,23.2031
2002-02-06,23.2031
2002-02-07,23.4317
2002-02-08,23.3517
2002-02-11,23.4603
2002-02-12,23.6775
2002-02-13,23.6432
2002-02-14,23.7461
2002-02-15,23.7118
2002-02-19,23.5975
2002-02-20,23.5746
2002-02-21,23.4946
2002-02-22,23.5861
2002-02-25,23.4889
2002-02-26,23.6547
2002-02-27,23.7576
2002-02-28,23.7004
2002-03-01,24.0948
2002-03-04,24.4207
2002-03-05,24.7522
2002-03-06,25.038
2002-03-07,25.2038
2002-03-08,25.1238
2002-03-11,25.2038
2002-03-12,25.0495
2002-03-13,24.8665
2002-03-14,24.8151
2002-03-15,24.9123
2002-03-18,24.8665
2002-03-19,25.221
2002-03-20,25.2038
2002-03-21,25.8429
2002-03-22,25.7619
2002-03-25,25.7098
2002-03-26,25.8891
2002-03-27,26.1089
2002-03-28,26.3172
2002-04-01,26.2535
2002-04-02,26.3519
2002-04-03,26.3808
2002-04-04,26.2304
2002-04-05,25.999
2002-04-08,25.9933
2002-04-09,25.7561
2002-04-10,26.0858
2002-04-11,25.7735
2002-04-12,25.9065
2002-04-15,25.6636
2002-04-16,26.1783
2002-04-17,26.4097
2002-04-18,26.5427
2002-04-19,26.6064
2002-04-22,26.5543
2002-04-23,26.884
2002-04-24,27.1963
2002-04-25,26.4213
2002-04-26,26.1726
2002-04-29,26.028
2002-04-30,26.2709
2002-05-01,26.2478
2002-05-02,26.5832
2002-05-03,26.5138
2002-05-06,26.294
2002-05-07,26.0337
2002-05-08,26.028
2002-05-09,25.7966
2002-05-10,25.7214
2002-05-13,25.7445
2002-05-14,26.2535
2002-05-15,26.0916
2002-05-16,26.1726
2002-05-17,26.161
2002-05-20,26.7278
2002-05-21,27.0286
2002-05-22,27.5665
2002-05-23,27.2484
2002-05-24,27.098
2002-05-28,27.0228
2002-05-29,26.8956
2002-05-30,27.1269
2002-05-31,27.1096
2002-06-03,26.5485
2002-06-04,26.7105
2002-06-05,26.1494
2002-06-06,25.4958
2002-06-07,25.5942
2002-06-10,25.7272
2002-06-11,26.028
2002-06-12,26.375
2002-06-13,26.4791
2002-06-14,25.1372
2002-06-17,24.7439
2002-06-18,25.0563
2002-06-19,25.1661
2002-06-20,25.5884
2002-06-21,25.9759
2002-06-24,25.7503
2002-06-25,25.4669
2002-06-26,25.3065
2002-06-27,25.5055
2002-06-28,26.1259
2002-07-01,25.7162
2002-07-02,25.0841
2002-07-03,24.9846
2002-07-05,25.1368
2002-07-08,24.9554
2002-07-09,23.937
2002-07-10,23.1528
2002-07-11,23.8258
2002-07-12,22.9713
2002-07-15,23.5566
2002-07-16,22.9713
2002-07-17,22.7197
2002-07-18,21.9588
2002-07-19,21.0517
2002-07-22,21.1688
2002-07-23,19.9104
2002-07-24,21.5375
2002-07-25,22.2105
2002-07-26,21.7774
2002-07-29,22.4739
2002-07-30,23.463
2002-07-31,23.9253
2002-08-01,23.4981
2002-08-02,23.5566
2002-08-05,23.7907
2002-08-06,24.4755
2002-08-07,24.6686
2002-08-08,24.9027
2002-08-09,24.5925
2002-08-12,24.7154
2002-08-13,24.2472
2002-08-14,24.8851
2002-08-15,24.8383
2002-08-16,24.4637
2002-08-19,24.891
2002-08-20,24.7622
2002-08-21,25.6694
2002-08-22,25.9737
2002-08-23,25.4704
2002-08-26,25.8157
2002-08-27,25.4528
2002-08-28,25.1602
2002-08-29,25.0256
2002-08-30,25.0783
2002-09-03,24.5281
2002-09-04,24.6218
2002-09-05,24.4813
2002-09-06,24.9027
2002-09-09,24.651
2002-09-10,23.9312
2002-09-11,24.3408
2002-09-12,23.9838
2002-09-13,24.4345
2002-09-16,24.2882
2002-09-17,23.7497
2002-09-18,24.2296
2002-09-19,24.0131
2002-09-20,23.7146
2002-09-23,23.7673
2002-09-24,23.0298
2002-09-25,23.5396
2002-09-26,24.245
2002-09-27,23.7293
2002-09-30,24.1027
2002-10-01,24.737
2002-10-02,24.82
2002-10-03,25.0038
2002-10-04,24.2154
2002-10-07,24.7133
2002-10-08,24.8793
2002-10-09,23.1187
2002-10-10,24.8793
2002-10-11,24.6837
2002-10-14,24.8971
2002-10-15,25.1757
2002-10-16,23.8538
2002-10-17,24.6718
2002-10-18,24.6837
2002-10-21,25.5076
2002-10-22,24.8378
2002-10-23,25.5906
2002-10-24,25.8811
2002-10-25,26.1538
2002-10-28,26.8592
2002-10-29,26.4857
2002-10-30,26.9659
2002-10-31,26.794
2002-11-01,26.794
2002-11-04,27.4283
2002-11-05,27.5231
2002-11-06,27.6357
2002-11-07,26.7169
2002-11-08,26.0234
2002-11-11,26.1241
2002-11-12,25.727
2002-11-13,26.0174
2002-11-14,26.4265
2002-11-15,26.7881
2002-11-18,26.2486
2002-11-19,26.2131
2002-11-20,26.1538
2002-11-21,26.1004
2002-11-22,26.9303
2002-11-25,27.1378
2002-11-26,26.468
2002-11-27,26.4976
2002-11-29,26.2783
2002-12-02,25.9759
2002-12-03,26.3138
2002-12-04,26.1064
2002-12-05,25.9226
2002-12-06,25.721
2002-12-09,26.1775
2002-12-10,26.3138
2002-12-11,26.468
2002-12-12,26.5865
2002-12-13,26.9303
2002-12-16,27.3749
2002-12-17,27.5172
2002-12-18,27.4401
2002-12-19,27.4188
2002-12-20,27.8504
2002-12-23,27.4668
2002-12-24,27.4608
2002-12-26,27.5147
2002-12-27,27.185
2002-12-30,27.8804
2002-12-31,27.7725
2003-01-02,28.1502
2003-01-03,28.1681
2003-01-06,29.5169
2003-01-07,28.6897
2003-01-08,28.7556
2003-01-09,28.0542
2003-01-10,27.6346
2003-01-13,27.3049
2003-01-14,27.7665
2003-01-15,27.6286
2003-01-16,27.3169
2003-01-17,27.227
2003-01-21,26.8494
2003-01-22,26.8973
2003-01-23,27.0112
2003-01-24,26.4537
2003-01-27,25.3148
2003-01-28,25.8483
2003-01-29,25.7344
2003-01-30,25.2968
2003-01-31,25.105
2003-02-03,25.4526
2003-02-04,25.1829
2003-02-05,25.099
2003-02-06,25.1949
2003-02-07,24.8472
2003-02-10,24.9971
2003-02-11,24.3137
2003-02-12,23.8401
2003-02-13,24.2897
2003-02-14,24.6674
2003-02-18,24.9971
2003-02-19,25.2428
2003-02-20,25.1649
2003-02-21,25.1949
2003-02-24,25.003
2003-02-25,25.2548
2003-02-26,24.6973
2003-02-27,24.8172
2003-02-28,24.8712
2003-03-03,24.9611
2003-03-04,24.8412
2003-03-05,24.8352
2003-03-06,24.8112
2003-03-07,25.027
2003-03-10,24.7872
2003-03-11,24.6134
2003-03-12,24.5175
2003-03-13,24.7633
2003-03-14,24.7753
2003-03-17,25.1169
2003-03-18,25.1649
2003-03-19,24.5175
2003-03-20,23.7434
2003-03-21,24.1562
2003-03-24,23.7252
2003-03-25,23.707
2003-03-26,23.7616
2003-03-27,23.707
2003-03-28,23.6159
2003-03-31,23.5005
2003-04-01,23.7009
2003-04-02,23.6887
2003-04-03,23.713
2003-04-04,24.0651
2003-04-07,23.9619
2003-04-08,23.8952
2003-04-09,24.0651
2003-04-10,23.9862
2003-04-11,23.5491
2003-04-14,23.5855
2003-04-15,23.9316
2003-04-16,23.7616
2003-04-17,23.8162
2003-04-21,23.6887
2003-04-22,23.8587
2003-04-23,24.138
2003-04-24,24.3808
2003-04-25,24.3505
2003-04-28,24.7208
2003-04-29,24.6722
2003-04-30,24.5205
2003-05-01,24.053
2003-05-02,23.537
2003-05-05,23.7252
2003-05-06,23.792
2003-05-07,23.6705
2003-05-08,23.798
2003-05-09,23.9619
2003-05-12,23.9559
2003-05-13,24.0955
2003-05-14,24.1137
2003-05-15,24.2533
2003-05-16,24.8544
2003-05-19,24.2958
2003-05-20,24.7087
2003-05-21,24.7087
2003-05-22,25.8621
2003-05-23,26.7971
2003-05-27,27.2827
2003-05-28,26.876
2003-05-29,26.4449
2003-05-30,26.3235
2003-06-02,26.2992
2003-06-03,26.451
2003-06-04,26.8274
2003-06-05,26.4996
2003-06-06,26.0685
2003-06-09,25.8986
2003-06-10,25.8014
2003-06-11,24.9758
2003-06-12,25.3279
2003-06-13,24.909
2003-06-16,24.8179
2003-06-17,24.5812
2003-06-18,24.7329
2003-06-19,24.6134
2003-06-20,24.6257
2003-06-23,24.5088
2003-06-24,24.1645
2003-06-25,24.2998
2003-06-26,24.4719
2003-06-27,24.0108
2003-06-30,23.7648
2003-07-01,23.5742
2003-07-02,23.7956
2003-07-03,23.814
2003-07-07,23.6911
2003-07-08,23.6419
2003-07-09,23.4881
2003-07-10,23.07
2003-07-11,22.9225
2003-07-14,23.0208
2003-07-15,22.7503
2003-07-16,22.4859
2003-07-17,22.8179
2003-07-18,23.1561
2003-07-21,22.5966
2003-07-22,23.0885
2003-07-23,22.9963
2003-07-24,22.9717
2003-07-25,22.9348
2003-07-28,22.7134
2003-07-29,22.3875
2003-07-30,22.1723
2003-07-31,21.9879
2003-08-01,21.539
2003-08-04,21.496
2003-08-05,21.2685
2003-08-06,21.3976
2003-08-07,21.6497
2003-08-08,21.8341
2003-08-11,21.5759
2003-08-12,21.5452
2003-08-13,21.3422
2003-08-14,21.2377
2003-08-15,21.3422
2003-08-18,21.3361
2003-08-19,21.2931
2003-08-20,21.3791
2003-08-21,21.5083
2003-08-22,21.3053
2003-08-25,21.416
2003-08-26,21.4037
2003-08-27,21.3853
2003-08-28,21.4283
2003-08-29,21.4529
2003-09-02,21.7358
2003-09-03,21.9141
2003-09-04,21.951
2003-09-05,21.7972
2003-09-08,22.449
2003-09-09,22.2891
2003-09-10,22.7687
2003-09-11,22.615
2003-09-12,22.8548
2003-09-15,22.6888
2003-09-16,22.6827
2003-09-17,22.1969
2003-09-18,22.1877
2003-09-19,22.4373
2003-09-22,22.0817
2003-09-23,22.1441
2003-09-24,22.4123
2003-09-25,22.5558
2003-09-26,23.0735
2003-09-29,23.3916
2003-09-30,23.0486
2003-10-01,23.2544
2003-10-02,23.56
2003-10-03,23.56
2003-10-06,23.3604
2003-10-07,22.955
2003-10-08,22.693
2003-10-09,22.668
2003-10-10,22.3437
2003-10-13,22.3562
2003-10-14,22.456
2003-10-15,22.2002
2003-10-16,22.2626
2003-10-17,22.3063
2003-10-20,22.6244
2003-10-21,22.3125
2003-10-22,22.8864
2003-10-23,22.8864
2003-10-24,22.8614
2003-10-27,22.799
2003-10-28,23.0361
2003-10-29,23.2731
2003-10-30,22.955
2003-10-31,22.9799
2003-11-03,23.0548
2003-11-04,22.5308
2003-11-05,22.3374
2003-11-06,22.2626
2003-11-07,22.1066
2003-11-10,22.194
2003-11-11,22.2439
2003-11-12,22.3624
2003-11-13,22.5558
2003-11-14,22.6493
2003-11-17,22.6992
2003-11-18,22.6868
2003-11-19,22.8864
2003-11-20,22.5495
2003-11-21,22.6556
2003-11-24,22.9363
2003-11-25,23.3043
2003-11-26,23.3854
2003-11-28,23.5226
2003-12-01,23.5663
2003-12-02,23.4166
2003-12-03,23.3293
2003-12-04,23.3604
2003-12-05,23.3854
2003-12-08,23.6599
2003-12-09,23.4291
2003-12-10,23.5538
2003-12-11,23.6786
2003-12-12,24.2025
2003-12-15,24.346
2003-12-16,24.3023
2003-12-17,24.2961
2003-12-18,24.35
2003-12-19,24.2742
2003-12-22,24.3374
2003-12-23,24.5839
2003-12-24,24.4954
2003-12-26,24.5649
2003-12-29,24.9948
2003-12-30,25.077
2003-12-31,24.881
2004-01-02,24.9379
2004-01-05,24.7925
2004-01-06,24.7103
2004-01-07,24.6155
2004-01-08,24.5713
2004-01-09,24.4448
2004-01-12,24.3058
2004-01-13,24.369
2004-01-14,24.6281
2004-01-15,24.4448
2004-01-16,24.2109
2004-01-20,24.3753
2004-01-21,24.9505
2004-01-22,25.1212
2004-01-23,24.7672
2004-01-26,24.4891
2004-01-27,24.5017
2004-01-28,24.8304
2004-01-29,24.8052
2004-01-30,24.6914
2004-02-02,24.5965
2004-02-03,24.5776
2004-02-04,24.2552
2004-02-05,24.1035
2004-02-06,24.7166
2004-02-09,25.0327
2004-02-10,25.1402
2004-02-11,25.1591
2004-02-12,24.9
2004-02-13,24.7672
2004-02-17,24.9442
2004-02-18,25.1718
2004-02-19,25.235
2004-02-20,25.1275
2004-02-23,25.1149
2004-02-24,25.058
2004-02-25,25.254
2004-02-26,25.235
2004-02-27,25.5637
2004-03-01,25.5637
2004-03-02,25.4689
2004-03-03,25.5005
2004-03-04,25.7028
2004-03-05,26.3918
2004-03-08,26.3981
2004-03-09,26.3665
2004-03-10,26.3349
2004-03-11,25.9809
2004-03-12,26.1642
2004-03-15,26.2275
2004-03-16,26.3792
2004-03-17,26.5182
2004-03-18,26.3487
2004-03-19,26.1759
2004-03-22,25.9391
2004-03-23,25.8943
2004-03-24,25.7663
2004-03-25,25.8495
2004-03-26,25.9839
2004-03-29,26.1503
2004-03-30,26.3551
2004-03-31,26.3103
2004-04-01,26.5727
2004-04-02,26.4127
2004-04-05,26.5023
2004-04-06,26.5599
2004-04-07,26.2271
2004-04-08,26.0479
2004-04-12,25.5807
2004-04-13,25.1263
2004-04-14,24.9919
2004-04-15,24.8767
2004-04-16,25.2031
2004-04-19,25.1071
2004-04-20,25.0559
2004-04-21,24.8255
2004-04-22,25.1071
2004-04-23,25.0751
2004-04-26,25.2479
2004-04-27,25.1583
2004-04-28,25.0495
2004-04-29,24.8319
2004-04-30,24.9663
2004-05-03,25.1647
2004-05-04,25.1647
2004-05-05,25.3055
2004-05-06,25.4847
2004-05-07,24.9855
2004-05-10,24.4159
2004-05-11,24.4671
2004-05-12,24.5503
2004-05-13,24.7231
2004-05-14,24.9343
2004-05-17,24.6783
2004-05-18,24.6207
2004-05-19,24.6143
2004-05-20,24.6847
2004-05-21,24.6719
2004-05-24,24.9023
2004-05-25,25.1967
2004-05-26,25.2799
2004-05-27,25.5743
2004-05-28,25.7279
2004-06-01,25.5999
2004-06-02,25.6383
2004-06-03,25.4015
2004-06-04,25.3887
2004-06-07,25.6319
2004-06-08,25.6575
2004-06-09,25.5359
2004-06-10,25.6959
2004-06-14,25.6063
2004-06-15,25.5999
2004-06-16,25.8751
2004-06-17,26.0859
2004-06-18,26.2285
2004-06-21,26.3517
2004-06-22,26.3322
2004-06-23,26.3841
2004-06-24,26.2998
2004-06-25,26.1507
2004-06-28,26.3257
2004-06-29,26.047
2004-06-30,26.2285
2004-07-01,26.1572
2004-07-02,26.4619
2004-07-06,26.4554
2004-07-07,26.3906
2004-07-08,26.222
2004-07-09,26.2479
2004-07-12,26.2285
2004-07-13,26.1507
2004-07-14,26.2609
2004-07-15,26.4295
2004-07-16,26.6563
2004-07-19,26.7601
2004-07-20,26.7212
2004-07-21,26.3063
2004-07-22,25.9886
2004-07-23,25.8784
2004-07-26,25.7553
2004-07-27,25.6256
2004-07-28,25.6451
2004-07-29,25.7293
2004-07-30,26.0081
2004-08-02,26.1183
2004-08-03,26.1313
2004-08-04,26.209
2004-08-05,25.9497
2004-08-06,25.9627
2004-08-09,26.0859
2004-08-10,25.9951
2004-08-11,25.7942
2004-08-12,25.6451
2004-08-13,25.6321
2004-08-16,25.8395
2004-08-17,25.9044
2004-08-18,26.209
2004-08-19,26.0275
2004-08-20,25.9562
2004-08-23,25.9822
2004-08-24,26.2933
2004-08-25,26.5137
2004-08-26,26.41
2004-08-27,26.4748
2004-08-30,26.4489
2004-08-31,26.773
2004-09-01,26.8443
2004-09-02,26.8897
2004-09-03,26.7665
2004-09-07,26.9545
2004-09-08,26.6628
2004-09-09,26.4748
2004-09-10,26.6369
2004-09-13,26.6888
2004-09-14,26.5137
2004-09-15,26.4165
2004-09-16,26.7536
2004-09-17,26.9998
2004-09-20,27.013
2004-09-21,27.0721
2004-09-22,26.9998
2004-09-23,26.8357
2004-09-24,27.1705
2004-09-27,27.2821
2004-09-28,27.4462
2004-09-29,27.5447
2004-09-30,27.6825
2004-10-01,27.6366
2004-10-04,27.7022
2004-10-05,27.7416
2004-10-06,27.8992
2004-10-07,27.525
2004-10-08,27.7088
2004-10-11,27.63
2004-10-12,27.8992
2004-10-13,27.4987
2004-10-14,27.5184
2004-10-15,27.6235
2004-10-18,27.374
2004-10-19,27.3215
2004-10-20,27.42
2004-10-21,27.63
2004-10-22,27.5119
2004-10-25,27.6169
2004-10-26,27.932
2004-10-27,27.6366
2004-10-28,27.5906
2004-10-29,28.0042
2004-11-01,28.293
2004-11-02,27.9976
2004-11-03,28.5359
2004-11-04,29.1202
2004-11-05,28.4834
2004-11-08,28.851
2004-11-09,28.6016
2004-11-10,28.6935
2004-11-11,28.8642
2004-11-12,29.3499
2004-11-15,29.2712
2004-11-16,29.107
2004-11-17,29.1464
2004-11-18,29.3828
2004-11-19,29.1333
2004-11-22,29.1399
2004-11-23,29.2777
2004-11-24,29.6913
2004-11-26,29.7372
2004-11-29,29.1136
2004-11-30,28.8313
2004-12-01,28.3127
2004-12-02,28.2274
2004-12-03,28.4965
2004-12-06,28.792
2004-12-07,28.851
2004-12-08,28.6869
2004-12-09,28.595
2004-12-10,28.5884
2004-12-13,28.9626
2004-12-14,28.9035
2004-12-15,29.3696
2004-12-16,29.3397
2004-12-17,28.9479
2004-12-20,28.7487
2004-12-21,28.8815
2004-12-22,28.7487
2004-12-23,28.669
2004-12-27,28.3104
2004-12-28,28.2573
2004-12-29,28.5229
2004-12-30,28.6424
2004-12-31,28.6624
2005-01-03,28.3967
2005-01-04,28.3967
2005-01-05,28.2241
2005-01-06,28.3038
2005-01-07,28.3901
2005-01-10,28.5495
2005-01-11,28.3702
2005-01-12,28.3436
2005-01-13,28.4764
2005-01-14,28.7288
2005-01-18,29.0542
2005-01-19,28.9612
2005-01-20,28.8815
2005-01-21,28.6424
2005-01-24,28.5428
2005-01-25,28.3901
2005-01-26,28.6756
2005-01-27,28.7952
2005-01-28,28.6026
2005-01-31,29.0608
2005-02-01,29.1538
2005-02-02,29.1604
2005-02-03,29.2268
2005-02-04,29.5589
2005-02-07,29.5788
2005-02-08,29.705
2005-02-09,29.6585
2005-02-10,29.6851
2005-02-11,29.6984
2005-02-14,29.6784
2005-02-15,29.6452
2005-02-16,29.8511
2005-02-17,29.7116
2005-02-18,29.3862
2005-02-22,28.7288
2005-02-23,28.8217
2005-02-24,28.8483
2005-02-25,29.1538
2005-02-28,29.3331
2005-03-01,29.8245
2005-03-02,29.964
2005-03-03,30.1035
2005-03-04,30.3824
2005-03-07,30.8074
2005-03-08,30.5617
2005-03-09,30.1765
2005-03-10,30.7343
2005-03-11,30.5086
2005-03-14,31.0398
2005-03-15,30.8207
2005-03-16,30.6945
2005-03-17,30.6642
2005-03-18,30.5097
2005-03-21,30.4224
2005-03-22,29.7777
2005-03-23,29.8449
2005-03-24,29.9792
2005-03-28,30.0866
2005-03-29,29.959
2005-03-30,30.3687
2005-03-31,30.5702
2005-04-01,30.5567
2005-04-04,30.7246
2005-04-05,30.7851
2005-04-06,30.8388
2005-04-07,30.8993
2005-04-08,30.8388
2005-04-11,30.8993
2005-04-12,31.0201
2005-04-13,31.0537
2005-04-14,30.7112
2005-04-15,30.1807
2005-04-18,30.3083
2005-04-19,30.3687
2005-04-20,29.8247
2005-04-21,30.174
2005-04-22,30.4157
2005-04-25,30.7246
2005-04-26,30.456
2005-04-27,30.9597
2005-04-28,30.5232
2005-04-29,30.859
2005-05-02,31.0537
2005-05-03,30.9261
2005-05-04,30.8455
2005-05-05,30.9798
2005-05-06,31.0537
2005-05-09,31.3962
2005-05-10,31.1947
2005-05-11,31.1545
2005-05-12,31.094
2005-05-13,30.4963
2005-05-16,31.1209
2005-05-17,31.1477
2005-05-18,30.9866
2005-05-19,31.0269
2005-05-20,31.094
2005-05-23,31.1343
2005-05-24,31.094
2005-05-25,31.1679
2005-05-26,31.3022
2005-05-27,31.5373
2005-05-31,31.9335
2005-06-01,32.1014
2005-06-02,31.7656
2005-06-03,31.7656
2005-06-06,31.7387
2005-06-07,31.7656
2005-06-08,31.9066
2005-06-09,31.8596
2005-06-10,31.9133
2005-06-13,32.0006
2005-06-14,32.1148
2005-06-15,31.9268
2005-06-16,31.8962
2005-06-17,31.9641
2005-06-20,31.9166
2005-06-21,31.7944
2005-06-22,31.8487
2005-06-23,31.8487
2005-06-24,31.516
2005-06-27,31.6179
2005-06-28,31.7401
2005-06-29,31.7944
2005-06-30,31.6993
2005-07-01,31.9913
2005-07-05,32.2153
2005-07-06,32.2764
2005-07-07,32.3918
2005-07-08,32.6498
2005-07-11,32.5819
2005-07-12,32.4869
2005-07-13,32.4597
2005-07-14,32.1814
2005-07-15,32.3918
2005-07-18,32.2968
2005-07-19,32.3307
2005-07-20,32.3647
2005-07-21,31.9777
2005-07-22,32.29
2005-07-25,32.256
2005-07-26,32.1203
2005-07-27,32.0999
2005-07-28,32.2289
2005-07-29,31.8962
2005-08-01,31.4956
2005-08-02,31.6314
2005-08-03,31.9709
2005-08-04,31.7333
2005-08-05,31.2444
2005-08-08,30.5587
2005-08-09,30.7963
2005-08-10,30.7352
2005-08-11,30.905
2005-08-12,30.9457
2005-08-15,30.8507
2005-08-16,30.3483
2005-08-17,30.3075
2005-08-18,30.5384
2005-08-19,30.5655
2005-08-22,30.8507
2005-08-23,30.9932
2005-08-24,30.8099
2005-08-25,30.9321
2005-08-26,30.8846
2005-08-29,31.0068
2005-08-30,30.8642
2005-08-31,31.034
2005-09-01,31.5703
2005-09-02,31.3734
2005-09-06,31.7265
2005-09-07,31.645
2005-09-08,31.387
2005-09-09,31.679
2005-09-12,31.7401
2005-09-13,31.5771
2005-09-14,31.516
2005-09-15,31.6224
2005-09-16,31.7459
2005-09-19,31.4164
2005-09-20,31.2379
2005-09-21,30.9289
2005-09-22,30.8809
2005-09-23,31.0045
2005-09-26,31.0319
2005-09-27,31.2036
2005-09-28,31.2997
2005-09-29,31.5537
2005-09-30,31.4713
2005-10-03,31.9382
2005-10-04,31.54
2005-10-05,30.8054
2005-10-06,30.4964
2005-10-07,30.6337
2005-10-10,30.16
2005-10-11,29.8579
2005-10-12,29.5833
2005-10-13,29.2057
2005-10-14,29.3911
2005-10-17,29.446
2005-10-18,29.0684
2005-10-19,29.1439
2005-10-20,28.7114
2005-10-21,28.7114
2005-10-24,29.1714
2005-10-25,29.3842
2005-10-26,29.0615
2005-10-27,28.8144
2005-10-28,29.3156
2005-10-31,29.6176
2005-11-01,29.343
2005-11-02,29.5902
2005-11-03,29.3499
2005-11-04,29.3293
2005-11-07,29.1233
2005-11-08,29.3087
2005-11-09,29.8305
2005-11-10,29.8785
2005-11-11,29.803
2005-11-14,29.4666
2005-11-15,29.5009
2005-11-16,29.6108
2005-11-17,29.7893
2005-11-18,29.8854
2005-11-21,30.0021
2005-11-22,30.0708
2005-11-23,30.3454
2005-11-25,30.4346
2005-11-28,30.2905
2005-11-29,30.2699
2005-11-30,29.954
2005-12-01,30.2218
2005-12-02,30.0227
2005-12-05,30.0433
2005-12-06,29.7961
2005-12-07,29.6932
2005-12-08,29.8167
2005-12-09,30.0433
2005-12-12,29.8373
2005-12-13,30.0227
2005-12-14,30.4003
2005-12-15,30.5912
2005-12-16,30.7023
2005-12-19,30.3064
2005-12-20,30.4592
2005-12-21,30.2299
2005-12-22,30.2925
2005-12-23,30.3341
2005-12-27,30.3341
2005-12-28,30.223
2005-12-29,30.1188
2005-12-30,29.9799
2006-01-03,30.3341
2006-01-04,30.2716
2006-01-05,30.0216
2006-01-06,30.3411
2006-01-09,30.348
2006-01-10,30.2508
2006-01-11,30.2716
2006-01-12,30.2925
2006-01-13,30.487
2006-01-17,30.6189
2006-01-18,30.5425
2006-01-19,30.5286
2006-01-20,30.0493
2006-01-23,30.0285
2006-01-24,30.5286
2006-01-25,29.6743
2006-01-26,29.5909
2006-01-27,29.4867
2006-01-30,29.3756
2006-01-31,29.32
2006-02-01,29.4381
2006-02-02,28.9866
2006-02-03,28.6045
2006-02-06,29.1811
2006-02-07,29.2089
2006-02-08,29.1672
2006-02-09,29.1602
2006-02-10,29.2019
2006-02-13,29.3408
2006-02-14,29.2783
2006-02-15,29.1672
2006-02-16,29.6048
2006-02-17,29.7507
2006-02-21,29.7576
2006-02-22,30.0216
2006-02-23,30.1396
2006-02-24,30.1396
2006-02-27,30.3897
2006-02-28,30.0632
2006-03-01,29.9174
2006-03-02,29.8826
2006-03-03,29.834
2006-03-06,29.4659
2006-03-07,29.4033
2006-03-08,29.3686
2006-03-09,29.2019
2006-03-10,29.3269
2006-03-13,29.6048
2006-03-14,29.6881
2006-03-15,29.9868
2006-03-16,30.0886
2006-03-17,30.1097
2006-03-20,29.6809
2006-03-21,29.5121
2006-03-22,29.5684
2006-03-23,29.491
2006-03-24,29.0692
2006-03-27,28.8091
2006-03-28,28.6967
2006-03-29,28.8865
2006-03-30,28.6404
2006-03-31,28.1835
2006-04-03,28.7037
2006-04-04,28.9146
2006-04-05,29.245
2006-04-06,29.0763
2006-04-07,28.4647
2006-04-10,28.1694
2006-04-11,27.853
2006-04-12,28.0499
2006-04-13,27.8671
2006-04-17,27.9093
2006-04-18,28.0358
2006-04-19,27.9163
2006-04-20,28.1905
2006-04-21,28.4506
2006-04-24,28.781
2006-04-25,28.303
2006-04-26,28.2397
2006-04-27,28.8443
2006-04-28,28.6826
2006-05-01,28.2397
2006-05-02,28.4436
2006-05-03,28.3662
2006-05-04,28.5068
2006-05-05,28.7459
2006-05-08,28.8302
2006-05-09,28.4014
2006-05-10,28.5279
2006-05-11,28.3733
2006-05-12,27.9304
2006-05-15,28.0921
2006-05-16,27.8109
2006-05-17,27.382
2006-05-18,27.5086
2006-05-19,27.832
2006-05-22,28.2186
2006-05-23,27.7195
2006-05-24,27.9093
2006-05-25,28.2678
2006-05-26,28.3944
2006-05-30,28.0147
2006-05-31,28.4084
2006-06-01,28.5771
2006-06-02,28.7951
2006-06-05,28.542
2006-06-06,28.3241
2006-06-07,28.5842
2006-06-08,28.9357
2006-06-09,29.0974
2006-06-12,29.2942
2006-06-13,29.0552
2006-06-14,28.9357
2006-06-15,28.982
2006-06-16,29.0034
2006-06-19,28.6759
2006-06-20,28.6189
2006-06-21,28.4054
2006-06-22,28.3199
2006-06-23,28.2488
2006-06-26,28.3627
2006-06-27,28.3128
2006-06-28,28.4125
2006-06-29,28.9037
2006-06-30,28.9891
2006-07-03,29.16
2006-07-05,29.0319
2006-07-06,29.0247
2006-07-07,29.2739
2006-07-10,29.5088
2006-07-11,29.637
2006-07-12,29.4732
2006-07-13,29.6227
2006-07-14,29.4519
2006-07-17,29.5516
2006-07-18,29.5658
2006-07-19,29.6939
2006-07-20,29.9716
2006-07-21,30.3204
2006-07-24,30.4059
2006-07-25,30.6265
2006-07-26,30.7333
2006-07-27,30.3204
2006-07-28,30.0001
2006-07-31,30.1424
2006-08-01,30.2208
2006-08-02,30.1069
2006-08-03,29.7011
2006-08-04,29.9431
2006-08-07,29.3665
2006-08-08,29.5872
2006-08-09,29.6299
2006-08-10,29.5373
2006-08-11,29.3736
2006-08-14,29.3237
2006-08-15,29.2881
2006-08-16,29.0532
2006-08-17,28.9607
2006-08-18,29.1956
2006-08-21,29.217
2006-08-22,29.2454
2006-08-23,28.8468
2006-08-24,29.1173
2006-08-25,29.0675
2006-08-28,29.5658
2006-08-29,29.7723
2006-08-30,29.459
2006-08-31,29.6868
2006-09-01,29.459
2006-09-05,29.2241
2006-09-06,29.0105
2006-09-07,29.3309
2006-09-08,29.3451
2006-09-11,29.2454
2006-09-12,29.3309
2006-09-13,29.6797
2006-09-14,29.489
2006-09-15,29.6764
2006-09-18,29.2583
2006-09-19,29.1934
2006-09-20,29.2799
2006-09-21,29.2006
2006-09-22,29.0637
2006-09-25,29.5106
2006-09-26,29.4097
2006-09-27,29.9863
2006-09-28,30.0368
2006-09-29,29.9287
2006-10-02,30.2026
2006-10-03,30.1593
2006-10-04,30.5269
2006-10-05,30.4549
2006-10-06,30.2386
2006-10-09,30.2386
2006-10-10,30.3035
2006-10-11,30.8801
2006-10-12,31.1541
2006-10-13,31.1396
2006-10-16,31.2838
2006-10-17,31.8388
2006-10-18,32.5669
2006-10-19,32.6173
2006-10-20,32.639
2006-10-23,32.675
2006-10-24,32.7687
2006-10-25,32.985
2006-10-26,32.6101
2006-10-27,32.5813
2006-10-30,32.6101
2006-10-31,32.711
2006-11-01,33.1435
2006-11-02,33.1435
2006-11-03,32.9633
2006-11-06,33.1652
2006-11-07,33.1291
2006-11-08,33.2084
2006-11-09,32.9777
2006-11-10,33.2805
2006-11-13,33.2084
2006-11-14,33.1868
2006-11-15,33.4463
2006-11-16,33.7346
2006-11-17,33.8283
2006-11-20,33.749
2006-11-21,33.7851
2006-11-22,33.8355
2006-11-24,33.8932
2006-11-27,33.54
2006-11-28,33.5904
2006-11-29,33.7851
2006-11-30,33.9581
2006-12-01,34.0806
2006-12-04,34.4122
2006-12-05,34.4338
2006-12-06,34.2896
2006-12-07,34.0446
2006-12-08,34.0302
2006-12-11,34.4482
2006-12-12,35.0465
2006-12-13,35.1402
2006-12-14,35.5483
2006-12-15,35.5046
2006-12-18,35.1402
2006-12-19,35.3807
2006-12-20,35.2787
2006-12-21,35.2495
2006-12-22,35.2277
2006-12-26,35.5556
2006-12-27,35.8325
2006-12-28,35.4244
2006-12-29,35.2568
2007-01-03,35.8908
2007-01-04,35.541
2007-01-05,34.7248
2007-01-08,34.5937
2007-01-09,34.4333
2007-01-10,34.3605
2007-01-11,34.0835
2007-01-12,33.4495
2007-01-16,33.741
2007-01-17,33.792
2007-01-18,33.5661
2007-01-19,33.5661
2007-01-22,33.4495
2007-01-23,33.4058
2007-01-24,33.9014
2007-01-25,33.6099
2007-01-26,33.5588
2007-01-29,33.6682
2007-01-30,33.7265
2007-01-31,33.7848
2007-02-01,34.0398
2007-02-02,34.2001
2007-02-05,34.3459
2007-02-06,34.4115
2007-02-07,34.4188
2007-02-08,34.5062
2007-02-09,34.4698
2007-02-12,34.069
2007-02-13,35.0746
2007-02-14,35.2131
2007-02-15,35.0528
2007-02-16,34.9799
2007-02-20,34.9508
2007-02-21,34.8414
2007-02-22,34.7831
2007-02-23,34.7977
2007-02-26,34.8925
2007-02-27,34.0034
2007-02-28,33.7192
2007-03-01,34.0471
2007-03-02,34.0034
2007-03-05,33.4131
2007-03-06,33.792
2007-03-07,33.7119
2007-03-08,33.6754
2007-03-09,33.8431
2007-03-12,33.8649
2007-03-13,33.5661
2007-03-14,33.7556
2007-03-15,34.3011
2007-03-16,34.1316
2007-03-19,34.478
2007-03-20,34.9646
2007-03-21,35.23
2007-03-22,35.0014
2007-03-23,35.2005
2007-03-26,35.37
2007-03-27,35.2816
2007-03-28,35.5175
2007-03-29,35.5322
2007-03-30,35.3332
2007-04-02,35.8934
2007-04-03,35.8566
2007-04-04,35.6281
2007-04-05,35.7018
2007-04-09,35.7829
2007-04-10,36.0482
2007-04-11,35.945
2007-04-12,36.122
2007-04-13,35.9229
2007-04-16,36.063
2007-04-17,36.2915
2007-04-18,36.1588
2007-04-19,35.9156
2007-04-20,36.6306
2007-04-23,36.7412
2007-04-24,36.9697
2007-04-25,37.9281
2007-04-26,37.9649
2007-04-27,37.6037
2007-04-30,37.3015
2007-05-01,37.8322
2007-05-02,37.8543
2007-05-03,37.9723
2007-05-04,37.8617
2007-05-07,38.1566
2007-05-08,38.2377
2007-05-09,38.2598
2007-05-10,38.1345
2007-05-11,38.3188
2007-05-14,38.7758
2007-05-15,38.7979
2007-05-16,38.9306
2007-05-17,38.9159
2007-05-18,38.9601
2007-05-21,39.5793
2007-05-22,39.9553
2007-05-23,39.454
2007-05-24,38.5842
2007-05-25,38.4515
2007-05-29,38.5326
2007-05-30,38.8643
2007-05-31,38.9601
2007-06-01,38.8201
2007-06-04,38.6726
2007-06-05,38.6284
2007-06-06,37.8986
2007-06-07,36.4095
2007-06-08,36.896
2007-06-11,37.3899
2007-06-12,36.8886
2007-06-13,37.7585
2007-06-14,37.9892
2007-06-15,38.25
2007-06-18,37.8179
2007-06-19,37.9371
2007-06-20,36.9464
2007-06-21,36.8645
2007-06-22,36.1568
2007-06-25,36.127
2007-06-26,35.7546
2007-06-27,36.1941
2007-06-28,35.9185
2007-06-29,35.8961
2007-07-02,36.2984
2007-07-03,36.5665
2007-07-05,36.492
2007-07-06,36.1866
2007-07-09,36.4175
2007-07-10,35.9855
2007-07-11,36.5218
2007-07-12,37.6987
2007-07-13,37.9073
2007-07-16,37.4902
2007-07-17,37.3263
2007-07-18,37.587
2007-07-19,38.2053
2007-07-20,37.8701
2007-07-23,38.1308
2007-07-24,36.8421
2007-07-25,37.0432
2007-07-26,36.1866
2007-07-27,34.9054
2007-07-30,35.2183
2007-07-31,34.5479
2007-08-01,35.9185
2007-08-02,35.8812
2007-08-03,34.4212
2007-08-06,36.0227
2007-08-07,36.5442
2007-08-08,37.0954
2007-08-09,36.0227
2007-08-10,35.8291
2007-08-13,36.6782
2007-08-14,35.479
2007-08-15,34.7043
2007-08-16,34.9799
2007-08-17,35.4715
2007-08-20,35.3449
2007-08-21,35.7695
2007-08-22,35.9483
2007-08-23,35.9408
2007-08-24,36.492
2007-08-27,35.4417
2007-08-28,34.7639
2007-08-29,35.8142
2007-08-30,35.4864
2007-08-31,35.5833
2007-09-04,36.1941
2007-09-05,36.0749
2007-09-06,36.0674
2007-09-07,35.5982
2007-09-10,35.546
2007-09-11,35.7695
2007-09-12,35.9483
2007-09-13,36.0153
2007-09-14,36.2686
2007-09-17,36.3584
2007-09-18,36.8328
2007-09-19,37.2395
2007-09-20,36.8177
2007-09-21,37.0663
2007-09-24,36.9985
2007-09-25,37.0587
2007-09-26,37.3825
2007-09-27,37.3148
2007-09-28,36.4261
2007-10-01,36.9081
2007-10-02,36.8403
2007-10-03,36.4111
2007-10-04,36.8629
2007-10-05,36.7801
2007-10-08,36.8403
2007-10-09,37.7064
2007-10-10,37.6085
2007-10-11,38.0076
2007-10-12,38.0453
2007-10-15,37.3223
2007-10-16,37.1416
2007-10-17,36.6671
2007-10-18,36.6897
2007-10-19,35.8538
2007-10-22,36.2153
2007-10-23,35.7107
2007-10-24,36.1249
2007-10-25,36.5466
2007-10-26,36.8403
2007-10-29,36.9458
2007-10-30,37.0361
2007-10-31,37.3825
2007-11-01,36.7198
2007-11-02,36.8931
2007-11-05,36.8705
2007-11-06,36.6295
2007-11-07,35.6204
2007-11-08,36.4563
2007-11-09,36.1626
2007-11-12,35.8689
2007-11-13,36.2529
2007-11-14,36.0797
2007-11-15,36.155
2007-11-16,36.4789
2007-11-19,36.4487
2007-11-20,36.9382
2007-11-21,36.7048
2007-11-23,36.7198
2007-11-26,36.5918
2007-11-27,36.5542
2007-11-28,36.6897
2007-11-29,36.4638
2007-11-30,36.8177
2007-12-03,37.2922
2007-12-04,37.4353
2007-12-05,38.1808
2007-12-06,38.339
2007-12-07,38.0904
2007-12-10,38.0829
2007-12-11,37.2771
2007-12-12,36.7274
2007-12-13,36.9866
2007-12-14,35.6086
2007-12-17,35.0223
2007-12-18,34.9158
2007-12-19,34.9538
2007-12-20,34.596
2007-12-21,34.4285
2007-12-24,34.5884
2007-12-26,34.3904
2007-12-27,33.8118
2007-12-28,34.0326
2007-12-31,33.4844
2008-01-02,33.5758
2008-01-03,33.0733
2008-01-04,32.7611
2008-01-07,33.1646
2008-01-08,33.0885
2008-01-09,33.6291
2008-01-10,33.8955
2008-01-11,33.6824
2008-01-14,34.3828
2008-01-15,33.7052
2008-01-16,33.7966
2008-01-17,32.7307
2008-01-18,32.5555
2008-01-22,31.6495
2008-01-23,33.2941
2008-01-24,31.8856
2008-01-25,31.5353
2008-01-28,31.9236
2008-01-29,31.8475
2008-01-30,31.8703
2008-01-31,32.5403
2008-02-01,33.157
2008-02-04,33.3626
2008-02-05,32.3881
2008-02-06,32.4413
2008-02-07,31.7866
2008-02-08,31.817
2008-02-11,31.8475
2008-02-12,32.0683
2008-02-13,31.779
2008-02-14,31.5429
2008-02-15,31.8018
2008-02-19,32.2586
2008-02-20,32.2282
2008-02-21,31.4744
2008-02-22,31.7409
2008-02-25,31.7866
2008-02-26,32.0531
2008-02-27,31.345
2008-02-28,31.5582
2008-02-29,30.3324
2008-03-03,30.576
2008-03-04,30.9567
2008-03-05,30.8806
2008-03-06,30.104
2008-03-07,30.1192
2008-03-10,30.0659
2008-03-11,30.9186
2008-03-12,30.5151
2008-03-13,30.2639
2008-03-14,29.9669
2008-03-17,29.937
2008-03-18,30.4155
2008-03-19,30.0219
2008-03-20,30.3152
2008-03-24,30.1299
2008-03-25,29.9447
2008-03-26,29.9756
2008-03-27,30.1994
2008-03-28,29.8444
2008-03-31,29.9679
2008-04-01,30.6007
2008-04-02,30.9712
2008-04-03,31.002
2008-04-04,31.2953
2008-04-07,31.195
2008-04-08,30.8091
2008-04-09,30.9943
2008-04-10,31.1796
2008-04-11,31.3956
2008-04-14,31.6966
2008-04-15,32.0748
2008-04-16,32.6459
2008-04-17,32.6691
2008-04-18,32.862
2008-04-21,32.3295
2008-04-22,31.9976
2008-04-23,32.0362
2008-04-24,31.7661
2008-04-25,31.6195
2008-04-28,31.6117
2008-04-29,31.3107
2008-04-30,31.141
2008-05-01,31.9745
2008-05-02,32.2137
2008-05-05,32.1829
2008-05-06,32.5224
2008-05-07,32.5379
2008-05-08,32.8157
2008-05-09,32.808
2008-05-12,33.1013
2008-05-13,33.109
2008-05-14,33.6801
2008-05-15,33.7187
2008-05-16,33.8113
2008-05-19,34.1895
2008-05-20,33.8576
2008-05-21,33.6801
2008-05-22,34.0351
2008-05-23,33.5798
2008-05-27,33.7341
2008-05-28,34.1277
2008-05-29,34.3052
2008-05-30,34.066
2008-06-02,33.5875
2008-06-03,33.8422
2008-06-04,34.3129
2008-06-05,34.3747
2008-06-06,33.6801
2008-06-09,34.228
2008-06-10,34.2512
2008-06-11,33.8036
2008-06-12,34.0372
2008-06-13,34.4121
2008-06-16,34.1778
2008-06-17,34.459
2008-06-18,34.2168
2008-06-19,34.2559
2008-06-20,33.6309
2008-06-23,33.7247
2008-06-24,33.6778
2008-06-25,34.1465
2008-06-26,33.0763
2008-06-27,32.4279
2008-06-30,33.1153
2008-07-01,33.4981
2008-07-02,33.8028
2008-07-03,33.3653
2008-07-07,33.5919
2008-07-08,34.1309
2008-07-09,34.7637
2008-07-10,34.6465
2008-07-11,34.1387
2008-07-14,33.6934
2008-07-15,33.6466
2008-07-16,32.92
2008-07-17,32.631
2008-07-18,32.7091
2008-07-21,32.9903
2008-07-22,32.8029
2008-07-23,32.2326
2008-07-24,32.3029
2008-07-25,32.0841
2008-07-28,32.0217
2008-07-29,32.0841
2008-07-30,32.3654
2008-07-31,31.9904
2008-08-01,31.1233
2008-08-04,31.0139
2008-08-05,31.9435
2008-08-06,31.7248
2008-08-07,31.4045
2008-08-08,31.967
2008-08-11,32.2638
2008-08-12,32.217
2008-08-13,32.4201
2008-08-14,32.2482
2008-08-15,32.5607
2008-08-18,33.0685
2008-08-19,32.9903
2008-08-20,32.8341
2008-08-21,32.8341
2008-08-22,33.1544
2008-08-25,32.6544
2008-08-26,32.7326
2008-08-27,33.1388
2008-08-28,33.3575
2008-08-29,32.9747
2008-09-02,32.6154
2008-09-03,32.6388
2008-09-04,32.5529
2008-09-05,32.4201
2008-09-08,33.6622
2008-09-09,33.795
2008-09-10,33.9825
2008-09-11,34.4251
2008-09-12,34.4805
2008-09-15,34.006
2008-09-16,33.7213
2008-09-17,32.5825
2008-09-18,33.2863
2008-09-19,33.484
2008-09-22,32.7011
2008-09-23,32.1475
2008-09-24,32.2662
2008-09-25,32.4481
2008-09-26,32.2424
2008-09-29,31.2302
2008-09-30,31.499
2008-10-01,32.2029
2008-10-02,31.7442
2008-10-03,31.0483
2008-10-06,29.7908
2008-10-07,28.7311
2008-10-08,27.8612
2008-10-09,25.7576
2008-10-10,24.255
2008-10-13,26.6828
2008-10-14,27.3234
2008-10-15,25.7971
2008-10-16,26.6196
2008-10-17,26.6275
2008-10-20,28.5888
2008-10-21,27.4895
2008-10-22,26.5959
2008-10-23,26.6591
2008-10-24,26.1372
2008-10-27,25.6231
2008-10-28,28.826
2008-10-29,27.45
2008-10-30,28.9526
2008-10-31,27.9245
2008-11-03,29.9253
2008-11-04,30.1783
2008-11-05,29.1582
2008-11-06,28.1143
2008-11-07,29.8857
2008-11-10,28.7548
2008-11-11,28.4701
2008-11-12,27.7109
2008-11-13,29.7671
2008-11-14,29.087
2008-11-17,28.6995
2008-11-18,28.6283
2008-11-19,27.9245
2008-11-20,26.4535
2008-11-21,29.0475
2008-11-24,28.4148
2008-11-25,28.478
2008-11-26,28.6995
2008-11-28,29.4112
2008-12-01,27.6319
2008-12-02,28.2092
2008-12-03,28.486
2008-12-04,26.5879
2008-12-05,27.0466
2008-12-08,27.3392
2008-12-09,27.3867
2008-12-10,27.8612
2008-12-11,27.6773
2008-12-12,27.5488
2008-12-15,27.2758
2008-12-16,28.3276
2008-12-17,27.7977
2008-12-18,27.8298
2008-12-19,27.9904
2008-12-22,28.0948
2008-12-23,27.9101
2008-12-24,28.167
2008-12-26,28.2393
2008-12-29,28.424
2008-12-30,28.697
2008-12-31,28.7532
2009-01-02,29.0583
2009-01-05,29.3875
2009-01-06,29.0663
2009-01-07,28.6408
2009-01-08,28.697
2009-01-09,28.5203
2009-01-12,28.6247
2009-01-13,27.9342
2009-01-14,27.4203
2009-01-15,27.4605
2009-01-16,27.8138
2009-01-20,27.3079
2009-01-21,27.5006
2009-01-22,27.5247
2009-01-23,27.1072
2009-01-26,27.6692
2009-01-27,28.3357
2009-01-28,28.5123
2009-01-29,28.0948
2009-01-30,27.605
2009-02-02,27.7977
2009-02-03,27.5889
2009-02-04,27.6853
2009-02-05,27.8619
2009-02-06,28.0305
2009-02-09,27.9663
2009-02-10,26.9385
2009-02-11,26.6415
2009-02-12,26.2561
2009-02-13,26.2721
2009-02-17,24.7144
2009-02-18,24.4976
2009-02-19,24.2086
2009-02-20,23.6144
2009-02-23,23.0925
2009-02-24,23.4779
2009-02-25,22.9078
2009-02-26,22.2815
2009-02-27,21.5348
2009-03-02,20.3464
2009-03-03,19.3508
2009-03-04,19.9048
2009-03-05,18.9895
2009-03-06,19.3187
2009-03-09,18.9172
2009-03-10,19.6479
2009-03-11,20.3785
2009-03-12,20.6658
2009-03-13,20.9282
2009-03-16,21.289
2009-03-17,21.3218
2009-03-18,22.0517
2009-03-19,22.4125
2009-03-20,22.3305
2009-03-23,23.4376
2009-03-24,22.9455
2009-03-25,23.2326
2009-03-26,23.4622
2009-03-27,23.1998
2009-03-30,22.6257
2009-03-31,22.6749
2009-04-01,22.7651
2009-04-02,23.2244
2009-04-03,23.3802
2009-04-06,23.5524
2009-04-07,23.0604
2009-04-08,23.4048
2009-04-09,23.6098
2009-04-13,23.4704
2009-04-14,23.2326
2009-04-15,23.6016
2009-04-16,23.7164
2009-04-17,23.8476
2009-04-20,23.6754
2009-04-21,23.3228
2009-04-22,23.0276
2009-04-23,22.9291
2009-04-24,22.9045
2009-04-27,23.2654
2009-04-28,23.0604
2009-04-29,23.4212
2009-04-30,24.3233
2009-05-01,24.9711
2009-05-04,24.8891
2009-05-05,25.2909
2009-05-06,25.3237
2009-05-07,25.6354
2009-05-08,25.9142
2009-05-11,25.4796
2009-05-12,25.496
2009-05-13,24.7333
2009-05-14,24.5201
2009-05-15,24.1264
2009-05-18,24.2987
2009-05-19,24.6267
2009-05-20,24.2085
2009-05-21,23.7984
2009-05-22,23.8886
2009-05-26,24.6513
2009-05-27,24.0608
2009-05-28,24.7907
2009-05-29,24.7989
2009-06-01,25.8486
2009-06-02,25.6436
2009-06-03,25.373
2009-06-04,25.5944
2009-06-05,25.8158
2009-06-08,25.5944
2009-06-09,25.3402
2009-06-10,25.66
2009-06-11,26.2767
2009-06-12,26.5854
2009-06-15,26.0765
2009-06-16,25.9597
2009-06-17,26.1349
2009-06-18,26.6438
2009-06-19,26.1015
2009-06-22,26.2684
2009-06-23,25.7762
2009-06-24,25.9514
2009-06-25,26.5854
2009-06-26,26.6271
2009-06-29,27.0108
2009-06-30,26.6771
2009-07-01,27.0859
2009-07-02,26.4853
2009-07-06,26.8523
2009-07-07,26.1933
2009-07-08,26.0598
2009-07-09,26.0265
2009-07-10,25.7428
2009-07-13,26.235
2009-07-14,26.5437
2009-07-15,27.1609
2009-07-16,27.3194
2009-07-17,27.236
2009-07-20,27.3111
2009-07-21,27.5864
2009-07-22,27.578
2009-07-23,28.3705
2009-07-24,28.9211
2009-07-27,29.163
2009-07-28,28.896
2009-07-29,28.6541
2009-07-30,29.2214
2009-07-31,28.7542
2009-08-03,28.5373
2009-08-04,28.504
2009-08-05,28.2871
2009-08-06,28.2454
2009-08-07,28.7292
2009-08-10,28.5874
2009-08-11,28.4623
2009-08-12,28.4289
2009-08-13,28.2788
2009-08-14,28.4122
2009-08-17,28.3121
2009-08-18,28.3538
2009-08-19,28.9544
2009-08-20,29.0295
2009-08-21,29.4633
2009-08-24,29.4633
2009-08-25,29.555
2009-08-26,29.505
2009-08-27,29.3715
2009-08-28,29.2631
2009-08-31,28.9795
2009-09-01,28.7459
2009-09-02,28.5207
2009-09-03,28.8794
2009-09-04,29.0962
2009-09-08,29.1546
2009-09-09,29.1713
2009-09-10,29.4883
2009-09-11,29.2464
2009-09-14,29.797
2009-09-15,29.9221
2009-09-16,30.3225
2009-09-17,29.9071
2009-09-18,29.8732
2009-09-21,29.7801
2009-09-22,29.3653
2009-09-23,29.6277
2009-09-24,29.7716
2009-09-25,29.6701
2009-09-28,29.9748
2009-09-29,30.1356
2009-09-30,29.7208
2009-10-01,29.4076
2009-10-02,28.7812
2009-10-05,28.9167
2009-10-06,29.2214
2009-10-07,29.4246
2009-10-08,29.5007
2009-10-09,29.7039
2009-10-12,30.0848
2009-10-13,30.2034
2009-10-14,30.4404
2009-10-15,30.7113
2009-10-16,30.889
2009-10-19,32.0911
2009-10-20,32.7005
2009-10-21,32.6582
2009-10-22,32.6836
2009-10-23,32.0657
2009-10-26,31.7694
2009-10-27,32.0657
2009-10-28,31.8371
2009-10-29,32.5397
2009-10-30,31.2869
2009-11-02,31.3292
2009-11-03,31.7863
2009-11-04,31.9133
2009-11-05,32.6074
2009-11-06,32.4127
2009-11-09,33.1831
2009-11-10,33.2762
2009-11-11,33.4031
2009-11-12,33.3778
2009-11-13,33.6063
2009-11-16,34.0126
2009-11-17,34.0296
2009-11-18,34.0973
2009-11-19,33.691
2009-11-20,33.6232
2009-11-23,33.9872
2009-11-24,34.0888
2009-11-25,34.3936
2009-11-27,33.7164
2009-11-30,33.9703
2009-12-01,34.6983
2009-12-02,35.4602
2009-12-03,35.6041
2009-12-04,35.6972
2009-12-07,36.0527
2009-12-08,36.112
2009-12-09,36.1966
2009-12-10,36.5945
2009-12-11,37.1955
2009-12-14,37.4071
2009-12-15,37.2209
2009-12-16,37.0431
2009-12-17,36.4171
2009-12-18,36.8284
2009-12-21,37.1026
2009-12-22,37.1026
2009-12-23,37.6424
2009-12-24,38.1908
2009-12-28,38.2422
2009-12-29,38.1994
2009-12-30,38.0109
2009-12-31,37.3939
2010-01-04,37.3082
2010-01-05,36.8884
2010-01-06,37.0426
2010-01-07,36.6913
2010-01-08,37.0083
2010-01-11,37.4796
2010-01-12,37.4625
2010-01-13,37.8224
2010-01-14,37.968
2010-01-15,37.6596
2010-01-19,37.9937
2010-01-20,37.5739
2010-01-21,36.7341
2010-01-22,36.0572
2010-01-25,36.5628
2010-01-26,36.8884
2010-01-27,36.6227
2010-01-28,36.3657
2010-01-29,36.0315
2010-02-01,36.4685
2010-02-02,36.8627
2010-02-03,36.5799
2010-02-04,35.7916
2010-02-05,35.7487
2010-02-08,35.5431
2010-02-09,35.9972
2010-02-10,35.9372
2010-02-11,36.2714
2010-02-12,35.9201
2010-02-16,36.8798
2010-02-17,36.7684
2010-02-18,37.3082
2010-02-19,38.2508
2010-02-22,38.2165
2010-02-23,37.6681
2010-02-24,37.8995
2010-02-25,37.6424
2010-02-26,37.2226
2010-03-01,38.0195
2010-03-02,38.2508
2010-03-03,38.1908
2010-03-04,38.3108
2010-03-05,38.6364
2010-03-08,38.4393
2010-03-09,38.4822
2010-03-10,38.3965
2010-03-11,38.4393
2010-03-12,38.4136
2010-03-15,38.5936
2010-03-16,39.0905
2010-03-17,39.2448
2010-03-18,39.0972
2010-03-19,39.0885
2010-03-22,38.9758
2010-03-23,39.2272
2010-03-24,39.0539
2010-03-25,38.7244
2010-03-26,38.7418
2010-03-29,39.3053
2010-03-30,39.1666
2010-03-31,38.6204
2010-04-01,39.3053
2010-04-05,39.6347
2010-04-06,40.2675
2010-04-07,39.9554
2010-04-08,39.7734
2010-04-09,39.9814
2010-04-12,40.0855
2010-04-13,39.8687
2010-04-14,39.8514
2010-04-15,39.9468
2010-04-16,39.5827
2010-04-19,39.8081
2010-04-20,40.0421
2010-04-21,40.5709
2010-04-22,40.9957
2010-04-23,41.5159
2010-04-26,41.2558
2010-04-27,40.623
2010-04-28,41.88
2010-04-29,41.6806
2010-04-30,41.7933
2010-05-03,42.3307
2010-05-04,41.7152
2010-05-05,41.2905
2010-05-06,40.2935
2010-05-07,39.6434
2010-05-10,41.1258
2010-05-11,41.4118
2010-05-12,41.5679
2010-05-13,41.4292
2010-05-14,41.0131
2010-05-17,41.2905
2010-05-18,40.909
2010-05-19,40.2675
2010-05-20,39.0279
2010-05-21,39.3226
2010-05-24,38.9325
2010-05-25,38.7851
2010-05-26,38.6117
2010-05-27,39.418
2010-05-28,39.496
2010-06-01,38.9845
2010-06-02,39.5653
2010-06-03,39.8167
2010-06-04,38.473
2010-06-07,38.499
2010-06-08,39.1059
2010-06-09,39.1666
2010-06-10,40.0161
2010-06-11,39.9901
2010-06-14,40.2935
2010-06-15,41.4118
2010-06-16,41.8193
2010-06-17,42.3627
2010-06-18,42.3277
2010-06-21,42.0822
2010-06-22,41.1531
2010-06-23,40.7499
2010-06-24,40.7149
2010-06-25,40.8025
2010-06-28,41.0392
2010-06-29,39.9961
2010-06-30,40.0136
2010-07-01,39.5228
2010-07-02,39.8646
2010-07-06,40.1889
2010-07-07,41.4774
2010-07-08,41.5476
2010-07-09,41.8631
2010-07-12,41.7842
2010-07-13,42.2225
2010-07-14,41.9858
2010-07-15,42.2663
2010-07-16,41.3021
2010-07-19,41.7579
2010-07-20,41.8368
2010-07-21,40.9953
2010-07-22,41.8018
2010-07-23,42.091
2010-07-26,42.3627
2010-07-27,42.9149
2010-07-28,42.5994
2010-07-29,42.1787
2010-07-30,40.4607
2010-08-02,40.7587
2010-08-03,40.5308
2010-08-04,40.7499
2010-08-05,41.0129
2010-08-06,41.0392
2010-08-09,41.4774
2010-08-10,41.4248
2010-08-11,40.522
2010-08-12,40.5133
2010-08-13,40.5658
2010-08-16,40.7061
2010-08-17,40.8814
2010-08-18,40.7236
2010-08-19,40.1977
2010-08-20,40.2854
2010-08-23,40.4782
2010-08-24,40.4607
2010-08-25,40.4694
2010-08-26,40.487
2010-08-27,41.3372
2010-08-30,40.8463
2010-08-31,41.1093
2010-09-01,41.8982
2010-09-02,41.5388
2010-09-03,41.644
2010-09-07,41.3372
2010-09-08,41.1093
2010-09-09,41.3284
2010-09-10,41.644
2010-09-13,41.9508
2010-09-14,42.3101
2010-09-15,42.2137
2010-09-16,41.4064
2010-09-17,41.096
2010-09-20,41.3
2010-09-21,40.7501
2010-09-22,40.892
2010-09-23,40.2979
2010-09-24,40.6615
2010-09-27,40.7679
2010-09-28,40.7856
2010-09-29,40.9275
2010-09-30,40.7501
2010-10-01,41.2468
2010-10-04,41.1138
2010-10-05,41.7079
2010-10-06,41.4951
2010-10-07,41.5217
2010-10-08,41.8942
2010-10-11,42.0893
2010-10-12,41.6902
2010-10-13,41.7434
2010-10-14,41.5749
2010-10-15,41.7789
2010-10-18,41.8587
2010-10-19,41.566
2010-10-20,41.9385
2010-10-21,41.6459
2010-10-22,41.5926
2010-10-25,41.5217
2010-10-26,41.7257
2010-10-27,41.7434
2010-10-28,41.8764
2010-10-29,41.5394
2010-11-01,40.4752
2010-11-02,41.0694
2010-11-03,41.0517
2010-11-04,41.7434
2010-11-05,41.5749
2010-11-08,41.2024
2010-11-09,41.0605
2010-11-10,40.7679
2010-11-11,40.8654
2010-11-12,40.5639
2010-11-15,40.5816
2010-11-16,40.0229
2010-11-17,39.881
2010-11-18,40.1826
2010-11-19,40.5196
2010-11-22,40.6969
2010-11-23,39.9963
2010-11-24,40.2624
2010-11-26,39.9963
2010-11-29,39.7125
2010-11-30,39.5263
2010-12-01,40.2535
2010-12-02,40.3954
2010-12-03,40.422
2010-12-06,40.1914
2010-12-07,40.2979
2010-12-08,40.1648
2010-12-09,40.4841
2010-12-10,40.892
2010-12-13,40.9985
2010-12-14,40.9275
2010-12-15,40.2801
2010-12-16,40.4398
2010-12-17,40.218
2010-12-20,40.4752
2010-12-21,40.3865
2010-12-22,40.7548
2010-12-23,40.8177
2010-12-27,40.4675
2010-12-28,40.5573
2010-12-29,40.6022
2010-12-30,40.7368
2010-12-31,40.6471
2011-01-03,40.9074
2011-01-04,41.114
2011-01-05,41.1499
2011-01-06,41.0331
2011-01-07,41.5629
2011-01-10,41.4462
2011-01-11,41.7245
2011-01-12,41.8592
2011-01-13,41.94
2011-01-14,42.1016
2011-01-18,42.1016
2011-01-19,41.7694
2011-01-20,41.922
2011-01-21,41.7874
2011-01-24,42.0837
2011-01-25,42.1016
2011-01-26,41.8143
2011-01-27,42.2543
2011-01-28,41.4821
2011-01-31,41.5719
2011-02-01,41.8233
2011-02-02,41.5
2011-02-03,41.6617
2011-02-04,41.5539
2011-02-07,41.6347
2011-02-08,41.6437
2011-02-09,42.1914
2011-02-10,42.0567
2011-02-11,42.1555
2011-02-14,41.8592
2011-02-15,41.922
2011-02-16,41.931
2011-02-17,42.0747
2011-02-18,42.2902
2011-02-22,41.6886
2011-02-23,41.8412
2011-02-24,41.8682
2011-02-25,42.1914
2011-02-28,42.2722
2011-03-01,41.9041
2011-03-02,42.1286
2011-03-03,42.7212
2011-03-04,42.811
2011-03-07,43.1791
2011-03-08,43.7268
2011-03-09,44.1578
2011-03-10,43.5652
2011-03-11,43.9872
2011-03-14,43.4574
2011-03-15,43.2868
2011-03-16,42.7661
2011-03-17,42.9292
2011-03-18,42.702
2011-03-21,43.3198
2011-03-22,43.1654
2011-03-23,43.1109
2011-03-24,43.3017
2011-03-25,43.4198
2011-03-28,43.1835
2011-03-29,43.7014
2011-03-30,44.5191
2011-03-31,44.4646
2011-04-01,44.8099
2011-04-04,44.8371
2011-04-05,44.9461
2011-04-06,45.1188
2011-04-07,44.9643
2011-04-08,44.7099
2011-04-11,44.2556
2011-04-12,43.9104
2011-04-13,44.0467
2011-04-14,44.0012
2011-04-15,44.8371
2011-04-18,44.3556
2011-04-19,44.2647
2011-04-20,44.828
2011-04-21,44.9461
2011-04-25,44.8916
2011-04-26,44.3919
2011-04-27,45.0552
2011-04-28,45.4095
2011-04-29,45.9274
2011-05-02,46.3998
2011-05-03,46.7814
2011-05-04,46.7996
2011-05-05,46.1727
2011-05-06,46.4907
2011-05-09,46.4998
2011-05-10,47.2539
2011-05-11,47.2084
2011-05-12,47.6627
2011-05-13,47.7081
2011-05-16,47.2993
2011-05-17,47.3356
2011-05-18,46.945
2011-05-19,47.1448
2011-05-20,47.1267
2011-05-23,46.7632
2011-05-24,46.8268
2011-05-25,46.4453
2011-05-26,46.3726
2011-05-27,46.4543
2011-05-31,46.9086
2011-06-01,46.2545
2011-06-02,46.0727
2011-06-03,45.6821
2011-06-06,45.4186
2011-06-07,45.4095
2011-06-08,45.2096
2011-06-09,45.037
2011-06-10,44.8189
2011-06-13,45.1369
2011-06-14,45.246
2011-06-15,44.8916
2011-06-16,45.046
2011-06-17,45.3035
2011-06-20,45.3218
2011-06-21,45.6621
2011-06-22,45.2483
2011-06-23,44.7609
2011-06-24,45.1104
2011-06-27,45.4965
2011-06-28,45.7264
2011-06-29,45.9655
2011-06-30,46.039
2011-07-01,46.7195
2011-07-05,46.5264
2011-07-06,46.3976
2011-07-07,46.5632
2011-07-08,46.2873
2011-07-11,45.6988
2011-07-12,45.9931
2011-07-13,45.7908
2011-07-14,45.8276
2011-07-15,46.2781
2011-07-18,45.754
2011-07-19,46.0023
2011-07-20,46.4528
2011-07-21,47.501
2011-07-22,47.0781
2011-07-25,47.1424
2011-07-26,46.931
2011-07-27,46.6551
2011-07-28,46.8298
2011-07-29,45.9011
2011-08-01,45.3586
2011-08-02,44.5127
2011-08-03,44.6046
2011-08-04,43.3541
2011-08-05,43.4001
2011-08-08,40.5313
2011-08-09,42.1496
2011-08-10,41.4876
2011-08-11,43.6116
2011-08-12,43.1702
2011-08-15,44.5127
2011-08-16,44.3472
2011-08-17,44.4943
2011-08-18,43.915
2011-08-19,43.6208
2011-08-22,43.4185
2011-08-23,44.9908
2011-08-24,45.9011
2011-08-25,45.3862
2011-08-26,45.3862
2011-08-29,46.2321
2011-08-30,46.1402
2011-08-31,46.4252
2011-09-01,45.9287
2011-09-02,45.6161
2011-09-06,44.9816
2011-09-07,45.469
2011-09-08,45.4506
2011-09-09,44.6138
2011-09-12,45.1839
2011-09-13,45.5609
2011-09-14,45.6712
2011-09-15,46.5632
2011-09-16,47.0192
2011-09-19,46.8331
2011-09-20,47.4472
2011-09-21,46.1538
2011-09-22,44.8232
2011-09-23,45.093
2011-09-26,45.7537
2011-09-27,45.9305
2011-09-28,45.1954
2011-09-29,45.9584
2011-09-30,45.642
2011-10-03,44.7859
2011-10-04,45.3256
2011-10-05,45.5304
2011-10-06,46.3957
2011-10-07,46.405
2011-10-10,47.4193
2011-10-11,47.0099
2011-10-12,46.6191
2011-10-13,46.8145
2011-10-14,47.0564
2011-10-17,46.9447
2011-10-18,47.2146
2011-10-19,47.3728
2011-10-20,47.7357
2011-10-21,48.2754
2011-10-24,48.3219
2011-10-25,47.5031
2011-10-26,47.4472
2011-10-27,48.4894
2011-10-28,48.6383
2011-10-31,48.5266
2011-11-01,47.1867
2011-11-02,48.2847
2011-11-03,48.5825
2011-11-04,48.4801
2011-11-07,48.3778
2011-11-08,48.6755
2011-11-09,47.3635
2011-11-10,47.6054
2011-11-11,48.5732
2011-11-14,48.0614
2011-11-15,48.6104
2011-11-16,47.7357
2011-11-17,47.2797
2011-11-18,47.624
2011-11-21,47.2053
2011-11-22,46.5446
2011-11-23,45.9398
2011-11-25,45.9956
2011-11-28,46.7214
2011-11-29,47.4007
2011-11-30,49.0012
2011-12-01,48.9733
2011-12-02,48.1358
2011-12-05,48.6569
2011-12-06,48.9733
2011-12-07,48.6104
2011-12-08,47.8287
2011-12-09,48.629
2011-12-12,48.3312
2011-12-13,48.3778
2011-12-14,48.1451
2011-12-15,48.4729
2011-12-16,48.4352
2011-12-19,49.1506
2011-12-20,50.44
2011-12-21,51.0424
2011-12-22,50.9954
2011-12-23,51.4848
2011-12-27,51.7954
2011-12-28,51.3907
2011-12-29,51.8236
2011-12-30,51.306
2012-01-03,50.7036
2012-01-04,50.4212
2012-01-05,50.8353
2012-01-06,50.393
2012-01-09,50.44
2012-01-10,50.5436
2012-01-11,50.4212
2012-01-12,50.4306
2012-01-13,50.3271
2012-01-17,50.4024
2012-01-18,50.3647
2012-01-19,49.8753
2012-01-20,50.4683
2012-01-23,50.1671
2012-01-24,49.8094
2012-01-25,50.9106
2012-01-26,51.1365
2012-01-27,50.4494
2012-01-30,50.0071
2012-01-31,50.1012
2012-02-01,50.2894
2012-02-02,50.4024
2012-02-03,50.5624
2012-02-06,50.0259
2012-02-07,51.193
2012-02-08,51.2777
2012-02-09,51.0801
2012-02-10,50.713
2012-02-13,50.5247
2012-02-14,50.2141
2012-02-15,50.0541
2012-02-16,50.7695
2012-02-17,51.1083
2012-02-21,51.146
2012-02-22,51.1648
2012-02-23,51.6166
2012-02-24,51.6071
2012-02-27,51.1648
2012-02-28,51.1836
2012-02-29,50.8448
2012-03-01,51.2212
2012-03-02,51.146
2012-03-05,51.193
2012-03-06,50.76
2012-03-07,51.0706
2012-03-08,51.7483
2012-03-09,52.106
2012-03-12,52.6143
2012-03-13,53.1319
2012-03-14,52.0025
2012-03-15,52.029
2012-03-16,52.3525
2012-03-19,51.9624
2012-03-20,51.9339
2012-03-21,51.6104
2012-03-22,51.5533
2012-03-23,52.01
2012-03-26,52.6759
2012-03-27,52.6759
2012-03-28,52.2003
2012-03-29,52.1812
2012-03-30,52.362
2012-04-02,52.5047
2012-04-03,52.5142
2012-04-04,52.5427
2012-04-05,52.1717
2012-04-09,51.8102
2012-04-10,51.287
2012-04-11,51.4772
2012-04-12,51.8483
2012-04-13,51.6295
2012-04-16,52.3239
2012-04-17,52.6854
2012-04-18,52.4381
2012-04-19,52.0576
2012-04-20,52.752
2012-04-23,52.5713
2012-04-24,53.1801
2012-04-25,53.4941
2012-04-26,53.751
2012-04-27,53.6748
2012-04-30,53.5607
2012-05-01,53.9983
2012-05-02,53.5226
2012-05-03,53.3894
2012-05-04,53.085
2012-05-07,52.7616
2012-05-08,52.9804
2012-05-09,52.9233
2012-05-10,53.5797
2012-05-11,53.5892
2012-05-14,53.5512
2012-05-15,53.0755
2012-05-16,53.2372
2012-05-17,52.4286
2012-05-18,52.3335
2012-05-21,53.0374
2012-05-22,53.3704
2012-05-23,53.1992
2012-05-24,53.6844
2012-05-25,53.8175
2012-05-29,54.0268
2012-05-30,53.5512
2012-05-31,54.0839
2012-06-01,53.6273
2012-06-04,54.0459
2012-06-05,54.3693
2012-06-06,54.864
2012-06-07,54.8165
2012-06-08,55.1589
2012-06-11,55.3397
2012-06-12,55.7963
2012-06-13,55.8534
2012-06-14,56.5669
2012-06-15,57.1948
2012-06-18,57.6351
2012-06-19,57.1067
2012-06-20,56.732
2012-06-21,56.1267
2012-06-22,56.1844
2012-06-25,55.8577
2012-06-26,55.9538
2012-06-27,56.3381
2012-06-28,56.684
2012-06-29,56.9626
2012-07-02,57.0394
2012-07-03,57.0971
2012-07-05,56.8953
2012-07-06,56.953
2012-07-09,56.6648
2012-07-10,56.7128
2012-07-11,56.8377
2012-07-12,56.9434
2012-07-13,57.6639
2012-07-16,57.8369
2012-07-17,58.2212
2012-07-18,58.4613
2012-07-19,58.3365
2012-07-20,58.6055
2012-07-23,57.8561
2012-07-24,57.0394
2012-07-25,57.001
2012-07-26,57.808
2012-07-27,58.7976
2012-07-30,59.2492
2012-07-31,58.9609
2012-08-01,58.9321
2012-08-02,58.567
2012-08-03,59.2203
2012-08-06,59.057
2012-08-07,58.4613
2012-08-08,58.298
2012-08-09,57.8369
2012-08-10,58.1251
2012-08-13,57.8369
2012-08-14,57.6255
2012-08-15,57.8657
2012-08-16,57.9906
2012-08-17,58.1539
2012-08-20,58.0386
2012-08-21,57.5006
2012-08-22,57.1932
2012-08-23,56.1844
2012-08-24,56.415
2012-08-27,56.6167
2012-08-28,56.6551
2012-08-29,56.5591
2012-08-30,56.242
2012-08-31,56.1844
2012-09-04,57.0971
2012-09-05,56.7512
2012-09-06,57.3373
2012-09-07,57.1163
2012-09-10,57.1163
2012-09-11,57.2412
2012-09-12,56.9434
2012-09-13,57.4874
2012-09-14,57.0505
2012-09-17,56.7883
2012-09-18,56.701
2012-09-19,56.9048
2012-09-20,56.9922
2012-09-21,57.1184
2012-09-24,57.8175
2012-09-25,58.002
2012-09-26,58.2447
2012-09-27,58.002
2012-09-28,58.235
2012-10-01,57.7884
2012-10-02,58.0602
2012-10-03,58.4583
2012-10-04,58.769
2012-10-05,58.9146
2012-10-08,58.934
2012-10-09,58.9243
2012-10-10,58.7981
2012-10-11,59.0117
2012-10-12,58.6622
2012-10-15,59.0117
2012-10-16,59.1962
2012-10-17,59.7787
2012-10-18,59.9049
2012-10-19,59.604
2012-10-22,59.7302
2012-10-23,59.0505
2012-10-24,59.2253
2012-10-25,59.8078
2012-10-26,59.837
2012-10-31,60.303
2012-11-01,59.7981
2012-11-02,59.5166
2012-11-05,58.6622
2012-11-06,58.9632
2012-11-07,57.8175
2012-11-08,57.6524
2012-11-09,57.4485
2012-11-12,56.8369
2012-11-13,57.235
2012-11-14,57.0116
2012-11-15,56.9728
2012-11-16,57.5942
2012-11-19,57.4194
2012-11-20,57.5262
2012-11-21,57.3029
2012-11-23,57.167
2012-11-26,57.5359
2012-11-27,57.5165
2012-11-28,57.8855
2012-11-29,58.1476
2012-11-30,58.9146
2012-12-03,58.8175
2012-12-04,58.7107
2012-12-05,59.7108
2012-12-06,59.4195
2012-12-07,59.2739
2012-12-10,59.3612
2012-12-11,59.4486
2012-12-12,59.7011
2012-12-13,59.1865
2012-12-14,58.7981
2012-12-17,60.0342
2012-12-18,60.1617
2012-12-19,59.7203
2012-12-20,59.9557
2012-12-21,59.9557
2012-12-24,60.3285
2012-12-26,59.1415
2012-12-27,58.9551
2012-12-28,58.3469
2012-12-31,58.857
2013-01-02,60.2405
2013-01-03,60.1718
2013-01-04,60.4759
2013-01-07,59.8186
2013-01-08,59.5931
2013-01-09,59.6029
2013-01-10,60.1718
2013-01-11,60.2601
2013-01-14,60.0933
2013-01-15,60.1522
2013-01-16,59.8383
2013-01-17,60.162
2013-01-18,60.6721
2013-01-22,61.4078
2013-01-23,61.1037
2013-01-24,61.3195
2013-01-25,61.4961
2013-01-28,61.2703
2013-01-29,61.6529
2013-01-30,62.1433
2013-01-31,62.1237
2013-02-01,62.732
2013-02-04,62.369
2013-02-05,62.6535
2013-02-06,62.8104
2013-02-07,62.9183
2013-02-08,62.9968
2013-02-11,63.193
2013-02-12,63.3009
2013-02-13,63.1538
2013-02-14,63.085
2013-02-15,63.1832
2013-02-19,63.458
2013-02-20,63.5856
2013-02-21,63.5954
2013-02-22,64.331
2013-02-25,64.1445
2013-02-26,64.5467
2013-02-27,64.9391
2013-02-28,65.6257
2013-03-01,65.1156
2013-03-04,65.8025
2013-03-05,66.2047
2013-03-06,65.5278
2013-03-07,65.2433
2013-03-08,65.3611
2013-03-11,65.469
2013-03-12,65.3807
2013-03-13,65.6259
2013-03-14,65.715
2013-03-15,65.6754
2013-03-18,65.4081
2013-03-19,65.3586
2013-03-20,65.7744
2013-03-21,65.5467
2013-03-22,65.5665
2013-03-25,65.4774
2013-03-26,66.1012
2013-03-27,66.2794
2013-03-28,67.6557
2013-04-01,67.6755
2013-04-02,67.824
2013-04-03,67.7547
2013-04-04,68.1805
2013-04-05,68.1706
2013-04-08,68.7646
2013-04-09,67.9131
2013-04-10,68.5171
2013-04-11,68.8736
2013-04-12,69.6459
2013-04-15,69.7251
2013-04-16,70.6855
2013-04-17,71.1905
2013-04-18,71.2895
2013-04-19,71.5271
2013-04-22,72.1311
2013-04-23,72.0024
2013-04-24,71.943
2013-04-25,71.4776
2013-04-26,71.636
2013-04-29,71.3687
2013-04-30,72.1113
2013-05-01,71.6954
2013-05-02,71.6162
2013-05-03,71.8539
2013-05-06,70.7845
2013-05-07,71.24
2013-05-08,70.8538
2013-05-09,69.4775
2013-05-10,69.5865
2013-05-13,69.2201
2013-05-14,69.9726
2013-05-15,70.6558
2013-05-16,70.329
2013-05-17,70.9825
2013-05-20,70.7845
2013-05-21,70.8241
2013-05-22,69.5369
2013-05-23,68.5765
2013-05-24,67.5468
2013-05-28,67.0319
2013-05-29,65.5863
2013-05-30,66.8042
2013-05-31,66.0517
2013-06-03,66.1507
2013-06-04,65.8834
2013-06-05,65.3685
2013-06-06,66.1012
2013-06-07,66.8735
2013-06-10,66.4279
2013-06-11,66.3388
2013-06-12,65.7348
2013-06-13,67.02
2013-06-14,66.88
2013-06-17,67.0
2013-06-18,67.54
2013-06-19,66.16
2013-06-20,64.04
2013-06-21,64.69
2013-06-24,64.31
2013-06-25,65.3
2013-06-26,66.43
2013-06-27,66.65
2013-06-28,67.03
2013-07-01,65.83
2013-07-02,65.98
2013-07-03,65.9
2013-07-05,65.73
2013-07-08,66.38
2013-07-09,66.78
2013-07-10,67.5
2013-07-11,68.77
2013-07-12,68.97
2013-07-15,69.79
2013-07-16,69.5
2013-07-17,69.52
2013-07-18,70.53
2013-07-19,70.24
2013-07-22,70.46
2013-07-23,70.83
2013-07-24,69.62
2013-07-25,70.02
2013-07-26,70.12
2013-07-29,70.6
2013-07-30,71.26
2013-07-31,70.72
2013-08-01,71.6
2013-08-02,71.58
2013-08-05,71.04
2013-08-06,70.79
2013-08-07,70.61
2013-08-08,71.07
2013-08-09,70.76
