date,close_price
1998-01-02,11.0093
1998-01-05,11.1702
1998-01-06,11.1573
1998-01-07,10.7947
1998-01-08,10.917
1998-01-09,10.7024
1998-01-12,10.6209
1998-01-13,10.8226
1998-01-14,10.8634
1998-01-15,10.7818
1998-01-16,10.8483
1998-01-20,11.2388
1998-01-21,11.1316
1998-01-22,10.8355
1998-01-23,10.6488
1998-01-26,10.7282
1998-01-27,11.1702
1998-01-28,11.9211
1998-01-29,11.7216
1998-01-30,11.801
1998-02-02,12.5262
1998-02-03,12.7944
1998-02-04,12.6056
1998-02-05,12.6335
1998-02-06,12.6056
1998-02-09,12.5262
1998-02-10,12.6335
1998-02-11,12.5262
1998-02-12,12.5391
1998-02-13,12.5262
1998-02-17,12.5799
1998-02-18,12.6871
1998-02-19,12.7537
1998-02-20,12.7129
1998-02-23,12.5799
1998-02-24,12.3374
1998-02-25,12.2838
1998-02-26,12.5112
1998-02-27,12.5648
1998-03-02,12.8481
1998-03-03,12.994
1998-03-04,13.1163
1998-03-05,13.0755
1998-03-06,13.1549
1998-03-09,13.3845
1998-03-10,13.7728
1998-03-11,13.5711
1998-03-12,13.6174
1998-03-13,13.9117
1998-03-16,13.9246
1998-03-17,14.0191
1998-03-18,14.0599
1998-03-19,14.1266
1998-03-20,14.0471
1998-03-23,14.032
1998-03-24,14.0191
1998-03-25,14.423
1998-03-26,14.6637
1998-03-27,14.4488
1998-03-30,14.5434
1998-03-31,14.5842
1998-04-01,14.799
1998-04-02,15.2954
1998-04-03,15.4157
1998-04-06,15.3899
1998-04-07,15.1063
1998-04-08,15.0268
1998-04-09,15.2416
1998-04-13,15.2674
1998-04-14,15.0676
1998-04-15,15.175
1998-04-16,15.7379
1998-04-17,15.6842
1998-04-20,15.6584
1998-04-21,15.7122
1998-04-22,15.362
1998-04-23,15.4973
1998-04-24,15.175
1998-04-27,14.8248
1998-04-28,14.3156
1998-04-29,14.0728
1998-04-30,14.2619
1998-05-01,14.8119
1998-05-04,14.7453
1998-05-05,14.5563
1998-05-06,14.3285
1998-05-07,14.1674
1998-05-08,14.0728
1998-05-11,14.1674
1998-05-12,13.9783
1998-05-13,13.9246
1998-05-14,13.7248
1998-05-15,13.6174
1998-05-18,13.684
1998-05-19,13.6174
1998-05-20,13.6023
1998-05-21,13.7506
1998-05-22,13.7248
1998-05-26,13.4691
1998-05-27,13.28
1998-05-28,13.6023
1998-05-29,13.7248
1998-06-01,13.3746
1998-06-02,13.0802
1998-06-03,13.1876
1998-06-04,13.2951
1998-06-05,13.5099
1998-06-08,13.9117
1998-06-09,13.9525
1998-06-10,13.8043
1998-06-11,13.6892
1998-06-12,13.9968
1998-06-15,13.9839
1998-06-16,13.9172
1998-06-17,13.7817
1998-06-18,13.6892
1998-06-19,13.5128
1998-06-22,13.6483
1998-06-23,14.0786
1998-06-24,14.6573
1998-06-25,14.5755
1998-06-26,14.5347
1998-06-29,14.7369
1998-06-30,14.98
1998-07-01,14.9929
1998-07-02,15.0596
1998-07-06,14.9262
1998-07-07,14.8724
1998-07-08,14.5497
1998-07-09,14.4421
1998-07-10,14.3346
1998-07-13,14.3604
1998-07-14,14.6293
1998-07-15,14.4809
1998-07-16,14.5088
1998-07-17,14.6422
1998-07-20,14.5755
1998-07-21,14.5497
1998-07-22,14.2528
1998-07-23,14.0506
1998-07-24,13.9581
1998-07-27,13.715
1998-07-28,13.7817
1998-07-29,14.0657
1998-07-30,14.0506
1998-07-31,13.8355
1998-08-03,13.6612
1998-08-04,14.0248
1998-08-05,13.5128
1998-08-06,13.2589
1998-08-07,13.0825
1998-08-10,12.9082
1998-08-11,12.734
1998-08-12,13.218
1998-08-13,13.19
1998-08-14,12.9491
1998-08-17,13.1234
1998-08-18,13.8634
1998-08-19,13.7279
1998-08-20,13.6483
1998-08-21,13.5407
1998-08-24,13.4052
1998-08-25,13.4461
1998-08-26,13.3256
1998-08-27,13.1234
1998-08-28,12.8824
1998-08-31,12.6264
1998-09-01,13.2051
1998-09-02,12.7598
1998-09-03,12.2757
1998-09-04,11.8734
1998-09-08,12.2757
1998-09-09,11.725
1998-09-10,11.3614
1998-09-11,11.4077
1998-09-14,11.9184
1998-09-15,11.69
1998-09-16,11.4875
1998-09-17,10.9488
1998-09-18,11.7978
1998-09-21,11.5026
1998-09-22,11.3668
1998-09-23,11.9184
1998-09-24,12.0671
1998-09-25,12.0413
1998-09-28,12.0413
1998-09-29,11.8387
1998-09-30,11.4336
1998-10-01,11.2052
1998-10-02,10.9897
1998-10-05,10.8561
1998-10-06,10.8281
1998-10-07,10.5717
1998-10-08,10.5587
1998-10-09,10.8152
1998-10-12,11.4207
1998-10-13,11.5155
1998-10-14,11.7848
1998-10-15,12.7804
1998-10-16,13.011
1998-10-19,13.011
1998-10-20,13.3062
1998-10-21,13.2803
1998-10-22,13.0907
1998-10-23,13.0497
1998-10-26,13.5626
1998-10-27,14.0065
1998-10-28,13.8039
1998-10-29,13.9117
1998-10-30,14.1422
1998-11-02,14.1422
1998-11-03,14.3426
1998-11-04,14.3836
1998-11-05,14.8684
1998-11-06,14.612
1998-11-09,14.5193
1998-11-10,15.2455
1998-11-11,15.2994
1998-11-12,15.8123
1998-11-13,16.0945
1998-11-16,15.8661
1998-11-17,15.9997
1998-11-18,16.323
1998-11-19,16.713
1998-11-20,16.5514
1998-11-23,16.5255
1998-11-24,16.4307
1998-11-25,16.2023
1998-11-27,16.2152
1998-11-30,16.1894
1998-12-01,15.9997
1998-12-02,15.7713
1998-12-03,15.5968
1998-12-04,15.5278
1998-12-07,15.9868
1998-12-08,15.7174
1998-12-09,15.892
1998-12-10,16.0127
1998-12-11,15.6097
1998-12-14,15.5871
1998-12-15,15.8438
1998-12-16,15.4533
1998-12-17,15.682
1998-12-18,16.2213
1998-12-21,16.504
1998-12-22,16.7326
1998-12-23,17.1382
1998-12-24,17.395
1998-12-28,17.6366
1998-12-29,18.3377
1998-12-30,18.204
1998-12-31,18.4736
1999-01-04,18.0271
1999-01-05,18.204
1999-01-06,18.0551
1999-01-07,17.6905
1999-01-08,17.7444
1999-01-11,17.3669
1999-01-12,17.5417
1999-01-13,16.5989
1999-01-14,16.9484
1999-01-15,17.395
1999-01-19,17.5956
1999-01-20,17.5417
1999-01-21,17.341
1999-01-22,17.3
1999-01-25,17.1382
1999-01-26,16.9635
1999-01-27,17.341
1999-01-28,17.7186
1999-01-29,17.7444
1999-02-01,18.122
1999-02-02,18.163
1999-02-03,17.9882
1999-02-04,17.9063
1999-02-05,18.0012
1999-02-08,17.9063
1999-02-09,17.8264
1999-02-10,17.9192
1999-02-11,18.2428
1999-02-12,18.3118
1999-02-16,18.5815
1999-02-17,18.6894
1999-02-18,18.931
1999-02-19,19.1467
1999-02-22,19.2676
1999-02-23,18.8231
1999-02-24,18.7692
1999-02-25,18.8361
1999-02-26,18.7563
1999-03-01,19.1209
1999-03-02,19.4164
1999-03-03,19.2956
1999-03-04,19.4035
1999-03-05,19.8479
1999-03-08,20.2923
1999-03-09,20.1046
1999-03-10,20.1586
1999-03-11,20.2923
1999-03-12,20.0019
1999-03-15,19.7039
1999-03-16,19.6089
1999-03-17,19.637
1999-03-18,19.285
1999-03-19,19.3541
1999-03-22,20.0818
1999-03-23,19.9198
1999-03-24,19.637
1999-03-25,20.0688
1999-03-26,19.9328
1999-03-29,19.6629
1999-03-30,19.339
1999-03-31,20.2977
1999-04-01,20.3258
1999-04-05,20.2178
1999-04-06,20.0559
1999-04-07,20.4726
1999-04-08,20.4597
1999-04-09,20.2977
1999-04-12,20.3258
1999-04-13,20.3107
1999-04-14,20.5007
1999-04-15,19.9479
1999-04-16,19.5009
1999-04-19,18.7862
1999-04-20,19.8529
1999-04-21,20.2567
1999-04-22,20.2178
1999-04-23,20.4877
1999-04-26,20.5957
1999-04-27,21.1895
1999-04-28,21.0535
1999-04-29,21.3903
1999-04-30,21.6603
1999-05-03,21.6063
1999-05-04,20.9455
1999-05-05,20.9326
1999-05-06,21.4443
1999-05-07,20.5266
1999-05-10,20.0148
1999-05-11,19.9328
1999-05-12,20.0408
1999-05-13,20.7296
1999-05-14,20.5417
1999-05-17,20.0408
1999-05-18,20.0818
1999-05-19,19.9868
1999-05-20,20.1099
1999-05-21,19.8119
1999-05-24,19.8529
1999-05-25,19.7989
1999-05-26,19.9738
1999-05-27,19.7989
1999-05-28,19.7449
1999-06-01,19.7579
1999-06-02,19.8248
1999-06-03,19.8918
1999-06-04,20.1898
1999-06-07,19.9738
1999-06-08,19.9997
1999-06-09,19.5981
1999-06-10,19.5981
1999-06-11,19.7061
1999-06-14,19.6974
1999-06-15,19.7536
1999-06-16,20.16
1999-06-17,20.0217
1999-06-18,20.0217
1999-06-21,19.9958
1999-06-22,19.8358
1999-06-23,20.1038
1999-06-24,20.2379
1999-06-25,20.4281
1999-06-28,20.5362
1999-06-29,20.4022
1999-06-30,21.5911
1999-07-01,21.5089
1999-07-02,21.5911
1999-07-06,22.1315
1999-07-07,22.6979
1999-07-08,22.1834
1999-07-09,22.4298
1999-07-12,22.6719
1999-07-13,22.78
1999-07-14,23.8047
1999-07-15,23.9949
1999-07-16,24.103
1999-07-19,24.1289
1999-07-20,23.0481
1999-07-21,22.5898
1999-07-22,22.2137
1999-07-23,22.0234
1999-07-26,21.617
1999-07-27,21.1847
1999-07-28,20.9426
1999-07-29,20.9945
1999-07-30,20.5362
1999-08-02,20.1298
1999-08-03,20.5102
1999-08-04,20.0779
1999-08-05,20.4022
1999-08-06,20.3762
1999-08-09,20.4022
1999-08-10,19.9136
1999-08-11,20.186
1999-08-12,19.9439
1999-08-13,20.8086
1999-08-16,21.349
1999-08-17,22.1315
1999-08-18,20.9426
1999-08-19,20.32
1999-08-20,20.6443
1999-08-23,20.3762
1999-08-24,20.7524
1999-08-25,20.6183
1999-08-26,20.5621
1999-08-27,20.32
1999-08-30,19.8358
1999-08-31,19.9136
1999-09-01,19.9439
1999-09-02,19.3472
1999-09-03,19.5634
1999-09-07,19.5375
1999-09-08,19.2392
1999-09-09,18.997
1999-09-10,17.7822
1999-09-13,17.5357
1999-09-14,18.83
1999-09-15,18.856
1999-09-16,18.7218
1999-09-17,18.9382
1999-09-20,19.4274
1999-09-21,19.3451
1999-09-22,18.8863
1999-09-23,17.9383
1999-09-24,18.0205
1999-09-27,18.3971
1999-09-28,18.1547
1999-09-29,17.5314
1999-09-30,16.8821
1999-10-01,18.0465
1999-10-04,18.7478
1999-10-05,18.4231
1999-10-06,18.4534
1999-10-07,19.3711
1999-10-08,19.3971
1999-10-11,19.0464
1999-10-12,19.0464
1999-10-13,18.9642
1999-10-14,18.804
1999-10-15,18.3452
1999-10-18,18.6136
1999-10-19,18.7478
1999-10-20,18.9945
1999-10-21,19.1287
1999-10-22,19.5053
1999-10-25,19.9122
1999-10-26,21.319
1999-10-27,20.2931
1999-10-28,20.6178
1999-10-29,20.1849
1999-11-01,19.8602
1999-11-02,19.9382
1999-11-03,19.7217
1999-11-04,19.5616
1999-11-05,19.5616
1999-11-08,19.2369
1999-11-09,18.9382
1999-11-10,18.5876
1999-11-11,19.2629
1999-11-12,18.8863
1999-11-15,18.4534
1999-11-16,18.1287
1999-11-17,17.9902
1999-11-18,18.2067
1999-11-19,18.6136
1999-11-22,18.804
1999-11-23,19.1027
1999-11-24,19.2888
1999-11-26,19.0724
1999-11-29,19.0464
1999-11-30,18.3149
1999-12-01,18.2067
1999-12-02,18.3971
1999-12-03,18.3712
1999-12-06,17.7738
1999-12-07,17.8041
1999-12-08,17.7218
1999-12-09,17.8041
1999-12-10,17.7738
1999-12-13,17.6959
1999-12-14,18.4197
1999-12-15,18.9614
1999-12-16,19.2865
1999-12-17,19.6939
1999-12-20,19.4772
1999-12-21,19.8542
1999-12-22,20.5607
1999-12-23,21.1024
1999-12-27,21.0461
1999-12-28,21.7265
1999-12-29,21.2368
1999-12-30,22.1859
1999-12-31,21.8609
2000-01-03,21.4795
2000-01-04,21.1024
2000-01-05,20.2356
2000-01-06,20.9941
2000-01-07,21.7265
2000-01-10,22.485
2000-01-11,21.8609
2000-01-12,21.7785
2000-01-13,21.9129
2000-01-14,22.7537
2000-01-18,23.0527
2000-01-19,23.2954
2000-01-20,23.2694
2000-01-21,23.1351
2000-01-24,23.3778
2000-01-25,23.4601
2000-01-26,24.0799
2000-01-27,22.9704
2000-01-28,22.485
2000-01-31,22.1859
2000-02-01,22.3766
2000-02-02,22.3203
2000-02-03,22.511
2000-02-04,22.0516
2000-02-07,21.8045
2000-02-08,21.6702
2000-02-09,21.8609
2000-02-10,21.6182
2000-02-11,21.5878
2000-02-14,21.3711
2000-02-15,21.6702
2000-02-16,21.5878
2000-02-17,22.0516
2000-02-18,22.1599
2000-02-22,22.3766
2000-02-23,22.2119
2000-02-24,21.0201
2000-02-25,20.0449
2000-02-28,19.9106
2000-02-29,18.8531
2000-03-01,19.3688
2000-03-02,19.2865
2000-03-03,19.8282
2000-03-06,19.5292
2000-03-07,17.4445
2000-03-08,18.1769
2000-03-09,18.5843
2000-03-10,17.2538
2000-03-13,17.4445
2000-03-14,17.6311
2000-03-15,19.5274
2000-03-16,20.4517
2000-03-17,19.5014
2000-03-20,19.4189
2000-03-21,20.1783
2000-03-22,21.0723
2000-03-23,21.862
2000-03-24,21.0202
2000-03-27,19.8789
2000-03-28,21.0202
2000-03-29,21.2892
2000-03-30,21.9965
2000-03-31,21.8316
2000-04-03,22.0226
2000-04-04,22.105
2000-04-05,22.999
2000-04-06,22.782
2000-04-07,23.1639
2000-04-10,23.2723
2000-04-11,22.296
2000-04-12,22.2396
2000-04-13,22.3741
2000-04-14,20.8292
2000-04-17,20.6123
2000-04-18,20.5602
2000-04-19,20.0698
2000-04-20,20.2347
2000-04-24,19.7183
2000-04-25,18.985
2000-04-26,18.4165
2000-04-27,18.4426
2000-04-28,19.1499
2000-05-01,18.9329
2000-05-02,19.1759
2000-05-03,18.8244
2000-05-04,18.7159
2000-05-05,18.6595
2000-05-08,18.551
2000-05-09,18.6856
2000-05-10,19.3669
2000-05-11,19.9874
2000-05-12,19.8789
2000-05-15,19.9093
2000-05-16,20.6123
2000-05-17,21.0202
2000-05-18,21.4802
2000-05-19,19.8268
2000-05-22,19.6099
2000-05-23,18.4686
2000-05-24,18.499
2000-05-25,19.011
2000-05-26,19.1759
2000-05-30,19.4753
2000-05-31,19.4189
2000-06-01,19.8268
2000-06-02,20.5602
2000-06-05,20.2608
2000-06-06,20.1263
2000-06-07,19.6619
2000-06-08,19.7704
2000-06-09,20.2347
2000-06-12,20.5602
2000-06-13,20.3693
2000-06-14,20.391
2000-06-15,20.365
2000-06-16,20.3345
2000-06-19,19.9566
2000-06-20,19.4961
2000-06-21,19.6569
2000-06-22,19.3311
2000-06-23,19.9305
2000-06-26,19.6829
2000-06-27,20.8254
2000-06-28,20.8776
2000-06-29,21.1512
2000-06-30,21.477
2000-07-03,21.3945
2000-07-05,21.2859
2000-07-06,20.8254
2000-07-07,20.8515
2000-07-10,20.5822
2000-07-11,20.3085
2000-07-12,19.5743
2000-07-13,19.1964
2000-07-14,19.4657
2000-07-17,19.0053
2000-07-18,19.4397
2000-07-19,19.3875
2000-07-20,19.2789
2000-07-21,19.5222
2000-07-24,19.4961
2000-07-25,19.8741
2000-07-26,19.8741
2000-07-27,19.5222
2000-07-28,19.3571
2000-07-31,19.0878
2000-08-01,19.4397
2000-08-02,19.7655
2000-08-03,19.6569
2000-08-04,19.5483
2000-08-07,19.0617
2000-08-08,19.0878
2000-08-09,19.4397
2000-08-10,19.4961
2000-08-11,19.6047
2000-08-14,19.9001
2000-08-15,19.5743
2000-08-16,18.9227
2000-08-17,18.6534
2000-08-18,18.6273
2000-08-21,18.3276
2000-08-22,18.3797
2000-08-23,18.3537
2000-08-24,18.219
2000-08-25,18.2451
2000-08-28,18.219
2000-08-29,18.1365
2000-08-30,18.0279
2000-08-31,17.7281
2000-09-01,18.1625
2000-09-05,18.2711
2000-09-06,17.9757
2000-09-07,18.2451
2000-09-08,18.0279
2000-09-11,18.4101
2000-09-12,18.4623
2000-09-13,18.4014
2000-09-14,17.8577
2000-09-15,17.5315
2000-09-18,17.0705
2000-09-19,16.553
2000-09-20,15.4396
2000-09-21,15.2221
2000-09-22,16.2833
2000-09-25,16.2007
2000-09-26,15.7136
2000-09-27,15.6831
2000-09-28,16.3094
2000-09-29,15.8745
2000-10-02,15.931
2000-10-03,15.8223
2000-10-04,16.0093
2000-10-05,16.5269
2000-10-06,16.3094
2000-10-09,16.2572
2000-10-10,16.2572
2000-10-11,15.931
2000-10-12,15.4135
2000-10-13,15.3308
2000-10-16,15.7397
2000-10-17,15.3308
2000-10-18,15.2787
2000-10-19,15.931
2000-10-20,16.4747
2000-10-23,16.2007
2000-10-24,17.7794
2000-10-25,18.8363
2000-10-26,18.6493
2000-10-27,19.1625
2000-10-30,19.5452
2000-10-31,20.1976
2000-11-01,20.0062
2000-11-02,19.7061
2000-11-03,19.5713
2000-11-06,19.5452
2000-11-07,19.1364
2000-11-08,19.8975
2000-11-09,19.4365
2000-11-10,19.0537
2000-11-13,19.1364
2000-11-14,19.0276
2000-11-15,19.3799
2000-11-16,19.1929
2000-11-17,19.219
2000-11-20,18.7275
2000-11-21,18.5666
2000-11-22,18.5405
2000-11-24,18.5101
2000-11-27,18.4318
2000-11-28,18.2665
2000-11-29,18.4318
2000-11-30,18.8363
2000-12-01,19.3538
2000-12-04,19.4104
2000-12-05,19.1103
2000-12-06,18.9755
2000-12-07,19.219
2000-12-08,19.3538
2000-12-11,18.945
2000-12-12,19.1103
2000-12-13,19.1321
2000-12-14,18.6401
2000-12-15,18.5051
2000-12-18,18.9405
2000-12-19,19.0494
2000-12-20,19.1844
2000-12-21,17.4166
2000-12-22,17.5254
2000-12-26,17.7431
2000-12-27,18.5051
2000-12-28,18.8883
2000-12-29,19.0755
2001-01-02,18.5878
2001-01-03,18.2352
2001-01-04,17.0073
2001-01-05,17.582
2001-01-08,18.6967
2001-01-09,19.0233
2001-01-10,18.8578
2001-01-11,18.6967
2001-01-12,18.614
2001-01-16,18.2352
2001-01-17,17.9608
2001-01-18,18.2874
2001-01-19,18.2047
2001-01-22,17.5254
2001-01-23,17.852
2001-01-24,18.0436
2001-01-25,17.9608
2001-01-26,17.9347
2001-01-29,17.5472
2001-01-30,16.9202
2001-01-31,16.598
2001-02-01,17.09
2001-02-02,16.9463
2001-02-05,16.8723
2001-02-06,17.0987
2001-02-07,16.6851
2001-02-08,17.5211
2001-02-09,17.1423
2001-02-12,17.1553
2001-02-13,16.8592
2001-02-14,16.6851
2001-02-15,17.0247
2001-02-16,17.0247
2001-02-20,17.373
2001-02-21,17.2032
2001-02-22,16.9812
2001-02-23,16.7199
2001-02-26,17.0987
2001-02-27,16.6372
2001-02-28,16.8331
2001-03-01,16.8113
2001-03-02,17.2772
2001-03-05,17.2859
2001-03-06,17.6343
2001-03-07,17.6299
2001-03-08,18.1132
2001-03-09,17.6604
2001-03-12,17.4122
2001-03-13,16.8505
2001-03-14,16.4364
2001-03-15,16.4277
2001-03-16,16.0659
2001-03-19,16.1313
2001-03-20,16.0092
2001-03-21,15.3073
2001-03-22,14.9759
2001-03-23,14.9715
2001-03-26,15.0326
2001-03-27,15.2506
2001-03-28,15.4816
2001-03-29,15.6081
2001-03-30,15.8522
2001-04-02,15.813
2001-04-03,15.7171
2001-04-04,15.8958
2001-04-05,16.1531
2001-04-06,16.0266
2001-04-09,16.1138
2001-04-10,16.031
2001-04-11,15.9917
2001-04-12,16.1095
2001-04-16,16.2228
2001-04-17,16.2402
2001-04-18,16.4408
2001-04-19,16.4582
2001-04-20,16.5672
2001-04-23,16.3013
2001-04-24,16.9901
2001-04-25,17.1296
2001-04-26,17.2212
2001-04-27,17.4218
2001-04-30,17.6136
2001-05-01,17.7923
2001-05-02,17.788
2001-05-03,17.679
2001-05-04,17.8098
2001-05-07,17.461
2001-05-08,17.4915
2001-05-09,17.4305
2001-05-10,17.5046
2001-05-11,17.413
2001-05-14,17.5918
2001-05-15,17.3084
2001-05-16,17.897
2001-05-17,18.5727
2001-05-18,18.006
2001-05-21,18.2937
2001-05-22,18.2763
2001-05-23,18.2152
2001-05-24,18.3155
2001-05-25,18.2588
2001-05-29,18.1586
2001-05-30,17.9406
2001-05-31,17.7269
2001-06-01,18.176
2001-06-04,18.2632
2001-06-05,18.4201
2001-06-06,18.3242
2001-06-07,18.6599
2001-06-08,18.5204
2001-06-11,18.4114
2001-06-12,18.4637
2001-06-13,18.3328
2001-06-14,17.9836
2001-06-15,17.6868
2001-06-18,18.2368
2001-06-19,18.0753
2001-06-20,18.3371
2001-06-21,17.9356
2001-06-22,17.7217
2001-06-25,17.4423
2001-06-26,17.8177
2001-06-27,17.7653
2001-06-28,18.9439
2001-06-29,18.73
2001-07-02,18.8391
2001-07-03,18.9657
2001-07-05,18.4026
2001-07-06,18.2891
2001-07-09,18.0665
2001-07-10,18.2018
2001-07-11,18.2935
2001-07-12,18.1233
2001-07-13,18.0971
2001-07-16,18.1975
2001-07-17,18.4725
2001-07-18,18.5729
2001-07-19,18.5729
2001-07-20,18.6645
2001-07-23,18.4463
2001-07-24,18.0753
2001-07-25,18.0622
2001-07-26,17.7392
2001-07-27,17.1673
2001-07-30,17.4074
2001-07-31,17.2634
2001-08-01,16.9797
2001-08-02,17.2852
2001-08-03,16.8836
2001-08-06,17.1979
2001-08-07,16.8138
2001-08-08,16.7701
2001-08-09,16.3293
2001-08-10,16.792
2001-08-13,17.1455
2001-08-14,16.8094
2001-08-15,16.8749
2001-08-16,17.3725
2001-08-17,17.5951
2001-08-20,17.0931
2001-08-21,17.0669
2001-08-22,17.5253
2001-08-23,17.713
2001-08-24,17.5515
2001-08-27,17.1062
2001-08-28,17.1062
2001-08-29,17.0277
2001-08-30,17.2197
2001-08-31,16.936
2001-09-04,16.9666
2001-09-05,16.9535
2001-09-06,16.4559
2001-09-07,16.5475
2001-09-10,16.6959
2001-09-17,15.4109
2001-09-18,15.0132
2001-09-19,14.5062
2001-09-20,14.7859
2001-09-21,14.4406
2001-09-24,14.5761
2001-09-25,14.3095
2001-09-26,14.0079
2001-09-27,13.9686
2001-09-28,14.528
2001-10-01,14.4275
2001-10-02,13.9905
2001-10-03,14.445
2001-10-04,14.2046
2001-10-05,14.5543
2001-10-08,14.716
2001-10-09,14.445
2001-10-10,14.8253
2001-10-11,14.8078
2001-10-12,14.5149
2001-10-15,14.4363
2001-10-16,14.6417
2001-10-17,14.9214
2001-10-18,14.869
2001-10-19,14.8384
2001-10-22,14.9345
2001-10-23,14.6504
2001-10-24,14.5761
2001-10-25,14.4232
2001-10-26,14.7291
2001-10-29,14.6723
2001-10-30,14.3139
2001-10-31,14.1609
2001-11-01,14.4931
2001-11-02,13.7676
2001-11-05,13.6583
2001-11-06,13.7282
2001-11-07,14.0954
2001-11-08,14.1915
2001-11-09,14.1128
2001-11-12,14.1216
2001-11-13,14.3095
2001-11-14,14.4319
2001-11-15,14.5455
2001-11-16,14.5674
2001-11-19,14.6767
2001-11-20,14.7291
2001-11-21,14.7553
2001-11-23,14.6461
2001-11-26,14.5805
2001-11-27,14.5062
2001-11-28,14.3751
2001-11-29,14.5368
2001-11-30,14.598
2001-12-03,14.4406
2001-12-04,14.5543
2001-12-05,14.7072
2001-12-06,14.3357
2001-12-07,14.3226
2001-12-10,14.3794
2001-12-11,14.3794
2001-12-12,14.2481
2001-12-13,14.2043
2001-12-14,14.0555
2001-12-17,14.1474
2001-12-18,13.9198
2001-12-19,14.0073
2001-12-20,13.5433
2001-12-21,13.9417
2001-12-24,14.1518
2001-12-26,14.073
2001-12-27,13.9811
2001-12-28,14.0292
2001-12-31,14.0336
2002-01-02,14.073
2002-01-03,14.2087
2002-01-04,14.305
2002-01-07,14.3794
2002-01-08,14.4494
2002-01-09,14.5063
2002-01-10,14.4451
2002-01-11,14.4976
2002-01-14,14.4232
2002-01-15,14.6289
2002-01-16,14.9266
2002-01-17,15.2767
2002-01-18,15.0491
2002-01-22,14.8784
2002-01-23,14.8828
2002-01-24,14.9659
2002-01-25,15.3249
2002-01-28,15.3118
2002-01-29,14.7952
2002-01-30,14.7077
2002-01-31,14.1211
2002-02-01,14.0949
2002-02-04,13.8454
2002-02-05,13.8103
2002-02-06,13.5302
2002-02-07,13.2763
2002-02-08,13.1275
2002-02-11,13.342
2002-02-12,13.6965
2002-02-13,13.3857
2002-02-14,13.5214
2002-02-15,13.3026
2002-02-19,13.1275
2002-02-20,13.0312
2002-02-21,12.9174
2002-02-22,13.1275
2002-02-25,13.3551
2002-02-26,13.4645
2002-02-27,13.6615
2002-02-28,13.6134
2002-03-01,13.5915
2002-03-04,13.9285
2002-03-05,13.5127
2002-03-06,13.9854
2002-03-07,13.9417
2002-03-08,14.0073
2002-03-11,13.9023
2002-03-12,13.9504
2002-03-13,14.1169
2002-03-14,13.9898
2002-03-15,14.4019
2002-03-18,14.4326
2002-03-19,15.042
2002-03-20,15.0508
2002-03-21,15.0639
2002-03-22,15.3533
2002-03-25,15.3927
2002-03-26,14.985
2002-03-27,14.8447
2002-03-28,15.0113
2002-04-01,14.9499
2002-04-02,14.9631
2002-04-03,15.042
2002-04-04,15.6908
2002-04-05,16.1687
2002-04-08,16.309
2002-04-09,15.9627
2002-04-10,16.4405
2002-04-11,16.8263
2002-04-12,16.5501
2002-04-15,16.3967
2002-04-16,15.8837
2002-04-17,16.366
2002-04-18,16.0898
2002-04-19,15.8136
2002-04-22,15.7259
2002-04-23,15.8267
2002-04-24,15.875
2002-04-25,15.6426
2002-04-26,15.5988
2002-04-29,15.761
2002-04-30,15.7829
2002-05-01,15.6295
2002-05-02,16.1468
2002-05-03,16.4405
2002-05-06,16.1687
2002-05-07,16.2652
2002-05-08,15.8706
2002-05-09,15.9583
2002-05-10,15.9977
2002-05-13,16.1424
2002-05-14,16.3222
2002-05-15,16.5107
2002-05-16,16.3528
2002-05-17,15.9407
2002-05-20,16.0898
2002-05-21,16.046
2002-05-22,15.8706
2002-05-23,15.8048
2002-05-24,15.8048
2002-05-28,15.5549
2002-05-29,15.5111
2002-05-30,15.5286
2002-05-31,16.1161
2002-06-03,16.0942
2002-06-04,15.875
2002-06-05,16.252
2002-06-06,15.9451
2002-06-07,15.9802
2002-06-10,16.0021
2002-06-11,15.7391
2002-06-12,16.1958
2002-06-13,16.1562
2002-06-14,15.9148
2002-06-17,16.0684
2002-06-18,16.367
2002-06-19,16.4636
2002-06-20,16.5997
2002-06-21,16.4548
2002-06-24,16.0158
2002-06-25,15.3133
2002-06-26,15.4714
2002-06-27,16.1343
2002-06-28,15.6689
2002-07-01,15.625
2002-07-02,14.1631
2002-07-03,13.8338
2002-07-05,14.4089
2002-07-08,14.4221
2002-07-09,14.2992
2002-07-10,14.1191
2002-07-11,14.0928
2002-07-12,13.926
2002-07-15,13.5616
2002-07-16,13.4606
2002-07-17,13.4782
2002-07-18,13.2148
2002-07-19,12.8152
2002-07-22,12.5562
2002-07-23,12.5299
2002-07-24,12.7274
2002-07-25,12.5167
2002-07-26,12.5913
2002-07-29,13.0391
2002-07-30,13.1357
2002-07-31,13.3816
2002-08-01,13.1621
2002-08-02,12.4245
2002-08-05,12.306
2002-08-06,12.2796
2002-08-07,12.2752
2002-08-08,12.1479
2002-08-09,12.0469
2002-08-12,11.5069
2002-08-13,11.485
2002-08-14,12.1611
2002-08-15,12.4596
2002-08-16,12.7977
2002-08-19,12.9689
2002-08-20,13.0479
2002-08-21,13.083
2002-08-22,13.3991
2002-08-23,13.3377
2002-08-26,13.3026
2002-08-27,13.2806
2002-08-28,13.2499
2002-08-29,13.0874
2002-08-30,13.1269
2002-09-03,12.9469
2002-09-04,13.4826
2002-09-05,13.5704
2002-09-06,13.5748
2002-09-09,13.7416
2002-09-10,14.1016
2002-09-11,14.5362
2002-09-12,13.7723
2002-09-13,13.8382
2002-09-16,14.0928
2002-09-17,13.3245
2002-09-18,12.8943
2002-09-19,13.0435
2002-09-20,13.3026
2002-09-23,13.3289
2002-09-24,13.0787
2002-09-25,12.9865
2002-09-26,13.4957
2002-09-27,13.2587
2002-09-30,12.6265
2002-10-01,12.4465
2002-10-02,12.3762
2002-10-03,12.3894
2002-10-04,12.1567
2002-10-07,11.9372
2002-10-08,12.0689
2002-10-09,11.5508
2002-10-10,11.7879
2002-10-11,12.2313
2002-10-14,12.3938
2002-10-15,12.8635
2002-10-16,12.1304
2002-10-17,12.5211
2002-10-18,12.5299
2002-10-21,12.4508
2002-10-22,12.183
2002-10-23,12.0294
2002-10-24,11.7133
2002-10-25,11.8977
2002-10-28,12.0074
2002-10-29,12.7582
2002-10-30,12.8899
2002-10-31,12.7845
2002-11-01,12.5826
2002-11-04,12.3806
2002-11-05,12.3806
2002-11-06,12.4333
2002-11-07,12.7538
2002-11-08,12.5782
2002-11-11,12.306
2002-11-12,12.2708
2002-11-13,11.9547
2002-11-14,12.1699
2002-11-15,12.5869
2002-11-18,12.4728
2002-11-19,12.5869
2002-11-20,12.2664
2002-11-21,12.0382
2002-11-22,11.8757
2002-11-25,11.7001
2002-11-26,11.4191
2002-11-27,11.9855
2002-11-29,11.9767
2002-12-02,12.1611
2002-12-03,12.2401
2002-12-04,12.1391
2002-12-05,12.126
2002-12-06,12.1391
2002-12-09,11.9503
2002-12-10,12.1314
2002-12-11,12.1801
2002-12-12,12.2553
2002-12-13,12.2508
2002-12-16,11.9855
2002-12-17,11.8749
2002-12-18,11.8528
2002-12-19,11.8307
2002-12-20,11.7378
2002-12-23,11.7157
2002-12-24,11.6095
2002-12-26,11.5609
2002-12-27,11.3884
2002-12-30,11.5874
2002-12-31,11.6759
2003-01-02,11.8218
2003-01-03,12.0032
2003-01-06,12.1624
2003-01-07,11.9103
2003-01-08,11.7555
2003-01-09,11.8086
2003-01-10,11.6493
2003-01-13,11.499
2003-01-14,11.4769
2003-01-15,11.4724
2003-01-16,11.698
2003-01-17,11.6759
2003-01-21,11.7024
2003-01-22,11.6228
2003-01-23,11.981
2003-01-24,11.6847
2003-01-27,11.5874
2003-01-28,11.7245
2003-01-29,11.6759
2003-01-30,13.2459
2003-01-31,13.3344
2003-02-03,13.3344
2003-02-04,13.2238
2003-02-05,13.1884
2003-02-06,13.0381
2003-02-07,12.9673
2003-02-10,12.9762
2003-02-11,12.8789
2003-02-12,12.9142
2003-02-13,12.87
2003-02-14,12.8302
2003-02-18,12.8656
2003-02-19,12.7417
2003-02-20,12.6489
2003-02-21,12.7019
2003-02-24,12.7683
2003-02-25,12.6489
2003-02-26,12.6489
2003-02-27,12.6754
2003-02-28,12.4366
2003-03-03,12.7019
2003-03-04,12.472
2003-03-05,12.4189
2003-03-06,12.2376
2003-03-07,12.3304
2003-03-10,12.2066
2003-03-11,11.9678
2003-03-12,12.158
2003-03-13,12.41
2003-03-14,12.5781
2003-03-17,13.0956
2003-03-18,13.0911
2003-03-19,13.2459
2003-03-20,13.3521
2003-03-21,13.7103
2003-03-24,13.2946
2003-03-25,13.3123
2003-03-26,13.4228
2003-03-27,13.4936
2003-03-28,13.6661
2003-03-31,13.4317
2003-04-01,13.069
2003-04-02,13.2592
2003-04-03,13.0336
2003-04-04,13.2327
2003-04-07,13.0779
2003-04-08,13.0027
2003-04-09,12.8877
2003-04-10,12.9585
2003-04-11,13.0513
2003-04-14,13.2636
2003-04-15,13.1973
2003-04-16,13.4892
2003-04-17,13.4759
2003-04-21,13.4273
2003-04-22,13.6705
2003-04-23,13.6617
2003-04-24,13.4892
2003-04-25,13.3919
2003-04-28,13.2327
2003-04-29,13.4228
2003-04-30,14.4135
2003-05-01,14.3383
2003-05-02,14.9398
2003-05-05,14.7762
2003-05-06,14.8779
2003-05-07,14.7939
2003-05-08,14.6745
2003-05-09,14.6391
2003-05-12,14.6435
2003-05-13,14.8293
2003-05-14,14.7762
2003-05-15,14.8293
2003-05-16,14.8823
2003-05-19,14.8912
2003-05-20,15.0813
2003-05-21,14.8425
2003-05-22,15.1344
2003-05-23,15.3777
2003-05-27,15.1831
2003-05-28,15.0548
2003-05-29,14.7231
2003-05-30,14.7629
2003-06-02,14.617
2003-06-03,14.8204
2003-06-04,14.8779
2003-06-05,14.9398
2003-06-06,14.8514
2003-06-09,14.8381
2003-06-10,14.7585
2003-06-11,15.0371
2003-06-12,15.3777
2003-06-13,15.4263
2003-06-16,15.6386
2003-06-17,15.8907
2003-06-18,15.7934
2003-06-19,15.4263
2003-06-20,15.3334
2003-06-23,14.9929
2003-06-24,15.0371
2003-06-25,15.046
2003-06-26,14.9885
2003-06-27,14.8691
2003-06-30,14.8381
2003-07-01,14.7275
2003-07-02,14.9442
2003-07-03,15.015
2003-07-07,15.0769
2003-07-08,15.1123
2003-07-09,14.8646
2003-07-10,14.8602
2003-07-11,14.9221
2003-07-14,15.046
2003-07-15,15.1167
2003-07-16,15.1256
2003-07-17,15.1344
2003-07-18,15.3334
2003-07-21,15.444
2003-07-22,15.6121
2003-07-23,15.5236
2003-07-24,15.6121
2003-07-25,15.528
2003-07-28,15.9924
2003-07-29,16.3639
2003-07-30,16.6337
2003-07-31,16.501
2003-08-01,16.2445
2003-08-04,16.1295
2003-08-05,15.9261
2003-08-06,15.9305
2003-08-07,16.2666
2003-08-08,16.7531
2003-08-11,16.7399
2003-08-12,16.6956
2003-08-13,16.4126
2003-08-14,15.6607
2003-08-15,15.6961
2003-08-18,15.1831
2003-08-19,14.9973
2003-08-20,14.7496
2003-08-21,14.5418
2003-08-22,14.6523
2003-08-25,14.9177
2003-08-26,14.9442
2003-08-27,15.015
2003-08-28,15.2096
2003-08-29,15.2494
2003-09-02,15.4617
2003-09-03,15.5988
2003-09-04,15.6873
2003-09-05,15.6519
2003-09-08,15.6519
2003-09-09,15.4175
2003-09-10,15.2494
2003-09-11,15.2008
2003-09-12,15.2538
2003-09-15,15.2229
2003-09-16,15.245
2003-09-17,15.2936
2003-09-18,15.2406
2003-09-19,15.5457
2003-09-22,15.413
2003-09-23,15.1742
2003-09-24,15.1035
2003-09-25,14.9133
2003-09-26,14.6568
2003-09-29,14.9442
2003-09-30,15.0769
2003-10-01,15.4529
2003-10-02,15.5988
2003-10-03,15.6917
2003-10-06,15.674
2003-10-07,15.9526
2003-10-08,16.0145
2003-10-09,16.0278
2003-10-10,16.2578
2003-10-13,16.1339
2003-10-14,16.3551
2003-10-15,16.2091
2003-10-16,16.3064
2003-10-17,16.2047
2003-10-20,16.0278
2003-10-21,16.187
2003-10-22,15.9394
2003-10-23,16.0499
2003-10-24,16.0543
2003-10-27,16.2534
2003-10-28,16.7487
2003-10-29,17.0671
2003-10-30,16.7266
2003-10-31,16.5585
2003-11-03,16.5364
2003-11-04,16.4258
2003-11-05,16.3683
2003-11-06,16.3905
2003-11-07,16.4524
2003-11-10,16.1384
2003-11-11,16.0588
2003-11-12,16.5629
2003-11-13,16.6868
2003-11-14,16.6426
2003-11-17,16.6514
2003-11-18,16.3064
2003-11-19,16.3993
2003-11-20,16.3639
2003-11-21,16.5408
2003-11-24,16.6514
2003-11-25,16.6116
2003-11-26,16.8062
2003-11-28,16.8062
2003-12-01,17.0229
2003-12-02,17.5625
2003-12-03,17.5757
2003-12-04,17.3148
2003-12-05,17.2175
2003-12-08,17.16
2003-12-09,17.2927
2003-12-10,16.9168
2003-12-11,16.7929
2003-12-12,16.9621
2003-12-15,16.8729
2003-12-16,16.5074
2003-12-17,16.6189
2003-12-18,16.8952
2003-12-19,16.8195
2003-12-22,17.0156
2003-12-23,17.555
2003-12-24,17.5773
2003-12-26,17.5639
2003-12-29,17.711
2003-12-30,17.6843
2003-12-31,17.497
2004-01-02,17.1939
2004-01-05,17.2296
2004-01-06,17.0423
2004-01-07,17.1181
2004-01-08,17.0602
2004-01-09,17.0245
2004-01-12,17.0201
2004-01-13,17.1003
2004-01-14,17.3098
2004-01-15,17.2296
2004-01-16,18.1301
2004-01-20,18.0052
2004-01-21,18.3039
2004-01-22,18.0186
2004-01-23,17.8671
2004-01-26,18.1702
2004-01-27,18.1301
2004-01-28,17.7467
2004-01-29,18.6873
2004-01-30,18.2638
2004-02-02,18.0587
2004-02-03,18.0677
2004-02-04,18.4644
2004-02-05,18.2683
2004-02-06,18.451
2004-02-09,18.5892
2004-02-10,18.5892
2004-02-11,18.5714
2004-02-12,18.5758
2004-02-13,18.451
2004-02-17,18.5892
2004-02-18,18.5446
2004-02-19,18.616
2004-02-20,18.2103
2004-02-23,18.3262
2004-02-24,18.4109
2004-02-25,18.5224
2004-02-26,18.5803
2004-02-27,19.0172
2004-03-01,19.2401
2004-03-02,19.0885
2004-03-03,18.9726
2004-03-04,18.9904
2004-03-05,19.4318
2004-03-08,19.3292
2004-03-09,19.1465
2004-03-10,19.3471
2004-03-11,19.2757
2004-03-12,18.9726
2004-03-15,18.8656
2004-03-16,19.0127
2004-03-17,19.0439
2004-03-18,19.2668
2004-03-19,19.2267
2004-03-22,19.1687
2004-03-23,18.8166
2004-03-24,18.7051
2004-03-25,19.2668
2004-03-26,19.2356
2004-03-29,19.1999
2004-03-30,19.0796
2004-03-31,19.7572
2004-04-01,19.726
2004-04-02,19.5566
2004-04-05,19.4005
2004-04-06,19.7928
2004-04-07,19.8597
2004-04-08,19.5566
2004-04-12,19.4451
2004-04-13,19.4808
2004-04-14,19.4184
2004-04-15,19.4808
2004-04-16,19.726
2004-04-19,19.6101
2004-04-20,19.3827
2004-04-21,19.4585
2004-04-22,19.7928
2004-04-23,19.5031
2004-04-26,19.6012
2004-04-27,19.6145
2004-04-28,19.7795
2004-04-29,20.5061
2004-04-30,20.3991
2004-05-03,20.5373
2004-05-04,20.622
2004-05-05,20.9519
2004-05-06,20.9073
2004-05-07,20.7245
2004-05-10,20.1406
2004-05-11,20.1183
2004-05-12,20.4972
2004-05-13,20.0514
2004-05-14,20.1093
2004-05-17,19.9934
2004-05-18,19.512
2004-05-19,19.6101
2004-05-20,19.6101
2004-05-21,19.7705
2004-05-24,19.8597
2004-05-25,20.2966
2004-05-26,20.4214
2004-05-27,20.3144
2004-05-28,20.4125
2004-06-01,20.2119
2004-06-02,20.2297
2004-06-03,19.9712
2004-06-04,19.8062
2004-06-07,19.9399
2004-06-08,19.8909
2004-06-09,20.7067
2004-06-10,20.7557
2004-06-14,20.9965
2004-06-15,21.2951
2004-06-16,21.304
2004-06-17,21.2595
2004-06-18,21.0054
2004-06-21,20.9653
2004-06-22,21.041
2004-06-23,21.0633
2004-06-24,20.9608
2004-06-25,21.0143
2004-06-28,21.3308
2004-06-29,21.4467
2004-06-30,21.7855
2004-07-01,21.5849
2004-07-02,21.5715
2004-07-06,21.7365
2004-07-07,21.7409
2004-07-08,21.7365
2004-07-09,21.6116
2004-07-12,21.4734
2004-07-13,21.3263
2004-07-14,20.8716
2004-07-15,20.5908
2004-07-16,20.7914
2004-07-19,20.7245
2004-07-20,20.7424
2004-07-21,20.3099
2004-07-22,20.0603
2004-07-23,19.7349
2004-07-26,19.6769
2004-07-27,19.7795
2004-07-28,19.5789
2004-07-29,19.4808
2004-07-30,19.561
2004-08-02,19.6368
2004-08-03,19.6145
2004-08-04,19.5699
2004-08-05,19.2802
2004-08-06,19.1375
2004-08-09,19.4451
2004-08-10,19.5566
2004-08-11,19.5967
2004-08-12,19.4852
2004-08-13,19.2936
2004-08-16,19.3916
2004-08-17,17.818
2004-08-18,18.8166
2004-08-19,18.9146
2004-08-20,19.0573
2004-08-23,19.2267
2004-08-24,19.191
2004-08-25,19.3693
2004-08-26,19.5878
2004-08-27,19.6234
2004-08-30,19.4139
2004-08-31,19.5655
2004-09-01,19.5254
2004-09-02,19.9043
2004-09-03,19.8775
2004-09-07,20.2475
2004-09-08,20.0648
2004-09-09,19.8107
2004-09-10,19.8151
2004-09-13,19.6636
2004-09-14,19.6903
2004-09-15,19.5477
2004-09-16,19.454
2004-09-17,19.5789
2004-09-20,19.0707
2004-09-21,19.1019
2004-09-22,18.7274
2004-09-23,18.7809
2004-09-24,18.8389
2004-09-27,18.5758
2004-09-28,18.4287
2004-09-29,18.7185
2004-09-30,18.6873
2004-10-01,18.7764
2004-10-04,18.6338
2004-10-05,18.6338
2004-10-06,18.7319
2004-10-07,18.6918
2004-10-08,18.3752
2004-10-11,18.0498
2004-10-12,17.9919
2004-10-13,18.1791
2004-10-14,18.0142
2004-10-15,18.4733
2004-10-18,18.8121
2004-10-19,18.9548
2004-10-20,18.821
2004-10-21,19.093
2004-10-22,19.0662
2004-10-25,18.928
2004-10-26,19.2401
2004-10-27,19.4184
2004-10-28,19.6725
2004-10-29,19.1598
2004-11-01,18.5714
2004-11-02,18.879
2004-11-03,19.2713
2004-11-04,19.4719
2004-11-05,19.7527
2004-11-08,19.6591
2004-11-09,19.6903
2004-11-10,19.5254
2004-11-11,19.5922
2004-11-12,19.8552
2004-11-15,20.0603
2004-11-16,19.9087
2004-11-17,20.0648
2004-11-18,20.0336
2004-11-19,20.0157
2004-11-22,20.1227
2004-11-23,19.8018
2004-11-24,19.7616
2004-11-26,19.7928
2004-11-29,19.668
2004-11-30,19.4763
2004-12-01,19.6012
2004-12-02,19.9399
2004-12-03,20.1004
2004-12-06,19.989
2004-12-07,20.0157
2004-12-08,20.0472
2004-12-09,20.398
2004-12-10,20.6769
2004-12-13,20.9108
2004-12-14,20.9198
2004-12-15,20.7893
2004-12-16,20.9917
2004-12-17,20.8883
2004-12-20,20.7803
2004-12-21,20.7534
2004-12-22,20.8973
2004-12-23,20.6634
2004-12-27,20.5599
2004-12-28,20.5959
2004-12-29,20.5599
2004-12-30,20.5689
2004-12-31,20.5914
2005-01-03,20.5105
2005-01-04,20.1057
2005-01-05,19.6784
2005-01-06,19.9482
2005-01-07,20.1326
2005-01-10,20.2406
2005-01-11,20.2406
2005-01-12,20.3575
2005-01-13,20.3395
2005-01-14,20.515
2005-01-18,20.8343
2005-01-19,20.7803
2005-01-20,20.8253
2005-01-21,20.6274
2005-01-24,20.5285
2005-01-25,20.4115
2005-01-26,20.407
2005-01-27,20.3935
2005-01-28,21.0637
2005-01-31,20.3216
2005-02-01,20.2946
2005-02-02,20.5285
2005-02-03,20.2361
2005-02-04,20.3575
2005-02-07,20.0652
2005-02-08,19.6559
2005-02-09,19.6559
2005-02-10,19.4265
2005-02-11,19.4085
2005-02-14,19.7638
2005-02-15,20.1102
2005-02-16,19.9707
2005-02-17,20.0922
2005-02-18,19.9617
2005-02-22,19.6199
2005-02-23,19.7863
2005-02-24,19.9527
2005-02-25,19.8583
2005-02-28,19.7863
2005-03-01,19.7683
2005-03-02,19.2196
2005-03-03,19.269
2005-03-04,19.3455
2005-03-07,19.4714
2005-03-08,19.4894
2005-03-09,19.1971
2005-03-10,18.9587
2005-03-11,19.1881
2005-03-14,19.5209
2005-03-15,19.9707
2005-03-16,19.9302
2005-03-17,19.7863
2005-03-18,19.5704
2005-03-21,19.6784
2005-03-22,19.4535
2005-03-23,20.0202
2005-03-24,20.2586
2005-03-28,20.2136
2005-03-29,19.9842
2005-03-30,20.2856
2005-03-31,20.2361
2005-04-01,20.2091
2005-04-04,20.2451
2005-04-05,20.1956
2005-04-06,20.2271
2005-04-07,20.2631
2005-04-08,20.3171
2005-04-11,20.38
2005-04-12,20.5644
2005-04-13,20.0112
2005-04-14,19.9707
2005-04-15,19.6784
2005-04-18,19.6559
2005-04-19,19.3635
2005-04-20,18.9587
2005-04-21,18.9812
2005-04-22,18.8282
2005-04-25,19.0172
2005-04-26,18.7338
2005-04-27,18.6213
2005-04-28,16.9796
2005-04-29,17.272
2005-05-02,17.254
2005-05-03,17.155
2005-05-04,16.9976
2005-05-05,17.0471
2005-05-06,16.9166
2005-05-09,17.0156
2005-05-10,16.9256
2005-05-11,16.8177
2005-05-12,16.7367
2005-05-13,16.6693
2005-05-16,16.6917
2005-05-17,16.8672
2005-05-18,17.6813
2005-05-19,17.6768
2005-05-20,17.9781
2005-05-23,17.7712
2005-05-24,17.6453
2005-05-25,17.6318
2005-05-26,17.8162
2005-05-27,17.7218
2005-05-31,17.6048
2005-06-01,17.9107
2005-06-02,17.8207
2005-06-03,17.7398
2005-06-06,17.7577
2005-06-07,17.6993
2005-06-08,17.9646
2005-06-09,17.5823
2005-06-10,17.7308
2005-06-13,17.6723
2005-06-14,17.7443
2005-06-15,17.8117
2005-06-16,17.8342
2005-06-17,17.7847
2005-06-20,17.6588
2005-06-21,17.6408
2005-06-22,17.4474
2005-06-23,17.3169
2005-06-24,17.5194
2005-06-27,17.4834
2005-06-28,17.5508
2005-06-29,17.4969
2005-06-30,17.5913
2005-07-01,17.308
2005-07-05,17.4474
2005-07-06,17.4024
2005-07-07,17.0786
2005-07-08,17.0696
2005-07-11,17.155
2005-07-12,17.3214
2005-07-13,17.173
2005-07-14,17.0426
2005-07-15,17.2135
2005-07-18,17.137
2005-07-19,17.0156
2005-07-20,17.0651
2005-07-21,16.9706
2005-07-22,17.2045
2005-07-25,17.2045
2005-07-26,17.209
2005-07-27,17.2135
2005-07-28,17.7128
2005-07-29,17.6183
2005-08-01,17.4294
2005-08-02,17.5014
2005-08-03,17.6813
2005-08-04,17.5328
2005-08-05,17.218
2005-08-08,17.0651
2005-08-09,16.9121
2005-08-10,16.8312
2005-08-11,16.9256
2005-08-12,16.7997
2005-08-15,16.8222
2005-08-16,18.3065
2005-08-17,18.4594
2005-08-18,18.8417
2005-08-19,18.6573
2005-08-22,18.4729
2005-08-23,18.338
2005-08-24,18.0771
2005-08-25,18.1985
2005-08-26,17.9871
2005-08-29,18.2435
2005-08-30,18.1221
2005-08-31,18.203
2005-09-01,18.2525
2005-09-02,18.2345
2005-09-06,18.3065
2005-09-07,18.4594
2005-09-08,18.0816
2005-09-09,18.1221
2005-09-12,18.1536
2005-09-13,17.9961
2005-09-14,17.8252
2005-09-15,18.0681
2005-09-16,18.257
2005-09-19,18.203
2005-09-20,16.3814
2005-09-21,16.1835
2005-09-22,16.0395
2005-09-23,15.9406
2005-09-26,15.7427
2005-09-27,15.8102
2005-09-28,15.6257
2005-09-29,15.2614
2005-09-30,15.6752
2005-10-03,15.8686
2005-10-04,15.8281
2005-10-05,15.6257
2005-10-06,15.7967
2005-10-07,15.7922
2005-10-10,15.7652
2005-10-11,15.7247
2005-10-12,15.5133
2005-10-13,15.6617
2005-10-14,15.8371
2005-10-17,15.9091
2005-10-18,15.8416
2005-10-19,15.6977
2005-10-20,15.2794
2005-10-21,15.1984
2005-10-24,15.2524
2005-10-25,14.9825
2005-10-26,13.7861
2005-10-27,13.8176
2005-10-28,14.5687
2005-10-31,14.9016
2005-11-01,14.8521
2005-11-02,14.9151
2005-11-03,14.8566
2005-11-04,14.8431
2005-11-07,14.9555
2005-11-08,14.8026
2005-11-09,14.9241
2005-11-10,15.2299
2005-11-11,15.0185
2005-11-14,14.9061
2005-11-15,14.7801
2005-11-16,14.6092
2005-11-17,14.969
2005-11-18,15.0005
2005-11-21,15.0455
2005-11-22,14.8296
2005-11-23,14.9151
2005-11-25,15.1669
2005-11-28,14.96
2005-11-29,14.9196
2005-11-30,14.8791
2005-12-01,15.095
2005-12-02,15.3244
2005-12-05,15.3963
2005-12-06,15.3334
2005-12-07,15.2104
2005-12-08,15.083
2005-12-09,15.1467
2005-12-12,15.7247
2005-12-13,15.5381
2005-12-14,15.57
2005-12-15,15.4016
2005-12-16,15.4608
2005-12-19,15.2286
2005-12-20,15.1649
2005-12-21,15.0466
2005-12-22,15.0511
2005-12-23,15.1558
2005-12-27,14.9556
2005-12-28,15.2059
2005-12-29,15.2696
2005-12-30,15.2241
2006-01-03,15.1831
2006-01-04,15.9295
2006-01-05,15.6519
2006-01-06,15.5882
2006-01-09,15.7475
2006-01-10,15.8431
2006-01-11,15.8294
2006-01-12,15.8704
2006-01-13,15.8522
2006-01-17,15.8567
2006-01-18,16.1161
2006-01-19,16.0206
2006-01-20,15.5654
2006-01-23,15.5108
2006-01-24,15.6337
2006-01-25,15.5836
2006-01-26,16.2663
2006-01-27,16.33
2006-01-30,16.2891
2006-01-31,16.5986
2006-02-01,16.6942
2006-02-02,16.8717
2006-02-03,16.7169
2006-02-06,16.7397
2006-02-07,16.7033
2006-02-08,17.1993
2006-02-09,17.0492
2006-02-10,17.2267
2006-02-13,17.1811
2006-02-14,17.1811
2006-02-15,17.477
2006-02-16,17.5316
2006-02-17,17.4315
2006-02-21,17.4133
2006-02-22,17.7728
2006-02-23,17.4952
2006-02-24,17.568
2006-02-27,17.172
2006-02-28,17.0401
2006-03-01,16.9536
2006-03-02,16.9809
2006-03-03,16.9081
2006-03-06,16.9672
2006-03-07,16.8626
2006-03-08,16.9035
2006-03-09,16.8899
2006-03-10,16.8853
2006-03-13,17.0218
2006-03-14,17.1265
2006-03-15,17.1402
2006-03-16,17.0036
2006-03-17,17.1129
2006-03-20,17.1584
2006-03-21,17.0901
2006-03-22,17.2312
2006-03-23,16.9627
2006-03-24,17.081
2006-03-27,17.0992
2006-03-28,16.8443
2006-03-29,16.8079
2006-03-30,16.9991
2006-03-31,16.9081
2006-04-03,17.0082
2006-04-04,16.9536
2006-04-05,16.6122
2006-04-06,16.635
2006-04-07,16.7624
2006-04-10,16.7351
2006-04-11,16.3027
2006-04-12,16.3938
2006-04-13,16.3619
2006-04-17,16.3255
2006-04-18,16.5349
2006-04-19,16.4484
2006-04-20,16.5303
2006-04-21,16.544
2006-04-24,16.4848
2006-04-25,16.4984
2006-04-26,16.7943
2006-04-27,16.8443
2006-04-28,16.8853
2006-05-01,16.9081
2006-05-02,17.1857
2006-05-03,16.9126
2006-05-04,17.923
2006-05-05,18.1415
2006-05-08,18.6194
2006-05-09,18.6558
2006-05-10,18.5511
2006-05-11,18.5693
2006-05-12,18.1824
2006-05-15,18.6421
2006-05-16,18.6194
2006-05-17,18.6376
2006-05-18,18.633
2006-05-19,18.724
2006-05-22,18.8014
2006-05-23,18.5784
2006-05-24,18.5511
2006-05-25,18.5784
2006-05-26,18.8242
2006-05-30,18.4692
2006-05-31,18.6239
2006-06-01,18.5966
2006-06-02,18.2598
2006-06-05,17.9822
2006-06-06,17.9776
2006-06-07,17.9276
2006-06-08,17.791
2006-06-09,17.7136
2006-06-12,17.4087
2006-06-13,17.5407
2006-06-14,17.527
2006-06-15,17.5589
2006-06-16,17.4633
2006-06-19,17.8547
2006-06-20,17.5999
2006-06-21,17.4906
2006-06-22,17.2722
2006-06-23,17.3905
2006-06-26,17.3177
2006-06-27,17.2085
2006-06-28,17.0537
2006-06-29,17.6954
2006-06-30,17.6226
2006-07-03,17.5862
2006-07-05,17.4178
2006-07-06,17.7
2006-07-07,17.5179
2006-07-10,17.386
2006-07-11,17.6727
2006-07-12,17.4861
2006-07-13,17.1811
2006-07-14,16.7442
2006-07-17,16.7806
2006-07-18,16.8853
2006-07-19,17.0628
2006-07-20,16.767
2006-07-21,16.544
2006-07-24,16.7078
2006-07-25,16.7943
2006-07-26,16.6668
2006-07-27,16.6122
2006-07-28,17.0901
2006-07-31,16.9763
2006-08-01,16.7488
2006-08-02,16.9445
2006-08-03,16.9172
2006-08-04,17.1174
2006-08-07,17.1584
2006-08-08,17.1311
2006-08-09,17.2858
2006-08-10,17.7455
2006-08-11,16.7351
2006-08-14,16.8125
2006-08-15,16.9217
2006-08-16,16.6987
2006-08-17,16.2254
2006-08-18,16.1935
2006-08-21,16.016
2006-08-22,16.0843
2006-08-23,16.0797
2006-08-24,15.9842
2006-08-25,15.8977
2006-08-28,16.2845
2006-08-29,16.5986
2006-08-30,16.7124
2006-08-31,16.7624
2006-09-01,17.0628
2006-09-05,17.081
2006-09-06,16.8398
2006-09-07,16.8534
2006-09-08,16.8899
2006-09-11,17.6181
2006-09-12,17.9367
2006-09-13,17.9549
2006-09-14,17.9321
2006-09-15,17.6636
2006-09-18,17.9867
2006-09-19,17.9139
2006-09-20,18.0049
2006-09-21,18.1233
2006-09-22,17.9367
2006-09-25,18.0686
2006-09-26,18.3144
2006-09-27,18.146
2006-09-28,18.6239
2006-09-29,18.3599
2006-10-02,18.1369
2006-10-03,18.1733
2006-10-04,18.4236
2006-10-05,18.4282
2006-10-06,18.4327
2006-10-09,18.4874
2006-10-10,18.5465
2006-10-11,18.4191
2006-10-12,18.2962
2006-10-13,18.055
2006-10-16,18.4919
2006-10-17,18.4464
2006-10-18,18.4601
2006-10-19,18.3099
2006-10-20,18.2097
2006-10-23,18.0914
2006-10-24,18.1369
2006-10-25,19.0563
2006-10-26,18.4874
2006-10-27,18.1961
2006-10-30,18.1961
2006-10-31,18.3508
2006-11-01,18.0869
2006-11-02,18.0231
2006-11-03,17.8502
2006-11-06,18.1278
2006-11-07,18.1733
2006-11-08,18.2006
2006-11-09,17.9776
2006-11-10,18.1915
2006-11-13,18.0186
2006-11-14,18.2052
2006-11-15,18.3008
2006-11-16,18.5829
2006-11-17,18.6512
2006-11-20,18.7513
2006-11-21,18.8742
2006-11-22,18.9061
2006-11-24,19.0335
2006-11-27,18.7741
2006-11-28,18.7104
2006-11-29,18.8242
2006-11-30,18.7969
2006-12-01,18.592
2006-12-04,18.9379
2006-12-05,19.0927
2006-12-06,19.1155
2006-12-07,19.1201
2006-12-08,19.1294
2006-12-11,18.9129
2006-12-12,18.9958
2006-12-13,19.0234
2006-12-14,19.005
2006-12-15,18.9129
2006-12-18,18.9866
2006-12-19,19.1155
2006-12-20,18.9221
2006-12-21,18.9497
2006-12-22,18.9589
2006-12-26,18.9728
2006-12-27,19.0004
2006-12-28,19.0465
2006-12-29,18.8115
2007-01-03,18.9083
2007-01-04,18.9267
2007-01-05,18.7056
2007-01-08,18.4891
2007-01-09,18.6273
2007-01-10,18.6457
2007-01-11,18.7839
2007-01-12,18.8392
2007-01-16,19.0142
2007-01-17,18.7977
2007-01-18,18.6595
2007-01-19,18.8668
2007-01-22,18.6595
2007-01-23,18.572
2007-01-24,18.9774
2007-01-25,18.7701
2007-01-26,18.6734
2007-01-29,18.8023
2007-01-30,19.0372
2007-01-31,21.7871
2007-02-01,21.8332
2007-02-02,21.3173
2007-02-05,21.4831
2007-02-06,21.3956
2007-02-07,21.1607
2007-02-08,21.2897
2007-02-09,21.4463
2007-02-12,21.3587
2007-02-13,21.4831
2007-02-14,21.7226
2007-02-15,21.8931
2007-02-16,21.976
2007-02-20,22.1832
2007-02-21,21.6858
2007-02-22,21.5061
2007-02-23,21.8009
2007-02-26,21.7963
2007-02-27,21.0962
2007-02-28,22.0451
2007-03-01,21.6259
2007-03-02,21.1699
2007-03-05,21.1607
2007-03-06,21.7134
2007-03-07,21.6443
2007-03-08,22.1372
2007-03-09,21.9115
2007-03-12,22.736
2007-03-13,22.2754
2007-03-14,22.2201
2007-03-15,22.0957
2007-03-16,21.9898
2007-03-19,22.0865
2007-03-20,22.4965
2007-03-21,22.6761
2007-03-22,22.7682
2007-03-23,22.8051
2007-03-26,22.4734
2007-03-27,22.4089
2007-03-28,22.4642
2007-03-29,22.4596
2007-03-30,22.5103
2007-04-02,22.6116
2007-04-03,22.6945
2007-04-04,22.6254
2007-04-05,22.7083
2007-04-09,22.6853
2007-04-10,22.7406
2007-04-11,22.6162
2007-04-12,22.8189
2007-04-13,22.9617
2007-04-16,23.1505
2007-04-17,23.2288
2007-04-18,23.0907
2007-04-19,23.0584
2007-04-20,23.3532
2007-04-23,23.519
2007-04-24,23.4361
2007-04-25,23.6849
2007-04-26,23.4684
2007-04-27,23.4592
2007-04-30,23.6941
2007-05-01,23.3808
2007-05-02,23.5282
2007-05-03,21.7457
2007-05-04,22.0405
2007-05-07,22.0543
2007-05-08,21.9391
2007-05-09,21.824
2007-05-10,21.6858
2007-05-11,21.6674
2007-05-14,21.7134
2007-05-15,21.6674
2007-05-16,21.6489
2007-05-17,21.6259
2007-05-18,21.6443
2007-05-21,21.7318
2007-05-22,21.7917
2007-05-23,21.6766
2007-05-24,21.6766
2007-05-25,21.8055
2007-05-29,21.8562
2007-05-30,21.8608
2007-05-31,21.8101
2007-06-01,21.7088
2007-06-04,21.8424
2007-06-05,21.52
2007-06-06,21.239
2007-06-07,21.0916
2007-06-08,21.1883
2007-06-11,21.3772
2007-06-12,21.2804
2007-06-13,21.5107
2007-06-14,21.3956
2007-06-15,21.1745
2007-06-18,21.2482
2007-06-19,21.262
2007-06-20,20.9949
2007-06-21,21.1008
2007-06-22,20.9258
2007-06-25,20.8981
2007-06-26,20.806
2007-06-27,20.7645
2007-06-28,21.1423
2007-06-29,20.935
2007-07-02,20.958
2007-07-03,20.8014
2007-07-05,21.1008
2007-07-06,21.2252
2007-07-09,21.391
2007-07-10,21.1146
2007-07-11,21.4647
2007-07-12,21.7687
2007-07-13,21.695
2007-07-16,21.6443
2007-07-17,21.9023
2007-07-18,21.7503
2007-07-19,21.8424
2007-07-20,21.7272
2007-07-23,21.6213
2007-07-24,21.6121
2007-07-25,21.4278
2007-07-26,21.3818
2007-07-27,21.1607
2007-07-30,20.9304
2007-07-31,20.7277
2007-08-01,20.7185
2007-08-02,20.6678
2007-08-03,20.5158
2007-08-06,20.6632
2007-08-07,20.479
2007-08-08,20.2671
2007-08-09,19.9308
2007-08-10,19.9723
2007-08-13,20.3868
2007-08-14,20.3454
2007-08-15,19.9032
2007-08-16,18.5858
2007-08-17,18.5582
2007-08-20,18.853
2007-08-21,19.0787
2007-08-22,19.0511
2007-08-23,19.2906
2007-08-24,19.6729
2007-08-27,19.5485
2007-08-28,19.0326
2007-08-29,19.1386
2007-08-30,19.157
2007-08-31,19.1846
2007-09-04,19.2722
2007-09-05,19.0971
2007-09-06,18.9359
2007-09-07,18.8438
2007-09-10,18.4891
2007-09-11,18.4753
2007-09-12,18.572
2007-09-13,18.6918
2007-09-14,18.4661
2007-09-17,18.5075
2007-09-18,19.0879
2007-09-19,18.9129
2007-09-20,18.7056
2007-09-21,19.5808
2007-09-24,19.5255
2007-09-25,19.6867
2007-09-26,19.6084
2007-09-27,19.6913
2007-09-28,19.5071
2007-10-01,19.7558
2007-10-02,19.7742
2007-10-03,20.1381
2007-10-04,20.3131
2007-10-05,20.2302
2007-10-08,20.221
2007-10-09,20.0091
2007-10-10,19.8525
2007-10-11,19.8756
2007-10-12,19.8433
2007-10-15,19.7834
2007-10-16,19.4564
2007-10-17,19.3459
2007-10-18,20.1565
2007-10-19,20.1427
2007-10-22,20.4099
2007-10-23,20.4145
2007-10-24,19.9539
2007-10-25,20.5941
2007-10-26,20.7553
2007-10-29,20.4559
2007-10-30,20.2579
2007-10-31,20.2026
2007-11-01,19.9124
2007-11-02,19.4057
2007-11-05,19.2814
2007-11-06,19.3366
2007-11-07,18.982
2007-11-08,18.8991
2007-11-09,20.3131
2007-11-12,19.8203
2007-11-13,20.4559
2007-11-14,20.327
2007-11-15,20.1657
2007-11-16,20.5388
2007-11-19,19.8065
2007-11-20,19.7282
2007-11-21,19.461
2007-11-23,19.3919
2007-11-26,19.4242
2007-11-27,19.461
2007-11-28,20.2809
2007-11-29,20.198
2007-11-30,20.631
2007-12-03,20.0828
2007-12-04,20.1704
2007-12-05,20.2686
2007-12-06,20.152
2007-12-07,20.2966
2007-12-10,20.5718
2007-12-11,20.2499
2007-12-12,20.7444
2007-12-13,20.5998
2007-12-14,20.2126
2007-12-17,19.9887
2007-12-18,20.1287
2007-12-19,20.2733
2007-12-20,20.6278
2007-12-21,20.945
2007-12-24,20.8051
2007-12-26,20.6791
2007-12-27,20.4505
2007-12-28,20.4365
2007-12-31,20.3619
2008-01-02,20.124
2008-01-03,20.1613
2008-01-04,19.5269
2008-01-07,19.5316
2008-01-08,19.4429
2008-01-09,19.5549
2008-01-10,19.5269
2008-01-11,18.1135
2008-01-14,18.0248
2008-01-15,17.7309
2008-01-16,18.1135
2008-01-17,17.8802
2008-01-18,18.1228
2008-01-22,18.3094
2008-01-23,19.163
2008-01-24,18.2347
2008-01-25,18.3187
2008-01-28,18.5753
2008-01-29,19.1957
2008-01-30,18.9625
2008-01-31,19.8068
2008-02-01,20.861
2008-02-04,20.5345
2008-02-05,20.1566
2008-02-06,20.3339
2008-02-07,20.6185
2008-02-08,20.2546
2008-02-11,20.4179
2008-02-12,20.4645
2008-02-13,20.4552
2008-02-14,20.3059
2008-02-15,20.2639
2008-02-19,19.8394
2008-02-20,19.6109
2008-02-21,19.5642
2008-02-22,19.7928
2008-02-25,20.0913
2008-02-26,20.3199
2008-02-27,20.152
2008-02-28,19.9514
2008-02-29,19.8301
2008-03-03,20.2313
2008-03-04,20.1986
2008-03-05,20.5205
2008-03-06,20.3432
2008-03-07,20.4225
2008-03-10,20.5485
2008-03-11,20.9403
2008-03-12,21.0616
2008-03-13,21.2296
2008-03-14,20.6558
2008-03-17,20.6931
2008-03-18,21.1176
2008-03-19,20.7631
2008-03-20,21.1223
2008-03-24,21.1269
2008-03-25,20.987
2008-03-26,21.0756
2008-03-27,21.3602
2008-03-28,21.0943
2008-03-31,21.3835
2008-04-01,22.0879
2008-04-02,21.9106
2008-04-03,22.2558
2008-04-04,22.0179
2008-04-07,21.4675
2008-04-08,21.4861
2008-04-09,20.8004
2008-04-10,21.2249
2008-04-11,21.1689
2008-04-14,21.4255
2008-04-15,20.9963
2008-04-16,20.861
2008-04-17,20.7957
2008-04-18,20.6838
2008-04-21,20.7444
2008-04-22,20.6325
2008-04-23,20.5485
2008-04-24,21.0756
2008-04-25,21.2669
2008-04-28,21.4441
2008-04-29,21.6354
2008-04-30,21.3089
2008-05-01,21.1036
2008-05-02,20.6465
2008-05-05,21.1969
2008-05-06,22.6477
2008-05-07,22.2325
2008-05-08,22.2791
2008-05-09,22.4051
2008-05-12,22.7549
2008-05-13,22.7176
2008-05-14,22.2978
2008-05-15,22.4891
2008-05-16,22.4191
2008-05-19,22.3305
2008-05-20,22.0412
2008-05-21,21.864
2008-05-22,22.0692
2008-05-23,21.7473
2008-05-27,21.906
2008-05-28,21.85
2008-05-29,22.3118
2008-05-30,22.2325
2008-06-02,22.0272
2008-06-03,21.9153
2008-06-04,21.9433
2008-06-05,22.1998
2008-06-06,21.5887
2008-06-09,21.9153
2008-06-10,22.4984
2008-06-11,22.2558
2008-06-12,22.2278
2008-06-13,22.7736
2008-06-16,22.7503
2008-06-17,22.4144
2008-06-18,21.9479
2008-06-19,22.0272
2008-06-20,21.5234
2008-06-23,21.3555
2008-06-24,21.3275
2008-06-25,21.7753
2008-06-26,21.5094
2008-06-27,21.5561
2008-06-30,21.6541
2008-07-01,21.4581
2008-07-02,20.8984
2008-07-03,21.3648
2008-07-07,21.1969
2008-07-08,21.2575
2008-07-09,21.4908
2008-07-10,20.875
2008-07-11,19.998
2008-07-14,19.9794
2008-07-15,19.6342
2008-07-16,19.9841
2008-07-17,20.5018
2008-07-18,20.2639
2008-07-21,20.208
2008-07-22,20.3712
2008-07-23,20.6978
2008-07-24,20.124
2008-07-25,19.9794
2008-07-28,19.9234
2008-07-29,20.3292
2008-07-30,20.6604
2008-07-31,20.5672
2008-08-01,20.6045
2008-08-04,20.861
2008-08-05,21.5981
2008-08-06,21.6447
2008-08-07,21.3555
2008-08-08,21.682
2008-08-11,21.3135
2008-08-12,21.2109
2008-08-13,20.9683
2008-08-14,23.9351
2008-08-15,24.229
2008-08-18,23.5993
2008-08-19,23.5386
2008-08-20,23.4174
2008-08-21,23.3427
2008-08-22,23.5386
2008-08-25,23.3334
2008-08-26,23.1375
2008-08-27,23.1095
2008-08-28,23.3474
2008-08-29,23.2681
2008-09-02,23.1515
2008-09-03,23.6039
2008-09-04,23.8139
2008-09-05,24.6115
2008-09-08,25.064
2008-09-09,24.4296
2008-09-10,24.2197
2008-09-11,24.6209
2008-09-12,24.8914
2008-09-15,25.0594
2008-09-16,24.3876
2008-09-17,23.562
2008-09-18,24.0144
2008-09-19,23.7206
2008-09-22,23.338
2008-09-23,23.1561
2008-09-24,23.5666
2008-09-25,23.5853
2008-09-26,23.7579
2008-09-29,22.741
2008-09-30,23.2448
2008-10-01,23.4733
2008-10-02,22.517
2008-10-03,21.6307
2008-10-06,20.8051
2008-10-07,20.3153
2008-10-08,19.4942
2008-10-09,18.7059
2008-10-10,18.5939
2008-10-13,19.5829
2008-10-14,18.8272
2008-10-15,17.9129
2008-10-16,17.591
2008-10-17,17.0126
2008-10-20,17.4417
2008-10-21,16.8726
2008-10-22,16.0376
2008-10-23,15.7531
2008-10-24,15.1466
2008-10-27,15.2353
2008-10-28,16.4435
2008-10-29,16.3688
2008-10-30,16.2662
2008-10-31,16.7793
2008-11-03,16.3548
2008-11-04,17.2505
2008-11-05,15.9676
2008-11-06,15.4265
2008-11-07,15.6878
2008-11-10,15.5245
2008-11-11,15.3519
2008-11-12,14.3769
2008-11-13,14.7641
2008-11-14,14.0178
2008-11-17,13.8778
2008-11-18,13.5559
2008-11-19,13.0288
2008-11-20,11.5827
2008-11-21,11.9326
2008-11-24,12.3991
2008-11-25,12.5717
2008-11-26,13.1237
2008-11-28,13.2857
2008-12-01,11.9095
2008-12-02,12.8666
2008-12-03,13.1666
2008-12-04,12.7618
2008-12-05,13.3714
2008-12-08,13.2666
2008-12-09,13.3809
2008-12-10,13.8809
2008-12-11,13.6476
2008-12-12,14.1047
2008-12-15,13.8952
2008-12-16,14.438
2008-12-17,14.3999
2008-12-18,14.1333
2008-12-19,14.1047
2008-12-22,13.9904
2008-12-23,13.8095
2008-12-24,14.0237
2008-12-26,14.0618
2008-12-29,13.9904
2008-12-30,14.4476
2008-12-31,14.7952
2009-01-02,15.5428
2009-01-05,14.7666
2009-01-06,14.8333
2009-01-07,14.7095
2009-01-08,14.8095
2009-01-09,14.5666
2009-01-12,14.0666
2009-01-13,13.6714
2009-01-14,13.4761
2009-01-15,13.819
2009-01-16,12.4761
2009-01-20,12.4476
2009-01-21,12.5142
2009-01-22,12.6761
2009-01-23,12.0761
2009-01-26,12.1952
2009-01-27,12.2857
2009-01-28,12.7857
2009-01-29,12.7571
2009-01-30,12.4571
2009-02-02,12.3238
2009-02-03,12.4761
2009-02-04,12.4809
2009-02-05,12.7904
2009-02-06,13.4571
2009-02-09,13.6952
2009-02-10,12.7714
2009-02-11,12.7904
2009-02-12,13.0095
2009-02-13,12.819
2009-02-17,12.2523
2009-02-18,12.1333
2009-02-19,11.9714
2009-02-20,11.7618
2009-02-23,11.0999
2009-02-24,11.1809
2009-02-25,11.0809
2009-02-26,10.8809
2009-02-27,10.8047
2009-03-02,10.0666
2009-03-03,9.99519
2009-03-04,10.3619
2009-03-05,9.819
2009-03-06,9.82376
2009-03-09,9.50472
2009-03-10,9.99519
2009-03-11,10.0761
2009-03-12,10.2571
2009-03-13,10.5333
2009-03-16,10.6238
2009-03-17,10.9761
2009-03-18,11.2857
2009-03-19,11.2238
2009-03-20,11.0523
2009-03-23,11.7999
2009-03-24,11.9285
2009-03-25,12.0142
2009-03-26,12.3476
2009-03-27,12.2333
2009-03-30,11.7523
2009-03-31,11.7618
2009-04-01,11.9666
2009-04-02,12.7142
2009-04-03,12.6952
2009-04-06,12.719
2009-04-07,11.8999
2009-04-08,12.2238
2009-04-09,12.7047
2009-04-13,12.8476
2009-04-14,12.5857
2009-04-15,12.4809
2009-04-16,12.7809
2009-04-17,13.3047
2009-04-20,12.5952
2009-04-21,13.0095
2009-04-22,13.2999
2009-04-23,13.3428
2009-04-24,13.9428
2009-04-27,13.4285
2009-04-28,13.519
2009-04-29,13.6285
2009-04-30,14.2428
2009-05-01,14.7571
2009-05-04,17.5999
2009-05-05,16.4618
2009-05-06,15.9285
2009-05-07,16.0094
2009-05-08,16.1952
2009-05-11,16.0809
2009-05-12,15.8142
2009-05-13,15.2618
2009-05-14,15.3428
2009-05-15,15.2856
2009-05-18,15.9237
2009-05-19,15.7571
2009-05-20,15.7666
2009-05-21,15.238
2009-05-22,15.4333
2009-05-26,15.8475
2009-05-27,15.5142
2009-05-28,15.419
2009-05-29,15.7237
2009-06-01,16.3428
2009-06-02,16.3475
2009-06-03,16.0571
2009-06-04,16.1618
2009-06-05,16.0666
2009-06-08,15.9856
2009-06-09,16.0523
2009-06-10,15.9999
2009-06-11,16.2571
2009-06-12,16.138
2009-06-15,15.5761
2009-06-16,14.8952
2009-06-17,14.7952
2009-06-18,14.9333
2009-06-19,14.9761
2009-06-22,14.5618
2009-06-23,15.0618
2009-06-24,15.4285
2009-06-25,15.9094
2009-06-26,15.619
2009-06-29,15.8094
2009-06-30,15.5666
2009-07-01,15.9094
2009-07-02,15.4904
2009-07-06,15.4952
2009-07-07,14.9761
2009-07-08,14.8237
2009-07-09,14.5523
2009-07-10,14.3952
2009-07-13,14.9237
2009-07-14,15.1428
2009-07-15,15.7285
2009-07-16,15.8999
2009-07-17,15.8047
2009-07-20,16.2047
2009-07-21,16.1618
2009-07-22,16.2237
2009-07-23,16.919
2009-07-24,16.9856
2009-07-27,16.8952
2009-07-28,17.0333
2009-07-29,17.038
2009-07-30,17.3761
2009-07-31,17.3666
2009-08-03,17.438
2009-08-04,17.4428
2009-08-05,17.3094
2009-08-06,17.2475
2009-08-07,17.7094
2009-08-10,17.7618
2009-08-11,17.5904
2009-08-12,17.9428
2009-08-13,17.9809
2009-08-14,17.1761
2009-08-17,16.6618
2009-08-18,16.5666
2009-08-19,16.6618
2009-08-20,16.8713
2009-08-21,17.0475
2009-08-24,16.938
2009-08-25,17.1237
2009-08-26,17.0856
2009-08-27,17.238
2009-08-28,17.4237
2009-08-31,17.0571
2009-09-01,16.5475
2009-09-02,16.1761
2009-09-03,16.019
2009-09-04,16.4618
2009-09-08,16.519
2009-09-09,16.3285
2009-09-10,16.3999
2009-09-11,16.2952
2009-09-14,16.4999
2009-09-15,16.6333
2009-09-16,16.9142
2009-09-17,16.8666
2009-09-18,17.5475
2009-09-21,17.4904
2009-09-22,17.7761
2009-09-23,17.6047
2009-09-24,17.1856
2009-09-25,17.0666
2009-09-28,17.2904
2009-09-29,17.4904
2009-09-30,17.6332
2009-10-01,17.1142
2009-10-02,17.3094
2009-10-05,17.4475
2009-10-06,17.5809
2009-10-07,18.3523
2009-10-08,18.8428
2009-10-09,18.9047
2009-10-12,18.4475
2009-10-13,18.3428
2009-10-14,18.4951
2009-10-15,18.5951
2009-10-16,19.5856
2009-10-19,19.8666
2009-10-20,19.9523
2009-10-21,20.138
2009-10-22,20.3237
2009-10-23,20.019
2009-10-26,19.838
2009-10-27,19.619
2009-10-28,19.0666
2009-10-29,19.619
2009-10-30,20.4142
2009-11-02,21.1475
2009-11-03,21.2428
2009-11-04,21.2951
2009-11-05,21.9523
2009-11-06,22.2761
2009-11-09,22.4142
2009-11-10,22.3189
2009-11-11,22.1428
2009-11-12,22.1094
2009-11-13,22.2094
2009-11-16,23.2285
2009-11-17,23.357
2009-11-18,22.9237
2009-11-19,22.6618
2009-11-20,22.8094
2009-11-23,22.957
2009-11-24,22.8856
2009-11-25,23.218
2009-11-27,22.6352
2009-11-30,22.5677
2009-12-01,23.4396
2009-12-02,23.8298
2009-12-03,23.7527
2009-12-04,23.6371
2009-12-07,23.6612
2009-12-08,23.0446
2009-12-09,22.9049
2009-12-10,23.1891
2009-12-11,23.7334
2009-12-14,24.2392
2009-12-15,24.0369
2009-12-16,23.8635
2009-12-17,23.2084
2009-12-18,22.8808
2009-12-21,23.1024
2009-12-22,23.141
2009-12-23,23.2951
2009-12-24,23.5022
2009-12-28,23.7431
2009-12-29,23.8057
2009-12-30,23.6805
2009-12-31,23.2951
2010-01-04,23.3577
2010-01-05,23.2806
2010-01-06,23.3625
2010-01-07,23.6419
2010-01-08,23.7527
2010-01-11,23.9502
2010-01-12,23.8442
2010-01-13,24.0562
2010-01-14,24.0369
2010-01-15,23.9839
2010-01-19,24.0803
2010-01-20,23.5938
2010-01-21,25.8192
2010-01-22,25.6121
2010-01-25,25.6362
2010-01-26,25.8048
2010-01-27,25.8722
2010-01-28,25.5832
2010-01-29,25.2604
2010-02-01,25.983
2010-02-02,26.9753
2010-02-03,27.3029
2010-02-04,26.8452
2010-02-05,26.6622
2010-02-08,26.8212
2010-02-09,27.0909
2010-02-10,26.9946
2010-02-11,27.4136
2010-02-12,27.298
2010-02-16,28.1458
2010-02-17,28.3674
2010-02-18,28.6853
2010-02-19,28.3433
2010-02-22,28.4638
2010-02-23,28.247
2010-02-24,28.931
2010-02-25,29.1526
2010-02-26,28.9695
2010-03-01,29.9715
2010-03-02,29.7306
2010-03-03,29.4416
2010-03-04,29.4561
2010-03-05,29.7065
2010-03-08,30.0245
2010-03-09,29.6969
2010-03-10,29.8222
2010-03-11,30.4676
2010-03-12,30.5495
2010-03-15,30.3665
2010-03-16,30.5881
2010-03-17,30.7807
2010-03-18,30.7567
2010-03-19,30.3665
2010-03-22,31.2962
2010-03-23,31.4648
2010-03-24,30.6844
2010-03-25,30.5447
2010-03-26,30.7856
2010-03-29,31.3684
2010-03-30,31.5707
2010-03-31,31.2239
2010-04-01,31.5659
2010-04-05,31.1372
2010-04-06,30.4532
2010-04-07,30.6025
2010-04-08,30.8723
2010-04-09,31.5418
2010-04-12,31.7586
2010-04-13,31.7104
2010-04-14,32.1632
2010-04-15,32.3511
2010-04-16,32.7509
2010-04-19,32.4956
2010-04-20,33.0351
2010-04-21,32.5534
2010-04-22,33.1893
2010-04-23,33.4927
2010-04-26,33.6902
2010-04-27,32.274
2010-04-28,32.038
2010-04-29,31.879
2010-04-30,31.7441
2010-05-03,31.8116
2010-05-04,31.2865
2010-05-05,30.2364
2010-05-06,29.2826
2010-05-07,28.194
2010-05-10,30.2557
2010-05-11,30.4339
2010-05-12,30.7518
2010-05-13,30.4773
2010-05-14,29.4175
2010-05-17,29.7306
2010-05-18,29.0803
2010-05-19,28.9647
2010-05-20,28.1121
2010-05-21,28.4252
2010-05-24,28.194
2010-05-25,27.693
2010-05-26,27.2113
2010-05-27,28.2807
2010-05-28,28.1073
2010-06-01,27.9098
2010-06-02,28.3048
2010-06-03,28.7239
2010-06-04,26.7055
2010-06-07,26.3732
2010-06-08,26.9849
2010-06-09,27.4666
2010-06-10,28.0013
2010-06-11,27.8568
2010-06-14,28.0013
2010-06-15,29.0129
2010-06-16,28.642
2010-06-17,28.7672
2010-06-18,28.878
2010-06-21,28.3771
2010-06-22,27.7846
2010-06-23,27.5871
2010-06-24,27.1824
2010-06-25,27.0861
2010-06-28,27.0476
2010-06-29,26.7055
2010-06-30,26.8356
2010-07-01,27.4377
2010-07-02,27.6593
2010-07-06,28.2133
2010-07-07,29.0466
2010-07-08,29.6391
2010-07-09,29.9763
2010-07-12,29.9474
2010-07-13,30.7518
2010-07-14,31.3395
2010-07-15,31.2528
2010-07-16,30.5592
2010-07-19,30.2268
2010-07-20,30.0486
2010-07-21,29.4079
2010-07-22,29.9956
2010-07-23,30.1834
2010-07-26,30.299
2010-07-27,30.5254
2010-07-28,29.8703
2010-07-29,30.0197
2010-07-30,30.0197
2010-08-02,30.5592
2010-08-03,30.2316
2010-08-04,30.5254
2010-08-05,30.4436
2010-08-06,30.5832
2010-08-09,30.7904
2010-08-10,30.2846
2010-08-11,29.0707
2010-08-12,28.3771
2010-08-13,27.8424
2010-08-16,27.6545
2010-08-17,28.1844
2010-08-18,28.3096
2010-08-19,27.9772
2010-08-20,27.6449
2010-08-23,27.2113
2010-08-24,27.1728
2010-08-25,27.4088
2010-08-26,27.2595
2010-08-27,27.6304
2010-08-30,26.8163
2010-08-31,27.0187
2010-09-01,27.9243
2010-09-02,28.0928
2010-09-03,28.4878
2010-09-07,27.746
2010-09-08,28.1266
2010-09-09,28.1362
2010-09-10,28.2663
2010-09-13,28.3433
2010-09-14,28.4156
2010-09-15,28.5649
2010-09-16,28.536
2010-09-17,28.3867
2010-09-20,29.0033
2010-09-21,29.0659
2010-09-22,29.0948
2010-09-23,28.9166
2010-09-24,29.5861
2010-09-27,29.5476
2010-09-28,30.2894
2010-09-29,30.8771
2010-09-30,30.4532
2010-10-01,30.4965
2010-10-04,30.3231
2010-10-05,30.7085
2010-10-06,30.1497
2010-10-07,30.3713
2010-10-08,31.6574
2010-10-11,31.5033
2010-10-12,32.2933
2010-10-13,32.0717
2010-10-14,32.0428
2010-10-15,32.38
2010-10-18,32.2885
2010-10-19,31.5081
2010-10-20,31.9368
2010-10-21,31.8405
2010-10-22,31.9031
2010-10-25,31.5466
2010-10-26,31.1806
2010-10-27,31.1998
2010-10-28,31.0409
2010-10-29,34.2779
2010-11-01,33.6806
2010-11-02,34.0033
2010-11-03,34.143
2010-11-04,34.7451
2010-11-05,34.7885
2010-11-08,34.5958
2010-11-09,34.1382
2010-11-10,33.9503
2010-11-11,34.6006
2010-11-12,34.6247
2010-11-15,35.0534
2010-11-16,34.2201
2010-11-17,34.8704
2010-11-18,35.9446
2010-11-19,36.3396
2010-11-22,36.7057
2010-11-23,36.3926
2010-11-24,36.9181
2010-11-26,36.9375
2010-11-29,36.4364
2010-11-30,36.4656
2010-12-01,37.5214
2010-12-02,37.9495
2010-12-03,37.643
2010-12-06,37.896
2010-12-07,37.9787
2010-12-08,37.6673
2010-12-09,38.0322
2010-12-10,38.0371
2010-12-13,37.283
2010-12-14,38.402
2010-12-15,38.1539
2010-12-16,38.0712
2010-12-17,38.6453
2010-12-20,38.475
2010-12-21,38.9518
2010-12-22,38.8545
2010-12-23,38.8788
2010-12-27,38.7718
2010-12-28,38.7377
2010-12-29,38.8156
2010-12-30,38.7864
2010-12-31,39.3021
2011-01-03,39.1221
2011-01-04,39.774
2011-01-05,40.2168
2011-01-06,39.414
2011-01-07,39.1902
2011-01-10,39.5746
2011-01-11,40.3092
2011-01-12,40.6498
2011-01-13,40.713
2011-01-14,40.8639
2011-01-18,40.8103
2011-01-19,40.7228
2011-01-20,40.6595
2011-01-21,40.786
2011-01-24,40.5817
2011-01-25,39.4821
2011-01-26,39.6573
2011-01-27,39.6427
2011-01-28,38.9372
2011-01-31,39.1756
2011-02-01,39.5843
2011-02-02,39.1561
2011-02-03,44.761
2011-02-04,45.2232
2011-02-07,44.4691
2011-02-08,44.9799
2011-02-09,45.2135
2011-02-10,45.1697
2011-02-11,45.8022
2011-02-14,46.1038
2011-02-15,45.593
2011-02-16,45.8557
2011-02-17,45.6319
2011-02-18,45.9773
2011-02-22,44.1917
2011-02-23,44.0361
2011-02-24,44.4691
2011-02-25,45.2183
2011-02-28,45.9141
2011-03-01,44.5761
2011-03-02,45.1697
2011-03-03,44.7415
2011-03-04,44.907
2011-03-07,44.2404
2011-03-08,44.9751
2011-03-09,45.1259
2011-03-10,44.8972
2011-03-11,45.2232
2011-03-14,44.2988
2011-03-15,43.3452
2011-03-16,42.5911
2011-03-17,42.9024
2011-03-18,43.496
2011-03-21,44.688
2011-03-22,44.2112
2011-03-23,44.0458
2011-03-24,45.014
2011-03-25,45.9676
2011-03-28,46.7169
2011-03-29,46.2303
2011-03-30,46.6585
2011-03-31,46.9212
2011-04-01,46.6633
2011-04-04,46.4785
2011-04-05,46.3471
2011-04-06,46.2206
2011-04-07,46.7509
2011-04-08,46.2352
2011-04-11,46.1622
2011-04-12,45.9676
2011-04-13,46.6925
2011-04-14,46.1963
2011-04-15,46.8774
2011-04-18,45.9871
2011-04-19,46.0406
2011-04-20,46.0114
2011-04-21,46.0211
2011-04-25,45.6611
2011-04-26,45.9773
2011-04-27,46.4639
2011-04-28,47.1839
2011-04-29,47.1839
2011-05-02,46.9796
2011-05-03,46.785
2011-05-04,46.566
2011-05-05,47.1937
2011-05-06,47.7142
2011-05-09,49.9134
2011-05-10,49.7917
2011-05-11,48.7116
2011-05-12,49.349
2011-05-13,48.7457
2011-05-16,48.7068
2011-05-17,48.7262
2011-05-18,49.6263
2011-05-19,49.5533
2011-05-20,49.0084
2011-05-23,47.8261
2011-05-24,48.1424
2011-05-25,48.157
2011-05-26,48.4149
2011-05-27,48.8235
2011-05-31,49.8307
2011-06-01,48.8235
2011-06-02,48.3711
2011-06-03,47.7434
2011-06-06,47.2569
2011-06-07,47.0866
2011-06-08,46.3422
2011-06-09,47.0866
2011-06-10,46.746
2011-06-13,47.0964
2011-06-14,48.444
2011-06-15,47.2958
2011-06-16,47.1158
2011-06-17,47.3785
2011-06-20,48.2932
2011-06-21,49.8112
2011-06-22,49.3587
2011-06-23,48.9208
2011-06-24,49.1398
2011-06-27,49.1933
2011-06-28,50.2296
2011-06-29,51.12
2011-06-30,51.2173
2011-07-01,51.1054
2011-07-05,51.5238
2011-07-06,51.8449
2011-07-07,51.4703
2011-07-08,51.5335
2011-07-11,50.7016
2011-07-12,50.5799
2011-07-13,51.3049
2011-07-14,51.1151
2011-07-15,51.0908
2011-07-18,50.9594
2011-07-19,51.9957
2011-07-20,51.6503
2011-07-21,52.1612
2011-07-22,52.1612
2011-07-25,52.0006
2011-07-26,51.733
2011-07-27,50.9254
2011-07-28,51.2854
2011-07-29,51.1248
2011-08-01,50.9302
2011-08-02,49.495
2011-08-03,48.989
2011-08-04,46.2547
2011-08-05,46.4979
2011-08-08,42.5716
2011-08-09,44.255
2011-08-10,44.4496
2011-08-11,47.8991
2011-08-12,49.169
2011-08-15,45.8654
2011-08-16,45.6903
2011-08-17,46.2109
2011-08-18,44.4739
2011-08-19,43.0192
2011-08-22,43.0095
2011-08-23,44.6734
2011-08-24,45.3838
2011-08-25,45.3108
2011-08-26,46.639
2011-08-29,47.1061
2011-08-30,47.4904
2011-08-31,47.4223
2011-09-01,47.7483
2011-09-02,46.7023
2011-09-06,46.3568
2011-09-07,47.3834
2011-09-08,47.3883
2011-09-09,45.9384
2011-09-12,45.4421
2011-09-13,46.5612
2011-09-14,47.3591
2011-09-15,48.157
2011-09-16,49.4317
2011-09-19,49.242
2011-09-20,50.0642
2011-09-21,48.556
2011-09-22,45.7292
2011-09-23,46.313
2011-09-26,45.9725
2011-09-27,47.2374
2011-09-28,44.2063
2011-09-29,43.1944
2011-09-30,42.8003
2011-10-03,41.0293
2011-10-04,42.5765
2011-10-05,42.8392
2011-10-06,43.6955
2011-10-07,44.5567
2011-10-10,45.7584
2011-10-11,45.7876
2011-10-12,47.0088
2011-10-13,47.1012
2011-10-14,47.651
2011-10-17,46.4395
2011-10-18,46.5855
2011-10-19,45.9189
2011-10-20,46.4347
2011-10-21,47.1645
2011-10-24,48.3516
2011-10-25,46.9455
2011-10-26,47.2472
2011-10-27,49.6701
2011-10-28,49.3344
2011-10-31,47.8845
2011-11-01,47.6315
2011-11-02,49.0571
2011-11-03,57.8974
2011-11-04,57.3184
2011-11-07,57.2503
2011-11-08,57.2065
2011-11-09,55.9561
2011-11-10,56.4475
2011-11-11,55.9804
2011-11-14,56.1556
2011-11-15,56.3405
2011-11-16,55.6155
2011-11-17,54.7884
2011-11-18,54.7009
2011-11-21,53.0223
2011-11-22,53.9516
2011-11-23,52.9
2011-11-25,52.6839
2011-11-28,55.0956
2011-11-29,54.5651
2011-11-30,57.9739
2011-12-01,56.7362
2011-12-02,57.0996
2011-12-05,56.2744
2011-12-06,55.1398
2011-12-07,55.8471
2011-12-08,54.5946
2011-12-09,53.7154
2011-12-12,53.2881
2011-12-13,52.8411
2011-12-14,51.8587
2011-12-15,52.1927
2011-12-16,53.1358
2011-12-19,52.8558
2011-12-20,53.5779
2011-12-21,54.3392
2011-12-22,54.2999
2011-12-23,55.7587
2011-12-27,56.1959
2011-12-28,55.3903
2011-12-29,55.9601
2011-12-30,55.2037
2012-01-03,55.2331
2012-01-04,55.4247
2012-01-05,55.3559
2012-01-06,54.742
2012-01-09,54.5995
2012-01-10,55.0072
2012-01-11,54.6535
2012-01-12,55.0514
2012-01-13,55.0809
2012-01-17,56.5102
2012-01-18,56.6969
2012-01-19,57.0554
2012-01-20,56.9719
2012-01-23,56.4365
2012-01-24,57.0751
2012-01-25,58.2342
2012-01-26,56.967
2012-01-27,57.0161
2012-01-30,56.6821
2012-01-31,56.967
2012-02-01,57.8413
2012-02-02,57.8217
2012-02-03,56.5053
2012-02-06,56.3678
2012-02-07,56.4857
2012-02-08,56.0534
2012-02-09,56.6134
2012-02-10,55.8569
2012-02-13,54.5111
2012-02-14,54.1182
2012-02-15,54.1575
2012-02-16,55.0907
2012-02-17,55.0612
2012-02-21,55.1595
2012-02-22,55.4051
2012-02-23,56.3383
2012-02-24,55.8275
2012-02-27,56.7509
2012-02-28,57.301
2012-02-29,57.4484
2012-03-01,57.6252
2012-03-02,57.301
2012-03-05,57.8217
2012-03-06,57.0161
2012-03-07,57.3698
2012-03-08,57.802
2012-03-09,58.0083
2012-03-12,58.7942
2012-03-13,60.6705
2012-03-14,61.2697
2012-03-15,62.2423
2012-03-16,62.5468
2012-03-19,61.7118
2012-03-20,61.1617
2012-03-21,61.6529
2012-03-22,61.2992
2012-03-23,61.1912
2012-03-26,61.5743
2012-03-27,61.4957
2012-03-28,61.1126
2012-03-29,61.1322
2012-03-30,60.8375
2012-04-02,61.2796
2012-04-03,61.5448
2012-04-04,61.309
2012-04-05,62.0262
2012-04-09,61.1224
2012-04-10,59.7569
2012-04-11,59.8944
2012-04-12,61.2894
2012-04-13,61.869
2012-04-16,61.5546
2012-04-17,62.1637
2012-04-18,61.9574
2012-04-19,61.6922
2012-04-20,62.9299
2012-04-23,61.4073
2012-04-24,60.7884
2012-04-25,63.4309
2012-04-26,63.8533
2012-04-27,64.0498
2012-04-30,64.1481
2012-05-01,62.8317
2012-05-02,63.4506
2012-05-03,63.1166
2012-05-04,59.698
2012-05-07,60.5133
2012-05-08,58.804
2012-05-09,58.2539
2012-05-10,58.1065
2012-05-11,57.1537
2012-05-14,56.3874
2012-05-15,55.5426
2012-05-16,56.0141
2012-05-17,54.2459
2012-05-18,53.6172
2012-05-21,54.1182
2012-05-22,53.7056
2012-05-23,53.6859
2012-05-24,54.0985
2012-05-25,53.9512
2012-05-29,54.7567
2012-05-30,54.7567
2012-05-31,53.2832
2012-06-01,51.5247
2012-06-04,52.2615
2012-06-05,53.234
2012-06-06,53.9512
2012-06-07,53.8922
2012-06-08,53.9905
2012-06-11,53.735
2012-06-12,54.3834
2012-06-13,53.3028
2012-06-14,53.293
2012-06-15,54.1083
2012-06-18,54.4325
2012-06-19,55.5721
2012-06-20,55.1496
2012-06-21,53.5189
2012-06-22,53.9905
2012-06-25,52.9295
2012-06-26,52.9492
2012-06-27,52.9197
2012-06-28,51.9766
2012-06-29,53.1063
2012-07-02,53.7743
2012-07-03,54.1378
2012-07-05,54.5406
2012-07-06,53.6859
2012-07-09,52.0356
2012-07-10,50.5915
2012-07-11,49.8253
2012-07-12,49.6976
2012-07-13,50.7487
2012-07-16,50.4638
2012-07-17,50.4441
2012-07-18,51.6328
2012-07-19,53.735
2012-07-20,52.2615
2012-07-23,51.5739
2012-07-24,51.5051
2012-07-25,51.3577
2012-07-26,52.7723
2012-07-27,53.7449
2012-07-30,52.9
2012-07-31,51.4854
2012-08-01,50.1101
2012-08-02,49.9923
2012-08-03,52.1436
2012-08-06,52.5562
2012-08-07,53.4698
2012-08-08,53.3912
2012-08-09,54.2852
2012-08-10,54.5897
2012-08-13,54.0199
2012-08-14,59.0791
2012-08-15,59.8355
2012-08-16,60.2677
2012-08-17,60.5133
2012-08-20,59.5113
2012-08-21,59.2559
2012-08-22,58.7353
2012-08-23,58.4405
2012-08-24,58.9121
2012-08-27,58.7451
2012-08-28,59.0693
2012-08-29,59.0987
2012-08-30,58.8335
2012-08-31,58.9612
2012-09-04,58.7156
2012-09-05,58.5683
2012-09-06,59.9239
2012-09-07,59.9239
2012-09-10,59.7471
2012-09-11,59.1577
2012-09-12,58.6075
2012-09-13,59.4917
2012-09-14,60.0418
2012-09-17,59.8846
2012-09-18,60.2383
2012-09-19,60.5428
2012-09-20,60.4249
2012-09-21,60.7196
2012-09-24,60.366
2012-09-25,60.307
2012-09-26,59.5604
2012-09-27,60.5526
2012-09-28,60.5035
2012-10-01,62.0163
2012-10-02,61.5546
2012-10-03,62.1539
2012-10-04,62.1833
2012-10-05,62.8415
2012-10-08,62.3602
2012-10-09,61.4269
2012-10-10,61.2501
2012-10-11,62.0556
2012-10-12,61.8984
2012-10-15,62.311
2012-10-16,63.8533
2012-10-17,63.3523
2012-10-18,63.1657
2012-10-19,61.8297
2012-10-22,61.4957
2012-10-23,61.1813
2012-10-24,60.474
2012-10-25,60.199
2012-10-26,59.6685
2012-10-31,60.5231
2012-11-01,60.0516
2012-11-02,58.9612
2012-11-05,58.362
2012-11-06,58.6665
2012-11-07,57.5957
2012-11-08,56.3678
2012-11-09,56.466
2012-11-12,56.4562
2012-11-13,55.9552
2012-11-14,55.3265
2012-11-15,55.4738
2012-11-16,55.6605
2012-11-19,56.633
2012-11-20,56.9965
2012-11-21,57.4385
2012-11-23,57.468
2012-11-26,58.2834
2012-11-27,57.5662
2012-11-28,57.7243
2012-11-29,57.7044
2012-11-30,57.9729
2012-12-03,58.9476
2012-12-04,58.7387
2012-12-05,58.9277
2012-12-06,59.4051
2012-12-07,60.3101
2012-12-10,59.7134
2012-12-11,60.0615
2012-12-12,60.0118
2012-12-13,59.5841
2012-12-14,60.5986
2012-12-17,60.5091
2012-12-18,60.5588
2012-12-19,60.0018
2012-12-20,59.6736
2012-12-21,59.4548
2012-12-24,58.6293
2012-12-26,57.6049
2012-12-27,58.142
2012-12-28,57.6845
2012-12-31,59.4747
2013-01-02,60.5986
2013-01-03,61.812
2013-01-04,62.3391
2013-01-07,61.5832
2013-01-08,62.3789
2013-01-09,62.1402
2013-01-10,63.3834
2013-01-11,63.7116
2013-01-14,63.9006
2013-01-15,63.9901
2013-01-16,63.5723
2013-01-17,63.9503
2013-01-18,62.4883
2013-01-22,62.4385
2013-01-23,62.0606
2013-01-24,62.1998
2013-01-25,62.906
2013-01-28,62.809
2013-01-29,63.3833
2013-01-30,62.5081
2013-01-31,60.5985
2013-02-01,62.354
2013-02-04,60.7179
2013-02-05,64.3978
2013-02-06,62.9756
2013-02-07,62.712
2013-02-08,62.3788
2013-02-11,61.4489
2013-02-12,62.2993
2013-02-13,62.9805
2013-02-14,63.1446
2013-02-15,62.7269
2013-02-19,63.2442
2013-02-20,63.4033
2013-02-21,62.6176
2013-02-22,62.8861
2013-02-25,61.5136
2013-02-26,62.1821
2013-02-27,63.7331
2013-02-28,63.9576
2013-03-01,64.2468
2013-03-04,64.7057
2013-03-05,65.6034
2013-03-06,65.7231
2013-03-07,65.7829
2013-03-08,65.5435
2013-03-11,65.5834
2013-03-12,65.6732
2013-03-13,64.8253
2013-03-14,64.8353
2013-03-15,63.1596
2013-03-18,62.2419
2013-03-19,62.0923
2013-03-20,63.5885
2013-03-21,62.8903
2013-03-22,63.7082
2013-03-25,63.1795
2013-03-26,63.7581
2013-03-27,63.3491
2013-03-28,63.9177
2013-04-01,63.4389
2013-04-02,65.0747
2013-04-03,64.7755
2013-04-04,64.3665
2013-04-05,62.9701
2013-04-08,64.177
2013-04-09,64.3366
2013-04-10,65.3341
2013-04-11,67.3888
2013-04-12,68.0173
2013-04-15,67.1395
2013-04-16,67.738
2013-04-17,66.6308
2013-04-18,67.0198
2013-04-19,69.4935
2013-04-22,69.4137
2013-04-23,70.2516
2013-04-24,68.7254
2013-04-25,68.7354
2013-04-26,68.7454
2013-04-29,68.5758
2013-04-30,69.2042
2013-05-01,68.6756
2013-05-02,70.5009
2013-05-03,71.0396
2013-05-06,69.8626
2013-05-07,70.1618
2013-05-08,69.8227
2013-05-09,68.9948
2013-05-10,70.87
2013-05-13,70.8301
2013-05-14,71.6181
2013-05-15,71.4785
2013-05-16,70.6605
2013-05-17,70.6605
2013-05-20,71.279
2013-05-21,70.9498
2013-05-22,69.9823
2013-05-23,70.1518
2013-05-24,70.7503
2013-05-28,70.9199
2013-05-29,69.28
2013-05-30,69.52
2013-05-31,67.97
2013-06-03,67.5
2013-06-04,67.45
2013-06-05,66.49
2013-06-06,65.94
2013-06-07,68.13
2013-06-10,67.64
2013-06-11,67.8
2013-06-12,67.43
2013-06-13,68.12
2013-06-14,68.43
2013-06-17,70.22
2013-06-18,69.72
2013-06-19,68.45
2013-06-20,65.57
2013-06-21,65.8
2013-06-24,64.8
2013-06-25,64.71
2013-06-26,65.74
2013-06-27,66.47
2013-06-28,65.98
2013-07-01,66.99
2013-07-02,67.48
2013-07-03,67.23
2013-07-05,67.92
2013-07-08,67.88
2013-07-09,66.65
2013-07-10,67.02
2013-07-11,68.1
2013-07-12,68.44
2013-07-15,67.46
2013-07-16,66.68
2013-07-17,66.34
2013-07-18,66.76
2013-07-19,67.58
2013-07-22,66.65
2013-07-23,64.94
2013-07-24,64.79
2013-07-25,65.3
2013-07-26,66.17
2013-07-29,65.99
2013-07-30,65.62
2013-07-31,65.75
2013-08-01,66.87
2013-08-02,66.89
2013-08-05,67.25
2013-08-06,67.42
2013-08-07,66.65
2013-08-08,66.04
2013-08-09,66.6
