date,close_price
1998-01-02,7.11535
1998-01-05,7.06904
1998-01-06,6.85696
1998-01-07,6.7034
1998-01-08,6.59614
1998-01-09,6.27682
1998-01-12,6.15494
1998-01-13,6.88622
1998-01-14,7.03978
1998-01-15,7.06904
1998-01-16,7.17629
1998-01-20,7.2226
1998-01-21,7.23723
1998-01-22,6.9179
1998-01-23,6.85696
1998-01-26,6.79602
1998-01-27,7.03978
1998-01-28,7.28354
1998-01-29,7.98314
1998-01-30,7.93682
1998-02-02,8.72904
1998-02-03,8.40971
1998-02-04,8.77535
1998-02-05,8.5316
1998-02-06,8.38046
1998-02-09,8.27321
1998-02-10,8.62422
1998-02-11,8.91186
1998-02-12,8.65347
1998-02-13,8.62422
1998-02-17,8.50234
1998-02-18,8.54622
1998-02-19,8.7461
1998-02-20,8.98986
1998-02-23,9.15562
1998-02-24,8.9728
1998-02-25,9.00449
1998-02-26,9.46032
1998-02-27,9.33844
1998-03-02,9.23362
1998-03-03,8.95817
1998-03-04,8.8363
1998-03-05,8.63885
1998-03-06,8.91186
1998-03-09,8.59254
1998-03-10,8.59254
1998-03-11,8.88261
1998-03-12,9.01911
1998-03-13,9.18731
1998-03-16,9.09468
1998-03-17,8.9728
1998-03-18,9.29456
1998-03-19,9.32381
1998-03-20,9.01911
1998-03-23,9.00449
1998-03-24,9.26287
1998-03-25,9.32381
1998-03-26,9.38475
1998-03-27,9.0508
1998-03-30,9.09468
1998-03-31,9.17268
1998-04-01,9.56757
1998-04-02,9.68945
1998-04-03,9.41644
1998-04-06,9.17268
1998-04-07,8.94355
1998-04-08,8.94355
1998-04-09,8.94355
1998-04-13,8.77535
1998-04-14,9.09468
1998-04-15,9.39938
1998-04-16,8.94355
1998-04-17,8.91186
1998-04-20,9.61389
1998-04-21,10.2842
1998-04-22,10.2696
1998-04-23,10.5889
1998-04-24,10.5743
1998-04-27,10.3452
1998-04-28,10.5889
1998-04-29,10.9083
1998-04-30,11.2739
1998-05-01,11.4421
1998-05-04,10.9692
1998-05-05,11.0764
1998-05-06,10.6182
1998-05-07,10.5426
1998-05-08,11.0301
1998-05-11,10.9838
1998-05-12,11.213
1998-05-13,11.1374
1998-05-14,10.9546
1998-05-15,10.6962
1998-05-18,10.5134
1998-05-19,10.7864
1998-05-20,10.7108
1998-05-21,10.6645
1998-05-22,10.7254
1998-05-26,10.5134
1998-05-27,10.2525
1998-05-28,10.3135
1998-05-29,10.116
1998-06-01,9.84302
1998-06-02,10.2696
1998-06-03,10.1916
1998-06-04,10.4817
1998-06-05,10.6962
1998-06-08,11.0764
1998-06-09,11.152
1998-06-10,10.9546
1998-06-11,10.4963
1998-06-12,10.3452
1998-06-15,10.3135
1998-06-16,10.6499
1998-06-17,10.9838
1998-06-18,10.8936
1998-06-19,11.0618
1998-06-22,10.8936
1998-06-23,11.1666
1998-06-24,11.1228
1998-06-25,10.9546
1998-06-26,10.8181
1998-06-29,10.879
1998-06-30,10.8936
1998-07-01,10.9399
1998-07-02,10.9229
1998-07-06,10.9838
1998-07-07,10.8619
1998-07-08,10.8473
1998-07-09,11.2593
1998-07-10,11.6395
1998-07-13,11.8224
1998-07-14,11.8979
1998-07-15,12.1124
1998-07-16,11.8077
1998-07-17,12.812
1998-07-20,12.7511
1998-07-21,12.3416
1998-07-22,12.7072
1998-07-23,12.5244
1998-07-24,12.3416
1998-07-27,12.3099
1998-07-28,12.4927
1998-07-29,12.0807
1998-07-30,12.2343
1998-07-31,11.9905
1998-08-03,12.5244
1998-08-04,11.9296
1998-08-05,12.188
1998-08-06,12.5073
1998-08-07,12.7072
1998-08-10,13.0412
1998-08-11,12.7365
1998-08-12,12.7365
1998-08-13,12.7218
1998-08-14,12.7072
1998-08-17,13.0412
1998-08-18,14.1527
1998-08-19,13.9869
1998-08-20,14.0479
1998-08-21,14.1527
1998-08-24,13.7261
1998-08-25,13.6042
1998-08-26,13.6822
1998-08-27,13.4068
1998-08-28,12.4927
1998-08-31,11.0618
1998-09-01,12.0052
1998-09-02,12.2489
1998-09-03,11.9442
1998-09-04,11.915
1998-09-08,13.1777
1998-09-09,12.5536
1998-09-10,12.6463
1998-09-11,12.9046
1998-09-14,13.2557
1998-09-15,13.4068
1998-09-16,13.8797
1998-09-17,13.4214
1998-09-18,12.951
1998-09-21,13.1338
1998-09-22,14.0771
1998-09-23,14.8694
1998-09-24,14.9303
1998-09-25,15.0668
1998-09-28,14.6865
1998-09-29,14.3526
1998-09-30,13.9699
1998-10-01,12.9193
1998-10-02,12.9802
1998-10-05,11.854
1998-10-06,11.3665
1998-10-07,11.213
1998-10-08,11.0764
1998-10-09,12.188
1998-10-12,13.2386
1998-10-13,12.7072
1998-10-14,13.224
1998-10-15,13.8943
1998-10-16,13.5287
1998-10-19,14.3063
1998-10-20,14.3526
1998-10-21,15.0668
1998-10-22,15.2667
1998-10-23,15.1131
1998-10-26,15.4178
1998-10-27,15.1131
1998-10-28,15.1277
1998-10-29,15.998
1998-10-30,15.7225
1998-11-02,15.8907
1998-11-03,15.7225
1998-11-04,16.4684
1998-11-05,16.8657
1998-11-06,16.8804
1998-11-09,16.8511
1998-11-10,16.6512
1998-11-11,16.3173
1998-11-12,16.3465
1998-11-13,16.271
1998-11-16,16.5294
1998-11-17,16.8804
1998-11-18,16.6829
1998-11-19,17.1388
1998-11-20,17.0778
1998-11-23,17.4605
1998-11-24,17.2168
1998-11-25,17.9017
1998-11-27,18.2527
1998-11-30,17.6726
1998-12-01,18.6939
1998-12-02,19.4715
1998-12-03,18.282
1998-12-04,19.2424
1998-12-07,20.2321
1998-12-08,20.5368
1998-12-09,20.0492
1998-12-10,19.5008
1998-12-11,19.942
1998-12-14,19.045
1998-12-15,19.8201
1998-12-16,19.3326
1998-12-17,19.7445
1998-12-18,19.8201
1998-12-21,20.6123
1998-12-22,20.1419
1998-12-23,20.0956
1998-12-24,19.8981
1998-12-28,20.0029
1998-12-29,20.0029
1998-12-30,20.5977
1998-12-31,20.7196
1999-01-04,21.2071
1999-01-05,22.1821
1999-01-06,21.8628
1999-01-07,22.7769
1999-01-08,22.8379
1999-01-11,23.1426
1999-01-12,22.0603
1999-01-13,22.5015
1999-01-14,22.9597
1999-01-15,24.2541
1999-01-19,24.9098
1999-01-20,24.4832
1999-01-21,23.7666
1999-01-22,23.9202
1999-01-25,24.8343
1999-01-26,24.7124
1999-01-27,24.8952
1999-01-28,26.0531
1999-01-29,26.5698
1999-02-01,26.1579
1999-02-02,25.3657
1999-02-03,25.1219
1999-02-04,23.8885
1999-02-05,23.7666
1999-02-08,24.1932
1999-02-09,23.3717
1999-02-10,23.8275
1999-02-11,25.4437
1999-02-12,24.9391
1999-02-16,25.8093
1999-02-17,24.3614
1999-02-18,24.3614
1999-02-19,25.3364
1999-02-22,25.412
1999-02-23,26.3261
1999-02-24,25.6703
1999-02-25,25.5046
1999-02-26,24.9854
1999-03-01,24.3614
1999-03-02,23.9202
1999-03-03,23.8129
1999-03-04,24.5734
1999-03-05,25.5948
1999-03-08,27.0573
1999-03-09,27.7277
1999-03-10,27.4084
1999-03-11,28.2006
1999-03-12,27.3937
1999-03-15,28.2908
1999-03-16,28.749
1999-03-17,29.0074
1999-03-18,29.2049
1999-03-19,28.6881
1999-03-22,28.2908
1999-03-23,27.5766
1999-03-24,29.0074
1999-03-25,30.2725
1999-03-26,29.846
1999-03-29,31.5669
1999-03-30,31.3548
1999-03-31,31.1403
1999-04-01,31.233
1999-04-05,32.481
1999-04-06,31.9789
1999-04-07,32.6784
1999-04-08,32.5883
1999-04-09,32.8466
1999-04-12,31.8253
1999-04-13,31.8253
1999-04-14,30.5017
1999-04-15,28.0933
1999-04-16,25.9312
1999-04-19,24.376
1999-04-20,24.8635
1999-04-21,26.6161
1999-04-22,27.011
1999-04-23,26.9818
1999-04-26,28.1396
1999-04-27,28.398
1999-04-28,26.9672
1999-04-29,26.0677
1999-04-30,26.3724
1999-05-03,26.0677
1999-05-04,24.3467
1999-05-05,23.4936
1999-05-06,23.3717
1999-05-07,23.6301
1999-05-10,24.5734
1999-05-11,26.1432
1999-05-12,26.9672
1999-05-13,25.6411
1999-05-14,25.351
1999-05-17,24.9561
1999-05-18,25.702
1999-05-19,25.9312
1999-05-20,25.1073
1999-05-21,25.1536
1999-05-24,24.8026
1999-05-25,23.9031
1999-05-26,24.9391
1999-05-27,24.1932
1999-05-28,24.3467
1999-06-01,23.9518
1999-06-02,23.9518
1999-06-03,23.2791
1999-06-04,25.2925
1999-06-07,26.1457
1999-06-08,25.1706
1999-06-09,25.8093
1999-06-10,25.9604
1999-06-11,24.8928
1999-06-14,23.7666
1999-06-15,23.9177
1999-06-16,26.2334
1999-06-17,27.1792
1999-06-18,28.1543
1999-06-21,28.8855
1999-06-22,26.9355
1999-06-23,26.8428
1999-06-24,25.8093
1999-06-25,26.2042
1999-06-28,26.0531
1999-06-29,25.9897
1999-06-30,26.9988
1999-07-01,27.7594
1999-07-02,28.5833
1999-07-06,27.852
1999-07-07,28.1543
1999-07-08,28.4907
1999-07-09,28.8563
1999-07-12,28.7052
1999-07-13,29.0074
1999-07-14,31.0209
1999-07-15,31.7522
1999-07-16,31.1428
1999-07-19,31.4743
1999-07-20,29.2219
1999-07-21,30.8649
1999-07-22,29.4023
1999-07-23,30.1043
1999-07-26,29.6802
1999-07-27,29.6802
1999-07-28,30.6552
1999-07-29,29.8606
1999-07-30,29.5583
1999-08-02,30.1043
1999-08-03,29.6461
1999-08-04,29.4023
1999-08-05,30.2555
1999-08-06,29.2512
1999-08-09,27.8179
1999-08-10,26.1116
1999-08-11,28.671
1999-08-12,27.6667
1999-08-13,28.7344
1999-08-16,29.7094
1999-08-17,29.0074
1999-08-18,28.827
1999-08-19,28.9148
1999-08-20,29.1927
1999-08-23,29.4949
1999-08-24,30.3188
1999-08-25,30.5919
1999-08-26,29.2804
1999-08-27,29.5876
1999-08-30,29.1927
1999-08-31,29.2804
1999-09-01,29.8021
1999-09-02,29.7387
1999-09-03,30.6211
1999-09-07,31.5377
1999-09-08,32.1178
1999-09-09,31.9959
1999-09-10,33.1513
1999-09-13,33.5462
1999-09-14,33.2147
1999-09-15,32.0837
1999-09-16,32.9368
1999-09-17,34.5554
1999-09-20,36.3202
1999-09-21,34.9795
1999-09-22,35.1307
1999-09-23,33.946
1999-09-24,33.7022
1999-09-27,34.4628
1999-09-28,34.921
1999-09-29,34.3116
1999-09-30,34.8284
1999-10-01,35.8034
1999-10-04,37.266
1999-10-05,37.0222
1999-10-06,36.993
1999-10-07,35.9546
1999-10-08,35.4963
1999-10-11,36.3495
1999-10-12,34.9503
1999-10-13,34.5846
1999-10-14,34.219
1999-10-15,34.4335
1999-10-18,34.0045
1999-10-19,33.5462
1999-10-20,31.8107
1999-10-21,30.7771
1999-10-22,31.718
1999-10-25,32.2397
1999-10-26,32.2056
1999-10-27,32.971
1999-10-28,34.5213
1999-10-29,35.5889
1999-11-01,36.0472
1999-11-02,35.9546
1999-11-03,36.4421
1999-11-04,35.4671
1999-11-05,35.4378
1999-11-08,35.8619
1999-11-09,36.018
1999-11-10,37.7535
1999-11-11,39.8255
1999-11-12,40.313
1999-11-15,39.2161
1999-11-16,40.1911
1999-11-17,40.586
1999-11-18,43.9694
1999-11-19,43.5111
1999-11-22,43.087
1999-11-23,42.9651
1999-11-24,43.6964
1999-11-26,44.0279
1999-11-29,43.2966
1999-11-30,40.7371
1999-12-01,42.0778
1999-12-02,45.3393
1999-12-03,46.5581
1999-12-06,45.9487
1999-12-07,46.953
1999-12-08,46.7434
1999-12-09,46.2851
1999-12-10,45.978
1999-12-13,47.4113
1999-12-14,44.7933
1999-12-15,45.3686
1999-12-16,46.2217
1999-12-17,46.9238
1999-12-20,46.68
1999-12-21,48.0207
1999-12-22,48.3571
1999-12-23,49.181
1999-12-27,51.2822
1999-12-28,50.4875
1999-12-29,52.7448
1999-12-30,53.3249
1999-12-31,53.2615
2000-01-03,55.6065
2000-01-04,52.1354
2000-01-05,50.2779
2000-01-06,48.8739
2000-01-07,52.1354
2000-01-10,55.0312
2000-01-11,53.9636
2000-01-12,53.7198
2000-01-13,52.5595
2000-01-14,54.8167
2000-01-18,54.7241
2000-01-19,56.6449
2000-01-20,57.8637
2000-01-21,58.7169
2000-01-24,55.4261
2000-01-25,57.62
2000-01-26,54.1439
2000-01-27,52.1939
2000-01-28,50.2145
2000-01-31,51.8916
2000-02-01,51.1311
2000-02-02,52.6814
2000-02-03,54.0854
2000-02-04,53.3834
2000-02-07,55.8503
2000-02-08,57.5273
2000-02-09,56.0648
2000-02-10,57.5566
2000-02-11,56.094
2000-02-14,56.0355
2000-02-15,56.6157
2000-02-16,57.4054
2000-02-17,57.5273
2000-02-18,57.6785
2000-02-22,56.4597
2000-02-23,58.2001
2000-02-24,60.8473
2000-02-25,59.8723
2000-02-28,57.0398
2000-02-29,58.0441
2000-03-01,57.4688
2000-03-02,56.796
2000-03-03,57.6492
2000-03-06,58.5024
2000-03-07,61.8224
2000-03-08,64.3819
2000-03-09,64.0162
2000-03-10,63.3191
2000-03-13,61.6712
2000-03-14,58.6876
2000-03-15,56.8253
2000-03-16,59.8138
2000-03-17,62.7682
2000-03-20,64.2015
2000-03-21,66.1808
2000-03-22,65.2058
2000-03-23,67.3411
2000-03-24,69.7787
2000-03-27,69.0767
2000-03-28,67.8871
2000-03-29,63.6506
2000-03-30,62.7097
2000-03-31,61.4909
2000-04-03,61.9443
2000-04-04,62.4318
2000-04-05,61.915
2000-04-06,64.8401
2000-04-07,70.1102
2000-04-10,66.1516
2000-04-11,64.0162
2000-04-12,59.4774
2000-04-13,58.1367
2000-04-14,54.5437
2000-04-17,59.9357
2000-04-18,63.1046
2000-04-19,61.0618
2000-04-20,63.8358
2000-04-24,61.4909
2000-04-25,65.7567
2000-04-26,66.7317
2000-04-27,69.0474
2000-04-28,67.7945
2000-05-01,69.6568
2000-05-02,68.1601
2000-05-03,66.2442
2000-05-04,66.6683
2000-05-05,67.3704
2000-05-08,64.689
2000-05-09,61.5201
2000-05-10,58.2586
2000-05-11,60.9692
2000-05-12,62.1295
2000-05-15,64.416
2000-05-16,63.8358
2000-05-17,62.1295
2000-05-18,59.1118
2000-05-19,57.1909
2000-05-22,56.3378
2000-05-23,52.774
2000-05-24,54.4511
2000-05-25,54.1147
2000-05-26,53.3249
2000-05-30,58.8095
2000-05-31,56.7375
2000-06-01,59.0533
2000-06-02,63.3483
2000-06-05,66.1174
2000-06-06,63.3191
2000-06-07,66.7902
2000-06-08,66.8487
2000-06-09,67.2777
2000-06-12,67.0925
2000-06-13,68.7403
2000-06-14,69.0425
2000-06-15,72.3382
2000-06-16,76.4236
2000-06-19,79.5925
2000-06-20,78.3737
2000-06-21,76.3553
2000-06-22,74.8343
2000-06-23,74.1615
2000-06-26,73.2547
2000-06-27,71.9677
2000-06-28,73.4302
2000-06-29,71.6654
2000-06-30,73.986
2000-07-03,75.2633
2000-07-05,73.7422
2000-07-06,72.6404
2000-07-07,75.6923
2000-07-10,74.3468
2000-07-11,72.5819
2000-07-12,72.9427
2000-07-13,76.0531
2000-07-14,78.6174
2000-07-17,79.0367
2000-07-18,77.0281
2000-07-19,81.1135
2000-07-20,85.6865
2000-07-21,86.174
2000-07-24,83.7949
2000-07-25,84.9552
2000-07-26,84.5847
2000-07-27,83.8534
2000-07-28,79.2805
2000-07-31,83.1806
2000-08-01,81.718
2000-08-02,78.4907
2000-08-03,81.3573
2000-08-04,83.1221
2000-08-07,87.695
2000-08-08,89.2161
2000-08-09,87.695
2000-08-10,86.9638
2000-08-11,87.4513
2000-08-14,87.6365
2000-08-15,86.4177
2000-08-16,85.4427
2000-08-17,90.7372
2000-08-18,91.5952
2000-08-21,90.6202
2000-08-22,91.3514
2000-08-23,90.3764
2000-08-24,90.4349
2000-08-25,88.9724
2000-08-28,92.5117
2000-08-29,92.931
2000-08-30,93.906
2000-08-31,95.5539
2000-09-01,95.0078
2000-09-05,94.4618
2000-09-06,93.8475
2000-09-07,97.1432
2000-09-08,94.4618
2000-09-11,92.1412
2000-09-12,90.4934
2000-09-13,92.3265
2000-09-14,92.8725
2000-09-15,92.3265
2000-09-18,92.9993
2000-09-19,95.8561
2000-09-20,101.287
2000-09-21,98.2937
2000-09-22,99.1518
2000-09-25,98.1767
2000-09-26,94.5788
2000-09-27,95.9244
2000-09-28,100.068
2000-09-29,96.8994
2000-10-02,96.5289
2000-10-03,91.7122
2000-10-04,90.2496
2000-10-05,88.4263
2000-10-06,87.3245
2000-10-09,87.4513
2000-10-10,86.7785
2000-10-11,86.7785
2000-10-12,83.6681
2000-10-13,92.1412
2000-10-16,94.3351
2000-10-17,92.6872
2000-10-18,87.4513
2000-10-19,93.5453
2000-10-20,97.3187
2000-10-23,97.0164
2000-10-24,93.0578
2000-10-25,87.5683
2000-10-26,84.2824
2000-10-27,86.4177
2000-10-30,81.9033
2000-10-31,86.4762
2000-11-01,88.4848
2000-11-02,92.1997
2000-11-03,95.3101
2000-11-06,92.268
2000-11-07,95.1248
2000-11-08,86.0472
2000-11-09,82.6931
2000-11-10,80.4408
2000-11-13,76.5406
2000-11-14,84.3994
2000-11-15,86.0472
2000-11-16,82.0886
2000-11-17,82.8199
2000-11-20,78.1884
2000-11-21,79.9532
2000-11-22,76.3553
2000-11-24,80.9283
2000-11-27,82.1471
2000-11-28,77.7009
2000-11-29,71.7922
2000-11-30,72.4552
2000-12-01,75.6923
2000-12-04,76.9696
2000-12-05,87.2075
2000-12-06,87.4513
2000-12-07,83.8534
2000-12-08,84.7699
2000-12-11,87.7535
2000-12-12,80.2555
2000-12-13,75.7508
2000-12-14,73.128
2000-12-15,66.6049
2000-12-18,63.7481
2000-12-19,61.2422
2000-12-20,54.3584
2000-12-21,58.0148
2000-12-22,66.4879
2000-12-26,63.8066
2000-12-27,65.8152
2000-12-28,66.6049
2000-12-29,64.7231
2001-01-02,52.8959
2001-01-03,65.9419
2001-01-04,68.9255
2001-01-05,62.5878
2001-01-08,60.0234
2001-01-09,62.2855
2001-01-10,67.0925
2001-01-11,72.2797
2001-01-12,66.917
2001-01-16,68.1943
2001-01-17,70.5733
2001-01-18,73.8007
2001-01-19,75.5071
2001-01-22,74.649
2001-01-23,77.3304
2001-01-24,77.3304
2001-01-25,74.7758
2001-01-26,76.9696
2001-01-29,78.0032
2001-01-30,76.6381
2001-01-31,73.869
2001-02-01,75.7508
2001-02-02,70.3978
2001-02-05,67.814
2001-02-06,68.3893
2001-02-07,63.8651
2001-02-08,59.7488
2001-02-09,56.8012
2001-02-12,53.8437
2001-02-13,55.1382
2001-02-14,56.7116
2001-02-15,57.7373
2001-02-16,54.5706
2001-02-20,49.0638
2001-02-21,42.0234
2001-02-22,39.6234
2001-02-23,44.7419
2001-02-26,44.7917
2001-02-27,41.6848
2001-02-28,39.5836
2001-03-01,42.7702
2001-03-02,38.1397
2001-03-05,38.4086
2001-03-06,43.0988
2001-03-07,40.7388
2001-03-08,37.1239
2001-03-09,34.1664
2001-03-12,30.1134
2001-03-13,34.0071
2001-03-14,35.2518
2001-03-15,34.734
2001-03-16,32.8917
2001-03-19,34.4452
2001-03-20,33.7481
2001-03-21,34.8535
2001-03-22,35.3414
2001-03-23,36.0684
2001-03-26,34.7539
2001-03-27,36.7057
2001-03-28,32.4536
2001-03-29,29.0778
2001-03-30,29.2371
2001-04-02,29.1774
2001-04-03,25.3435
2001-04-04,26.7974
2001-04-05,31.2984
2001-04-06,29.7748
2001-04-09,30.5317
2001-04-10,34.2162
2001-04-11,32.0652
2001-04-12,31.159
2001-04-16,30.5715
2001-04-17,31.6171
2001-04-18,36.6858
2001-04-19,42.6806
2001-04-20,44.8316
2001-04-23,39.3446
2001-04-24,38.538
2001-04-25,38.0998
2001-04-26,37.1439
2001-04-27,38.787
2001-04-30,39.4342
2001-05-01,41.5055
2001-05-02,43.4175
2001-05-03,39.9819
2001-05-04,41.2267
2001-05-07,39.8226
2001-05-08,40.5894
2001-05-09,40.6292
2001-05-10,39.962
2001-05-11,39.7728
2001-05-14,38.7272
2001-05-15,39.1355
2001-05-16,41.3362
2001-05-17,41.1172
2001-05-18,40.1313
2001-05-21,40.3205
2001-05-22,39.9321
2001-05-23,38.0899
2001-05-24,38.1596
2001-05-25,36.9148
2001-05-29,33.8676
2001-05-30,30.691
2001-05-31,31.5573
2001-06-01,31.1789
2001-06-04,31.4876
2001-06-05,34.3556
2001-06-06,33.6286
2001-06-07,34.5647
2001-06-08,33.5589
2001-06-11,31.8262
2001-06-12,31.5972
2001-06-13,30.1732
2001-06-14,28.4106
2001-06-15,27.8728
2001-06-18,27.4148
2001-06-19,26.5982
2001-06-20,27.0861
2001-06-21,27.0861
2001-06-22,26.4787
2001-06-25,28.3309
2001-06-26,28.311
2001-06-27,28.062
2001-06-28,29.2869
2001-06-29,29.7948
2001-07-02,30.5018
2001-07-03,31.5673
2001-07-05,29.9043
2001-07-06,21.9079
2001-07-09,22.2863
2001-07-10,21.0714
2001-07-11,20.2349
2001-07-12,21.4996
2001-07-13,22.0075
2001-07-16,21.0615
2001-07-17,20.3146
2001-07-18,18.1338
2001-07-19,18.3728
2001-07-20,18.0342
2001-07-23,17.9446
2001-07-24,17.8749
2001-07-25,18.1039
2001-07-26,19.2491
2001-07-27,19.8964
2001-07-30,19.508
2001-07-31,19.508
2001-08-01,20.8523
2001-08-02,20.3544
2001-08-03,20.3544
2001-08-06,19.9362
2001-08-07,19.4682
2001-08-08,18.1238
2001-08-09,17.5861
2001-08-10,17.0683
2001-08-13,17.377
2001-08-14,16.8492
2001-08-15,16.0226
2001-08-16,16.7795
2001-08-17,16.4309
2001-08-20,16.2716
2001-08-21,15.7737
2001-08-22,15.3953
2001-08-23,15.5944
2001-08-24,17.1081
2001-08-27,17.4267
2001-08-28,16.889
2001-08-29,16.2119
2001-08-30,15.2857
2001-08-31,15.3853
2001-09-04,14.9273
2001-09-05,14.3596
2001-09-06,13.9016
2001-09-07,13.3439
2001-09-10,13.8916
2001-09-17,13.9215
2001-09-18,12.846
2001-09-19,12.6468
2001-09-20,12.597
2001-09-21,10.9838
2001-09-24,12.8759
2001-09-25,12.9755
2001-09-26,12.5273
2001-09-27,11.8502
2001-09-28,11.5514
2001-10-01,10.9141
2001-10-02,10.9639
2001-10-03,11.7904
2001-10-04,12.4178
2001-10-05,13.2543
2001-10-08,13.2443
2001-10-09,12.6468
2001-10-10,12.2186
2001-10-11,13.2642
2001-10-12,12.7763
2001-10-15,13.075
2001-10-16,13.3738
2001-10-17,11.193
2001-10-18,11.183
2001-10-19,11.4519
2001-10-22,12.129
2001-10-23,12.1191
2001-10-24,12.4078
2001-10-25,13.2842
2001-10-26,13.314
2001-10-29,12.8958
2001-10-30,11.9697
2001-10-31,12.2585
2001-11-01,12.9755
2001-11-02,13.0352
2001-11-05,14.3995
2001-11-06,15.226
2001-11-07,14.987
2001-11-08,14.8775
2001-11-09,15.465
2001-11-12,15.3156
2001-11-13,15.8235
2001-11-14,15.5347
2001-11-15,15.9828
2001-11-16,16.1023
2001-11-19,16.7098
2001-11-20,16.0326
2001-11-21,15.5546
2001-11-23,15.8633
2001-11-26,16.7396
2001-11-27,17.7554
2001-11-28,16.5305
2001-11-29,17.0683
2001-11-30,16.7496
2001-12-03,16.0924
2001-12-04,17.0782
2001-12-05,17.845
2001-12-06,17.8151
2001-12-07,17.128
2001-12-10,16.7795
2001-12-11,16.1222
2001-12-12,16.182
2001-12-13,15.0268
2001-12-14,14.977
2001-12-17,14.6683
2001-12-18,14.5588
2001-12-19,14.6385
2001-12-20,13.7124
2001-12-21,13.6526
2001-12-24,13.2443
2001-12-26,13.2344
2001-12-27,13.5232
2001-12-28,13.4634
2001-12-31,13.3837
2002-01-02,14.509
2002-01-03,16.5206
2002-01-04,16.6998
2002-01-07,16.5006
2002-01-08,17.0284
2002-01-09,17.2774
2002-01-10,16.899
2002-01-11,17.0483
2002-01-14,16.0326
2002-01-15,15.8932
2002-01-16,15.5546
2002-01-17,16.0226
2002-01-18,15.4052
2002-01-22,14.5688
2002-01-23,14.5787
2002-01-24,16.4907
2002-01-25,16.7098
2002-01-28,16.9886
2002-01-29,15.9729
2002-01-30,16.3911
2002-01-31,16.2816
2002-02-01,15.6841
2002-02-04,14.7679
2002-02-05,14.748
2002-02-06,14.4393
2002-02-07,13.6924
2002-02-08,14.3198
2002-02-11,14.8974
2002-02-12,14.0011
2002-02-13,14.4293
2002-02-14,13.7522
2002-02-15,13.1447
2002-02-19,13.2443
2002-02-20,12.9854
2002-02-21,11.9398
2002-02-22,11.0535
2002-02-25,11.9697
2002-02-26,11.9398
2002-02-27,11.2826
2002-02-28,10.8643
2002-03-01,11.3423
2002-03-04,11.9199
2002-03-05,11.5415
2002-03-06,11.2527
2002-03-07,10.944
2002-03-08,11.2427
2002-03-11,11.5813
2002-03-12,11.9896
2002-03-13,12.0095
2002-03-14,11.6909
2002-03-15,11.4021
2002-03-18,11.0735
2002-03-19,10.7548
2002-03-20,10.6453
2002-03-21,11.2129
2002-03-22,11.4917
2002-03-25,11.0336
2002-03-26,10.6851
2002-03-27,11.0834
2002-03-28,11.8801
2002-04-01,12.1091
2002-04-02,11.7406
2002-04-03,11.3921
2002-04-04,11.6709
2002-04-05,11.0934
2002-04-08,10.7548
2002-04-09,10.3166
2002-04-10,10.1274
2002-04-11,9.74902
2002-04-12,10.0577
2002-04-15,9.86852
2002-04-16,10.8643
2002-04-17,10.3465
2002-04-18,10.9241
2002-04-19,10.6751
2002-04-22,10.0378
2002-04-23,9.75898
2002-04-24,9.46023
2002-04-25,9.52994
2002-04-26,9.17145
2002-04-29,9.03203
2002-04-30,9.09178
2002-05-01,8.93245
2002-05-02,8.3748
2002-05-03,7.97647
2002-05-06,7.67773
2002-05-07,7.66777
2002-05-08,8.28517
2002-05-09,7.85697
2002-05-10,7.41881
2002-05-13,7.42877
2002-05-14,8.05614
2002-05-15,7.9466
2002-05-16,7.88685
2002-05-17,8.07605
2002-05-20,7.78727
2002-05-21,7.64785
2002-05-22,7.77731
2002-05-23,7.90676
2002-05-24,7.62794
2002-05-28,7.61798
2002-05-29,7.5184
2002-05-30,7.36902
2002-05-31,7.17982
2002-06-03,6.78149
2002-06-04,7.0902
2002-06-05,7.12007
2002-06-06,7.13003
2002-06-07,7.26944
2002-06-10,7.16986
2002-06-11,6.96074
2002-06-12,6.95078
2002-06-13,6.90099
2002-06-14,6.93087
2002-06-17,7.13003
2002-06-18,7.02049
2002-06-19,6.87112
2002-06-20,6.423
2002-06-21,6.24375
2002-06-24,6.69187
2002-06-25,6.40308
2002-06-26,6.72175
2002-06-27,7.18978
2002-06-28,7.49848
2002-07-01,6.94082
2002-07-02,6.77154
2002-07-03,7.32919
2002-07-05,7.56819
2002-07-08,7.41881
2002-07-09,7.66777
2002-07-10,7.72752
2002-07-11,8.07605
2002-07-12,8.46442
2002-07-15,9.06191
2002-07-16,8.98224
2002-07-17,8.58392
2002-07-18,8.35488
2002-07-19,7.96651
2002-07-22,7.06032
2002-07-23,6.98066
2002-07-24,7.59806
2002-07-25,6.98066
2002-07-26,6.79145
2002-07-29,7.47856
2002-07-30,7.81714
2002-07-31,7.40886
2002-08-01,7.04041
2002-08-02,6.56242
2002-08-05,6.31346
2002-08-06,6.69187
2002-08-07,6.92091
2002-08-08,7.1599
2002-08-09,6.90099
2002-08-12,6.76158
2002-08-13,6.58233
2002-08-14,7.10015
2002-08-15,7.18978
2002-08-16,7.12007
2002-08-19,7.2794
2002-08-20,7.5881
2002-08-21,7.9466
2002-08-22,8.2553
2002-08-23,7.72752
2002-08-26,7.84701
2002-08-27,7.7076
2002-08-28,7.03045
2002-08-29,7.00057
2002-08-30,6.74166
2002-09-03,6.34334
2002-09-04,6.83128
2002-09-05,6.84124
2002-09-06,6.39313
2002-09-09,6.37321
2002-09-10,6.47279
2002-09-11,6.76158
2002-09-12,6.67195
2002-09-13,6.45288
2002-09-16,5.97488
2002-09-17,5.84543
2002-09-18,5.34752
2002-09-19,5.36744
2002-09-20,5.74585
2002-09-23,5.72593
2002-09-24,5.69606
2002-09-25,5.94501
2002-09-26,5.1384
2002-09-27,4.97907
2002-09-30,4.49112
2002-10-01,4.84961
2002-10-02,4.80978
2002-10-03,4.97907
2002-10-04,3.80401
2002-10-07,4.03305
2002-10-08,3.92351
2002-10-09,4.0928
2002-10-10,4.17246
2002-10-11,4.56083
2002-10-14,4.41146
2002-10-15,5.06869
2002-10-16,4.75003
2002-10-17,4.5907
2002-10-18,4.36167
2002-10-21,4.55087
2002-10-22,4.79982
2002-10-23,5.15832
2002-10-24,5.00894
2002-10-25,5.4471
2002-10-28,4.97907
2002-10-29,5.04878
2002-10-30,5.24794
2002-10-31,5.08861
2002-11-01,5.40727
2002-11-04,5.82551
2002-11-05,5.85539
2002-11-06,6.17405
2002-11-07,5.73589
2002-11-08,5.40727
2002-11-11,5.15832
2002-11-12,5.48694
2002-11-13,5.72593
2002-11-14,6.51262
2002-11-15,6.33338
2002-11-18,6.67195
2002-11-19,6.05455
2002-11-20,6.3035
2002-11-21,6.84124
2002-11-22,6.46283
2002-11-25,6.9707
2002-11-26,6.8512
2002-11-27,7.45865
2002-11-29,7.21965
2002-12-02,7.11011
2002-12-03,6.46283
2002-12-04,6.50267
2002-12-05,6.59229
2002-12-06,6.61221
2002-12-09,6.28359
2002-12-10,6.26367
2002-12-11,6.34334
2002-12-12,6.63212
2002-12-13,6.24375
2002-12-16,6.35329
2002-12-17,6.55246
2002-12-18,6.03463
2002-12-19,5.74585
2002-12-20,6.1143
2002-12-23,6.18401
2002-12-24,6.00476
2002-12-26,6.06451
2002-12-27,5.98484
2002-12-30,6.04459
2002-12-31,6.09438
2003-01-02,6.35329
2003-01-03,6.38317
2003-01-06,6.75162
2003-01-07,7.44869
2003-01-08,7.40886
2003-01-09,7.80718
2003-01-10,7.87689
2003-01-13,7.66777
2003-01-14,7.80718
2003-01-15,7.53831
2003-01-16,7.33915
2003-01-17,6.87112
2003-01-21,6.82133
2003-01-22,6.91095
2003-01-23,7.49848
2003-01-24,7.10015
2003-01-27,7.07028
2003-01-28,7.68768
2003-01-29,7.67773
2003-01-30,7.44869
2003-01-31,7.61798
2003-02-03,7.61798
2003-02-04,7.73748
2003-02-05,7.67773
2003-02-06,7.57815
2003-02-07,7.3989
2003-02-10,7.86693
2003-02-11,7.74743
2003-02-12,7.56819
2003-02-13,7.78727
2003-02-14,7.91672
2003-02-18,8.51421
2003-02-19,8.14576
2003-02-20,8.20551
2003-02-21,8.05614
2003-02-24,7.75739
2003-02-25,7.72752
2003-02-26,7.47856
2003-02-27,7.11011
2003-02-28,7.32919
2003-03-03,7.36902
2003-03-04,7.10015
2003-03-05,7.23957
2003-03-06,7.26944
2003-03-07,7.36902
2003-03-10,6.94082
2003-03-11,6.8512
2003-03-12,6.88108
2003-03-13,7.2794
2003-03-14,7.2794
2003-03-17,7.68768
2003-03-18,7.69764
2003-03-19,7.69764
2003-03-20,7.79722
2003-03-21,7.28936
2003-03-24,6.99061
2003-03-25,7.05036
2003-03-26,7.01053
2003-03-27,7.07028
2003-03-28,7.0902
2003-03-31,7.18978
2003-04-01,7.38894
2003-04-02,7.64785
2003-04-03,7.78727
2003-04-04,7.71756
2003-04-07,7.81714
2003-04-08,7.69764
2003-04-09,7.66777
2003-04-10,7.60802
2003-04-11,7.68768
2003-04-14,7.76735
2003-04-15,7.74743
2003-04-16,8.33496
2003-04-17,8.46442
2003-04-21,8.86275
2003-04-22,9.07187
2003-04-23,9.28099
2003-04-24,9.16149
2003-04-25,8.76316
2003-04-28,9.01212
2003-04-29,9.4204
2003-04-30,8.9922
2003-05-01,9.2312
2003-05-02,9.4204
2003-05-05,9.66935
2003-05-06,9.70919
2003-05-07,9.47019
2003-05-08,9.37061
2003-05-09,9.45028
2003-05-12,9.88843
2003-05-13,10.0079
2003-05-14,9.97806
2003-05-15,9.85856
2003-05-16,9.80877
2003-05-19,9.21128
2003-05-20,9.2312
2003-05-21,9.21128
2003-05-22,9.41044
2003-05-23,9.52994
2003-05-27,9.92827
2003-05-28,9.92827
2003-05-29,10.0876
2003-05-30,10.7747
2003-06-02,10.3963
2003-06-03,10.8245
2003-06-04,10.7548
2003-06-05,10.934
2003-06-06,10.9241
2003-06-09,10.5556
2003-06-10,10.4361
2003-06-11,10.3664
2003-06-12,10.5755
2003-06-13,10.3664
2003-06-16,10.456
2003-06-17,10.2768
2003-06-18,10.2768
2003-06-19,10.1374
2003-06-20,10.1971
2003-06-23,9.97806
2003-06-24,9.82868
2003-06-25,9.91831
2003-06-26,10.1872
2003-06-27,10.237
2003-06-30,10.3963
2003-07-01,10.5058
2003-07-02,10.8444
2003-07-03,10.8942
2003-07-07,11.6709
2003-07-08,11.183
2003-07-09,11.0037
2003-07-10,10.8444
2003-07-11,10.8444
2003-07-14,11.0934
2003-07-15,11.0037
2003-07-16,10.1075
2003-07-17,9.76894
2003-07-18,9.9681
2003-07-21,9.97806
2003-07-22,9.93822
2003-07-23,10.0378
2003-07-24,9.75898
2003-07-25,9.93822
2003-07-28,9.85856
2003-07-29,10.0378
2003-07-30,10.0577
2003-07-31,10.6154
2003-08-01,10.6353
2003-08-04,10.715
2003-08-05,10.476
2003-08-06,10.944
2003-08-07,11.0436
2003-08-08,11.193
2003-08-11,11.2129
2003-08-12,11.3025
2003-08-13,11.2029
2003-08-14,11.0934
2003-08-15,11.193
2003-08-18,11.4319
2003-08-19,11.5415
2003-08-20,12.139
2003-08-21,12.3282
2003-08-22,12.0792
2003-08-25,12.2386
2003-08-26,12.2087
2003-08-27,12.5871
2003-08-28,12.4776
2003-08-29,12.6369
2003-09-02,13.0452
2003-09-03,13.2244
2003-09-04,13.2045
2003-09-05,12.9755
2003-09-08,13.553
2003-09-09,13.553
2003-09-10,13.0352
2003-09-11,13.2642
2003-09-12,13.324
2003-09-15,13.2045
2003-09-16,13.5729
2003-09-17,13.7024
2003-09-18,13.8518
2003-09-19,13.8518
2003-09-22,13.3539
2003-09-23,13.334
2003-09-24,12.5572
2003-09-25,12.3979
2003-09-26,12.5572
2003-09-29,12.617
2003-09-30,12.5771
2003-10-01,12.9157
2003-10-02,12.9257
2003-10-03,13.3539
2003-10-06,13.563
2003-10-07,13.8418
2003-10-08,13.9912
2003-10-09,13.9713
2003-10-10,14.3796
2003-10-13,14.3995
2003-10-14,13.2642
2003-10-15,12.8161
2003-10-16,13.314
2003-10-17,13.0651
2003-10-20,12.9157
2003-10-21,13.4136
2003-10-22,13.4037
2003-10-23,13.095
2003-10-24,13.095
2003-10-27,13.0252
2003-10-28,13.3439
2003-10-29,13.5232
2003-10-30,13.6526
2003-10-31,13.7721
2003-11-03,13.802
2003-11-04,13.8816
2003-11-05,13.7821
2003-11-06,13.792
2003-11-07,13.792
2003-11-10,13.5132
2003-11-11,13.4037
2003-11-12,13.9812
2003-11-13,14.0609
2003-11-14,13.6924
2003-11-17,13.324
2003-11-18,12.9655
2003-11-19,13.1447
2003-11-20,12.8858
2003-11-21,13.0551
2003-11-24,13.3937
2003-11-25,13.5232
2003-11-26,13.5331
2003-11-28,13.6626
2003-12-01,13.6227
2003-12-02,13.4634
2003-12-03,13.095
2003-12-04,13.1149
2003-12-05,13.0651
2003-12-08,13.0153
2003-12-09,12.2286
2003-12-10,12.4178
2003-12-11,12.7464
2003-12-12,12.856
2003-12-15,12.7863
2003-12-16,12.5373
2003-12-17,12.4078
2003-12-18,12.7962
2003-12-19,12.9555
2003-12-22,12.7165
2003-12-23,12.6468
2003-12-24,12.6468
2003-12-26,12.6767
2003-12-29,12.7962
2003-12-30,12.6867
2003-12-31,12.846
2004-01-02,13.1647
2004-01-05,13.4335
2004-01-06,13.8418
2004-01-07,14.1505
2004-01-08,14.0609
2004-01-09,13.9912
2004-01-12,14.3596
2004-01-13,14.5688
2004-01-14,14.9472
2004-01-15,15.0965
2004-01-16,15.4949
2004-01-20,15.3953
2004-01-21,14.997
2004-01-22,14.8376
2004-01-23,14.5986
2004-01-26,15.0268
2004-01-27,14.7679
2004-01-28,14.4493
2004-01-29,14.3596
2004-01-30,13.9812
2004-02-02,14.0011
2004-02-03,13.8617
2004-02-04,13.4335
2004-02-05,13.6924
2004-02-06,14.1904
2004-02-09,13.9414
2004-02-10,13.9713
2004-02-11,14.0011
2004-02-12,13.8816
2004-02-13,13.802
2004-02-17,13.8518
2004-02-18,14.2202
2004-02-19,14.1505
2004-02-20,13.9215
2004-02-23,13.4734
2004-02-24,13.5032
2004-02-25,13.7323
2004-02-26,14.1904
2004-02-27,14.2501
2004-03-01,14.2103
2004-03-02,14.1007
2004-03-03,13.8916
2004-03-04,13.802
2004-03-05,14.0509
2004-03-08,13.6028
2004-03-09,13.2543
2004-03-10,12.9356
2004-03-11,12.9058
2004-03-12,13.1447
2004-03-15,12.597
2004-03-16,12.6568
2004-03-17,12.9755
2004-03-18,12.9356
2004-03-19,12.8062
2004-03-22,12.2186
2004-03-23,12.4078
2004-03-24,12.617
2004-03-25,13.4435
2004-03-26,13.3638
2004-03-29,13.7323
2004-03-30,13.8816
2004-03-31,13.5132
2004-04-01,13.3937
2004-04-02,12.9954
2004-04-05,13.314
2004-04-06,12.9058
2004-04-07,12.7066
2004-04-08,12.9257
2004-04-12,13.0053
2004-04-13,13.1348
2004-04-14,13.1547
2004-04-15,12.9954
2004-04-16,12.5672
2004-04-19,12.597
2004-04-20,12.5473
2004-04-21,12.5074
2004-04-22,12.4178
2004-04-23,12.368
2004-04-26,11.9498
2004-04-27,11.7805
2004-04-28,11.7307
2004-04-29,11.0934
2004-04-30,11.1232
2004-05-03,11.2527
2004-05-04,11.2427
2004-05-05,11.3523
2004-05-06,11.193
2004-05-07,11.2129
2004-05-10,11.0635
2004-05-11,10.954
2004-05-12,10.8345
2004-05-13,11.0735
2004-05-14,10.4162
2004-05-17,10.2768
2004-05-18,10.237
2004-05-19,10.2768
2004-05-20,10.0876
2004-05-21,10.1573
2004-05-24,10.2569
2004-05-25,10.6552
2004-05-26,11.1531
2004-05-27,11.1332
2004-05-28,11.193
2004-06-01,11.0735
2004-06-02,11.2029
2004-06-03,10.934
2004-06-04,11.3523
2004-06-07,11.5017
2004-06-08,11.7406
2004-06-09,11.3822
2004-06-10,11.1332
2004-06-14,11.2427
2004-06-15,11.4419
2004-06-16,11.2925
2004-06-17,11.1332
2004-06-18,11.2826
2004-06-21,11.0137
2004-06-22,11.1232
2004-06-23,11.422
2004-06-24,11.5116
2004-06-25,11.5415
2004-06-28,11.1631
2004-06-29,11.3822
2004-06-30,11.3722
2004-07-01,11.1033
2004-07-02,10.8046
2004-07-06,10.1374
2004-07-07,10.8942
2004-07-08,10.3963
2004-07-09,10.3266
2004-07-12,10.7548
2004-07-13,10.5755
2004-07-14,10.2868
2004-07-15,10.3565
2004-07-16,10.237
2004-07-19,10.3366
2004-07-20,10.8046
2004-07-21,10.705
2004-07-22,10.7847
2004-07-23,10.6353
2004-07-26,10.4361
2004-07-27,10.7847
2004-07-28,10.5955
2004-07-29,10.6054
2004-07-30,10.8842
2004-08-02,10.715
2004-08-03,10.6154
2004-08-04,10.7548
2004-08-05,10.5955
2004-08-06,10.3067
2004-08-09,10.1573
2004-08-10,10.5158
2004-08-11,10.1075
2004-08-12,9.44032
2004-08-13,9.36065
2004-08-16,9.49011
2004-08-17,9.87848
2004-08-18,10.4461
2004-08-19,10.5556
2004-08-20,10.456
2004-08-23,10.7648
2004-08-24,10.5855
2004-08-25,10.7548
2004-08-26,10.6054
2004-08-27,10.705
2004-08-30,10.5855
2004-08-31,10.7349
2004-09-01,10.6552
2004-09-02,10.7349
2004-09-03,10.5755
2004-09-07,10.5955
2004-09-08,10.5556
2004-09-09,10.8444
2004-09-10,11.1133
2004-09-13,11.4618
2004-09-14,11.0934
2004-09-15,10.715
2004-09-16,10.695
2004-09-17,10.7548
2004-09-20,11.0237
2004-09-21,10.934
2004-09-22,10.8544
2004-09-23,10.9938
2004-09-24,11.1133
2004-09-27,10.8145
2004-09-28,11.0336
2004-09-29,11.3025
2004-09-30,11.5017
2004-10-01,11.9697
2004-10-04,12.3481
2004-10-05,12.4377
2004-10-06,12.617
2004-10-07,12.3083
2004-10-08,12.1091
2004-10-11,12.1888
2004-10-12,11.8801
2004-10-13,11.9
2004-10-14,11.8203
2004-10-15,11.9199
2004-10-18,12.129
2004-10-19,12.2386
2004-10-20,12.5273
2004-10-21,12.5771
2004-10-22,12.4278
2004-10-25,12.2784
2004-10-26,12.2983
2004-10-27,12.5572
2004-10-28,12.7962
2004-10-29,12.7962
2004-11-01,12.7066
2004-11-02,12.6966
2004-11-03,12.856
2004-11-04,12.8161
2004-11-05,12.9954
2004-11-08,12.9157
2004-11-09,12.7464
2004-11-10,12.5074
2004-11-11,12.9356
2004-11-12,13.1447
2004-11-15,12.9854
2004-11-16,12.836
2004-11-17,13.4335
2004-11-18,13.7721
2004-11-19,13.4435
2004-11-22,13.3837
2004-11-23,13.314
2004-11-24,13.2941
2004-11-26,13.2344
2004-11-29,13.3041
2004-11-30,13.3539
2004-12-01,13.9314
2004-12-02,14.3397
2004-12-03,14.2999
2004-12-06,14.738
2004-12-07,14.4393
2004-12-08,14.3397
2004-12-09,14.28
2004-12-10,14.1406
2004-12-13,14.1804
2004-12-14,14.2601
2004-12-15,14.5688
2004-12-16,14.27
2004-12-17,14.1804
2004-12-20,13.9314
2004-12-21,14.4194
2004-12-22,14.4194
2004-12-23,14.4493
2004-12-27,14.2401
2004-12-28,14.3596
2004-12-29,14.6385
2004-12-30,14.7679
2004-12-31,14.7878
2005-01-03,14.6285
2005-01-04,14.2501
2005-01-05,13.9912
2005-01-06,13.7223
2005-01-07,13.7821
2005-01-10,14.031
2005-01-11,13.6427
2005-01-12,13.7821
2005-01-13,13.5132
2005-01-14,13.6924
2005-01-18,13.8219
2005-01-19,13.2941
2005-01-20,13.095
2005-01-21,13.0352
2005-01-24,12.9356
2005-01-25,12.4278
2005-01-26,12.7165
2005-01-27,12.836
2005-01-28,12.9257
2005-01-31,13.0551
2005-02-01,12.8858
2005-02-02,12.836
2005-02-03,12.5672
2005-02-04,13.0651
2005-02-07,13.1049
2005-02-08,13.1846
2005-02-09,12.9456
2005-02-10,12.9456
2005-02-11,13.085
2005-02-14,12.9854
2005-02-15,13.324
2005-02-16,13.1049
2005-02-17,12.8858
2005-02-18,12.6369
2005-02-22,12.6468
2005-02-23,12.6966
2005-02-24,12.7165
2005-02-25,12.7863
2005-02-28,12.6269
2005-03-01,12.846
2005-03-02,12.9456
2005-03-03,12.7763
2005-03-04,12.7165
2005-03-07,12.846
2005-03-08,12.7763
2005-03-09,12.6867
2005-03-10,12.7165
2005-03-11,12.5373
2005-03-14,12.4078
2005-03-15,12.0693
2005-03-16,12.0294
2005-03-17,12.3381
2005-03-18,12.378
2005-03-21,12.4278
2005-03-22,12.1688
2005-03-23,12.1688
2005-03-24,12.1191
2005-03-28,11.9996
2005-03-29,11.9099
2005-03-30,12.3481
2005-03-31,12.2883
2005-04-01,12.3282
2005-04-04,12.4078
2005-04-05,12.4676
2005-04-06,12.2485
2005-04-07,12.4377
2005-04-08,12.4975
2005-04-11,12.2983
2005-04-12,12.4278
2005-04-13,12.1888
2005-04-14,11.9099
2005-04-15,11.4618
2005-04-18,11.4319
2005-04-19,12.9456
2005-04-20,12.7962
2005-04-21,13.2642
2005-04-22,13.2742
2005-04-25,13.0452
2005-04-26,12.9456
2005-04-27,12.9555
2005-04-28,12.8759
2005-04-29,13.0551
2005-05-02,12.7962
2005-05-03,12.9356
2005-05-04,12.9456
2005-05-05,12.9257
2005-05-06,12.9356
2005-05-09,13.1248
2005-05-10,12.9456
2005-05-11,12.9854
2005-05-12,13.3738
2005-05-13,13.8418
2005-05-16,13.9215
2005-05-17,13.9912
2005-05-18,14.0908
2005-05-19,14.1206
2005-05-20,14.0111
2005-05-23,14.1107
2005-05-24,14.1505
2005-05-25,14.0709
2005-05-26,14.0908
2005-05-27,14.1007
2005-05-31,14.0211
2005-06-01,14.1306
2005-06-02,14.2501
2005-06-03,14.2302
2005-06-06,14.1904
2005-06-07,14.2899
2005-06-08,14.519
2005-06-09,14.6484
2005-06-10,14.4891
2005-06-13,14.7181
2005-06-14,14.3198
2005-06-15,14.0509
2005-06-16,14.2103
2005-06-17,14.3696
2005-06-20,14.27
2005-06-21,14.2999
2005-06-22,14.3298
2005-06-23,14.0709
2005-06-24,13.7721
2005-06-27,13.6427
2005-06-28,13.5132
2005-06-29,13.7422
2005-06-30,13.6427
2005-07-01,14.1704
2005-07-05,14.2103
2005-07-06,14.3895
2005-07-07,14.3796
2005-07-08,14.6484
2005-07-11,14.6584
2005-07-12,14.4991
2005-07-13,14.509
2005-07-14,14.5887
2005-07-15,14.6186
2005-07-18,14.5289
2005-07-19,14.4592
2005-07-20,14.3995
2005-07-21,14.0111
2005-07-22,14.3995
2005-07-25,14.1904
2005-07-26,13.9812
2005-07-27,13.9812
2005-07-28,13.8916
2005-07-29,13.6526
2005-08-01,13.9215
2005-08-02,13.8418
2005-08-03,13.8418
2005-08-04,13.6924
2005-08-05,13.6427
2005-08-08,13.5331
2005-08-09,13.6028
2005-08-10,13.563
2005-08-11,13.7422
2005-08-12,13.2742
2005-08-15,13.3937
2005-08-16,13.1447
2005-08-17,13.1846
2005-08-18,13.2045
2005-08-19,13.1149
2005-08-22,13.075
2005-08-23,13.1149
2005-08-24,13.0252
2005-08-25,12.836
2005-08-26,12.9456
2005-08-29,12.9555
2005-08-30,12.8858
2005-08-31,12.8062
2005-09-01,13.0252
2005-09-02,13.0153
2005-09-06,13.2842
2005-09-07,13.1049
2005-09-08,12.6966
2005-09-09,12.9157
2005-09-12,12.8261
2005-09-13,13.0252
2005-09-14,12.7564
2005-09-15,12.4576
2005-09-16,12.5373
2005-09-19,12.856
2005-09-20,12.7365
2005-09-21,12.4278
2005-09-22,12.5572
2005-09-23,12.607
2005-09-26,12.4278
2005-09-27,12.3381
2005-09-28,12.617
2005-09-29,12.6867
2005-09-30,12.8759
2005-10-03,13.4236
2005-10-04,13.4435
2005-10-05,13.1746
2005-10-06,13.0352
2005-10-07,13.1547
2005-10-10,13.085
2005-10-11,12.8759
2005-10-12,12.9157
2005-10-13,12.8062
2005-10-14,12.9356
2005-10-17,13.2344
2005-10-18,13.1945
2005-10-19,13.7323
2005-10-20,13.5431
2005-10-21,13.6526
2005-10-24,13.9414
2005-10-25,13.8119
2005-10-26,13.802
2005-10-27,13.6924
2005-10-28,13.7522
2005-10-31,13.8816
2005-11-01,13.6725
2005-11-02,13.5929
2005-11-03,13.8119
2005-11-04,14.0808
2005-11-07,14.2601
2005-11-08,13.9812
2005-11-09,14.0709
2005-11-10,13.8319
2005-11-11,13.6227
2005-11-14,13.5829
2005-11-15,13.6227
2005-11-16,13.5032
2005-11-17,13.9115
2005-11-18,13.9115
2005-11-21,13.8119
2005-11-22,14.0211
2005-11-23,14.2103
2005-11-25,14.041
2005-11-28,13.8916
2005-11-29,13.8916
2005-11-30,13.8717
2005-12-01,14.0011
2005-12-02,14.0011
2005-12-05,14.1704
2005-12-06,14.2302
2005-12-07,14.1904
2005-12-08,14.1007
2005-12-09,14.0609
2005-12-12,14.0808
2005-12-13,13.5431
2005-12-14,13.6427
2005-12-15,13.8418
2005-12-16,13.6924
2005-12-19,13.4435
2005-12-20,13.3738
2005-12-21,13.6028
2005-12-22,13.8816
2005-12-23,13.8319
2005-12-27,13.6128
2005-12-28,13.6427
2005-12-29,13.6825
2005-12-30,13.563
2006-01-03,13.6427
2006-01-04,13.9414
2006-01-05,13.9215
2006-01-06,13.6825
2006-01-09,13.5331
2006-01-10,13.2443
2006-01-11,13.4335
2006-01-12,13.553
2006-01-13,13.5431
2006-01-17,13.2742
2006-01-18,13.3041
2006-01-19,13.6725
2006-01-20,13.2045
2006-01-23,13.2344
2006-01-24,13.6028
2006-01-25,13.792
2006-01-26,13.6526
2006-01-27,13.553
2006-01-30,13.6128
2006-01-31,13.3439
2006-02-01,13.4236
2006-02-02,13.2842
2006-02-03,13.2642
2006-02-06,13.3439
2006-02-07,13.314
2006-02-08,13.4335
2006-02-09,13.3539
2006-02-10,13.2344
2006-02-13,13.2543
2006-02-14,13.2842
2006-02-15,13.1248
2006-02-16,13.3738
2006-02-17,13.4136
2006-02-21,13.553
2006-02-22,13.6526
2006-02-23,13.6227
2006-02-24,13.8717
2006-02-27,14.1206
2006-02-28,13.9613
2006-03-01,14.1904
2006-03-02,14.519
2006-03-03,14.4493
2006-03-06,14.0709
2006-03-07,13.9414
2006-03-08,14.0609
2006-03-09,14.0509
2006-03-10,14.0908
2006-03-13,14.1206
2006-03-14,14.2899
2006-03-15,14.1406
2006-03-16,13.9514
2006-03-17,14.031
2006-03-20,14.2501
2006-03-21,13.9812
2006-03-22,13.8717
2006-03-23,13.7422
2006-03-24,13.6427
2006-03-27,13.5431
2006-03-28,13.2045
2006-03-29,13.4435
2006-03-30,13.4435
2006-03-31,13.5729
2006-04-03,13.2941
2006-04-04,13.6526
2006-04-05,13.7422
2006-04-06,13.553
2006-04-07,13.4933
2006-04-10,13.3539
2006-04-11,13.314
2006-04-12,13.1945
2006-04-13,13.2941
2006-04-17,13.1846
2006-04-18,13.2941
2006-04-19,13.2941
2006-04-20,13.802
2006-04-21,13.6128
2006-04-24,13.4136
2006-04-25,13.4534
2006-04-26,13.6128
2006-04-27,13.6427
2006-04-28,13.4634
2006-05-01,13.2642
2006-05-02,13.3041
2006-05-03,13.334
2006-05-04,13.314
2006-05-05,13.334
2006-05-08,13.5431
2006-05-09,13.4335
2006-05-10,13.1348
2006-05-11,13.0352
2006-05-12,12.9157
2006-05-15,12.8062
2006-05-16,12.856
2006-05-17,12.6269
2006-05-18,12.597
2006-05-19,12.6867
2006-05-22,12.6568
2006-05-23,12.3879
2006-05-24,12.3581
2006-05-25,12.5373
2006-05-26,12.7165
2006-05-30,12.4975
2006-05-31,12.7265
2006-06-01,12.9356
2006-06-02,12.8161
2006-06-05,12.4178
2006-06-06,12.2983
2006-06-07,12.0593
2006-06-08,12.0195
2006-06-09,11.7705
2006-06-12,11.6809
2006-06-13,11.6411
2006-06-14,11.8502
2006-06-15,11.9398
2006-06-16,11.9597
2006-06-19,11.5714
2006-06-20,11.5614
2006-06-21,11.5714
2006-06-22,11.3921
2006-06-23,11.4917
2006-06-26,11.3025
2006-06-27,11.1332
2006-06-28,11.2029
2006-06-29,11.2029
2006-06-30,10.9241
2006-07-03,10.8942
2006-07-05,10.8942
2006-07-06,11.0137
2006-07-07,11.1332
2006-07-10,10.3565
2006-07-11,10.456
2006-07-12,10.0378
2006-07-13,9.91831
2006-07-14,9.79881
2006-07-17,10.0577
2006-07-18,10.0976
2006-07-19,10.2668
2006-07-20,10.3863
2006-07-21,10.2668
2006-07-24,10.2768
2006-07-25,10.2171
2006-07-26,10.1872
2006-07-27,10.1075
2006-07-28,10.1872
2006-07-31,10.1075
2006-08-01,9.69923
2006-08-02,9.63948
2006-08-03,9.71915
2006-08-04,9.85856
2006-08-07,9.6594
2006-08-08,9.64944
2006-08-09,9.61956
2006-08-10,9.88843
2006-08-11,10.0976
2006-08-14,10.6054
2006-08-15,10.9141
2006-08-16,10.9141
2006-08-17,11.0735
2006-08-18,11.0237
2006-08-21,11.0834
2006-08-22,11.1033
2006-08-23,11.0436
2006-08-24,11.183
2006-08-25,11.183
2006-08-28,11.2826
2006-08-29,11.3822
2006-08-30,11.6112
2006-08-31,11.6212
2006-09-01,11.8104
2006-09-05,11.6809
2006-09-06,11.3324
2006-09-07,11.3025
2006-09-08,11.3921
2006-09-11,11.6411
2006-09-12,11.7207
2006-09-13,11.4817
2006-09-14,11.3423
2006-09-15,11.2029
2006-09-18,11.0834
2006-09-19,11.0934
2006-09-20,11.4519
2006-09-21,11.412
2006-09-22,11.1531
2006-09-25,11.4319
2006-09-26,11.7307
2006-09-27,11.8004
2006-09-28,11.8402
2006-09-29,11.9199
2006-10-02,11.8303
2006-10-03,11.8402
2006-10-04,12.1788
2006-10-05,12.2186
2006-10-06,12.5074
2006-10-09,12.5074
2006-10-10,12.4776
2006-10-11,12.4078
2006-10-12,12.5871
2006-10-13,12.6568
2006-10-16,12.7663
2006-10-17,12.6269
2006-10-18,12.1091
2006-10-19,12.3182
2006-10-20,12.3581
2006-10-23,12.2585
2006-10-24,12.2386
2006-10-25,12.5473
2006-10-26,12.5572
2006-10-27,12.3581
2006-10-30,12.2186
2006-10-31,12.1888
2006-11-01,12.1589
2006-11-02,12.1091
2006-11-03,12.0693
2006-11-06,12.1191
2006-11-07,12.0693
2006-11-08,12.0394
2006-11-09,12.378
2006-11-10,12.6668
2006-11-13,12.5672
2006-11-14,12.6369
2006-11-15,12.6767
2006-11-16,12.7763
2006-11-17,12.6468
2006-11-20,12.6269
2006-11-21,12.7863
2006-11-22,13.1547
2006-11-24,12.9954
2006-11-27,12.7962
2006-11-28,12.836
2006-11-29,12.836
2006-11-30,13.0551
2006-12-01,13.1049
2006-12-04,13.2842
2006-12-05,13.4833
2006-12-06,13.3638
2006-12-07,13.1746
2006-12-08,13.1348
2006-12-11,13.1647
2006-12-12,12.9755
2006-12-13,13.075
2006-12-14,13.3041
2006-12-15,13.4335
2006-12-18,13.3439
2006-12-19,13.3738
2006-12-20,13.5032
2006-12-21,13.5132
2006-12-22,13.3837
2006-12-26,13.3937
2006-12-27,13.4335
2006-12-28,13.324
2006-12-29,13.1547
2007-01-03,13.1547
2007-01-04,13.4833
2007-01-05,13.563
2007-01-08,14.041
2007-01-09,14.1007
2007-01-10,14.2999
2007-01-11,14.2302
2007-01-12,14.2003
2007-01-16,14.1107
2007-01-17,13.9713
2007-01-18,13.6924
2007-01-19,13.5331
2007-01-22,13.4236
2007-01-23,13.5132
2007-01-24,13.9016
2007-01-25,13.9215
2007-01-26,13.6825
2007-01-29,13.9215
2007-01-30,13.9016
2007-01-31,13.9314
2007-02-01,13.7124
2007-02-02,13.6825
2007-02-05,13.6427
2007-02-06,13.563
2007-02-07,13.553
2007-02-08,14.4194
2007-02-09,14.4891
2007-02-12,14.5488
2007-02-13,14.4393
2007-02-14,14.6484
2007-02-15,14.6385
2007-02-16,14.5488
2007-02-20,14.5289
2007-02-21,14.748
2007-02-22,14.5688
2007-02-23,14.4293
2007-02-26,14.2401
2007-02-27,13.9414
2007-02-28,13.8916
2007-03-01,13.7721
2007-03-02,13.4933
2007-03-05,13.334
2007-03-06,13.324
2007-03-07,12.9755
2007-03-08,13.0352
2007-03-09,12.9854
2007-03-12,13.0252
2007-03-13,12.9356
2007-03-14,12.9157
2007-03-15,12.8958
2007-03-16,12.9456
2007-03-19,12.9954
2007-03-20,12.9755
2007-03-21,13.2244
2007-03-22,13.4734
2007-03-23,13.6427
2007-03-26,13.6128
2007-03-27,13.5431
2007-03-28,13.4335
2007-03-29,13.6227
2007-03-30,13.7821
2007-04-02,14.0111
2007-04-03,14.2202
2007-04-04,14.2899
2007-04-05,14.3596
2007-04-09,14.3198
2007-04-10,14.1406
2007-04-11,14.0111
2007-04-12,14.1406
2007-04-13,14.509
2007-04-16,14.6683
2007-04-17,15.1662
2007-04-18,15.2957
2007-04-19,15.3355
2007-04-20,15.2857
2007-04-23,15.4351
2007-04-24,15.4351
2007-04-25,15.6841
2007-04-26,15.5148
2007-04-27,15.5546
2007-04-30,15.1264
2007-05-01,15.0069
2007-05-02,15.1264
2007-05-03,15.2857
2007-05-04,15.2559
2007-05-07,15.5347
2007-05-08,15.6343
2007-05-09,15.5447
2007-05-10,15.1463
2007-05-11,15.2658
2007-05-14,15.3654
2007-05-15,15.3754
2007-05-16,15.6741
2007-05-17,15.5646
2007-05-18,15.6243
2007-05-21,15.7637
2007-05-22,15.7737
2007-05-23,15.9529
2007-05-24,16.2218
2007-05-25,16.411
2007-05-29,16.3911
2007-05-30,16.9089
2007-05-31,16.8392
2007-06-01,16.7596
2007-06-04,16.9886
2007-06-05,16.9388
2007-06-06,16.8691
2007-06-07,16.3811
2007-06-08,16.6301
2007-06-11,16.5604
2007-06-12,16.2318
2007-06-13,16.5206
2007-06-14,16.9587
2007-06-15,17.2873
2007-06-18,17.7056
2007-06-19,17.9147
2007-06-20,17.4367
2007-06-21,17.9446
2007-06-22,17.9247
2007-06-25,17.5662
2007-06-26,17.4267
2007-06-27,17.8649
2007-06-28,17.7554
2007-06-29,18.0242
2007-07-02,18.4524
2007-07-03,18.323
2007-07-05,18.3429
2007-07-06,18.5819
2007-07-09,18.5122
2007-07-10,18.6317
2007-07-11,18.8209
2007-07-12,19.1694
2007-07-13,19.1296
2007-07-16,19.03
2007-07-17,18.9603
2007-07-18,19.1893
2007-07-19,19.6673
2007-07-20,19.3387
2007-07-23,19.4084
2007-07-24,19.03
2007-07-25,18.8109
2007-07-26,18.4126
2007-07-27,18.2931
2007-07-30,18.7412
2007-07-31,18.4226
2007-08-01,19.0001
2007-08-02,19.0499
2007-08-03,18.5918
2007-08-06,18.4226
2007-08-07,18.0641
2007-08-08,18.3329
2007-08-09,17.6757
2007-08-10,17.6657
2007-08-13,19.0001
2007-08-14,18.3031
2007-08-15,18.0939
2007-08-16,18.1836
2007-08-17,18.1836
2007-08-20,18.5221
2007-08-21,19.1694
2007-08-22,19.7968
2007-08-23,19.3387
2007-08-24,19.8764
2007-08-27,19.5777
2007-08-28,19.0201
2007-08-29,19.5677
2007-08-30,19.5379
2007-08-31,19.6175
2007-09-04,19.747
2007-09-05,19.3387
2007-09-06,19.279
2007-09-07,18.9105
2007-09-10,19.03
2007-09-11,19.4084
2007-09-12,19.3785
2007-09-13,19.1694
2007-09-14,19.2192
2007-09-17,18.6815
2007-09-18,19.1595
2007-09-19,19.0201
2007-09-20,18.9304
2007-09-21,18.9603
2007-09-24,20.4441
2007-09-25,20.8523
2007-09-26,20.5536
2007-09-27,20.464
2007-09-28,20.7229
2007-10-01,20.7328
2007-10-02,21.3005
2007-10-03,21.0117
2007-10-04,20.932
2007-10-05,20.9021
2007-10-08,21.0515
2007-10-09,21.7087
2007-10-10,22.4855
2007-10-11,22.6946
2007-10-12,22.6946
2007-10-15,22.4954
2007-10-16,22.1867
2007-10-17,22.7245
2007-10-18,22.7643
2007-10-19,22.2465
2007-10-22,22.5154
2007-10-23,23.2423
2007-10-24,22.4556
2007-10-25,24.4074
2007-10-26,24.3875
2007-10-29,25.3136
2007-10-30,24.9651
2007-10-31,25.2439
2007-11-01,24.6962
2007-11-02,24.4771
2007-11-05,23.4016
2007-11-06,23.2523
2007-11-07,22.1768
2007-11-08,20.5735
2007-11-09,19.8366
2007-11-12,18.8109
2007-11-13,19.5976
2007-11-14,19.508
2007-11-15,19.269
2007-11-16,19.5677
2007-11-19,19.1296
2007-11-20,18.6815
2007-11-21,18.1935
2007-11-23,18.3031
2007-11-26,17.3371
2007-11-27,18.074
2007-11-28,18.9902
2007-11-29,19.3487
2007-11-30,19.1296
2007-12-03,18.9503
2007-12-04,19.0898
2007-12-05,19.3188
2007-12-06,19.3885
2007-12-07,19.4582
2007-12-10,19.4283
2007-12-11,19.3288
2007-12-12,19.6076
2007-12-13,19.0599
2007-12-14,18.9205
2007-12-17,18.4126
2007-12-18,18.3329
2007-12-19,18.7412
2007-12-20,18.7213
2007-12-21,18.9205
2007-12-24,18.9802
2007-12-26,18.8607
2007-12-27,18.4026
2007-12-28,18.3429
2007-12-31,18.4226
2008-01-02,17.9545
2008-01-03,17.7653
2008-01-04,16.9089
2008-01-07,15.9629
2008-01-08,15.9729
2008-01-09,16.4907
2008-01-10,16.5405
2008-01-11,15.9828
2008-01-14,16.7396
2008-01-15,16.6102
2008-01-16,16.7396
2008-01-17,16.7994
2008-01-18,16.9288
2008-01-22,16.2417
2008-01-23,15.8733
2008-01-24,16.4608
2008-01-25,16.6201
2008-01-28,16.8193
2008-01-29,15.8135
2008-01-30,15.704
2008-01-31,15.8036
2008-02-01,16.0724
2008-02-04,15.9131
2008-02-05,15.4351
2008-02-06,15.3654
2008-02-07,15.1662
2008-02-08,15.3953
2008-02-11,15.5646
2008-02-12,15.6642
2008-02-13,15.7438
2008-02-14,16.0426
2008-02-15,15.8135
2008-02-19,15.236
2008-02-20,15.3555
2008-02-21,15.3654
2008-02-22,15.1961
2008-02-25,15.5347
2008-02-26,15.9729
2008-02-27,15.9828
2008-02-28,15.6642
2008-02-29,15.4849
2008-03-03,15.455
2008-03-04,15.2957
2008-03-05,15.3754
2008-03-06,15.0069
2008-03-07,14.9571
2008-03-10,14.6683
2008-03-11,14.9372
2008-03-12,14.8476
2008-03-13,15.0965
2008-03-14,14.6982
2008-03-17,14.3796
2008-03-18,14.8675
2008-03-19,14.1804
2008-03-20,14.5588
2008-03-24,14.8775
2008-03-25,14.8376
2008-03-26,14.519
2008-03-27,14.28
2008-03-28,14.2202
2008-03-31,14.2601
2008-04-01,14.758
2008-04-02,14.7779
2008-04-03,14.8575
2008-04-04,14.8874
2008-04-07,14.8078
2008-04-08,14.748
2008-04-09,14.6783
2008-04-10,15.1364
2008-04-11,14.8376
2008-04-14,14.5787
2008-04-15,14.1206
2008-04-16,14.5389
2008-04-17,14.7679
2008-04-18,15.4451
2008-04-21,15.7837
2008-04-22,15.5347
2008-04-23,15.7837
2008-04-24,15.5048
2008-04-25,15.4949
2008-04-28,15.6741
2008-04-29,15.6642
2008-04-30,15.3256
2008-05-01,16.0326
2008-05-02,16.0426
2008-05-05,15.8633
2008-05-06,15.9231
2008-05-07,15.7339
2008-05-08,15.9231
2008-05-09,15.8832
2008-05-12,16.0127
2008-05-13,15.9032
2008-05-14,16.6201
2008-05-15,17.7255
2008-05-16,17.606
2008-05-19,17.9346
2008-05-20,17.2077
2008-05-21,17.2176
2008-05-22,17.1977
2008-05-23,16.9985
2008-05-27,17.1479
2008-05-28,17.1678
2008-05-29,17.4267
2008-05-30,17.377
2008-06-02,17.2276
2008-06-03,17.4068
2008-06-04,17.3272
2008-06-05,17.377
2008-06-06,17.0683
2008-06-09,16.7297
2008-06-10,16.5305
2008-06-11,16.2318
2008-06-12,16.2218
2008-06-13,16.3911
2008-06-16,16.3911
2008-06-17,16.421
2008-06-18,16.3015
2008-06-19,16.5106
2008-06-20,16.0525
2008-06-23,15.943
2008-06-24,15.8534
2008-06-25,16.2716
2008-06-26,15.4351
2008-06-27,14.738
2008-06-30,14.6385
2008-07-01,14.5986
2008-07-02,14.9173
2008-07-03,14.987
2008-07-07,15.0766
2008-07-08,13.324
2008-07-09,13.0651
2008-07-10,13.3041
2008-07-11,12.6867
2008-07-14,12.607
2008-07-15,12.4975
2008-07-16,12.5174
2008-07-17,12.7265
2008-07-18,12.5074
2008-07-21,12.2585
2008-07-22,12.3979
2008-07-23,14.1505
2008-07-24,13.9912
2008-07-25,13.9713
2008-07-28,13.8717
2008-07-29,13.9812
2008-07-30,14.9372
2008-07-31,14.9472
2008-08-01,14.9571
2008-08-04,14.758
2008-08-05,14.8476
2008-08-06,14.6683
2008-08-07,14.3098
2008-08-08,14.9372
2008-08-11,15.1662
2008-08-12,15.1165
2008-08-13,14.9273
2008-08-14,14.9671
2008-08-15,15.236
2008-08-18,15.1364
2008-08-19,15.1065
2008-08-20,15.1165
2008-08-21,15.236
2008-08-22,15.6741
2008-08-25,15.2658
2008-08-26,15.2559
2008-08-27,15.4949
2008-08-28,15.6343
2008-08-29,15.1961
2008-09-02,14.6982
2008-09-03,14.8277
2008-09-04,13.9115
2008-09-05,13.9812
2008-09-08,14.2103
2008-09-09,13.6725
2008-09-10,13.9016
2008-09-11,13.9215
2008-09-12,14.0211
2008-09-15,13.2642
2008-09-16,13.2941
2008-09-17,12.6966
2008-09-18,12.4178
2008-09-19,12.9755
2008-09-22,12.1987
2008-09-23,12.129
2008-09-24,12.1091
2008-09-25,12.9456
2008-09-26,12.6568
2008-09-29,11.5614
2008-09-30,11.9099
2008-10-01,11.9
2008-10-02,11.7307
2008-10-03,11.5315
2008-10-06,10.7249
2008-10-07,10.715
2008-10-08,10.466
2008-10-09,10.6552
2008-10-10,10.1772
2008-10-13,11.183
2008-10-14,10.6851
2008-10-15,9.74902
2008-10-16,9.95814
2008-10-17,9.6594
2008-10-20,10.1175
2008-10-21,9.60961
2008-10-22,9.94818
2008-10-23,9.38057
2008-10-24,9.86852
2008-10-27,9.95814
2008-10-28,10.9838
2008-10-29,10.456
2008-10-30,11.4419
2008-10-31,11.7108
2008-11-03,11.4419
2008-11-04,11.7108
2008-11-05,10.954
2008-11-06,10.4361
2008-11-07,10.8345
2008-11-10,10.6552
2008-11-11,10.2071
2008-11-12,9.82868
2008-11-13,10.4162
2008-11-14,9.92827
2008-11-17,9.78885
2008-11-18,10.1374
2008-11-19,9.75898
2008-11-20,8.77312
2008-11-21,9.20132
2008-11-24,10.0677
2008-11-25,9.73906
2008-11-26,10.4361
2008-11-28,10.3963
2008-12-01,10.1374
2008-12-02,10.3366
2008-12-03,10.6154
2008-12-04,10.2569
2008-12-05,10.8444
2008-12-08,11.1133
2008-12-09,10.5556
2008-12-10,10.4162
2008-12-11,10.466
2008-12-12,10.705
2008-12-15,10.7648
2008-12-16,11.0336
2008-12-17,10.934
2008-12-18,10.7847
2008-12-19,10.934
2008-12-22,10.2668
2008-12-23,10.1374
2008-12-24,10.0976
2008-12-26,10.2668
2008-12-29,10.227
2008-12-30,10.3565
2008-12-31,10.456
2009-01-02,10.7946
2009-01-05,10.6751
2009-01-06,11.2826
2009-01-07,11.1332
2009-01-08,11.8502
2009-01-09,11.7008
2009-01-12,11.5415
2009-01-13,11.2228
2009-01-14,11.1631
2009-01-15,11.173
2009-01-16,11.2328
2009-01-20,10.466
2009-01-21,10.8842
2009-01-22,10.8842
2009-01-23,11.1432
2009-01-26,10.934
2009-01-27,10.6652
2009-01-28,11.5614
2009-01-29,11.422
2009-01-30,10.9739
2009-02-02,11.2129
2009-02-03,11.3224
2009-02-04,11.2726
2009-02-05,11.7406
2009-02-06,11.9299
2009-02-09,12.4875
2009-02-10,11.8801
2009-02-11,11.9796
2009-02-12,11.9099
2009-02-13,12.0394
2009-02-17,11.6809
2009-02-18,11.8203
2009-02-19,11.1531
2009-02-20,10.9739
2009-02-23,10.6154
2009-02-24,10.7448
2009-02-25,11.0137
2009-02-26,10.7648
2009-02-27,10.4859
2009-03-02,10.1175
2009-03-03,10.0876
2009-03-04,10.5556
2009-03-05,10.0079
2009-03-06,9.88843
2009-03-09,9.79881
2009-03-10,10.6154
2009-03-11,10.5955
2009-03-12,10.9042
2009-03-13,10.6154
2009-03-16,10.5656
2009-03-17,10.9042
2009-03-18,11.2925
2009-03-19,11.4319
2009-03-20,11.2726
2009-03-23,11.7904
2009-03-24,11.7705
2009-03-25,11.5017
2009-03-26,11.9199
2009-03-27,11.5315
2009-03-30,11.0934
2009-03-31,11.3423
2009-04-01,11.6311
2009-04-02,12.0294
2009-04-03,12.4377
2009-04-06,12.3282
2009-04-07,11.8502
2009-04-08,12.5572
2009-04-09,13.1647
2009-04-13,12.6668
2009-04-14,12.7165
2009-04-15,12.4477
2009-04-16,12.8062
2009-04-17,12.7863
2009-04-20,12.4477
2009-04-21,12.4078
2009-04-22,12.6269
2009-04-23,12.1091
2009-04-24,11.8601
2009-04-27,11.7506
2009-04-28,11.9896
2009-04-29,12.2186
2009-04-30,12.4776
2009-05-01,12.3879
2009-05-04,12.7663
2009-05-05,12.7464
2009-05-06,12.6867
2009-05-07,12.2883
2009-05-08,12.5771
2009-05-11,12.2684
2009-05-12,12.0593
2009-05-13,11.7108
2009-05-14,11.8303
2009-05-15,11.8801
2009-05-18,11.9796
2009-05-19,12.139
2009-05-20,11.7705
2009-05-21,11.7207
2009-05-22,11.5714
2009-05-26,11.9796
2009-05-27,12.0195
2009-05-28,11.7207
2009-05-29,11.6909
2009-06-01,12.368
2009-06-02,12.7962
2009-06-03,12.4477
2009-06-04,12.7663
2009-06-05,12.8261
2009-06-08,12.7863
2009-06-09,12.836
2009-06-10,12.8261
2009-06-11,13.0452
2009-06-12,13.1647
2009-06-15,12.9257
2009-06-16,12.5672
2009-06-17,12.597
2009-06-18,12.846
2009-06-19,13.0452
2009-06-22,12.6369
2009-06-23,12.5174
2009-06-24,12.9356
2009-06-25,13.4335
2009-06-26,13.4534
2009-06-29,13.3837
2009-06-30,13.0452
2009-07-01,13.075
2009-07-02,12.7066
2009-07-06,12.856
2009-07-07,12.4377
2009-07-08,12.4477
2009-07-09,12.6966
2009-07-10,12.7663
2009-07-13,12.9456
2009-07-14,12.8062
2009-07-15,13.2842
2009-07-16,13.7024
2009-07-17,13.8617
2009-07-20,14.1007
2009-07-21,14.509
2009-07-22,14.3995
2009-07-23,14.9173
2009-07-24,14.8974
2009-07-27,15.0567
2009-07-28,15.2559
2009-07-29,15.2758
2009-07-30,15.2559
2009-07-31,15.0169
2009-08-03,15.216
2009-08-04,15.2559
2009-08-05,15.1165
2009-08-06,15.1762
2009-08-07,15.1762
2009-08-10,14.997
2009-08-11,14.8575
2009-08-12,15.1463
2009-08-13,15.1762
2009-08-14,15.0766
2009-08-17,14.7281
2009-08-18,14.8376
2009-08-19,15.0268
2009-08-20,15.0667
2009-08-21,15.226
2009-08-24,15.0368
2009-08-25,15.1264
2009-08-26,15.6243
2009-08-27,15.9729
2009-08-28,16.0824
2009-08-31,15.8334
2009-09-01,15.4252
2009-09-02,15.475
2009-09-03,15.7239
2009-09-04,16.0127
2009-09-08,16.2417
2009-09-09,16.5206
2009-09-10,16.9089
2009-09-11,16.8193
2009-09-14,16.8492
2009-09-15,16.8293
2009-09-16,16.899
2009-09-17,16.899
2009-09-18,16.9488
2009-09-21,16.7695
2009-09-22,17.0683
2009-09-23,17.0284
2009-09-24,17.0981
2009-09-25,16.7098
2009-09-28,17.0284
2009-09-29,16.9288
2009-09-30,16.9687
2009-10-01,16.4309
2009-10-02,16.6998
2009-10-05,16.9189
2009-10-06,17.377
2009-10-07,17.4068
2009-10-08,17.7255
2009-10-09,18.084
2009-10-12,17.7753
2009-10-13,17.8649
2009-10-14,18.074
2009-10-15,18.3429
2009-10-16,17.8549
2009-10-19,18.1238
2009-10-20,17.6757
2009-10-21,17.4566
2009-10-22,17.2575
2009-10-23,17.4168
2009-10-26,17.2077
2009-10-27,16.7396
2009-10-28,16.3911
2009-10-29,16.8492
2009-10-30,16.4011
2009-11-02,16.3513
2009-11-03,16.4608
2009-11-04,16.4409
2009-11-05,16.7396
2009-11-06,16.65
2009-11-09,16.9388
2009-11-10,16.9687
2009-11-11,16.9189
2009-11-12,16.6699
2009-11-13,16.7894
2009-11-16,17.1778
2009-11-17,17.1579
2009-11-18,17.3072
2009-11-19,17.0882
2009-11-20,16.9687
2009-11-23,17.0583
2009-11-24,16.8691
2009-11-25,16.8293
2009-11-27,16.6799
2009-11-30,16.7596
2009-12-01,16.899
2009-12-02,16.6699
2009-12-03,16.5703
2009-12-04,17.0683
2009-12-07,16.8193
2009-12-08,16.5803
2009-12-09,16.8193
2009-12-10,16.5106
2009-12-11,16.5703
2009-12-14,16.5504
2009-12-15,16.6002
2009-12-16,16.8392
2009-12-17,16.7894
2009-12-18,17.2674
2009-12-21,17.3969
2009-12-22,17.4168
2009-12-23,17.5064
2009-12-24,17.8151
2009-12-28,17.5363
2009-12-29,17.4367
2009-12-30,17.606
2009-12-31,17.3969
2010-01-04,17.8052
2010-01-05,17.9844
2010-01-06,17.7753
2010-01-07,17.4965
2010-01-08,17.5861
2010-01-11,17.4467
2010-01-12,17.4168
2010-01-13,17.5363
2010-01-14,18.084
2010-01-15,17.8749
2010-01-19,18.0242
2010-01-20,17.7155
2010-01-21,17.4367
2010-01-22,16.6799
2010-01-25,16.8492
2010-01-26,17.5462
2010-01-27,17.4965
2010-01-28,16.9886
2010-01-29,16.6002
2010-02-01,16.9587
2010-02-02,17.0085
2010-02-03,17.0085
2010-02-04,16.5703
2010-02-05,16.7297
2010-02-08,16.7994
2010-02-09,16.879
2010-02-10,16.7098
2010-02-11,17.0683
2010-02-12,17.0284
2010-02-16,17.3371
2010-02-17,17.3172
2010-02-18,17.6757
2010-02-19,17.7255
2010-02-22,17.6359
2010-02-23,17.1678
2010-02-24,17.3172
2010-02-25,17.2575
2010-02-26,17.4467
2010-03-01,17.6558
2010-03-02,17.5662
2010-03-03,17.4765
2010-03-04,17.3869
2010-03-05,17.7753
2010-03-08,18.3529
2010-03-09,18.4724
2010-03-10,18.6516
2010-03-11,18.7113
2010-03-12,18.8209
2010-03-15,18.7313
2010-03-16,18.7213
2010-03-17,18.6217
2010-03-18,18.562
2010-03-19,18.5221
2010-03-22,18.7611
2010-03-23,18.8607
2010-03-24,18.7512
2010-03-25,18.6616
2010-03-26,18.4923
2010-03-29,17.9844
2010-03-30,17.9545
2010-03-31,17.9844
2010-04-01,18.0939
2010-04-05,18.5421
2010-04-06,18.6118
2010-04-07,18.4724
2010-04-08,18.323
2010-04-09,18.4624
2010-04-12,19.0798
2010-04-13,18.9404
2010-04-14,19.1794
2010-04-15,19.269
2010-04-16,19.269
2010-04-19,19.1794
2010-04-20,19.3288
2010-04-21,19.7769
2010-04-22,19.757
2010-04-23,19.8864
2010-04-26,19.8764
2010-04-27,19.3088
2010-04-28,19.4881
2010-04-29,19.5578
2010-04-30,18.9205
2010-05-03,19.3088
2010-05-04,18.9205
2010-05-05,18.9802
2010-05-06,18.4823
2010-05-07,18.0442
2010-05-10,18.6516
2010-05-11,18.6516
2010-05-12,19.0101
2010-05-13,18.7711
2010-05-14,18.5022
2010-05-17,18.5918
2010-05-18,18.2831
2010-05-19,18.1139
2010-05-20,17.616
2010-05-21,17.8649
2010-05-24,17.9744
2010-05-25,17.7952
2010-05-26,17.7155
2010-05-27,18.6616
2010-05-28,18.5421
2010-06-01,18.4126
2010-06-02,18.6018
2010-06-03,18.9802
2010-06-04,18.2831
2010-06-07,17.9545
2010-06-08,17.9744
2010-06-09,17.8151
2010-06-10,18.4624
2010-06-11,18.562
2010-06-14,18.4823
2010-06-15,19.0599
2010-06-16,19.1196
2010-06-17,19.279
2010-06-18,19.2391
2010-06-21,19.1395
2010-06-22,19.0001
2010-06-23,19.0001
2010-06-24,18.552
2010-06-25,19.1196
2010-06-28,18.9902
2010-06-29,18.5122
2010-06-30,18.2234
2010-07-01,18.1139
2010-07-02,17.9844
2010-07-06,18.074
2010-07-07,19.0201
2010-07-08,19.279
2010-07-09,19.3586
2010-07-12,19.5877
2010-07-13,19.9063
2010-07-14,20.4142
2010-07-15,20.5038
2010-07-16,20.0657
2010-07-19,20.3544
2010-07-20,20.1553
2010-07-21,19.3387
2010-07-22,19.7669
2010-07-23,20.1354
2010-07-26,20.2648
2010-07-27,20.1951
2010-07-28,19.986
2010-07-29,19.8067
2010-07-30,19.737
2010-08-02,20.3246
2010-08-03,20.3544
2010-08-04,20.7528
2010-08-05,20.6034
2010-08-06,20.1453
2010-08-09,20.3943
2010-08-10,20.0557
2010-08-11,19.5976
2010-08-12,18.6317
2010-08-13,18.7113
2010-08-16,18.6914
2010-08-17,18.8308
2010-08-18,18.8707
2010-08-19,18.4923
2010-08-20,18.6217
2010-08-23,18.4524
2010-08-24,18.0641
2010-08-25,18.0541
2010-08-26,17.9844
2010-08-27,18.313
2010-08-30,18.3031
2010-08-31,18.1338
2010-09-01,19.0599
2010-09-02,19.498
2010-09-03,19.8267
2010-09-07,19.6474
2010-09-08,19.9661
2010-09-09,19.8167
2010-09-10,19.8764
2010-09-13,20.3146
2010-09-14,20.5138
2010-09-15,20.5835
2010-09-16,20.464
2010-09-17,20.5038
2010-09-20,20.7229
2010-09-21,20.6034
2010-09-22,20.6831
2010-09-23,20.693
2010-09-24,21.5395
2010-09-27,21.42
2010-09-28,21.1312
2010-09-29,20.5536
2010-09-30,20.2449
2010-10-01,20.2449
2010-10-04,19.9262
2010-10-05,20.3146
2010-10-06,19.5877
2010-10-07,19.508
2010-10-08,19.7769
2010-10-11,19.9561
2010-10-12,20.1154
2010-10-13,20.225
2010-10-14,21.0913
2010-10-15,21.0117
2010-10-18,20.693
2010-10-19,20.7428
2010-10-20,21.0913
2010-10-21,21.2706
2010-10-22,21.3303
2010-10-25,21.1909
2010-10-26,21.0913
2010-10-27,21.0814
2010-10-28,20.9021
2010-10-29,20.942
2010-11-01,21.1909
2010-11-02,21.2606
2010-11-03,21.3503
2010-11-04,21.5893
2010-11-05,21.4897
2010-11-08,21.7785
2010-11-09,21.9378
2010-11-10,22.0473
2010-11-11,21.8083
2010-11-12,21.6291
2010-11-15,21.3602
2010-11-16,20.942
2010-11-17,20.7528
2010-11-18,21.4399
2010-11-19,21.7087
2010-11-22,21.5992
2010-11-23,21.2606
2010-11-24,21.7585
2010-11-26,21.5992
2010-11-29,21.5693
2010-11-30,21.42
2010-12-01,21.7984
2010-12-02,21.9378
2010-12-03,22.0274
2010-12-06,21.9179
2010-12-07,21.7884
2010-12-08,21.9677
2010-12-09,21.9975
2010-12-10,22.1668
2010-12-13,22.4158
2010-12-14,22.5552
2010-12-15,22.4656
2010-12-16,22.6349
2010-12-17,22.8738
2010-12-20,22.7145
2010-12-21,22.8539
2010-12-22,22.8041
2010-12-23,22.9137
2010-12-27,23.0033
2010-12-28,22.9037
2010-12-29,22.834
2010-12-30,22.8041
2010-12-31,22.8041
2011-01-03,23.0232
2011-01-04,22.9933
2011-01-05,23.322
2011-01-06,23.561
2011-01-07,23.3718
2011-01-10,23.6307
2011-01-11,23.6506
2011-01-12,23.3917
2011-01-13,23.8697
2011-01-14,24.4472
2011-01-18,24.6265
2011-01-19,24.1186
2011-01-20,23.7302
2011-01-21,23.8597
2011-01-24,23.7103
2011-01-25,24.2779
2011-01-26,24.6464
2011-01-27,24.8456
2011-01-28,24.3875
2011-01-31,24.7958
2011-02-01,25.1343
2011-02-02,25.3534
2011-02-03,25.3933
2011-02-04,25.5625
2011-02-07,25.8912
2011-02-08,26.0605
2011-02-09,26.9666
2011-02-10,27.0662
2011-02-11,26.887
2011-02-14,27.1359
2011-02-15,26.7974
2011-02-16,27.0164
2011-02-17,27.0861
2011-02-18,27.0662
2011-02-22,26.4588
2011-02-23,26.2198
2011-02-24,26.4389
2011-02-25,26.7974
2011-02-28,27.0762
2011-03-01,26.4588
2011-03-02,26.5584
2011-03-03,27.2355
2011-03-04,27.1957
2011-03-07,26.6779
2011-03-08,26.7476
2011-03-09,26.648
2011-03-10,26.0804
2011-03-11,26.5086
2011-03-14,26.0804
2011-03-15,25.8912
2011-03-16,25.2041
2011-03-17,25.453
2011-03-18,25.5426
2011-03-21,26.5086
2011-03-22,26.2696
2011-03-23,26.3791
2011-03-24,26.9467
2011-03-25,27.2256
2011-03-28,27.0762
2011-03-29,27.1559
2011-03-30,26.8272
2011-03-31,26.4588
2011-04-01,26.4389
2011-04-04,25.921
2011-04-05,25.8314
2011-04-06,26.0107
2011-04-07,26.1202
2011-04-08,25.9907
2011-04-11,26.2795
2011-04-12,25.7418
2011-04-13,26.5683
2011-04-14,26.5285
2011-04-15,26.7675
2011-04-18,26.4687
2011-04-19,26.5882
2011-04-20,27.843
2011-04-21,28.3907
2011-04-25,28.1716
2011-04-26,28.1915
2011-04-27,27.9824
2011-04-28,28.1915
2011-04-29,28.2114
2011-05-02,27.9824
2011-05-03,27.8728
2011-05-04,27.2455
2011-05-05,26.877
2011-05-06,27.0364
2011-05-09,27.0463
2011-05-10,27.3251
2011-05-11,27.2256
2011-05-12,27.6139
2011-05-13,27.4745
2011-05-16,27.3052
2011-05-17,27.2654
2011-05-18,27.6438
2011-05-19,27.8728
2011-05-20,27.9525
2011-05-23,27.355
2011-05-24,27.2256
2011-05-25,27.4944
2011-05-26,28.072
2011-05-27,28.311
2011-05-31,28.311
2011-06-01,28.0023
2011-06-02,28.2413
2011-06-03,27.8131
2011-06-06,27.1957
2011-06-07,26.9567
2011-06-08,26.9368
2011-06-09,26.8272
2011-06-10,26.2098
2011-06-13,26.1401
2011-06-14,26.9866
2011-06-15,26.3891
2011-06-16,25.9907
2011-06-17,25.7518
2011-06-20,25.921
2011-06-21,26.5484
2011-06-22,26.3492
2011-06-23,26.5086
2011-06-24,25.5227
2011-06-27,26.3891
2011-06-28,26.7575
2011-06-29,26.9965
2011-06-30,27.4646
2011-07-01,27.7235
2011-07-05,27.7832
2011-07-06,27.7135
2011-07-07,27.7633
2011-07-08,27.7434
2011-07-11,27.0762
2011-07-12,26.8471
2011-07-13,26.9268
2011-07-14,26.7177
2011-07-15,26.6978
2011-07-18,26.4887
2011-07-19,27.2455
2011-07-20,27.2953
2011-07-21,27.2355
2011-07-22,27.6438
2011-07-25,27.3351
2011-07-26,27.3052
2011-07-27,26.4986
2011-07-28,26.4787
2011-07-29,26.0306
2011-08-01,25.9907
2011-08-02,24.975
2011-08-03,24.9153
2011-08-04,23.4415
2011-08-05,22.9037
2011-08-08,21.9677
2011-08-09,22.3959
2011-08-10,21.4598
2011-08-11,22.5552
2011-08-12,23.0431
2011-08-15,23.2722
2011-08-16,22.9037
2011-08-17,22.4257
2011-08-18,20.5138
2011-08-19,20.1852
2011-08-22,20.5237
2011-08-23,21.1113
2011-08-24,21.3403
2011-08-25,21.1013
2011-08-26,21.5195
2011-08-29,22.1369
2011-08-30,21.9278
2011-08-31,22.4656
2011-09-01,22.0573
2011-09-02,21.3602
2011-09-06,21.3801
2011-09-07,21.9975
2011-09-08,21.6789
2011-09-09,21.2108
2011-09-12,21.5195
2011-09-13,21.7884
2011-09-14,21.9677
2011-09-15,22.5651
2011-09-16,22.6249
2011-09-19,22.4158
2011-09-20,21.7486
2011-09-21,21.2706
2011-09-22,20.4341
2011-09-23,20.4839
2011-09-26,21.2308
2011-09-27,21.4598
2011-09-28,21.2606
2011-09-29,21.2009
2011-09-30,20.9519
2011-10-03,20.3046
2011-10-04,20.8922
2011-10-05,21.5295
2011-10-06,22.2365
2011-10-07,22.2564
2011-10-10,22.7544
2011-10-11,22.9336
2011-10-12,22.7842
2011-10-13,22.6149
2011-10-14,22.9834
2011-10-17,22.5651
2011-10-18,23.8597
2011-10-19,23.6207
2011-10-20,23.7302
2011-10-21,23.9195
2011-10-24,24.2082
2011-10-25,23.7302
2011-10-26,23.7203
2011-10-27,24.7659
2011-10-28,24.9153
2011-10-31,24.4472
2011-11-01,23.6705
2011-11-02,24.1983
2011-11-03,24.8954
2011-11-04,24.5767
2011-11-07,24.4871
2011-11-08,24.8954
2011-11-09,23.9692
2011-11-10,23.9692
2011-11-11,24.5568
2011-11-14,24.3477
2011-11-15,24.4771
2011-11-16,24.1286
2011-11-17,23.2124
2011-11-18,22.9734
2011-11-21,22.6747
2011-11-22,22.4257
2011-11-23,22.0075
2011-11-25,21.7187
2011-11-28,22.3959
2011-11-29,22.2963
2011-11-30,22.9336
2011-12-01,23.073
2011-12-02,23.2025
2011-12-05,23.4514
2011-12-06,23.4813
2011-12-07,23.4913
2011-12-08,23.1328
2011-12-09,23.4614
2011-12-12,22.9933
2011-12-13,22.5651
2011-12-14,22.117
2011-12-15,22.1967
2011-12-16,22.2067
2011-12-19,21.8382
2011-12-20,22.3262
2011-12-21,21.4399
2011-12-22,21.5992
2011-12-23,21.7187
2011-12-27,21.5295
2011-12-28,21.3403
2011-12-29,21.4996
2011-12-30,21.4498
2012-01-03,21.6291
2012-01-04,21.7585
2012-01-05,21.7984
2012-01-06,21.888
2012-01-09,21.888
2012-01-10,21.7585
2012-01-11,22.0175
2012-01-12,22.4058
2012-01-13,22.127
2012-01-17,22.0971
2012-01-18,22.6149
2012-01-19,23.083
2012-01-20,23.1427
2012-01-23,23.3817
2012-01-24,25.0049
2012-01-25,25.5526
2012-01-26,25.5128
2012-01-27,25.7418
2012-01-30,25.6123
2012-01-31,25.6621
2012-02-01,25.5924
2012-02-02,25.9111
2012-02-03,26.2994
2012-02-06,26.1401
2012-02-07,26.0505
2012-02-08,26.2397
2012-02-09,26.2895
2012-02-10,26.1003
2012-02-13,26.3094
2012-02-14,26.2795
2012-02-15,26.4787
2012-02-16,27.3948
2012-02-17,26.9766
2012-02-21,27.1359
2012-02-22,26.9368
2012-02-23,27.116
2012-02-24,27.4048
2012-02-27,27.7434
2012-02-28,27.8828
2012-02-29,27.5841
2012-03-01,28.1517
2012-03-02,28.3707
2012-03-05,27.9923
2012-03-06,27.5841
2012-03-07,27.9226
2012-03-08,28.4006
2012-03-09,28.8886
2012-03-12,28.9284
2012-03-13,29.496
2012-03-14,28.9782
2012-03-15,28.8786
2012-03-16,28.7691
2012-03-19,28.8687
2012-03-20,28.7292
2012-03-21,29.0977
2012-03-22,29.018
2012-03-23,29.0579
2012-03-26,29.4761
2012-03-27,29.4263
2012-03-28,29.4263
2012-03-29,29.4661
2012-03-30,29.7549
2012-04-02,29.5856
2012-04-03,29.6952
2012-04-04,29.0877
2012-04-05,28.8886
2012-04-09,28.5898
2012-04-10,28.2413
2012-04-11,28.5102
2012-04-12,29.0977
2012-04-13,28.7093
2012-04-16,28.7193
2012-04-17,29.1774
2012-04-18,29.0081
2012-04-19,27.9625
2012-04-20,27.8031
2012-04-23,27.5542
2012-04-24,27.3849
2012-04-25,28.062
2012-04-26,28.3707
2012-04-27,28.2114
2012-04-30,28.082
2012-05-01,28.55
2012-05-02,28.3508
2012-05-03,28.0919
2012-05-04,27.7434
2012-05-07,27.6338
2012-05-08,27.2753
2012-05-09,27.3849
2012-05-10,25.9509
2012-05-11,26.2795
2012-05-14,25.9808
2012-05-15,26.0007
2012-05-16,25.453
2012-05-17,25.4032
2012-05-18,24.8057
2012-05-21,25.6721
2012-05-22,25.463
2012-05-23,25.3534
2012-05-24,24.0987
2012-05-25,24.1286
2012-05-29,24.1186
2012-05-30,23.9593
2012-05-31,23.7701
2012-06-01,23.073
2012-06-04,22.8241
2012-06-05,23.302
2012-06-06,24.268
2012-06-07,24.5169
2012-06-08,24.5369
2012-06-11,24.2282
2012-06-12,24.4472
2012-06-13,24.1584
2012-06-14,23.8697
2012-06-15,24.7559
2012-06-18,24.5867
2012-06-19,25.3833
2012-06-20,25.214
2012-06-21,24.0489
2012-06-22,24.6364
2012-06-25,23.6904
2012-06-26,23.8995
2012-06-27,24.0987
2012-06-28,23.5809
2012-06-29,25.5227
2012-07-02,25.1144
2012-07-03,25.4928
2012-07-05,25.1742
2012-07-06,23.9692
2012-07-09,23.6108
2012-07-10,23.4713
2012-07-11,23.4713
2012-07-12,23.2323
2012-07-13,23.551
2012-07-16,23.1527
2012-07-17,22.8041
2012-07-18,25.0049
2012-07-19,25.3534
2012-07-20,24.9252
2012-07-23,24.7061
2012-07-24,25.2738
2012-07-25,25.0248
2012-07-26,25.6522
2012-07-27,26.4189
2012-07-30,26.1899
2012-07-31,26.1202
2012-08-01,26.0505
2012-08-02,25.9808
2012-08-03,26.6779
2012-08-06,26.4986
2012-08-07,26.8173
2012-08-08,26.6679
2012-08-09,26.877
2012-08-10,26.8671
2012-08-13,26.5982
2012-08-14,25.5625
2012-08-15,25.3435
2012-08-16,26.1401
2012-08-17,26.7575
2012-08-20,26.4389
2012-08-21,26.0007
2012-08-22,26.2696
2012-08-23,25.8314
2012-08-24,26.5584
2012-08-27,26.2895
2012-08-28,26.2795
2012-08-29,26.8073
2012-08-30,26.16
2012-08-31,26.2497
2012-09-04,26.2596
2012-09-05,26.3194
2012-09-06,27.3849
2012-09-07,27.5542
2012-09-10,27.3052
2012-09-11,27.2753
2012-09-12,27.2355
2012-09-13,27.3948
2012-09-14,27.7334
2012-09-17,27.4546
2012-09-18,27.5442
2012-09-19,27.6239
2012-09-20,27.365
2012-09-21,27.8928
2012-09-24,27.6538
2012-09-25,27.0065
2012-09-26,26.6181
2012-09-27,27.4048
2012-09-28,27.1758
2012-10-01,27.1359
2012-10-02,27.126
2012-10-03,26.9268
2012-10-04,27.0662
2012-10-05,27.126
2012-10-08,27.0164
2012-10-09,25.9907
2012-10-10,25.7318
2012-10-11,25.5924
2012-10-12,25.5526
2012-10-15,25.6123
2012-10-16,26.2397
2012-10-17,25.463
2012-10-18,24.8854
2012-10-19,24.4672
2012-10-22,24.9352
2012-10-23,24.6364
2012-10-24,24.3676
2012-10-25,24.039
2012-10-26,23.8099
2012-10-31,24.3178
2012-11-01,25.1144
2012-11-02,24.9053
2012-11-05,24.7559
2012-11-06,25.2339
2012-11-07,24.4771
2012-11-08,24.0887
2012-11-09,24.1286
2012-11-12,24.019
2012-11-13,23.8298
2012-11-14,23.2622
2012-11-15,23.5012
2012-11-16,23.5012
2012-11-19,24.2381
2012-11-20,24.0987
2012-11-21,24.258
2012-11-23,24.7061
2012-11-26,24.5568
2012-11-27,24.4373
2012-11-28,24.7559
2012-11-29,24.9451
2012-11-30,24.7759
2012-12-03,24.6663
2012-12-04,24.8456
2012-12-05,25.0248
2012-12-06,25.0348
2012-12-07,24.7958
2012-12-10,24.9153
2012-12-11,25.224
2012-12-12,24.5369
2012-12-13,24.6066
2012-12-14,24.6066
2012-12-17,25.1841
2012-12-18,25.7916
2012-12-19,25.8115
2012-12-20,25.8015
2012-12-21,25.5227
2012-12-24,25.5128
2012-12-26,25.224
2012-12-27,25.1841
2012-12-28,24.7559
2012-12-31,25.1244
2013-01-02,24.7264
2013-01-03,24.2285
2013-01-04,24.2086
2013-01-07,24.0293
2013-01-08,23.7405
2013-01-09,23.9098
2013-01-10,23.7306
2013-01-11,24.0492
2013-01-14,24.109
2013-01-15,24.2385
2013-01-16,23.9696
2013-01-17,23.9696
2013-01-18,24.1787
2013-01-22,24.1687
2013-01-23,24.4177
2013-01-24,24.9754
2013-01-25,25.1048
2013-01-28,25.1347
2013-01-29,24.109
2013-01-30,24.5272
2013-01-31,24.5372
2013-02-01,24.7214
2013-02-04,24.5073
2013-02-05,24.7862
2013-02-06,24.6467
2013-02-07,24.6169
2013-02-08,24.7463
2013-02-11,24.4974
2013-02-12,24.4277
2013-02-13,24.1239
2013-02-14,23.9497
2013-02-15,23.8999
2013-02-19,23.88
2013-02-20,23.4119
2013-02-21,23.3024
2013-02-22,23.3123
2013-02-25,22.7646
2013-02-26,22.8543
2013-02-27,23.1779
2013-02-28,22.9439
2013-03-01,23.153
2013-03-04,23.1032
2013-03-05,23.621
2013-03-06,24.1787
2013-03-07,23.86
2013-03-08,24.2185
2013-03-11,24.4376
2013-03-12,24.3679
2013-03-13,24.8061
2013-03-14,25.4633
2013-03-15,25.2243
2013-03-18,24.9355
2013-03-19,24.6069
2013-03-20,24.7364
2013-03-21,24.3978
2013-03-22,24.0094
2013-03-25,23.6509
2013-03-26,23.621
2013-03-27,23.7206
2013-03-28,23.7804
2013-04-01,23.4816
2013-04-02,23.7007
2013-04-03,23.4916
2013-04-04,23.3522
2013-04-05,22.9837
2013-04-08,23.0235
2013-04-09,23.0534
2013-04-10,23.1132
2013-04-11,22.7945
2013-04-12,23.0036
2013-04-15,22.7148
2013-04-16,22.9837
2013-04-17,22.6352
2013-04-18,22.2368
2013-04-19,21.4302
2013-04-22,21.729
2013-04-23,22.2866
2013-04-24,22.4061
2013-04-25,22.5356
2013-04-26,22.3962
2013-04-29,22.3663
2013-04-30,22.3464
2013-05-01,22.3862
2013-05-02,22.8144
2013-05-03,23.2725
2013-05-06,23.1928
2013-05-07,23.0235
2013-05-08,23.3223
2013-05-09,22.7945
2013-05-10,23.2327
2013-05-13,22.9538
2013-05-14,22.8941
2013-05-15,22.914
2013-05-16,23.9497
2013-05-17,24.0791
2013-05-20,24.0492
2013-05-21,24.0094
2013-05-22,23.5513
2013-05-23,23.5812
2013-05-24,23.5414
2013-05-28,23.7903
2013-05-29,23.5613
2013-05-30,24.836
2013-05-31,24.7065
2013-06-03,24.6368
2013-06-04,24.3082
2013-06-05,24.1986
2013-06-06,24.6268
2013-06-07,24.6069
2013-06-10,24.7662
2013-06-11,24.5671
2013-06-12,24.2484
2013-06-13,24.6169
2013-06-14,24.6467
2013-06-17,24.7165
2013-06-18,24.8559
2013-06-19,24.7862
2013-06-20,24.6766
2013-06-21,24.2484
2013-06-24,23.6509
2013-06-25,23.5513
2013-06-26,23.8003
2013-06-27,23.59
2013-06-28,23.66
2013-07-01,23.59
2013-07-02,23.77
2013-07-03,23.97
2013-07-05,24.1
2013-07-08,24.28
2013-07-09,24.78
2013-07-10,24.45
2013-07-11,24.6
2013-07-12,24.91
2013-07-15,25.27
2013-07-16,25.31
2013-07-17,25.41
2013-07-18,25.6
2013-07-19,25.51
2013-07-22,25.22
2013-07-23,25.26
2013-07-24,26.77
2013-07-25,26.74
2013-07-26,26.46
2013-07-29,26.31
2013-07-30,26.33
2013-07-31,26.16
2013-08-01,26.51
2013-08-02,26.3
2013-08-05,26.32
2013-08-06,26.44
2013-08-07,26.5
2013-08-08,27.07
2013-08-09,26.85
