date,close_price
2000-04-03,6.94
2000-04-04,7.065
2000-04-05,6.97
2000-04-06,7.125
2000-04-07,7.25
2000-04-10,7.315
2000-04-11,7.155
2000-04-12,7.22
2000-04-13,7.155
2000-04-14,7.19
2000-04-17,7.065
2000-04-18,7.03
2000-04-19,7.125
2000-04-20,7.345
2000-04-24,7.065
2000-04-25,7.5
2000-04-26,7.655
2000-04-27,7.44
2000-04-28,7.44
2000-05-01,7.315
2000-05-02,7.25
2000-05-03,7.19
2000-05-04,7.315
2000-05-05,7.5
2000-05-08,7.625
2000-05-09,7.625
2000-05-10,7.595
2000-05-11,7.5
2000-05-12,7.845
2000-05-15,8.19
2000-05-16,8.25
2000-05-17,7.94
2000-05-18,7.78
2000-05-19,7.69
2000-05-22,7.78
2000-05-23,7.78
2000-05-24,8.25
2000-05-25,8.72
2000-05-26,9.0
2000-05-30,9.875
2000-05-31,10.22
2000-06-01,9.94
2000-06-02,9.565
2000-06-05,9.095
2000-06-06,8.565
2000-06-07,9.25
2000-06-08,9.22
2000-06-09,9.25
2000-06-12,9.25
2000-06-13,9.19
2000-06-14,9.22
2000-06-15,9.19
2000-06-16,9.0
2000-06-19,9.0
2000-06-20,9.0
2000-06-21,9.44
2000-06-22,9.78
2000-06-23,9.97
2000-06-26,9.905
2000-06-27,9.565
2000-06-28,10.19
2000-06-29,10.22
2000-06-30,9.565
2000-07-03,10.28
2000-07-05,9.845
2000-07-06,10.095
2000-07-07,10.315
2000-07-10,10.565
2000-07-11,11.03
2000-07-12,11.095
2000-07-13,11.565
2000-07-14,11.405
2000-07-17,11.405
2000-07-18,11.94
2000-07-19,12.095
2000-07-20,12.0
2000-07-21,12.405
2000-07-24,12.375
2000-07-25,12.25
2000-07-26,11.94
2000-07-27,11.69
2000-07-28,11.5
2000-07-31,10.875
2000-08-01,11.345
2000-08-02,11.44
2000-08-03,11.53
2000-08-04,11.5
2000-08-07,11.315
2000-08-08,11.28
2000-08-09,11.19
2000-08-10,10.78
2000-08-11,11.19
2000-08-14,11.28
2000-08-15,11.44
2000-08-16,11.375
2000-08-17,11.345
2000-08-18,11.345
2000-08-21,11.565
2000-08-22,11.5
2000-08-23,11.47
2000-08-24,11.345
2000-08-25,11.345
2000-08-28,11.5
2000-08-29,11.905
2000-08-30,12.125
2000-08-31,13.19
2000-09-01,11.44
2000-09-05,11.22
2000-09-06,11.19
2000-09-07,11.25
2000-09-08,11.125
2000-09-11,11.155
2000-09-12,11.125
2000-09-13,10.69
2000-09-14,10.655
2000-09-15,10.44
2000-09-18,9.94
2000-09-19,10.0
2000-09-20,10.065
2000-09-21,9.94
2000-09-22,10.125
2000-09-25,10.22
2000-09-26,10.28
2000-09-27,10.25
2000-09-28,10.625
2000-09-29,11.0
2000-10-02,10.155
2000-10-03,10.095
2000-10-04,9.97
2000-10-05,10.19
2000-10-06,10.44
2000-10-09,10.28
2000-10-10,10.28
2000-10-11,10.405
2000-10-12,10.53
2000-10-13,11.19
2000-10-16,11.0
2000-10-17,11.19
2000-10-18,11.405
2000-10-19,11.72
2000-10-20,11.565
2000-10-23,11.845
2000-10-24,12.065
2000-10-25,11.875
2000-10-26,11.565
2000-10-27,11.5
2000-10-30,11.47
2000-10-31,6.815
2000-11-01,6.375
2000-11-02,7.095
2000-11-03,7.565
2000-11-06,7.5
2000-11-07,7.595
2000-11-08,7.72
2000-11-09,7.595
2000-11-10,7.375
2000-11-13,7.19
2000-11-14,6.97
2000-11-15,7.065
2000-11-16,7.155
2000-11-17,7.065
2000-11-20,6.845
2000-11-21,7.47
2000-11-22,7.72
2000-11-24,8.0
2000-11-27,7.94
2000-11-28,7.97
2000-11-29,7.94
2000-11-30,8.03
2000-12-01,8.19
2000-12-04,7.97
2000-12-05,8.125
2000-12-06,7.94
2000-12-07,8.03
2000-12-08,8.28
2000-12-11,8.28
2000-12-12,8.0
2000-12-13,7.905
2000-12-14,7.595
2000-12-15,7.905
2000-12-18,7.875
2000-12-19,8.375
2000-12-20,8.25
2000-12-21,8.315
2000-12-22,8.345
2000-12-26,8.345
2000-12-27,8.375
2000-12-28,8.72
2000-12-29,8.94
2001-01-02,8.69
2001-01-03,9.125
2001-01-04,9.03
2001-01-05,8.44
2001-01-08,8.47
2001-01-09,8.75
2001-01-10,9.0
2001-01-11,8.875
2001-01-12,8.94
2001-01-16,9.0
2001-01-17,8.905
2001-01-18,9.19
2001-01-19,8.875
2001-01-22,8.94
2001-01-23,8.875
2001-01-24,9.0
2001-01-25,9.0
2001-01-26,8.75
2001-01-29,9.14
2001-01-30,9.2
2001-01-31,9.1
2001-02-01,9.22
2001-02-02,9.03
2001-02-05,8.975
2001-02-06,8.6
2001-02-07,9.2
2001-02-08,9.395
2001-02-09,9.65
2001-02-12,10.7
2001-02-13,10.035
2001-02-14,10.04
2001-02-15,10.49
2001-02-16,10.315
2001-02-20,10.4
2001-02-21,10.39
2001-02-22,10.625
2001-02-23,10.32
2001-02-26,10.5
2001-02-27,10.88
2001-02-28,10.455
2001-03-01,10.6
2001-03-02,10.1
2001-03-05,9.985
2001-03-06,9.99
2001-03-07,9.55
2001-03-08,9.7
2001-03-09,9.52
2001-03-12,9.575
2001-03-13,9.825
2001-03-14,9.9
2001-03-15,9.79
2001-03-16,9.695
2001-03-19,9.575
2001-03-20,9.32
2001-03-21,9.24
2001-03-22,9.025
2001-03-23,8.9
2001-03-26,8.95
2001-03-27,9.235
2001-03-28,8.965
2001-03-29,9.75
2001-03-30,9.725
2001-04-02,9.7
2001-04-03,9.225
2001-04-04,9.425
2001-04-05,9.55
2001-04-06,9.68
2001-04-09,9.585
2001-04-10,9.56
2001-04-11,9.175
2001-04-12,9.235
2001-04-16,9.3
2001-04-17,9.515
2001-04-18,9.425
2001-04-19,10.025
2001-04-20,9.965
2001-04-23,9.995
2001-04-24,9.95
2001-04-25,9.895
2001-04-26,9.82
2001-04-27,11.005
2001-04-30,10.85
2001-05-01,11.1
2001-05-02,11.05
2001-05-03,11.095
2001-05-04,11.5
2001-05-07,11.23
2001-05-08,11.395
2001-05-09,11.26
2001-05-10,11.235
2001-05-11,11.125
2001-05-14,11.495
2001-05-15,11.61
2001-05-16,11.875
2001-05-17,11.98
2001-05-18,11.935
2001-05-21,11.995
2001-05-22,11.53
2001-05-23,11.765
2001-05-24,11.5
2001-05-25,11.275
2001-05-29,11.2
2001-05-30,11.06
2001-05-31,11.53
2001-06-01,11.94
2001-06-04,12.025
2001-06-05,12.35
2001-06-06,12.465
2001-06-07,12.63
2001-06-08,12.525
2001-06-11,12.425
2001-06-12,12.23
2001-06-13,12.205
2001-06-14,11.975
2001-06-15,11.935
2001-06-18,12.015
2001-06-19,12.06
2001-06-20,12.27
2001-06-21,12.325
2001-06-22,12.355
2001-06-25,12.325
2001-06-26,12.525
2001-06-27,12.7
2001-06-28,12.74
2001-06-29,13.155
2001-07-02,13.125
2001-07-03,13.125
2001-07-05,13.055
2001-07-06,12.745
2001-07-09,13.21
2001-07-10,13.28
2001-07-11,13.385
2001-07-12,13.465
2001-07-13,13.85
2001-07-16,13.125
2001-07-17,13.14
2001-07-18,12.93
2001-07-19,12.065
2001-07-20,11.75
2001-07-23,11.525
2001-07-24,11.9
2001-07-25,11.76
2001-07-26,12.055
2001-07-27,12.45
2001-07-30,12.46
2001-07-31,12.385
2001-08-01,12.44
2001-08-02,12.1
2001-08-03,11.995
2001-08-06,12.125
2001-08-07,12.19
2001-08-08,12.18
2001-08-09,11.985
2001-08-10,11.89
2001-08-13,12.125
2001-08-14,12.525
2001-08-15,12.6
2001-08-16,12.47
2001-08-17,12.765
2001-08-20,13.005
2001-08-21,12.675
2001-08-22,12.785
2001-08-23,13.025
2001-08-24,12.85
2001-08-27,12.895
2001-08-28,12.57
2001-08-29,13.0
2001-08-30,13.195
2001-08-31,13.135
2001-09-04,13.0
2001-09-05,13.005
2001-09-06,13.0
2001-09-07,13.05
2001-09-10,12.905
2001-09-17,12.43
2001-09-18,11.875
2001-09-19,11.635
2001-09-20,11.01
2001-09-21,10.835
2001-09-24,10.5
2001-09-25,10.6
2001-09-26,11.05
2001-09-27,11.24
2001-09-28,11.42
2001-10-01,11.635
2001-10-02,11.94
2001-10-03,11.615
2001-10-04,12.05
2001-10-05,12.11
2001-10-08,12.2
2001-10-09,12.175
2001-10-10,12.12
2001-10-11,12.34
2001-10-12,12.255
2001-10-15,12.05
2001-10-16,12.35
2001-10-17,12.32
2001-10-18,12.535
2001-10-19,13.115
2001-10-22,13.01
2001-10-23,13.175
2001-10-24,13.11
2001-10-25,13.345
2001-10-26,12.975
2001-10-29,12.315
2001-10-30,12.55
2001-10-31,12.695
2001-11-01,12.94
2001-11-02,13.115
2001-11-05,12.95
2001-11-06,12.845
2001-11-07,12.52
2001-11-08,12.525
2001-11-09,12.635
2001-11-12,12.695
2001-11-13,12.465
2001-11-14,12.13
2001-11-15,11.85
2001-11-16,11.705
2001-11-19,11.675
2001-11-20,12.205
2001-11-21,12.5
2001-11-23,12.6
2001-11-26,12.84
2001-11-27,12.45
2001-11-28,12.45
2001-11-29,12.82
2001-11-30,12.715
2001-12-03,12.2
2001-12-04,12.775
2001-12-05,12.615
2001-12-06,12.79
2001-12-07,12.92
2001-12-10,12.335
2001-12-11,13.0
2001-12-12,13.24
2001-12-13,13.475
2001-12-14,13.3
2001-12-17,14.14
2001-12-18,14.23
2001-12-19,13.825
2001-12-20,13.78
2001-12-21,13.765
2001-12-24,14.31
2001-12-26,14.35
2001-12-27,13.815
2001-12-28,14.375
2001-12-31,13.82
2002-01-02,13.685
2002-01-03,13.505
2002-01-04,13.65
2002-01-07,13.655
2002-01-08,13.65
2002-01-09,13.5
2002-01-10,13.435
2002-01-11,12.935
2002-01-14,12.935
2002-01-15,13.215
2002-01-16,13.035
2002-01-17,13.075
2002-01-18,13.005
2002-01-22,13.09
2002-01-23,13.37
2002-01-24,13.3
2002-01-25,13.505
2002-01-28,13.69
2002-01-29,13.46
2002-01-30,13.68
2002-01-31,13.455
2002-02-01,13.765
2002-02-04,12.825
2002-02-05,12.73
2002-02-06,13.95
2002-02-07,14.175
2002-02-08,14.45
2002-02-11,14.73
2002-02-12,14.0
2002-02-13,14.2
2002-02-14,14.175
2002-02-15,13.825
2002-02-19,13.51
2002-02-20,14.375
2002-02-21,13.735
2002-02-22,14.48
2002-02-25,13.785
2002-02-26,13.83
2002-02-27,14.045
2002-02-28,14.2
2002-03-01,13.865
2002-03-04,13.695
2002-03-05,13.85
2002-03-06,14.07
2002-03-07,13.925
2002-03-08,13.91
2002-03-11,13.585
2002-03-12,14.07
2002-03-13,13.885
2002-03-14,13.875
2002-03-15,13.93
2002-03-18,13.97
2002-03-19,14.01
2002-03-20,13.8
2002-03-21,13.965
2002-03-22,13.76
2002-03-25,13.595
2002-03-26,14.05
2002-03-27,13.625
2002-03-28,13.985
2002-04-01,13.8
2002-04-02,13.45
2002-04-03,13.475
2002-04-04,13.635
2002-04-05,13.35
2002-04-08,13.32
2002-04-09,13.695
2002-04-10,13.525
2002-04-11,13.55
2002-04-12,13.91
2002-04-15,13.475
2002-04-16,14.01
2002-04-17,13.45
2002-04-18,13.65
2002-04-19,13.405
2002-04-22,13.535
2002-04-23,13.405
2002-04-24,12.245
2002-04-25,12.495
2002-04-26,12.55
2002-04-29,12.4
2002-04-30,12.53
2002-05-01,12.89
2002-05-02,13.075
2002-05-03,13.15
2002-05-06,12.77
2002-05-07,13.0
2002-05-08,12.9
2002-05-09,12.56
2002-05-10,12.375
2002-05-13,12.245
2002-05-14,12.195
2002-05-15,12.73
2002-05-16,12.17
2002-05-17,12.49
2002-05-20,11.95
2002-05-21,12.075
2002-05-22,11.895
2002-05-23,12.1
2002-05-24,11.91
2002-05-28,12.125
2002-05-29,11.815
2002-05-30,12.275
2002-05-31,11.87
2002-06-03,11.59
2002-06-04,11.62
2002-06-05,11.685
2002-06-06,11.425
2002-06-07,11.25
2002-06-10,11.895
2002-06-11,11.465
2002-06-12,11.65
2002-06-13,11.725
2002-06-14,12.07
2002-06-17,12.275
2002-06-18,12.38
2002-06-19,11.97
2002-06-20,12.025
2002-06-21,12.015
2002-06-24,11.69
2002-06-25,11.59
2002-06-26,11.38
2002-06-27,11.5
2002-06-28,11.46
2002-07-01,10.85
2002-07-02,10.47
2002-07-03,10.935
2002-07-05,10.9
2002-07-08,10.775
2002-07-09,10.68
2002-07-10,10.0
2002-07-11,9.825
2002-07-12,10.405
2002-07-15,10.07
2002-07-16,10.515
2002-07-17,10.855
2002-07-18,10.425
2002-07-19,10.11
2002-07-22,9.895
2002-07-23,9.29
2002-07-24,10.805
2002-07-25,11.775
2002-07-26,11.725
2002-07-29,11.99
2002-07-30,12.0
2002-07-31,12.205
2002-08-01,12.235
2002-08-02,11.98
2002-08-05,11.51
2002-08-06,12.0
2002-08-07,12.205
2002-08-08,12.555
2002-08-09,12.665
2002-08-12,12.475
2002-08-13,12.255
2002-08-14,12.665
2002-08-15,12.49
2002-08-16,12.525
2002-08-19,12.6
2002-08-20,12.675
2002-08-21,12.725
2002-08-22,12.64
2002-08-23,12.55
2002-08-26,12.475
2002-08-27,12.415
2002-08-28,12.31
2002-08-29,12.36
2002-08-30,12.315
2002-09-03,11.95
2002-09-04,12.115
2002-09-05,12.1
2002-09-06,12.215
2002-09-09,12.415
2002-09-10,12.4
2002-09-11,12.45
2002-09-12,12.38
2002-09-13,12.405
2002-09-16,12.37
2002-09-17,12.22
2002-09-18,12.275
2002-09-19,12.3
2002-09-20,12.44
2002-09-23,12.415
2002-09-24,12.36
2002-09-25,12.5
2002-09-26,12.595
2002-09-27,12.605
2002-09-30,12.745
2002-10-01,12.825
2002-10-02,12.705
2002-10-03,12.795
2002-10-04,12.85
2002-10-07,12.875
2002-10-08,12.83
2002-10-09,12.515
2002-10-10,12.375
2002-10-11,12.45
2002-10-14,12.475
2002-10-15,12.34
2002-10-16,12.375
2002-10-17,12.405
2002-10-18,12.34
2002-10-21,12.195
2002-10-22,12.0
2002-10-23,12.695
2002-10-24,13.015
2002-10-25,13.045
2002-10-28,13.045
2002-10-29,12.87
2002-10-30,12.755
2002-10-31,12.84
2002-11-01,12.82
2002-11-04,12.99
2002-11-05,12.965
2002-11-06,12.98
2002-11-07,12.83
2002-11-08,12.635
2002-11-11,12.65
2002-11-12,12.8
2002-11-13,13.235
2002-11-14,13.255
2002-11-15,13.64
2002-11-18,13.545
2002-11-19,13.525
2002-11-20,13.54
2002-11-21,13.705
2002-11-22,13.635
2002-11-25,13.46
2002-11-26,13.435
2002-11-27,13.14
2002-11-29,13.16
2002-12-02,12.795
2002-12-03,12.725
2002-12-04,12.895
2002-12-05,12.94
2002-12-06,13.035
2002-12-09,12.99
2002-12-10,12.92
2002-12-11,13.11
2002-12-12,13.03
2002-12-13,12.83
2002-12-16,13.09
2002-12-17,12.91
2002-12-18,12.965
2002-12-19,13.085
2002-12-20,13.05
2002-12-23,13.05
2002-12-24,13.125
2002-12-26,13.025
2002-12-27,12.95
2002-12-30,12.675
2002-12-31,12.74
2003-01-02,12.765
2003-01-03,12.8
2003-01-06,12.7
2003-01-07,12.59
2003-01-08,12.775
2003-01-09,12.65
2003-01-10,12.73
2003-01-13,12.765
2003-01-14,12.78
2003-01-15,12.995
2003-01-16,13.015
2003-01-17,12.855
2003-01-21,12.735
2003-01-22,13.1
2003-01-23,13.13
2003-01-24,12.83
2003-01-27,12.45
2003-01-28,12.575
2003-01-29,12.575
2003-01-30,12.22
2003-01-31,12.76
2003-02-03,12.265
2003-02-04,12.97
2003-02-05,12.78
2003-02-06,12.75
2003-02-07,12.765
2003-02-10,12.705
2003-02-11,12.85
2003-02-12,12.675
2003-02-13,12.395
2003-02-14,12.59
2003-02-18,12.87
2003-02-19,12.79
2003-02-20,12.925
2003-02-21,13.045
2003-02-24,12.765
2003-02-25,13.025
2003-02-26,13.02
2003-02-27,13.23
2003-02-28,13.295
2003-03-03,13.26
2003-03-04,13.275
2003-03-05,13.315
2003-03-06,13.115
2003-03-07,13.19
2003-03-10,13.03
2003-03-11,12.955
2003-03-12,12.75
2003-03-13,13.07
2003-03-14,13.055
2003-03-17,13.325
2003-03-18,13.1
2003-03-19,13.28
2003-03-20,13.265
2003-03-21,13.715
2003-03-24,13.385
2003-03-25,13.7
2003-03-26,13.52
2003-03-27,13.495
2003-03-28,13.595
2003-03-31,13.71
2003-04-01,13.875
2003-04-02,13.935
2003-04-03,13.8
2003-04-04,13.605
2003-04-07,13.535
2003-04-08,13.68
2003-04-09,13.52
2003-04-10,13.7
2003-04-11,13.65
2003-04-14,13.9
2003-04-15,13.9
2003-04-16,13.65
2003-04-17,13.645
2003-04-21,13.65
2003-04-22,13.6
2003-04-23,14.425
2003-04-24,14.42
2003-04-25,14.37
2003-04-28,14.41
2003-04-29,14.39
2003-04-30,14.43
2003-05-01,14.24
2003-05-02,14.41
2003-05-05,14.39
2003-05-06,14.59
2003-05-07,14.825
2003-05-08,14.86
2003-05-09,14.795
2003-05-12,15.29
2003-05-13,15.22
2003-05-14,15.195
2003-05-15,15.325
2003-05-16,15.355
2003-05-19,15.215
2003-05-20,15.09
2003-05-21,15.26
2003-05-22,15.36
2003-05-23,15.19
2003-05-27,15.125
2003-05-28,14.61
2003-05-29,14.92
2003-05-30,15.12
2003-06-02,15.03
2003-06-03,15.015
2003-06-04,15.055
2003-06-05,15.285
2003-06-06,15.19
2003-06-09,14.955
2003-06-10,15.175
2003-06-11,15.545
2003-06-12,15.875
2003-06-13,15.64
2003-06-16,16.015
2003-06-17,15.98
2003-06-18,16.215
2003-06-19,16.235
2003-06-20,15.885
2003-06-23,15.425
2003-06-24,15.55
2003-06-25,15.55
2003-06-26,15.68
2003-06-27,16.005
2003-06-30,16.045
2003-07-01,15.97
2003-07-02,16.23
2003-07-03,16.04
2003-07-07,16.085
2003-07-08,15.985
2003-07-09,16.185
2003-07-10,16.05
2003-07-11,16.205
2003-07-14,16.125
2003-07-15,16.155
2003-07-16,16.055
2003-07-17,15.95
2003-07-18,16.055
2003-07-21,15.68
2003-07-22,15.975
2003-07-23,13.75
2003-07-24,13.575
2003-07-25,13.62
2003-07-28,13.455
2003-07-29,13.7
2003-07-30,13.825
2003-07-31,14.125
2003-08-01,13.7
2003-08-04,13.48
2003-08-05,13.24
2003-08-06,13.08
2003-08-07,13.255
2003-08-08,13.46
2003-08-11,13.645
2003-08-12,14.105
2003-08-13,14.285
2003-08-14,14.375
2003-08-15,14.49
2003-08-18,14.56
2003-08-19,14.57
2003-08-20,14.445
2003-08-21,14.43
2003-08-22,14.205
2003-08-25,14.1
2003-08-26,13.985
2003-08-27,13.94
2003-08-28,14.015
2003-08-29,14.22
2003-09-02,14.245
2003-09-03,14.075
2003-09-04,14.35
2003-09-05,14.23
2003-09-08,14.195
2003-09-09,14.19
2003-09-10,13.975
2003-09-11,14.1
2003-09-12,13.87
2003-09-15,13.765
2003-09-16,13.65
2003-09-17,13.64
2003-09-18,13.735
2003-09-19,13.73
2003-09-22,13.65
2003-09-23,13.81
2003-09-24,13.54
2003-09-25,13.565
2003-09-26,13.45
2003-09-29,13.57
2003-09-30,13.525
2003-10-01,13.8
2003-10-02,13.975
2003-10-03,13.905
2003-10-06,13.965
2003-10-07,14.0
2003-10-08,14.72
2003-10-09,14.74
2003-10-10,14.685
2003-10-13,14.545
2003-10-14,14.5
2003-10-15,14.695
2003-10-16,14.865
2003-10-17,14.715
2003-10-20,14.61
2003-10-21,13.74
2003-10-22,13.81
2003-10-23,13.87
2003-10-24,14.31
2003-10-27,14.4
2003-10-28,14.49
2003-10-29,14.69
2003-10-30,14.5
2003-10-31,14.515
2003-11-03,14.525
2003-11-04,14.315
2003-11-05,14.365
2003-11-06,14.5
2003-11-07,14.315
2003-11-10,14.175
2003-11-11,14.3
2003-11-12,14.345
2003-11-13,14.565
2003-11-14,14.25
2003-11-17,14.245
2003-11-18,14.5
2003-11-19,14.65
2003-11-20,14.83
2003-11-21,14.86
2003-11-24,15.03
2003-11-25,14.92
2003-11-26,14.96
2003-11-28,15.06
2003-12-01,15.53
2003-12-02,15.36
2003-12-03,15.275
2003-12-04,15.205
2003-12-05,14.92
2003-12-08,14.985
2003-12-09,14.68
2003-12-10,14.7
2003-12-11,15.015
2003-12-12,15.0
2003-12-15,14.965
2003-12-16,14.625
2003-12-17,14.75
2003-12-18,14.91
2003-12-19,14.85
2003-12-22,14.725
2003-12-23,14.81
2003-12-24,14.84
2003-12-26,14.955
2003-12-29,15.03
2003-12-30,15.15
2003-12-31,15.045
2004-01-02,14.97
2004-01-05,14.85
2004-01-06,14.81
2004-01-07,15.025
2004-01-08,15.06
2004-01-09,15.035
2004-01-12,15.075
2004-01-13,15.12
2004-01-14,15.835
2004-01-15,15.895
2004-01-16,16.535
2004-01-20,16.5
2004-01-21,16.98
2004-01-22,16.865
2004-01-23,16.78
2004-01-26,16.835
2004-01-27,16.635
2004-01-28,16.85
2004-01-29,16.875
2004-01-30,17.345
2004-02-02,17.755
2004-02-03,16.965
2004-02-04,16.785
2004-02-05,16.47
2004-02-06,16.645
2004-02-09,17.0
2004-02-10,17.065
2004-02-11,16.475
2004-02-12,16.79
2004-02-13,16.64
2004-02-17,16.595
2004-02-18,16.53
2004-02-19,16.475
2004-02-20,16.195
2004-02-23,15.995
2004-02-24,15.89
2004-02-25,16.105
2004-02-26,16.18
2004-02-27,16.105
2004-03-01,16.385
2004-03-02,16.4
2004-03-03,16.395
2004-03-04,16.355
2004-03-05,16.125
2004-03-08,15.94
2004-03-09,15.725
2004-03-10,15.575
2004-03-11,15.235
2004-03-12,15.285
2004-03-15,15.345
2004-03-16,15.43
2004-03-17,15.77
2004-03-18,15.585
2004-03-19,15.375
2004-03-22,15.2
2004-03-23,15.27
2004-03-24,15.055
2004-03-25,15.105
2004-03-26,15.43
2004-03-29,15.535
2004-03-30,15.72
2004-03-31,15.97
2004-04-01,15.93
2004-04-02,16.08
2004-04-05,16.285
2004-04-06,16.55
2004-04-07,16.53
2004-04-08,16.22
2004-04-12,16.575
2004-04-13,16.35
2004-04-14,16.705
2004-04-15,16.675
2004-04-16,16.81
2004-04-19,16.71
2004-04-20,16.525
2004-04-21,16.56
2004-04-22,16.635
2004-04-23,17.59
2004-04-26,17.465
2004-04-27,17.325
2004-04-28,17.0
2004-04-29,17.535
2004-04-30,17.235
2004-05-03,17.32
2004-05-04,17.35
2004-05-05,17.545
2004-05-06,17.61
2004-05-07,17.385
2004-05-10,16.91
2004-05-11,17.1
2004-05-12,17.21
2004-05-13,17.4
2004-05-14,17.51
2004-05-17,17.405
2004-05-18,17.35
2004-05-19,17.63
2004-05-20,17.65
2004-05-21,17.775
2004-05-24,17.655
2004-05-25,17.64
2004-05-26,17.865
2004-05-27,18.18
2004-05-28,18.125
2004-06-01,18.165
2004-06-02,18.285
2004-06-03,18.025
2004-06-04,17.995
2004-06-07,18.06
2004-06-08,18.19
2004-06-09,17.93
2004-06-10,18.04
2004-06-14,17.955
2004-06-15,18.0
2004-06-16,17.765
2004-06-17,17.845
2004-06-18,17.85
2004-06-21,17.795
2004-06-22,17.945
2004-06-23,18.03
2004-06-24,17.5
2004-06-25,17.525
2004-06-28,17.275
2004-06-29,17.565
2004-06-30,17.42
2004-07-01,17.1
2004-07-02,16.935
2004-07-06,16.8
2004-07-07,17.0
2004-07-08,16.755
2004-07-09,16.55
2004-07-12,16.61
2004-07-13,16.5
2004-07-14,16.675
2004-07-15,16.805
2004-07-16,16.65
2004-07-19,16.855
2004-07-20,16.87
2004-07-21,16.8
2004-07-22,16.81
2004-07-23,16.69
2004-07-26,16.39
2004-07-27,16.54
2004-07-28,17.285
2004-07-29,17.485
2004-07-30,17.59
2004-08-02,17.75
2004-08-03,17.445
2004-08-04,17.375
2004-08-05,17.055
2004-08-06,16.675
2004-08-09,16.545
2004-08-10,16.9
2004-08-11,17.1
2004-08-12,16.925
2004-08-13,16.81
2004-08-16,16.95
2004-08-17,16.93
2004-08-18,17.07
2004-08-19,17.015
2004-08-20,17.28
2004-08-23,17.3
2004-08-24,17.33
2004-08-25,17.46
2004-08-26,17.415
2004-08-27,17.655
2004-08-30,17.5
2004-08-31,17.67
2004-09-01,17.945
2004-09-02,18.155
2004-09-03,18.195
2004-09-07,18.26
2004-09-08,18.06
2004-09-09,17.67
2004-09-10,17.755
2004-09-13,17.785
2004-09-14,17.83
2004-09-15,17.78
2004-09-16,17.85
2004-09-17,18.145
2004-09-20,18.055
2004-09-21,18.03
2004-09-22,17.875
2004-09-23,17.8
2004-09-24,17.945
2004-09-27,17.63
2004-09-28,17.04
2004-09-29,16.755
2004-09-30,16.735
2004-10-01,16.8
2004-10-04,16.91
2004-10-05,17.0
2004-10-06,17.045
2004-10-07,16.84
2004-10-08,16.7
2004-10-11,16.7
2004-10-12,16.515
2004-10-13,16.305
2004-10-14,16.395
2004-10-15,16.425
2004-10-18,16.75
2004-10-19,16.475
2004-10-20,16.7
2004-10-21,16.68
2004-10-22,16.945
2004-10-25,16.825
2004-10-26,16.84
2004-10-27,17.255
2004-10-28,17.37
2004-10-29,17.09
2004-11-01,17.09
2004-11-02,17.08
2004-11-03,17.36
2004-11-04,17.53
2004-11-05,17.685
2004-11-08,17.75
2004-11-09,17.75
2004-11-10,17.885
2004-11-11,17.99
2004-11-12,17.97
2004-11-15,17.955
2004-11-16,17.945
2004-11-17,18.0
2004-11-18,17.975
2004-11-19,17.775
2004-11-22,18.01
2004-11-23,18.35
2004-11-24,18.605
2004-11-26,18.565
2004-11-29,18.71
2004-11-30,18.785
2004-12-01,18.84
2004-12-02,18.525
2004-12-03,19.735
2004-12-06,19.26
2004-12-07,19.53
2004-12-08,20.265
2004-12-09,20.86
2004-12-10,20.855
2004-12-13,20.63
2004-12-14,20.955
2004-12-15,20.53
2004-12-16,20.45
2004-12-17,20.835
2004-12-20,20.565
2004-12-21,20.25
2004-12-22,20.465
2004-12-23,20.9
2004-12-27,20.85
2004-12-28,21.11
2004-12-29,20.92
2004-12-30,20.905
2004-12-31,20.645
2005-01-03,20.355
2005-01-04,19.94
2005-01-05,19.715
2005-01-06,20.02
2005-01-07,20.03
2005-01-10,20.695
2005-01-11,20.13
2005-01-12,20.055
2005-01-13,20.16
2005-01-14,20.59
2005-01-18,20.935
2005-01-19,20.7
2005-01-20,20.46
2005-01-21,20.535
2005-01-24,20.66
2005-01-25,20.46
2005-01-26,20.37
2005-01-27,20.565
2005-01-28,20.1
2005-01-31,20.355
2005-02-01,20.245
2005-02-02,20.12
2005-02-03,20.22
2005-02-04,20.285
2005-02-07,20.3
2005-02-08,20.45
2005-02-09,20.555
2005-02-10,20.7
2005-02-11,21.3
2005-02-14,21.015
2005-02-15,21.125
2005-02-16,21.135
2005-02-17,21.03
2005-02-18,20.955
2005-02-22,20.635
2005-02-23,20.955
2005-02-24,21.245
2005-02-25,21.355
2005-02-28,21.505
2005-03-01,21.78
2005-03-02,22.025
2005-03-03,21.93
2005-03-04,21.97
2005-03-07,21.755
2005-03-08,21.545
2005-03-09,21.73
2005-03-10,21.715
2005-03-11,21.71
2005-03-14,22.135
2005-03-15,21.83
2005-03-16,21.485
2005-03-17,21.51
2005-03-18,21.67
2005-03-21,21.735
2005-03-22,21.63
2005-03-23,21.55
2005-03-24,21.43
2005-03-28,21.445
2005-03-29,21.52
2005-03-30,21.705
2005-03-31,21.66
2005-04-01,21.63
2005-04-04,21.35
2005-04-05,21.47
2005-04-06,21.475
2005-04-07,21.33
2005-04-08,21.245
2005-04-11,21.235
2005-04-12,21.11
2005-04-13,21.25
2005-04-14,20.975
2005-04-15,20.955
2005-04-18,21.035
2005-04-19,21.215
2005-04-20,21.07
2005-04-21,21.185
2005-04-22,21.305
2005-04-25,21.895
2005-04-26,21.805
2005-04-27,21.99
2005-04-28,22.04
2005-04-29,22.0
2005-05-02,22.37
2005-05-03,22.54
2005-05-04,22.685
2005-05-05,22.77
2005-05-06,22.86
2005-05-09,23.1
2005-05-10,22.76
2005-05-11,22.945
2005-05-12,22.65
2005-05-13,22.53
2005-05-16,22.71
2005-05-17,22.64
2005-05-18,22.92
2005-05-19,23.03
2005-05-20,22.98
2005-05-23,23.135
2005-05-24,23.06
2005-05-25,22.79
2005-05-26,22.895
2005-05-27,23.14
2005-05-31,22.885
2005-06-01,23.0
2005-06-02,23.32
2005-06-03,23.39
2005-06-06,23.075
2005-06-07,23.315
2005-06-08,22.97
2005-06-09,22.665
2005-06-10,22.49
2005-06-13,22.53
2005-06-14,21.575
2005-06-15,21.575
2005-06-16,21.63
2005-06-17,21.635
2005-06-20,21.445
2005-06-21,21.39
2005-06-22,21.24
2005-06-23,21.325
2005-06-24,21.17
2005-06-27,21.195
2005-06-28,21.425
2005-06-29,21.405
2005-06-30,21.53
2005-07-01,21.495
2005-07-05,21.5
2005-07-06,21.13
2005-07-07,21.025
2005-07-08,21.08
2005-07-11,21.13
2005-07-12,21.15
2005-07-13,20.99
2005-07-14,20.75
2005-07-15,20.445
2005-07-18,20.46
2005-07-19,20.325
2005-07-20,20.425
2005-07-21,20.535
2005-07-22,22.25
2005-07-25,22.535
2005-07-26,22.955
2005-07-27,22.95
2005-07-28,23.115
2005-07-29,22.93
2005-08-01,22.895
2005-08-02,22.79
2005-08-03,22.695
2005-08-04,22.525
2005-08-05,22.265
2005-08-08,21.97
2005-08-09,21.985
2005-08-10,21.875
2005-08-11,22.085
2005-08-12,21.98
2005-08-15,22.05
2005-08-16,21.785
2005-08-17,21.76
2005-08-18,21.635
2005-08-19,21.5
2005-08-22,21.55
2005-08-23,21.47
2005-08-24,21.5
2005-08-25,21.35
2005-08-26,21.56
2005-08-29,21.795
2005-08-30,21.79
2005-08-31,22.0
2005-09-01,22.05
2005-09-02,21.915
2005-09-06,22.4
2005-09-07,22.32
2005-09-08,21.955
2005-09-09,21.975
2005-09-12,21.965
2005-09-13,21.96
2005-09-14,21.945
2005-09-15,21.85
2005-09-16,21.955
2005-09-19,22.065
2005-09-20,21.84
2005-09-21,21.6
2005-09-22,21.775
2005-09-23,21.665
2005-09-26,21.875
2005-09-27,22.0
2005-09-28,21.825
2005-09-29,22.005
2005-09-30,22.2
2005-10-03,22.09
2005-10-04,22.14
2005-10-05,21.82
2005-10-06,21.7
2005-10-07,21.535
2005-10-10,21.305
2005-10-11,20.975
2005-10-12,20.88
2005-10-13,20.965
2005-10-14,20.975
2005-10-17,20.95
2005-10-18,21.415
2005-10-19,21.5
2005-10-20,21.435
2005-10-21,21.275
2005-10-24,21.345
2005-10-25,21.085
2005-10-26,20.795
2005-10-27,20.525
2005-10-28,20.655
2005-10-31,20.71
2005-11-01,20.87
2005-11-02,21.0
2005-11-03,20.95
2005-11-04,20.91
2005-11-07,21.0
2005-11-08,21.09
2005-11-09,21.185
2005-11-10,21.12
2005-11-11,21.065
2005-11-14,20.97
2005-11-15,20.945
2005-11-16,20.995
2005-11-17,20.9
2005-11-18,20.865
2005-11-21,20.785
2005-11-22,20.56
2005-11-23,20.5
2005-11-25,20.65
2005-11-28,20.27
2005-11-29,19.925
2005-11-30,19.98
2005-12-01,20.285
2005-12-02,20.95
2005-12-05,20.875
2005-12-06,20.95
2005-12-07,20.715
2005-12-08,20.655
2005-12-09,20.755
2005-12-12,20.845
2005-12-13,20.83
2005-12-14,20.935
2005-12-15,20.96
2005-12-16,20.975
2005-12-19,20.755
2005-12-20,20.775
2005-12-21,20.875
2005-12-22,21.03
2005-12-23,21.045
2005-12-27,20.88
2005-12-28,20.91
2005-12-29,20.96
2005-12-30,20.8
2006-01-03,20.74
2006-01-04,21.155
2006-01-05,21.095
2006-01-06,21.205
2006-01-09,20.975
2006-01-10,21.245
2006-01-11,21.075
2006-01-12,21.38
2006-01-13,21.5
2006-01-17,21.165
2006-01-18,21.345
2006-01-19,21.285
2006-01-20,21.11
2006-01-23,21.12
2006-01-24,21.12
2006-01-25,20.86
2006-01-26,21.25
2006-01-27,21.255
2006-01-30,21.4
2006-01-31,21.47
2006-02-01,21.675
2006-02-02,21.41
2006-02-03,23.1
2006-02-06,22.35
2006-02-07,22.005
2006-02-08,21.99
2006-02-09,22.26
2006-02-10,21.81
2006-02-13,21.655
2006-02-14,21.55
2006-02-15,21.5
2006-02-16,21.475
2006-02-17,21.2
2006-02-21,21.035
2006-02-22,21.155
2006-02-23,21.04
2006-02-24,20.995
2006-02-27,20.995
2006-02-28,20.65
2006-03-01,20.93
2006-03-02,21.12
2006-03-03,21.225
2006-03-06,21.1
2006-03-07,20.9
2006-03-08,20.725
2006-03-09,20.865
2006-03-10,20.895
2006-03-13,20.76
2006-03-14,20.93
2006-03-15,21.11
2006-03-16,21.135
2006-03-17,21.295
2006-03-20,21.335
2006-03-21,21.51
2006-03-22,21.915
2006-03-23,22.42
2006-03-24,22.405
2006-03-27,22.245
2006-03-28,22.155
2006-03-29,21.915
2006-03-30,21.675
2006-03-31,21.74
2006-04-03,21.7
2006-04-04,21.7
2006-04-05,21.725
2006-04-06,21.67
2006-04-07,21.625
2006-04-10,21.56
2006-04-11,21.395
2006-04-12,21.465
2006-04-13,21.415
2006-04-17,21.38
2006-04-18,21.775
2006-04-19,21.845
2006-04-20,22.445
2006-04-21,22.715
2006-04-24,22.47
2006-04-25,22.35
2006-04-26,22.34
2006-04-27,22.335
2006-04-28,22.24
2006-05-01,21.96
2006-05-02,21.96
2006-05-03,21.835
2006-05-04,22.05
2006-05-05,22.18
2006-05-08,22.07
2006-05-09,21.755
2006-05-10,21.965
2006-05-11,22.115
2006-05-12,21.975
2006-05-15,22.25
2006-05-16,22.265
2006-05-17,21.925
2006-05-18,21.885
2006-05-19,22.12
2006-05-22,22.02
2006-05-23,21.735
2006-05-24,21.915
2006-05-25,21.96
2006-05-26,22.0
2006-05-30,22.1
2006-05-31,22.155
2006-06-01,22.27
2006-06-02,22.53
2006-06-05,22.23
2006-06-06,22.21
2006-06-07,22.395
2006-06-08,22.695
2006-06-09,22.565
2006-06-12,22.325
2006-06-13,22.405
2006-06-14,22.325
2006-06-15,22.66
2006-06-16,22.72
2006-06-19,22.5
2006-06-20,22.5
2006-06-21,22.64
2006-06-22,22.165
2006-06-23,22.15
2006-06-26,22.275
2006-06-27,22.08
2006-06-28,21.995
2006-06-29,22.285
2006-06-30,22.71
2006-07-03,22.76
2006-07-05,22.395
2006-07-06,22.475
2006-07-07,22.45
2006-07-10,22.415
2006-07-11,22.39
2006-07-12,22.46
2006-07-13,22.33
2006-07-14,22.11
2006-07-17,22.21
2006-07-18,22.29
2006-07-19,22.865
2006-07-20,22.805
2006-07-21,22.59
2006-07-24,22.46
2006-07-25,21.63
2006-07-26,21.695
2006-07-27,21.73
2006-07-28,21.995
2006-07-31,22.12
2006-08-01,22.05
2006-08-02,22.17
2006-08-03,22.16
2006-08-04,22.345
2006-08-07,22.125
2006-08-08,22.285
2006-08-09,22.4
2006-08-10,22.69
2006-08-11,22.61
2006-08-14,22.56
2006-08-15,22.75
2006-08-16,22.875
2006-08-17,23.2
2006-08-18,23.06
2006-08-21,22.985
2006-08-22,22.765
2006-08-23,23.18
2006-08-24,22.995
2006-08-25,23.26
2006-08-28,23.085
2006-08-29,23.155
2006-08-30,23.285
2006-08-31,23.345
2006-09-01,23.325
2006-09-05,23.295
2006-09-06,22.98
2006-09-07,23.255
2006-09-08,23.355
2006-09-11,23.62
2006-09-12,23.75
2006-09-13,23.625
2006-09-14,23.53
2006-09-15,23.49
2006-09-18,23.355
2006-09-19,23.305
2006-09-20,23.365
2006-09-21,23.235
2006-09-22,23.14
2006-09-25,23.265
2006-09-26,23.38
2006-09-27,23.385
2006-09-28,23.435
2006-09-29,23.31
2006-10-02,23.425
2006-10-03,23.38
2006-10-04,23.55
2006-10-05,23.82
2006-10-06,23.73
2006-10-09,23.98
2006-10-10,23.965
2006-10-11,23.975
2006-10-12,23.61
2006-10-13,23.495
2006-10-16,23.94
2006-10-17,23.335
2006-10-18,23.125
2006-10-19,23.135
2006-10-20,22.2
2006-10-23,22.0
2006-10-24,22.17
2006-10-25,22.17
2006-10-26,22.31
2006-10-27,22.03
2006-10-30,21.785
2006-10-31,21.5
2006-11-01,21.36
2006-11-02,21.375
2006-11-03,21.665
2006-11-06,21.86
2006-11-07,21.79
2006-11-08,21.905
2006-11-09,21.615
2006-11-10,21.6
2006-11-13,21.415
2006-11-14,21.6
2006-11-15,21.845
2006-11-16,22.005
2006-11-17,22.015
2006-11-20,22.095
2006-11-21,22.385
2006-11-22,22.465
2006-11-24,22.465
2006-11-27,22.485
2006-11-28,22.645
2006-11-29,22.94
2006-11-30,22.945
2006-12-01,22.985
2006-12-04,23.355
2006-12-05,23.28
2006-12-06,23.3
2006-12-07,23.205
2006-12-08,23.315
2006-12-11,23.575
2006-12-12,23.83
2006-12-13,23.73
2006-12-14,23.655
2006-12-15,24.045
2006-12-18,24.145
2006-12-19,23.98
2006-12-20,24.035
2006-12-21,23.815
2006-12-22,23.65
2006-12-26,23.865
2006-12-27,23.95
2006-12-28,23.95
2006-12-29,23.545
2007-01-03,23.955
2007-01-04,24.01
2007-01-05,23.98
2007-01-08,23.805
2007-01-09,24.04
2007-01-10,24.02
2007-01-11,24.24
2007-01-12,24.63
2007-01-16,24.625
2007-01-17,24.655
2007-01-18,24.72
2007-01-19,24.63
2007-01-22,24.81
2007-01-23,24.86
2007-01-24,25.04
2007-01-25,25.065
2007-01-26,25.505
2007-01-29,25.625
2007-01-30,25.595
2007-01-31,25.585
2007-02-01,25.65
2007-02-02,25.9
2007-02-05,26.065
2007-02-06,24.98
2007-02-07,25.285
2007-02-08,25.45
2007-02-09,25.295
2007-02-12,25.495
2007-02-13,25.52
2007-02-14,25.795
2007-02-15,26.04
2007-02-16,26.18
2007-02-20,25.51
2007-02-21,25.775
2007-02-22,25.7
2007-02-23,25.86
2007-02-26,25.59
2007-02-27,25.11
2007-02-28,25.23
2007-03-01,24.89
2007-03-02,25.14
2007-03-05,25.065
2007-03-06,25.51
2007-03-07,25.655
2007-03-08,24.86
2007-03-09,24.845
2007-03-12,24.775
2007-03-13,24.345
2007-03-14,24.3
2007-03-15,24.495
2007-03-16,24.385
2007-03-19,24.58
2007-03-20,24.65
2007-03-21,24.765
2007-03-22,24.905
2007-03-23,24.875
2007-03-26,24.8
2007-03-27,24.98
2007-03-28,25.13
2007-03-29,25.27
2007-03-30,25.355
2007-04-02,25.495
2007-04-03,25.67
2007-04-04,25.72
2007-04-05,25.72
2007-04-09,25.69
2007-04-10,25.755
2007-04-11,25.665
2007-04-12,25.925
2007-04-13,26.115
2007-04-16,26.38
2007-04-17,26.375
2007-04-18,26.225
2007-04-19,26.0
2007-04-20,25.975
2007-04-23,26.065
2007-04-24,24.525
2007-04-25,24.35
2007-04-26,24.48
2007-04-27,24.455
2007-04-30,24.505
2007-05-01,24.345
2007-05-02,24.64
2007-05-03,24.56
2007-05-04,24.4
2007-05-07,24.62
2007-05-08,24.49
2007-05-09,24.44
2007-05-10,24.405
2007-05-11,24.56
2007-05-14,24.55
2007-05-15,24.535
2007-05-16,24.655
2007-05-17,24.61
2007-05-18,24.91
2007-05-21,25.035
2007-05-22,25.325
2007-05-23,25.555
2007-05-24,25.4
2007-05-25,25.205
2007-05-29,25.135
2007-05-30,25.12
2007-05-31,25.08
2007-06-01,25.19
2007-06-04,25.425
2007-06-05,25.265
2007-06-06,25.07
2007-06-07,24.855
2007-06-08,24.84
2007-06-11,24.865
2007-06-12,24.55
2007-06-13,24.705
2007-06-14,24.635
2007-06-15,24.67
2007-06-18,24.68
2007-06-19,24.84
2007-06-20,24.7
2007-06-21,24.68
2007-06-22,24.605
2007-06-25,24.365
2007-06-26,24.89
2007-06-27,25.155
2007-06-28,25.03
2007-06-29,24.665
2007-07-02,24.73
2007-07-03,24.995
2007-07-05,24.965
2007-07-06,25.115
2007-07-09,25.025
2007-07-10,24.705
2007-07-11,24.875
2007-07-12,25.06
2007-07-13,24.95
2007-07-16,24.97
2007-07-17,24.995
2007-07-18,25.025
2007-07-19,25.29
2007-07-20,24.99
2007-07-23,24.985
2007-07-24,23.635
2007-07-25,23.335
2007-07-26,23.25
2007-07-27,23.245
2007-07-30,23.135
2007-07-31,22.945
2007-08-01,23.27
2007-08-02,23.26
2007-08-03,23.225
2007-08-06,23.25
2007-08-07,23.2
2007-08-08,23.635
2007-08-09,23.415
2007-08-10,23.085
2007-08-13,23.305
2007-08-14,23.245
2007-08-15,23.175
2007-08-16,23.61
2007-08-17,23.475
2007-08-20,23.425
2007-08-21,23.485
2007-08-22,23.455
2007-08-23,23.7
2007-08-24,23.98
2007-08-27,24.02
2007-08-28,23.675
2007-08-29,23.995
2007-08-30,23.845
2007-08-31,24.13
2007-09-04,23.84
2007-09-05,24.205
2007-09-06,24.225
2007-09-07,24.13
2007-09-10,23.92
2007-09-11,24.075
2007-09-12,24.175
2007-09-13,23.865
2007-09-14,23.92
2007-09-17,23.735
2007-09-18,24.075
2007-09-19,24.4
2007-09-20,24.44
2007-09-21,24.36
2007-09-24,24.25
2007-09-25,24.205
2007-09-26,24.375
2007-09-27,24.64
2007-09-28,24.63
2007-10-01,24.705
2007-10-02,24.755
2007-10-03,24.945
2007-10-04,25.225
2007-10-05,25.69
2007-10-08,25.73
2007-10-09,25.42
2007-10-10,25.285
2007-10-11,25.34
2007-10-12,24.855
2007-10-15,24.825
2007-10-16,24.675
2007-10-17,24.885
2007-10-18,24.765
2007-10-19,24.8
2007-10-22,24.865
2007-10-23,23.97
2007-10-24,24.37
2007-10-25,24.495
2007-10-26,24.75
2007-10-29,24.84
2007-10-30,24.775
2007-10-31,25.075
2007-11-01,24.91
2007-11-02,25.08
2007-11-05,25.0
2007-11-06,24.975
2007-11-07,25.03
2007-11-08,25.1
2007-11-09,24.945
2007-11-12,24.865
2007-11-13,24.99
2007-11-14,25.12
2007-11-15,25.155
2007-11-16,25.215
2007-11-19,25.14
2007-11-20,25.13
2007-11-21,24.51
2007-11-23,24.76
2007-11-26,24.49
2007-11-27,24.615
2007-11-28,25.315
2007-11-29,24.895
2007-11-30,24.705
2007-12-03,24.475
2007-12-04,23.78
2007-12-05,23.65
2007-12-06,23.92
2007-12-07,24.245
2007-12-10,24.585
2007-12-11,24.255
2007-12-12,24.415
2007-12-13,24.495
2007-12-14,24.505
2007-12-17,23.96
2007-12-18,23.505
2007-12-19,23.515
2007-12-20,23.6
2007-12-21,23.845
2007-12-24,23.845
2007-12-26,23.535
2007-12-27,23.235
2007-12-28,23.065
2007-12-31,22.995
2008-01-02,22.59
2008-01-03,22.85
2008-01-04,22.645
2008-01-07,22.67
2008-01-08,22.52
2008-01-09,22.95
2008-01-10,22.925
2008-01-11,22.955
2008-01-14,23.285
2008-01-15,23.275
2008-01-16,23.57
2008-01-17,23.56
2008-01-18,23.255
2008-01-22,23.065
2008-01-23,23.105
2008-01-24,23.165
2008-01-25,22.865
2008-01-28,23.07
2008-01-29,23.465
2008-01-30,23.47
2008-01-31,23.17
2008-02-01,23.205
2008-02-04,23.515
2008-02-05,23.555
2008-02-06,22.73
2008-02-07,22.69
2008-02-08,22.125
2008-02-11,22.33
2008-02-12,22.54
2008-02-13,21.985
2008-02-14,21.295
2008-02-15,21.425
2008-02-19,21.325
2008-02-20,21.595
2008-02-21,21.495
2008-02-22,21.535
2008-02-25,22.25
2008-02-26,22.225
2008-02-27,22.125
2008-02-28,22.055
2008-02-29,21.795
2008-03-03,21.715
2008-03-04,21.505
2008-03-05,21.5
2008-03-06,21.525
2008-03-07,21.715
2008-03-10,22.05
2008-03-11,21.995
2008-03-12,22.12
2008-03-13,22.04
2008-03-14,22.0
2008-03-17,22.13
2008-03-18,22.985
2008-03-19,23.135
2008-03-20,22.81
2008-03-24,23.23
2008-03-25,22.78
2008-03-26,22.845
2008-03-27,22.62
2008-03-28,22.415
2008-03-31,22.25
2008-04-01,22.925
2008-04-02,22.835
2008-04-03,22.85
2008-04-04,22.895
2008-04-07,23.135
2008-04-08,23.2
2008-04-09,23.375
2008-04-10,23.325
2008-04-11,23.2
2008-04-14,23.205
2008-04-15,23.575
2008-04-16,23.885
2008-04-17,23.825
2008-04-18,24.125
2008-04-21,23.98
2008-04-22,24.27
2008-04-23,27.455
2008-04-24,27.83
2008-04-25,28.055
2008-04-28,28.135
2008-04-29,27.95
2008-04-30,27.755
2008-05-01,28.185
2008-05-02,27.75
2008-05-05,27.99
2008-05-06,27.865
2008-05-07,27.775
2008-05-08,27.94
2008-05-09,27.9
2008-05-12,28.035
2008-05-13,27.9
2008-05-14,28.23
2008-05-15,28.235
2008-05-16,28.305
2008-05-19,28.29
2008-05-20,28.275
2008-05-21,28.19
2008-05-22,28.165
2008-05-23,27.81
2008-05-27,28.36
2008-05-28,28.47
2008-05-29,28.765
2008-05-30,28.79
2008-06-02,28.95
2008-06-03,28.945
2008-06-04,29.265
2008-06-05,30.03
2008-06-06,29.87
2008-06-09,29.815
2008-06-10,29.475
2008-06-11,29.56
2008-06-12,29.895
2008-06-13,30.12
2008-06-16,30.5
2008-06-17,30.655
2008-06-18,30.45
2008-06-19,31.0
2008-06-20,30.15
2008-06-23,30.685
2008-06-24,30.855
2008-06-25,31.475
2008-06-26,30.89
2008-06-27,31.145
2008-06-30,31.065
2008-07-01,30.995
2008-07-02,31.045
2008-07-03,30.58
2008-07-07,30.61
2008-07-08,31.155
2008-07-09,31.265
2008-07-10,32.03
2008-07-11,32.305
2008-07-14,32.33
2008-07-15,32.615
2008-07-16,32.86
2008-07-17,32.97
2008-07-18,33.065
2008-07-21,32.595
2008-07-22,32.59
2008-07-23,31.805
2008-07-24,31.5
2008-07-25,31.115
2008-07-28,30.59
2008-07-29,30.6
2008-07-30,31.01
2008-07-31,31.325
2008-08-01,31.185
2008-08-04,31.08
2008-08-05,31.975
2008-08-06,31.715
2008-08-07,28.92
2008-08-08,29.475
2008-08-11,29.595
2008-08-12,29.5
2008-08-13,29.405
2008-08-14,29.59
2008-08-15,29.44
2008-08-18,30.015
2008-08-19,29.945
2008-08-20,29.42
2008-08-21,29.75
2008-08-22,30.255
2008-08-25,29.405
2008-08-26,29.205
2008-08-27,29.505
2008-08-28,29.81
2008-08-29,29.54
2008-09-02,29.155
2008-09-03,29.065
2008-09-04,28.455
2008-09-05,28.21
2008-09-08,28.6
2008-09-09,28.625
2008-09-10,28.635
2008-09-11,28.865
2008-09-12,28.565
2008-09-15,28.28
2008-09-16,28.505
2008-09-17,28.28
2008-09-18,29.94
2008-09-19,30.015
2008-09-22,29.49
2008-09-23,29.805
2008-09-24,29.41
2008-09-25,29.58
2008-09-26,29.185
2008-09-29,28.45
2008-09-30,28.815
2008-10-01,29.045
2008-10-02,28.765
2008-10-03,28.54
2008-10-06,27.585
2008-10-07,27.18
2008-10-08,26.8
2008-10-09,25.745
2008-10-10,24.715
2008-10-13,27.78
2008-10-14,27.25
2008-10-15,24.46
2008-10-16,25.06
2008-10-17,25.18
2008-10-20,26.57
2008-10-21,27.025
2008-10-22,24.82
2008-10-23,25.535
2008-10-24,25.495
2008-10-27,24.485
2008-10-28,25.55
2008-10-29,25.885
2008-10-30,26.155
2008-10-31,26.36
2008-11-03,26.9
2008-11-04,27.025
2008-11-05,26.87
2008-11-06,26.445
2008-11-07,26.625
2008-11-10,26.715
2008-11-11,26.99
2008-11-12,26.805
2008-11-13,27.31
2008-11-14,26.56
2008-11-17,25.99
2008-11-18,25.105
2008-11-19,24.025
2008-11-20,22.505
2008-11-21,24.2
2008-11-24,24.8
2008-11-25,24.53
2008-11-26,25.13
2008-11-28,24.885
2008-12-01,23.85
2008-12-02,23.92
2008-12-03,24.15
2008-12-04,23.35
2008-12-05,24.23
2008-12-08,24.485
2008-12-09,23.58
2008-12-10,23.205
2008-12-11,23.28
2008-12-12,24.315
2008-12-15,25.105
2008-12-16,25.93
2008-12-17,26.235
2008-12-18,26.385
2008-12-19,26.565
2008-12-22,26.905
2008-12-23,27.175
2008-12-24,27.14
2008-12-26,26.975
2008-12-29,26.625
2008-12-30,27.375
2008-12-31,27.47
2009-01-02,27.95
2009-01-05,27.48
2009-01-06,27.365
2009-01-07,27.5
2009-01-08,27.735
2009-01-09,27.82
2009-01-12,27.43
2009-01-13,27.54
2009-01-14,27.75
2009-01-15,28.325
2009-01-16,28.72
2009-01-20,27.635
2009-01-21,28.41
2009-01-22,28.39
2009-01-23,28.44
2009-01-26,28.59
2009-01-27,28.945
2009-01-28,28.73
2009-01-29,28.75
2009-01-30,28.665
2009-02-02,28.66
2009-02-03,28.65
2009-02-04,30.02
2009-02-05,30.13
2009-02-06,30.525
2009-02-09,30.93
2009-02-10,30.555
2009-02-11,30.84
2009-02-12,31.04
2009-02-13,31.495
2009-02-17,30.905
2009-02-18,30.76
2009-02-19,30.78
2009-02-20,30.55
2009-02-23,29.09
2009-02-24,30.04
2009-02-25,29.86
2009-02-26,28.92
2009-02-27,27.84
2009-03-02,26.7
2009-03-03,26.65
2009-03-04,27.295
2009-03-05,26.72
2009-03-06,27.4
2009-03-09,27.27
2009-03-10,27.83
2009-03-11,28.155
2009-03-12,29.58
2009-03-13,30.665
2009-03-16,30.31
2009-03-17,30.765
2009-03-18,30.86
2009-03-19,30.675
2009-03-20,30.495
2009-03-23,30.92
2009-03-24,30.605
2009-03-25,30.81
2009-03-26,31.525
2009-03-27,31.215
2009-03-30,30.55
2009-03-31,30.345
2009-04-01,30.035
2009-04-02,29.755
2009-04-03,29.06
2009-04-06,29.0
2009-04-07,28.825
2009-04-08,29.17
2009-04-09,29.35
2009-04-13,29.755
2009-04-14,29.48
2009-04-15,29.35
2009-04-16,29.525
2009-04-17,29.875
2009-04-20,29.505
2009-04-21,29.205
2009-04-22,28.655
2009-04-23,28.255
2009-04-24,28.525
2009-04-27,28.91
2009-04-28,32.3
2009-04-29,32.025
2009-04-30,31.685
2009-05-01,32.035
2009-05-04,31.915
2009-05-05,31.88
2009-05-06,31.42
2009-05-07,31.715
2009-05-08,31.59
2009-05-11,31.42
2009-05-12,31.45
2009-05-13,31.25
2009-05-14,31.2
2009-05-15,31.39
2009-05-18,31.37
2009-05-19,31.975
2009-05-20,31.305
2009-05-21,31.085
2009-05-22,31.4
2009-05-26,31.95
2009-05-27,31.64
2009-05-28,31.69
2009-05-29,31.91
2009-06-01,32.72
2009-06-02,33.2
2009-06-03,33.205
2009-06-04,32.34
2009-06-05,32.275
2009-06-08,31.405
2009-06-09,32.19
2009-06-10,31.93
2009-06-11,32.67
2009-06-12,33.075
2009-06-15,32.075
2009-06-16,32.015
2009-06-17,32.96
2009-06-18,33.61
2009-06-19,33.66
2009-06-22,32.845
2009-06-23,32.59
2009-06-24,33.04
2009-06-25,33.715
2009-06-26,33.64
2009-06-29,33.575
2009-06-30,33.98
2009-07-01,33.52
2009-07-02,33.1
2009-07-06,33.045
2009-07-07,32.635
2009-07-08,33.035
2009-07-09,32.685
2009-07-10,32.945
2009-07-13,33.005
2009-07-14,33.14
2009-07-15,33.435
2009-07-16,33.81
2009-07-17,33.955
2009-07-20,34.045
2009-07-21,32.975
2009-07-22,32.695
2009-07-23,33.125
2009-07-24,33.615
2009-07-27,33.18
2009-07-28,32.935
2009-07-29,33.475
2009-07-30,32.675
2009-07-31,32.74
2009-08-03,32.475
2009-08-04,32.46
2009-08-05,31.94
2009-08-06,31.735
2009-08-07,31.91
2009-08-10,32.095
2009-08-11,32.685
2009-08-12,32.48
2009-08-13,32.3
2009-08-14,32.115
2009-08-17,31.775
2009-08-18,31.425
2009-08-19,31.57
2009-08-20,31.815
2009-08-21,32.005
2009-08-24,31.81
2009-08-25,31.825
2009-08-26,31.535
2009-08-27,31.75
2009-08-28,31.085
2009-08-31,30.95
2009-09-01,30.88
2009-09-02,31.28
2009-09-03,31.385
2009-09-04,31.805
2009-09-08,32.06
2009-09-09,32.44
2009-09-10,32.73
2009-09-11,32.97
2009-09-14,33.495
2009-09-15,32.91
2009-09-16,33.725
2009-09-17,33.685
2009-09-18,33.665
2009-09-21,33.8
2009-09-22,33.825
2009-09-23,33.68
2009-09-24,33.87
2009-09-25,34.535
2009-09-28,34.91
2009-09-29,34.985
2009-09-30,34.95
2009-10-01,34.475
2009-10-02,34.225
2009-10-05,34.505
2009-10-06,34.515
2009-10-07,34.53
2009-10-08,34.94
2009-10-09,35.665
2009-10-12,34.965
2009-10-13,34.79
2009-10-14,34.82
2009-10-15,35.075
2009-10-16,35.68
2009-10-19,36.07
2009-10-20,35.815
2009-10-21,35.57
2009-10-22,37.935
2009-10-23,37.99
2009-10-26,38.2
2009-10-27,38.08
2009-10-28,38.475
2009-10-29,38.89
2009-10-30,38.525
2009-11-02,38.885
2009-11-03,38.755
2009-11-04,39.125
2009-11-05,39.815
2009-11-06,39.995
2009-11-09,40.19
2009-11-10,40.3
2009-11-11,40.36
2009-11-12,40.19
2009-11-13,40.345
2009-11-16,40.58
2009-11-17,40.585
2009-11-18,40.92
2009-11-19,40.56
2009-11-20,40.605
2009-11-23,40.585
2009-11-24,41.105
2009-11-25,41.395
2009-11-27,41.26
2009-11-30,41.105
2009-12-01,41.165
2009-12-02,41.25
2009-12-03,41.27
2009-12-04,41.67
2009-12-07,41.45
2009-12-08,41.505
2009-12-09,41.545
2009-12-10,42.92
2009-12-11,42.975
2009-12-14,42.97
2009-12-15,42.9
2009-12-16,42.6
2009-12-17,42.445
2009-12-18,42.585
2009-12-21,43.18
2009-12-22,43.615
2009-12-23,43.765
2009-12-24,43.805
2009-12-28,43.925
2009-12-29,43.92
2009-12-30,43.78
2009-12-31,43.37
2010-01-04,43.69
2010-01-05,44.025
2010-01-06,44.505
2010-01-07,44.94
2010-01-08,44.73
2010-01-11,45.675
2010-01-12,45.785
2010-01-13,46.035
2010-01-14,46.18
2010-01-15,45.825
2010-01-19,46.49
2010-01-20,47.015
2010-01-21,47.005
2010-01-22,45.5
2010-01-25,45.915
2010-01-26,45.805
2010-01-27,45.765
2010-01-28,45.26
2010-01-29,44.89
2010-02-01,45.11
2010-02-02,46.475
2010-02-03,46.2
2010-02-04,44.775
2010-02-05,44.81
2010-02-08,43.665
2010-02-09,43.32
2010-02-10,42.94
2010-02-11,43.2
2010-02-12,43.6
2010-02-16,44.045
2010-02-17,44.9
2010-02-18,45.3
2010-02-19,45.2
2010-02-22,45.65
2010-02-23,45.07
2010-02-24,45.51
2010-02-25,45.585
2010-02-26,45.895
2010-03-01,46.79
2010-03-02,47.55
2010-03-03,47.715
2010-03-04,47.9
2010-03-05,48.455
2010-03-08,48.35
2010-03-09,48.16
2010-03-10,48.54
2010-03-11,48.555
2010-03-12,48.875
2010-03-15,49.4
2010-03-16,49.365
2010-03-17,49.21
2010-03-18,49.625
2010-03-19,49.92
2010-03-22,50.645
2010-03-23,50.23
2010-03-24,50.0
2010-03-25,49.51
2010-03-26,49.145
2010-03-29,49.72
2010-03-30,50.055
2010-03-31,49.44
2010-04-01,50.135
2010-04-05,51.565
2010-04-06,51.185
2010-04-07,51.505
2010-04-08,51.41
2010-04-09,51.98
2010-04-12,51.2
2010-04-13,52.25
2010-04-14,52.165
2010-04-15,52.69
2010-04-16,52.14
2010-04-19,51.79
2010-04-20,52.325
2010-04-21,50.175
2010-04-22,50.775
2010-04-23,51.37
2010-04-26,51.055
2010-04-27,51.41
2010-04-28,52.27
2010-04-29,52.725
2010-04-30,51.535
2010-05-03,52.885
2010-05-04,51.745
2010-05-05,51.525
2010-05-06,50.01
2010-05-07,48.855
2010-05-10,50.39
2010-05-11,49.835
2010-05-12,50.69
2010-05-13,50.95
2010-05-14,50.255
2010-05-17,50.79
2010-05-18,50.53
2010-05-19,49.855
2010-05-20,48.135
2010-05-21,49.205
2010-05-24,50.135
2010-05-25,49.54
2010-05-26,50.905
2010-05-27,51.86
2010-05-28,50.57
2010-06-01,52.15
2010-06-02,53.17
2010-06-03,53.73
2010-06-04,52.38
2010-06-07,51.44
2010-06-08,52.31
2010-06-09,52.51
2010-06-10,52.91
2010-06-11,53.78
2010-06-14,53.82
2010-06-15,54.51
2010-06-16,55.09
2010-06-17,54.91
2010-06-18,55.17
2010-06-21,55.1
2010-06-22,54.82
2010-06-23,52.1
2010-06-24,52.99
2010-06-25,53.21
2010-06-28,54.13
2010-06-29,53.87
2010-06-30,56.09
2010-07-01,55.61
2010-07-02,55.41
2010-07-06,56.6
2010-07-07,55.24
2010-07-08,55.62
2010-07-09,56.1
2010-07-12,55.97
2010-07-13,55.68
2010-07-14,55.95
2010-07-15,55.98
2010-07-16,54.66
2010-07-19,55.18
2010-07-20,55.63
2010-07-21,53.54
2010-07-22,57.43
2010-07-23,58.21
2010-07-26,58.63
2010-07-27,58.72
2010-07-28,57.86
2010-07-29,57.28
2010-07-30,57.8
2010-08-02,57.59
2010-08-03,57.43
2010-08-04,57.49
2010-08-05,57.56
2010-08-06,58.24
2010-08-09,58.33
2010-08-10,58.0
2010-08-11,57.81
2010-08-12,57.38
2010-08-13,57.31
2010-08-16,57.24
2010-08-17,57.65
2010-08-18,57.77
2010-08-19,57.64
2010-08-20,58.2
2010-08-23,58.25
2010-08-24,57.23
2010-08-25,56.93
2010-08-26,57.49
2010-08-27,58.13
2010-08-30,57.85
2010-08-31,57.58
2010-09-01,58.9
2010-09-02,60.42
2010-09-03,60.91
2010-09-07,60.98
2010-09-08,59.99
2010-09-09,59.78
2010-09-10,59.06
2010-09-13,57.37
2010-09-14,57.0
2010-09-15,57.63
2010-09-16,58.31
2010-09-17,55.84
2010-09-20,54.54
2010-09-21,59.49
2010-09-22,59.8
2010-09-23,67.45
2010-09-24,67.88
2010-09-27,68.18
2010-09-28,68.01
2010-09-29,67.94
2010-09-30,67.16
2010-10-01,67.04
2010-10-04,66.47
2010-10-05,67.66
2010-10-06,67.74
2010-10-07,67.57
2010-10-08,68.07
2010-10-11,67.5
2010-10-12,66.85
2010-10-13,67.1
2010-10-14,67.2
2010-10-15,67.47
2010-10-18,66.9
2010-10-19,65.34
2010-10-20,66.13
2010-10-21,65.98
2010-10-22,66.21
2010-10-25,64.84
2010-10-26,64.49
2010-10-27,63.91
2010-10-28,63.98
2010-10-29,64.05
2010-11-01,64.18
2010-11-02,64.31
2010-11-03,64.26
2010-11-04,65.4
2010-11-05,65.57
2010-11-08,66.13
2010-11-09,66.36
2010-11-10,66.11
2010-11-11,65.69
2010-11-12,64.95
2010-11-15,65.86
2010-11-16,64.4
2010-11-17,65.06
2010-11-18,66.0
2010-11-19,66.94
2010-11-22,66.95
2010-11-23,65.4
2010-11-24,66.17
2010-11-26,65.91
2010-11-29,66.63
2010-11-30,66.4
2010-12-01,67.55
2010-12-02,67.5
2010-12-03,68.18
2010-12-06,68.5
2010-12-07,68.76
2010-12-08,69.42
2010-12-09,70.16
2010-12-10,71.34
2010-12-13,75.83
2010-12-14,78.05
2010-12-15,81.33
2010-12-16,81.46
2010-12-17,84.96
2010-12-20,84.3
2010-12-21,82.93
2010-12-22,81.97
2010-12-23,81.48
2010-12-27,81.0
2010-12-28,80.85
2010-12-29,81.83
2010-12-30,80.9
2010-12-31,80.84
2011-01-03,79.14
2011-01-04,80.24
2011-01-05,78.79
2011-01-06,78.84
2011-01-07,79.05
2011-01-10,78.66
2011-01-11,79.93
2011-01-12,79.4
2011-01-13,81.79
2011-01-14,81.6
2011-01-18,83.45
2011-01-19,83.78
2011-01-20,83.41
2011-01-21,82.8
2011-01-24,83.32
2011-01-25,83.46
2011-01-26,84.9
2011-01-27,84.98
2011-01-28,83.1
2011-01-31,84.32
2011-02-01,85.87
2011-02-02,86.2
2011-02-03,85.63
2011-02-04,85.92
2011-02-07,86.65
2011-02-08,87.96
2011-02-09,87.9
2011-02-10,88.49
2011-02-11,88.86
2011-02-14,88.97
2011-02-15,88.56
2011-02-16,88.25
2011-02-17,89.1
2011-02-18,89.45
2011-02-22,87.24
2011-02-23,85.09
2011-02-24,84.61
2011-02-25,86.34
2011-02-28,85.2
2011-03-01,84.92
2011-03-02,88.61
2011-03-03,90.8
2011-03-04,89.44
2011-03-07,89.85
2011-03-08,90.25
2011-03-09,91.48
2011-03-10,88.33
2011-03-11,89.27
2011-03-14,88.56
2011-03-15,86.29
2011-03-16,86.29
2011-03-17,87.2
2011-03-18,86.26
2011-03-21,87.67
2011-03-22,86.6
2011-03-23,85.15
2011-03-24,85.46
2011-03-25,88.5
2011-03-28,88.29
2011-03-29,88.0
2011-03-30,88.02
2011-03-31,87.36
2011-04-01,85.95
2011-04-04,85.27
2011-04-05,82.13
2011-04-06,82.26
2011-04-07,82.82
2011-04-08,83.06
2011-04-11,83.32
2011-04-12,83.28
2011-04-13,84.43
2011-04-14,83.89
2011-04-15,83.92
2011-04-18,81.6
2011-04-19,81.73
2011-04-20,84.32
2011-04-21,83.34
2011-04-25,83.8
2011-04-26,83.39
2011-04-27,83.96
2011-04-28,84.25
2011-04-29,86.3
2011-05-02,86.16
2011-05-03,85.45
2011-05-04,85.45
2011-05-05,86.53
2011-05-06,88.24
2011-05-09,88.1
2011-05-10,88.61
2011-05-11,88.09
2011-05-12,89.23
2011-05-13,88.23
2011-05-16,89.27
2011-05-17,88.44
2011-05-18,89.53
2011-05-19,89.88
2011-05-20,88.44
2011-05-23,88.23
2011-05-24,87.89
2011-05-25,88.14
2011-05-26,87.57
2011-05-27,88.09
2011-05-31,88.71
2011-06-01,87.58
2011-06-02,86.79
2011-06-03,86.45
2011-06-06,86.0
2011-06-07,86.49
2011-06-08,85.99
2011-06-09,86.44
2011-06-10,84.21
2011-06-13,83.57
2011-06-14,85.57
2011-06-15,83.97
2011-06-16,83.18
2011-06-17,84.02
2011-06-20,83.89
2011-06-21,84.26
2011-06-22,84.69
2011-06-23,85.01
2011-06-24,84.75
2011-06-27,85.48
2011-06-28,85.44
2011-06-29,85.55
2011-06-30,87.18
2011-07-01,88.07
2011-07-05,89.2
2011-07-06,90.84
2011-07-07,91.07
2011-07-08,90.87
2011-07-11,90.09
2011-07-12,89.88
2011-07-13,90.36
2011-07-14,89.97
2011-07-15,88.91
2011-07-18,89.69
2011-07-19,89.68
2011-07-20,87.67
2011-07-21,82.51
2011-07-22,77.91
2011-07-25,74.42
2011-07-26,73.95
2011-07-27,71.65
2011-07-28,72.55
2011-07-29,71.41
2011-08-01,70.24
2011-08-02,70.21
2011-08-03,72.0
2011-08-04,68.81
2011-08-05,68.44
2011-08-08,63.97
2011-08-09,65.97
2011-08-10,62.73
2011-08-11,66.2
2011-08-12,69.14
2011-08-15,69.4
2011-08-16,68.56
2011-08-17,68.89
2011-08-18,67.22
2011-08-19,67.61
2011-08-22,67.98
2011-08-23,70.66
2011-08-24,72.25
2011-08-25,70.81
2011-08-26,73.63
2011-08-29,74.59
2011-08-30,74.6
2011-08-31,75.26
2011-09-01,74.51
2011-09-02,72.71
2011-09-06,73.15
2011-09-07,74.74
2011-09-08,73.1
2011-09-09,70.46
2011-09-12,71.19
2011-09-13,73.52
2011-09-14,74.68
2011-09-15,76.26
2011-09-16,77.04
2011-09-19,77.3
2011-09-20,78.54
2011-09-21,76.6
2011-09-22,74.78
2011-09-23,74.47
2011-09-26,76.66
2011-09-27,77.85
2011-09-28,75.95
2011-09-29,70.57
2011-09-30,71.28
2011-10-03,68.54
2011-10-04,69.97
2011-10-05,69.07
2011-10-06,70.35
2011-10-07,71.96
2011-10-10,72.05
2011-10-11,71.57
2011-10-12,70.94
2011-10-13,71.24
2011-10-14,71.98
2011-10-17,68.43
2011-10-18,70.05
2011-10-19,67.78
2011-10-20,72.04
2011-10-21,73.4
2011-10-24,75.38
2011-10-25,72.82
2011-10-26,73.47
2011-10-27,75.45
2011-10-28,76.0
2011-10-31,75.52
2011-11-01,73.52
2011-11-02,74.37
2011-11-03,76.79
2011-11-04,76.3
2011-11-07,76.21
2011-11-08,76.28
2011-11-09,71.76
2011-11-10,68.84
2011-11-11,70.54
2011-11-14,70.26
2011-11-15,68.81
2011-11-16,65.32
2011-11-17,63.59
2011-11-18,62.97
2011-11-21,64.21
2011-11-22,63.04
2011-11-23,63.01
2011-11-25,62.72
2011-11-28,63.83
2011-11-29,63.58
2011-11-30,65.99
2011-12-01,66.79
2011-12-02,65.0
2011-12-05,65.13
2011-12-06,65.22
2011-12-07,64.84
2011-12-08,63.82
2011-12-09,64.6
2011-12-12,67.84
2011-12-13,67.12
2011-12-14,65.87
2011-12-15,66.19
2011-12-16,67.47
2011-12-19,67.6
2011-12-20,70.41
2011-12-21,70.02
2011-12-22,70.38
2011-12-23,70.96
2011-12-27,70.76
2011-12-28,70.04
2011-12-29,71.42
2011-12-30,70.78
2012-01-03,71.98
2012-01-04,70.83
2012-01-05,71.91
2012-01-06,72.8
2012-01-09,72.64
2012-01-10,74.35
2012-01-11,74.31
2012-01-12,74.15
2012-01-13,73.16
2012-01-17,72.32
2012-01-18,77.62
2012-01-19,77.9
2012-01-20,77.04
2012-01-23,79.3
2012-01-24,78.62
2012-01-25,79.02
2012-01-26,78.29
2012-01-27,79.25
2012-01-30,78.13
2012-01-31,82.7
2012-02-01,81.79
2012-02-02,80.65
2012-02-03,71.59
2012-02-06,72.47
2012-02-07,73.65
2012-02-08,73.99
2012-02-09,73.33
2012-02-10,73.79
2012-02-13,74.15
2012-02-14,73.93
2012-02-15,75.81
2012-02-16,76.22
2012-02-17,75.71
2012-02-21,74.62
2012-02-22,74.35
2012-02-23,73.68
2012-02-24,74.24
2012-02-27,73.65
2012-02-28,73.39
2012-02-29,73.11
2012-03-01,72.41
2012-03-02,71.26
2012-03-05,70.84
2012-03-06,68.89
2012-03-07,68.38
2012-03-08,68.51
2012-03-09,68.77
2012-03-12,69.21
2012-03-13,69.32
2012-03-14,69.71
2012-03-15,69.99
2012-03-16,71.28
2012-03-19,70.47
2012-03-20,71.17
2012-03-21,71.18
2012-03-22,71.5
2012-03-23,71.3
2012-03-26,75.57
2012-03-27,74.07
2012-03-28,73.02
2012-03-29,72.95
2012-03-30,72.75
2012-04-02,73.56
2012-04-03,73.18
2012-04-04,71.93
2012-04-05,72.02
2012-04-09,71.21
2012-04-10,70.65
2012-04-11,71.63
2012-04-12,72.55
2012-04-13,68.58
2012-04-16,68.52
2012-04-17,71.33
2012-04-18,72.64
2012-04-19,72.95
2012-04-20,73.31
2012-04-23,73.39
2012-04-24,73.38
2012-04-25,81.79
2012-04-26,81.59
2012-04-27,82.73
2012-04-30,82.95
2012-05-01,84.76
2012-05-02,86.2
2012-05-03,86.1
2012-05-04,85.11
2012-05-07,85.5
2012-05-08,85.56
2012-05-09,85.47
2012-05-10,84.03
2012-05-11,84.7
2012-05-14,84.1
2012-05-15,83.4
2012-05-16,83.16
2012-05-17,82.71
2012-05-18,81.84
2012-05-21,83.92
2012-05-22,83.37
2012-05-23,85.03
2012-05-24,87.24
2012-05-25,87.17
2012-05-29,87.47
2012-05-30,85.9
2012-05-31,85.41
2012-06-01,84.6
2012-06-04,84.22
2012-06-05,87.16
2012-06-06,86.2
2012-06-07,87.31
2012-06-08,88.21
2012-06-11,88.0
2012-06-12,90.86
2012-06-13,90.46
2012-06-14,96.87
2012-06-15,97.56
2012-06-18,100.6
2012-06-19,102.53
2012-06-20,101.87
2012-06-21,99.33
2012-06-22,101.71
2012-06-25,102.22
2012-06-26,101.51
2012-06-27,101.74
2012-06-28,101.16
2012-06-29,103.21
2012-07-02,104.23
2012-07-03,103.86
2012-07-05,104.37
2012-07-06,102.07
2012-07-09,103.35
2012-07-10,101.41
2012-07-11,101.65
2012-07-12,100.86
2012-07-13,101.46
2012-07-16,101.05
2012-07-17,103.21
2012-07-18,102.08
2012-07-19,102.86
2012-07-20,101.1
2012-07-23,100.49
2012-07-24,98.66
2012-07-25,105.04
2012-07-26,102.6
2012-07-27,105.18
2012-07-30,103.41
2012-07-31,101.25
2012-08-01,100.05
2012-08-02,99.23
2012-08-03,101.27
2012-08-06,100.4
2012-08-07,101.08
2012-08-08,100.21
2012-08-09,98.28
2012-08-10,98.14
2012-08-13,97.78
2012-08-14,97.42
2012-08-15,98.18
2012-08-16,97.68
2012-08-17,100.29
2012-08-20,99.28
2012-08-21,99.65
2012-08-22,99.66
2012-08-23,99.25
2012-08-24,99.14
2012-08-27,100.19
2012-08-28,100.94
2012-08-29,101.8
2012-08-30,102.0
2012-08-31,102.21
2012-09-04,104.27
2012-09-05,103.93
2012-09-06,106.7
2012-09-07,108.66
2012-09-10,107.36
2012-09-11,106.23
2012-09-12,105.83
2012-09-13,105.37
2012-09-14,104.99
2012-09-17,104.09
2012-09-18,104.14
2012-09-19,104.0
2012-09-20,103.59
2012-09-21,105.83
2012-09-24,104.39
2012-09-25,104.41
2012-09-26,102.9
2012-09-27,105.53
2012-09-28,107.45
2012-10-01,107.71
2012-10-02,108.05
2012-10-03,109.28
2012-10-04,109.77
2012-10-05,108.39
2012-10-08,107.46
2012-10-09,84.63
2012-10-10,87.82
2012-10-11,86.17
2012-10-12,87.13
2012-10-15,87.27
2012-10-16,88.7
2012-10-17,87.72
2012-10-18,86.73
2012-10-19,86.23
2012-10-22,86.29
2012-10-23,84.86
2012-10-24,86.11
2012-10-25,86.66
2012-10-26,86.81
2012-10-31,86.56
2012-11-01,87.32
2012-11-02,87.49
2012-11-05,88.99
2012-11-06,89.99
2012-11-07,89.23
2012-11-08,86.67
2012-11-09,87.65
2012-11-12,86.67
2012-11-13,87.73
2012-11-14,85.55
2012-11-15,86.31
2012-11-16,85.79
2012-11-19,85.05
2012-11-20,85.06
2012-11-21,83.67
2012-11-23,83.7
2012-11-26,84.5
2012-11-27,84.02
2012-11-28,83.95
2012-11-29,83.94
2012-11-30,86.91
2012-12-03,86.51
2012-12-04,91.36
2012-12-05,90.51
2012-12-06,91.13
2012-12-07,91.38
2012-12-10,92.08
2012-12-11,91.68
2012-12-12,90.49
2012-12-13,90.45
2012-12-14,90.93
2012-12-17,91.89
2012-12-18,91.96
2012-12-19,92.0
2012-12-20,92.23
2012-12-21,92.11
2012-12-24,91.69
2012-12-26,90.37
2012-12-27,91.04
2012-12-28,89.32
2012-12-31,90.03
2013-01-02,92.07
2013-01-03,92.41
2013-01-04,92.65
2013-01-07,94.45
2013-01-08,92.51
2013-01-09,93.23
2013-01-10,91.99
2013-01-11,91.84
2013-01-14,91.28
2013-01-15,90.16
2013-01-16,91.32
2013-01-17,91.51
2013-01-18,94.5
2013-01-22,91.97
2013-01-23,90.62
2013-01-24,91.65
2013-01-25,92.0
2013-01-28,90.57
2013-01-29,90.395
2013-01-30,90.09
2013-01-31,89.97
2013-02-01,93.46
2013-02-04,93.12
2013-02-05,86.55
2013-02-06,86.55
2013-02-07,85.78
2013-02-08,86.87
2013-02-11,87.03
2013-02-12,87.38
2013-02-13,87.05
2013-02-14,86.33
2013-02-15,86.322
2013-02-19,86.65
2013-02-20,86.45
2013-02-21,85.65
2013-02-22,86.34
2013-02-25,86.6
2013-02-26,86.83
2013-02-27,86.44
2013-02-28,85.95
2013-03-01,85.85
2013-03-04,86.46
2013-03-05,87.56
2013-03-06,88.81
2013-03-07,88.94
2013-03-08,90.05
2013-03-11,88.08
2013-03-12,87.96
2013-03-13,87.36
2013-03-14,85.39
2013-03-15,82.14
2013-03-18,81.16
2013-03-19,78.69
2013-03-20,80.95
2013-03-21,81.94
2013-03-22,82.1
2013-03-25,81.69
2013-03-26,82.0
2013-03-27,81.67
2013-03-28,82.2
2013-04-01,82.28
2013-04-02,83.12
2013-04-03,83.38
2013-04-04,82.45
2013-04-05,81.39
2013-04-08,81.49
2013-04-09,83.59
2013-04-10,83.04
2013-04-11,83.87
2013-04-12,84.8
2013-04-15,83.68
2013-04-16,84.95
2013-04-17,83.94
2013-04-18,82.8
2013-04-19,83.1
2013-04-22,83.62
2013-04-23,82.94
2013-04-24,64.57
2013-04-25,65.41
2013-04-26,64.15
2013-04-29,64.38
2013-04-30,63.82
2013-05-01,62.46
2013-05-02,64.23
2013-05-03,63.22
2013-05-06,63.66
2013-05-07,63.87
2013-05-08,65.44
2013-05-09,66.62
2013-05-10,67.88
2013-05-13,67.34
2013-05-14,71.54
2013-05-15,71.13
2013-05-16,68.55
2013-05-17,67.07
2013-05-20,66.35
2013-05-21,65.9
2013-05-22,64.32
2013-05-23,65.7
2013-05-24,65.54
2013-05-28,65.19
2013-05-29,64.28
2013-05-30,64.93
2013-05-31,66.46
2013-06-03,66.15
2013-06-04,65.37
2013-06-05,66.6
2013-06-06,66.38
2013-06-07,67.22
2013-06-10,69.38
2013-06-11,68.29
2013-06-12,68.32
2013-06-13,71.94
2013-06-14,70.0
2013-06-17,70.43
2013-06-18,70.1
2013-06-19,68.85
2013-06-20,66.79
2013-06-21,66.45
2013-06-24,66.42
2013-06-25,67.21
2013-06-26,66.24
2013-06-27,66.84
2013-06-28,67.31
2013-07-01,67.04
2013-07-02,66.06
2013-07-03,65.25
2013-07-05,66.58
2013-07-08,66.78
2013-07-09,65.74
2013-07-10,65.5
2013-07-11,65.82
2013-07-12,67.85
2013-07-15,67.45
2013-07-16,66.35
2013-07-17,66.49
2013-07-18,67.03
2013-07-19,68.25
2013-07-22,69.59
2013-07-23,70.84
2013-07-24,70.22
2013-07-25,70.68
2013-07-26,71.82
2013-07-29,71.03
2013-07-30,70.53
2013-07-31,71.38
2013-08-01,73.4
2013-08-02,72.57
2013-08-05,72.79
2013-08-06,72.21
2013-08-07,72.05
2013-08-08,72.85
2013-08-09,72.71
