date,close_price
1998-01-02,4.27834
1998-01-05,4.48203
1998-01-06,4.31824
1998-01-07,4.21325
1998-01-08,4.08201
1998-01-09,3.67466
1998-01-12,3.76705
1998-01-13,3.88464
1998-01-14,3.89828
1998-01-15,4.01587
1998-01-16,4.05576
1998-01-20,4.33084
1998-01-21,4.35709
1998-01-22,4.33714
1998-01-23,4.42953
1998-01-26,4.35079
1998-01-27,4.48203
1998-01-28,4.63321
1998-01-29,4.69831
1998-01-30,4.63321
1998-02-02,4.54082
1998-02-03,4.59961
1998-02-04,4.68571
1998-02-05,4.71196
1998-02-06,4.797
1998-02-09,4.89569
1998-02-10,4.92194
1998-02-11,4.96708
1998-02-12,5.00068
1998-02-13,4.90829
1998-02-17,4.78335
1998-02-18,4.78335
1998-02-19,4.84319
1998-02-20,4.82954
1998-02-23,4.96079
1998-02-24,4.92194
1998-02-25,4.89779
1998-02-26,4.62154
1998-02-27,4.60158
1998-03-02,4.59529
1998-03-03,4.56272
1998-03-04,4.53017
1998-03-05,4.49655
1998-03-06,4.54277
1998-03-09,4.56903
1998-03-10,4.68772
1998-03-11,4.85156
1998-03-12,4.80851
1998-03-13,4.90409
1998-03-16,4.93035
1998-03-17,4.85787
1998-03-18,4.85787
1998-03-19,4.72658
1998-03-20,4.6352
1998-03-23,4.62154
1998-03-24,4.66146
1998-03-25,4.75284
1998-03-26,4.81901
1998-03-27,4.62154
1998-03-30,4.40517
1998-03-31,4.59529
1998-04-01,4.45138
1998-04-02,4.45138
1998-04-03,4.39151
1998-04-06,4.29383
1998-04-07,4.28648
1998-04-08,4.26022
1998-04-09,4.29383
1998-04-13,4.85787
1998-04-14,5.2654
1998-04-15,5.72441
1998-04-16,5.65194
1998-04-17,5.75698
1998-04-20,5.76433
1998-04-21,5.75698
1998-04-22,5.50804
1998-04-23,5.51434
1998-04-24,5.5406
1998-04-27,5.5469
1998-04-28,5.59312
1998-04-29,5.73072
1998-04-30,5.8431
1998-05-01,5.86936
1998-05-04,5.58052
1998-05-05,5.63933
1998-05-06,5.61938
1998-05-07,5.51434
1998-05-08,5.58681
1998-05-11,5.42297
1998-05-12,5.40931
1998-05-13,5.45552
1998-05-14,5.51434
1998-05-15,5.40931
1998-05-18,5.27802
1998-05-19,5.21289
1998-05-20,5.25176
1998-05-21,5.2654
1998-05-22,5.25176
1998-05-26,5.14671
1998-05-27,5.15302
1998-05-28,5.22549
1998-05-29,5.19923
1998-06-01,5.12046
1998-06-02,5.12046
1998-06-03,5.03538
1998-06-04,5.10785
1998-06-05,5.17297
1998-06-08,5.2654
1998-06-09,5.27171
1998-06-10,5.19923
1998-06-11,5.12046
1998-06-12,5.0942
1998-06-15,4.92404
1998-06-16,4.9503
1998-06-17,5.01542
1998-06-18,4.89044
1998-06-19,4.87153
1998-06-22,4.83161
1998-06-23,4.79275
1998-06-24,5.05534
1998-06-25,5.04799
1998-06-26,4.97656
1998-06-29,4.93665
1998-06-30,4.87783
1998-07-01,5.05534
1998-07-02,5.04168
1998-07-06,4.98916
1998-07-07,4.99547
1998-07-08,5.24545
1998-07-09,5.35679
1998-07-10,4.60894
1998-07-13,4.70032
1998-07-14,4.70032
1998-07-15,4.72658
1998-07-16,4.72658
1998-07-17,4.72658
1998-07-20,4.74653
1998-07-21,4.73288
1998-07-22,4.6478
1998-07-23,4.47029
1998-07-24,4.5102
1998-07-27,4.41148
1998-07-28,4.49025
1998-07-29,4.56903
1998-07-30,4.67406
1998-07-31,4.59529
1998-08-03,4.3327
1998-08-04,4.18145
1998-08-05,4.17514
1998-08-06,4.25392
1998-08-07,4.31274
1998-08-10,4.25392
1998-08-11,4.1951
1998-08-12,4.24131
1998-08-13,4.22136
1998-08-14,4.04385
1998-08-17,4.07011
1998-08-18,4.1951
1998-08-19,4.1951
1998-08-20,3.99764
1998-08-21,3.80752
1998-08-24,3.79492
1998-08-25,3.78126
1998-08-26,3.51868
1998-08-27,3.45985
1998-08-28,3.28234
1998-08-31,3.04601
1998-09-01,3.32856
1998-09-02,3.21722
1998-09-03,3.13845
1998-09-04,3.02606
1998-09-08,3.21722
1998-09-09,2.92838
1998-09-10,2.84225
1998-09-11,3.03341
1998-09-14,3.05232
1998-09-15,3.09853
1998-09-16,3.07858
1998-09-17,3.05967
1998-09-18,3.03972
1998-09-21,2.86221
1998-09-22,2.94729
1998-09-23,3.05967
1998-09-24,2.92103
1998-09-25,2.73091
1998-09-28,2.75087
1998-09-29,2.72461
1998-09-30,2.65214
1998-10-01,2.49459
1998-10-02,2.47462
1998-10-05,2.44207
1998-10-06,2.53449
1998-10-07,2.28451
1998-10-08,2.33703
1998-10-09,2.62588
1998-10-12,2.72461
1998-10-13,2.75717
1998-10-14,3.02606
1998-10-15,3.3086
1998-10-16,3.17101
1998-10-19,3.16471
1998-10-20,3.3086
1998-10-21,3.32226
1998-10-22,3.41364
1998-10-23,3.47246
1998-10-26,3.61111
1998-10-27,3.49872
1998-10-28,3.51868
1998-10-29,3.58485
1998-10-30,3.79492
1998-11-02,3.79492
1998-11-03,3.62371
1998-11-04,3.87999
1998-11-05,3.94512
1998-11-06,4.09636
1998-11-09,4.10267
1998-11-10,4.11002
1998-11-11,4.12262
1998-11-12,4.2014
1998-11-13,4.22766
1998-11-16,4.39886
1998-11-17,4.45769
1998-11-18,4.43773
1998-11-19,4.37261
1998-11-20,4.35896
1998-11-23,4.42512
1998-11-24,4.51651
1998-11-25,4.55643
1998-11-27,4.54906
1998-11-30,4.339
1998-12-01,4.26757
1998-12-02,4.12262
1998-12-03,4.01759
1998-12-04,3.92621
1998-12-07,4.07011
1998-12-08,3.99133
1998-12-09,4.01759
1998-12-10,4.03125
1998-12-11,4.09007
1998-12-14,4.14574
1998-12-15,4.07011
1998-12-16,4.12893
1998-12-17,4.21505
1998-12-18,4.41148
1998-12-21,4.62154
1998-12-22,4.46399
1998-12-23,4.67406
1998-12-24,4.74023
1998-12-28,4.60894
1998-12-29,4.6478
1998-12-30,4.79275
1998-12-31,4.62154
1999-01-04,4.74023
1999-01-05,4.68037
1999-01-06,4.53017
1999-01-07,4.53017
1999-01-08,4.42512
1999-01-11,4.42512
1999-01-12,4.46399
1999-01-13,4.34635
1999-01-14,4.32009
1999-01-15,4.43773
1999-01-19,4.49025
1999-01-20,4.39886
1999-01-21,4.38522
1999-01-22,4.62154
1999-01-25,4.36526
1999-01-26,4.2077
1999-01-27,4.06381
1999-01-28,4.09636
1999-01-29,4.0575
1999-02-01,4.07641
1999-02-02,4.13628
1999-02-03,4.21505
1999-02-04,4.1888
1999-02-05,4.13628
1999-02-08,4.03755
1999-02-09,3.96507
1999-02-10,3.92621
1999-02-11,4.00499
1999-02-12,3.96192
1999-02-16,3.86634
1999-02-17,3.68568
1999-02-18,3.85373
1999-02-19,3.8863
1999-02-22,3.95247
1999-02-23,4.13943
1999-02-24,4.09425
1999-02-25,3.99542
1999-02-26,3.99542
1999-03-01,4.10687
1999-03-02,4.07427
1999-03-03,3.91025
1999-03-04,3.91655
1999-03-05,3.97544
1999-03-08,3.92287
1999-03-09,3.8051
1999-03-10,3.82509
1999-03-11,3.93023
1999-03-12,4.10056
1999-03-15,4.04168
1999-03-16,3.94284
1999-03-17,3.86399
1999-03-18,3.95651
1999-03-19,3.89658
1999-03-22,3.75884
1999-03-23,3.64109
1999-03-24,3.58851
1999-03-25,3.74202
1999-03-26,3.73256
1999-03-29,3.73887
1999-03-30,3.71994
1999-03-31,3.66737
1999-04-01,3.71258
1999-04-05,4.10056
1999-04-06,4.07427
1999-04-07,4.02801
1999-04-08,4.08794
1999-04-09,4.10687
1999-04-12,4.5737
1999-04-13,4.30453
1999-04-14,4.19939
1999-04-15,4.62627
1999-04-16,4.50851
1999-04-19,4.61366
1999-04-20,4.79766
1999-04-21,4.82394
1999-04-22,5.01425
1999-04-23,4.98165
1999-04-26,5.05315
1999-04-27,5.04684
1999-04-28,5.05315
1999-04-29,5.10573
1999-04-30,5.02055
1999-05-03,5.01425
1999-05-04,5.07313
1999-05-05,5.24451
1999-05-06,5.23715
1999-05-07,5.13936
1999-05-10,5.16565
1999-05-11,5.21822
1999-05-12,5.24451
1999-05-13,5.29708
1999-05-14,5.23715
1999-05-17,5.34965
1999-05-18,5.29708
1999-05-19,5.28341
1999-05-20,5.45795
1999-05-21,5.32336
1999-05-24,5.29708
1999-05-25,5.11308
1999-05-26,5.11939
1999-05-27,5.21086
1999-05-28,5.38855
1999-06-01,5.29708
1999-06-02,5.40853
1999-06-03,5.44113
1999-06-04,5.49369
1999-06-07,5.5
1999-06-08,5.48108
1999-06-09,5.59884
1999-06-10,5.51998
1999-06-11,5.5
1999-06-14,5.51998
1999-06-15,5.50736
1999-06-16,5.65141
1999-06-17,5.65141
1999-06-18,5.23084
1999-06-21,5.15199
1999-06-22,5.23084
1999-06-23,5.36858
1999-06-24,5.21822
1999-06-25,5.46741
1999-06-28,5.51998
1999-06-29,5.57255
1999-06-30,5.51368
1999-07-01,5.40222
1999-07-02,5.32968
1999-07-06,5.30339
1999-07-07,5.36858
1999-07-08,5.38224
1999-07-09,5.36858
1999-07-12,5.71765
1999-07-13,5.74394
1999-07-14,5.80282
1999-07-15,5.86801
1999-07-16,5.98051
1999-07-19,5.99943
1999-07-20,5.86801
1999-07-21,6.00679
1999-07-22,5.99312
1999-07-23,6.11193
1999-07-26,6.13822
1999-07-27,6.32222
1999-07-28,6.2297
1999-07-29,6.17712
1999-07-30,6.20341
1999-08-02,5.97315
1999-08-03,6.09827
1999-08-04,6.06567
1999-08-05,6.12455
1999-08-06,6.02572
1999-08-09,5.99312
1999-08-10,5.92793
1999-08-11,5.95422
1999-08-12,6.00679
1999-08-13,6.05937
1999-08-16,5.90165
1999-08-17,5.83541
1999-08-18,5.82279
1999-08-19,5.77022
1999-08-20,5.75655
1999-08-23,5.67769
1999-08-24,5.38855
1999-08-25,5.59253
1999-08-26,5.55994
1999-08-27,5.45479
1999-08-30,5.44743
1999-08-31,5.2708
1999-09-01,5.34965
1999-09-02,5.28341
1999-09-03,5.40222
1999-09-07,5.49369
1999-09-08,5.57255
1999-09-09,5.53365
1999-09-10,5.57887
1999-09-13,5.57255
1999-09-14,5.55258
1999-09-15,5.44743
1999-09-16,5.38224
1999-09-17,5.55994
1999-09-20,5.57255
1999-09-21,5.42851
1999-09-22,5.40222
1999-09-23,5.21822
1999-09-24,4.92172
1999-09-27,5.11308
1999-09-28,5.03422
1999-09-29,4.9417
1999-09-30,4.948
1999-10-01,4.96799
1999-10-04,5.18458
1999-10-05,5.11308
1999-10-06,5.00058
1999-10-07,5.00794
1999-10-08,5.00058
1999-10-11,4.3897
1999-10-12,3.91025
1999-10-13,4.00909
1999-10-14,3.8377
1999-10-15,3.66737
1999-10-18,3.75254
1999-10-19,3.74623
1999-10-20,3.68945
1999-10-21,3.83139
1999-10-22,3.85137
1999-10-25,3.91655
1999-10-26,3.81457
1999-10-27,3.8377
1999-10-28,3.85137
1999-10-29,3.84401
1999-11-01,3.78513
1999-11-02,3.68629
1999-11-03,3.67999
1999-11-04,3.78513
1999-11-05,3.86399
1999-11-08,3.88397
1999-11-09,3.75884
1999-11-10,3.69996
1999-11-11,3.94284
1999-11-12,3.84401
1999-11-15,3.9828
1999-11-16,3.92287
1999-11-17,4.04168
1999-11-18,4.29823
1999-11-19,4.40968
1999-11-22,4.36342
1999-11-23,4.29087
1999-11-24,4.30453
1999-11-26,4.29823
1999-11-29,4.14052
1999-11-30,4.05429
1999-12-01,4.10056
1999-12-02,4.10687
1999-12-03,4.08794
1999-12-06,4.06797
1999-12-07,3.94284
1999-12-08,3.8377
1999-12-09,3.8377
1999-12-10,3.77251
1999-12-13,3.93023
1999-12-14,3.85768
1999-12-15,3.9828
1999-12-16,3.96282
1999-12-17,4.05429
1999-12-20,4.07427
1999-12-21,4.15313
1999-12-22,4.25197
1999-12-23,4.39601
1999-12-27,4.5737
1999-12-28,4.63257
1999-12-29,4.7188
1999-12-30,4.73141
1999-12-31,4.72511
2000-01-03,4.45594
2000-01-04,4.2078
2000-01-05,4.36342
2000-01-06,4.3897
2000-01-07,4.37708
2000-01-10,4.26458
2000-01-11,4.31084
2000-01-12,4.21937
2000-01-13,4.84286
2000-01-14,4.7188
2000-01-18,4.67253
2000-01-19,5.04684
2000-01-20,5.132
2000-01-21,5.15199
2000-01-24,4.84286
2000-01-25,4.948
2000-01-26,5.16565
2000-01-27,5.17301
2000-01-28,4.93539
2000-01-31,4.59998
2000-02-01,4.75139
2000-02-02,5.03422
2000-02-03,5.09941
2000-02-04,5.17826
2000-02-07,5.15829
2000-02-08,5.15199
2000-02-09,5.04054
2000-02-10,4.948
2000-02-11,4.88912
2000-02-14,4.91541
2000-02-15,4.83656
2000-02-16,4.71144
2000-02-17,4.7188
2000-02-18,4.65256
2000-02-22,4.45594
2000-02-23,4.57603
2000-02-24,4.43382
2000-02-25,4.46437
2000-02-28,4.4117
2000-02-29,4.6898
2000-03-01,4.81937
2000-03-02,4.52968
2000-03-03,4.68769
2000-03-06,4.55602
2000-03-07,4.31899
2000-03-08,4.33269
2000-03-09,4.32532
2000-03-10,4.01666
2000-03-13,3.97664
2000-03-14,3.77227
2000-03-15,4.15466
2000-03-16,4.63502
2000-03-17,4.60868
2000-03-20,4.52968
2000-03-21,4.80673
2000-03-22,4.96473
2000-03-23,4.83306
2000-03-24,4.93841
2000-03-27,4.76038
2000-03-28,4.92471
2000-03-29,4.93841
2000-03-30,4.93841
2000-03-31,5.04375
2000-04-03,4.7667
2000-04-04,4.78039
2000-04-05,4.72772
2000-04-06,4.89837
2000-04-07,5.05639
2000-04-10,5.33975
2000-04-11,5.37241
2000-04-12,5.95179
2000-04-13,6.12349
2000-04-14,6.19512
2000-04-17,6.09505
2000-04-18,5.89912
2000-04-19,5.7411
2000-04-20,5.6621
2000-04-24,6.07082
2000-04-25,6.07082
2000-04-26,5.81379
2000-04-27,5.98444
2000-04-28,6.14246
2000-05-01,6.61017
2000-05-02,6.61017
2000-05-03,6.66073
2000-05-04,6.84403
2000-05-05,6.87353
2000-05-08,6.95885
2000-05-09,7.09053
2000-05-10,6.8672
2000-05-11,7.05787
2000-05-12,7.32123
2000-05-15,7.41393
2000-05-16,7.49926
2000-05-17,7.42025
2000-05-18,7.35388
2000-05-19,7.01152
2000-05-22,6.84719
2000-05-23,6.5712
2000-05-24,6.72921
2000-05-25,6.59858
2000-05-26,6.3405
2000-05-30,6.62386
2000-05-31,6.6502
2000-06-01,6.88722
2000-06-02,6.92619
2000-06-05,6.76819
2000-06-06,6.48481
2000-06-07,6.28151
2000-06-08,6.13613
2000-06-09,5.87278
2000-06-12,4.9837
2000-06-13,5.8338
2000-06-14,5.57678
2000-06-15,5.70213
2000-06-16,5.5241
2000-06-19,5.39243
2000-06-20,5.34608
2000-06-21,5.26075
2000-06-22,5.16489
2000-06-23,5.20176
2000-06-26,5.384
2000-06-27,5.65578
2000-06-28,5.79378
2000-06-29,5.74743
2000-06-30,5.29973
2000-07-03,5.60943
2000-07-05,5.43878
2000-07-06,5.59679
2000-07-07,6.01078
2000-07-10,6.18248
2000-07-11,6.29415
2000-07-12,6.63651
2000-07-13,6.70287
2000-07-14,6.73553
2000-07-17,6.93989
2000-07-18,6.79452
2000-07-19,6.79452
2000-07-20,6.83455
2000-07-21,6.89354
2000-07-24,6.55118
2000-07-25,6.57751
2000-07-26,6.51115
2000-07-27,6.55118
2000-07-28,6.41318
2000-07-31,6.52485
2000-08-01,6.45216
2000-08-02,6.59016
2000-08-03,6.69444
2000-08-04,6.96201
2000-08-07,7.0052
2000-08-08,7.09053
2000-08-09,6.95253
2000-08-10,6.78188
2000-08-11,6.92619
2000-08-14,6.92619
2000-08-15,6.82085
2000-08-16,6.87353
2000-08-17,7.05155
2000-08-18,7.10422
2000-08-21,6.97887
2000-08-22,6.95253
2000-08-23,6.89986
2000-08-24,6.97254
2000-08-25,7.03154
2000-08-28,7.01889
2000-08-29,7.03785
2000-08-30,7.18323
2000-08-31,6.72921
2000-09-01,6.8672
2000-09-05,6.71551
2000-09-06,6.53749
2000-09-07,6.42582
2000-09-08,6.37947
2000-09-11,6.42056
2000-09-12,6.51115
2000-09-13,6.32048
2000-09-14,6.30785
2000-09-15,6.06345
2000-09-18,5.98444
2000-09-19,5.95811
2000-09-20,5.84644
2000-09-21,5.78114
2000-09-22,5.89912
2000-09-25,5.96548
2000-09-26,6.1688
2000-09-27,6.15615
2000-09-28,6.21515
2000-09-29,6.05081
2000-10-02,5.95811
2000-10-03,5.64946
2000-10-04,5.80747
2000-10-05,5.88648
2000-10-06,5.87278
2000-10-09,5.91282
2000-10-10,6.07082
2000-10-11,5.51778
2000-10-12,4.9047
2000-10-13,5.05007
2000-10-16,5.20807
2000-10-17,5.16172
2000-10-18,5.24705
2000-10-19,5.2934
2000-10-20,5.3229
2000-10-23,5.37241
2000-10-24,5.20176
2000-10-25,5.2144
2000-10-26,5.41244
2000-10-27,5.55675
2000-10-30,5.74743
2000-10-31,6.03079
2000-11-01,5.9718
2000-11-02,6.08347
2000-11-03,6.03079
2000-11-06,6.02447
2000-11-07,6.12349
2000-11-08,6.12349
2000-11-09,5.84013
2000-11-10,5.49776
2000-11-13,5.68843
2000-11-14,5.91282
2000-11-15,5.7548
2000-11-16,5.69475
2000-11-17,5.67579
2000-11-20,5.74743
2000-11-21,5.87278
2000-11-22,5.93914
2000-11-24,6.00446
2000-11-27,6.28782
2000-11-28,6.32048
2000-11-29,6.56382
2000-11-30,6.49219
2000-12-01,6.19512
2000-12-04,6.40581
2000-12-05,6.18248
2000-12-06,6.07082
2000-12-07,5.91282
2000-12-08,6.08978
2000-12-11,6.07082
2000-12-12,6.14983
2000-12-13,6.11612
2000-12-14,6.10348
2000-12-15,5.78114
2000-12-18,5.58309
2000-12-19,5.35977
2000-12-20,5.17542
2000-12-21,5.53043
2000-12-22,5.45141
2000-12-26,5.37873
2000-12-27,5.58942
2000-12-28,5.72109
2000-12-29,5.77377
2001-01-02,5.49145
2001-01-03,5.51778
2001-01-04,5.1354
2001-01-05,5.15541
2001-01-08,5.15541
2001-01-09,4.9837
2001-01-10,5.12275
2001-01-11,5.24916
2001-01-12,5.16805
2001-01-16,5.10274
2001-01-17,5.11537
2001-01-18,5.33975
2001-01-19,5.32606
2001-01-22,5.19122
2001-01-23,5.4451
2001-01-24,5.33975
2001-01-25,5.55044
2001-01-26,5.46511
2001-01-29,5.74743
2001-01-30,5.99814
2001-01-31,5.93914
2001-02-01,5.97812
2001-02-02,6.04449
2001-02-05,6.11612
2001-02-06,6.07082
2001-02-07,6.13613
2001-02-08,6.02447
2001-02-09,6.08978
2001-02-12,6.10137
2001-02-13,6.17617
2001-02-14,6.22146
2001-02-15,6.46586
2001-02-16,6.32048
2001-02-20,6.15615
2001-02-21,6.00739
2001-02-22,5.90822
2001-02-23,5.88184
2001-02-26,6.10656
2001-02-27,6.21945
2001-02-28,6.33024
2001-03-01,6.34395
2001-03-02,6.35028
2001-03-05,6.28381
2001-03-06,6.3566
2001-03-07,6.59399
2001-03-08,6.58766
2001-03-09,6.46844
2001-03-12,6.34395
2001-03-13,6.45578
2001-03-14,6.42308
2001-03-15,6.59399
2001-03-16,6.50853
2001-03-19,6.27748
2001-03-20,6.00739
2001-03-21,5.79006
2001-03-22,5.61808
2001-03-23,5.71726
2001-03-26,5.90294
2001-03-27,5.87551
2001-03-28,5.81642
2001-03-29,5.93459
2001-03-30,5.74996
2001-04-02,5.79638
2001-04-03,5.51257
2001-04-04,5.35433
2001-04-05,5.58537
2001-04-06,5.55267
2001-04-09,5.4018
2001-04-10,5.65923
2001-04-11,5.82592
2001-04-12,5.85336
2001-04-16,5.88184
2001-04-17,5.84069
2001-04-18,6.52331
2001-04-19,6.78812
2001-04-20,6.73431
2001-04-23,6.53702
2001-04-24,6.50959
2001-04-25,6.48637
2001-04-26,6.71005
2001-04-27,6.805
2001-04-30,6.85036
2001-05-01,7.06876
2001-05-02,6.89996
2001-05-03,6.55074
2001-05-04,6.71638
2001-05-07,6.60454
2001-05-08,6.44206
2001-05-09,6.50959
2001-05-10,6.59505
2001-05-11,6.5022
2001-05-14,6.42729
2001-05-15,6.40303
2001-05-16,6.45683
2001-05-17,6.90101
2001-05-18,6.93055
2001-05-21,7.45701
2001-05-22,7.53614
2001-05-23,7.32724
2001-05-24,7.29138
2001-05-25,7.42747
2001-05-29,7.17004
2001-05-30,7.09092
2001-05-31,7.08247
2001-06-01,7.05716
2001-06-04,7.11835
2001-06-05,6.87252
2001-06-06,7.04661
2001-06-07,6.84931
2001-06-08,6.9316
2001-06-11,6.7744
2001-06-12,6.57922
2001-06-13,6.62986
2001-06-14,6.54018
2001-06-15,6.29541
2001-06-18,6.36083
2001-06-19,6.36189
2001-06-20,6.37349
2001-06-21,6.36399
2001-06-22,6.38298
2001-06-25,6.22472
2001-06-26,6.13821
2001-06-27,6.12767
2001-06-28,6.33129
2001-06-29,6.49904
2001-07-02,6.62564
2001-07-03,6.60243
2001-07-05,6.58344
2001-07-06,6.4294
2001-07-09,6.50114
2001-07-10,6.51486
2001-07-11,6.48849
2001-07-12,6.65097
2001-07-13,6.65202
2001-07-16,6.67312
2001-07-17,6.64674
2001-07-18,6.72271
2001-07-19,6.83877
2001-07-20,6.87885
2001-07-23,6.83982
2001-07-24,6.7417
2001-07-25,6.76069
2001-07-26,6.86831
2001-07-27,6.87463
2001-07-30,6.9105
2001-07-31,6.9105
2001-08-01,6.8377
2001-08-02,6.80711
2001-08-03,6.7417
2001-08-06,6.66151
2001-08-07,6.73115
2001-08-08,6.64674
2001-08-09,6.6594
2001-08-10,6.70266
2001-08-13,6.66785
2001-08-14,6.65518
2001-08-15,6.65729
2001-08-16,6.73854
2001-08-17,6.70371
2001-08-20,6.85775
2001-08-21,6.96431
2001-08-22,7.00019
2001-08-23,6.8989
2001-08-24,7.09092
2001-08-27,7.14789
2001-08-28,7.11835
2001-08-29,7.06876
2001-08-30,6.9105
2001-08-31,6.96325
2001-09-04,6.98963
2001-09-05,6.9316
2001-09-06,6.72271
2001-09-07,6.53386
2001-09-10,6.30175
2001-09-17,5.94514
2001-09-18,5.94514
2001-09-19,5.83753
2001-09-20,5.63075
2001-09-21,5.54212
2001-09-24,5.77106
2001-09-25,5.88711
2001-09-26,5.81326
2001-09-27,5.69299
2001-09-28,6.01161
2001-10-01,5.8924
2001-10-02,5.92932
2001-10-03,6.26798
2001-10-04,6.24478
2001-10-05,6.24056
2001-10-08,6.20785
2001-10-09,6.15932
2001-10-10,5.88184
2001-10-11,6.07069
2001-10-12,6.07702
2001-10-15,6.14244
2001-10-16,6.13399
2001-10-17,6.14033
2001-10-18,6.13188
2001-10-19,6.18252
2001-10-22,6.23739
2001-10-23,6.30913
2001-10-24,6.29858
2001-10-25,6.4062
2001-10-26,6.35978
2001-10-29,6.21945
2001-10-30,6.18252
2001-10-31,6.23106
2001-11-01,6.3028
2001-11-02,6.31124
2001-11-05,6.31863
2001-11-06,6.22367
2001-11-07,6.26166
2001-11-08,6.21629
2001-11-09,6.16143
2001-11-12,6.11606
2001-11-13,6.26904
2001-11-14,6.36399
2001-11-15,6.3566
2001-11-16,6.27643
2001-11-19,6.24056
2001-11-20,6.18359
2001-11-21,6.13505
2001-11-23,6.22051
2001-11-26,6.27853
2001-11-27,6.26798
2001-11-28,6.19941
2001-11-29,6.34078
2001-11-30,6.32179
2001-12-03,6.14033
2001-12-04,6.21418
2001-12-05,6.41252
2001-12-06,6.65729
2001-12-07,6.54968
2001-12-10,6.45789
2001-12-11,6.38614
2001-12-12,6.47689
2001-12-13,6.34078
2001-12-14,6.51486
2001-12-17,6.76808
2001-12-18,6.84193
2001-12-19,6.85354
2001-12-20,6.81871
2001-12-21,6.82716
2001-12-24,6.83138
2001-12-26,6.94532
2001-12-27,7.035
2001-12-28,7.07825
2001-12-31,7.04239
2002-01-02,6.95165
2002-01-03,6.96747
2002-01-04,7.19009
2002-01-07,7.15527
2002-01-08,7.06876
2002-01-09,7.15211
2002-01-10,7.18481
2002-01-11,7.16688
2002-01-14,6.96325
2002-01-15,6.8472
2002-01-16,6.73643
2002-01-17,6.81977
2002-01-18,6.79128
2002-01-22,6.98752
2002-01-23,7.15316
2002-01-24,7.14155
2002-01-25,7.07509
2002-01-28,7.08986
2002-01-29,7.08353
2002-01-30,7.14789
2002-01-31,7.07931
2002-02-01,7.09619
2002-02-04,7.09092
2002-02-05,7.35468
2002-02-06,7.32724
2002-02-07,7.40215
2002-02-08,7.41903
2002-02-11,7.51715
2002-02-12,7.51188
2002-02-13,7.64059
2002-02-14,7.57096
2002-02-15,7.41587
2002-02-19,7.43274
2002-02-20,7.50145
2002-02-21,7.45391
2002-02-22,7.49829
2002-02-25,7.65889
2002-02-26,7.92724
2002-02-27,7.87441
2002-02-28,7.8892
2002-03-01,7.85329
2002-03-04,7.91773
2002-03-05,7.93359
2002-03-06,7.9769
2002-03-07,8.06988
2002-03-08,7.99803
2002-03-11,7.99803
2002-03-12,7.92936
2002-03-13,7.94098
2002-03-14,7.92302
2002-03-15,7.97585
2002-03-18,7.96106
2002-03-19,8.12271
2002-03-20,8.14595
2002-03-21,8.07833
2002-03-22,8.06565
2002-03-25,7.91457
2002-03-26,7.93464
2002-03-27,7.89871
2002-03-28,7.94098
2002-04-01,7.8966
2002-04-02,7.81313
2002-04-03,7.67473
2002-04-04,7.77827
2002-04-05,7.88076
2002-04-08,7.92619
2002-04-09,8.18821
2002-04-10,8.66471
2002-04-11,8.58653
2002-04-12,8.49883
2002-04-15,8.51891
2002-04-16,8.71119
2002-04-17,8.58758
2002-04-18,8.53476
2002-04-19,8.59498
2002-04-22,8.51891
2002-04-23,8.64675
2002-04-24,8.93096
2002-04-25,9.12219
2002-04-26,8.95949
2002-04-29,8.84538
2002-04-30,8.83482
2002-05-01,8.71331
2002-05-02,8.87074
2002-05-03,8.87708
2002-05-06,8.857
2002-05-07,8.99119
2002-05-08,8.85594
2002-05-09,8.83165
2002-05-10,8.68161
2002-05-13,8.61083
2002-05-14,8.85172
2002-05-15,8.82847
2002-05-16,8.91933
2002-05-17,8.96371
2002-05-20,8.87919
2002-05-21,8.72916
2002-05-22,8.68267
2002-05-23,8.69747
2002-05-24,8.59604
2002-05-28,8.53687
2002-05-29,8.37839
2002-05-30,8.23892
2002-05-31,8.34881
2002-06-03,8.05297
2002-06-04,7.84166
2002-06-05,8.07833
2002-06-06,8.09313
2002-06-07,8.26428
2002-06-10,8.39318
2002-06-11,8.30865
2002-06-12,8.19244
2002-06-13,8.03395
2002-06-14,7.98746
2002-06-17,8.14172
2002-06-18,8.10792
2002-06-19,8.21779
2002-06-20,8.18399
2002-06-21,8.16497
2002-06-24,8.15651
2002-06-25,7.95788
2002-06-26,7.88815
2002-06-27,8.03185
2002-06-28,8.1396
2002-07-01,8.13538
2002-07-02,7.92408
2002-07-03,8.09946
2002-07-05,8.47981
2002-07-08,8.40374
2002-07-09,8.22413
2002-07-10,8.51574
2002-07-11,8.36783
2002-07-12,8.29176
2002-07-15,8.16497
2002-07-16,8.20088
2002-07-17,8.2199
2002-07-18,8.01705
2002-07-19,7.76559
2002-07-22,7.16125
2002-07-23,7.007
2002-07-24,7.75714
2002-07-25,8.14595
2002-07-26,8.0255
2002-07-29,8.26217
2002-07-30,8.25795
2002-07-31,8.04452
2002-08-01,7.68529
2002-08-02,7.46342
2002-08-05,6.79569
2002-08-06,7.16759
2002-08-07,7.09997
2002-08-08,7.38312
2002-08-09,7.15914
2002-08-12,7.07672
2002-08-13,7.01123
2002-08-14,7.29015
2002-08-15,7.43384
2002-08-16,7.52682
2002-08-19,7.81631
2002-08-20,7.64092
2002-08-21,7.63036
2002-08-22,7.72756
2002-08-23,7.50991
2002-08-26,7.76136
2002-08-27,7.66628
2002-08-28,7.55006
2002-08-29,7.4761
2002-08-30,7.44652
2002-09-03,7.12533
2002-09-04,7.21619
2002-09-05,7.18238
2002-09-06,7.54161
2002-09-09,7.69164
2002-09-10,7.64515
2002-09-11,7.57964
2002-09-12,7.20774
2002-09-13,6.96685
2002-09-16,6.94783
2002-09-17,6.95416
2002-09-18,6.95205
2002-09-19,6.62453
2002-09-20,6.55902
2002-09-23,6.46604
2002-09-24,6.35194
2002-09-25,6.69425
2002-09-26,6.85062
2002-09-27,6.69425
2002-09-30,6.67313
2002-10-01,6.71327
2002-10-02,6.62453
2002-10-03,6.76188
2002-10-04,6.27798
2002-10-07,5.78986
2002-10-08,5.96102
2002-10-09,5.83846
2002-10-10,6.05822
2002-10-11,6.59071
2002-10-14,6.54001
2002-10-15,6.95839
2002-10-16,6.7978
2002-10-17,6.98375
2002-10-18,6.89077
2002-10-21,6.96896
2002-10-22,6.81681
2002-10-23,7.01544
2002-10-24,7.08095
2002-10-25,7.2986
2002-10-28,7.11265
2002-10-29,7.29015
2002-10-30,7.11899
2002-10-31,7.17393
2002-11-01,7.16547
2002-11-04,7.16547
2002-11-05,7.24577
2002-11-06,7.13167
2002-11-07,6.91402
2002-11-08,6.80414
2002-11-11,6.49352
2002-11-12,6.59494
2002-11-13,6.8147
2002-11-14,7.0239
2002-11-15,7.18449
2002-11-18,7.10842
2002-11-19,6.97318
2002-11-20,6.89923
2002-11-21,6.98586
2002-11-22,7.17604
2002-11-25,7.04081
2002-11-26,6.98586
2002-11-27,7.53738
2002-11-29,7.55006
2002-12-02,7.5881
2002-12-03,7.65782
2002-12-04,7.78461
2002-12-05,7.96845
2002-12-06,8.05508
2002-12-09,7.91351
2002-12-10,7.92408
2002-12-11,8.01916
2002-12-12,7.97479
2002-12-13,8.01071
2002-12-16,8.23681
2002-12-17,8.11636
2002-12-18,7.96634
2002-12-19,8.10157
2002-12-20,8.02973
2002-12-23,8.26217
2002-12-24,8.13538
2002-12-26,8.09523
2002-12-27,7.93887
2002-12-30,7.92408
2002-12-31,7.90083
2003-01-02,8.19455
2003-01-03,8.06565
2003-01-06,7.95788
2003-01-07,7.79095
2003-01-08,7.57964
2003-01-09,7.60711
2003-01-10,7.56063
2003-01-13,7.43807
2003-01-14,7.60711
2003-01-15,7.36833
2003-01-16,7.40637
2003-01-17,7.25423
2003-01-21,7.15702
2003-01-22,7.22887
2003-01-23,7.27747
2003-01-24,7.13167
2003-01-27,6.96051
2003-01-28,7.03869
2003-01-29,7.12321
2003-01-30,6.91402
2003-01-31,7.00911
2003-02-03,6.99009
2003-02-04,6.86964
2003-02-05,6.98586
2003-02-06,6.81893
2003-02-07,6.71962
2003-02-10,6.74074
2003-02-11,6.67736
2003-02-12,6.63087
2003-02-13,6.62241
2003-02-14,6.71327
2003-02-18,6.88021
2003-02-19,6.84631
2003-02-20,6.81032
2003-02-21,6.92676
2003-02-24,6.84631
2003-02-25,6.84842
2003-02-26,6.78703
2003-02-27,6.91617
2003-02-28,7.02625
2003-03-03,6.80185
2003-03-04,6.47584
2003-03-05,6.35093
2003-03-06,6.13077
2003-03-07,6.07573
2003-03-10,5.93177
2003-03-11,5.90637
2003-03-12,5.98682
2003-03-13,6.23238
2003-03-14,6.22816
2003-03-17,6.43986
2003-03-18,6.68542
2003-03-19,6.44832
2003-03-20,6.32765
2003-03-21,6.49701
2003-03-24,6.06726
2003-03-25,6.26414
2003-03-26,6.24086
2003-03-27,6.26202
2003-03-28,6.19216
2003-03-31,5.96565
2003-04-01,5.9974
2003-04-02,6.2705
2003-04-03,6.77645
2003-04-04,6.88442
2003-04-07,7.00932
2003-04-08,6.76799
2003-04-09,6.6579
2003-04-10,6.91829
2003-04-11,6.98603
2003-04-14,7.257
2003-04-15,7.2062
2003-04-16,7.03896
2003-04-17,7.26124
2003-04-21,7.24219
2003-04-22,7.39461
2003-04-23,7.25912
2003-04-24,7.19349
2003-04-25,7.0559
2003-04-28,7.34592
2003-04-29,7.27394
2003-04-30,7.3057
2003-05-01,7.12364
2003-05-02,7.2316
2003-05-05,7.456
2003-05-06,7.5047
2003-05-07,7.32475
2003-05-08,7.2062
2003-05-09,7.39461
2003-05-12,7.58937
2003-05-13,7.42637
2003-05-14,7.293
2003-05-15,7.38615
2003-05-16,7.36285
2003-05-19,7.01144
2003-05-20,6.86748
2003-05-21,6.67484
2003-05-22,6.74258
2003-05-23,6.74893
2003-05-27,6.84842
2003-05-28,6.98815
2003-05-29,6.90559
2003-05-30,7.06012
2003-06-02,7.21678
2003-06-03,7.25489
2003-06-04,7.33745
2003-06-05,7.2824
2003-06-06,7.18079
2003-06-09,7.02837
2003-06-10,7.26124
2003-06-11,7.46236
2003-06-12,7.52798
2003-06-13,7.38615
2003-06-16,7.72909
2003-06-17,7.72486
2003-06-18,7.59149
2003-06-19,7.40096
2003-06-20,7.43271
2003-06-23,7.3438
2003-06-24,7.38191
2003-06-25,7.36073
2003-06-26,7.26124
2003-06-27,7.24219
2003-06-30,7.20831
2003-07-01,7.27182
2003-07-02,7.5555
2003-07-03,7.39673
2003-07-07,7.57243
2003-07-08,7.64653
2003-07-09,7.51528
2003-07-10,7.42637
2003-07-11,7.4687
2003-07-14,7.56397
2003-07-15,7.42425
2003-07-16,7.3057
2003-07-17,7.24219
2003-07-18,7.38191
2003-07-21,7.29722
2003-07-22,7.43907
2003-07-23,7.36073
2003-07-24,7.26124
2003-07-25,7.68252
2003-07-28,7.88152
2003-07-29,7.93656
2003-07-30,7.90268
2003-07-31,8.01701
2003-08-01,8.02759
2003-08-04,8.00429
2003-08-05,7.88152
2003-08-06,7.87516
2003-08-07,7.88786
2003-08-08,7.94714
2003-08-11,8.01489
2003-08-12,8.09533
2003-08-13,8.05723
2003-08-14,8.05511
2003-08-15,8.05299
2003-08-18,8.21811
2003-08-19,8.31972
2003-08-20,8.2541
2003-08-21,8.45945
2003-08-22,8.28162
2003-08-25,8.40441
2003-08-26,8.30914
2003-08-27,8.34302
2003-08-28,8.4658
2003-08-29,8.53778
2003-09-02,8.76218
2003-09-03,8.83627
2003-09-04,8.77064
2003-09-05,8.64786
2003-09-08,8.75371
2003-09-09,8.59705
2003-09-10,8.47427
2003-09-11,8.55895
2003-09-12,8.44463
2003-09-15,8.53142
2003-09-16,8.92307
2003-09-17,9.17288
2003-09-18,9.16228
2003-09-19,9.0141
2003-09-22,8.83415
2003-09-23,8.96118
2003-09-24,8.82301
2003-09-25,8.36837
2003-09-26,8.09644
2003-09-29,8.18567
2003-09-30,8.09006
2003-10-01,8.1453
2003-10-02,8.23878
2003-10-03,8.71467
2003-10-06,8.99934
2003-10-07,9.13532
2003-10-08,9.06945
2003-10-09,9.08857
2003-10-10,9.09283
2003-10-13,9.51347
2003-10-14,9.66644
2003-10-15,9.63881
2003-10-16,9.62395
2003-10-17,9.18206
2003-10-20,9.3775
2003-10-21,9.4115
2003-10-22,9.44124
2003-10-23,9.52622
2003-10-24,9.51347
2003-10-27,9.51135
2003-10-28,9.57721
2003-10-29,9.54747
2003-10-30,9.41575
2003-10-31,9.47736
2003-11-03,9.56021
2003-11-04,9.4986
2003-11-05,9.61332
2003-11-06,9.61332
2003-11-07,9.75779
2003-11-10,9.79603
2003-11-11,9.8279
2003-11-12,10.1423
2003-11-13,10.1572
2003-11-14,9.96172
2003-11-17,9.9235
2003-11-18,9.88739
2003-11-19,9.9065
2003-11-20,9.98728
2003-11-21,9.97445
2003-11-24,10.3442
2003-11-25,10.4291
2003-11-26,10.5714
2003-11-28,10.5545
2003-12-01,10.7074
2003-12-02,10.6225
2003-12-03,10.4652
2003-12-04,10.1891
2003-12-05,9.91713
2003-12-08,10.1975
2003-12-09,10.1764
2003-12-10,10.2931
2003-12-11,10.5906
2003-12-12,10.461
2003-12-15,10.3123
2003-12-16,10.2337
2003-12-17,10.1466
2003-12-18,10.3696
2003-12-19,10.102
2003-12-22,10.1614
2003-12-23,10.1211
2003-12-24,10.2995
2003-12-26,10.3251
2003-12-29,10.5269
2003-12-30,10.4949
2003-12-31,10.597
2004-01-02,10.5523
2004-01-05,10.5609
2004-01-06,10.6926
2004-01-07,10.7861
2004-01-08,10.7371
2004-01-09,10.4844
2004-01-12,10.4206
2004-01-13,10.6225
2004-01-14,10.7266
2004-01-15,10.7371
2004-01-16,10.8753
2004-01-20,10.7818
2004-01-21,11.0324
2004-01-22,10.8519
2004-01-23,10.8052
2004-01-26,10.716
2004-01-27,10.5948
2004-01-28,10.3251
2004-01-29,10.289
2004-01-30,10.1805
2004-02-02,10.2486
2004-02-03,10.3462
2004-02-04,10.3017
2004-02-05,10.2358
2004-02-06,10.529
2004-02-09,10.4844
2004-02-10,10.5375
2004-02-11,10.5714
2004-02-12,10.563
2004-02-13,10.4355
2004-02-17,10.614
2004-02-18,10.4801
2004-02-19,10.4204
2004-02-20,10.3225
2004-02-23,10.2201
2004-02-24,10.3096
2004-02-25,10.2712
2004-02-26,10.4226
2004-02-27,10.3352
2004-03-01,10.4055
2004-03-02,10.3458
2004-03-03,10.2522
2004-03-04,10.1434
2004-03-05,10.3671
2004-03-08,10.2755
2004-03-09,10.1434
2004-03-10,9.75133
2004-03-11,9.5297
2004-03-12,9.52332
2004-03-15,10.0198
2004-03-16,10.2244
2004-03-17,10.3693
2004-03-18,10.3033
2004-03-19,10.2287
2004-03-22,10.1647
2004-03-23,10.1903
2004-03-24,10.2308
2004-03-25,10.6549
2004-03-26,10.6612
2004-03-29,10.8679
2004-03-30,10.9468
2004-03-31,11.3816
2004-04-01,11.0874
2004-04-02,11.2473
2004-04-05,11.5562
2004-04-06,11.5478
2004-04-07,11.5115
2004-04-08,11.5946
2004-04-12,11.6053
2004-04-13,11.7672
2004-04-14,11.7502
2004-04-15,11.5861
2004-04-16,11.7502
2004-04-19,11.878
2004-04-20,11.7992
2004-04-21,11.7118
2004-04-22,11.9548
2004-04-23,11.7992
2004-04-26,11.6948
2004-04-27,11.9953
2004-04-28,11.8482
2004-04-29,11.78
2004-04-30,11.6799
2004-05-03,11.6138
2004-05-04,11.5307
2004-05-05,11.5307
2004-05-06,11.3495
2004-05-07,10.9809
2004-05-10,10.9489
2004-05-11,10.8637
2004-05-12,11.0874
2004-05-13,10.7998
2004-05-14,10.7039
2004-05-17,10.6293
2004-05-18,10.6079
2004-05-19,10.3863
2004-05-20,10.4311
2004-05-21,10.5185
2004-05-24,10.5504
2004-05-25,10.8935
2004-05-26,10.7763
2004-05-27,10.966
2004-05-28,11.0491
2004-06-01,11.3197
2004-06-02,11.4454
2004-06-03,11.3773
2004-06-04,11.2835
2004-06-07,11.6265
2004-06-08,11.65
2004-06-09,11.3346
2004-06-10,11.5008
2004-06-14,11.3581
2004-06-15,11.6287
2004-06-16,11.6437
2004-06-17,11.6586
2004-06-18,11.7203
2004-06-21,11.6287
2004-06-22,11.5797
2004-06-23,11.8567
2004-06-24,11.7886
2004-06-25,11.8333
2004-06-28,11.9227
2004-06-29,11.8589
2004-06-30,12.0613
2004-07-01,11.8524
2004-07-02,11.8269
2004-07-06,11.7097
2004-07-07,11.6224
2004-07-08,11.4795
2004-07-09,11.6713
2004-07-12,11.6224
2004-07-13,12.7134
2004-07-14,12.8945
2004-07-15,13.0117
2004-07-16,12.9606
2004-07-19,13.065
2004-07-20,13.1098
2004-07-21,12.7901
2004-07-22,12.6388
2004-07-23,12.5173
2004-07-26,12.4577
2004-07-27,13.2482
2004-07-28,13.1332
2004-07-29,13.4741
2004-07-30,13.2888
2004-08-02,13.1971
2004-08-03,12.984
2004-08-04,13.212
2004-08-05,12.952
2004-08-06,12.4853
2004-08-09,12.7453
2004-08-10,13.1183
2004-08-11,13.2376
2004-08-12,12.6367
2004-08-13,12.6431
2004-08-16,12.9137
2004-08-17,13.0543
2004-08-18,12.9968
2004-08-19,12.8405
2004-08-20,13.2256
2004-08-23,13.1379
2004-08-24,13.2535
2004-08-25,13.262
2004-08-26,13.185
2004-08-27,13.1721
2004-08-30,13.2128
2004-08-31,13.3925
2004-09-01,13.4867
2004-09-02,13.6151
2004-09-03,13.5188
2004-09-07,12.9946
2004-09-08,12.8983
2004-09-09,12.6672
2004-09-10,12.6223
2004-09-13,12.7292
2004-09-14,12.5153
2004-09-15,12.5688
2004-09-16,12.603
2004-09-17,12.6522
2004-09-20,12.4254
2004-09-21,12.3805
2004-09-22,12.282
2004-09-23,12.3205
2004-09-24,12.1986
2004-09-27,12.0146
2004-09-28,12.2842
2004-09-29,12.2285
2004-09-30,12.297
2004-10-01,12.1879
2004-10-04,12.389
2004-10-05,12.5495
2004-10-06,12.6608
2004-10-07,12.6009
2004-10-08,12.3997
2004-10-11,12.389
2004-10-12,11.0131
2004-10-13,11.4155
2004-10-14,11.302
2004-10-15,11.2421
2004-10-18,11.8434
2004-10-19,11.9012
2004-10-20,11.9397
2004-10-21,11.7278
2004-10-22,11.6508
2004-10-25,11.7578
2004-10-26,11.7984
2004-10-27,11.6294
2004-10-28,11.8006
2004-10-29,11.8092
2004-11-01,11.9739
2004-11-02,12.0125
2004-11-03,12.1965
2004-11-04,12.4682
2004-11-05,12.3248
2004-11-08,12.4083
2004-11-09,12.4511
2004-11-10,12.6608
2004-11-11,12.9219
2004-11-12,13.0673
2004-11-15,13.0224
2004-11-16,12.9475
2004-11-17,13.108
2004-11-18,13.1251
2004-11-19,12.8918
2004-11-22,13.1144
2004-11-23,13.2513
2004-11-24,13.3347
2004-11-26,13.3733
2004-11-29,13.155
2004-11-30,13.0716
2004-12-01,13.4267
2004-12-02,13.5188
2004-12-03,13.5637
2004-12-06,13.2171
2004-12-07,13.1273
2004-12-08,13.215
2004-12-09,13.339
2004-12-10,13.1379
2004-12-13,13.2085
2004-12-14,13.4332
2004-12-15,13.3562
2004-12-16,13.3134
2004-12-17,13.2342
2004-12-20,13.031
2004-12-21,13.1914
2004-12-22,13.2406
2004-12-23,13.1358
2004-12-27,13.063
2004-12-28,13.3091
2004-12-29,13.1765
2004-12-30,13.1893
2004-12-31,13.1678
2005-01-03,13.0096
2005-01-04,12.6907
2005-01-05,12.6437
2005-01-06,12.9047
2005-01-07,13.1037
2005-01-10,12.8641
2005-01-11,12.8619
2005-01-12,12.7186
2005-01-13,12.7955
2005-01-14,12.9347
2005-01-18,13.3412
2005-01-19,12.6801
2005-01-20,12.7206
2005-01-21,12.8191
2005-01-24,12.8362
2005-01-25,12.7935
2005-01-26,12.8384
2005-01-27,12.9732
2005-01-28,12.8277
2005-01-31,12.8641
2005-02-01,13.031
2005-02-02,13.0459
2005-02-03,13.1101
2005-02-04,13.1208
2005-02-07,12.9924
2005-02-08,13.0673
2005-02-09,12.7827
2005-02-10,12.7742
2005-02-11,12.9325
2005-02-14,12.7357
2005-02-15,12.558
2005-02-16,12.7947
2005-02-17,12.6097
2005-02-18,12.3968
2005-02-22,12.1258
2005-02-23,12.13
2005-02-24,12.3839
2005-02-25,12.614
2005-02-28,12.5753
2005-03-01,12.3968
2005-03-02,12.5194
2005-03-03,12.429
2005-03-04,12.4936
2005-03-07,12.6033
2005-03-08,12.8077
2005-03-09,12.642
2005-03-10,12.5517
2005-03-11,12.4183
2005-03-14,12.315
2005-03-15,12.3365
2005-03-16,12.2742
2005-03-17,12.1881
2005-03-18,12.1903
2005-03-21,12.3086
2005-03-22,12.2849
2005-03-23,12.2355
2005-03-24,12.143
2005-03-28,12.0354
2005-03-29,11.945
2005-03-30,11.9644
2005-03-31,11.8913
2005-04-01,11.9257
2005-04-04,11.8289
2005-04-05,12.1644
2005-04-06,12.115
2005-04-07,12.1537
2005-04-08,11.9257
2005-04-11,11.8547
2005-04-12,11.8181
2005-04-13,11.3879
2005-04-14,11.2782
2005-04-15,11.0179
2005-04-18,11.36
2005-04-19,11.2868
2005-04-20,11.2718
2005-04-21,11.4654
2005-04-22,11.4396
2005-04-25,11.631
2005-04-26,11.545
2005-04-27,11.5643
2005-04-28,11.3857
2005-04-29,11.5106
2005-05-02,11.6503
2005-05-03,11.6847
2005-05-04,11.8031
2005-05-05,11.6547
2005-05-06,11.6719
2005-05-09,11.7515
2005-05-10,11.7966
2005-05-11,11.9214
2005-05-12,11.4869
2005-05-13,11.3901
2005-05-16,11.6418
2005-05-17,11.745
2005-05-18,11.9537
2005-05-19,12.1666
2005-05-20,12.1128
2005-05-23,12.2849
2005-05-24,12.1624
2005-05-25,12.1516
2005-05-26,12.2075
2005-05-27,12.3129
2005-05-31,12.4506
2005-06-01,12.7173
2005-06-02,12.7711
2005-06-03,12.6786
2005-06-06,12.6334
2005-06-07,12.8786
2005-06-08,12.5753
2005-06-09,12.6592
2005-06-10,12.7216
2005-06-13,12.9411
2005-06-14,13.068
2005-06-15,13.3992
2005-06-16,13.4895
2005-06-17,13.3777
2005-06-20,13.4767
2005-06-21,13.3863
2005-06-22,13.1668
2005-06-23,12.898
2005-06-24,12.6786
2005-06-27,12.7453
2005-06-28,12.9625
2005-06-29,12.9604
2005-06-30,13.2185
2005-07-01,13.2121
2005-07-05,13.4186
2005-07-06,12.9819
2005-07-07,13.0658
2005-07-08,13.4164
2005-07-11,13.4573
2005-07-12,13.4423
2005-07-13,13.4659
2005-07-14,13.4336
2005-07-15,13.6401
2005-07-18,13.5928
2005-07-19,13.7283
2005-07-20,13.681
2005-07-21,13.6014
2005-07-22,13.5949
2005-07-25,13.4659
2005-07-26,13.4874
2005-07-27,13.5348
2005-07-28,13.7133
2005-07-29,14.1155
2005-08-01,14.0617
2005-08-02,14.066
2005-08-03,13.9628
2005-08-04,13.9585
2005-08-05,13.9628
2005-08-08,13.8811
2005-08-09,13.909
2005-08-10,13.7886
2005-08-11,13.7026
2005-08-12,13.6745
2005-08-15,13.6767
2005-08-16,13.4014
2005-08-17,13.3368
2005-08-18,13.3779
2005-08-19,13.3217
2005-08-22,13.3735
2005-08-23,13.2828
2005-08-24,13.1314
2005-08-25,13.2417
2005-08-26,13.0623
2005-08-29,13.2136
2005-08-30,12.9736
2005-08-31,13.0882
2005-09-01,13.2611
2005-09-02,13.3
2005-09-06,13.4709
2005-09-07,13.5271
2005-09-08,13.4881
2005-09-09,13.5033
2005-09-12,13.7217
2005-09-13,13.6741
2005-09-14,13.6308
2005-09-15,13.5098
2005-09-16,13.4146
2005-09-19,13.3195
2005-09-20,13.1812
2005-09-21,12.7013
2005-09-22,12.9023
2005-09-23,12.9563
2005-09-26,13.0688
2005-09-27,13.0233
2005-09-28,12.9649
2005-09-29,13.1358
2005-09-30,13.1898
2005-10-03,13.4385
2005-10-04,13.5876
2005-10-05,13.4039
2005-10-06,13.2957
2005-10-07,13.3109
2005-10-10,13.2504
2005-10-11,13.2417
2005-10-12,14.301
2005-10-13,14.4869
2005-10-14,14.4632
2005-10-17,14.5908
2005-10-18,14.6837
2005-10-19,15.0556
2005-10-20,14.8502
2005-10-21,14.8286
2005-10-24,14.8999
2005-10-25,15.1485
2005-10-26,15.0015
2005-10-27,14.621
2005-10-28,14.861
2005-10-31,15.155
2005-11-01,15.142
2005-11-02,15.5506
2005-11-03,16.0176
2005-11-04,15.7862
2005-11-07,16.1603
2005-11-08,16.1149
2005-11-09,16.5732
2005-11-10,17.1742
2005-11-11,17.0251
2005-11-14,17.1526
2005-11-15,16.9061
2005-11-16,17.0445
2005-11-17,17.5591
2005-11-18,17.8098
2005-11-21,17.8574
2005-11-22,18.0001
2005-11-23,17.6498
2005-11-25,17.7666
2005-11-28,17.2823
2005-11-29,17.252
2005-11-30,17.1699
2005-12-01,17.2693
2005-12-02,17.4163
2005-12-05,17.3688
2005-12-06,17.0272
2005-12-07,17.1439
2005-12-08,17.1007
2005-12-09,17.1699
2005-12-12,17.2391
2005-12-13,17.4639
2005-12-14,17.3817
2005-12-15,17.4985
2005-12-16,17.3299
2005-12-19,16.8326
2005-12-20,16.8543
2005-12-21,16.9494
2005-12-22,17.0748
2005-12-23,17.1526
2005-12-27,16.9191
2005-12-28,17.0402
2005-12-29,17.0272
2005-12-30,16.9234
2006-01-03,16.9451
2006-01-04,16.7548
2006-01-05,16.7591
2006-01-06,17.4466
2006-01-09,17.4683
2006-01-10,17.5331
2006-01-11,17.7104
2006-01-12,17.5936
2006-01-13,17.3428
2006-01-17,17.399
2006-01-18,17.5504
2006-01-19,18.1989
2006-01-20,16.6338
2006-01-23,16.7591
2006-01-24,16.6294
2006-01-25,16.4046
2006-01-26,16.8716
2006-01-27,16.6511
2006-01-30,16.4089
2006-01-31,16.4954
2006-02-01,16.9537
2006-02-02,17.0013
2006-02-03,17.1266
2006-02-06,17.0964
2006-02-07,17.2823
2006-02-08,17.6757
2006-02-09,17.6326
2006-02-10,17.7406
2006-02-13,17.8531
2006-02-14,17.8963
2006-02-15,18.0268
2006-02-16,18.2049
2006-02-17,18.3266
2006-02-21,17.9269
2006-02-22,18.7481
2006-02-23,18.6959
2006-02-24,18.8002
2006-02-27,19.5779
2006-02-28,19.1043
2006-03-01,19.6474
2006-03-02,19.226
2006-03-03,19.0348
2006-03-06,18.7437
2006-03-07,18.609
2006-03-08,18.5699
2006-03-09,18.4048
2006-03-10,18.4569
2006-03-13,19.6909
2006-03-14,19.8516
2006-03-15,19.8864
2006-03-16,19.8734
2006-03-17,20.0167
2006-03-20,19.969
2006-03-21,19.63
2006-03-22,19.8604
2006-03-23,19.63
2006-03-24,19.756
2006-03-27,19.6518
2006-03-28,19.5562
2006-03-29,20.26
2006-03-30,20.5511
2006-03-31,20.5295
2006-04-03,20.5946
2006-04-04,21.1898
2006-04-05,20.8509
2006-04-06,20.499
2006-04-07,20.2383
2006-04-10,20.2297
2006-04-11,20.1558
2006-04-12,19.9168
2006-04-13,20.0037
2006-04-17,19.9255
2006-04-18,20.586
2006-04-19,20.7902
2006-04-20,20.8553
2006-04-21,20.4599
2006-04-24,20.6293
2006-04-25,20.6554
2006-04-26,20.4078
2006-04-27,20.4773
2006-04-28,20.3079
2006-05-01,19.843
2006-05-02,20.0688
2006-05-03,20.0298
2006-05-04,20.3035
2006-05-05,20.4947
2006-05-08,21.0509
2006-05-09,21.2029
2006-05-10,21.0725
2006-05-11,20.7119
2006-05-12,20.2905
2006-05-15,19.6127
2006-05-16,19.4997
2006-05-17,18.9523
2006-05-18,18.7002
2006-05-19,18.8088
2006-05-22,18.583
2006-05-23,18.709
2006-05-24,18.7176
2006-05-25,18.7741
2006-05-26,18.6481
2006-05-30,18.496
2006-05-31,18.6437
2006-06-01,19.226
2006-06-02,19.3476
2006-06-05,18.5091
2006-06-06,17.5488
2006-06-07,17.5228
2006-06-08,17.1709
2006-06-09,17.4663
2006-06-12,16.3932
2006-06-13,15.8848
2006-06-14,16.3062
2006-06-15,16.9841
2006-06-16,17.0797
2006-06-19,16.6886
2006-06-20,16.4453
2006-06-21,16.7711
2006-06-22,16.7711
2006-06-23,16.8841
2006-06-26,17.1057
2006-06-27,16.5625
2006-06-28,16.3714
2006-06-29,17.4837
2006-06-30,17.5315
2006-07-03,17.853
2006-07-05,17.2578
2006-07-06,17.2186
2006-07-07,16.8059
2006-07-10,16.6799
2006-07-11,16.732
2006-07-12,15.6154
2006-07-13,15.3069
2006-07-14,15.3113
2006-07-17,14.9332
2006-07-18,14.5769
2006-07-19,15.2418
2006-07-20,14.7464
2006-07-21,14.4292
2006-07-24,15.068
2006-07-25,15.4111
2006-07-26,15.2287
2006-07-27,14.9029
2006-07-28,15.3069
2006-07-31,15.4416
2006-08-01,15.1027
2006-08-02,15.4503
2006-08-03,15.9543
2006-08-04,16.0586
2006-08-07,15.8457
2006-08-08,15.5546
2006-08-09,15.2765
2006-08-10,15.4807
2006-08-11,15.1939
2006-08-14,15.4199
2006-08-15,15.9804
2006-08-16,16.1455
2006-08-17,16.3332
2006-08-18,16.2196
2006-08-21,15.9662
2006-08-22,16.0099
2006-08-23,15.7391
2006-08-24,15.5337
2006-08-25,15.4202
2006-08-28,15.892
2006-08-29,15.5599
2006-08-30,15.6953
2006-08-31,15.9968
2006-09-01,16.0186
2006-09-05,16.4336
2006-09-06,15.94
2006-09-07,15.726
2006-09-08,16.0623
2006-09-11,16.1104
2006-09-12,16.3768
2006-09-13,16.7743
2006-09-14,16.9578
2006-09-15,17.2986
2006-09-18,17.1544
2006-09-19,17.0845
2006-09-20,16.8574
2006-09-21,16.7438
2006-09-22,16.6346
2006-09-25,17.1587
2006-09-26,17.1587
2006-09-27,17.1806
2006-09-28,17.351
2006-09-29,16.8574
2006-10-02,16.5996
2006-10-03,16.8223
2006-10-04,17.351
2006-10-05,17.4078
2006-10-06,17.3072
2006-10-09,17.4296
2006-10-10,17.648
2006-10-11,18.2596
2006-10-12,18.7051
2006-10-13,18.5522
2006-10-16,18.6353
2006-10-17,18.3601
2006-10-18,18.7095
2006-10-19,18.2989
2006-10-20,18.0761
2006-10-23,18.0848
2006-10-24,18.312
2006-10-25,18.2901
2006-10-26,18.3601
2006-10-27,17.7877
2006-10-30,17.9669
2006-10-31,17.5519
2006-11-01,17.1107
2006-11-02,17.0583
2006-11-03,16.3593
2006-11-06,16.4991
2006-11-07,16.5078
2006-11-08,16.5909
2006-11-09,16.1628
2006-11-10,16.0317
2006-11-13,16.1278
2006-11-14,16.2938
2006-11-15,16.6695
2006-11-16,16.7089
2006-11-17,16.3418
2006-11-20,16.5078
2006-11-21,16.3637
2006-11-22,16.4074
2006-11-24,16.5821
2006-11-27,15.9051
2006-11-28,15.726
2006-11-29,15.94
2006-11-30,15.7521
2006-12-01,15.9531
2006-12-04,16.0623
2006-12-05,15.7172
2006-12-06,15.5992
2006-12-07,15.5731
2006-12-08,15.608
2006-12-11,15.4202
2006-12-12,15.4289
2006-12-13,15.3983
2006-12-14,15.6779
2006-12-15,15.5119
2006-12-18,15.5337
2006-12-19,15.608
2006-12-20,15.5687
2006-12-21,15.4245
2006-12-22,15.2891
2006-12-26,15.4639
2006-12-27,15.6779
2006-12-28,15.5599
2006-12-29,15.656
2007-01-03,15.726
2007-01-04,16.3462
2007-01-05,15.9094
2007-01-08,15.5468
2007-01-09,15.9705
2007-01-10,16.2152
2007-01-11,16.4861
2007-01-12,16.5166
2007-01-16,16.521
2007-01-17,16.5778
2007-01-18,16.1453
2007-01-19,16.058
2007-01-22,15.6342
2007-01-23,15.6385
2007-01-24,15.7696
2007-01-25,15.49
2007-01-26,15.4988
2007-01-29,15.525
2007-01-30,15.8526
2007-01-31,16.2938
2007-02-01,16.5996
2007-02-02,16.6738
2007-02-05,16.3812
2007-02-06,16.237
2007-02-07,16.3681
2007-02-08,16.1148
2007-02-09,15.8963
2007-02-12,15.6779
2007-02-13,15.6735
2007-02-14,15.9269
2007-02-15,15.9269
2007-02-16,16.0405
2007-02-20,16.2894
2007-02-21,16.4336
2007-02-22,16.4334
2007-02-23,16.3105
2007-02-26,16.2534
2007-02-27,15.6999
2007-02-28,15.4847
2007-03-01,15.5505
2007-03-02,15.2562
2007-03-05,14.9575
2007-03-06,14.9444
2007-03-07,15.0409
2007-03-08,15.511
2007-03-09,15.6252
2007-03-12,15.4056
2007-03-13,15.1596
2007-03-14,15.3089
2007-03-15,15.3923
2007-03-16,15.3485
2007-03-19,15.467
2007-03-20,15.6603
2007-03-21,15.7702
2007-03-22,15.7219
2007-03-23,15.9284
2007-03-26,15.5945
2007-03-27,15.3309
2007-03-28,15.3485
2007-03-29,15.2606
2007-03-30,15.4187
2007-04-02,15.2606
2007-04-03,15.5154
2007-04-04,15.5725
2007-04-05,15.6296
2007-04-09,15.6384
2007-04-10,15.6472
2007-04-11,15.3485
2007-04-12,16.8244
2007-04-13,17.3165
2007-04-16,17.6679
2007-04-17,17.7074
2007-04-18,17.7074
2007-04-19,17.5976
2007-04-20,17.8128
2007-04-23,17.7689
2007-04-24,18.1203
2007-04-25,18.4322
2007-04-26,18.2653
2007-04-27,18.3004
2007-04-30,18.0764
2007-05-01,18.0896
2007-05-02,18.4541
2007-05-03,18.296
2007-05-04,18.3443
2007-05-07,18.2169
2007-05-08,18.1731
2007-05-09,18.4058
2007-05-10,18.3487
2007-05-11,18.2609
2007-05-14,18.195
2007-05-15,18.072
2007-05-16,18.3883
2007-05-17,18.4058
2007-05-18,18.5992
2007-05-21,18.6826
2007-05-22,18.8759
2007-05-23,18.731
2007-05-24,18.6035
2007-05-25,18.6606
2007-05-29,18.5816
2007-05-30,18.7661
2007-05-31,19.056
2007-06-01,18.8495
2007-06-04,19.1571
2007-06-05,18.7792
2007-06-06,18.3487
2007-06-07,17.8348
2007-06-08,18.0193
2007-06-11,18.1291
2007-06-12,18.1511
2007-06-13,18.441
2007-06-14,18.4454
2007-06-15,18.5288
2007-06-18,18.3663
2007-06-19,18.3312
2007-06-20,18.4234
2007-06-21,18.7573
2007-06-22,18.3619
2007-06-25,18.2741
2007-06-26,18.5025
2007-06-27,18.6035
2007-06-28,18.5112
2007-06-29,18.3795
2007-07-02,18.5376
2007-07-03,18.5728
2007-07-05,18.5201
2007-07-06,18.643
2007-07-09,18.6211
2007-07-10,18.3971
2007-07-11,18.5112
2007-07-12,20.3827
2007-07-13,20.7955
2007-07-16,21.3403
2007-07-17,20.9976
2007-07-18,20.8043
2007-07-19,21.3139
2007-07-20,20.8746
2007-07-23,20.6374
2007-07-24,20.3299
2007-07-25,20.2904
2007-07-26,19.693
2007-07-27,20.2113
2007-07-30,20.3607
2007-07-31,19.794
2007-08-01,19.5919
2007-08-02,20.2376
2007-08-03,19.693
2007-08-06,20.7868
2007-08-07,21.3051
2007-08-08,22.2232
2007-08-09,22.5219
2007-08-10,21.0459
2007-08-13,21.0591
2007-08-14,20.2596
2007-08-15,19.9873
2007-08-16,19.8417
2007-08-17,20.4201
2007-08-20,20.8439
2007-08-21,21.1397
2007-08-22,20.919
2007-08-23,20.0977
2007-08-24,20.3538
2007-08-27,20.0756
2007-08-28,19.5105
2007-08-29,20.1375
2007-08-30,19.9918
2007-08-31,20.1241
2007-09-04,20.0801
2007-09-05,20.0756
2007-09-06,19.6871
2007-09-07,19.1705
2007-09-10,18.9895
2007-09-11,19.2544
2007-09-12,19.0028
2007-09-13,18.9498
2007-09-14,19.4045
2007-09-17,18.9012
2007-09-18,20.1815
2007-09-19,19.9476
2007-09-20,19.7047
2007-09-21,19.8019
2007-09-24,19.6783
2007-09-25,19.771
2007-09-26,19.7003
2007-09-27,20.0182
2007-09-28,20.0315
2007-10-01,20.2081
2007-10-02,20.7379
2007-10-03,20.7512
2007-10-04,20.8395
2007-10-05,21.568
2007-10-08,21.4002
2007-10-09,21.5106
2007-10-10,21.7577
2007-10-11,19.5767
2007-10-12,19.8857
2007-10-15,19.5899
2007-10-16,19.4134
2007-10-17,18.9366
2007-10-18,18.8747
2007-10-19,18.4244
2007-10-22,18.9983
2007-10-23,18.8615
2007-10-24,19.0646
2007-10-25,19.1131
2007-10-26,19.0381
2007-10-29,19.016
2007-10-30,19.4398
2007-10-31,19.6209
2007-11-01,18.9454
2007-11-02,19.356
2007-11-05,18.8792
2007-11-06,19.0734
2007-11-07,18.3625
2007-11-08,18.4818
2007-11-09,17.7356
2007-11-12,17.6517
2007-11-13,17.7488
2007-11-14,17.5678
2007-11-15,17.6826
2007-11-16,17.2897
2007-11-19,16.7378
2007-11-20,16.751
2007-11-21,16.8658
2007-11-23,16.9851
2007-11-26,16.6759
2007-11-27,17.1087
2007-11-28,17.9255
2007-11-29,17.5811
2007-11-30,17.5237
2007-12-03,17.6605
2007-12-04,17.7179
2007-12-05,18.4773
2007-12-06,18.7025
2007-12-07,18.7908
2007-12-10,19.4708
2007-12-11,18.6761
2007-12-12,18.5215
2007-12-13,19.2103
2007-12-14,18.7997
2007-12-17,17.9342
2007-12-18,18.1904
2007-12-19,18.1551
2007-12-20,18.3449
2007-12-21,18.5171
2007-12-24,18.8173
2007-12-26,18.6716
2007-12-27,18.0535
2007-12-28,17.9916
2007-12-31,17.8283
2008-01-02,17.2146
2008-01-03,16.9938
2008-01-04,16.6053
2008-01-07,16.4641
2008-01-08,15.7488
2008-01-09,15.974
2008-01-10,15.9342
2008-01-11,15.3161
2008-01-14,15.9299
2008-01-15,15.7355
2008-01-16,15.5325
2008-01-17,14.645
2008-01-18,14.7863
2008-01-22,16.6142
2008-01-23,17.612
2008-01-24,17.7621
2008-01-25,17.3073
2008-01-28,17.6252
2008-01-29,17.7092
2008-01-30,17.6341
2008-01-31,17.8019
2008-02-01,18.5524
2008-02-04,18.133
2008-02-05,17.6164
2008-02-06,17.2764
2008-02-07,18.005
2008-02-08,18.0005
2008-02-11,18.5613
2008-02-12,18.3846
2008-02-13,18.9851
2008-02-14,18.4199
2008-02-15,18.1374
2008-02-19,18.2125
2008-02-20,18.8615
2008-02-21,18.3459
2008-02-22,18.5591
2008-02-25,19.0476
2008-02-26,19.3496
2008-02-27,19.2475
2008-02-28,18.7501
2008-02-29,18.0795
2008-03-03,18.0928
2008-03-04,17.9863
2008-03-05,18.3193
2008-03-06,17.4355
2008-03-07,17.4222
2008-03-10,16.765
2008-03-11,17.4622
2008-03-12,18.0084
2008-03-13,18.5369
2008-03-14,18.6257
2008-03-17,18.608
2008-03-18,18.9633
2008-03-19,19.1942
2008-03-20,19.998
2008-03-24,20.7219
2008-03-25,20.8063
2008-03-26,20.5576
2008-03-27,20.3488
2008-03-28,20.2733
2008-03-31,20.3666
2008-04-01,20.9174
2008-04-02,21.2371
2008-04-03,21.4458
2008-04-04,21.2727
2008-04-07,21.4014
2008-04-08,21.7034
2008-04-09,20.8152
2008-04-10,21.1838
2008-04-11,22.0809
2008-04-14,21.699
2008-04-15,21.619
2008-04-16,22.1342
2008-04-17,21.9921
2008-04-18,22.2052
2008-04-21,22.223
2008-04-22,21.7433
2008-04-23,21.6678
2008-04-24,21.7656
2008-04-25,22.0098
2008-04-28,22.2719
2008-04-29,21.8988
2008-04-30,21.6723
2008-05-01,22.0454
2008-05-02,23.0002
2008-05-05,22.6982
2008-05-06,22.4895
2008-05-07,22.1519
2008-05-08,22.4051
2008-05-09,22.1076
2008-05-12,22.6671
2008-05-13,22.5783
2008-05-14,22.5383
2008-05-15,22.9468
2008-05-16,22.6315
2008-05-19,21.6856
2008-05-20,21.579
2008-05-21,20.9084
2008-05-22,20.4733
2008-05-23,20.1845
2008-05-27,20.6819
2008-05-28,21.095
2008-05-29,21.5258
2008-05-30,21.9254
2008-06-02,21.2415
2008-06-03,21.8721
2008-06-04,22.1786
2008-06-05,22.5694
2008-06-06,21.6812
2008-06-09,21.6323
2008-06-10,21.4592
2008-06-11,20.7486
2008-06-12,21.1705
2008-06-13,21.5035
2008-06-16,21.7433
2008-06-17,21.2904
2008-06-18,21.4769
2008-06-19,22.1431
2008-06-20,21.6278
2008-06-23,21.2948
2008-06-24,21.055
2008-06-25,21.0506
2008-06-26,19.6161
2008-06-27,19.8249
2008-06-30,19.1587
2008-07-01,19.4251
2008-07-02,18.79
2008-07-03,18.9855
2008-07-07,19.4829
2008-07-08,19.9225
2008-07-09,19.9492
2008-07-10,20.1623
2008-07-11,19.5584
2008-07-14,19.847
2008-07-15,19.958
2008-07-16,20.6376
2008-07-17,21.8899
2008-07-18,21.9388
2008-07-21,21.3525
2008-07-22,22.1164
2008-07-23,21.9166
2008-07-24,21.3037
2008-07-25,21.468
2008-07-28,20.7574
2008-07-29,21.9831
2008-07-30,22.2052
2008-07-31,21.7745
2008-08-01,21.4902
2008-08-04,21.317
2008-08-05,21.5168
2008-08-06,22.2008
2008-08-07,21.8678
2008-08-08,22.4317
2008-08-11,22.9602
2008-08-12,22.565
2008-08-13,22.3874
2008-08-14,22.3694
2008-08-15,22.6999
2008-08-18,22.7534
2008-08-19,22.4409
2008-08-20,22.423
2008-08-21,22.4631
2008-08-22,22.9722
2008-08-25,22.1596
2008-08-26,22.624
2008-08-27,22.9632
2008-08-28,23.7446
2008-08-29,23.1776
2008-09-02,23.2847
2008-09-03,23.3339
2008-09-04,22.6909
2008-09-05,22.6909
2008-09-08,23.4946
2008-09-09,23.2981
2008-09-10,23.4991
2008-09-11,24.1108
2008-09-12,23.9456
2008-09-15,23.5884
2008-09-16,24.7492
2008-09-17,24.1732
2008-09-18,24.1689
2008-09-19,23.8964
2008-09-22,23.4008
2008-09-23,23.2892
2008-09-24,22.9231
2008-09-25,23.0615
2008-09-26,22.4945
2008-09-29,21.0522
2008-09-30,21.9944
2008-10-01,20.2129
2008-10-02,19.1591
2008-10-03,18.6635
2008-10-06,18.0518
2008-10-07,16.5561
2008-10-08,16.4176
2008-10-09,16.3552
2008-10-10,16.6454
2008-10-13,18.0652
2008-10-14,17.6812
2008-10-15,15.7702
2008-10-16,16.4847
2008-10-17,16.9312
2008-10-20,17.7348
2008-10-21,16.6185
2008-10-22,15.4487
2008-10-23,15.4175
2008-10-24,14.2968
2008-10-27,14.2745
2008-10-28,16.181
2008-10-29,17.5429
2008-10-30,17.8018
2008-10-31,18.0206
2008-11-03,18.4179
2008-11-04,18.7127
2008-11-05,16.4668
2008-11-06,15.5515
2008-11-07,16.2836
2008-11-10,16.1141
2008-11-11,16.0739
2008-11-12,14.6942
2008-11-13,16.315
2008-11-14,14.8817
2008-11-17,14.712
2008-11-18,15.2568
2008-11-19,14.4888
2008-11-20,14.4531
2008-11-21,15.8685
2008-11-24,16.6811
2008-11-25,16.757
2008-11-26,17.0606
2008-11-28,17.1945
2008-12-01,15.1318
2008-12-02,15.1094
2008-12-03,15.0154
2008-12-04,14.7498
2008-12-05,16.0461
2008-12-08,16.4062
2008-12-09,16.0146
2008-12-10,15.668
2008-12-11,14.4122
2008-12-12,14.3492
2008-12-15,14.5338
2008-12-16,15.551
2008-12-17,15.3574
2008-12-18,15.2494
2008-12-19,15.3079
2008-12-22,15.0199
2008-12-23,14.9748
2008-12-24,15.2044
2008-12-26,15.3214
2008-12-29,14.5247
2008-12-30,15.1143
2008-12-31,15.677
2009-01-02,16.4287
2009-01-05,16.3747
2009-01-06,16.2216
2009-01-07,15.7895
2009-01-08,15.0739
2009-01-09,14.8578
2009-01-12,14.6913
2009-01-13,14.7633
2009-01-14,14.2907
2009-01-15,14.9839
2009-01-16,14.9614
2009-01-20,14.9028
2009-01-21,14.6238
2009-01-22,14.5158
2009-01-23,14.6372
2009-01-26,14.6687
2009-01-27,15.551
2009-01-28,16.0776
2009-01-29,15.6815
2009-01-30,15.2854
2009-02-02,15.4519
2009-02-03,15.9335
2009-02-04,15.4159
2009-02-05,15.569
2009-02-06,16.5952
2009-02-09,16.8833
2009-02-10,16.2216
2009-02-11,15.6491
2009-02-12,16.0218
2009-02-13,15.7173
2009-02-17,14.9673
2009-02-18,15.4854
2009-02-19,14.7583
2009-02-20,14.5946
2009-02-23,13.4811
2009-02-24,14.1219
2009-02-25,13.8537
2009-02-26,13.6947
2009-02-27,13.7083
2009-03-02,12.972
2009-03-03,13.2992
2009-03-04,12.8811
2009-03-05,12.2675
2009-03-06,11.9857
2009-03-09,11.9038
2009-03-10,12.772
2009-03-11,13.0038
2009-03-12,13.5538
2009-03-13,13.3356
2009-03-16,12.6356
2009-03-17,12.9947
2009-03-18,13.3265
2009-03-19,13.3856
2009-03-20,13.281
2009-03-23,14.4491
2009-03-24,14.7537
2009-03-25,14.7128
2009-03-26,15.1219
2009-03-27,14.881
2009-03-30,14.4992
2009-03-31,14.6219
2009-04-01,14.9764
2009-04-02,16.099
2009-04-03,16.7763
2009-04-06,16.9354
2009-04-07,16.3263
2009-04-08,16.4717
2009-04-09,17.4171
2009-04-13,17.3308
2009-04-14,15.8491
2009-04-15,16.0127
2009-04-16,16.2354
2009-04-17,16.1945
2009-04-20,15.6809
2009-04-21,15.9764
2009-04-22,16.1354
2009-04-23,16.0263
2009-04-24,16.9581
2009-04-27,16.7218
2009-04-28,16.6036
2009-04-29,17.3354
2009-04-30,17.3899
2009-05-01,17.0717
2009-05-04,17.5627
2009-05-05,16.8172
2009-05-06,16.399
2009-05-07,16.4172
2009-05-08,16.6627
2009-05-11,16.0854
2009-05-12,16.1309
2009-05-13,15.1536
2009-05-14,14.9446
2009-05-15,15.2855
2009-05-18,15.5401
2009-05-19,15.1946
2009-05-20,14.9673
2009-05-21,14.5991
2009-05-22,14.6628
2009-05-26,15.4854
2009-05-27,14.881
2009-05-28,14.9446
2009-05-29,14.981
2009-06-01,16.4354
2009-06-02,16.3718
2009-06-03,16.0081
2009-06-04,15.7446
2009-06-05,15.5627
2009-06-08,15.7446
2009-06-09,16.2127
2009-06-10,16.2991
2009-06-11,16.2446
2009-06-12,15.7582
2009-06-15,15.2037
2009-06-16,15.1855
2009-06-17,15.3173
2009-06-18,15.3355
2009-06-19,15.1037
2009-06-22,14.6401
2009-06-23,14.6992
2009-06-24,14.99
2009-06-25,15.3082
2009-06-26,15.1764
2009-06-29,15.2582
2009-06-30,15.0719
2009-07-01,14.9764
2009-07-02,14.5174
2009-07-06,14.281
2009-07-07,13.8946
2009-07-08,14.1628
2009-07-09,13.9537
2009-07-10,14.4447
2009-07-13,14.2719
2009-07-14,14.381
2009-07-15,14.6628
2009-07-16,14.9537
2009-07-17,15.0173
2009-07-20,15.4628
2009-07-21,15.5173
2009-07-22,15.64
2009-07-23,16.0764
2009-07-24,16.2218
2009-07-27,16.2127
2009-07-28,16.1218
2009-07-29,16.0627
2009-07-30,16.1309
2009-07-31,16.1445
2009-08-03,16.9081
2009-08-04,17.0899
2009-08-05,16.6217
2009-08-06,16.7445
2009-08-07,17.5445
2009-08-10,17.1854
2009-08-11,16.999
2009-08-12,17.1035
2009-08-13,16.9427
2009-08-14,16.8876
2009-08-17,16.3184
2009-08-18,16.4745
2009-08-19,16.5342
2009-08-20,16.6673
2009-08-21,17.0391
2009-08-24,16.7131
2009-08-25,16.7407
2009-08-26,16.7958
2009-08-27,16.8876
2009-08-28,16.8004
2009-08-31,16.626
2009-09-01,16.0568
2009-09-02,15.8548
2009-09-03,16.727
2009-09-04,17.0529
2009-09-08,17.0529
2009-09-09,17.1125
2009-09-10,17.1079
2009-09-11,17.3512
2009-09-14,17.5945
2009-09-15,17.7735
2009-09-16,18.0168
2009-09-17,17.9801
2009-09-18,17.9296
2009-09-21,17.948
2009-09-22,18.4116
2009-09-23,18.1867
2009-09-24,17.9296
2009-09-25,17.7368
2009-09-28,18.0077
2009-09-29,17.8102
2009-09-30,17.7598
2009-10-01,17.0207
2009-10-02,16.7866
2009-10-05,17.0942
2009-10-06,17.3512
2009-10-07,17.2227
2009-10-08,17.5578
2009-10-09,18.104
2009-10-12,17.5669
2009-10-13,17.925
2009-10-14,18.0581
2009-10-15,18.1453
2009-10-16,17.7965
2009-10-19,17.8516
2009-10-20,17.6175
2009-10-21,17.3787
2009-10-22,17.5165
2009-10-23,17.2502
2009-10-26,17.0482
2009-10-27,16.7591
2009-10-28,16.447
2009-10-29,16.5616
2009-10-30,15.8135
2009-11-02,16.1715
2009-11-03,16.4331
2009-11-04,16.3276
2009-11-05,16.7224
2009-11-06,16.6903
2009-11-09,17.0529
2009-11-10,17.0069
2009-11-11,17.085
2009-11-12,16.8509
2009-11-13,16.9518
2009-11-16,17.1951
2009-11-17,17.2686
2009-11-18,17.4063
2009-11-19,17.1217
2009-11-20,16.9748
2009-11-23,17.3053
2009-11-24,17.1768
2009-11-25,17.3466
2009-11-27,16.9932
2009-11-30,17.0069
2009-12-01,17.0575
2009-12-02,17.5302
2009-12-03,17.3558
2009-12-04,17.9066
2009-12-07,17.7414
2009-12-08,17.6404
2009-12-09,17.7505
2009-12-10,17.8286
2009-12-11,17.9204
2009-12-14,18.0856
2009-12-15,18.0627
2009-12-16,18.2234
2009-12-17,18.2601
2009-12-18,18.3382
2009-12-21,18.7467
2009-12-22,18.8752
2009-12-23,19.0726
2009-12-24,19.1506
2009-12-28,19.3847
2009-12-29,19.2608
2009-12-30,19.2562
2009-12-31,19.123
2010-01-04,19.2975
2010-01-05,19.6877
2010-01-06,20.9913
2010-01-07,21.3034
2010-01-08,21.5651
2010-01-11,21.1473
2010-01-12,21.129
2010-01-13,21.3906
2010-01-14,21.2391
2010-01-15,21.028
2010-01-19,20.5001
2010-01-20,20.3028
2010-01-21,19.9631
2010-01-22,19.5132
2010-01-25,19.5775
2010-01-26,19.3434
2010-01-27,19.3985
2010-01-28,19.0496
2010-01-29,19.0542
2010-02-01,19.0404
2010-02-02,19.752
2010-02-03,19.7611
2010-02-04,19.3434
2010-02-05,19.2608
2010-02-08,18.889
2010-02-09,19.4536
2010-02-10,19.2313
2010-02-11,19.5418
2010-02-12,19.3703
2010-02-16,19.9125
2010-02-17,19.9959
2010-02-18,20.2323
2010-02-19,20.3435
2010-02-22,20.4083
2010-02-23,20.3295
2010-02-24,20.4963
2010-02-25,20.5381
2010-02-26,20.5659
2010-03-01,20.7698
2010-03-02,20.7605
2010-03-03,20.8485
2010-03-04,20.8764
2010-03-05,21.1776
2010-03-08,21.0756
2010-03-09,20.9876
2010-03-10,20.9737
2010-03-11,20.9459
2010-03-12,20.9644
2010-03-15,21.2749
2010-03-16,21.4881
2010-03-17,21.9793
2010-03-18,21.9608
2010-03-19,21.7476
2010-03-22,22.4288
2010-03-23,22.73
2010-03-24,22.401
2010-03-25,22.2295
2010-03-26,22.3778
2010-03-29,22.4658
2010-03-30,22.452
2010-03-31,22.2434
2010-04-01,22.4937
2010-04-05,23.0544
2010-04-06,23.1887
2010-04-07,23.9812
2010-04-08,23.5132
2010-04-09,23.6707
2010-04-12,24.097
2010-04-13,24.5188
2010-04-14,24.7366
2010-04-15,25.4919
2010-04-16,25.1768
2010-04-19,25.4456
2010-04-20,25.1119
2010-04-21,25.1768
2010-04-22,25.8348
2010-04-23,26.0618
2010-04-26,26.0017
2010-04-27,25.1582
2010-04-28,25.2602
2010-04-29,25.9738
2010-04-30,25.3389
2010-05-03,26.1361
2010-05-04,25.0146
2010-05-05,24.6995
2010-05-06,23.8654
2010-05-07,23.337
2010-05-10,24.7412
2010-05-11,25.1582
2010-05-12,25.6634
2010-05-13,25.5243
2010-05-14,24.8339
2010-05-17,24.8292
2010-05-18,24.375
2010-05-19,24.2082
2010-05-20,22.8505
2010-05-21,23.2861
2010-05-24,22.9386
2010-05-25,22.9478
2010-05-26,22.8968
2010-05-27,23.819
2010-05-28,23.3973
2010-06-01,23.0498
2010-06-02,23.9858
2010-06-03,24.0831
2010-06-04,22.8691
2010-06-07,22.3871
2010-06-08,22.7115
2010-06-09,22.7949
2010-06-10,23.87
2010-06-11,23.9858
2010-06-14,24.0924
2010-06-15,24.7551
2010-06-16,24.8384
2010-06-17,25.098
2010-06-18,25.3668
2010-06-21,25.3204
2010-06-22,24.4353
2010-06-23,24.7041
2010-06-24,24.0831
2010-06-25,24.2453
2010-06-28,24.1851
2010-06-29,23.3973
2010-06-30,23.2861
2010-07-01,23.0822
2010-07-02,22.8273
2010-07-06,22.6096
2010-07-07,23.2722
2010-07-08,23.7448
2010-07-09,24.1295
2010-07-12,24.3426
2010-07-13,23.3695
2010-07-14,23.5317
2010-07-15,23.0683
2010-07-16,22.0998
2010-07-19,22.0906
2010-07-20,22.3361
2010-07-21,22.0071
2010-07-22,22.6512
2010-07-23,22.8691
2010-07-26,23.1517
2010-07-27,22.7579
2010-07-28,22.6281
2010-07-29,22.6929
2010-07-30,22.7532
2010-08-02,23.1749
2010-08-03,23.2119
2010-08-04,23.7124
2010-08-05,23.6985
2010-08-06,23.7077
2010-08-09,23.7819
2010-08-10,23.4622
2010-08-11,22.4473
2010-08-12,22.4798
2010-08-13,22.3269
2010-08-16,22.3175
2010-08-17,23.161
2010-08-18,23.2033
2010-08-19,22.362
2010-08-20,22.4508
2010-08-23,22.1938
2010-08-24,21.6096
2010-08-25,21.4507
2010-08-26,21.2545
2010-08-27,21.4928
2010-08-30,21.0908
2010-08-31,21.1236
2010-09-01,22.0162
2010-09-02,22.8574
2010-09-03,23.0537
2010-09-07,22.792
2010-09-08,23.2033
2010-09-09,23.5164
2010-09-10,23.7687
2010-09-13,24.1052
2010-09-14,24.1473
2010-09-15,24.1426
2010-09-16,23.8856
2010-09-17,24.1005
2010-09-20,24.3949
2010-09-21,24.3108
2010-09-22,24.3762
2010-09-23,24.2687
2010-09-24,24.923
2010-09-27,24.6706
2010-09-28,25.1661
2010-09-29,25.0258
2010-09-30,24.8903
2010-10-01,24.9604
2010-10-04,24.5865
2010-10-05,25.2221
2010-10-06,25.1801
2010-10-07,25.096
2010-10-08,25.4558
2010-10-11,25.5726
2010-10-12,24.3155
2010-10-13,24.6052
2010-10-14,24.6005
2010-10-15,24.3388
2010-10-18,24.2407
2010-10-19,24.1332
2010-10-20,24.4931
2010-10-21,24.7221
2010-10-22,24.7221
2010-10-25,24.5958
2010-10-26,24.4978
2010-10-27,23.965
2010-10-28,24.0023
2010-10-29,24.0771
2010-11-01,24.1893
2010-11-02,24.8062
2010-11-03,24.881
2010-11-04,25.1053
2010-11-05,25.1147
2010-11-08,24.8296
2010-11-09,24.7408
2010-11-10,24.9557
2010-11-11,24.9557
2010-11-12,24.451
2010-11-15,24.5772
2010-11-16,23.9136
2010-11-17,24.0771
2010-11-18,24.3155
2010-11-19,24.4791
2010-11-22,24.9027
2010-11-23,24.7944
2010-11-24,25.4068
2010-11-26,25.4493
2010-11-29,25.4398
2010-11-30,25.2654
2010-12-01,25.8779
2010-12-02,26.7871
2010-12-03,27.2394
2010-12-06,27.2394
2010-12-07,27.588
2010-12-08,27.5598
2010-12-09,27.4279
2010-12-10,27.8848
2010-12-13,27.7388
2010-12-14,27.7953
2010-12-15,27.8848
2010-12-16,27.8613
2010-12-17,28.0968
2010-12-20,28.0733
2010-12-21,28.1863
2010-12-22,28.0685
2010-12-23,27.9885
2010-12-27,28.1628
2010-12-28,28.0968
2010-12-29,28.2617
2010-12-30,28.3371
2010-12-31,28.2193
2011-01-03,28.6763
2011-01-04,28.2146
2011-01-05,28.3042
2011-01-06,27.9649
2011-01-07,27.8943
2011-01-10,27.8895
2011-01-11,27.9743
2011-01-12,27.6729
2011-01-13,27.6963
2011-01-14,28.2099
2011-01-18,28.714
2011-01-19,28.1204
2011-01-20,28.2052
2011-01-21,28.0403
2011-01-24,28.2665
2011-01-25,27.8943
2011-01-26,28.0262
2011-01-27,28.2429
2011-01-28,27.1829
2011-01-31,27.343
2011-02-01,28.0215
2011-02-02,27.7529
2011-02-03,28.4549
2011-02-04,29.0249
2011-02-07,29.2134
2011-02-08,29.4442
2011-02-09,29.5102
2011-02-10,29.807
2011-02-11,30.0533
2011-02-14,29.9251
2011-02-15,29.8444
2011-02-16,29.9916
2011-02-17,29.9536
2011-02-18,30.2195
2011-02-22,29.5121
2011-02-23,28.9612
2011-02-24,28.9232
2011-02-25,29.2271
2011-02-28,29.4931
2011-03-01,28.7712
2011-03-02,28.7617
2011-03-03,29.5737
2011-03-04,29.3649
2011-03-07,29.0514
2011-03-08,29.6449
2011-03-09,29.8207
2011-03-10,29.2651
2011-03-11,29.3791
2011-03-14,29.0847
2011-03-15,28.757
2011-03-16,28.2679
2011-03-17,28.7143
2011-03-18,28.9422
2011-03-21,29.4361
2011-03-22,29.3315
2011-03-23,29.5595
2011-03-24,29.8919
2011-03-25,30.0153
2011-03-28,29.9679
2011-03-29,30.362
2011-03-30,30.6089
2011-03-31,30.7752
2011-04-01,31.2594
2011-04-04,31.3877
2011-04-05,31.6868
2011-04-06,32.5938
2011-04-07,32.1712
2011-04-08,31.948
2011-04-11,31.9765
2011-04-12,30.6612
2011-04-13,30.8281
2011-04-14,30.9997
2011-04-15,31.0045
2011-04-18,30.3799
2011-04-19,30.3131
2011-04-20,30.9044
2011-04-21,31.2476
2011-04-25,31.1189
2011-04-26,31.5338
2011-04-27,32.0486
2011-04-28,31.9723
2011-04-29,31.9629
2011-05-02,31.8866
2011-05-03,31.5719
2011-05-04,31.5814
2011-05-05,31.4145
2011-05-06,31.6672
2011-05-09,31.8103
2011-05-10,32.082
2011-05-11,31.6577
2011-05-12,31.9485
2011-05-13,31.7721
2011-05-16,31.5814
2011-05-17,31.3049
2011-05-18,31.6243
2011-05-19,31.629
2011-05-20,31.3573
2011-05-23,30.8853
2011-05-24,30.8091
2011-05-25,31.3906
2011-05-26,31.4765
2011-05-27,31.3144
2011-05-31,31.61
2011-06-01,30.2274
2011-06-02,30.2941
2011-06-03,29.9318
2011-06-06,29.9032
2011-06-07,29.9127
2011-06-08,29.8364
2011-06-09,29.8841
2011-06-10,29.5504
2011-06-13,29.8651
2011-06-14,30.7995
2011-06-15,30.3799
2011-06-16,30.9521
2011-06-17,31.2382
2011-06-20,31.5432
2011-06-21,32.2489
2011-06-22,31.9533
2011-06-23,32.144
2011-06-24,31.8675
2011-06-27,32.6589
2011-06-28,33.9844
2011-06-29,34.3753
2011-06-30,34.3181
2011-07-01,34.9379
2011-07-05,34.8997
2011-07-06,34.7567
2011-07-07,34.833
2011-07-08,34.8997
2011-07-11,34.3181
2011-07-12,32.8496
2011-07-13,32.9069
2011-07-14,32.6875
2011-07-15,32.678
2011-07-18,32.0581
2011-07-19,32.8019
2011-07-20,32.5731
2011-07-21,33.0037
2011-07-22,32.7835
2011-07-25,32.8698
2011-07-26,32.3911
2011-07-27,31.8742
2011-07-28,32.4199
2011-07-29,32.2572
2011-08-01,31.4914
2011-08-02,30.2374
2011-08-03,31.2138
2011-08-04,29.9886
2011-08-05,30.2949
2011-08-08,28.2465
2011-08-09,29.8642
2011-08-10,28.6964
2011-08-11,30.4194
2011-08-12,30.9458
2011-08-15,31.3574
2011-08-16,31.0798
2011-08-17,30.6395
2011-08-18,28.6868
2011-08-19,28.5816
2011-08-22,28.8112
2011-08-23,29.8833
2011-08-24,30.2757
2011-08-25,29.6058
2011-08-26,30.783
2011-08-29,31.5871
2011-08-30,32.0657
2011-08-31,32.0082
2011-09-01,31.5392
2011-09-02,30.6873
2011-09-06,30.9075
2011-09-07,31.6254
2011-09-08,31.2616
2011-09-09,31.0128
2011-09-12,31.3765
2011-09-13,32.9081
2011-09-14,33.6929
2011-09-15,34.3151
2011-09-16,34.7458
2011-09-19,34.9181
2011-09-20,35.0808
2011-09-21,34.3342
2011-09-22,33.0803
2011-09-23,32.9654
2011-09-26,33.4153
2011-09-27,33.6259
2011-09-28,32.8123
2011-09-29,32.6878
2011-09-30,31.9221
2011-10-03,30.8692
2011-10-04,32.0561
2011-10-05,32.6305
2011-10-06,32.6496
2011-10-07,32.0848
2011-10-10,33.2717
2011-10-11,33.2621
2011-10-12,33.2048
2011-10-13,32.2667
2011-10-14,31.97
2011-10-17,31.8742
2011-10-18,32.7261
2011-10-19,32.64
2011-10-20,33.1473
2011-10-21,33.9705
2011-10-24,34.8064
2011-10-25,34.4124
2011-10-26,34.4798
2011-10-27,36.7669
2011-10-28,37.132
2011-10-31,36.7092
2011-11-01,35.7482
2011-11-02,36.738
2011-11-03,38.5735
2011-11-04,38.6216
2011-11-07,38.1891
2011-11-08,39.0347
2011-11-09,37.8335
2011-11-10,38.6119
2011-11-11,39.5633
2011-11-14,39.6305
2011-11-15,39.842
2011-11-16,39.2269
2011-11-17,38.3621
2011-11-18,38.4678
2011-11-21,37.9392
2011-11-22,37.8527
2011-11-23,37.1993
2011-11-25,37.0936
2011-11-28,38.266
2011-11-29,38.5639
2011-11-30,40.0053
2011-12-01,40.1207
2011-12-02,40.0053
2011-12-05,40.8222
2011-12-06,40.8894
2011-12-07,39.9477
2011-12-08,39.448
2011-12-09,40.4474
2011-12-12,39.4
2011-12-13,38.8041
2011-12-14,38.756
2011-12-15,39.1693
2011-12-16,39.842
2011-12-19,39.8804
2011-12-20,41.5525
2011-12-21,41.4372
2011-12-22,41.1681
2011-12-23,41.9657
2011-12-27,42.1868
2011-12-28,42.0138
2011-12-29,42.5807
2011-12-30,41.9369
2012-01-03,42.0618
2012-01-04,42.6096
2012-01-05,43.388
2012-01-06,43.4264
2012-01-09,43.4264
2012-01-10,43.2631
2012-01-11,43.4457
2012-01-12,44.0607
2012-01-13,44.7333
2012-01-17,44.964
2012-01-18,43.7628
2012-01-19,43.9261
2012-01-20,44.051
2012-01-23,44.3105
2012-01-24,44.9928
2012-01-25,44.9448
2012-01-26,44.9543
2012-01-27,44.9063
2012-01-30,44.9546
2012-01-31,45.0511
2012-02-01,45.3598
2012-02-02,45.3405
2012-02-03,46.5847
2012-02-06,46.3532
2012-02-07,46.3725
2012-02-08,47.1054
2012-02-09,46.5075
2012-02-10,46.7004
2012-02-13,48.8126
2012-02-14,49.3817
2012-02-15,48.7934
2012-02-16,48.9766
2012-02-17,48.9573
2012-02-21,48.9766
2012-02-22,49.4492
2012-02-23,50.0279
2012-02-24,50.1146
2012-02-27,50.6162
2012-02-28,50.4715
2012-02-29,50.7898
2012-03-01,51.0598
2012-03-02,51.2239
2012-03-05,51.4553
2012-03-06,50.3269
2012-03-07,50.9056
2012-03-08,50.9731
2012-03-09,50.9442
2012-03-12,50.9345
2012-03-13,51.4071
2012-03-14,50.9152
2012-03-15,50.7126
2012-03-16,50.3365
2012-03-19,50.1339
2012-03-20,51.0116
2012-03-21,52.0243
2012-03-22,51.7929
2012-03-23,51.7832
2012-03-26,52.5837
2012-03-27,52.6223
2012-03-28,52.2558
2012-03-29,52.3233
2012-03-30,52.1401
2012-04-02,52.6416
2012-04-03,51.4939
2012-04-04,51.1081
2012-04-05,51.0984
2012-04-09,49.7579
2012-04-10,47.1247
2012-04-11,47.8578
2012-04-12,47.0958
2012-04-13,47.0765
2012-04-16,46.5268
2012-04-17,47.3177
2012-04-18,46.8065
2012-04-19,45.8709
2012-04-20,46.5268
2012-04-23,44.7039
2012-04-24,44.5689
2012-04-25,45.4948
2012-04-26,45.5237
2012-04-27,45.9963
2012-04-30,45.2994
2012-05-01,45.4736
2012-05-02,45.9189
2012-05-03,44.3411
2012-05-04,42.928
2012-05-07,42.4537
2012-05-08,42.4537
2012-05-09,41.7955
2012-05-10,42.6667
2012-05-11,42.4343
2012-05-14,42.0181
2012-05-15,41.9988
2012-05-16,42.5214
2012-05-17,41.0405
2012-05-18,40.4888
2012-05-21,41.7762
2012-05-22,42.5795
2012-05-23,42.8215
2012-05-24,42.8989
2012-05-25,42.9764
2012-05-29,43.9831
2012-05-30,43.0925
2012-05-31,42.8215
2012-06-01,41.8439
2012-06-04,41.9794
2012-06-05,37.9237
2012-06-06,38.2142
2012-06-07,38.3206
2012-06-08,38.9594
2012-06-11,37.7011
2012-06-12,38.0786
2012-06-13,37.5463
2012-06-14,37.7689
2012-06-15,38.3302
2012-06-18,38.4271
2012-06-19,39.1434
2012-06-20,39.0175
2012-06-21,37.643
2012-06-22,37.6721
2012-06-25,37.4301
2012-06-26,37.343
2012-06-27,37.1204
2012-06-28,37.401
2012-06-29,38.9498
2012-07-02,37.7592
2012-07-03,38.8239
2012-07-05,39.9952
2012-07-06,39.3853
2012-07-09,39.2788
2012-07-10,38.5239
2012-07-11,38.5529
2012-07-12,40.9727
2012-07-13,41.8922
2012-07-16,41.5923
2012-07-17,41.9407
2012-07-18,43.4506
2012-07-19,43.8669
2012-07-20,42.5505
2012-07-23,42.6763
2012-07-24,41.4664
2012-07-25,41.6122
2012-07-26,42.3025
2012-07-27,42.9637
2012-07-30,42.6039
2012-07-31,41.9331
2012-08-01,41.0095
2012-08-02,41.3206
2012-08-03,41.9136
2012-08-06,41.5442
2012-08-07,42.2929
2012-08-08,41.6511
2012-08-09,41.6025
2012-08-10,40.922
2012-08-13,40.9803
2012-08-14,41.0873
2012-08-15,41.7776
2012-08-16,42.1665
2012-08-17,43.0803
2012-08-20,42.3998
2012-08-21,42.3707
2012-08-22,42.5165
2012-08-23,42.5554
2012-08-24,43.4498
2012-08-27,43.1387
2012-08-28,42.9345
2012-08-29,42.7109
2012-08-30,41.8845
2012-08-31,41.9914
2012-09-04,42.1665
2012-09-05,41.0775
2012-09-06,40.922
2012-09-07,40.9609
2012-09-10,41.0775
2012-09-11,41.3789
2012-09-12,41.4956
2012-09-13,41.6998
2012-09-14,42.9734
2012-09-17,42.7206
2012-09-18,42.0887
2012-09-19,42.5262
2012-09-20,42.6818
2012-09-21,42.3707
2012-09-24,42.322
2012-09-25,42.0887
2012-09-26,41.3789
2012-09-27,41.6317
2012-09-28,41.7776
2012-10-01,43.3332
2012-10-02,43.0706
2012-10-03,43.0998
2012-10-04,43.2165
2012-10-05,42.9248
2012-10-08,42.7692
2012-10-09,41.5734
2012-10-10,41.1067
2012-10-11,44.6457
2012-10-12,44.1012
2012-10-15,44.3248
2012-10-16,43.7026
2012-10-17,44.1693
2012-10-18,43.5081
2012-10-19,42.5165
2012-10-22,43.1776
2012-10-23,42.9345
2012-10-24,42.5165
2012-10-25,42.0574
2012-10-26,42.2235
2012-10-31,43.6498
2012-11-01,43.9819
2012-11-02,42.8291
2012-11-05,42.1844
2012-11-06,42.1159
2012-11-07,41.6763
2012-11-08,41.0316
2012-11-09,41.3734
2012-11-12,40.8264
2012-11-13,40.4552
2012-11-14,39.2731
2012-11-15,40.0253
2012-11-16,40.1132
2012-11-19,40.5138
2012-11-20,39.9178
2012-11-21,39.7909
2012-11-23,39.8299
2012-11-26,40.25
2012-11-27,39.9374
2012-11-28,40.0936
2012-11-29,41.2464
2012-11-30,41.0413
2012-12-03,41.1097
2012-12-04,41.2367
2012-12-05,40.9995
2012-12-06,41.2566
2012-12-07,41.6322
2012-12-10,41.5334
2012-12-11,42.522
2012-12-12,42.522
2012-12-13,42.4726
2012-12-14,42.611
2012-12-17,43.1943
2012-12-18,44.1236
2012-12-19,44.0247
2012-12-20,44.5191
2012-12-21,45.5868
2012-12-24,46.5063
2012-12-26,45.4385
2012-12-27,45.8736
2012-12-28,45.7253
2012-12-31,46.0614
2013-01-02,47.2478
2013-01-03,47.406
2013-01-04,47.4851
2013-01-07,47.228
2013-01-08,46.9709
2013-01-09,47.0006
2013-01-10,46.0021
2013-01-11,46.0812
2013-01-14,45.9921
2013-01-15,46.5261
2013-01-16,46.4074
2013-01-17,46.4568
2013-01-18,48.0486
2013-01-22,47.2774
2013-01-23,47.06
2013-01-24,48.0189
2013-01-25,48.3452
2013-01-28,48.5429
2013-01-29,48.968
2013-01-30,48.869
2013-01-31,49.2554
2013-02-01,50.1767
2013-02-04,49.1959
2013-02-05,49.6318
2013-02-06,49.513
2013-02-07,49.3346
2013-02-08,50.1569
2013-02-11,50.2956
2013-02-12,50.5234
2013-02-13,51.5239
2013-02-14,52.0044
2013-02-15,52.2571
2013-02-19,52.683
2013-02-20,51.7122
2013-02-21,50.4046
2013-02-22,50.9791
2013-02-25,50.4541
2013-02-26,50.3798
2013-02-27,51.8113
2013-02-28,51.1772
2013-03-01,51.2169
2013-03-04,51.316
2013-03-05,51.0385
2013-03-06,50.8404
2013-03-07,50.6323
2013-03-08,51.0484
2013-03-11,50.7909
2013-03-12,50.4144
2013-03-13,50.5532
2013-03-14,50.4442
2013-03-15,50.3351
2013-03-18,50.0182
2013-03-19,50.256
2013-03-20,50.989
2013-03-21,50.0776
2013-03-22,50.9097
2013-03-25,49.929
2013-03-26,50.0083
2013-03-27,50.0578
2013-03-28,50.8998
2013-04-01,49.2752
2013-04-02,49.2653
2013-04-03,48.1062
2013-04-04,48.869
2013-04-05,48.77
2013-04-08,49.7606
2013-04-09,50.3253
2013-04-10,48.6709
2013-04-11,48.3935
2013-04-12,48.9879
2013-04-15,47.7198
2013-04-16,48.7898
2013-04-17,47.5812
2013-04-18,46.858
2013-04-19,47.7198
2013-04-22,48.1557
2013-04-23,48.7105
2013-04-24,48.9879
2013-04-25,48.869
2013-04-26,49.0275
2013-04-29,49.394
2013-04-30,48.7771
2013-05-01,47.5637
2013-05-02,47.7129
2013-05-03,47.5736
2013-05-06,47.5935
2013-05-07,48.3494
2013-05-08,48.1505
2013-05-09,48.3892
2013-05-10,50.4879
2013-05-13,50.7167
2013-05-14,51.5621
2013-05-15,51.7014
2013-05-16,50.5377
2013-05-17,50.9156
2013-05-20,50.5377
2013-05-21,51.4826
2013-05-22,50.846
2013-05-23,51.6119
2013-05-24,51.582
2013-05-28,51.8605
2013-05-29,51.7113
2013-05-30,51.4328
2013-05-31,52.1092
2013-06-03,51.6417
2013-06-04,50.6968
2013-06-05,47.4543
2013-06-06,47.2553
2013-06-07,48.1704
2013-06-10,48.1804
2013-06-11,48.2599
2013-06-12,47.4742
2013-06-13,48.3494
2013-06-14,47.4045
2013-06-17,46.9271
2013-06-18,46.6188
2013-06-19,46.1115
2013-06-20,44.7588
2013-06-21,44.8185
2013-06-24,45.0472
2013-06-25,45.2661
2013-06-26,45.8728
2013-06-27,46.6784
2013-06-28,45.6739
2013-07-01,45.6042
2013-07-02,45.6042
2013-07-03,45.0472
2013-07-05,45.5247
2013-07-08,45.6938
2013-07-09,46.8078
2013-07-10,45.5048
2013-07-11,46.3502
2013-07-12,46.8575
2013-07-15,46.7083
2013-07-16,46.8078
2013-07-17,46.7481
2013-07-18,46.9569
2013-07-19,46.5193
2013-07-22,46.6685
2013-07-23,46.3801
2013-07-24,45.43
2013-07-25,46.25
2013-07-26,46.65
2013-07-29,47.03
2013-07-30,48.34
2013-07-31,49.05
2013-08-01,50.1
2013-08-02,50.23
2013-08-05,49.25
2013-08-06,49.0
2013-08-07,47.76
2013-08-08,47.51
2013-08-09,47.53
