date,close_price
1998-01-02,11.5016
1998-01-05,11.6029
1998-01-06,11.6029
1998-01-07,11.7042
1998-01-08,11.8299
1998-01-09,11.2463
1998-01-12,11.3719
1998-01-13,11.4003
1998-01-14,11.7042
1998-01-15,11.8542
1998-01-16,12.3121
1998-01-20,13.147
1998-01-21,12.993
1998-01-22,13.3496
1998-01-23,12.7417
1998-01-26,12.9687
1998-01-27,12.766
1998-01-28,12.993
1998-01-29,13.07
1998-01-30,12.92
1998-02-02,13.1713
1998-02-03,13.4266
1998-02-04,13.4996
1998-02-05,13.6009
1998-02-06,13.7306
1998-02-09,13.6009
1998-02-10,13.6009
1998-02-11,13.9332
1998-02-12,13.7792
1998-02-13,13.7792
1998-02-17,13.7306
1998-02-18,13.9332
1998-02-19,13.6293
1998-02-20,13.6779
1998-02-23,14.2372
1998-02-24,14.2088
1998-02-25,14.6668
1998-02-26,14.4398
1998-02-27,14.4641
1998-03-02,14.4398
1998-03-03,14.6141
1998-03-04,14.7924
1998-03-05,14.8167
1998-03-06,14.9707
1998-03-09,14.9464
1998-03-10,14.9707
1998-03-11,14.7681
1998-03-12,15.1582
1998-03-13,14.8535
1998-03-16,15.0079
1998-03-17,14.9551
1998-03-18,14.8291
1998-03-19,14.5773
1998-03-20,14.5773
1998-03-23,14.7032
1998-03-24,14.9551
1998-03-25,15.0079
1998-03-26,15.1339
1998-03-27,15.0323
1998-03-30,15.2598
1998-03-31,15.337
1998-04-01,15.5645
1998-04-02,15.6417
1998-04-03,15.7189
1998-04-06,15.337
1998-04-07,14.8535
1998-04-08,14.7276
1998-04-09,15.211
1998-04-13,14.5773
1998-04-14,14.626
1998-04-15,14.6504
1998-04-16,14.4757
1998-04-17,14.4229
1998-04-20,14.3985
1998-04-21,14.6016
1998-04-22,14.6504
1998-04-23,14.3457
1998-04-24,14.171
1998-04-27,13.8906
1998-04-28,13.8906
1998-04-29,13.9922
1998-04-30,13.8378
1998-05-01,14.5285
1998-05-04,14.7804
1998-05-05,14.6748
1998-05-06,15.2354
1998-05-07,15.3898
1998-05-08,14.9348
1998-05-11,14.4229
1998-05-12,14.4716
1998-05-13,14.8291
1998-05-14,14.4229
1998-05-15,14.4229
1998-05-18,14.3741
1998-05-19,14.4229
1998-05-20,14.2685
1998-05-21,13.5128
1998-05-22,13.6591
1998-05-26,12.7978
1998-05-27,12.7978
1998-05-28,13.5616
1998-05-29,13.4559
1998-06-01,13.0009
1998-06-02,12.7978
1998-06-03,12.9521
1998-06-04,13.204
1998-06-05,13.4559
1998-06-08,13.3584
1998-06-09,14.0653
1998-06-10,13.9191
1998-06-11,14.0046
1998-06-12,14.1594
1998-06-15,13.4914
1998-06-16,13.6462
1998-06-17,14.4609
1998-06-18,14.7705
1998-06-19,14.7134
1998-06-22,14.8193
1998-06-23,15.2267
1998-06-24,15.4792
1998-06-25,15.1778
1998-06-26,15.023
1998-06-29,15.3815
1998-06-30,15.023
1998-07-01,14.8682
1998-07-02,15.2267
1998-07-06,16.5465
1998-07-07,16.2939
1998-07-08,16.4487
1998-07-09,17.2146
1998-07-10,17.1575
1998-07-13,17.2146
1998-07-14,16.9538
1998-07-15,17.2634
1998-07-16,17.3612
1998-07-17,17.3123
1998-07-20,17.2634
1998-07-21,16.905
1998-07-22,16.7013
1998-07-23,16.7502
1998-07-24,16.2939
1998-07-27,15.6829
1998-07-28,15.5281
1998-07-29,15.0719
1998-07-30,15.3245
1998-07-31,14.8682
1998-08-03,14.5668
1998-08-04,13.5973
1998-08-05,13.2877
1998-08-06,14.6645
1998-08-07,14.6645
1998-08-10,14.3631
1998-08-11,13.801
1998-08-12,14.6157
1998-08-13,14.6645
1998-08-14,14.2572
1998-08-17,14.0046
1998-08-18,14.1024
1998-08-19,14.1594
1998-08-20,13.4425
1998-08-21,12.3752
1998-08-24,12.2693
1998-08-25,11.862
1998-08-26,11.8131
1998-08-27,11.1532
1998-08-28,10.9984
1998-08-31,10.3874
1998-09-01,11.2021
1998-09-02,11.7153
1998-09-03,12.4241
1998-09-04,11.919
1998-09-08,12.1227
1998-09-09,12.2205
1998-09-10,11.6094
1998-09-11,11.8015
1998-09-14,12.2592
1998-09-15,12.3082
1998-09-16,12.6678
1998-09-17,13.4851
1998-09-18,13.4361
1998-09-21,13.3298
1998-09-22,13.4361
1998-09-23,14.3024
1998-09-24,13.6894
1998-09-25,13.3298
1998-09-28,13.0764
1998-09-29,12.6188
1998-09-30,12.8721
1998-10-01,12.6188
1998-10-02,12.3654
1998-10-05,12.1039
1998-10-06,12.6678
1998-10-07,13.0764
1998-10-08,12.3654
1998-10-09,13.0764
1998-10-12,13.8447
1998-10-13,13.5341
1998-10-14,14.0
1998-10-15,14.9153
1998-10-16,14.8173
1998-10-19,14.5557
1998-10-20,14.4577
1998-10-21,13.9428
1998-10-22,14.76
1998-10-23,14.4577
1998-10-26,13.6894
1998-10-27,13.5913
1998-10-28,13.7384
1998-10-29,14.2533
1998-10-30,14.76
1998-11-02,15.324
1998-11-03,14.9153
1998-11-04,15.2259
1998-11-05,15.4792
1998-11-06,15.2259
1998-11-09,14.711
1998-11-10,14.8663
1998-11-11,14.9153
1998-11-12,14.711
1998-11-13,15.0216
1998-11-16,15.6836
1998-11-17,15.5283
1998-11-18,15.4792
1998-11-19,15.6836
1998-11-20,15.7326
1998-11-23,15.5773
1998-11-24,15.7326
1998-11-25,15.6836
1998-11-27,15.986
1998-11-30,16.3946
1998-12-01,16.7542
1998-12-02,16.1412
1998-12-03,16.3456
1998-12-04,16.1412
1998-12-07,16.5008
1998-12-08,16.2475
1998-12-09,16.2965
1998-12-10,16.0922
1998-12-11,15.4657
1998-12-14,14.794
1998-12-15,15.564
1998-12-16,15.4657
1998-12-17,15.7688
1998-12-18,16.0227
1998-12-21,15.4657
1998-12-22,15.8179
1998-12-23,16.2848
1998-12-24,16.1292
1998-12-28,15.8753
1998-12-29,17.104
1998-12-30,17.2023
1998-12-31,18.2262
1999-01-04,17.3579
1999-01-05,17.5136
1999-01-06,17.3579
1999-01-07,17.5136
1999-01-08,16.8992
1999-01-11,16.08
1999-01-12,16.1292
1999-01-13,16.2848
1999-01-14,15.6131
1999-01-15,15.5148
1999-01-19,15.2609
1999-01-20,15.7196
1999-01-21,15.7688
1999-01-22,15.7688
1999-01-25,15.5148
1999-01-26,15.8179
1999-01-27,15.6705
1999-01-28,15.6705
1999-01-29,15.4083
1999-02-01,15.4657
1999-02-02,15.4657
1999-02-03,15.8179
1999-02-04,16.0227
1999-02-05,15.7688
1999-02-08,15.9244
1999-02-09,14.7448
1999-02-10,15.564
1999-02-11,15.6705
1999-02-12,15.4083
1999-02-16,15.7688
1999-02-17,15.9736
1999-02-18,15.6705
1999-02-19,15.4657
1999-02-22,16.1783
1999-02-23,16.6944
1999-02-24,16.3831
1999-02-25,16.5388
1999-02-26,16.3831
1999-03-01,16.4323
1999-03-02,16.6371
1999-03-03,16.5388
1999-03-04,17.3088
1999-03-05,18.1279
1999-03-08,17.9723
1999-03-09,17.7184
1999-03-10,17.3088
1999-03-11,17.1938
1999-03-12,17.3498
1999-03-15,17.7029
1999-03-16,17.7029
1999-03-17,17.1938
1999-03-18,16.8818
1999-03-19,16.0607
1999-03-22,16.2167
1999-03-23,16.8818
1999-03-24,17.0378
1999-03-25,17.6537
1999-03-26,17.8097
1999-03-29,18.68
1999-03-30,18.8853
1999-03-31,18.8853
1999-04-01,19.3451
1999-04-05,20.429
1999-04-06,20.6835
1999-04-07,19.7064
1999-04-08,19.8624
1999-04-09,20.117
1999-04-12,20.3222
1999-04-13,20.0677
1999-04-14,19.8131
1999-04-15,19.9117
1999-04-16,19.6571
1999-04-19,19.6079
1999-04-20,19.0906
1999-04-21,19.4026
1999-04-22,19.2959
1999-04-23,19.3451
1999-04-26,18.9346
1999-04-27,19.8131
1999-04-28,20.117
1999-04-29,20.273
1999-04-30,20.0184
1999-05-03,20.7328
1999-05-04,20.273
1999-05-05,20.3222
1999-05-06,20.117
1999-05-07,20.4782
1999-05-10,20.1662
1999-05-11,20.2237
1999-05-12,19.8624
1999-05-13,19.8624
1999-05-14,19.5011
1999-05-17,19.5504
1999-05-18,19.9609
1999-05-19,19.7557
1999-05-20,20.1662
1999-05-21,19.7064
1999-05-24,18.6308
1999-05-25,18.2695
1999-05-26,17.9657
1999-05-27,18.0642
1999-05-28,18.2695
1999-06-01,18.2202
1999-06-02,18.2202
1999-06-03,19.5504
1999-06-04,19.7064
1999-06-07,19.6571
1999-06-08,19.7557
1999-06-09,19.5504
1999-06-10,19.5504
1999-06-11,19.5915
1999-06-14,19.4928
1999-06-15,19.4434
1999-06-16,19.7479
1999-06-17,20.0605
1999-06-18,19.4434
1999-06-21,19.3365
1999-06-22,19.3858
1999-06-23,19.032
1999-06-24,18.925
1999-06-25,19.1308
1999-06-28,19.3858
1999-06-29,20.1593
1999-06-30,19.9536
1999-07-01,20.1099
1999-07-02,19.9536
1999-07-06,20.3156
1999-07-07,20.5213
1999-07-08,20.472
1999-07-09,20.6777
1999-07-12,20.2663
1999-07-13,19.6491
1999-07-14,19.3365
1999-07-15,20.1593
1999-07-16,19.8548
1999-07-19,19.9042
1999-07-20,19.4434
1999-07-21,18.925
1999-07-22,18.925
1999-07-23,18.3573
1999-07-26,17.7402
1999-07-27,18.1022
1999-07-28,17.6908
1999-07-29,16.9749
1999-07-30,17.1806
1999-08-02,17.2794
1999-08-03,17.4357
1999-08-04,17.3864
1999-08-05,17.2794
1999-08-06,17.6908
1999-08-09,16.868
1999-08-10,16.5059
1999-08-11,16.7116
1999-08-12,17.0737
1999-08-13,17.5921
1999-08-16,18.0035
1999-08-17,17.7978
1999-08-18,17.8965
1999-08-19,17.6414
1999-08-20,17.3864
1999-08-23,17.6414
1999-08-24,17.5345
1999-08-25,17.4357
1999-08-26,16.868
1999-08-27,16.4072
1999-08-30,16.2509
1999-08-31,16.2015
1999-09-01,16.6129
1999-09-02,15.9464
1999-09-03,16.3578
1999-09-07,16.4566
1999-09-08,15.9464
1999-09-09,15.535
1999-09-10,15.2223
1999-09-13,15.4203
1999-09-14,15.5193
1999-09-15,15.4203
1999-09-16,15.7834
1999-09-17,16.6084
1999-09-20,16.5012
1999-09-21,16.4517
1999-09-22,16.7569
1999-09-23,16.9137
1999-09-24,17.021
1999-09-27,17.4335
1999-09-28,17.7388
1999-09-29,17.2767
1999-09-30,17.582
1999-10-01,17.7388
1999-10-04,17.9945
1999-10-05,18.5143
1999-10-06,18.6711
1999-10-07,18.5638
1999-10-08,18.8773
1999-10-11,19.0258
1999-10-12,18.5143
1999-10-13,18.6711
1999-10-14,18.407
1999-10-15,17.6892
1999-10-18,17.6397
1999-10-19,18.1018
1999-10-20,17.8955
1999-10-21,17.6397
1999-10-22,18.0523
1999-10-25,16.7569
1999-10-26,16.0391
1999-10-27,15.7256
1999-10-28,16.4022
1999-10-29,17.12
1999-11-01,16.9137
1999-11-02,16.8642
1999-11-03,16.6579
1999-11-04,15.1646
1999-11-05,15.0078
1999-11-08,15.6761
1999-11-09,15.7256
1999-11-10,15.7256
1999-11-11,15.2141
1999-11-12,15.1646
1999-11-15,15.2141
1999-11-16,15.1068
1999-11-17,14.851
1999-11-18,14.9583
1999-11-19,14.4385
1999-11-22,14.851
1999-11-23,14.4385
1999-11-24,14.488
1999-11-26,14.4385
1999-11-29,14.851
1999-11-30,14.752
1999-12-01,14.488
1999-12-02,14.488
1999-12-03,14.6448
1999-12-06,14.4385
1999-12-07,14.3395
1999-12-08,13.3082
1999-12-09,13.663
1999-12-10,13.1019
1999-12-13,12.9859
1999-12-14,13.0852
1999-12-15,12.9859
1999-12-16,13.1928
1999-12-17,12.8286
1999-12-20,11.9513
1999-12-21,11.9513
1999-12-22,12.0506
1999-12-23,12.5721
1999-12-27,12.6217
1999-12-28,12.5224
1999-12-29,12.7293
1999-12-30,12.8286
1999-12-31,13.499
2000-01-03,12.9362
2000-01-04,13.557
2000-01-05,14.7405
2000-01-06,15.055
2000-01-07,14.7405
2000-01-10,14.5915
2000-01-11,14.5915
2000-01-12,14.3846
2000-01-13,14.3846
2000-01-14,14.0701
2000-01-18,14.0205
2000-01-19,14.5915
2000-01-20,14.7405
2000-01-21,14.2274
2000-01-24,13.6066
2000-01-25,13.7639
2000-01-26,13.7639
2000-01-27,13.7639
2000-01-28,13.4494
2000-01-31,13.3501
2000-02-01,13.4494
2000-02-02,13.4494
2000-02-03,15.7751
2000-02-04,15.5682
2000-02-07,15.1047
2000-02-08,15.7254
2000-02-09,15.3116
2000-02-10,14.6412
2000-02-11,14.0205
2000-02-14,13.7639
2000-02-15,14.5336
2000-02-16,14.5336
2000-02-17,13.6066
2000-02-18,13.3501
2000-02-22,13.4494
2000-02-23,13.3997
2000-02-24,12.9859
2000-02-25,13.499
2000-02-28,14.3267
2000-02-29,14.3846
2000-03-01,15.2619
2000-03-02,14.2274
2000-03-03,13.7639
2000-03-06,13.6563
2000-03-07,13.3501
2000-03-08,12.8783
2000-03-09,13.0852
2000-03-10,13.2425
2000-03-13,13.238
2000-03-14,13.1881
2000-03-15,14.2262
2000-03-16,16.6097
2000-03-17,16.9253
2000-03-20,17.2326
2000-03-21,17.7558
2000-03-22,17.4402
2000-03-23,16.452
2000-03-24,16.452
2000-03-27,16.0367
2000-03-28,15.7793
2000-03-29,16.452
2000-03-30,17.025
2000-03-31,17.3406
2000-04-03,16.9253
2000-04-04,16.4021
2000-04-05,16.8174
2000-04-06,16.8672
2000-04-07,17.3904
2000-04-10,17.6479
2000-04-11,18.3787
2000-04-12,17.9634
2000-04-13,17.4402
2000-04-14,16.2443
2000-04-17,15.364
2000-04-18,15.4138
2000-04-19,14.8491
2000-04-20,15.8291
2000-04-24,15.8872
2000-04-25,15.9869
2000-04-26,16.3523
2000-04-27,16.452
2000-04-28,15.8872
2000-05-01,16.5101
2000-05-02,16.7675
2000-05-03,16.2443
2000-05-04,16.9253
2000-05-05,18.0631
2000-05-08,17.3406
2000-05-09,17.9053
2000-05-10,17.4402
2000-05-11,17.9053
2000-05-12,17.9634
2000-05-15,18.3205
2000-05-16,17.8056
2000-05-17,16.9253
2000-05-18,16.7177
2000-05-19,16.452
2000-05-22,16.5101
2000-05-23,16.452
2000-05-24,16.6596
2000-05-25,15.9371
2000-05-26,16.3025
2000-05-30,16.0367
2000-05-31,16.4021
2000-06-01,17.0748
2000-06-02,17.4402
2000-06-05,17.0748
2000-06-06,16.452
2000-06-07,16.6097
2000-06-08,16.0367
2000-06-09,16.0367
2000-06-12,15.364
2000-06-13,14.9933
2000-06-14,15.5681
2000-06-15,15.7763
2000-06-16,15.5681
2000-06-19,16.0845
2000-06-20,16.451
2000-06-21,16.3511
2000-06-22,14.3686
2000-06-23,14.9434
2000-06-26,15.0433
2000-06-27,15.5681
2000-06-28,15.7264
2000-06-29,15.9346
2000-06-30,16.3511
2000-07-03,15.9846
2000-07-05,15.5681
2000-07-06,14.5769
2000-07-07,15.1016
2000-07-10,15.7763
2000-07-11,15.9846
2000-07-12,16.7092
2000-07-13,16.1928
2000-07-14,15.9346
2000-07-17,15.7264
2000-07-18,15.668
2000-07-19,15.5681
2000-07-20,15.2516
2000-07-21,14.8934
2000-07-24,14.5269
2000-07-25,14.5769
2000-07-26,14.8934
2000-07-27,14.7851
2000-07-28,14.4769
2000-07-31,14.0604
2000-08-01,13.5357
2000-08-02,14.1104
2000-08-03,14.2687
2000-08-04,13.8522
2000-08-07,13.7439
2000-08-08,13.6939
2000-08-09,13.1192
2000-08-10,12.9609
2000-08-11,13.1192
2000-08-14,13.7939
2000-08-15,13.4357
2000-08-16,13.5357
2000-08-17,13.0192
2000-08-18,13.6939
2000-08-21,13.5856
2000-08-22,14.3186
2000-08-23,14.6268
2000-08-24,14.6268
2000-08-25,14.5769
2000-08-28,14.6268
2000-08-29,14.6851
2000-08-30,14.6851
2000-08-31,15.0433
2000-09-01,15.5681
2000-09-05,15.7264
2000-09-06,15.8763
2000-09-07,15.8763
2000-09-08,16.3511
2000-09-11,16.7676
2000-09-12,16.5593
2000-09-13,16.3377
2000-09-14,16.2876
2000-09-15,16.4463
2000-09-18,16.2375
2000-09-19,15.6611
2000-09-20,15.611
2000-09-21,15.9785
2000-09-22,15.7697
2000-09-25,16.1289
2000-09-26,15.5024
2000-09-27,15.7113
2000-09-28,15.7697
2000-09-29,15.87
2000-10-02,15.4523
2000-10-03,15.0347
2000-10-04,15.0848
2000-10-05,15.5024
2000-10-06,14.9846
2000-10-09,15.0347
2000-10-10,14.8259
2000-10-11,14.4584
2000-10-12,14.0992
2000-10-13,14.1493
2000-10-16,14.876
2000-10-17,14.308
2000-10-18,14.876
2000-10-19,15.611
2000-10-20,15.0848
2000-10-23,15.2936
2000-10-24,14.6672
2000-10-25,14.7758
2000-10-26,14.6171
2000-10-27,14.8259
2000-10-30,15.5024
2000-10-31,16.2375
2000-11-01,16.2375
2000-11-02,16.605
2000-11-03,16.1289
2000-11-06,16.2876
2000-11-07,16.3377
2000-11-08,16.3962
2000-11-09,15.7113
2000-11-10,15.0347
2000-11-13,15.2936
2000-11-14,15.5024
2000-11-15,16.4964
2000-11-16,16.3962
2000-11-17,16.605
2000-11-20,16.0788
2000-11-21,16.5465
2000-11-22,16.1289
2000-11-24,16.1289
2000-11-27,16.4463
2000-11-28,16.1874
2000-11-29,16.605
2000-11-30,16.0788
2000-12-01,17.173
2000-12-04,18.9019
2000-12-05,19.0523
2000-12-06,19.0022
2000-12-07,19.2611
2000-12-08,19.4699
2000-12-11,20.205
2000-12-12,19.6787
2000-12-13,19.2559
2000-12-14,19.2559
2000-12-15,18.7369
2000-12-18,19.0969
2000-12-19,16.0159
2000-12-20,16.4345
2000-12-21,17.0624
2000-12-22,17.1629
2000-12-26,17.6317
2000-12-27,18.1592
2000-12-28,18.1592
2000-12-29,17.841
2001-01-02,17.5815
2001-01-03,17.0038
2001-01-04,17.0038
2001-01-05,16.3759
2001-01-08,16.3759
2001-01-09,16.2252
2001-01-10,17.1629
2001-01-11,17.2131
2001-01-12,18.0001
2001-01-16,18.0001
2001-01-17,18.7871
2001-01-18,18.1592
2001-01-19,17.4224
2001-01-22,17.7908
2001-01-23,18.9462
2001-01-24,19.3062
2001-01-25,19.7834
2001-01-26,19.6243
2001-01-29,20.1434
2001-01-30,20.0597
2001-01-31,20.1685
2001-02-01,20.9052
2001-02-02,20.6373
2001-02-05,20.4866
2001-02-06,20.9052
2001-02-07,21.1397
2001-02-08,20.428
2001-02-09,20.1183
2001-02-12,20.5536
2001-02-13,20.8383
2001-02-14,20.8634
2001-02-15,21.1146
2001-02-16,21.1313
2001-02-20,21.4746
2001-02-21,20.7629
2001-02-22,20.4783
2001-02-23,20.5118
2001-02-26,21.1815
2001-02-27,21.776
2001-02-28,21.8848
2001-03-01,21.6001
2001-03-02,21.9601
2001-03-05,21.7676
2001-03-06,21.9434
2001-03-07,22.2113
2001-03-08,23.015
2001-03-09,22.5043
2001-03-12,22.1862
2001-03-13,21.9678
2001-03-14,21.5231
2001-03-15,21.3889
2001-03-16,21.0364
2001-03-19,21.2714
2001-03-20,21.028
2001-03-21,20.3819
2001-03-22,19.9288
2001-03-23,20.34
2001-03-26,20.3232
2001-03-27,20.642
2001-03-28,20.4407
2001-03-29,20.6337
2001-03-30,21.4476
2001-04-02,21.1203
2001-04-03,20.5078
2001-04-04,19.8113
2001-04-05,20.8099
2001-04-06,20.5162
2001-04-09,20.5581
2001-04-10,21.1707
2001-04-11,21.2126
2001-04-12,20.4658
2001-04-16,20.5078
2001-04-17,20.7008
2001-04-18,22.0182
2001-04-19,21.5567
2001-04-20,21.5986
2001-04-23,21.5231
2001-04-24,20.8602
2001-04-25,21.5063
2001-04-26,21.7161
2001-04-27,21.8168
2001-04-30,21.4308
2001-05-01,21.8084
2001-05-02,21.5399
2001-05-03,21.5063
2001-05-04,21.7413
2001-05-07,21.6574
2001-05-08,21.4224
2001-05-09,21.3217
2001-05-10,21.7329
2001-05-11,21.8084
2001-05-14,22.1524
2001-05-15,22.2028
2001-05-16,22.4713
2001-05-17,23.0335
2001-05-18,22.7482
2001-05-21,24.2083
2001-05-22,23.73
2001-05-23,23.2517
2001-05-24,23.495
2001-05-25,23.3356
2001-05-29,23.109
2001-05-30,23.2097
2001-05-31,23.3356
2001-06-01,23.2097
2001-06-04,23.495
2001-06-05,24.1579
2001-06-06,23.9313
2001-06-07,23.0671
2001-06-08,22.7482
2001-06-11,22.5636
2001-06-12,22.6139
2001-06-13,22.5467
2001-06-14,22.3953
2001-06-15,22.4962
2001-06-18,22.6224
2001-06-19,22.656
2001-06-20,22.8242
2001-06-21,22.286
2001-06-22,22.0084
2001-06-25,21.6552
2001-06-26,21.445
2001-06-27,20.9572
2001-06-28,22.0757
2001-06-29,21.5375
2001-07-02,22.0673
2001-07-03,21.9159
2001-07-05,21.9748
2001-07-06,22.2103
2001-07-09,22.4878
2001-07-10,21.8655
2001-07-11,22.0841
2001-07-12,23.6568
2001-07-13,23.7745
2001-07-16,23.8418
2001-07-17,23.867
2001-07-18,23.8922
2001-07-19,23.9931
2001-07-20,24.3295
2001-07-23,24.195
2001-07-24,23.9259
2001-07-25,25.2042
2001-07-26,25.1032
2001-07-27,24.7753
2001-07-30,24.2539
2001-07-31,25.1621
2001-08-01,24.8005
2001-08-02,24.3716
2001-08-03,23.7156
2001-08-06,23.9595
2001-08-07,24.1025
2001-08-08,24.2707
2001-08-09,23.6904
2001-08-10,24.4725
2001-08-13,24.7753
2001-08-14,25.0444
2001-08-15,24.893
2001-08-16,25.0948
2001-08-17,25.3051
2001-08-20,25.2714
2001-08-21,25.2462
2001-08-22,24.8846
2001-08-23,24.5987
2001-08-24,25.1873
2001-08-27,25.1032
2001-08-28,25.1369
2001-08-29,25.1621
2001-08-30,24.6071
2001-08-31,25.1621
2001-09-04,25.2714
2001-09-05,25.1873
2001-09-06,23.2363
2001-09-07,20.9488
2001-09-10,21.2852
2001-09-17,20.712
2001-09-18,21.4116
2001-09-19,21.125
2001-09-20,21.2262
2001-09-21,21.1587
2001-09-24,21.5465
2001-09-25,21.8163
2001-09-26,21.5718
2001-09-27,22.0017
2001-09-28,22.87
2001-10-01,23.6624
2001-10-02,24.5138
2001-10-03,24.303
2001-10-04,23.9237
2001-10-05,24.2778
2001-10-08,23.5444
2001-10-09,22.9543
2001-10-10,23.4769
2001-10-11,24.303
2001-10-12,24.3452
2001-10-15,24.4548
2001-10-16,24.8931
2001-10-17,23.89
2001-10-18,24.185
2001-10-19,24.8088
2001-10-22,24.8678
2001-10-23,25.1292
2001-10-24,25.5254
2001-10-25,25.3652
2001-10-26,24.8088
2001-10-29,24.4463
2001-10-30,23.8984
2001-10-31,24.3283
2001-11-01,24.7835
2001-11-02,24.8678
2001-11-05,25.1292
2001-11-06,25.4158
2001-11-07,25.3989
2001-11-08,25.6687
2001-11-09,25.6097
2001-11-12,25.93
2001-11-13,26.107
2001-11-14,26.2082
2001-11-15,26.2166
2001-11-16,25.4748
2001-11-19,25.9553
2001-11-20,25.8626
2001-11-21,25.694
2001-11-23,25.7951
2001-11-26,25.8035
2001-11-27,25.0617
2001-11-28,24.8847
2001-11-29,25.0702
2001-11-30,25.1544
2001-12-03,24.5222
2001-12-04,24.4463
2001-12-05,25.6012
2001-12-06,23.7888
2001-12-07,23.5949
2001-12-10,23.283
2001-12-11,23.6455
2001-12-12,23.7469
2001-12-13,23.6202
2001-12-14,23.9158
2001-12-17,24.3044
2001-12-18,24.4819
2001-12-19,24.4565
2001-12-20,24.9211
2001-12-21,25.352
2001-12-24,25.3266
2001-12-26,25.4956
2001-12-27,25.5294
2001-12-28,25.5632
2001-12-31,25.3013
2002-01-02,24.9803
2002-01-03,24.6255
2002-01-04,24.6593
2002-01-07,25.3773
2002-01-08,25.5547
2002-01-09,24.7268
2002-01-10,24.4481
2002-01-11,24.0848
2002-01-14,23.7891
2002-01-15,24.7184
2002-01-16,25.1746
2002-01-17,26.3235
2002-01-18,26.2052
2002-01-22,26.1038
2002-01-23,27.7174
2002-01-24,27.3626
2002-01-25,26.8135
2002-01-28,27.2527
2002-01-29,26.974
2002-01-30,27.7258
2002-01-31,28.4777
2002-02-01,28.2749
2002-02-04,27.8863
2002-02-05,27.9032
2002-02-06,28.0637
2002-02-07,27.1345
2002-02-08,27.5484
2002-02-11,28.0553
2002-02-12,28.0468
2002-02-13,28.3003
2002-02-14,28.1313
2002-02-15,27.7427
2002-02-19,27.1091
2002-02-20,27.8272
2002-02-21,27.4133
2002-02-22,27.8272
2002-02-25,28.2749
2002-02-26,28.5537
2002-02-27,27.861
2002-02-28,27.6582
2002-03-01,27.5569
2002-03-04,27.447
2002-03-05,25.9602
2002-03-06,25.6814
2002-03-07,26.3911
2002-03-08,26.6107
2002-03-11,26.7374
2002-03-12,26.8219
2002-03-13,26.4537
2002-03-14,26.1997
2002-03-15,27.351
2002-03-18,27.334
2002-03-19,28.7647
2002-03-20,28.8578
2002-03-21,28.2229
2002-03-22,28.079
2002-03-25,27.8504
2002-03-26,27.9859
2002-03-27,28.2737
2002-03-28,28.3668
2002-04-01,27.9012
2002-04-02,27.4102
2002-04-03,27.0293
2002-04-04,27.351
2002-04-05,27.5203
2002-04-08,27.8758
2002-04-09,28.2652
2002-04-10,28.57
2002-04-11,28.3414
2002-04-12,28.7393
2002-04-15,28.316
2002-04-16,29.0779
2002-04-17,29.2133
2002-04-18,29.772
2002-04-19,29.3403
2002-04-22,28.8408
2002-04-23,28.7477
2002-04-24,28.8747
2002-04-25,28.9932
2002-04-26,29.6027
2002-04-29,29.3064
2002-04-30,29.2895
2002-05-01,29.1371
2002-05-02,29.645
2002-05-03,29.2556
2002-05-06,29.3742
2002-05-07,29.7212
2002-05-08,29.7297
2002-05-09,29.5265
2002-05-10,29.4334
2002-05-13,30.1953
2002-05-14,31.1772
2002-05-15,30.9825
2002-05-16,31.1349
2002-05-17,30.6016
2002-05-20,30.373
2002-05-21,29.7635
2002-05-22,29.8567
2002-05-23,30.2376
2002-05-24,30.6016
2002-05-28,30.3138
2002-05-29,30.0344
2002-05-30,29.8736
2002-05-31,30.4154
2002-06-03,29.4927
2002-06-04,29.9752
2002-06-05,31.0249
2002-06-06,29.7297
2002-06-07,29.772
2002-06-10,30.6101
2002-06-11,29.9329
2002-06-12,30.0134
2002-06-13,29.9202
2002-06-14,29.1654
2002-06-17,29.8947
2002-06-18,30.0982
2002-06-19,30.3018
2002-06-20,29.6912
2002-06-21,29.0806
2002-06-24,28.9873
2002-06-25,28.2494
2002-06-26,28.9194
2002-06-27,29.5724
2002-06-28,30.0558
2002-07-01,29.8777
2002-07-02,29.3689
2002-07-03,29.5555
2002-07-05,30.6665
2002-07-08,30.2085
2002-07-09,29.2756
2002-07-10,28.3936
2002-07-11,28.9618
2002-07-12,28.5802
2002-07-15,27.8424
2002-07-16,26.5278
2002-07-17,25.6628
2002-07-18,24.5094
2002-07-19,24.4755
2002-07-22,23.7716
2002-07-23,24.7638
2002-07-24,27.5201
2002-07-25,26.6466
2002-07-26,26.5618
2002-07-29,27.7321
2002-07-30,26.1971
2002-07-31,25.7391
2002-08-01,24.7893
2002-08-02,22.0924
2002-08-05,21.9397
2002-08-06,23.7886
2002-08-07,23.6274
2002-08-08,23.7886
2002-08-09,23.3984
2002-08-12,22.0415
2002-08-13,22.3892
2002-08-14,23.5765
2002-08-15,24.5942
2002-08-16,23.9836
2002-08-19,24.7214
2002-08-20,24.6536
2002-08-21,24.6706
2002-08-22,24.9589
2002-08-23,24.4416
2002-08-26,24.8147
2002-08-27,24.1702
2002-08-28,24.3228
2002-08-29,23.5935
2002-08-30,24.1363
2002-09-03,23.1949
2002-09-04,23.7801
2002-09-05,23.3391
2002-09-06,23.8818
2002-09-09,23.9242
2002-09-10,23.9751
2002-09-11,23.797
2002-09-12,23.6823
2002-09-13,23.7928
2002-09-16,23.4953
2002-09-17,23.7248
2002-09-18,23.8693
2002-09-19,23.2828
2002-09-20,23.6993
2002-09-23,23.0363
2002-09-24,22.5857
2002-09-25,23.5633
2002-09-26,24.2263
2002-09-27,24.4983
2002-09-30,22.8577
2002-10-01,22.1862
2002-10-02,21.5742
2002-10-03,21.3787
2002-10-04,21.6337
2002-10-07,20.5201
2002-10-08,21.7697
2002-10-09,21.4382
2002-10-10,22.2372
2002-10-11,23.6738
2002-10-14,24.3878
2002-10-15,25.8754
2002-10-16,25.1274
2002-10-17,25.3229
2002-10-18,25.5269
2002-10-21,25.8754
2002-10-22,24.9149
2002-10-23,25.4419
2002-10-24,25.6459
2002-10-25,26.4364
2002-10-28,25.8499
2002-10-29,25.9179
2002-10-30,25.4079
2002-10-31,26.1219
2002-11-01,26.8445
2002-11-04,26.3089
2002-11-05,26.4534
2002-11-06,26.0964
2002-11-07,26.2409
2002-11-08,25.7054
2002-11-11,25.4334
2002-11-12,26.0199
2002-11-13,26.0199
2002-11-14,26.8955
2002-11-15,27.176
2002-11-18,26.2494
2002-11-19,25.5184
2002-11-20,25.9859
2002-11-21,25.9519
2002-11-22,25.3994
2002-11-25,25.0764
2002-11-26,23.8438
2002-11-27,25.3314
2002-11-29,25.0679
2002-12-02,25.0169
2002-12-03,24.4388
2002-12-04,24.4558
2002-12-05,24.2688
2002-12-06,24.4813
2002-12-09,24.1073
2002-12-10,24.5663
2002-12-11,24.4303
2002-12-12,24.3323
2002-12-13,24.5198
2002-12-16,25.6359
2002-12-17,25.031
2002-12-18,24.2812
2002-12-19,25.7807
2002-12-20,26.1811
2002-12-23,25.4569
2002-12-24,25.2269
2002-12-26,25.5421
2002-12-27,25.5251
2002-12-30,26.4197
2002-12-31,26.5901
2003-01-02,27.0927
2003-01-03,26.9394
2003-01-06,26.9223
2003-01-07,26.8883
2003-01-08,26.769
2003-01-09,26.4538
2003-01-10,26.2067
2003-01-13,26.7349
2003-01-14,26.7775
2003-01-15,26.7605
2003-01-16,27.0075
2003-01-17,27.1694
2003-01-21,26.0959
2003-01-22,25.9852
2003-01-23,26.7605
2003-01-24,25.917
2003-01-27,25.2951
2003-01-28,25.7211
2003-01-29,25.6955
2003-01-30,25.3377
2003-01-31,25.6359
2003-02-03,25.8403
2003-02-04,25.6018
2003-02-05,25.1928
2003-02-06,25.3377
2003-02-07,25.2014
2003-02-10,24.5709
2003-02-11,24.622
2003-02-12,24.4175
2003-02-13,24.0597
2003-02-14,25.0139
2003-02-18,25.3206
2003-02-19,24.7839
2003-02-20,24.3835
2003-02-21,24.5794
2003-02-24,23.7786
2003-02-25,24.2045
2003-02-26,24.2812
2003-02-27,24.4772
2003-02-28,24.0001
2003-03-03,23.6763
2003-03-04,22.901
2003-03-05,22.654
2003-03-06,23.8212
2003-03-07,23.9575
2003-03-10,23.6763
2003-03-11,22.9777
2003-03-12,22.7856
2003-03-13,23.7852
2003-03-14,24.1611
2003-03-17,25.3828
2003-03-18,25.3401
2003-03-19,25.118
2003-03-20,25.4255
2003-03-21,26.6387
2003-03-24,25.5793
2003-03-25,26.2542
2003-03-26,26.5276
2003-03-27,26.596
2003-03-28,26.69
2003-03-31,26.3909
2003-04-01,26.596
2003-04-02,27.5785
2003-04-03,28.0313
2003-04-04,27.3991
2003-04-07,27.4247
2003-04-08,27.2966
2003-04-09,26.7241
2003-04-10,27.6212
2003-04-11,28.3303
2003-04-14,28.7746
2003-04-15,29.2274
2003-04-16,28.9625
2003-04-17,29.3641
2003-04-21,29.1249
2003-04-22,29.5264
2003-04-23,28.9455
2003-04-24,28.6891
2003-04-25,28.3132
2003-04-28,29.1249
2003-04-29,29.2188
2003-04-30,29.2018
2003-05-01,28.5781
2003-05-02,28.8515
2003-05-05,28.6891
2003-05-06,29.1505
2003-05-07,28.9796
2003-05-08,28.6208
2003-05-09,28.7917
2003-05-12,30.3722
2003-05-13,30.2184
2003-05-14,29.9109
2003-05-15,29.3983
2003-05-16,29.3214
2003-05-19,28.8771
2003-05-20,28.9455
2003-05-21,28.749
2003-05-22,29.2445
2003-05-23,28.8088
2003-05-27,29.0907
2003-05-28,30.0305
2003-05-29,30.4662
2003-05-30,31.2095
2003-06-02,30.8079
2003-06-03,30.7567
2003-06-04,30.9703
2003-06-05,32.0638
2003-06-06,31.8332
2003-06-09,31.3291
2003-06-10,31.9442
2003-06-11,32.8584
2003-06-12,32.6914
2003-06-13,32.6144
2003-06-16,33.342
2003-06-17,32.8455
2003-06-18,32.9054
2003-06-19,32.3576
2003-06-20,32.1949
2003-06-23,32.0494
2003-06-24,32.3576
2003-06-25,32.6572
2003-06-26,32.4346
2003-06-27,32.4432
2003-06-30,32.6914
2003-07-01,32.2805
2003-07-02,32.4346
2003-07-03,32.6144
2003-07-07,33.2393
2003-07-08,33.7187
2003-07-09,33.4276
2003-07-10,32.7685
2003-07-11,33.1879
2003-07-14,33.1366
2003-07-15,32.9739
2003-07-16,32.6315
2003-07-17,32.4603
2003-07-18,32.0066
2003-07-21,31.7584
2003-07-22,31.9638
2003-07-23,31.1763
2003-07-24,31.0735
2003-07-25,31.1592
2003-07-28,31.3903
2003-07-29,31.9981
2003-07-30,31.6642
2003-07-31,32.058
2003-08-01,32.1179
2003-08-04,32.5117
2003-08-05,31.8868
2003-08-06,32.1864
2003-08-07,31.7669
2003-08-08,31.9467
2003-08-11,32.0152
2003-08-12,32.5973
2003-08-13,32.6144
2003-08-14,32.6572
2003-08-15,32.6486
2003-08-18,32.9397
2003-08-19,33.3163
2003-08-20,33.2478
2003-08-21,33.3848
2003-08-22,33.4276
2003-08-25,33.1708
2003-08-26,33.5646
2003-08-27,33.8984
2003-08-28,34.4548
2003-08-29,34.3264
2003-09-02,34.7288
2003-09-03,34.84
2003-09-04,34.9171
2003-09-05,34.6603
2003-09-08,34.4548
2003-09-09,34.1295
2003-09-10,33.9583
2003-09-11,34.4173
2003-09-12,34.889
2003-09-15,34.7603
2003-09-16,35.3779
2003-09-17,35.2921
2003-09-18,35.6008
2003-09-19,35.8153
2003-09-22,35.2492
2003-09-23,35.8924
2003-09-24,35.5151
2003-09-25,35.4036
2003-09-26,35.0434
2003-09-29,34.726
2003-09-30,34.2629
2003-10-01,35.1634
2003-10-02,34.8804
2003-10-03,35.3607
2003-10-06,35.7038
2003-10-07,35.9096
2003-10-08,35.4722
2003-10-09,36.3556
2003-10-10,35.8324
2003-10-13,36.1926
2003-10-14,36.5957
2003-10-15,36.0725
2003-10-16,36.4499
2003-10-17,35.8496
2003-10-20,36.0211
2003-10-21,35.9353
2003-10-22,35.6351
2003-10-23,35.5923
2003-10-24,35.5065
2003-10-27,35.8067
2003-10-28,36.3213
2003-10-29,36.8101
2003-10-30,36.793
2003-10-31,37.3504
2003-11-03,37.3247
2003-11-04,36.5957
2003-11-05,36.6729
2003-11-06,36.5014
2003-11-07,36.2612
2003-11-10,35.7038
2003-11-11,35.6695
2003-11-12,35.841
2003-11-13,34.5374
2003-11-14,33.8856
2003-11-17,33.5597
2003-11-18,33.1394
2003-11-19,33.0451
2003-11-20,32.9679
2003-11-21,33.3367
2003-11-24,34.0828
2003-11-25,33.0193
2003-11-26,33.148
2003-11-28,33.0879
2003-12-01,33.1051
2003-12-02,31.8701
2003-12-03,31.7843
2003-12-04,29.8375
2003-12-05,28.7311
2003-12-08,30.0776
2003-12-09,29.057
2003-12-10,28.8598
2003-12-11,29.5086
2003-12-12,29.7407
2003-12-15,29.0015
2003-12-16,28.0388
2003-12-17,29.6548
2003-12-18,29.6977
2003-12-19,29.543
2003-12-22,29.6548
2003-12-23,29.8009
2003-12-24,29.8525
2003-12-26,30.1275
2003-12-29,30.4112
2003-12-30,30.5831
2003-12-31,30.841
2004-01-02,29.3797
2004-01-05,29.0531
2004-01-06,29.4313
2004-01-07,30.1705
2004-01-08,30.1275
2004-01-09,29.6462
2004-01-12,29.139
2004-01-13,28.7092
2004-01-14,29.3969
2004-01-15,28.9413
2004-01-16,29.1218
2004-01-20,28.7866
2004-01-21,29.4313
2004-01-22,30.5143
2004-01-23,30.6003
2004-01-26,30.8495
2004-01-27,30.6948
2004-01-28,29.9212
2004-01-29,30.1447
2004-01-30,29.7751
2004-02-02,29.6548
2004-02-03,29.5946
2004-02-04,29.9384
2004-02-05,31.2879
2004-02-06,31.563
2004-02-09,31.8294
2004-02-10,32.5773
2004-02-11,32.371
2004-02-12,33.8666
2004-02-13,33.1102
2004-02-17,33.2305
2004-02-18,33.1188
2004-02-19,33.2391
2004-02-20,33.1875
2004-02-23,32.5343
2004-02-24,32.8953
2004-02-25,32.4397
2004-02-26,32.5601
2004-02-27,32.6804
2004-03-01,33.1961
2004-03-02,32.6718
2004-03-03,32.3624
2004-03-04,31.9498
2004-03-05,31.8294
2004-03-08,31.8123
2004-03-09,31.4856
2004-03-10,30.9011
2004-03-11,30.6038
2004-03-12,30.9657
2004-03-15,29.9921
2004-03-16,29.6819
2004-03-17,29.7422
2004-03-18,29.432
2004-03-19,28.6738
2004-03-22,28.3206
2004-03-23,29.2166
2004-03-24,29.5957
2004-03-25,30.4229
2004-03-26,30.1385
2004-03-29,30.7503
2004-03-30,30.7934
2004-03-31,30.9657
2004-04-01,30.1299
2004-04-02,30.0696
2004-04-05,29.8456
2004-04-06,29.5785
2004-04-07,30.0007
2004-04-08,28.9065
2004-04-12,28.5618
2004-04-13,27.7605
2004-04-14,27.4073
2004-04-15,27.9759
2004-04-16,28.8634
2004-04-19,28.3723
2004-04-20,27.9415
2004-04-21,28.0707
2004-04-22,28.4067
2004-04-23,28.6394
2004-04-26,27.7175
2004-04-27,28.3637
2004-04-28,28.1052
2004-04-29,27.5624
2004-04-30,27.6744
2004-05-03,27.571
2004-05-04,27.6399
2004-05-05,27.5882
2004-05-06,25.4342
2004-05-07,25.0982
2004-05-10,24.8742
2004-05-11,24.5985
2004-05-12,23.7111
2004-05-13,24.1418
2004-05-14,24.2366
2004-05-17,24.0643
2004-05-18,24.4779
2004-05-19,24.7019
2004-05-20,24.9431
2004-05-21,25.4515
2004-05-24,25.6669
2004-05-25,26.7352
2004-05-26,26.8903
2004-05-27,27.3901
2004-05-28,27.0282
2004-06-01,27.1402
2004-06-02,27.6399
2004-06-03,27.5882
2004-06-04,27.9759
2004-06-07,28.8978
2004-06-08,28.7514
2004-06-09,29.1046
2004-06-10,29.096
2004-06-14,28.2537
2004-06-15,28.6337
2004-06-16,28.1759
2004-06-17,28.3832
2004-06-18,28.3141
2004-06-21,27.554
2004-06-22,26.7766
2004-06-23,27.9427
2004-06-24,27.4849
2004-06-25,27.4331
2004-06-28,27.1221
2004-06-29,26.5089
2004-06-30,26.3102
2004-07-01,26.1115
2004-07-02,25.8783
2004-07-06,25.7056
2004-07-07,25.7401
2004-07-08,25.2046
2004-07-09,25.4119
2004-07-12,25.6278
2004-07-13,26.2497
2004-07-14,25.766
2004-07-15,25.1096
2004-07-16,24.4099
2004-07-19,24.194
2004-07-20,24.574
2004-07-21,24.2631
2004-07-22,24.3581
2004-07-23,23.9694
2004-07-26,24.004
2004-07-27,24.6086
2004-07-28,24.2372
2004-07-29,24.004
2004-07-30,24.0644
2004-08-02,24.004
2004-08-03,23.5375
2004-08-04,23.3216
2004-08-05,22.6478
2004-08-06,22.3974
2004-08-09,22.4837
2004-08-10,22.7601
2004-08-11,22.4837
2004-08-12,22.1728
2004-08-13,22.1469
2004-08-16,23.0884
2004-08-17,23.1747
2004-08-18,23.3648
2004-08-19,23.3475
2004-08-20,23.2698
2004-08-23,23.6671
2004-08-24,23.3993
2004-08-25,23.1488
2004-08-26,22.9415
2004-08-27,23.0193
2004-08-30,22.907
2004-08-31,22.8292
2004-09-01,22.501
2004-09-02,23.1143
2004-09-03,22.907
2004-09-07,23.4511
2004-09-08,23.6153
2004-09-09,23.2525
2004-09-10,23.6585
2004-09-13,24.1913
2004-09-14,24.1566
2004-09-15,23.992
2004-09-16,24.0007
2004-09-17,24.3646
2004-09-20,24.3646
2004-09-21,24.4079
2004-09-22,24.2086
2004-09-23,24.3646
2004-09-24,24.8151
2004-09-27,24.5032
2004-09-28,24.2866
2004-09-29,24.0873
2004-09-30,23.5068
2004-10-01,23.1602
2004-10-04,23.1082
2004-10-05,22.9089
2004-10-06,22.4584
2004-10-07,22.5797
2004-10-08,22.7876
2004-10-11,22.9176
2004-10-12,22.831
2004-10-13,22.9349
2004-10-14,23.0042
2004-10-15,23.0302
2004-10-18,23.3595
2004-10-19,23.7147
2004-10-20,23.4461
2004-10-21,23.7234
2004-10-22,23.5848
2004-10-25,23.4375
2004-10-26,23.8274
2004-10-27,24.5205
2004-10-28,25.0404
2004-10-29,25.6036
2004-11-01,25.6209
2004-11-02,25.9329
2004-11-03,25.7769
2004-11-04,26.3747
2004-11-05,26.6087
2004-11-08,25.9848
2004-11-09,26.3054
2004-11-10,26.3228
2004-11-11,26.86
2004-11-12,27.0939
2004-11-15,27.839
2004-11-16,27.3278
2004-11-17,27.5531
2004-11-18,27.6311
2004-11-19,26.9119
2004-11-22,26.7733
2004-11-23,27.0592
2004-11-24,27.0939
2004-11-26,27.2758
2004-11-29,26.496
2004-11-30,25.361
2004-12-01,25.9848
2004-12-02,25.2657
2004-12-03,25.1444
2004-12-06,24.7978
2004-12-07,24.6158
2004-12-08,25.1964
2004-12-09,25.0664
2004-12-10,25.1444
2004-12-13,25.1487
2004-12-14,25.8179
2004-12-15,25.8265
2004-12-16,25.8526
2004-12-17,25.4181
2004-12-20,24.8533
2004-12-21,25.392
2004-12-22,25.8613
2004-12-23,25.8874
2004-12-27,26.1046
2004-12-28,26.6086
2004-12-29,26.9389
2004-12-30,26.6868
2004-12-31,27.1822
2005-01-03,26.6608
2005-01-04,26.2784
2005-01-05,26.2871
2005-01-06,26.9649
2005-01-07,26.7651
2005-01-10,27.0518
2005-01-11,26.8693
2005-01-12,27.9817
2005-01-13,27.973
2005-01-14,28.1555
2005-01-18,28.616
2005-01-19,28.4075
2005-01-20,28.1815
2005-01-21,27.5645
2005-01-24,27.2865
2005-01-25,27.3647
2005-01-26,27.3907
2005-01-27,28.2597
2005-01-28,28.3988
2005-01-31,29.0418
2005-02-01,28.9202
2005-02-02,30.3801
2005-02-03,30.0672
2005-02-04,30.2324
2005-02-07,29.7805
2005-02-08,29.8587
2005-02-09,29.1374
2005-02-10,28.7203
2005-02-11,29.0418
2005-02-14,28.842
2005-02-15,29.0331
2005-02-16,28.842
2005-02-17,28.1902
2005-02-18,28.225
2005-02-22,27.6862
2005-02-23,28.2424
2005-02-24,28.2076
2005-02-25,28.4422
2005-02-28,28.59
2005-03-01,28.9636
2005-03-02,28.8941
2005-03-03,28.3901
2005-03-04,28.0599
2005-03-07,27.8948
2005-03-08,27.7992
2005-03-09,27.1387
2005-03-10,27.4689
2005-03-11,27.4123
2005-03-14,27.8045
2005-03-15,27.7348
2005-03-16,27.2815
2005-03-17,26.5145
2005-03-18,26.192
2005-03-21,26.5581
2005-03-22,27.0723
2005-03-23,26.6627
2005-03-24,26.3925
2005-03-28,26.4535
2005-03-29,25.8608
2005-03-30,26.4099
2005-03-31,26.4797
2005-04-01,25.8521
2005-04-04,25.9741
2005-04-05,26.1049
2005-04-06,26.0961
2005-04-07,25.6342
2005-04-08,25.2507
2005-04-11,25.2332
2005-04-12,25.1809
2005-04-13,24.8672
2005-04-14,24.8149
2005-04-15,24.3268
2005-04-18,24.6754
2005-04-19,24.7539
2005-04-20,24.0653
2005-04-21,24.5447
2005-04-22,24.074
2005-04-25,24.4662
2005-04-26,24.4575
2005-04-27,24.5098
2005-04-28,24.1437
2005-04-29,23.5336
2005-05-02,23.5859
2005-05-03,23.6382
2005-05-04,23.6992
2005-05-05,21.5027
2005-05-06,20.9623
2005-05-09,20.91
2005-05-10,20.9362
2005-05-11,21.1105
2005-05-12,20.9972
2005-05-13,21.0233
2005-05-16,21.5202
2005-05-17,22.1303
2005-05-18,23.2111
2005-05-19,23.4029
2005-05-20,23.4639
2005-05-23,22.9583
2005-05-24,22.7927
2005-05-25,22.8799
2005-05-26,22.2175
2005-05-27,22.2523
2005-05-31,22.3482
2005-06-01,22.2087
2005-06-02,21.9473
2005-06-03,21.5289
2005-06-06,21.6248
2005-06-07,21.5376
2005-06-08,21.4766
2005-06-09,21.4853
2005-06-10,21.1802
2005-06-13,21.4119
2005-06-14,21.8495
2005-06-15,21.9895
2005-06-16,22.042
2005-06-17,22.1907
2005-06-20,22.0945
2005-06-21,21.902
2005-06-22,22.2782
2005-06-23,22.9782
2005-06-24,22.8732
2005-06-27,22.7507
2005-06-28,23.1707
2005-06-29,23.0132
2005-06-30,22.8557
2005-07-01,23.127
2005-07-05,23.722
2005-07-06,23.3545
2005-07-07,22.2782
2005-07-08,22.4095
2005-07-11,22.1032
2005-07-12,21.9632
2005-07-13,22.0507
2005-07-14,22.1645
2005-07-15,22.2082
2005-07-18,22.637
2005-07-19,22.7595
2005-07-20,22.5232
2005-07-21,22.2257
2005-07-22,22.357
2005-07-25,22.3482
2005-07-26,22.6282
2005-07-27,22.5145
2005-07-28,22.602
2005-07-29,22.5582
2005-08-01,22.4357
2005-08-02,22.0157
2005-08-03,21.7882
2005-08-04,20.3182
2005-08-05,20.2832
2005-08-08,20.0381
2005-08-09,19.6006
2005-08-10,19.0669
2005-08-11,19.0669
2005-08-12,19.1106
2005-08-15,18.7169
2005-08-16,18.2793
2005-08-17,18.7694
2005-08-18,18.6118
2005-08-19,18.4806
2005-08-22,18.4456
2005-08-23,18.4456
2005-08-24,18.1218
2005-08-25,17.6756
2005-08-26,17.7631
2005-08-29,17.6581
2005-08-30,17.2293
2005-08-31,17.3431
2005-09-01,17.4306
2005-09-02,17.4568
2005-09-06,17.6931
2005-09-07,18.0956
2005-09-08,18.3931
2005-09-09,18.6906
2005-09-12,18.7781
2005-09-13,18.7474
2005-09-14,18.6507
2005-09-15,18.4837
2005-09-16,18.6419
2005-09-19,18.6068
2005-09-20,18.0179
2005-09-21,17.6487
2005-09-22,17.306
2005-09-23,17.3763
2005-09-26,17.4642
2005-09-27,17.306
2005-09-28,17.3411
2005-09-29,17.3587
2005-09-30,17.4466
2005-10-03,17.552
2005-10-04,17.9124
2005-10-05,18.2991
2005-10-06,18.4573
2005-10-07,18.2552
2005-10-10,18.8968
2005-10-11,18.2024
2005-10-12,18.1146
2005-10-13,18.5364
2005-10-14,19.0374
2005-10-17,18.9583
2005-10-18,18.6068
2005-10-19,19.0462
2005-10-20,19.723
2005-10-21,19.2484
2005-10-24,19.6702
2005-10-25,19.0462
2005-10-26,19.0286
2005-10-27,18.3431
2005-10-28,18.9407
2005-10-31,19.4593
2005-11-01,19.2484
2005-11-02,19.6878
2005-11-03,20.1976
2005-11-04,20.5843
2005-11-07,20.725
2005-11-08,20.224
2005-11-09,20.224
2005-11-10,21.1205
2005-11-11,21.1205
2005-11-14,20.7777
2005-11-15,20.0482
2005-11-16,20.1009
2005-11-17,20.224
2005-11-18,20.4789
2005-11-21,20.7162
2005-11-22,20.5843
2005-11-23,20.3119
2005-11-25,19.4681
2005-11-28,19.8724
2005-11-29,19.7669
2005-11-30,19.7933
2005-12-01,20.6458
2005-12-02,20.3031
2005-12-05,20.0658
2005-12-06,20.2064
2005-12-07,20.1361
2005-12-08,19.7933
2005-12-09,19.6351
2005-12-12,19.4857
2005-12-13,19.6488
2005-12-14,20.2667
2005-12-15,20.0989
2005-12-16,20.2755
2005-12-19,20.2402
2005-12-20,20.3638
2005-12-21,21.5377
2005-12-22,21.7849
2005-12-23,22.1821
2005-12-27,21.7672
2005-12-28,22.0585
2005-12-29,21.9791
2005-12-30,21.8467
2006-01-03,21.9614
2006-01-04,22.0232
2006-01-05,21.6437
2006-01-06,21.5024
2006-01-09,21.7584
2006-01-10,21.4406
2006-01-11,21.8643
2006-01-12,21.6348
2006-01-13,21.7672
2006-01-17,21.3612
2006-01-18,21.3347
2006-01-19,21.2111
2006-01-20,21.2553
2006-01-23,21.2465
2006-01-24,21.2553
2006-01-25,21.7319
2006-01-26,21.6878
2006-01-27,21.3789
2006-01-30,21.2023
2006-01-31,21.1582
2006-02-01,21.0787
2006-02-02,21.3171
2006-02-03,20.9463
2006-02-06,20.6992
2006-02-07,20.5756
2006-02-08,20.8492
2006-02-09,20.8316
2006-02-10,21.1935
2006-02-13,21.2818
2006-02-14,21.8114
2006-02-15,22.2969
2006-02-16,22.0674
2006-02-17,22.2527
2006-02-21,22.5352
2006-02-22,22.9412
2006-02-23,22.6323
2006-02-24,22.4911
2006-02-27,22.8883
2006-02-28,22.7029
2006-03-01,22.9236
2006-03-02,22.8794
2006-03-03,22.7823
2006-03-06,22.7029
2006-03-07,22.6146
2006-03-08,22.3145
2006-03-09,22.085
2006-03-10,22.544
2006-03-13,22.3979
2006-03-14,22.7879
2006-03-15,22.6461
2006-03-16,22.8233
2006-03-17,23.4349
2006-03-20,23.3906
2006-03-21,23.0183
2006-03-22,22.8942
2006-03-23,23.7628
2006-03-24,23.9578
2006-03-27,24.1262
2006-03-28,23.8072
2006-03-29,23.9578
2006-03-30,23.4615
2006-03-31,23.5767
2006-04-03,23.4083
2006-04-04,23.7451
2006-04-05,24.1174
2006-04-06,23.4881
2006-04-07,23.169
2006-04-10,22.9829
2006-04-11,22.8145
2006-04-12,22.912
2006-04-13,22.9297
2006-04-17,22.6106
2006-04-18,22.7613
2006-04-19,22.522
2006-04-20,22.8233
2006-04-21,22.5131
2006-04-24,22.3536
2006-04-25,22.1142
2006-04-26,22.0965
2006-04-27,22.2383
2006-04-28,22.1674
2006-05-01,21.7243
2006-05-02,22.0079
2006-05-03,22.9208
2006-05-04,22.6195
2006-05-05,23.1424
2006-05-08,23.7894
2006-05-09,23.7008
2006-05-10,23.9312
2006-05-11,23.9312
2006-05-12,23.6831
2006-05-15,23.4881
2006-05-16,23.3463
2006-05-17,23.0006
2006-05-18,22.9474
2006-05-19,23.0715
2006-05-22,22.779
2006-05-23,22.6195
2006-05-24,22.4333
2006-05-25,22.4865
2006-05-26,22.5131
2006-05-30,21.9193
2006-05-31,22.1142
2006-06-01,22.6549
2006-06-02,21.8838
2006-06-05,21.3254
2006-06-06,21.1304
2006-06-07,21.0152
2006-06-08,21.352
2006-06-09,21.2634
2006-06-12,21.1127
2006-06-13,21.0014
2006-06-14,20.8678
2006-06-15,21.669
2006-06-16,21.7047
2006-06-19,21.8738
2006-06-20,21.7581
2006-06-21,22.1498
2006-06-22,21.8738
2006-06-23,21.8026
2006-06-26,21.9806
2006-06-27,21.3218
2006-06-28,21.3842
2006-06-29,21.7848
2006-06-30,21.7848
2006-07-03,21.4287
2006-07-05,21.3486
2006-07-06,21.2595
2006-07-07,20.6809
2006-07-10,20.6987
2006-07-11,20.2446
2006-07-12,20.1289
2006-07-13,19.4078
2006-07-14,19.3722
2006-07-17,19.6392
2006-07-18,19.6214
2006-07-19,19.9508
2006-07-20,19.7817
2006-07-21,19.6392
2006-07-24,20.1111
2006-07-25,20.0666
2006-07-26,19.9419
2006-07-27,19.6303
2006-07-28,19.9864
2006-07-31,20.2446
2006-08-01,20.2268
2006-08-02,19.5235
2006-08-03,20.9034
2006-08-04,20.9835
2006-08-07,21.0281
2006-08-08,20.7343
2006-08-09,20.1378
2006-08-10,20.6096
2006-08-11,20.6185
2006-08-14,21.1082
2006-08-15,21.3307
2006-08-16,21.9094
2006-08-17,21.8382
2006-08-18,21.9272
2006-08-21,21.4465
2006-08-22,21.2595
2006-08-23,21.0726
2006-08-24,21.0815
2006-08-25,20.9924
2006-08-28,21.1883
2006-08-29,21.5355
2006-08-30,21.58
2006-08-31,22.684
2006-09-01,23.3784
2006-09-05,23.7167
2006-09-06,23.3516
2006-09-07,23.4051
2006-09-08,23.7879
2006-09-11,24.5713
2006-09-12,25.4972
2006-09-13,25.2961
2006-09-14,25.9216
2006-09-15,25.8233
2006-09-18,25.8144
2006-09-19,26.2969
2006-09-20,26.0825
2006-09-21,25.1085
2006-09-22,25.0728
2006-09-25,25.8948
2006-09-26,26.0467
2006-09-27,25.8591
2006-09-28,25.5195
2006-09-29,26.1182
2006-10-02,25.7518
2006-10-03,26.2969
2006-10-04,26.8866
2006-10-05,26.6364
2006-10-06,26.1539
2006-10-09,25.9305
2006-10-10,26.0914
2006-10-11,25.9305
2006-10-12,26.9402
2006-10-13,26.565
2006-10-16,27.0475
2006-10-17,26.7973
2006-10-18,26.8062
2006-10-19,26.6096
2006-10-20,26.7973
2006-10-23,27.4049
2006-10-24,27.4138
2006-10-25,27.0385
2006-10-26,27.0922
2006-10-27,26.6007
2006-10-30,26.5024
2006-10-31,26.3148
2006-11-01,25.9484
2006-11-02,24.7332
2006-11-03,24.7332
2006-11-06,24.9119
2006-11-07,24.8226
2006-11-08,24.8583
2006-11-09,24.215
2006-11-10,24.7421
2006-11-13,24.6707
2006-11-14,24.9119
2006-11-15,25.0728
2006-11-16,25.5999
2006-11-17,25.4212
2006-11-20,25.2693
2006-11-21,25.6893
2006-11-22,25.8948
2006-11-24,25.4034
2006-11-27,24.8047
2006-11-28,24.8404
2006-11-29,25.1264
2006-11-30,24.9208
2006-12-01,25.0191
2006-12-04,25.6893
2006-12-05,25.9663
2006-12-06,25.734
2006-12-07,25.6357
2006-12-08,25.5642
2006-12-11,25.8769
2006-12-12,25.6625
2006-12-13,25.7297
2006-12-14,25.8732
2006-12-15,25.9719
2006-12-18,26.0257
2006-12-19,25.8912
2006-12-20,26.3575
2006-12-21,26.1692
2006-12-22,26.6983
2006-12-26,26.7342
2006-12-27,26.6893
2006-12-28,26.5548
2006-12-29,26.3037
2007-01-03,26.4651
2007-01-04,26.2589
2007-01-05,25.954
2007-01-08,26.3306
2007-01-09,26.788
2007-01-10,27.1826
2007-01-11,27.3889
2007-01-12,27.2005
2007-01-16,27.4337
2007-01-17,27.4785
2007-01-18,28.196
2007-01-19,28.8058
2007-01-22,28.4202
2007-01-23,28.196
2007-01-24,28.8507
2007-01-25,28.0884
2007-01-26,27.9808
2007-01-29,28.6354
2007-01-30,28.3395
2007-01-31,29.0749
2007-02-01,29.3708
2007-02-02,29.1556
2007-02-05,29.048
2007-02-06,29.7654
2007-02-07,29.8103
2007-02-08,28.8327
2007-02-09,27.9897
2007-02-12,27.8014
2007-02-13,27.622
2007-02-14,27.8014
2007-02-15,27.9449
2007-02-16,27.8373
2007-02-20,27.6938
2007-02-21,27.5055
2007-02-22,27.2992
2007-02-23,27.0481
2007-02-26,27.0929
2007-02-27,26.1333
2007-02-28,25.9719
2007-03-01,26.0167
2007-03-02,25.7746
2007-03-05,25.2544
2007-03-06,25.2903
2007-03-07,25.7836
2007-03-08,26.1602
2007-03-09,25.7925
2007-03-12,27.3997
2007-03-13,26.5803
2007-03-14,25.896
2007-03-15,26.2652
2007-03-16,26.0761
2007-03-19,26.3372
2007-03-20,26.2472
2007-03-21,26.5893
2007-03-22,26.7064
2007-03-23,26.7514
2007-03-26,26.5353
2007-03-27,26.1751
2007-03-28,25.4908
2007-03-29,26.3462
2007-03-30,26.6614
2007-04-02,26.6524
2007-04-03,27.2286
2007-04-04,27.1476
2007-04-05,27.4087
2007-04-09,27.2466
2007-04-10,27.4897
2007-04-11,27.5978
2007-04-12,28.012
2007-04-13,27.6518
2007-04-16,28.2911
2007-04-17,28.5973
2007-04-18,28.4712
2007-04-19,28.5702
2007-04-20,28.7413
2007-04-23,28.8674
2007-04-24,28.5432
2007-04-25,28.8764
2007-04-26,28.6603
2007-04-27,28.6963
2007-04-30,28.6963
2007-05-01,29.7678
2007-05-02,29.6598
2007-05-03,29.6868
2007-05-04,29.3896
2007-05-07,29.0385
2007-05-08,28.9484
2007-05-09,29.4527
2007-05-10,29.4977
2007-05-11,29.8488
2007-05-14,29.8038
2007-05-15,29.5877
2007-05-16,29.5787
2007-05-17,29.5697
2007-05-18,30.128
2007-05-21,30.4791
2007-05-22,30.3171
2007-05-23,30.0739
2007-05-24,29.9569
2007-05-25,30.0829
2007-05-29,30.3261
2007-05-30,30.4251
2007-05-31,30.3171
2007-06-01,30.4791
2007-06-04,30.3261
2007-06-05,29.7948
2007-06-06,29.7498
2007-06-07,29.3536
2007-06-08,30.9113
2007-06-11,30.6772
2007-06-12,30.4071
2007-06-13,31.1346
2007-06-14,31.3063
2007-06-15,31.6677
2007-06-18,31.6767
2007-06-19,31.7309
2007-06-20,31.3424
2007-06-21,31.3424
2007-06-22,30.8816
2007-06-25,31.4327
2007-06-26,31.5863
2007-06-27,31.496
2007-06-28,30.972
2007-06-29,30.972
2007-07-02,30.5202
2007-07-03,30.6106
2007-07-05,30.5744
2007-07-06,31.2611
2007-07-09,31.0442
2007-07-10,29.9239
2007-07-11,30.1769
2007-07-12,31.1707
2007-07-13,31.4327
2007-07-16,31.6225
2007-07-17,31.1978
2007-07-18,31.2972
2007-07-19,31.8755
2007-07-20,31.1707
2007-07-23,30.728
2007-07-24,29.8426
2007-07-25,29.1288
2007-07-26,27.7374
2007-07-27,27.3309
2007-07-30,27.4845
2007-07-31,26.7888
2007-08-01,26.6171
2007-08-02,27.4393
2007-08-03,25.5419
2007-08-06,26.328
2007-08-07,26.4816
2007-08-08,27.4845
2007-08-09,24.4126
2007-08-10,23.5813
2007-08-13,24.1957
2007-08-14,22.9218
2007-08-15,22.1809
2007-08-16,23.5542
2007-08-17,24.3764
2007-08-20,24.1957
2007-08-21,24.6204
2007-08-22,24.9908
2007-08-23,24.53
2007-08-24,25.4425
2007-08-27,25.2347
2007-08-28,24.3312
2007-08-29,25.56
2007-08-30,25.4787
2007-08-31,26.4364
2007-09-04,26.0117
2007-09-05,24.6475
2007-09-06,25.6142
2007-09-07,25.3883
2007-09-10,24.9456
2007-09-11,25.7768
2007-09-12,25.5727
2007-09-13,25.745
2007-09-14,25.8993
2007-09-17,25.2189
2007-09-18,26.5887
2007-09-19,26.3075
2007-09-20,25.7178
2007-09-21,24.593
2007-09-24,24.466
2007-09-25,23.9126
2007-09-26,24.593
2007-09-27,24.0033
2007-09-28,24.0759
2007-10-01,23.6858
2007-10-02,24.3662
2007-10-03,24.9105
2007-10-04,24.0759
2007-10-05,24.72
2007-10-08,24.4478
2007-10-09,24.72
2007-10-10,25.3368
2007-10-11,25.0737
2007-10-12,24.8288
2007-10-15,24.221
2007-10-16,23.9579
2007-10-17,23.6495
2007-10-18,22.8694
2007-10-19,22.316
2007-10-22,22.8421
2007-10-23,22.5428
2007-10-24,22.6063
2007-10-25,22.3523
2007-10-26,22.951
2007-10-29,22.9147
2007-10-30,23.4409
2007-10-31,22.9691
2007-11-01,21.5721
2007-11-02,21.3544
2007-11-05,20.792
2007-11-06,21.3363
2007-11-07,21.173
2007-11-08,21.0551
2007-11-09,20.4835
2007-11-12,21.3181
2007-11-13,22.2706
2007-11-14,21.1276
2007-11-15,20.284
2007-11-16,20.1025
2007-11-19,19.7306
2007-11-20,19.658
2007-11-21,20.1842
2007-11-23,20.6196
2007-11-26,20.3838
2007-11-27,20.4745
2007-11-28,21.0551
2007-11-29,21.4361
2007-11-30,21.3544
2007-12-03,21.2183
2007-12-04,21.1276
2007-12-05,21.046
2007-12-06,19.277
2007-12-07,18.4152
2007-12-10,18.1522
2007-12-11,17.4627
2007-12-12,17.486
2007-12-13,17.5772
2007-12-14,16.9566
2007-12-17,16.7011
2007-12-18,17.413
2007-12-19,17.2761
2007-12-20,17.5864
2007-12-21,17.8145
2007-12-24,18.1796
2007-12-26,17.5772
2007-12-27,17.2852
2007-12-28,17.3126
2007-12-31,17.5225
2008-01-02,17.0753
2008-01-03,16.0623
2008-01-04,15.5512
2008-01-07,15.7611
2008-01-08,14.739
2008-01-09,14.7572
2008-01-10,14.7207
2008-01-11,14.4834
2008-01-14,14.8028
2008-01-15,14.4652
2008-01-16,15.3961
2008-01-17,15.6425
2008-01-18,16.1262
2008-01-22,17.5407
2008-01-23,18.3986
2008-01-24,17.4403
2008-01-25,16.6646
2008-01-28,17.3126
2008-01-29,17.7233
2008-01-30,17.6959
2008-01-31,19.1652
2008-02-01,19.7584
2008-02-04,17.9879
2008-02-05,16.9019
2008-02-06,16.5551
2008-02-07,18.5081
2008-02-08,17.8967
2008-02-11,19.1652
2008-02-12,18.7271
2008-02-13,18.6359
2008-02-14,18.1522
2008-02-15,17.9697
2008-02-19,17.486
2008-02-20,18.0792
2008-02-21,17.8419
2008-02-22,18.2526
2008-02-25,18.5629
2008-02-26,19.3842
2008-02-27,19.0739
2008-02-28,18.2617
2008-02-29,17.4951
2008-03-03,17.8784
2008-03-04,17.9332
2008-03-05,18.3347
2008-03-06,17.6868
2008-03-07,17.1666
2008-03-10,17.1939
2008-03-11,17.7233
2008-03-12,17.59
2008-03-13,17.4155
2008-03-14,17.094
2008-03-17,16.8827
2008-03-18,17.6267
2008-03-19,17.3787
2008-03-20,18.7841
2008-03-24,19.6567
2008-03-25,19.5006
2008-03-26,18.7106
2008-03-27,18.1595
2008-03-28,17.5349
2008-03-31,17.9207
2008-04-01,19.1791
2008-04-02,19.6659
2008-04-03,19.3812
2008-04-04,18.7474
2008-04-07,18.1411
2008-04-08,17.59
2008-04-09,17.2685
2008-04-10,17.9574
2008-04-11,17.6267
2008-04-14,17.8748
2008-04-15,17.939
2008-04-16,18.086
2008-04-17,18.1044
2008-04-18,18.8484
2008-04-21,18.6647
2008-04-22,17.8472
2008-04-23,18.3157
2008-04-24,19.0137
2008-04-25,19.9047
2008-04-28,19.8955
2008-04-29,20.364
2008-04-30,19.6659
2008-05-01,20.1068
2008-05-02,20.2446
2008-05-05,19.721
2008-05-06,19.6475
2008-05-07,20.0792
2008-05-08,19.6016
2008-05-09,19.8129
2008-05-12,20.2538
2008-05-13,20.4283
2008-05-14,20.1527
2008-05-15,20.4834
2008-05-16,19.868
2008-05-19,19.3812
2008-05-20,18.83
2008-05-21,18.0585
2008-05-22,18.0585
2008-05-23,17.9482
2008-05-27,18.3616
2008-05-28,18.8117
2008-05-29,19.1791
2008-05-30,19.6475
2008-06-02,19.1883
2008-06-03,19.5557
2008-06-04,20.1344
2008-06-05,21.209
2008-06-06,20.4467
2008-06-09,19.5924
2008-06-10,19.4271
2008-06-11,19.4041
2008-06-12,19.7829
2008-06-13,19.9215
2008-06-16,19.7275
2008-06-17,19.0899
2008-06-18,18.3877
2008-06-19,18.5355
2008-06-20,17.9626
2008-06-23,17.5468
2008-06-24,17.6947
2008-06-25,18.3507
2008-06-26,17.7132
2008-06-27,17.9626
2008-06-30,18.4616
2008-07-01,18.7758
2008-07-02,20.3096
2008-07-03,20.5314
2008-07-07,21.2891
2008-07-08,22.3517
2008-07-09,22.1576
2008-07-10,21.0858
2008-07-11,20.8825
2008-07-14,20.8548
2008-07-15,20.3096
2008-07-16,21.6125
2008-07-17,22.3794
2008-07-18,22.0745
2008-07-21,21.5016
2008-07-22,21.7788
2008-07-23,22.1946
2008-07-24,21.2429
2008-07-25,21.0396
2008-07-28,20.7624
2008-07-29,21.5755
2008-07-30,21.2891
2008-07-31,21.4831
2008-08-01,22.2593
2008-08-04,22.3886
2008-08-05,23.0724
2008-08-06,23.2295
2008-08-07,21.9174
2008-08-08,23.017
2008-08-11,23.3496
2008-08-12,22.518
2008-08-13,22.0837
2008-08-14,22.8876
2008-08-15,23.479
2008-08-18,22.98
2008-08-19,21.9543
2008-08-20,21.9636
2008-08-21,21.7695
2008-08-22,22.6658
2008-08-25,21.9543
2008-08-26,22.4071
2008-08-27,22.2038
2008-08-28,22.8229
2008-08-29,23.0262
2008-09-02,23.1001
2008-09-03,23.4697
2008-09-04,24.1073
2008-09-05,25.1237
2008-09-08,25.5949
2008-09-09,25.4101
2008-09-10,24.8372
2008-09-11,25.4728
2008-09-12,25.2964
2008-09-15,25.1293
2008-09-16,24.8508
2008-09-17,23.6162
2008-09-18,25.6492
2008-09-19,25.9741
2008-09-22,24.0246
2008-09-23,24.5538
2008-09-24,24.6466
2008-09-25,24.4238
2008-09-26,25.0179
2008-09-29,23.412
2008-09-30,21.8802
2008-10-01,22.6972
2008-10-02,22.4372
2008-10-03,22.7064
2008-10-06,23.5976
2008-10-07,21.7596
2008-10-08,22.5672
2008-10-09,20.7106
2008-10-10,21.0169
2008-10-13,23.152
2008-10-14,23.1242
2008-10-15,21.6667
2008-10-16,23.709
2008-10-17,22.9385
2008-10-20,22.9571
2008-10-21,23.4862
2008-10-22,22.8364
2008-10-23,22.6693
2008-10-24,23.2541
2008-10-27,23.0778
2008-10-28,24.9529
2008-10-29,25.1108
2008-10-30,25.0643
2008-10-31,25.0365
2008-11-03,24.9901
2008-11-04,25.1479
2008-11-05,23.5419
2008-11-06,23.6069
2008-11-07,24.4795
2008-11-10,25.2222
2008-11-11,25.677
2008-11-12,25.3707
2008-11-13,26.4475
2008-11-14,24.7859
2008-11-17,25.0643
2008-11-18,25.2686
2008-11-19,24.4424
2008-11-20,23.2449
2008-11-21,23.4677
2008-11-24,25.2314
2008-11-25,26.3918
2008-11-26,26.7817
2008-11-28,26.5682
2008-12-01,24.1175
2008-12-02,23.1892
2008-12-03,23.9875
2008-12-04,22.4558
2008-12-05,23.2634
2008-12-08,23.7926
2008-12-09,21.7224
2008-12-10,22.1123
2008-12-11,21.9118
2008-12-12,22.817
2008-12-15,23.0317
2008-12-16,23.9089
2008-12-17,24.0302
2008-12-18,24.4128
2008-12-19,23.6476
2008-12-22,23.069
2008-12-23,22.789
2008-12-24,22.5931
2008-12-26,23.041
2008-12-29,22.7424
2008-12-30,23.7689
2008-12-31,24.3755
2009-01-02,24.2449
2009-01-05,23.5729
2009-01-06,22.6397
2009-01-07,25.8873
2009-01-08,26.4752
2009-01-09,25.6913
2009-01-12,26.1953
2009-01-13,26.1113
2009-01-14,25.6073
2009-01-15,26.7832
2009-01-16,26.5126
2009-01-20,25.9806
2009-01-21,26.3259
2009-01-22,26.0833
2009-01-23,25.654
2009-01-26,25.4207
2009-01-27,25.85
2009-01-28,26.4286
2009-01-29,25.766
2009-01-30,25.9433
2009-02-02,25.8593
2009-02-03,27.1845
2009-02-04,26.4659
2009-02-05,24.8608
2009-02-06,25.0941
2009-02-09,25.5887
2009-02-10,24.8981
2009-02-11,25.0194
2009-02-12,25.57
2009-02-13,24.8234
2009-02-17,24.7581
2009-02-18,24.6741
2009-02-19,24.8234
2009-02-20,25.1874
2009-02-23,24.9261
2009-02-24,25.4207
2009-02-25,25.6447
2009-02-26,25.3554
2009-02-27,25.682
2009-03-02,25.794
2009-03-03,24.6928
2009-03-04,25.4487
2009-03-05,28.6216
2009-03-06,28.2857
2009-03-09,28.5563
2009-03-10,29.1909
2009-03-11,28.933
2009-03-12,29.2423
2009-03-13,29.5235
2009-03-16,28.6519
2009-03-17,29.5048
2009-03-18,29.7297
2009-03-19,29.3267
2009-03-20,28.9705
2009-03-23,29.9172
2009-03-24,29.3548
2009-03-25,30.0296
2009-03-26,31.0325
2009-03-27,31.5011
2009-03-30,31.623
2009-03-31,31.3137
2009-04-01,30.8544
2009-04-02,30.0484
2009-04-03,29.8797
2009-04-06,31.2481
2009-04-07,30.6295
2009-04-08,32.4384
2009-04-09,32.1197
2009-04-13,31.7167
2009-04-14,31.7729
2009-04-15,31.07
2009-04-16,31.2012
2009-04-17,30.7326
2009-04-20,31.2387
2009-04-21,31.0325
2009-04-22,31.4543
2009-04-23,30.4983
2009-04-24,30.667
2009-04-27,30.6951
2009-04-28,31.1731
2009-04-29,31.0138
2009-04-30,31.0606
2009-05-01,30.0952
2009-05-04,30.5545
2009-05-05,30.845
2009-05-06,29.889
2009-05-07,29.5423
2009-05-08,28.3238
2009-05-11,30.0109
2009-05-12,28.9049
2009-05-13,28.8018
2009-05-14,28.6987
2009-05-15,28.3426
2009-05-18,28.0895
2009-05-19,29.008
2009-05-20,27.7615
2009-05-21,27.8646
2009-05-22,28.0239
2009-05-26,29.3079
2009-05-27,28.9987
2009-05-28,27.8365
2009-05-29,28.2863
2009-06-01,29.2236
2009-06-02,30.4889
2009-06-03,30.3296
2009-06-04,28.755
2009-06-05,28.8768
2009-06-08,28.8581
2009-06-09,28.8956
2009-06-10,28.7269
2009-06-11,27.6582
2009-06-12,27.7241
2009-06-15,27.0934
2009-06-16,26.8204
2009-06-17,27.3005
2009-06-18,26.9804
2009-06-19,27.3193
2009-06-22,27.4605
2009-06-23,26.8675
2009-06-24,26.9239
2009-06-25,27.197
2009-06-26,27.1875
2009-06-29,27.0746
2009-06-30,26.6415
2009-07-01,26.5756
2009-07-02,26.425
2009-07-06,26.3685
2009-07-07,26.1614
2009-07-08,29.3904
2009-07-09,28.9479
2009-07-10,28.4773
2009-07-13,28.2984
2009-07-14,28.835
2009-07-15,29.1645
2009-07-16,28.9009
2009-07-17,28.9291
2009-07-20,29.0797
2009-07-21,28.609
2009-07-22,28.9197
2009-07-23,29.1927
2009-07-24,29.2586
2009-07-27,29.2021
2009-07-28,29.7387
2009-07-29,29.7858
2009-07-30,29.8329
2009-07-31,29.5787
2009-08-03,29.2869
2009-08-04,29.2021
2009-08-05,28.9009
2009-08-06,28.995
2009-08-07,29.5881
2009-08-10,28.7597
2009-08-11,29.4751
2009-08-12,29.1833
2009-08-13,28.2419
2009-08-14,27.5829
2009-08-17,27.4041
2009-08-18,27.3664
2009-08-19,27.8089
2009-08-20,27.6865
2009-08-21,27.9689
2009-08-24,27.5076
2009-08-25,28.0442
2009-08-26,29.0044
2009-08-27,28.9668
2009-08-28,28.8915
2009-08-31,28.5149
2009-09-01,28.7032
2009-09-02,29.1739
2009-09-03,26.6415
2009-09-04,27.0746
2009-09-08,26.5286
2009-09-09,26.2273
2009-09-10,26.1897
2009-09-11,25.8349
2009-09-14,25.4944
2009-09-15,25.5038
2009-09-16,25.5606
2009-09-17,25.0876
2009-09-18,25.0498
2009-09-21,25.4471
2009-09-22,25.2389
2009-09-23,25.1349
2009-09-24,24.8889
2009-09-25,24.9362
2009-09-28,24.8038
2009-09-29,24.5389
2009-09-30,25.0025
2009-10-01,25.4281
2009-10-02,25.1916
2009-10-05,25.4471
2009-10-06,26.9323
2009-10-07,26.6012
2009-10-08,27.0931
2009-10-09,27.0647
2009-10-12,26.8187
2009-10-13,26.6012
2009-10-14,26.6579
2009-10-15,27.1404
2009-10-16,26.8093
2009-10-19,27.0647
2009-10-20,27.6039
2009-10-21,26.9133
2009-10-22,27.6796
2009-10-23,27.5945
2009-10-26,27.4336
2009-10-27,27.6418
2009-10-28,27.2255
2009-10-29,27.2539
2009-10-30,26.7998
2009-11-02,27.1782
2009-11-03,26.8471
2009-11-04,26.9228
2009-11-05,27.1309
2009-11-06,27.0174
2009-11-09,27.9918
2009-11-10,28.0391
2009-11-11,28.0958
2009-11-12,28.0202
2009-11-13,28.0202
2009-11-16,28.5972
2009-11-17,28.2661
2009-11-18,28.881
2009-11-19,28.6256
2009-11-20,28.7675
2009-11-23,28.8621
2009-11-24,29.354
2009-11-25,29.7797
2009-11-27,29.3445
2009-11-30,28.8715
2009-12-01,29.2026
2009-12-02,29.0513
2009-12-03,26.9039
2009-12-04,26.7431
2009-12-07,26.7714
2009-12-08,26.7431
2009-12-09,26.5255
2009-12-10,26.412
2009-12-11,26.797
2009-12-14,26.7019
2009-12-15,26.5974
2009-12-16,26.7019
2009-12-17,26.7495
2009-12-18,26.854
2009-12-21,26.8731
2009-12-22,26.5308
2009-12-23,26.5689
2009-12-24,26.6354
2009-12-28,26.4928
2009-12-29,26.4928
2009-12-30,26.6544
2009-12-31,26.4453
2010-01-04,26.027
2010-01-05,26.1411
2010-01-06,29.4301
2010-01-07,29.0214
2010-01-08,28.6506
2010-01-11,29.0214
2010-01-12,28.7932
2010-01-13,28.7932
2010-01-14,28.8218
2010-01-15,29.1259
2010-01-19,29.3066
2010-01-20,29.0404
2010-01-21,29.3351
2010-01-22,28.8313
2010-01-25,28.9929
2010-01-26,28.9453
2010-01-27,29.0974
2010-01-28,29.2115
2010-01-29,29.3731
2010-02-01,29.4967
2010-02-02,29.7153
2010-02-03,29.7438
2010-02-04,29.5822
2010-02-05,29.5632
2010-02-08,29.9244
2010-02-09,30.01
2010-02-10,29.8674
2010-02-11,30.2286
2010-02-12,30.0575
2010-02-16,30.6754
2010-02-17,30.7895
2010-02-18,30.799
2010-02-19,30.894
2010-02-22,30.78
2010-02-23,30.7609
2010-02-24,31.3788
2010-02-25,31.1507
2010-02-26,31.3503
2010-03-01,31.1032
2010-03-02,31.3218
2010-03-03,30.9891
2010-03-04,33.5271
2010-03-05,33.6983
2010-03-08,33.7648
2010-03-09,33.8884
2010-03-10,33.8694
2010-03-11,33.7214
2010-03-12,33.7405
2010-03-15,33.8168
2010-03-16,33.8168
2010-03-17,34.4565
2010-03-18,34.5233
2010-03-19,34.1987
2010-03-22,34.7143
2010-03-23,34.8098
2010-03-24,34.4661
2010-03-25,34.3897
2010-03-26,35.2394
2010-03-29,35.1726
2010-03-30,35.3253
2010-03-31,34.9625
2010-04-01,35.2776
2010-04-05,35.7741
2010-04-06,36.1082
2010-04-07,37.1966
2010-04-08,37.0439
2010-04-09,36.7383
2010-04-12,36.2801
2010-04-13,37.168
2010-04-14,37.1871
2010-04-15,37.1298
2010-04-16,36.6811
2010-04-19,36.2992
2010-04-20,36.6333
2010-04-21,37.1775
2010-04-22,38.0177
2010-04-23,38.4473
2010-04-26,38.0654
2010-04-27,37.4926
2010-04-28,37.4544
2010-04-29,38.0941
2010-04-30,37.779
2010-05-03,37.8267
2010-05-04,37.6358
2010-05-05,38.18
2010-05-06,37.3398
2010-05-07,37.1584
2010-05-10,37.8363
2010-05-11,38.1609
2010-05-12,38.7719
2010-05-13,38.581
2010-05-14,38.3519
2010-05-17,38.6478
2010-05-18,38.2564
2010-05-19,39.488
2010-05-20,38.4473
2010-05-21,39.4307
2010-05-24,39.5835
2010-05-25,39.8603
2010-05-26,38.8197
2010-05-27,38.9056
2010-05-28,38.9533
2010-06-01,38.4664
2010-06-02,38.2755
2010-06-03,36.9484
2010-06-04,36.4328
2010-06-07,35.6786
2010-06-08,36.0987
2010-06-09,36.3469
2010-06-10,36.9484
2010-06-11,36.9628
2010-06-14,37.375
2010-06-15,37.8543
2010-06-16,37.7009
2010-06-17,37.9502
2010-06-18,37.7393
2010-06-21,37.4613
2010-06-22,36.8766
2010-06-23,37.5763
2010-06-24,37.4805
2010-06-25,36.5794
2010-06-28,36.9149
2010-06-29,36.474
2010-06-30,36.1385
2010-07-01,37.145
2010-07-02,37.0491
2010-07-06,37.816
2010-07-07,34.6718
2010-07-08,34.7869
2010-07-09,34.5089
2010-07-12,34.6143
2010-07-13,34.9882
2010-07-14,35.5537
2010-07-15,36.4835
2010-07-16,36.5602
2010-07-19,36.5602
2010-07-20,36.7328
2010-07-21,36.6944
2010-07-22,37.1354
2010-07-23,37.816
2010-07-26,38.0652
2010-07-27,37.8639
2010-07-28,39.5893
2010-07-29,39.2347
2010-07-30,39.6948
2010-08-02,40.1645
2010-08-03,39.6564
2010-08-04,40.2508
2010-08-05,40.1741
2010-08-06,40.2316
2010-08-09,40.9505
2010-08-10,40.9218
2010-08-11,40.8547
2010-08-12,41.1231
2010-08-13,41.1422
2010-08-16,41.0943
2010-08-17,41.5928
2010-08-18,41.8037
2010-08-19,41.3915
2010-08-20,41.0464
2010-08-23,41.1327
2010-08-24,41.4106
2010-08-25,41.0464
2010-08-26,41.2764
2010-08-27,41.5544
2010-08-30,41.2093
2010-08-31,41.0176
2010-09-01,41.5065
2010-09-02,41.6599
2010-09-03,40.7013
2010-09-07,40.5
2010-09-08,40.6917
2010-09-09,40.6342
2010-09-10,40.7876
2010-09-13,41.3502
2010-09-14,41.4272
2010-09-15,41.6292
2010-09-16,41.3598
2010-09-17,41.8024
2010-09-20,42.2834
2010-09-21,42.0044
2010-09-22,41.7927
2010-09-23,41.6292
2010-09-24,41.7543
2010-09-27,41.3309
2010-09-28,41.7254
2010-09-29,42.3796
2010-09-30,42.5143
2010-10-01,42.6201
2010-10-04,42.6875
2010-10-05,43.6207
2010-10-06,43.967
2010-10-07,44.5058
2010-10-08,43.7458
2010-10-11,44.3904
2010-10-12,44.3615
2010-10-13,44.3038
2010-10-14,43.967
2010-10-15,43.8805
2010-10-18,43.9863
2010-10-19,43.2455
2010-10-20,43.6977
2010-10-21,43.5437
2010-10-22,43.6592
2010-10-25,44.1402
2010-10-26,44.602
2010-10-27,44.4288
2010-10-28,44.3134
2010-10-29,44.4192
2010-11-01,44.7944
2010-11-02,45.2081
2010-11-03,45.3813
2010-11-04,45.9585
2010-11-05,46.6128
2010-11-08,46.5935
2010-11-09,46.1798
2010-11-10,46.5454
2010-11-11,46.6512
2010-11-12,46.5166
2010-11-15,46.4107
2010-11-16,46.1894
2010-11-17,46.5454
2010-11-18,46.911
2010-11-19,46.9976
2010-11-22,47.3439
2010-11-23,47.546
2010-11-24,48.7486
2010-11-26,48.739
2010-11-29,48.3445
2010-11-30,48.2772
2010-12-01,48.3926
2010-12-02,48.7005
2010-12-03,49.1142
2010-12-06,48.9602
2010-12-07,48.9699
2010-12-08,48.6235
2010-12-09,47.5748
2010-12-10,47.8635
2010-12-13,47.3375
2010-12-14,47.4726
2010-12-15,47.4822
2010-12-16,47.8876
2010-12-17,47.8683
2010-12-20,48.013
2010-12-21,47.4726
2010-12-22,47.3761
2010-12-23,47.9358
2010-12-27,47.8586
2010-12-28,47.8586
2010-12-29,48.2446
2010-12-30,48.6114
2010-12-31,47.9937
2011-01-03,48.5245
2011-01-04,47.5498
2011-01-05,43.4771
2011-01-06,42.8498
2011-01-07,42.3576
2011-01-10,42.4348
2011-01-11,41.7496
2011-01-12,41.8075
2011-01-13,41.7786
2011-01-14,41.7207
2011-01-18,41.9716
2011-01-19,42.1357
2011-01-20,42.7051
2011-01-21,42.2322
2011-01-24,41.8944
2011-01-25,41.3539
2011-01-26,41.4118
2011-01-27,41.4118
2011-01-28,40.9872
2011-01-31,40.9679
2011-02-01,40.91
2011-02-02,39.9642
2011-02-03,40.2537
2011-02-04,40.1283
2011-02-07,40.4081
2011-02-08,42.4734
2011-02-09,42.4541
2011-02-10,42.2708
2011-02-11,42.6278
2011-02-14,42.3094
2011-02-15,42.4252
2011-02-16,51.4294
2011-02-17,50.8214
2011-02-18,50.7346
2011-02-22,49.2676
2011-02-23,48.5921
2011-02-24,48.3701
2011-02-25,48.814
2011-02-28,48.3219
2011-03-01,48.3508
2011-03-02,48.65
2011-03-03,49.2097
2011-03-04,48.7851
2011-03-07,48.8333
2011-03-08,48.3894
2011-03-09,48.8044
2011-03-10,48.8816
2011-03-11,49.6564
2011-03-14,49.7727
2011-03-15,49.1819
2011-03-16,49.2884
2011-03-17,49.4724
2011-03-18,49.5886
2011-03-21,49.5015
2011-03-22,49.7339
2011-03-23,50.1504
2011-03-24,50.2763
2011-03-25,50.4022
2011-03-28,49.7823
2011-03-29,50.7315
2011-03-30,50.7218
2011-03-31,49.7339
2011-04-01,49.8986
2011-04-04,50.2763
2011-04-05,50.315
2011-04-06,50.2957
2011-04-07,50.5572
2011-04-08,50.1601
2011-04-11,50.3441
2011-04-12,50.2279
2011-04-13,49.792
2011-04-14,49.7823
2011-04-15,50.3635
2011-04-18,50.3344
2011-04-19,50.315
2011-04-20,50.7896
2011-04-21,50.5475
2011-04-25,50.2957
2011-04-26,50.7024
2011-04-27,51.1964
2011-04-28,51.9809
2011-04-29,52.4845
2011-05-02,52.3102
2011-05-03,52.0584
2011-05-04,52.1746
2011-05-05,51.9325
2011-05-06,51.3901
2011-05-09,51.4288
2011-05-10,51.5257
2011-05-11,50.5475
2011-05-12,50.654
2011-05-13,50.3053
2011-05-16,50.5765
2011-05-17,51.5257
2011-05-18,52.3199
2011-05-19,52.3683
2011-05-20,51.9809
2011-05-23,52.5426
2011-05-24,52.6298
2011-05-25,53.1141
2011-05-26,53.5693
2011-05-27,53.8114
2011-05-31,53.9664
2011-06-01,53.0947
2011-06-02,51.3514
2011-06-03,50.7121
2011-06-06,50.286
2011-06-07,50.5281
2011-06-08,49.8695
2011-06-09,50.8574
2011-06-10,50.6928
2011-06-13,50.3817
2011-06-14,51.2078
2011-06-15,50.8774
2011-06-16,50.6927
2011-06-17,51.0912
2011-06-20,51.9853
2011-06-21,52.1408
2011-06-22,51.8298
2011-06-23,51.5965
2011-06-24,50.8288
2011-06-27,50.8385
2011-06-28,51.5091
2011-06-29,51.927
2011-06-30,51.1106
2011-07-01,52.5004
2011-07-05,52.1213
2011-07-06,52.9669
2011-07-07,53.5986
2011-07-08,52.9669
2011-07-11,51.441
2011-07-12,50.7802
2011-07-13,51.2564
2011-07-14,50.9843
2011-07-15,50.8968
2011-07-18,50.9357
2011-07-19,51.4022
2011-07-20,52.0922
2011-07-21,52.685
2011-07-22,52.5781
2011-07-25,52.0047
2011-07-26,52.7045
2011-07-27,51.8298
2011-07-28,51.6646
2011-07-29,51.752
2011-08-01,51.4216
2011-08-02,50.1776
2011-08-03,49.8666
2011-08-04,47.6022
2011-08-05,47.2134
2011-08-08,43.9091
2011-08-09,45.9014
2011-08-10,45.0073
2011-08-11,47.4078
2011-08-12,47.8257
2011-08-15,48.8559
2011-08-16,49.8958
2011-08-17,48.4768
2011-08-18,47.7479
2011-08-19,47.2037
2011-08-22,46.3679
2011-08-23,46.6011
2011-08-24,46.883
2011-08-25,45.7848
2011-08-26,46.2318
2011-08-29,47.6216
2011-08-30,49.682
2011-08-31,51.8104
2011-09-01,51.2272
2011-09-02,50.44
2011-09-06,48.9725
2011-09-07,51.5965
2011-09-08,50.5178
2011-09-09,48.8947
2011-09-12,49.4973
2011-09-13,50.1117
2011-09-14,50.7067
2011-09-15,50.7262
2011-09-16,52.0819
2011-09-19,52.1794
2011-09-20,52.3355
2011-09-21,51.7015
2011-09-22,51.0675
2011-09-23,53.184
2011-09-26,53.4766
2011-09-27,52.9206
2011-09-28,51.9063
2011-09-29,49.7021
2011-09-30,49.6338
2011-10-03,48.7853
2011-10-04,50.2873
2011-10-05,51.4577
2011-10-06,51.8283
2011-10-07,51.4869
2011-10-10,52.6183
2011-10-11,52.355
2011-10-12,52.9011
2011-10-13,52.5988
2011-10-14,53.0572
2011-10-17,53.8374
2011-10-18,54.9591
2011-10-19,56.188
2011-10-20,56.461
2011-10-21,57.6412
2011-10-24,57.4754
2011-10-25,58.2069
2011-10-26,57.924
2011-10-27,57.5534
2011-10-28,56.6073
2011-10-31,57.2218
2011-11-01,57.4656
2011-11-02,56.8414
2011-11-03,56.9585
2011-11-04,57.4364
2011-11-07,57.4461
2011-11-08,57.5241
2011-11-09,56.1099
2011-11-10,56.4708
2011-11-11,57.2803
2011-11-14,56.6561
2011-11-15,56.1294
2011-11-16,54.8713
2011-11-17,54.5787
2011-11-18,55.3102
2011-11-21,56.1977
2011-11-22,55.9734
2011-11-23,54.5982
2011-11-25,54.5202
2011-11-28,55.0371
2011-11-29,55.6515
2011-11-30,57.9728
2011-12-01,57.5924
2011-12-02,57.2901
2011-12-05,57.7387
2011-12-06,57.3583
2011-12-07,56.7731
2011-12-08,56.2855
2011-12-09,56.5098
2011-12-12,56.1294
2011-12-13,55.4152
2011-12-14,55.8554
2011-12-15,55.9924
2011-12-16,56.6773
2011-12-19,55.9142
2011-12-20,56.7458
2011-12-21,57.0393
2011-12-22,56.7653
2011-12-23,57.4893
2011-12-27,57.3426
2011-12-28,56.1979
2011-12-29,56.5403
2011-12-30,56.4523
2012-01-03,56.1979
2012-01-04,55.9337
2012-01-05,56.6773
2012-01-06,52.4801
2012-01-09,52.754
2012-01-10,52.5779
2012-01-11,52.6268
2012-01-12,52.7736
2012-01-13,52.617
2012-01-17,52.6562
2012-01-18,52.617
2012-01-19,53.8694
2012-01-20,53.5758
2012-01-23,54.5346
2012-01-24,55.0728
2012-01-25,55.7772
2012-01-26,54.5444
2012-01-27,54.5249
2012-01-30,54.5151
2012-01-31,54.6227
2012-02-01,55.3271
2012-02-02,55.3663
2012-02-03,56.3153
2012-02-06,56.2957
2012-02-07,55.9239
2012-02-08,56.237
2012-02-09,56.4229
2012-02-10,56.3544
2012-02-13,55.8652
2012-02-14,55.7967
2012-02-15,54.6521
2012-02-16,54.065
2012-02-17,53.6835
2012-02-21,53.0377
2012-02-22,53.1845
2012-02-23,53.7128
2012-02-24,53.1258
2012-02-27,52.7638
2012-02-28,53.0475
2012-02-29,52.9008
2012-03-01,53.3802
2012-03-02,53.3312
2012-03-05,53.7422
2012-03-06,54.0552
2012-03-07,54.6912
2012-03-08,55.6402
2012-03-09,56.149
2012-03-12,56.0022
2012-03-13,56.4442
2012-03-14,56.5522
2012-03-15,56.2772
2012-03-16,55.7175
2012-03-19,55.4327
2012-03-20,55.963
2012-03-21,55.8059
2012-03-22,56.5718
2012-03-23,56.6307
2012-03-26,57.3869
2012-03-27,57.2298
2012-03-28,57.3476
2012-03-29,58.958
2012-03-30,62.12
2012-04-02,61.7174
2012-04-03,62.3459
2012-04-04,62.8761
2012-04-05,63.6617
2012-04-09,62.719
2012-04-10,61.737
2012-04-11,62.2968
2012-04-12,63.2591
2012-04-13,63.1413
2012-04-16,63.5046
2012-04-17,63.5537
2012-04-18,65.7828
2012-04-19,66.3032
2012-04-20,67.1085
2012-04-23,66.9022
2012-04-24,65.007
2012-04-25,65.7141
2012-04-26,66.1461
2012-04-27,67.8057
2012-04-30,66.3327
2012-05-01,66.4309
2012-05-02,67.295
2012-05-03,67.4423
2012-05-04,66.8335
2012-05-07,67.0594
2012-05-08,66.1363
2012-05-09,67.6682
2012-05-10,67.187
2012-05-11,68.0806
2012-05-14,65.8221
2012-05-15,65.2722
2012-05-16,66.0676
2012-05-17,62.994
2012-05-18,63.0333
2012-05-21,63.8778
2012-05-22,63.485
2012-05-23,64.2018
2012-05-24,66.372
2012-05-25,66.3916
2012-05-29,66.1068
2012-05-30,65.9203
2012-05-31,66.5586
2012-06-01,66.0381
2012-06-04,66.5978
2012-06-05,66.2934
2012-06-06,66.4604
2012-06-07,65.9203
2012-06-08,68.277
2012-06-11,67.6387
2012-06-12,68.1395
2012-06-13,68.8683
2012-06-14,71.7149
2012-06-15,72.2073
2012-06-18,71.6459
2012-06-19,71.311
2012-06-20,70.6609
2012-06-21,68.3069
2012-06-22,69.4297
2012-06-25,69.0456
2012-06-26,69.5775
2012-06-27,68.1099
2012-06-28,66.2188
2012-06-29,65.3422
2012-07-02,66.8984
2012-07-03,66.268
2012-07-05,67.1939
2012-07-06,68.5236
2012-07-09,69.3707
2012-07-10,68.7009
2012-07-11,68.8486
2012-07-12,67.6371
2012-07-13,66.4453
2012-07-16,67.3613
2012-07-17,67.2727
2012-07-18,65.4111
2012-07-19,65.0664
2012-07-20,65.746
2012-07-23,65.2043
2012-07-24,65.5293
2012-07-25,63.5397
2012-07-26,65.3323
2012-07-27,65.5687
2012-07-30,65.6968
2012-07-31,65.027
2012-08-01,65.0565
2012-08-02,64.7807
2012-08-03,65.1353
2012-08-06,64.4853
2012-08-07,65.0171
2012-08-08,65.224
2012-08-09,63.8647
2012-08-10,62.7813
2012-08-13,63.0768
2012-08-14,62.2691
2012-08-15,62.801
2012-08-16,63.7367
2012-08-17,63.8943
2012-08-20,63.7958
2012-08-21,63.3329
2012-08-22,62.9487
2012-08-23,61.6978
2012-08-24,61.3826
2012-08-27,60.6341
2012-08-28,60.6932
2012-08-29,62.5449
2012-08-30,63.4215
2012-08-31,62.7517
2012-09-04,62.0032
2012-09-05,62.407
2012-09-06,62.5055
2012-09-07,62.2691
2012-09-10,62.3282
2012-09-11,62.1017
2012-09-12,63.0503
2012-09-13,63.4259
2012-09-14,63.4259
2012-09-17,63.4654
2012-09-18,62.7934
2012-09-19,63.1788
2012-09-20,63.6038
2012-09-21,63.2282
2012-09-24,63.8212
2012-09-25,62.4179
2012-09-26,63.4358
2012-09-27,64.6019
2012-09-28,65.3925
2012-10-01,64.6019
2012-10-02,65.2838
2012-10-03,67.7248
2012-10-04,67.8829
2012-10-05,68.2386
2012-10-08,67.7939
2012-10-09,67.2109
2012-10-10,67.2504
2012-10-11,65.4419
2012-10-12,65.6791
2012-10-15,65.7186
2012-10-16,67.616
2012-10-17,65.4024
2012-10-18,64.9873
2012-10-19,64.3351
2012-10-22,63.92
2012-10-23,64.4537
2012-10-24,63.8903
2012-10-25,65.2047
2012-10-26,64.928
2012-10-31,65.185
2012-11-01,65.3826
2012-11-02,65.1652
2012-11-05,64.5821
2012-11-06,65.521
2012-11-07,65.6988
2012-11-08,65.3233
2012-11-09,65.6297
2012-11-12,65.5407
2012-11-13,65.096
2012-11-14,64.8984
2012-11-15,65.1751
2012-11-16,65.7977
2012-11-19,68.5944
2012-11-20,68.1201
2012-11-21,68.0113
2012-11-23,68.0212
2012-11-26,68.6241
2012-11-27,68.0608
2012-11-28,68.1892
2012-11-29,69.5431
2012-11-30,70.4424
2012-12-03,69.7012
2012-12-04,69.8001
2012-12-05,68.8019
2012-12-06,69.2565
2012-12-07,70.146
2012-12-10,69.7507
2012-12-11,63.9694
2012-12-12,65.9624
2012-12-13,65.3378
2012-12-14,65.1792
2012-12-17,65.546
2012-12-18,65.1693
2012-12-19,63.8109
2012-12-20,63.1566
2012-12-21,62.522
2012-12-24,62.294
2012-12-26,62.0759
2012-12-27,61.9371
2012-12-28,62.2444
2012-12-31,62.7798
2013-01-02,63.3553
2013-01-03,55.1658
2013-01-04,56.2564
2013-01-07,56.7124
2013-01-08,56.8314
2013-01-09,56.0679
2013-01-10,56.5538
2013-01-11,55.949
2013-01-14,56.0779
2013-01-15,57.0495
2013-01-16,57.8526
2013-01-17,57.6345
2013-01-18,57.7931
2013-01-22,57.9022
2013-01-23,57.5354
2013-01-24,58.4079
2013-01-25,58.0806
2013-01-28,57.6539
2013-01-29,57.1185
2013-01-30,56.484
2013-01-31,56.2857
2013-02-01,55.5718
2013-02-04,56.0378
2013-02-05,56.0477
2013-02-06,55.6512
2013-02-07,55.5024
2013-02-08,56.9054
2013-02-11,56.3848
2013-02-12,55.8296
2013-02-13,55.0265
2013-02-14,56.1171
2013-02-15,55.4231
2013-02-19,54.6006
2013-02-20,54.4122
2013-02-21,55.7706
2013-02-22,56.1671
2013-02-25,55.552
2013-02-26,55.8296
2013-02-27,57.1879
2013-02-28,57.0888
2013-03-01,58.1497
2013-03-04,58.4574
2013-03-05,58.3483
2013-03-06,58.1104
2013-03-07,57.8823
2013-03-08,58.3186
2013-03-11,58.0112
2013-03-12,58.0608
2013-03-13,58.867
2013-03-14,59.2056
2013-03-15,59.1857
2013-03-18,58.6877
2013-03-19,57.891
2013-03-20,60.1019
2013-03-21,59.6139
2013-03-22,61.038
2013-03-25,60.0023
2013-03-26,60.4006
2013-03-27,59.1956
2013-03-28,58.8172
2013-04-01,58.5981
2013-04-02,58.1898
2013-04-03,57.5325
2013-04-04,59.2554
2013-04-05,59.1657
2013-04-08,59.106
2013-04-09,59.4944
2013-04-10,60.1118
2013-04-11,59.5143
2013-04-12,60.809
2013-04-15,60.3807
2013-04-16,61.3567
2013-04-17,61.1874
2013-04-18,61.4264
2013-04-19,62.263
2013-04-22,62.1733
2013-04-23,63.2688
2013-04-24,63.0995
2013-04-25,62.9402
2013-04-26,62.6912
2013-04-29,61.7451
2013-04-30,61.0978
2013-05-01,60.5201
2013-05-02,61.1077
2013-05-03,62.1036
2013-05-06,62.0638
2013-05-07,62.0837
2013-05-08,63.1891
2013-05-09,62.6115
2013-05-10,62.7808
2013-05-13,62.3924
2013-05-14,63.2688
2013-05-15,65.2008
2013-05-16,64.2448
2013-05-17,64.0356
2013-05-20,63.2987
2013-05-21,63.7269
2013-05-22,63.7468
2013-05-23,64.0456
2013-05-24,63.3385
2013-05-28,63.3983
2013-05-29,62.6713
2013-05-30,62.0538
2013-05-31,60.9783
2013-06-03,61.2671
2013-06-04,59.9425
2013-06-05,59.7035
2013-06-06,61.2372
2013-06-07,61.8248
2013-06-10,62.243
2013-06-11,62.9501
2013-06-12,62.08
2013-06-13,62.72
2013-06-14,63.31
2013-06-17,63.6
2013-06-18,64.06
2013-06-19,63.24
2013-06-20,61.69
2013-06-21,62.04
2013-06-24,61.29
2013-06-25,60.41
2013-06-26,60.04
2013-06-27,61.61
2013-06-28,62.27
2013-07-01,63.36
2013-07-02,63.35
2013-07-03,63.32
2013-07-05,63.78
2013-07-08,64.24
2013-07-09,63.91
2013-07-10,68.51
2013-07-11,69.99
2013-07-12,68.34
2013-07-15,68.47
2013-07-16,68.1
2013-07-17,68.53
2013-07-18,68.52
2013-07-19,67.71
2013-07-22,67.68
2013-07-23,68.1
2013-07-24,68.1
2013-07-25,68.02
2013-07-26,68.48
2013-07-29,68.46
2013-07-30,68.88
2013-07-31,68.78
2013-08-01,70.99
2013-08-02,70.53
2013-08-05,70.3
2013-08-06,70.41
2013-08-07,70.38
2013-08-08,71.24
2013-08-09,71.47
