date,close_price
1998-01-02,13.6244
1998-01-05,13.4211
1998-01-06,13.4779
1998-01-07,13.4495
1998-01-08,13.388
1998-01-09,13.388
1998-01-12,13.5961
1998-01-13,13.4495
1998-01-14,13.4495
1998-01-15,13.3596
1998-01-16,13.4211
1998-01-20,13.4495
1998-01-21,13.4495
1998-01-22,13.4779
1998-01-23,13.3596
1998-01-26,13.5394
1998-01-27,13.5677
1998-01-28,13.6859
1998-01-29,13.9507
1998-01-30,13.7427
1998-02-02,13.7143
1998-02-03,13.9224
1998-02-04,13.8913
1998-02-05,14.0111
1998-02-06,14.1308
1998-02-09,14.0397
1998-02-10,13.9823
1998-02-11,13.9535
1998-02-12,14.0111
1998-02-13,14.2218
1998-02-17,13.9823
1998-02-18,14.0111
1998-02-19,13.9823
1998-02-20,13.8913
1998-02-23,13.8913
1998-02-24,13.8002
1998-02-25,13.8913
1998-02-26,13.7716
1998-02-27,13.8625
1998-03-02,13.8338
1998-03-03,13.92
1998-03-04,14.0111
1998-03-05,13.9535
1998-03-06,14.2218
1998-03-09,14.2505
1998-03-10,14.49
1998-03-11,14.3703
1998-03-12,14.3415
1998-03-13,14.2792
1998-03-16,14.49
1998-03-17,14.6386
1998-03-18,14.581
1998-03-19,14.6098
1998-03-20,14.7918
1998-03-23,14.7583
1998-03-24,14.6721
1998-03-25,14.8493
1998-03-26,14.7583
1998-03-27,14.6098
1998-03-30,14.49
1998-03-31,14.7918
1998-04-01,14.8205
1998-04-02,14.969
1998-04-03,14.9116
1998-04-06,14.8205
1998-04-07,14.7008
1998-04-08,14.6098
1998-04-09,14.8205
1998-04-13,14.7295
1998-04-14,14.9403
1998-04-15,15.2085
1998-04-16,14.969
1998-04-17,15.0888
1998-04-20,14.7918
1998-04-21,14.7918
1998-04-22,14.7008
1998-04-23,14.4326
1998-04-24,14.3703
1998-04-27,14.1595
1998-04-28,14.2505
1998-04-29,14.1931
1998-04-30,14.4326
1998-05-01,14.581
1998-05-04,14.581
1998-05-05,14.4282
1998-05-06,14.5496
1998-05-07,14.3701
1998-05-08,14.5204
1998-05-11,14.6417
1998-05-12,14.5786
1998-05-13,14.4282
1998-05-14,14.4282
1998-05-15,14.4282
1998-05-18,14.3701
1998-05-19,14.3361
1998-05-20,14.307
1998-05-21,14.2489
1998-05-22,14.1858
1998-05-26,14.0646
1998-05-27,13.8851
1998-05-28,14.2149
1998-05-29,14.3992
1998-06-01,14.6708
1998-06-02,14.7629
1998-06-03,14.8211
1998-06-04,15.0054
1998-06-05,15.0636
1998-06-08,14.9424
1998-06-09,15.0345
1998-06-10,15.2188
1998-06-11,15.1266
1998-06-12,15.0975
1998-06-15,14.9132
1998-06-16,14.8842
1998-06-17,14.8211
1998-06-18,14.8551
1998-06-19,14.7629
1998-06-22,14.8211
1998-06-23,14.8211
1998-06-24,14.6708
1998-06-25,14.7339
1998-06-26,14.792
1998-06-29,14.8551
1998-06-30,14.9132
1998-07-01,14.9424
1998-07-02,14.9424
1998-07-06,14.7339
1998-07-07,14.6417
1998-07-08,14.5786
1998-07-09,14.4913
1998-07-10,14.2149
1998-07-13,14.0936
1998-07-14,13.7008
1998-07-15,13.6426
1998-07-16,13.7929
1998-07-17,13.7639
1998-07-20,13.7008
1998-07-21,13.6717
1998-07-22,13.9433
1998-07-23,13.6086
1998-07-24,13.5796
1998-07-27,13.7008
1998-07-28,13.5505
1998-07-29,13.5505
1998-07-30,13.6717
1998-07-31,13.337
1998-08-03,13.5796
1998-08-04,13.4292
1998-08-05,13.5206
1998-08-06,13.4911
1998-08-07,13.7664
1998-08-10,13.7074
1998-08-11,13.673
1998-08-12,14.1352
1998-08-13,14.0762
1998-08-14,14.1352
1998-08-17,14.3515
1998-08-18,14.2876
1998-08-19,14.1352
1998-08-20,14.1991
1998-08-21,14.4105
1998-08-24,14.5039
1998-08-25,14.2876
1998-08-26,14.381
1998-08-27,14.322
1998-08-28,14.2581
1998-08-31,14.1647
1998-09-01,14.4105
1998-09-02,13.9189
1998-09-03,13.9828
1998-09-04,14.0762
1998-09-08,14.4745
1998-09-09,14.2876
1998-09-10,14.1057
1998-09-11,14.2876
1998-09-14,14.322
1998-09-15,14.5334
1998-09-16,14.7203
1998-09-17,14.6268
1998-09-18,14.6908
1998-09-21,14.8137
1998-09-22,14.8137
1998-09-23,14.8726
1998-09-24,14.5678
1998-09-25,14.5974
1998-09-28,14.7793
1998-09-29,15.089
1998-09-30,15.2709
1998-10-01,15.3053
1998-10-02,16.0084
1998-10-05,16.1953
1998-10-06,16.1018
1998-10-07,16.5345
1998-10-08,16.623
1998-10-09,15.9199
1998-10-12,15.4282
1998-10-13,15.6397
1998-10-14,15.733
1998-10-15,16.0084
1998-10-16,15.3938
1998-10-19,15.4578
1998-10-20,14.8726
1998-10-21,14.8137
1998-10-22,15.0251
1998-10-23,14.6908
1998-10-26,14.4745
1998-10-27,14.4745
1998-10-28,14.6268
1998-10-29,14.5974
1998-10-30,14.6908
1998-11-02,14.9661
1998-11-03,15.1185
1998-11-04,15.1803
1998-11-05,15.3347
1998-11-06,15.2102
1998-11-09,15.275
1998-11-10,15.5537
1998-11-11,15.3695
1998-11-12,15.3695
1998-11-13,15.5238
1998-11-16,15.678
1998-11-17,15.678
1998-11-18,15.5835
1998-11-19,15.5835
1998-11-20,15.4591
1998-11-23,15.5835
1998-11-24,15.5835
1998-11-25,15.678
1998-11-27,15.6482
1998-11-30,15.3993
1998-12-01,15.6482
1998-12-02,15.5537
1998-12-03,15.4939
1998-12-04,15.8025
1998-12-07,15.7428
1998-12-08,15.8025
1998-12-09,15.678
1998-12-10,15.5835
1998-12-11,15.5835
1998-12-14,15.4939
1998-12-15,15.4292
1998-12-16,15.5835
1998-12-17,15.8672
1998-12-18,15.9269
1998-12-21,15.9269
1998-12-22,15.8324
1998-12-23,15.9917
1998-12-24,15.9917
1998-12-28,15.897
1998-12-29,15.9568
1998-12-30,16.0215
1998-12-31,16.1459
1999-01-04,16.1459
1999-01-05,16.1459
1999-01-06,16.3002
1999-01-07,16.4246
1999-01-08,16.3948
1999-01-11,16.2704
1999-01-12,16.3301
1999-01-13,16.1459
1999-01-14,15.9917
1999-01-15,16.2056
1999-01-19,15.897
1999-01-20,15.7428
1999-01-21,15.897
1999-01-22,15.7727
1999-01-25,15.8672
1999-01-26,15.8672
1999-01-27,15.5537
1999-01-28,15.6183
1999-01-29,15.4292
1999-02-01,15.1206
1999-02-02,15.026
1999-02-03,15.1848
1999-02-04,15.1495
1999-02-05,15.3108
1999-02-08,15.3411
1999-02-09,15.1193
1999-02-10,15.1848
1999-02-11,14.9329
1999-02-12,14.7111
1999-02-16,14.9329
1999-02-17,14.963
1999-02-18,15.1848
1999-02-19,14.9933
1999-02-22,15.0588
1999-02-23,14.8371
1999-02-24,14.6808
1999-02-25,14.5851
1999-02-26,14.7111
1999-03-01,14.7111
1999-03-02,15.0235
1999-03-03,15.0588
1999-03-04,15.1495
1999-03-05,15.4015
1999-03-08,15.1495
1999-03-09,14.6456
1999-03-10,14.6153
1999-03-11,14.4288
1999-03-12,14.7413
1999-03-15,14.4591
1999-03-16,14.5195
1999-03-17,14.4591
1999-03-18,14.7111
1999-03-19,14.5851
1999-03-22,14.5548
1999-03-23,14.4288
1999-03-24,14.9329
1999-03-25,14.7413
1999-03-26,14.5851
1999-03-29,14.4591
1999-03-30,14.0811
1999-03-31,14.0811
1999-04-01,14.1768
1999-04-05,14.5851
1999-04-06,14.3029
1999-04-07,14.5195
1999-04-08,14.7413
1999-04-09,14.6153
1999-04-12,14.7715
1999-04-13,14.5195
1999-04-14,14.2373
1999-04-15,14.333
1999-04-16,14.4288
1999-04-19,14.9933
1999-04-20,15.3712
1999-04-21,15.4368
1999-04-22,15.0891
1999-04-23,14.963
1999-04-26,14.9933
1999-04-27,14.8976
1999-04-28,14.8371
1999-04-29,15.215
1999-04-30,14.8976
1999-05-03,15.3108
1999-05-04,15.215
1999-05-05,15.2789
1999-05-06,15.4371
1999-05-07,15.2789
1999-05-10,15.4676
1999-05-11,15.3401
1999-05-12,15.7586
1999-05-13,16.0749
1999-05-14,15.8198
1999-05-17,16.0749
1999-05-18,16.0443
1999-05-19,16.0137
1999-05-20,15.8504
1999-05-21,15.9474
1999-05-24,16.0137
1999-05-25,16.1719
1999-05-26,16.2994
1999-05-27,15.8504
1999-05-28,16.1719
1999-06-01,16.0749
1999-06-02,15.978
1999-06-03,15.9168
1999-06-04,16.0749
1999-06-07,16.0749
1999-06-08,15.9474
1999-06-09,16.0443
1999-06-10,15.8861
1999-06-11,15.9168
1999-06-14,15.7891
1999-06-15,15.978
1999-06-16,16.1719
1999-06-17,16.1413
1999-06-18,16.1413
1999-06-21,15.978
1999-06-22,16.0749
1999-06-23,16.1056
1999-06-24,16.2025
1999-06-25,16.2025
1999-06-28,16.2331
1999-06-29,16.1056
1999-06-30,15.8198
1999-07-01,15.9168
1999-07-02,15.8861
1999-07-06,15.8504
1999-07-07,15.8198
1999-07-08,15.6309
1999-07-09,15.6616
1999-07-12,15.5953
1999-07-13,15.5646
1999-07-14,15.3094
1999-07-15,15.3758
1999-07-16,15.3094
1999-07-19,15.3094
1999-07-20,15.3094
1999-07-21,15.3094
1999-07-22,15.1819
1999-07-23,15.2125
1999-07-26,15.2125
1999-07-27,15.1206
1999-07-28,14.9267
1999-07-29,14.5746
1999-07-30,14.5746
1999-08-02,14.7991
1999-08-03,14.7991
1999-08-04,14.5738
1999-08-05,14.5066
1999-08-06,14.7031
1999-08-09,14.7031
1999-08-10,14.6359
1999-08-11,14.6721
1999-08-12,14.4757
1999-08-13,14.6049
1999-08-16,14.6359
1999-08-17,14.4446
1999-08-18,14.4136
1999-08-19,14.7341
1999-08-20,14.9926
1999-08-23,15.0236
1999-08-24,14.8323
1999-08-25,15.1528
1999-08-26,14.9306
1999-08-27,14.9306
1999-08-30,14.8634
1999-08-31,14.8013
1999-09-01,14.7031
1999-09-02,14.5066
1999-09-03,14.8943
1999-09-07,14.5066
1999-09-08,14.4446
1999-09-09,14.5066
1999-09-10,14.4136
1999-09-13,14.4136
1999-09-14,14.1861
1999-09-15,14.155
1999-09-16,14.0878
1999-09-17,14.0878
1999-09-20,13.9586
1999-09-21,13.6381
1999-09-22,13.5399
1999-09-23,13.3434
1999-09-24,13.1832
1999-09-27,13.1832
1999-09-28,12.9919
1999-09-29,12.9247
1999-09-30,13.1832
1999-10-01,13.2504
1999-10-04,13.5709
1999-10-05,13.4416
1999-10-06,13.3796
1999-10-07,12.9557
1999-10-08,13.1521
1999-10-11,13.1521
1999-10-12,12.8936
1999-10-13,12.6351
1999-10-14,12.9919
1999-10-15,12.8264
1999-10-18,12.7334
1999-10-19,12.4748
1999-10-20,12.3456
1999-10-21,12.5059
1999-10-22,12.6351
1999-10-25,12.8626
1999-10-26,12.9247
1999-10-27,13.2504
1999-10-28,13.3796
1999-10-29,13.4726
1999-11-01,13.6019
1999-11-02,13.6019
1999-11-03,13.5736
1999-11-04,13.112
1999-11-05,13.3113
1999-11-08,13.2117
1999-11-09,12.9808
1999-11-10,12.6557
1999-11-11,12.7501
1999-11-12,12.7868
1999-11-15,12.7501
1999-11-16,12.8182
1999-11-17,12.7501
1999-11-18,12.7501
1999-11-19,12.5245
1999-11-22,12.4879
1999-11-23,12.3934
1999-11-24,12.2938
1999-11-26,12.1942
1999-11-29,11.8008
1999-11-30,12.1942
1999-12-01,12.2256
1999-12-02,12.4879
1999-12-03,12.4879
1999-12-06,12.4564
1999-12-07,12.3934
1999-12-08,12.3252
1999-12-09,12.1312
1999-12-10,11.9633
1999-12-13,11.9633
1999-12-14,12.1312
1999-12-15,12.0315
1999-12-16,11.9005
1999-12-17,11.9633
1999-12-20,11.8689
1999-12-21,11.8689
1999-12-22,12.0315
1999-12-23,12.0315
1999-12-27,12.0001
1999-12-28,12.0315
1999-12-29,11.8323
1999-12-30,11.8689
1999-12-31,11.9005
2000-01-03,11.57
2000-01-04,11.5386
2000-01-05,12.0001
2000-01-06,12.0001
2000-01-07,12.0945
2000-01-10,12.1312
2000-01-11,12.2624
2000-01-12,12.3252
2000-01-13,12.2624
2000-01-14,12.1942
2000-01-18,11.9633
2000-01-19,12.0001
2000-01-20,11.9005
2000-01-21,12.0315
2000-01-24,12.1626
2000-01-25,11.9633
2000-01-26,12.0945
2000-01-27,12.1626
2000-01-28,11.9319
2000-01-31,11.9633
2000-02-01,12.063
2000-02-02,11.9633
2000-02-03,12.1627
2000-02-04,11.9335
2000-02-07,11.7308
2000-02-08,11.8322
2000-02-09,11.8642
2000-02-10,11.6988
2000-02-11,11.5656
2000-02-14,11.5335
2000-02-15,11.5656
2000-02-16,11.5656
2000-02-17,11.1976
2000-02-18,10.9311
2000-02-22,10.6004
2000-02-23,10.7657
2000-02-24,10.3978
2000-02-25,10.0992
2000-02-28,10.2004
2000-02-29,9.96588
2000-03-01,10.0992
2000-03-02,10.0992
2000-03-03,10.2645
2000-03-06,9.86457
2000-03-07,9.73126
2000-03-08,9.69927
2000-03-09,9.80058
2000-03-10,9.80058
2000-03-13,9.73126
2000-03-14,9.73126
2000-03-15,10.1632
2000-03-16,10.7337
2000-03-17,10.3978
2000-03-20,10.4298
2000-03-21,10.563
2000-03-22,10.3658
2000-03-23,10.4298
2000-03-24,10.6324
2000-03-27,10.6964
2000-03-28,10.4991
2000-03-29,10.7657
2000-03-30,10.9311
2000-03-31,11.0003
2000-04-03,11.2296
2000-04-04,11.4003
2000-04-05,11.7308
2000-04-06,11.6295
2000-04-07,11.4962
2000-04-10,11.6669
2000-04-11,11.8322
2000-04-12,12.2001
2000-04-13,13.0639
2000-04-14,12.9306
2000-04-17,13.1972
2000-04-18,13.4638
2000-04-19,13.1652
2000-04-20,12.9999
2000-04-24,13.6291
2000-04-25,13.933
2000-04-26,14.2316
2000-04-27,13.7304
2000-04-28,13.5332
2000-05-01,13.4638
2000-05-02,13.3625
2000-05-03,13.3327
2000-05-04,13.2299
2000-05-05,12.9267
2000-05-08,13.2299
2000-05-09,13.1595
2000-05-10,13.1974
2000-05-11,13.2299
2000-05-12,13.062
2000-05-15,13.3327
2000-05-16,13.2623
2000-05-17,12.8888
2000-05-18,13.2299
2000-05-19,13.3652
2000-05-22,13.5655
2000-05-23,13.4302
2000-05-24,13.5005
2000-05-25,13.5005
2000-05-26,13.7008
2000-05-30,13.5655
2000-05-31,13.6358
2000-06-01,13.6033
2000-06-02,13.3327
2000-06-05,12.8888
2000-06-06,13.1974
2000-06-07,13.2623
2000-06-08,13.2299
2000-06-09,13.3976
2000-06-12,13.5005
2000-06-13,13.6683
2000-06-14,13.3652
2000-06-15,13.7008
2000-06-16,13.7008
2000-06-19,13.533
2000-06-20,13.468
2000-06-21,13.3976
2000-06-22,13.3327
2000-06-23,13.2299
2000-06-26,13.5655
2000-06-27,13.1974
2000-06-28,13.5655
2000-06-29,13.1974
2000-06-30,12.721
2000-07-03,13.0241
2000-07-05,12.9267
2000-07-06,12.9917
2000-07-07,13.1974
2000-07-10,13.2299
2000-07-11,13.4302
2000-07-12,13.2948
2000-07-13,13.1595
2000-07-14,13.062
2000-07-17,13.1595
2000-07-18,13.3327
2000-07-19,13.8037
2000-07-20,13.7386
2000-07-21,13.6683
2000-07-24,13.6033
2000-07-25,13.6358
2000-07-26,13.5005
2000-07-27,13.6358
2000-07-28,13.6033
2000-07-31,13.7712
2000-08-01,14.5128
2000-08-02,14.5507
2000-08-03,14.7182
2000-08-04,14.7565
2000-08-07,13.8947
2000-08-08,13.9331
2000-08-09,13.8617
2000-08-10,13.7575
2000-08-11,13.999
2000-08-14,13.966
2000-08-15,14.0704
2000-08-16,13.8288
2000-08-17,13.6202
2000-08-18,13.45
2000-08-21,13.1097
2000-08-22,13.0383
2000-08-23,13.0712
2000-08-24,12.8681
2000-08-25,12.6979
2000-08-28,13.0383
2000-08-29,13.0054
2000-08-30,13.1755
2000-08-31,13.5543
2000-09-01,13.7246
2000-09-05,13.966
2000-09-06,14.1033
2000-09-07,14.1362
2000-09-08,14.5151
2000-09-11,14.6852
2000-09-12,14.6852
2000-09-13,15.097
2000-09-14,14.9927
2000-09-15,15.097
2000-09-18,15.0311
2000-09-19,14.4821
2000-09-20,14.2405
2000-09-21,14.2735
2000-09-22,14.4821
2000-09-25,14.2735
2000-09-26,14.548
2000-09-27,14.7896
2000-09-28,14.8554
2000-09-29,14.8938
2000-10-02,15.2672
2000-10-03,14.548
2000-10-04,14.1691
2000-10-05,13.8288
2000-10-06,13.8617
2000-10-09,13.8288
2000-10-10,14.1691
2000-10-11,14.1362
2000-10-12,13.966
2000-10-13,14.0319
2000-10-16,14.1691
2000-10-17,14.0319
2000-10-18,13.7575
2000-10-19,13.966
2000-10-20,13.966
2000-10-23,13.966
2000-10-24,14.0704
2000-10-25,13.7959
2000-10-26,13.5214
2000-10-27,13.8288
2000-10-30,14.2405
2000-10-31,14.2076
2000-11-01,14.3064
2000-11-02,14.2405
2000-11-03,13.9987
2000-11-06,14.1714
2000-11-07,14.0321
2000-11-08,14.2048
2000-11-09,14.5168
2000-11-10,14.5558
2000-11-13,14.695
2000-11-14,14.695
2000-11-15,14.8343
2000-11-16,15.3913
2000-11-17,15.5975
2000-11-20,15.4917
2000-11-21,15.4583
2000-11-22,15.3913
2000-11-24,15.5306
2000-11-27,15.8092
2000-11-28,15.876
2000-11-29,16.3997
2000-11-30,16.4331
2000-12-01,16.6782
2000-12-04,16.9233
2000-12-05,16.8509
2000-12-06,16.7841
2000-12-07,16.7841
2000-12-08,16.7841
2000-12-11,16.5724
2000-12-12,16.8175
2000-12-13,17.3411
2000-12-14,16.9901
2000-12-15,16.7116
2000-12-18,16.7841
2000-12-19,16.8509
2000-12-20,16.9901
2000-12-21,17.3021
2000-12-22,17.3411
2000-12-26,17.7589
2000-12-27,17.7199
2000-12-28,17.6864
2000-12-29,17.6196
2001-01-02,17.096
2001-01-03,16.6782
2001-01-04,15.7702
2001-01-05,15.6699
2001-01-08,15.7034
2001-01-09,15.5306
2001-01-10,15.4583
2001-01-11,14.5558
2001-01-12,14.9736
2001-01-16,14.6227
2001-01-17,14.3776
2001-01-18,15.0405
2001-01-19,15.4249
2001-01-22,15.9485
2001-01-23,15.8426
2001-01-24,15.7034
2001-01-25,15.5975
2001-01-26,15.4583
2001-01-29,15.7034
2001-01-30,15.6253
2001-01-31,15.514
2001-02-01,15.5474
2001-02-02,15.4861
2001-02-05,15.6922
2001-02-06,15.4721
2001-02-07,15.4156
2001-02-08,15.7826
2001-02-09,15.8108
2001-02-12,15.8221
2001-02-13,15.7882
2001-02-14,15.7657
2001-02-15,15.6076
2001-02-16,15.8108
2001-02-20,15.6697
2001-02-21,15.7882
2001-02-22,15.8108
2001-02-23,15.5285
2001-02-26,15.6697
2001-02-27,15.7996
2001-02-28,15.9238
2001-03-01,15.7826
2001-03-02,15.7261
2001-03-05,15.7657
2001-03-06,15.6753
2001-03-07,15.8391
2001-03-08,15.9068
2001-03-09,15.7826
2001-03-12,15.6697
2001-03-13,15.602
2001-03-14,15.2687
2001-03-15,15.4833
2001-03-16,15.3252
2001-03-19,15.1671
2001-03-20,15.1107
2001-03-21,15.1388
2001-03-22,14.5855
2001-03-23,14.6533
2001-03-26,15.2406
2001-03-27,15.4156
2001-03-28,15.3478
2001-03-29,15.5285
2001-03-30,15.76
2001-04-02,15.7826
2001-04-03,15.777
2001-04-04,15.6866
2001-04-05,15.7996
2001-04-06,15.5172
2001-04-09,15.7487
2001-04-10,16.1101
2001-04-11,15.7487
2001-04-12,15.7882
2001-04-16,16.0593
2001-04-17,16.2626
2001-04-18,16.0424
2001-04-19,16.0932
2001-04-20,15.8278
2001-04-23,16.1496
2001-04-24,16.607
2001-04-25,16.7595
2001-04-26,16.7256
2001-04-27,16.9402
2001-04-30,17.104
2001-05-01,17.0249
2001-05-02,16.9289
2001-05-03,16.823
2001-05-04,17.1432
2001-05-07,17.0346
2001-05-08,16.7887
2001-05-09,16.7658
2001-05-10,16.7544
2001-05-11,16.9945
2001-05-14,17.1375
2001-05-15,16.9888
2001-05-16,17.0289
2001-05-17,16.8916
2001-05-18,16.8401
2001-05-21,16.8344
2001-05-22,16.823
2001-05-23,17.126
2001-05-24,17.1603
2001-05-25,17.2747
2001-05-29,17.2975
2001-05-30,17.3777
2001-05-31,17.4863
2001-06-01,17.5949
2001-06-04,17.7493
2001-06-05,17.6006
2001-06-06,17.2747
2001-06-07,16.7201
2001-06-08,17.0575
2001-06-11,17.5206
2001-06-12,17.7265
2001-06-13,17.7322
2001-06-14,17.2918
2001-06-15,17.6178
2001-06-18,17.8008
2001-06-19,18.0695
2001-06-20,18.2468
2001-06-21,17.8751
2001-06-22,17.9552
2001-06-25,17.7265
2001-06-26,18.0124
2001-06-27,18.1553
2001-06-28,18.3726
2001-06-29,18.384
2001-07-02,18.5499
2001-07-03,18.7271
2001-07-05,18.567
2001-07-06,18.5328
2001-07-09,18.7157
2001-07-10,18.527
2001-07-11,18.2983
2001-07-12,18.081
2001-07-13,17.7436
2001-07-16,17.8065
2001-07-17,17.8122
2001-07-18,17.8293
2001-07-19,17.8236
2001-07-20,17.8408
2001-07-23,17.5892
2001-07-24,17.2632
2001-07-25,17.2632
2001-07-26,17.3319
2001-07-27,17.2804
2001-07-30,17.3948
2001-07-31,17.3548
2001-08-01,17.5263
2001-08-02,17.5434
2001-08-03,17.859
2001-08-06,17.419
2001-08-07,17.7094
2001-08-08,17.4573
2001-08-09,17.5629
2001-08-10,17.85
2001-08-13,17.6449
2001-08-14,17.6039
2001-08-15,17.5219
2001-08-16,17.639
2001-08-17,17.6742
2001-08-20,18.0025
2001-08-21,17.897
2001-08-22,17.8911
2001-08-23,17.9321
2001-08-24,17.9966
2001-08-27,18.4656
2001-08-28,18.8057
2001-08-29,18.9932
2001-08-30,19.1398
2001-08-31,19.2804
2001-09-04,19.427
2001-09-05,19.3742
2001-09-06,19.3684
2001-09-07,19.4563
2001-09-10,19.2219
2001-09-17,19.0459
2001-09-18,18.8525
2001-09-19,19.4915
2001-09-20,20.1949
2001-09-21,19.7377
2001-09-24,19.5677
2001-09-25,19.9312
2001-09-26,19.8725
2001-09-27,20.2594
2001-09-28,21.0273
2001-10-01,20.8867
2001-10-02,21.1035
2001-10-03,21.6312
2001-10-04,21.5256
2001-10-05,21.4964
2001-10-08,21.215
2001-10-09,20.7519
2001-10-10,20.6463
2001-10-11,20.3357
2001-10-12,20.277
2001-10-15,20.488
2001-10-16,20.916
2001-10-17,20.9921
2001-10-18,20.9042
2001-10-19,21.2735
2001-10-22,21.3673
2001-10-23,21.0625
2001-10-24,20.8632
2001-10-25,20.6932
2001-10-26,20.4001
2001-10-29,20.0718
2001-10-30,19.9604
2001-10-31,20.1305
2001-11-01,20.488
2001-11-02,20.5994
2001-11-05,21.1798
2001-11-06,20.9335
2001-11-07,20.4249
2001-11-08,20.5647
2001-11-09,20.7069
2001-11-12,20.701
2001-11-13,20.7957
2001-11-14,20.5291
2001-11-15,20.464
2001-11-16,20.3751
2001-11-19,20.1085
2001-11-20,20.6298
2001-11-21,20.4225
2001-11-23,20.4107
2001-11-26,20.4107
2001-11-27,20.221
2001-11-28,19.9485
2001-11-29,19.9959
2001-11-30,20.0256
2001-12-03,20.1736
2001-12-04,20.7839
2001-12-05,20.4581
2001-12-06,20.0848
2001-12-07,20.2684
2001-12-10,20.2269
2001-12-11,19.9603
2001-12-12,19.9663
2001-12-13,20.1974
2001-12-14,20.304
2001-12-17,20.233
2001-12-18,20.2922
2001-12-19,20.8905
2001-12-20,20.7543
2001-12-21,20.8136
2001-12-24,20.7069
2001-12-26,20.7306
2001-12-27,20.6477
2001-12-28,20.8313
2001-12-31,20.7069
2002-01-02,20.8017
2002-01-03,20.7365
2002-01-04,20.5588
2002-01-07,20.6832
2002-01-08,20.3455
2002-01-09,20.4936
2002-01-10,20.4166
2002-01-11,20.4996
2002-01-14,20.6832
2002-01-15,20.8372
2002-01-16,20.9202
2002-01-17,21.1571
2002-01-18,21.329
2002-01-22,21.3467
2002-01-23,21.5305
2002-01-24,21.5067
2002-01-25,21.4356
2002-01-28,21.5897
2002-01-29,21.5364
2002-01-30,21.3645
2002-01-31,22.0162
2002-02-01,22.4666
2002-02-04,22.6621
2002-02-05,22.8382
2002-02-06,22.8562
2002-02-07,23.0597
2002-02-08,22.7127
2002-02-11,22.1143
2002-02-12,22.0783
2002-02-13,22.4194
2002-02-14,22.4074
2002-02-15,22.3955
2002-02-19,22.1143
2002-02-20,21.9049
2002-02-21,21.4801
2002-02-22,21.4382
2002-02-25,21.5638
2002-02-26,21.8032
2002-02-27,22.0604
2002-02-28,21.8989
2002-03-01,22.1023
2002-03-04,22.6169
2002-03-05,22.7365
2002-03-06,22.904
2002-03-07,22.9699
2002-03-08,22.8562
2002-03-11,23.1255
2002-03-12,22.1383
2002-03-13,21.6835
2002-03-14,21.4202
2002-03-15,21.3305
2002-03-18,20.9655
2002-03-19,19.2782
2002-03-20,19.0807
2002-03-21,20.1697
2002-03-22,20.1338
2002-03-25,20.1219
2002-03-26,20.4629
2002-03-27,20.5227
2002-03-28,20.6304
2002-04-01,20.5287
2002-04-02,20.2116
2002-04-03,20.1457
2002-04-04,20.2236
2002-04-05,19.8766
2002-04-08,19.9244
2002-04-09,19.9543
2002-04-10,20.3372
2002-04-11,19.6073
2002-04-12,19.7628
2002-04-15,19.4457
2002-04-16,19.7389
2002-04-17,19.727
2002-04-18,19.3859
2002-04-19,19.7389
2002-04-22,19.6253
2002-04-23,19.6132
2002-04-24,19.9304
2002-04-25,19.721
2002-04-26,19.7568
2002-04-29,19.7449
2002-04-30,19.9244
2002-05-01,19.6013
2002-05-02,19.7928
2002-05-03,20.1833
2002-05-06,20.2922
2002-05-07,19.8201
2002-05-08,19.7536
2002-05-09,19.5538
2002-05-10,19.4086
2002-05-13,19.457
2002-05-14,19.808
2002-05-15,19.9291
2002-05-16,19.8322
2002-05-17,19.8867
2002-05-20,20.0319
2002-05-21,20.4616
2002-05-22,20.8187
2002-05-23,20.5524
2002-05-24,20.8732
2002-05-28,20.9156
2002-05-29,20.8732
2002-05-30,20.7582
2002-05-31,20.8792
2002-06-03,20.2922
2002-06-04,20.625
2002-06-05,20.5826
2002-06-06,20.2377
2002-06-07,20.5282
2002-06-10,20.6069
2002-06-11,20.4677
2002-06-12,20.4677
2002-06-13,20.4859
2002-06-14,20.4375
2002-06-17,20.4919
2002-06-18,20.7945
2002-06-19,21.0729
2002-06-20,20.6069
2002-06-21,20.7037
2002-06-24,20.4435
2002-06-25,20.4072
2002-06-26,20.0501
2002-06-27,20.1167
2002-06-28,20.2498
2002-07-01,19.9714
2002-07-02,19.4086
2002-07-03,18.8942
2002-07-05,18.7913
2002-07-08,18.3677
2002-07-09,18.0954
2002-07-10,17.0786
2002-07-11,17.5446
2002-07-12,18.0711
2002-07-15,18.6461
2002-07-16,17.8229
2002-07-17,17.587
2002-07-18,17.0907
2002-07-19,16.5037
2002-07-22,16.3826
2002-07-23,15.2206
2002-07-24,17.6475
2002-07-25,17.8653
2002-07-26,17.6111
2002-07-29,16.6368
2002-07-30,18.1559
2002-07-31,18.4161
2002-08-01,19.0697
2002-08-02,19.0092
2002-08-05,18.7853
2002-08-06,19.6183
2002-08-07,19.802
2002-08-08,19.9612
2002-08-09,19.6305
2002-08-12,20.0531
2002-08-13,19.5386
2002-08-14,19.9919
2002-08-15,20.1266
2002-08-16,20.0715
2002-08-19,20.1512
2002-08-20,20.3288
2002-08-21,20.7146
2002-08-22,21.1372
2002-08-23,20.4267
2002-08-26,21.1005
2002-08-27,20.8065
2002-08-28,21.1433
2002-08-29,20.5492
2002-08-30,20.1817
2002-09-03,19.6244
2002-09-04,19.2568
2002-09-05,19.0792
2002-09-06,19.1099
2002-09-09,19.0486
2002-09-10,18.7914
2002-09-11,18.9016
2002-09-12,18.4238
2002-09-13,18.822
2002-09-16,18.7302
2002-09-17,18.3504
2002-09-18,18.6995
2002-09-19,18.6811
2002-09-20,18.626
2002-09-23,18.2279
2002-09-24,17.7623
2002-09-25,18.2646
2002-09-26,18.6873
2002-09-27,18.5892
2002-09-30,18.2585
2002-10-01,18.5157
2002-10-02,18.7117
2002-10-03,18.2524
2002-10-04,18.0809
2002-10-07,17.8848
2002-10-08,17.1867
2002-10-09,15.9249
2002-10-10,17.7011
2002-10-11,17.6705
2002-10-14,18.038
2002-10-15,17.1805
2002-10-16,15.9616
2002-10-17,17.156
2002-10-18,17.3092
2002-10-21,18.0502
2002-10-22,17.6828
2002-10-23,18.4974
2002-10-24,18.675
2002-10-25,19.0547
2002-10-28,19.2446
2002-10-29,19.5141
2002-10-30,19.7347
2002-10-31,19.8938
2002-11-01,19.7223
2002-11-04,20.2307
2002-11-05,20.3825
2002-11-06,20.8781
2002-11-07,20.2401
2002-11-08,19.7691
2002-11-11,19.5957
2002-11-12,18.8336
2002-11-13,19.1125
2002-11-14,19.2736
2002-11-15,19.6328
2002-11-18,19.6205
2002-11-19,19.4471
2002-11-20,19.6453
2002-11-21,19.6081
2002-11-22,20.2338
2002-11-25,20.0542
2002-11-26,19.5895
2002-11-27,19.5461
2002-11-29,19.6267
2002-12-02,19.4904
2002-12-03,19.2921
2002-12-04,18.6168
2002-12-05,18.8647
2002-12-06,19.0567
2002-12-09,19.4098
2002-12-10,19.5585
2002-12-11,19.8683
2002-12-12,19.7196
2002-12-13,19.8063
2002-12-16,20.2524
2002-12-17,20.3764
2002-12-18,20.3144
2002-12-19,20.2896
2002-12-20,20.432
2002-12-23,20.4693
2002-12-24,20.5065
2002-12-26,20.4631
2002-12-27,20.4507
2002-12-30,20.4197
2002-12-31,20.3949
2003-01-02,20.4445
2003-01-03,20.5932
2003-01-06,21.6526
2003-01-07,20.9215
2003-01-08,20.9401
2003-01-09,20.81
2003-01-10,20.7418
2003-01-13,20.5994
2003-01-14,20.7542
2003-01-15,20.5374
2003-01-16,20.271
2003-01-17,19.8498
2003-01-21,19.2921
2003-01-22,19.3603
2003-01-23,19.6701
2003-01-24,19.5523
2003-01-27,18.9018
2003-01-28,19.2797
2003-01-29,19.478
2003-01-30,19.224
2003-01-31,19.317
2003-02-03,19.2488
2003-02-04,19.2116
2003-02-05,19.0768
2003-02-06,19.0643
2003-02-07,18.4183
2003-02-10,18.55
2003-02-11,17.9354
2003-02-12,17.3334
2003-02-13,18.2239
2003-02-14,18.318
2003-02-18,18.5312
2003-02-19,18.5688
2003-02-20,18.9012
2003-02-21,19.0203
2003-02-24,18.5312
2003-02-25,18.481
2003-02-26,18.0107
2003-02-27,18.3807
2003-02-28,18.4747
2003-03-03,18.4998
2003-03-04,18.318
2003-03-05,18.6755
2003-03-06,18.8196
2003-03-07,18.4935
2003-03-10,18.4058
2003-03-11,18.1925
2003-03-12,18.3054
2003-03-13,18.6127
2003-03-14,18.6253
2003-03-17,19.0015
2003-03-18,19.3903
2003-03-19,19.4719
2003-03-20,19.4091
2003-03-21,19.8669
2003-03-24,19.3213
2003-03-25,19.6036
2003-03-26,19.4217
2003-03-27,19.6036
2003-03-28,19.7478
2003-03-31,19.7541
2003-04-01,20.0551
2003-04-02,19.9672
2003-04-03,20.0112
2003-04-04,20.0739
2003-04-07,19.7101
2003-04-08,19.6161
2003-04-09,19.5659
2003-04-10,19.4656
2003-04-11,19.2461
2003-04-14,19.9234
2003-04-15,20.2745
2003-04-16,20.193
2003-04-17,20.193
2003-04-21,20.2181
2003-04-22,20.5317
2003-04-23,20.5693
2003-04-24,21.0522
2003-04-25,20.839
2003-04-28,21.1651
2003-04-29,21.1964
2003-04-30,21.1337
2003-05-01,21.1964
2003-05-02,21.0961
2003-05-05,21.1117
2003-05-06,21.0102
2003-05-07,20.9468
2003-05-08,20.9214
2003-05-09,20.9721
2003-05-12,20.9721
2003-05-13,21.0229
2003-05-14,20.9214
2003-05-15,21.1497
2003-05-16,21.6317
2003-05-19,21.4415
2003-05-20,21.6507
2003-05-21,21.7458
2003-05-22,22.0946
2003-05-23,22.7669
2003-05-27,23.2615
2003-05-28,23.2361
2003-05-29,23.0141
2003-05-30,23.3059
2003-06-02,23.5913
2003-06-03,23.5088
2003-06-04,23.6737
2003-06-05,23.4391
2003-06-06,23.1474
2003-06-09,23.2805
2003-06-10,23.4517
2003-06-11,23.8576
2003-06-12,23.7117
2003-06-13,23.6356
2003-06-16,24.2001
2003-06-17,23.8576
2003-06-18,23.8956
2003-06-19,24.2508
2003-06-20,24.1113
2003-06-23,24.0732
2003-06-24,24.1303
2003-06-25,24.0352
2003-06-26,24.384
2003-06-27,23.7498
2003-06-30,24.4283
2003-07-01,24.3903
2003-07-02,24.4093
2003-07-03,24.3459
2003-07-07,24.0162
2003-07-08,23.6547
2003-07-09,23.179
2003-07-10,22.7098
2003-07-11,22.9127
2003-07-14,22.9635
2003-07-15,22.5005
2003-07-16,22.1326
2003-07-17,22.0819
2003-07-18,22.2024
2003-07-21,21.8093
2003-07-22,21.9234
2003-07-23,21.9171
2003-07-24,22.0629
2003-07-25,21.8283
2003-07-28,21.879
2003-07-29,21.7268
2003-07-30,21.9297
2003-07-31,21.8536
2003-08-01,21.7205
2003-08-04,21.7078
2003-08-05,20.0822
2003-08-06,20.3579
2003-08-07,20.0886
2003-08-08,19.9411
2003-08-11,19.9027
2003-08-12,20.0373
2003-08-13,19.9091
2003-08-14,19.9091
2003-08-15,19.6526
2003-08-18,17.8252
2003-08-19,17.8958
2003-08-20,18.6972
2003-08-21,18.4664
2003-08-22,18.0817
2003-08-25,18.3061
2003-08-26,18.6844
2003-08-27,18.7421
2003-08-28,18.7485
2003-08-29,18.7677
2003-09-02,19.2037
2003-09-03,19.4923
2003-09-04,19.5243
2003-09-05,19.3641
2003-09-08,19.5821
2003-09-09,20.0501
2003-09-10,20.3836
2003-09-11,19.9732
2003-09-12,20.2617
2003-09-15,20.3451
2003-09-16,20.1976
2003-09-17,19.9732
2003-09-18,20.2489
2003-09-19,20.3515
2003-09-22,20.0501
2003-09-23,20.0565
2003-09-24,19.8577
2003-09-25,19.9732
2003-09-26,20.313
2003-09-29,20.6657
2003-09-30,20.4285
2003-10-01,20.7234
2003-10-02,20.7875
2003-10-03,20.717
2003-10-06,20.5952
2003-10-07,20.4862
2003-10-08,20.6785
2003-10-09,20.8901
2003-10-10,20.6208
2003-10-13,20.826
2003-10-14,21.2556
2003-10-15,21.2171
2003-10-16,21.2876
2003-10-17,21.1658
2003-10-20,21.1786
2003-10-21,21.2556
2003-10-22,21.294
2003-10-23,21.5506
2003-10-24,21.807
2003-10-27,21.8712
2003-10-28,21.8904
2003-10-29,22.0956
2003-10-30,22.2302
2003-10-31,22.025
2003-11-03,22.2622
2003-11-04,22.1276
2003-11-05,22.364
2003-11-06,22.3769
2003-11-07,22.2991
2003-11-10,22.4872
2003-11-11,22.4288
2003-11-12,22.4936
2003-11-13,22.4547
2003-11-14,22.4741
2003-11-17,22.4352
2003-11-18,22.0333
2003-11-19,21.586
2003-11-20,21.8584
2003-11-21,21.7287
2003-11-24,21.7481
2003-11-25,21.7741
2003-11-26,22.2083
2003-11-28,22.4611
2003-12-01,22.6492
2003-12-02,22.5519
2003-12-03,22.6102
2003-12-04,23.0316
2003-12-05,22.8761
2003-12-08,23.0187
2003-12-09,22.5973
2003-12-10,22.5778
2003-12-11,22.4741
2003-12-12,22.4288
2003-12-15,22.3705
2003-12-16,22.6945
2003-12-17,22.7594
2003-12-18,22.8501
2003-12-19,22.6427
2003-12-22,22.8047
2003-12-23,22.74
2003-12-24,22.7983
2003-12-26,22.8761
2003-12-29,22.8826
2003-12-30,22.8177
2003-12-31,22.7983
2004-01-02,22.8826
2004-01-05,23.1354
2004-01-06,23.3363
2004-01-07,23.4335
2004-01-08,23.8678
2004-01-09,23.615
2004-01-12,23.4659
2004-01-13,23.6539
2004-01-14,23.803
2004-01-15,23.7771
2004-01-16,23.9845
2004-01-20,23.9586
2004-01-21,24.0817
2004-01-22,24.0299
2004-01-23,24.1141
2004-01-26,23.991
2004-01-27,23.8289
2004-01-28,24.1077
2004-01-29,24.166
2004-01-30,24.3475
2004-02-02,24.3086
2004-02-03,24.4707
2004-02-04,24.1464
2004-02-05,23.7339
2004-02-06,23.8191
2004-02-09,23.9565
2004-02-10,24.2119
2004-02-11,24.3428
2004-02-12,24.5065
2004-02-13,24.5785
2004-02-17,24.7029
2004-02-18,24.8862
2004-02-19,24.9189
2004-02-20,24.8208
2004-02-23,24.644
2004-02-24,24.6375
2004-02-25,24.8404
2004-02-26,24.9256
2004-02-27,25.2987
2004-03-01,25.2857
2004-03-02,25.1547
2004-03-03,25.1089
2004-03-04,25.207
2004-03-05,25.4493
2004-03-08,25.3053
2004-03-09,25.3773
2004-03-10,24.9714
2004-03-11,24.5262
2004-03-12,24.7487
2004-03-15,24.8012
2004-03-16,24.9714
2004-03-17,25.3118
2004-03-18,25.3249
2004-03-19,25.2987
2004-03-22,25.207
2004-03-23,25.2857
2004-03-24,25.3707
2004-03-25,25.469
2004-03-26,25.554
2004-03-29,25.5344
2004-03-30,25.5279
2004-03-31,25.5475
2004-04-01,25.6523
2004-04-02,25.5803
2004-04-05,25.5934
2004-04-06,25.5999
2004-04-07,25.3511
2004-04-08,25.5279
2004-04-12,25.194
2004-04-13,24.8862
2004-04-14,25.0368
2004-04-15,25.266
2004-04-16,25.2398
2004-04-19,25.2398
2004-04-20,25.2791
2004-04-21,25.3576
2004-04-22,25.6981
2004-04-23,25.7178
2004-04-26,25.7243
2004-04-27,25.6654
2004-04-28,25.5999
2004-04-29,25.5409
2004-04-30,25.5738
2004-05-03,25.7636
2004-05-04,25.7046
2004-05-05,25.5693
2004-05-06,25.4768
2004-05-07,24.8488
2004-05-10,24.7099
2004-05-11,24.472
2004-05-12,24.5248
2004-05-13,24.3927
2004-05-14,24.5645
2004-05-17,24.4389
2004-05-18,24.5512
2004-05-19,24.4191
2004-05-20,24.6505
2004-05-21,24.505
2004-05-24,24.7363
2004-05-25,25.1396
2004-05-26,25.3842
2004-05-27,25.5693
2004-05-28,25.7676
2004-06-01,25.5891
2004-06-02,25.7544
2004-06-03,25.7081
2004-06-04,25.9461
2004-06-07,26.032
2004-06-08,25.761
2004-06-09,24.6835
2004-06-10,25.0273
2004-06-14,24.9743
2004-06-15,25.0339
2004-06-16,25.0867
2004-06-17,25.0999
2004-06-18,25.0471
2004-06-21,25.1528
2004-06-22,25.1198
2004-06-23,25.1132
2004-06-24,24.9016
2004-06-25,24.7165
2004-06-28,24.829
2004-06-29,24.6505
2004-06-30,24.7826
2004-07-01,24.6306
2004-07-02,24.6505
2004-07-06,24.8422
2004-07-07,25.0471
2004-07-08,25.0207
2004-07-09,25.0735
2004-07-12,24.8554
2004-07-13,24.9809
2004-07-14,25.2586
2004-07-15,25.2917
2004-07-16,25.4702
2004-07-19,25.7544
2004-07-20,25.8602
2004-07-21,25.4371
2004-07-22,25.3577
2004-07-23,25.1528
2004-07-26,25.0471
2004-07-27,25.0801
2004-07-28,25.2586
2004-07-29,25.7279
2004-07-30,25.8138
2004-08-02,26.1246
2004-08-03,26.118
2004-08-04,26.5818
2004-08-05,26.6952
2004-08-06,26.6552
2004-08-09,26.3548
2004-08-10,26.1279
2004-08-11,26.1747
2004-08-12,26.2548
2004-08-13,26.0679
2004-08-16,26.2014
2004-08-17,26.148
2004-08-18,26.495
2004-08-19,26.3348
2004-08-20,26.3949
2004-08-23,26.4684
2004-08-24,26.6752
2004-08-25,26.8087
2004-08-26,26.8087
2004-08-27,26.782
2004-08-30,26.7687
2004-08-31,26.8621
2004-09-01,27.2892
2004-09-02,27.6763
2004-09-03,27.5828
2004-09-07,27.6963
2004-09-08,27.3092
2004-09-09,27.2491
2004-09-10,27.2024
2004-09-13,27.2224
2004-09-14,27.6363
2004-09-15,27.5494
2004-09-16,27.763
2004-09-17,27.7964
2004-09-20,27.6896
2004-09-21,27.4961
2004-09-22,27.4427
2004-09-23,27.356
2004-09-24,27.2425
2004-09-27,27.5561
2004-09-28,27.7097
2004-09-29,27.5561
2004-09-30,27.396
2004-10-01,27.3626
2004-10-04,27.4894
2004-10-05,27.4227
2004-10-06,27.4894
2004-10-07,27.2024
2004-10-08,27.2158
2004-10-11,27.376
2004-10-12,27.6763
2004-10-13,27.663
2004-10-14,27.663
2004-10-15,27.783
2004-10-18,27.683
2004-10-19,27.416
2004-10-20,27.4227
2004-10-21,27.3293
2004-10-22,27.2491
2004-10-25,27.4227
2004-10-26,27.8698
2004-10-27,27.7364
2004-10-28,27.4627
2004-10-29,27.5828
2004-11-01,27.6028
2004-11-02,27.3092
2004-11-03,27.6689
2004-11-04,28.1539
2004-11-05,27.9719
2004-11-08,28.0933
2004-11-09,28.0663
2004-11-10,28.0124
2004-11-11,28.4569
2004-11-12,28.9891
2004-11-15,28.9823
2004-11-16,29.0564
2004-11-17,28.6388
2004-11-18,28.3626
2004-11-19,28.2616
2004-11-22,28.9284
2004-11-23,28.7937
2004-11-24,28.9486
2004-11-26,28.9486
2004-11-29,28.7331
2004-11-30,28.4704
2004-12-01,26.5441
2004-12-02,26.4228
2004-12-03,26.3892
2004-12-06,26.4498
2004-12-07,26.3218
2004-12-08,26.3218
2004-12-09,26.2679
2004-12-10,26.2141
2004-12-13,26.2545
2004-12-14,26.2679
2004-12-15,26.2814
2004-12-16,26.0996
2004-12-17,26.4969
2004-12-20,26.8876
2004-12-21,26.928
2004-12-22,26.928
2004-12-23,26.8
2004-12-27,26.726
2004-12-28,26.7731
2004-12-29,26.7596
2004-12-30,26.7192
2004-12-31,26.6115
2005-01-03,26.4902
2005-01-04,26.3959
2005-01-05,26.1804
2005-01-06,26.1871
2005-01-07,25.9311
2005-01-10,25.7763
2005-01-11,25.7695
2005-01-12,25.8234
2005-01-13,26.14
2005-01-14,26.3488
2005-01-18,26.5373
2005-01-19,26.4161
2005-01-20,26.1737
2005-01-21,26.0929
2005-01-24,26.4094
2005-01-25,26.2545
2005-01-26,26.7933
2005-01-27,26.928
2005-01-28,26.5306
2005-01-31,26.7664
2005-02-01,26.9616
2005-02-02,27.1638
2005-02-03,27.0635
2005-02-04,27.363
2005-02-07,27.2541
2005-02-08,27.4786
2005-02-09,27.5603
2005-02-10,27.8461
2005-02-11,27.9141
2005-02-14,28.0706
2005-02-15,28.0026
2005-02-16,27.9414
2005-02-17,28.1931
2005-02-18,27.6964
2005-02-22,27.0975
2005-02-23,27.397
2005-02-24,27.6215
2005-02-25,27.955
2005-02-28,28.0094
2005-03-01,28.3088
2005-03-02,28.0774
2005-03-03,28.1047
2005-03-04,28.268
2005-03-07,28.4041
2005-03-08,28.2748
2005-03-09,27.5603
2005-03-10,27.9822
2005-03-11,27.6351
2005-03-14,28.5334
2005-03-15,28.4177
2005-03-16,28.3088
2005-03-17,28.3224
2005-03-18,28.0843
2005-03-21,28.0026
2005-03-22,27.6828
2005-03-23,27.5739
2005-03-24,27.778
2005-03-28,27.8257
2005-03-29,27.6896
2005-03-30,28.0026
2005-03-31,28.5538
2005-04-01,28.5334
2005-04-04,28.5197
2005-04-05,28.5946
2005-04-06,28.3156
2005-04-07,28.5129
2005-04-08,28.3088
2005-04-11,28.5878
2005-04-12,29.037
2005-04-13,28.7103
2005-04-14,28.6082
2005-04-15,28.0094
2005-04-18,28.3088
2005-04-19,28.2544
2005-04-20,28.023
2005-04-21,28.547
2005-04-22,28.8123
2005-04-25,29.0506
2005-04-26,28.9212
2005-04-27,29.1187
2005-04-28,29.1799
2005-04-29,29.6222
2005-05-02,29.4453
2005-05-03,29.7107
2005-05-04,29.4239
2005-05-05,29.6575
2005-05-06,29.3689
2005-05-09,29.9459
2005-05-10,29.843
2005-05-11,30.3513
2005-05-12,30.4063
2005-05-13,30.0078
2005-05-16,30.049
2005-05-17,30.2345
2005-05-18,30.2688
2005-05-19,30.207
2005-05-20,30.2895
2005-05-23,30.3307
2005-05-24,30.262
2005-05-25,30.104
2005-05-26,30.2482
2005-05-27,30.4337
2005-05-31,30.4612
2005-06-01,30.6399
2005-06-02,31.1482
2005-06-03,31.155
2005-06-06,30.9559
2005-06-07,31.1894
2005-06-08,30.9971
2005-06-09,31.0108
2005-06-10,30.8803
2005-06-13,30.8185
2005-06-14,31.2718
2005-06-15,31.1963
2005-06-16,31.3062
2005-06-17,32.371
2005-06-20,32.1856
2005-06-21,32.268
2005-06-22,32.5153
2005-06-23,32.9344
2005-06-24,32.7214
2005-06-27,32.7901
2005-06-28,33.4084
2005-06-29,33.381
2005-06-30,33.01
2005-07-01,33.429
2005-07-05,33.3054
2005-07-06,33.0306
2005-07-07,33.2024
2005-07-08,33.6901
2005-07-11,34.0748
2005-07-12,33.9786
2005-07-13,33.9924
2005-07-14,33.8275
2005-07-15,33.642
2005-07-18,33.7519
2005-07-19,33.9099
2005-07-20,34.0817
2005-07-21,33.7931
2005-07-22,34.0679
2005-07-25,33.7313
2005-07-26,33.6763
2005-07-27,34.3496
2005-07-28,34.3565
2005-07-29,34.171
2005-08-01,33.6351
2005-08-02,34.1435
2005-08-03,34.4091
2005-08-04,34.5269
2005-08-05,34.2982
2005-08-08,33.9173
2005-08-09,34.4576
2005-08-10,34.4992
2005-08-11,34.6723
2005-08-12,34.4507
2005-08-15,34.3953
2005-08-16,33.9935
2005-08-17,33.8757
2005-08-18,34.0628
2005-08-19,34.0004
2005-08-22,34.2913
2005-08-23,34.7
2005-08-24,34.6238
2005-08-25,35.0811
2005-08-26,34.9495
2005-08-29,35.185
2005-08-30,35.1295
2005-08-31,35.3651
2005-09-01,35.9124
2005-09-02,35.9748
2005-09-06,36.2102
2005-09-07,36.3003
2005-09-08,36.1063
2005-09-09,36.529
2005-09-12,36.1202
2005-09-13,35.9263
2005-09-14,35.9886
2005-09-15,36.2172
2005-09-16,36.4666
2005-09-19,36.4043
2005-09-20,36.0371
2005-09-21,35.6491
2005-09-22,35.3235
2005-09-23,35.0326
2005-09-26,35.088
2005-09-27,35.4829
2005-09-28,35.5938
2005-09-29,36.141
2005-09-30,36.0786
2005-10-03,36.141
2005-10-04,36.141
2005-10-05,35.2127
2005-10-06,34.8663
2005-10-07,35.1295
2005-10-10,34.5269
2005-10-11,34.3953
2005-10-12,34.0004
2005-10-13,33.4254
2005-10-14,33.46
2005-10-17,33.7648
2005-10-18,33.1967
2005-10-19,33.0375
2005-10-20,32.1508
2005-10-21,32.0399
2005-10-24,32.3585
2005-10-25,32.511
2005-10-26,32.2546
2005-10-27,32.1577
2005-10-28,32.5733
2005-10-31,32.8989
2005-11-01,32.1369
2005-11-02,32.2269
2005-11-03,32.2545
2005-11-04,32.3944
2005-11-07,32.3315
2005-11-08,32.2685
2005-11-09,32.5063
2005-11-10,32.751
2005-11-11,32.4993
2005-11-14,32.3944
2005-11-15,32.3245
2005-11-16,32.4434
2005-11-17,32.793
2005-11-18,32.779
2005-11-21,32.6811
2005-11-22,32.6041
2005-11-23,32.8279
2005-11-25,32.9328
2005-11-28,32.5971
2005-11-29,32.8838
2005-11-30,32.8
2005-12-01,32.8558
2005-12-02,32.765
2005-12-05,33.0447
2005-12-06,32.9748
2005-12-07,32.779
2005-12-08,33.1215
2005-12-09,33.4991
2005-12-12,33.2824
2005-12-13,33.6041
2005-12-14,34.2124
2005-12-15,34.6668
2005-12-16,34.6808
2005-12-19,34.3032
2005-12-20,34.4361
2005-12-21,34.0935
2005-12-22,34.4361
2005-12-23,34.6948
2005-12-27,34.7717
2005-12-28,34.576
2005-12-29,34.4151
2005-12-30,34.2334
2006-01-03,34.9605
2006-01-04,35.3381
2006-01-05,35.3591
2006-01-06,35.6807
2006-01-09,35.8555
2006-01-10,35.7855
2006-01-11,35.6947
2006-01-12,35.5548
2006-01-13,35.4989
2006-01-17,35.9464
2006-01-18,35.7437
2006-01-19,36.0513
2006-01-20,35.5128
2006-01-23,35.7087
2006-01-24,36.0722
2006-01-25,35.1982
2006-01-26,35.1842
2006-01-27,35.3311
2006-01-30,35.1493
2006-01-31,35.0304
2006-02-01,35.0934
2006-02-02,34.4291
2006-02-03,34.1601
2006-02-06,34.4494
2006-02-07,34.0684
2006-02-08,34.2236
2006-02-09,34.5764
2006-02-10,34.6329
2006-02-13,34.5059
2006-02-14,34.5905
2006-02-15,33.9837
2006-02-16,34.4706
2006-02-17,35.1833
2006-02-21,35.1833
2006-02-22,35.7337
2006-02-23,35.2397
2006-02-24,35.6279
2006-02-27,36.0653
2006-02-28,36.0019
2006-03-01,35.9736
2006-03-02,35.9383
2006-03-03,35.9878
2006-03-06,35.0774
2006-03-07,35.0069
2006-03-08,35.1269
2006-03-09,34.7741
2006-03-10,34.8446
2006-03-13,35.0633
2006-03-14,35.6702
2006-03-15,36.0089
2006-03-16,36.4958
2006-03-17,36.5028
2006-03-20,36.0583
2006-03-21,35.5997
2006-03-22,35.649
2006-03-23,35.5432
2006-03-24,35.4514
2006-03-27,35.0633
2006-03-28,34.8446
2006-03-29,35.7478
2006-03-30,35.3033
2006-03-31,34.52
2006-04-03,34.4212
2006-04-04,34.9858
2006-04-05,35.2821
2006-04-06,34.9293
2006-04-07,34.2942
2006-04-10,34.4636
2006-04-11,34.3366
2006-04-12,34.6399
2006-04-13,34.5271
2006-04-17,34.1883
2006-04-18,35.1128
2006-04-19,35.1551
2006-04-20,35.5361
2006-04-21,35.522
2006-04-24,35.3386
2006-04-25,34.6823
2006-04-26,34.8234
2006-04-27,35.903
2006-04-28,35.8255
2006-05-01,35.3739
2006-05-02,36.4111
2006-05-03,36.3181
2006-05-04,36.3751
2006-05-05,36.9304
2006-05-08,36.909
2006-05-09,37.1581
2006-05-10,37.2222
2006-05-11,36.7738
2006-05-12,36.6954
2006-05-15,37.3717
2006-05-16,37.7205
2006-05-17,37.3005
2006-05-18,37.336
2006-05-19,37.2507
2006-05-22,37.7205
2006-05-23,36.966
2006-05-24,37.0157
2006-05-25,37.272
2006-05-26,37.4926
2006-05-30,36.9872
2006-05-31,37.3005
2006-06-01,37.3645
2006-06-02,37.5924
2006-06-05,37.2934
2006-06-06,37.6351
2006-06-07,37.8771
2006-06-08,38.0265
2006-06-09,38.2259
2006-06-12,38.774
2006-06-13,37.8272
2006-06-14,37.2435
2006-06-15,37.4073
2006-06-16,37.5995
2006-06-19,37.1937
2006-06-20,37.6635
2006-06-21,37.9127
2006-06-22,37.5852
2006-06-23,37.7205
2006-06-26,37.9412
2006-06-27,37.5781
2006-06-28,38.1974
2006-06-29,38.6245
2006-06-30,38.653
2006-07-03,38.831
2006-07-05,38.5889
2006-07-06,38.2401
2006-07-07,38.1974
2006-07-10,38.6245
2006-07-11,38.5676
2006-07-12,38.29
2006-07-13,38.2757
2006-07-14,38.3185
2006-07-17,38.6032
2006-07-18,38.5889
2006-07-19,39.4788
2006-07-20,39.4289
2006-07-21,39.3222
2006-07-24,39.6851
2006-07-25,39.6211
2006-07-26,39.8844
2006-07-27,39.4645
2006-07-28,39.8987
2006-07-31,39.8631
2006-08-01,40.6248
2006-08-02,40.2119
2006-08-03,40.2833
2006-08-04,40.929
2006-08-07,39.9819
2006-08-08,40.5631
2006-08-09,40.477
2006-08-10,40.2617
2006-08-11,40.2976
2006-08-14,40.2761
2006-08-15,40.4196
2006-08-16,40.1254
2006-08-17,40.0895
2006-08-18,40.2546
2006-08-21,40.2187
2006-08-22,40.4196
2006-08-23,39.8958
2006-08-24,40.2833
2006-08-25,40.5416
2006-08-28,40.3622
2006-08-29,40.4913
2006-08-30,40.4985
2006-08-31,40.9793
2006-09-01,41.0152
2006-09-05,40.6564
2006-09-06,40.233
2006-09-07,40.1829
2006-09-08,40.0106
2006-09-11,40.5129
2006-09-12,39.659
2006-09-13,40.0967
2006-09-14,39.8527
2006-09-15,40.2115
2006-09-18,40.312
2006-09-19,40.0465
2006-09-20,39.7953
2006-09-21,39.4581
2006-09-22,39.4725
2006-09-25,40.2258
2006-09-26,40.0751
2006-09-27,40.721
2006-09-28,40.599
2006-09-29,40.0536
2006-10-02,40.929
2006-10-03,41.2879
2006-10-04,41.2089
2006-10-05,41.3452
2006-10-06,40.9937
2006-10-09,40.764
2006-10-10,41.3596
2006-10-11,41.4314
2006-10-12,41.4457
2006-10-13,41.5821
2006-10-16,41.4457
2006-10-17,41.8116
2006-10-18,42.2709
2006-10-19,42.0915
2006-10-20,42.2135
2006-10-23,42.4072
2006-10-24,42.5364
2006-10-25,43.0028
2006-10-26,42.7875
2006-10-27,42.723
2006-10-30,42.2565
2006-10-31,42.235
2006-11-01,42.5364
2006-11-02,42.2637
2006-11-03,41.8513
2006-11-06,42.3141
2006-11-07,42.3864
2006-11-08,42.907
2006-11-09,42.625
2006-11-10,42.6177
2006-11-13,42.6539
2006-11-14,42.5455
2006-11-15,42.0393
2006-11-16,42.3864
2006-11-17,42.3864
2006-11-20,42.2779
2006-11-21,42.6105
2006-11-22,42.7624
2006-11-24,42.8274
2006-11-27,42.5671
2006-11-28,42.6105
2006-11-29,43.1167
2006-11-30,43.2758
2006-12-01,43.753
2006-12-04,43.8904
2006-12-05,44.3387
2006-12-06,43.9916
2006-12-07,43.6011
2006-12-08,43.4999
2006-12-11,43.7458
2006-12-12,43.9988
2006-12-13,43.9988
2006-12-14,43.9844
2006-12-15,44.035
2006-12-18,44.0639
2006-12-19,44.3169
2006-12-20,44.2881
2006-12-21,43.8687
2006-12-22,43.8759
2006-12-26,44.0422
2006-12-27,44.1073
2006-12-28,43.8253
2006-12-29,43.5506
2007-01-03,43.7096
2007-01-04,43.6806
2007-01-05,42.7551
2007-01-08,42.6612
2007-01-09,42.5165
2007-01-10,42.3936
2007-01-11,42.3864
2007-01-12,41.9092
2007-01-16,41.9525
2007-01-17,42.2056
2007-01-18,42.0466
2007-01-19,42.3357
2007-01-22,42.061
2007-01-23,41.9164
2007-01-24,42.343
2007-01-25,42.2345
2007-01-26,42.5671
2007-01-29,42.7262
2007-01-30,42.8491
2007-01-31,42.9142
2007-02-01,43.753
2007-02-02,43.9554
2007-02-05,44.9466
2007-02-06,45.0852
2007-02-07,45.406
2007-02-08,46.0694
2007-02-09,45.9965
2007-02-12,46.1131
2007-02-13,46.2882
2007-02-14,46.5215
2007-02-15,46.2371
2007-02-16,45.9747
2007-02-20,46.4923
2007-02-21,46.084
2007-02-22,46.1569
2007-02-23,46.3391
2007-02-26,47.1265
2007-02-27,46.1423
2007-02-28,45.5372
2007-03-01,45.6611
2007-03-02,44.9904
2007-03-05,44.655
2007-03-06,45.1581
2007-03-07,45.0341
2007-03-08,45.18
2007-03-09,45.3549
2007-03-12,45.785
2007-03-13,45.0195
2007-03-14,45.2601
2007-03-15,45.6466
2007-03-16,45.9309
2007-03-19,46.2663
2007-03-20,47.2797
2007-03-21,47.8629
2007-03-22,47.9795
2007-03-23,48.1764
2007-03-26,48.5555
2007-03-27,48.3222
2007-03-28,48.4753
2007-03-29,48.7305
2007-03-30,48.2493
2007-04-02,49.4449
2007-04-03,49.3939
2007-04-04,49.1023
2007-04-05,49.5762
2007-04-09,49.7439
2007-04-10,49.7585
2007-04-11,49.6928
2007-04-12,48.8909
2007-04-13,48.8252
2007-04-16,49.1898
2007-04-17,49.2408
2007-04-18,49.8241
2007-04-19,49.5252
2007-04-20,50.1886
2007-04-23,50.5385
2007-04-24,51.6759
2007-04-25,51.8873
2007-04-26,51.4718
2007-04-27,50.9687
2007-04-30,49.9553
2007-05-01,50.699
2007-05-02,51.2239
2007-05-03,51.1068
2007-05-04,51.2683
2007-05-07,52.4725
2007-05-08,52.2376
2007-05-09,52.1788
2007-05-10,51.6208
2007-05-11,51.9732
2007-05-14,52.6487
2007-05-15,52.6414
2007-05-16,52.5753
2007-05-17,51.9879
2007-05-18,52.2082
2007-05-21,52.9866
2007-05-22,52.9719
2007-05-23,52.1201
2007-05-24,50.2256
2007-05-25,50.3284
2007-05-29,50.7249
2007-05-30,51.0921
2007-05-31,50.8864
2007-06-01,50.8938
2007-06-04,50.8498
2007-06-05,49.7189
2007-06-06,49.3886
2007-06-07,47.6115
2007-06-08,48.1256
2007-06-11,47.92
2007-06-12,47.1563
2007-06-13,47.6483
2007-06-14,47.6629
2007-06-15,49.2269
2007-06-18,48.2871
2007-06-19,48.243
2007-06-20,46.657
2007-06-21,47.3692
2007-06-22,46.7598
2007-06-25,47.1122
2007-06-26,46.9434
2007-06-27,47.6262
2007-06-28,47.215
2007-06-29,47.4793
2007-07-02,48.7644
2007-07-03,48.4339
2007-07-05,48.3312
2007-07-06,48.2063
2007-07-09,48.1182
2007-07-10,47.494
2007-07-11,47.8832
2007-07-12,48.5294
2007-07-13,49.484
2007-07-16,48.4266
2007-07-17,48.1696
2007-07-18,48.713
2007-07-19,49.9686
2007-07-20,48.8525
2007-07-23,49.2123
2007-07-24,47.0315
2007-07-25,46.701
2007-07-26,44.7111
2007-07-27,44.4835
2007-07-30,44.2411
2007-07-31,44.6303
2007-08-01,46.4734
2007-08-02,46.3633
2007-08-03,44.2906
2007-08-06,46.2668
2007-08-07,47.7397
2007-08-08,47.5546
2007-08-09,45.5711
2007-08-10,44.631
2007-08-13,46.4814
2007-08-14,45.6673
2007-08-15,44.9494
2007-08-16,45.0456
2007-08-17,46.4148
2007-08-20,46.1632
2007-08-21,46.1558
2007-08-22,46.8663
2007-08-23,46.7849
2007-08-24,46.7923
2007-08-27,45.1639
2007-08-28,44.0981
2007-08-29,45.2379
2007-08-30,45.1713
2007-08-31,45.4971
2007-09-04,45.9707
2007-09-05,45.7487
2007-09-06,46.3112
2007-09-07,45.6303
2007-09-10,45.8079
2007-09-11,46.0521
2007-09-12,45.8375
2007-09-13,46.363
2007-09-14,46.3704
2007-09-17,46.3112
2007-09-18,47.1624
2007-09-19,48.2134
2007-09-20,47.6879
2007-09-21,47.8581
2007-09-24,47.6805
2007-09-25,48.2429
2007-09-26,48.6575
2007-09-27,48.0801
2007-09-28,46.8737
2007-10-01,47.9247
2007-10-02,47.562
2007-10-03,47.9987
2007-10-04,49.1682
2007-10-05,49.4938
2007-10-08,49.3162
2007-10-09,49.7381
2007-10-10,49.5086
2007-10-11,50.4265
2007-10-12,50.5227
2007-10-15,49.8121
2007-10-16,49.6863
2007-10-17,49.4124
2007-10-18,49.3014
2007-10-19,48.5613
2007-10-22,48.5835
2007-10-23,48.3762
2007-10-24,48.9831
2007-10-25,49.8861
2007-10-26,50.6336
2007-10-29,51.4626
2007-10-30,50.9075
2007-10-31,51.5663
2007-11-01,50.9594
2007-11-02,51.1814
2007-11-05,51.6288
2007-11-06,50.7937
2007-11-07,49.9364
2007-11-08,50.3315
2007-11-09,50.3762
2007-11-12,49.8096
2007-11-13,50.1973
2007-11-14,49.9438
2007-11-15,50.2644
2007-11-16,50.3986
2007-11-19,50.4582
2007-11-20,50.9652
2007-11-21,50.8981
2007-11-23,50.5998
2007-11-26,50.4358
2007-11-27,50.4806
2007-11-28,50.4731
2007-11-29,50.5328
2007-11-30,51.0696
2007-12-03,51.7405
2007-12-04,52.7545
2007-12-05,53.679
2007-12-06,54.3649
2007-12-07,55.0583
2007-12-10,55.0508
2007-12-11,53.9324
2007-12-12,54.2456
2007-12-13,54.8345
2007-12-14,54.0592
2007-12-17,53.9249
2007-12-18,55.0284
2007-12-19,55.0284
2007-12-20,54.9762
2007-12-21,55.774
2007-12-24,55.0284
2007-12-26,54.9091
2007-12-27,54.2158
2007-12-28,54.7228
2007-12-31,54.0517
2008-01-02,53.5373
2008-01-03,54.2307
2008-01-04,55.513
2008-01-07,57.7198
2008-01-08,56.1541
2008-01-09,56.6164
2008-01-10,58.0702
2008-01-11,57.3992
2008-01-14,57.3247
2008-01-15,57.347
2008-01-16,56.5121
2008-01-17,53.9847
2008-01-18,53.5373
2008-01-22,51.1963
2008-01-23,53.3136
2008-01-24,52.0388
2008-01-25,51.0919
2008-01-28,51.9493
2008-01-29,52.3966
2008-01-30,51.6362
2008-01-31,53.0676
2008-02-01,53.9399
2008-02-04,54.6854
2008-02-05,52.6941
2008-02-06,52.7016
2008-02-07,52.8594
2008-02-08,52.4612
2008-02-11,52.8142
2008-02-12,53.3551
2008-02-13,53.5805
2008-02-14,53.2725
2008-02-15,53.603
2008-02-19,53.6405
2008-02-20,53.2124
2008-02-21,52.3336
2008-02-22,52.7467
2008-02-25,53.2424
2008-02-26,53.5504
2008-02-27,52.3936
2008-02-28,52.5363
2008-02-29,50.8537
2008-03-03,50.5532
2008-03-04,52.2058
2008-03-05,52.9795
2008-03-06,51.7176
2008-03-07,51.4471
2008-03-10,50.974
2008-03-11,52.356
2008-03-12,52.0781
2008-03-13,51.1767
2008-03-14,50.8763
2008-03-17,51.3044
2008-03-18,52.5363
2008-03-19,51.6575
2008-03-20,52.2509
2008-03-24,51.8829
2008-03-25,51.4321
2008-03-26,51.2067
2008-03-27,51.4321
2008-03-28,50.9138
2008-03-31,51.6274
2008-04-01,53.4677
2008-04-02,54.0311
2008-04-03,53.9711
2008-04-04,54.1814
2008-04-07,54.2415
2008-04-08,54.6997
2008-04-09,54.7373
2008-04-10,55.3081
2008-04-11,56.3597
2008-04-14,56.0367
2008-04-15,55.6311
2008-04-16,56.6753
2008-04-17,56.6301
2008-04-18,56.9006
2008-04-21,57.2611
2008-04-22,57.5992
2008-04-23,58.2902
2008-04-24,57.6217
2008-04-25,57.8095
2008-04-28,57.2611
2008-04-29,57.0584
2008-04-30,56.8705
2008-05-01,57.6066
2008-05-02,59.2142
2008-05-05,58.4114
2008-05-06,58.1541
2008-05-07,57.0876
2008-05-08,57.3977
2008-05-09,57.5263
2008-05-12,57.776
2008-05-13,57.5187
2008-05-14,58.2071
2008-05-15,57.7079
2008-05-16,58.1012
2008-05-19,58.9787
2008-05-20,59.6443
2008-05-21,59.5385
2008-05-22,59.5762
2008-05-23,58.956
2008-05-27,59.1073
2008-05-28,59.6065
2008-05-29,60.2419
2008-05-30,59.4477
2008-06-02,59.0997
2008-06-03,58.8803
2008-06-04,59.3039
2008-06-05,59.7653
2008-06-06,58.2222
2008-06-09,58.9408
2008-06-10,59.4098
2008-06-11,58.6534
2008-06-12,59.077
2008-06-13,60.257
2008-06-16,60.3326
2008-06-17,60.2116
2008-06-18,60.2495
2008-06-19,61.6564
2008-06-20,61.3009
2008-06-23,61.9438
2008-06-24,62.1783
2008-06-25,62.4809
2008-06-26,60.6806
2008-06-27,60.6277
2008-06-30,62.2616
2008-07-01,62.5566
2008-07-02,61.6942
2008-07-03,62.1027
2008-07-07,61.2706
2008-07-08,61.2253
2008-07-09,62.67
2008-07-10,62.6171
2008-07-11,62.9348
2008-07-14,62.4204
2008-07-15,62.1027
2008-07-16,59.7048
2008-07-17,58.1541
2008-07-18,58.0936
2008-07-21,58.7895
2008-07-22,58.5929
2008-07-23,55.9756
2008-07-24,55.5672
2008-07-25,54.6898
2008-07-28,54.7956
2008-07-29,55.1889
2008-07-30,55.9832
2008-07-31,55.5823
2008-08-01,53.9938
2008-08-04,52.0649
2008-08-05,52.0795
2008-08-06,52.5751
2008-08-07,52.4988
2008-08-08,53.2004
2008-08-11,53.5892
2008-08-12,52.1023
2008-08-13,53.4673
2008-08-14,53.7646
2008-08-15,54.5652
2008-08-18,54.5957
2008-08-19,54.9159
2008-08-20,55.3506
2008-08-21,55.9301
2008-08-22,56.1055
2008-08-25,55.9454
2008-08-26,55.8844
2008-08-27,56.1207
2008-08-28,56.5249
2008-08-29,55.404
2008-09-02,54.3441
2008-09-03,52.7809
2008-09-04,52.4912
2008-09-05,52.3844
2008-09-08,53.7951
2008-09-09,51.1721
2008-09-10,50.585
2008-09-11,52.1481
2008-09-12,52.9792
2008-09-15,51.1263
2008-09-16,51.1949
2008-09-17,48.1906
2008-09-18,50.8976
2008-09-19,52.4302
2008-09-22,50.2646
2008-09-23,50.5697
2008-09-24,50.7603
2008-09-25,52.6132
2008-09-26,52.415
2008-09-29,51.05
2008-09-30,50.928
2008-10-01,49.6165
2008-10-02,47.1536
2008-10-03,46.5589
2008-10-06,43.3563
2008-10-07,41.511
2008-10-08,40.5045
2008-10-09,38.8652
2008-10-10,35.1593
2008-10-13,40.5121
2008-10-14,40.8019
2008-10-15,36.936
2008-10-16,37.3096
2008-10-17,38.1636
2008-10-20,41.8313
2008-10-21,40.718
2008-10-22,37.4926
2008-10-23,39.2006
2008-10-24,37.607
2008-10-27,35.3347
2008-10-28,39.7191
2008-10-29,39.742
2008-10-30,41.7322
2008-10-31,39.7573
2008-11-03,40.4664
2008-11-04,43.7528
2008-11-05,41.0906
2008-11-06,41.0058
2008-11-07,41.9991
2008-11-10,40.7364
2008-11-11,40.6748
2008-11-12,40.1898
2008-11-13,42.6304
2008-11-14,40.7133
2008-11-17,41.3677
2008-11-18,41.5756
2008-11-19,40.952
2008-11-20,39.4737
2008-11-21,43.7621
2008-11-24,43.2309
2008-11-25,44.2318
2008-11-26,44.1548
2008-11-28,45.1018
2008-12-01,42.3224
2008-12-02,43.2309
2008-12-03,43.87
2008-12-04,41.4447
2008-12-05,42.1146
2008-12-08,42.9768
2008-12-09,41.8066
2008-12-10,42.2223
2008-12-11,42.1607
2008-12-12,41.5833
2008-12-15,40.8442
2008-12-16,41.7218
2008-12-17,40.3514
2008-12-18,40.2821
2008-12-19,38.5421
2008-12-22,37.6952
2008-12-23,35.4625
2008-12-24,35.6395
2008-12-26,35.3623
2008-12-29,35.8166
2008-12-30,36.5403
2008-12-31,37.5027
2009-01-02,38.211
2009-01-05,39.8818
2009-01-06,39.389
2009-01-07,37.4796
2009-01-08,36.7559
2009-01-09,37.6413
2009-01-12,37.4566
2009-01-13,36.8868
2009-01-14,37.0561
2009-01-15,37.6952
2009-01-16,38.4805
2009-01-20,37.8954
2009-01-21,38.4574
2009-01-22,38.8501
2009-01-23,38.1648
2009-01-26,39.7355
2009-01-27,39.7432
2009-01-28,40.0589
2009-01-29,40.4361
2009-01-30,38.4574
2009-02-02,39.1888
2009-02-03,39.6662
2009-02-04,39.7201
2009-02-05,40.3583
2009-02-06,41.191
2009-02-09,41.0665
2009-02-10,40.2804
2009-02-11,40.0859
2009-02-12,40.2105
2009-02-13,40.047
2009-02-17,37.3933
2009-02-18,36.724
2009-02-19,37.5567
2009-02-20,36.9575
2009-02-23,35.3855
2009-02-24,37.3544
2009-02-25,35.7435
2009-02-26,33.8447
2009-02-27,33.152
2009-03-02,31.5411
2009-03-03,30.794
2009-03-04,31.0353
2009-03-05,29.292
2009-03-06,29.1909
2009-03-09,28.8252
2009-03-10,29.4555
2009-03-11,28.9496
2009-03-12,28.654
2009-03-13,27.7667
2009-03-16,28.9886
2009-03-17,29.1909
2009-03-18,29.8213
2009-03-19,30.0548
2009-03-20,30.8485
2009-03-23,31.2766
2009-03-24,30.5995
2009-03-25,30.9964
2009-03-26,31.7979
2009-03-27,31.2842
2009-03-30,30.1325
2009-03-31,30.0703
2009-04-01,30.1792
2009-04-02,30.6462
2009-04-03,30.6306
2009-04-06,30.0314
2009-04-07,29.899
2009-04-08,31.0353
2009-04-09,31.292
2009-04-13,30.794
2009-04-14,30.0625
2009-04-15,30.8174
2009-04-16,31.3933
2009-04-17,31.1909
2009-04-20,30.3738
2009-04-21,30.6462
2009-04-22,30.6773
2009-04-23,31.0431
2009-04-24,31.1442
2009-04-27,31.5722
2009-04-28,31.1831
2009-04-29,31.4789
2009-04-30,31.8213
2009-05-01,32.9497
2009-05-04,33.3154
2009-05-05,33.18
2009-05-06,32.6518
2009-05-07,32.8332
2009-05-08,33.3377
2009-05-11,32.8489
2009-05-12,33.2983
2009-05-13,32.4075
2009-05-14,31.7453
2009-05-15,28.7576
2009-05-18,28.7655
2009-05-19,29.4119
2009-05-20,29.4986
2009-05-21,29.3173
2009-05-22,29.1518
2009-05-26,29.9085
2009-05-27,29.3724
2009-05-28,29.743
2009-05-29,29.7194
2009-06-01,30.9492
2009-06-02,30.3973
2009-06-03,30.9649
2009-06-04,31.0831
2009-06-05,30.8782
2009-06-08,30.2475
2009-06-09,29.7824
2009-06-10,30.0504
2009-06-11,30.7915
2009-06-12,31.8951
2009-06-15,31.0989
2009-06-16,30.9097
2009-06-17,30.4918
2009-06-18,30.9492
2009-06-19,30.3816
2009-06-22,30.4524
2009-06-23,30.011
2009-06-24,30.2554
2009-06-25,31.1304
2009-06-26,31.0358
2009-06-29,31.1935
2009-06-30,30.5786
2009-07-01,30.9806
2009-07-02,29.8219
2009-07-06,30.0504
2009-07-07,29.6878
2009-07-08,29.3016
2009-07-09,30.6811
2009-07-10,30.823
2009-07-13,31.3196
2009-07-14,31.698
2009-07-15,32.3365
2009-07-16,32.1789
2009-07-17,32.1
2009-07-20,32.2262
2009-07-21,32.4548
2009-07-22,32.0842
2009-07-23,33.1563
2009-07-24,33.7791
2009-07-27,33.716
2009-07-28,32.8568
2009-07-29,32.6518
2009-07-30,32.7622
2009-07-31,32.4942
2009-08-03,33.0224
2009-08-04,32.6597
2009-08-05,33.0346
2009-08-06,33.5619
2009-08-07,34.193
2009-08-10,34.4087
2009-08-11,34.3448
2009-08-12,34.7603
2009-08-13,34.7842
2009-08-14,35.2395
2009-08-17,34.7523
2009-08-18,34.872
2009-08-19,35.1837
2009-08-20,35.3993
2009-08-21,36.2302
2009-08-24,36.4698
2009-08-25,36.1902
2009-08-26,36.2861
2009-08-27,36.4379
2009-08-28,36.5817
2009-08-31,36.0464
2009-09-01,35.9586
2009-09-02,35.7349
2009-09-03,36.382
2009-09-04,36.6377
2009-09-08,36.7495
2009-09-09,36.9891
2009-09-10,37.1889
2009-09-11,36.6377
2009-09-14,37.2528
2009-09-15,37.4845
2009-09-16,38.1476
2009-09-17,37.3726
2009-09-18,37.5244
2009-09-21,37.6123
2009-09-22,37.6602
2009-09-23,37.4685
2009-09-24,37.0451
2009-09-25,36.5258
2009-09-28,36.8693
2009-09-29,36.8613
2009-09-30,36.5178
2009-10-01,35.7588
2009-10-02,35.7668
2009-10-05,36.2143
2009-10-06,36.7815
2009-10-07,36.1503
2009-10-08,36.2622
2009-10-09,36.5817
2009-10-12,36.8214
2009-10-13,37.0212
2009-10-14,37.1249
2009-10-15,37.6682
2009-10-16,37.6362
2009-10-19,37.78
2009-10-20,37.157
2009-10-21,37.101
2009-10-22,37.149
2009-10-23,36.6935
2009-10-26,35.9346
2009-10-27,35.1677
2009-10-28,34.928
2009-10-29,35.4553
2009-10-30,34.5764
2009-11-02,33.9134
2009-11-03,33.5539
2009-11-04,33.9744
2009-11-05,34.452
2009-11-06,34.2982
2009-11-09,34.9701
2009-11-10,34.962
2009-11-11,34.6139
2009-11-12,33.6992
2009-11-13,34.0958
2009-11-16,34.4682
2009-11-17,34.5411
2009-11-18,34.5491
2009-11-19,33.9824
2009-11-20,33.9744
2009-11-23,34.1039
2009-11-24,34.2982
2009-11-25,34.9457
2009-11-27,34.4925
2009-11-30,34.8729
2009-12-01,35.1643
2009-12-02,35.5448
2009-12-03,36.3057
2009-12-04,36.079
2009-12-07,36.3382
2009-12-08,35.9576
2009-12-09,36.2491
2009-12-10,37.099
2009-12-11,37.8033
2009-12-14,38.2809
2009-12-15,38.2323
2009-12-16,37.601
2009-12-17,37.8923
2009-12-18,37.8761
2009-12-21,38.2242
2009-12-22,37.9652
2009-12-23,38.3214
2009-12-24,38.4185
2009-12-28,38.2728
2009-12-29,38.3132
2009-12-30,38.4104
2009-12-31,37.6333
2010-01-04,37.86
2010-01-05,37.4633
2010-01-06,37.8275
2010-01-07,37.3014
2010-01-08,37.0828
2010-01-11,37.698
2010-01-12,37.8033
2010-01-13,38.0219
2010-01-14,37.8923
2010-01-15,37.7709
2010-01-19,38.0381
2010-01-20,37.528
2010-01-21,36.5
2010-01-22,35.7148
2010-01-25,35.982
2010-01-26,36.1195
2010-01-27,35.812
2010-01-28,35.391
2010-01-29,35.3182
2010-02-01,35.4315
2010-02-02,35.7229
2010-02-03,35.1495
2010-02-04,34.3297
2010-02-05,34.0264
2010-02-08,33.6083
2010-02-09,34.1821
2010-02-10,33.9854
2010-02-11,32.4525
2010-02-12,32.0836
2010-02-16,32.1411
2010-02-17,31.5755
2010-02-18,31.7804
2010-02-19,32.5345
2010-02-22,32.5591
2010-02-23,32.1246
2010-02-24,32.0509
2010-02-25,32.0345
2010-02-26,31.6984
2010-03-01,32.0099
2010-03-02,32.1903
2010-03-03,31.8951
2010-03-04,31.9116
2010-03-05,32.4444
2010-03-08,32.3378
2010-03-09,32.3295
2010-03-10,32.6001
2010-03-11,32.5837
2010-03-12,32.3624
2010-03-15,32.5099
2010-03-16,32.6821
2010-03-17,32.7886
2010-03-18,32.4525
2010-03-19,32.6083
2010-03-22,32.6821
2010-03-23,33.1247
2010-03-24,33.0263
2010-03-25,31.9771
2010-03-26,31.7804
2010-03-29,31.9607
2010-03-30,31.8377
2010-03-31,32.0426
2010-04-01,32.3542
2010-04-05,32.4115
2010-04-06,32.7066
2010-04-07,32.387
2010-04-08,32.3378
2010-04-09,32.4444
2010-04-12,32.5017
2010-04-13,32.1738
2010-04-14,31.8214
2010-04-15,31.6657
2010-04-16,31.0017
2010-04-19,30.7885
2010-04-20,31.018
2010-04-21,30.9033
2010-04-22,30.6328
2010-04-23,30.7393
2010-04-26,30.6246
2010-04-27,30.2475
2010-04-28,30.6656
2010-04-29,30.6328
2010-04-30,31.0427
2010-05-03,30.9935
2010-05-04,30.3704
2010-05-05,29.7129
2010-05-06,29.0556
2010-05-07,29.1721
2010-05-10,29.8876
2010-05-11,29.8128
2010-05-12,30.3286
2010-05-13,30.5948
2010-05-14,30.5616
2010-05-17,30.362
2010-05-18,29.9043
2010-05-19,29.7462
2010-05-20,28.8808
2010-05-21,28.9891
2010-05-24,28.8392
2010-05-25,28.6145
2010-05-26,28.6312
2010-05-27,29.2886
2010-05-28,29.3135
2010-06-01,28.34
2010-06-02,28.9474
2010-06-03,29.5798
2010-06-04,29.2886
2010-06-07,30.079
2010-06-08,30.3203
2010-06-09,30.0707
2010-06-10,30.8196
2010-06-11,30.6948
2010-06-14,30.9277
2010-06-15,31.4935
2010-06-16,31.5351
2010-06-17,32.0842
2010-06-18,31.9844
2010-06-21,31.3354
2010-06-22,30.287
2010-06-23,30.0207
2010-06-24,29.9709
2010-06-25,30.0041
2010-06-28,30.1788
2010-06-29,29.5132
2010-06-30,29.3135
2010-07-01,29.0556
2010-07-02,28.8143
2010-07-06,29.0805
2010-07-07,30.0125
2010-07-08,30.2953
2010-07-09,30.8196
2010-07-12,31.0026
2010-07-13,31.1857
2010-07-14,31.1857
2010-07-15,31.2938
2010-07-16,30.8445
2010-07-19,31.3271
2010-07-20,31.5768
2010-07-21,31.4685
2010-07-22,31.9928
2010-07-23,31.4768
2010-07-26,31.5268
2010-07-27,32.2923
2010-07-28,32.2007
2010-07-29,31.6766
2010-07-30,31.3936
2010-08-02,31.9844
2010-08-03,32.1093
2010-08-04,31.9319
2010-08-05,31.7968
2010-08-06,31.6533
2010-08-09,31.6027
2010-08-10,31.493
2010-08-11,30.6235
2010-08-12,30.2268
2010-08-13,30.615
2010-08-16,30.7839
2010-08-17,31.2819
2010-08-18,31.1722
2010-08-19,30.5392
2010-08-20,30.2775
2010-08-23,30.4125
2010-08-24,30.3534
2010-08-25,30.2859
2010-08-26,30.2268
2010-08-27,30.9865
2010-08-30,30.6573
2010-08-31,30.8092
2010-09-01,31.5774
2010-09-02,31.6027
2010-09-03,31.8897
2010-09-07,31.5858
2010-09-08,31.5267
2010-09-09,31.7209
2010-09-10,31.5774
2010-09-13,31.5267
2010-09-14,30.9949
2010-09-15,30.8177
2010-09-16,30.5645
2010-09-17,30.6489
2010-09-20,31.0202
2010-09-21,30.7585
2010-09-22,31.2904
2010-09-23,31.5267
2010-09-24,32.1514
2010-09-27,32.4045
2010-09-28,32.3708
2010-09-29,32.548
2010-09-30,32.5734
2010-10-01,32.8604
2010-10-04,32.5396
2010-10-05,32.7929
2010-10-06,32.5818
2010-10-07,32.4637
2010-10-08,32.4552
2010-10-11,32.4214
2010-10-12,32.3624
2010-10-13,32.8097
2010-10-14,32.5902
2010-10-15,32.8772
2010-10-18,33.2317
2010-10-19,33.2317
2010-10-20,33.485
2010-10-21,33.1727
2010-10-22,31.6533
2010-10-25,31.2988
2010-10-26,30.7585
2010-10-27,30.5813
2010-10-28,30.5222
2010-10-29,30.6489
2010-11-01,30.4463
2010-11-02,31.1132
2010-11-03,30.719
2010-11-04,30.7962
2010-11-05,30.779
2010-11-08,30.8647
2010-11-09,30.9247
2010-11-10,30.5392
2010-11-11,30.5819
2010-11-12,30.3249
2010-11-15,30.4448
2010-11-16,30.1278
2010-11-17,30.5905
2010-11-18,30.8476
2010-11-19,31.0447
2010-11-22,30.8391
2010-11-23,30.3335
2010-11-24,30.2564
2010-11-26,30.2478
2010-11-29,30.2992
2010-11-30,30.1022
2010-12-01,30.1278
2010-12-02,30.5477
2010-12-03,30.5392
2010-12-06,30.4021
2010-12-07,30.4791
2010-12-08,30.5477
2010-12-09,30.5134
2010-12-10,30.5734
2010-12-13,30.6162
2010-12-14,30.8476
2010-12-15,30.6591
2010-12-16,30.8561
2010-12-17,31.1047
2010-12-20,31.2761
2010-12-21,31.3531
2010-12-22,31.576
2010-12-23,31.7473
2010-12-27,31.9015
2010-12-28,32.0301
2010-12-29,31.953
2010-12-30,31.9272
2010-12-31,31.7216
2011-01-03,32.2786
2011-01-04,32.4757
2011-01-05,32.5528
2011-01-06,32.6899
2011-01-07,32.8098
2011-01-10,32.7756
2011-01-11,32.6299
2011-01-12,32.7499
2011-01-13,32.8527
2011-01-14,33.0584
2011-01-18,33.2382
2011-01-19,33.2554
2011-01-20,33.7267
2011-01-21,33.8895
2011-01-24,33.7867
2011-01-25,33.4011
2011-01-26,33.3583
2011-01-27,33.8295
2011-01-28,33.2468
2011-01-31,33.5039
2011-02-01,34.0266
2011-02-02,34.8064
2011-02-03,34.8672
2011-02-04,34.3981
2011-02-07,34.6587
2011-02-08,34.6674
2011-02-09,34.6674
2011-02-10,34.9801
2011-02-11,34.5458
2011-02-14,33.8595
2011-02-15,34.0767
2011-02-16,33.3818
2011-02-17,33.2428
2011-02-18,32.9127
2011-02-22,33.1646
2011-02-23,33.0865
2011-02-24,33.1213
2011-02-25,32.8259
2011-02-28,33.7033
2011-03-01,33.1344
2011-03-02,32.8698
2011-03-03,32.7464
2011-03-04,32.6143
2011-03-07,32.8523
2011-03-08,33.0462
2011-03-09,34.0951
2011-03-10,33.7954
2011-03-11,33.91
2011-03-14,33.7866
2011-03-15,32.8434
2011-03-16,32.2264
2011-03-17,32.2264
2011-03-18,32.1735
2011-03-21,32.3763
2011-03-22,32.4644
2011-03-23,32.3586
2011-03-24,32.2352
2011-03-25,32.1999
2011-03-28,31.9796
2011-03-29,32.1647
2011-03-30,32.7024
2011-03-31,32.676
2011-04-01,32.817
2011-04-04,32.7113
2011-04-05,32.4203
2011-04-06,32.8434
2011-04-07,32.7377
2011-04-08,32.7377
2011-04-11,32.385
2011-04-12,32.623
2011-04-13,33.2754
2011-04-14,33.6192
2011-04-15,33.8659
2011-04-18,33.6103
2011-04-19,33.9717
2011-04-20,34.2538
2011-04-21,34.2714
2011-04-25,34.1391
2011-04-26,34.7209
2011-04-27,34.9149
2011-04-28,35.1087
2011-04-29,35.2763
2011-05-02,34.9766
2011-05-03,37.0392
2011-05-04,37.4143
2011-05-05,36.8516
2011-05-06,37.0928
2011-05-09,37.1374
2011-05-10,38.2449
2011-05-11,38.0574
2011-05-12,38.888
2011-05-13,37.9949
2011-05-16,39.7455
2011-05-17,40.6744
2011-05-18,40.1117
2011-05-19,40.0045
2011-05-20,39.9866
2011-05-23,39.2811
2011-05-24,39.6918
2011-05-25,39.7991
2011-05-26,39.5669
2011-05-27,39.5936
2011-05-31,39.8526
2011-06-01,39.3167
2011-06-02,39.0756
2011-06-03,39.0041
2011-06-06,38.7273
2011-06-07,38.7273
2011-06-08,38.7273
2011-06-09,39.0845
2011-06-10,38.5844
2011-06-13,38.361
2011-06-14,39.1292
2011-06-15,38.4504
2011-06-16,38.7809
2011-06-17,39.0845
2011-06-20,39.4328
2011-06-21,39.4686
2011-06-22,39.2274
2011-06-23,38.6737
2011-06-24,38.5576
2011-06-27,38.638
2011-06-28,38.8255
2011-06-29,39.2453
2011-06-30,39.4775
2011-07-01,39.8437
2011-07-05,39.3882
2011-07-06,39.415
2011-07-07,39.933
2011-07-08,39.8616
2011-07-11,39.3704
2011-07-12,39.1828
2011-07-13,39.0577
2011-07-14,38.7094
2011-07-15,38.638
2011-07-18,38.2896
2011-07-19,38.4504
2011-07-20,38.7987
2011-07-21,39.7365
2011-07-22,39.6115
2011-07-25,40.4957
2011-07-26,40.5046
2011-07-27,40.3349
2011-07-28,40.0849
2011-07-29,39.9598
2011-08-01,40.0134
2011-08-02,39.4328
2011-08-03,39.3157
2011-08-04,37.3439
2011-08-05,37.4615
2011-08-08,35.4989
2011-08-09,36.946
2011-08-10,35.8155
2011-08-11,37.8595
2011-08-12,37.335
2011-08-15,38.6825
2011-08-16,38.4745
2011-08-17,38.9177
2011-08-18,38.1037
2011-08-19,37.7148
2011-08-22,37.3802
2011-08-23,38.4745
2011-08-24,39.3518
2011-08-25,38.6193
2011-08-26,38.4564
2011-08-29,39.4332
2011-08-30,39.6955
2011-08-31,39.9397
2011-09-01,39.7226
2011-09-02,38.8906
2011-09-06,38.8272
2011-09-07,39.3428
2011-09-08,39.786
2011-09-09,38.6825
2011-09-12,39.0533
2011-09-13,39.4151
2011-09-14,39.9397
2011-09-15,40.4642
2011-09-16,41.0521
2011-09-19,40.6271
2011-09-20,41.64
2011-09-21,41.0612
2011-09-22,40.2472
2011-09-23,40.7717
2011-09-26,41.016
2011-09-27,40.817
2011-09-28,40.5456
2011-09-29,41.0069
2011-09-30,40.6632
2011-10-03,39.4603
2011-10-04,39.4965
2011-10-05,39.2704
2011-10-06,39.5146
2011-10-07,40.0482
2011-10-10,40.9527
2011-10-11,40.5909
2011-10-12,40.7537
2011-10-13,39.6141
2011-10-14,40.0301
2011-10-17,39.7678
2011-10-18,40.0211
2011-10-19,40.7808
2011-10-20,40.7537
2011-10-21,41.4592
2011-10-24,41.2059
2011-10-25,40.6
2011-10-26,40.3286
2011-10-27,41.2421
2011-10-28,41.0521
2011-10-31,40.6903
2011-11-01,40.6723
2011-11-02,41.3958
2011-11-03,41.9085
2011-11-04,41.5789
2011-11-07,41.8078
2011-11-08,42.1007
2011-11-09,40.9839
2011-11-10,40.9656
2011-11-11,41.6521
2011-11-14,40.9839
2011-11-15,41.698
2011-11-16,41.0022
2011-11-17,40.0776
2011-11-18,40.5353
2011-11-21,39.922
2011-11-22,39.1072
2011-11-23,38.3474
2011-11-25,38.4757
2011-11-28,39.1255
2011-11-29,39.5558
2011-11-30,40.7093
2011-12-01,40.8924
2011-12-02,40.572
2011-12-05,40.81
2011-12-06,41.2585
2011-12-07,41.3684
2011-12-08,40.6085
2011-12-09,41.0113
2011-12-12,40.4437
2011-12-13,40.7367
2011-12-14,40.2241
2011-12-15,40.5536
2011-12-16,39.7847
2011-12-19,38.8875
2011-12-20,39.7023
2011-12-21,40.5261
2011-12-22,40.5536
2011-12-23,40.6269
2011-12-27,41.0388
2011-12-28,40.9748
2011-12-29,41.3042
2011-12-30,40.5536
2012-01-03,39.1805
2012-01-04,38.6313
2012-01-05,38.5122
2012-01-06,38.6221
2012-01-09,38.8051
2012-01-10,38.7869
2012-01-11,38.4665
2012-01-12,38.6313
2012-01-13,38.5763
2012-01-17,38.4482
2012-01-18,38.4207
2012-01-19,37.6792
2012-01-20,37.9996
2012-01-23,38.4482
2012-01-24,37.7341
2012-01-25,38.5305
2012-01-26,39.0798
2012-01-27,38.677
2012-01-30,38.5671
2012-01-31,38.6678
2012-02-01,38.9699
2012-02-02,40.2241
2012-02-03,40.3352
2012-02-06,40.0942
2012-02-07,40.0849
2012-02-08,39.7975
2012-02-09,39.5751
2012-02-10,39.4823
2012-02-13,39.881
2012-02-14,39.9829
2012-02-15,39.6492
2012-02-16,40.3815
2012-02-17,40.224
2012-02-21,40.2147
2012-02-22,40.5299
2012-02-23,40.8358
2012-02-24,40.8821
2012-02-27,40.7245
2012-02-28,40.5947
2012-02-29,41.049
2012-03-01,41.1232
2012-03-02,41.2345
2012-03-05,41.4569
2012-03-06,41.4384
2012-03-07,41.3921
2012-03-08,41.2252
2012-03-09,41.4384
2012-03-12,41.8091
2012-03-13,41.6887
2012-03-14,41.2158
2012-03-15,41.1602
2012-03-16,41.253
2012-03-19,40.8729
2012-03-20,41.0027
2012-03-21,40.9099
2012-03-22,41.3735
2012-03-23,41.5032
2012-03-26,41.7443
2012-03-27,41.976
2012-03-28,41.8463
2012-03-29,42.1893
2012-03-30,42.2819
2012-04-02,42.4489
2012-04-03,42.4767
2012-04-04,42.7362
2012-04-05,42.6157
2012-04-09,42.3098
2012-04-10,41.7443
2012-04-11,41.7443
2012-04-12,41.8834
2012-04-13,41.6516
2012-04-16,42.1058
2012-04-17,42.4674
2012-04-18,42.4303
2012-04-19,42.0965
2012-04-20,42.4117
2012-04-23,42.2356
2012-04-24,42.5786
2012-04-25,43.0328
2012-04-26,43.2924
2012-04-27,43.5983
2012-04-30,43.3852
2012-05-01,43.8487
2012-05-02,43.7096
2012-05-03,43.8408
2012-05-04,44.094
2012-05-07,44.0846
2012-05-08,44.1691
2012-05-09,44.1972
2012-05-10,44.6287
2012-05-11,44.835
2012-05-14,44.8538
2012-05-15,44.882
2012-05-16,44.7975
2012-05-17,44.7038
2012-05-18,44.7694
2012-05-21,44.7131
2012-05-22,44.7225
2012-05-23,43.8689
2012-05-24,44.2066
2012-05-25,43.9346
2012-05-29,43.8595
2012-05-30,43.4843
2012-05-31,43.8783
2012-06-01,43.6063
2012-06-04,43.8971
2012-06-05,44.1409
2012-06-06,44.7506
2012-06-07,44.6943
2012-06-08,44.8631
2012-06-11,44.7975
2012-06-12,44.7506
2012-06-13,44.4974
2012-06-14,45.0508
2012-06-15,45.4634
2012-06-18,45.7824
2012-06-19,46.1107
2012-06-20,45.4916
2012-06-21,45.1446
2012-06-22,45.1821
2012-06-25,44.9007
2012-06-26,44.8444
2012-06-27,45.3978
2012-06-28,45.4916
2012-06-29,46.1013
2012-07-02,46.7766
2012-07-03,46.7485
2012-07-05,46.364
2012-07-06,46.1763
2012-07-09,45.9325
2012-07-10,45.9137
2012-07-11,45.97
2012-07-12,46.0357
2012-07-13,46.2701
2012-07-16,46.4952
2012-07-17,46.439
2012-07-18,46.636
2012-07-19,47.1237
2012-07-20,47.2175
2012-07-23,46.8235
2012-07-24,46.3358
2012-07-25,45.8012
2012-07-26,46.6265
2012-07-27,47.2926
2012-07-30,47.7052
2012-07-31,47.1143
2012-08-01,47.0017
2012-08-02,46.4109
2012-08-03,46.9613
2012-08-06,46.7905
2012-08-07,43.7553
2012-08-08,43.4613
2012-08-09,43.4707
2012-08-10,43.4992
2012-08-13,43.4422
2012-08-14,43.7363
2012-08-15,43.7553
2012-08-16,43.613
2012-08-17,43.4992
2012-08-20,43.594
2012-08-21,43.3948
2012-08-22,43.3474
2012-08-23,42.5317
2012-08-24,42.4178
2012-08-27,42.3325
2012-08-28,42.0764
2012-08-29,41.7349
2012-08-30,41.5073
2012-08-31,41.5073
2012-09-04,41.2796
2012-09-05,40.5682
2012-09-06,41.0899
2012-09-07,40.8527
2012-09-10,40.6062
2012-09-11,40.5019
2012-09-12,40.4355
2012-09-13,41.4408
2012-09-14,40.9951
2012-09-17,41.0141
2012-09-18,41.071
2012-09-19,41.3081
2012-09-20,41.8677
2012-09-21,41.9056
2012-09-24,42.1048
2012-09-25,42.0574
2012-09-26,42.1238
2012-09-27,41.8014
2012-09-28,41.8677
2012-10-01,41.7349
2012-10-02,42.0195
2012-10-03,42.323
2012-10-04,42.4652
2012-10-05,42.4748
2012-10-08,42.304
2012-10-09,42.6076
2012-10-10,42.3419
2012-10-11,42.8826
2012-10-12,42.617
2012-10-15,42.7403
2012-10-16,43.1198
2012-10-17,43.4043
2012-10-18,43.8691
2012-10-19,43.613
2012-10-22,43.4707
2012-10-23,43.2336
2012-10-24,43.0249
2012-10-25,43.4802
2012-10-26,43.2905
2012-10-31,43.3948
2012-11-01,42.617
2012-11-02,42.2092
2012-11-05,40.9132
2012-11-06,41.4029
2012-11-07,40.6634
2012-11-08,41.2781
2012-11-09,40.7306
2012-11-12,40.1833
2012-11-13,40.481
2012-11-14,39.6646
2012-11-15,39.5686
2012-11-16,39.6646
2012-11-19,39.8759
2012-11-20,39.7511
2012-11-21,39.559
2012-11-23,39.4437
2012-11-26,40.116
2012-11-27,40.2505
2012-11-28,40.8171
2012-11-29,40.8075
2012-11-30,40.7786
2012-12-03,40.6154
2012-12-04,40.0584
2012-12-05,40.3465
2012-12-06,39.8855
2012-12-07,39.8471
2012-12-10,39.8759
2012-12-11,39.8183
2012-12-12,39.559
2012-12-13,39.1172
2012-12-14,39.1364
2012-12-17,39.5973
2012-12-18,39.8567
2012-12-19,39.8375
2012-12-20,39.8759
2012-12-21,39.9719
2012-12-24,40.1928
2012-12-26,40.0296
2012-12-27,40.0296
2012-12-28,39.5782
2012-12-31,40.0487
2013-01-02,40.2408
2013-01-03,40.2888
2013-01-04,40.2984
2013-01-07,39.8375
2013-01-08,39.6453
2013-01-09,38.5793
2013-01-10,38.5506
2013-01-11,38.2912
2013-01-14,37.9071
2013-01-15,38.2912
2013-01-16,37.7919
2013-01-17,37.859
2013-01-18,38.2816
2013-01-22,38.3008
2013-01-23,37.715
2013-01-24,38.3297
2013-01-25,38.6273
2013-01-28,38.5121
2013-01-29,38.9827
2013-01-30,38.6082
2013-01-31,38.8963
2013-02-01,38.9155
2013-02-04,38.3921
2013-02-05,38.504
2013-02-06,38.9033
2013-02-07,39.0882
2013-02-08,39.1565
2013-02-11,39.2052
2013-02-12,39.468
2013-02-13,39.6336
2013-02-14,39.4193
2013-02-15,39.4948
2013-02-19,39.9648
2013-02-20,39.507
2013-02-21,38.8449
2013-02-22,39.4097
2013-02-25,38.5917
2013-02-26,37.8516
2013-02-27,38.4066
2013-02-28,38.4933
2013-03-01,38.4261
2013-03-04,38.7963
2013-03-05,38.9715
2013-03-06,39.4097
2013-03-07,39.6824
2013-03-08,39.848
2013-03-11,40.0816
2013-03-12,40.0914
2013-03-13,40.2179
2013-03-14,40.5588
2013-03-15,40.9775
2013-03-18,40.6465
2013-03-19,40.5491
2013-03-20,40.8412
2013-03-21,40.4127
2013-03-22,39.7408
2013-03-25,39.7213
2013-03-26,40.1303
2013-03-27,40.5491
2013-03-28,41.0944
2013-04-01,40.9288
2013-04-02,40.9288
2013-04-03,40.9288
2013-04-04,41.9123
2013-04-05,42.9544
2013-04-08,43.227
2013-04-09,43.5094
2013-04-10,43.9768
2013-04-11,44.2982
2013-04-12,44.5125
2013-04-15,43.9281
2013-04-16,44.6293
2013-04-17,44.1326
2013-04-18,44.454
2013-04-19,44.4638
2013-04-22,44.6293
2013-04-23,44.6779
2013-04-24,44.9798
2013-04-25,45.0285
2013-04-26,45.2719
2013-04-29,45.0091
2013-04-30,45.3888
2013-05-01,45.048
2013-05-02,44.7851
2013-05-03,44.3408
2013-05-06,43.5622
2013-05-07,43.4242
2013-05-08,42.9905
2013-05-09,42.143
2013-05-10,42.2809
2013-05-13,42.0345
2013-05-14,42.1232
2013-05-15,42.6062
2013-05-16,42.4583
2013-05-17,43.1285
2013-05-20,42.6752
2013-05-21,43.2567
2013-05-22,42.8329
2013-05-23,42.3401
2013-05-24,41.9754
2013-05-28,39.3368
2013-05-29,38.6935
2013-05-30,38.5358
2013-05-31,38.4766
2013-06-03,38.5949
2013-06-04,38.5062
2013-06-05,38.1613
2013-06-06,38.2894
2013-06-07,38.3781
2013-06-10,38.3387
2013-06-11,38.0331
2013-06-12,37.3531
2013-06-13,38.0134
2013-06-14,37.7867
2013-06-17,37.5601
2013-06-18,37.6586
2013-06-19,36.7223
2013-06-20,35.8353
2013-06-21,36.0029
2013-06-24,35.924
2013-06-25,36.3872
2013-06-26,36.5843
2013-06-27,36.5646
2013-06-28,36.8899
2013-07-01,35.8156
2013-07-02,35.6283
2013-07-03,35.5594
2013-07-05,35.3327
2013-07-08,35.9831
2013-07-09,36.269
2013-07-10,36.2887
2013-07-11,36.88
2013-07-12,36.88
2013-07-15,37.8754
2013-07-16,37.7375
2013-07-17,37.8853
2013-07-18,38.4865
2013-07-19,38.319
2013-07-22,38.6343
2013-07-23,38.5555
2013-07-24,37.6882
2013-07-25,37.6685
2013-07-26,38.3288
2013-07-29,38.6048
2013-07-30,38.7427
2013-07-31,37.5305
2013-08-01,37.6882
2013-08-02,37.5502
2013-08-05,37.06
2013-08-06,38.03
2013-08-07,38.21
2013-08-08,38.39
2013-08-09,37.9
