date,close_price
1998-01-02,8.03157
1998-01-05,7.92035
1998-01-06,7.90279
1998-01-07,8.01401
1998-01-08,8.12231
1998-01-09,7.92035
1998-01-12,7.79449
1998-01-13,7.88522
1998-01-14,8.16036
1998-01-15,7.9584
1998-01-16,8.17792
1998-01-20,8.13987
1998-01-21,8.01401
1998-01-22,7.97596
1998-01-23,7.97596
1998-01-26,7.86766
1998-01-27,7.84717
1998-01-28,7.86766
1998-01-29,7.88522
1998-01-30,7.88522
1998-02-02,8.16036
1998-02-03,8.415
1998-02-04,8.54379
1998-02-05,8.45305
1998-02-06,8.43256
1998-02-09,8.45305
1998-02-10,8.61696
1998-02-11,8.94478
1998-02-12,9.23748
1998-02-13,9.14674
1998-02-17,9.07357
1998-02-18,9.05601
1998-02-19,8.87161
1998-02-20,8.94478
1998-02-23,9.20235
1998-02-24,9.33114
1998-02-25,9.47749
1998-02-26,9.42188
1998-02-27,9.33114
1998-03-02,9.47749
1998-03-03,9.75693
1998-03-04,9.64522
1998-03-05,9.68343
1998-03-06,9.64522
1998-03-09,9.18662
1998-03-10,9.22484
1998-03-11,9.38946
1998-03-12,9.48059
1998-03-13,9.48059
1998-03-16,9.57172
1998-03-17,9.64522
1998-03-18,9.6658
1998-03-19,9.7922
1998-03-20,9.75693
1998-03-23,9.70107
1998-03-24,9.35125
1998-03-25,9.68343
1998-03-26,9.70107
1998-03-27,9.68343
1998-03-30,9.5923
1998-03-31,9.64522
1998-04-01,9.37182
1998-04-02,9.31597
1998-04-03,9.38946
1998-04-06,9.11313
1998-04-07,9.022
1998-04-08,9.07785
1998-04-09,8.89265
1998-04-13,8.98378
1998-04-14,9.22484
1998-04-15,9.11313
1998-04-16,8.98378
1998-04-17,9.07785
1998-04-20,9.16898
1998-04-21,9.15135
1998-04-22,9.03964
1998-04-23,9.05727
1998-04-24,9.13077
1998-04-27,8.81916
1998-04-28,8.83679
1998-04-29,8.75097
1998-04-30,8.84253
1998-05-01,8.67714
1998-05-04,8.86025
1998-05-05,8.78642
1998-05-06,8.6033
1998-05-07,8.69486
1998-05-08,8.80414
1998-05-11,8.76869
1998-05-12,8.75097
1998-05-13,8.82481
1998-05-14,8.86025
1998-05-15,8.71258
1998-05-18,8.56491
1998-05-19,8.65647
1998-05-20,8.78642
1998-05-21,8.7303
1998-05-22,8.84253
1998-05-26,8.78642
1998-05-27,8.67714
1998-05-28,8.7303
1998-05-29,8.6033
1998-06-01,8.7303
1998-06-02,8.56491
1998-06-03,8.69486
1998-06-04,8.45563
1998-06-05,8.39952
1998-06-08,8.39952
1998-06-09,8.45563
1998-06-10,8.25185
1998-06-11,7.93878
1998-06-12,7.66116
1998-06-15,7.56961
1998-06-16,7.67888
1998-06-17,7.60505
1998-06-18,7.60505
1998-06-19,7.62277
1998-06-22,7.60505
1998-06-23,7.64344
1998-06-24,7.53121
1998-06-25,7.25359
1998-06-26,7.45738
1998-06-29,7.42194
1998-06-30,7.20043
1998-07-01,7.4751
1998-07-02,7.42194
1998-07-06,7.17976
1998-07-07,7.17976
1998-07-08,7.25359
1998-07-09,7.10592
1998-07-10,6.90509
1998-07-13,6.83125
1998-07-14,6.77514
1998-07-15,6.68358
1998-07-16,6.77514
1998-07-17,6.99664
1998-07-20,6.84897
1998-07-21,6.75742
1998-07-22,6.79286
1998-07-23,6.73674
1998-07-24,6.68358
1998-07-27,6.57135
1998-07-28,6.51524
1998-07-29,6.49752
1998-07-30,6.46208
1998-07-31,6.46208
1998-08-03,6.38824
1998-08-04,6.49752
1998-08-05,6.65208
1998-08-06,6.59561
1998-08-07,6.65208
1998-08-10,6.59561
1998-08-11,6.39052
1998-08-12,6.35485
1998-08-13,6.44699
1998-08-14,6.31621
1998-08-17,6.35485
1998-08-18,6.33404
1998-08-19,6.16759
1998-08-20,6.09328
1998-08-21,6.05761
1998-08-24,6.16759
1998-08-25,6.28054
1998-08-26,6.01897
1998-08-27,5.59096
1998-08-28,5.57312
1998-08-31,5.42451
1998-09-01,5.46315
1998-09-02,5.53746
1998-09-03,5.31453
1998-09-04,5.33237
1998-09-08,5.55529
1998-09-09,5.61176
1998-09-10,5.51665
1998-09-11,5.57312
1998-09-14,5.79605
1998-09-15,5.68607
1998-09-16,5.81388
1998-09-17,5.64743
1998-09-18,5.64743
1998-09-21,5.61176
1998-09-22,5.6296
1998-09-23,5.66527
1998-09-24,5.64743
1998-09-25,5.909
1998-09-28,5.64743
1998-09-29,5.909
1998-09-30,5.94467
1998-10-01,5.61176
1998-10-02,5.57312
1998-10-05,5.55529
1998-10-06,5.46315
1998-10-07,5.44234
1998-10-08,5.38884
1998-10-09,5.31453
1998-10-12,5.29372
1998-10-13,5.18375
1998-10-14,5.38884
1998-10-15,5.55529
1998-10-16,5.64743
1998-10-19,5.73957
1998-10-20,5.79605
1998-10-21,5.94467
1998-10-22,6.01897
1998-10-23,5.85252
1998-10-26,5.79605
1998-10-27,5.38884
1998-10-28,5.27589
1998-10-29,5.31453
1998-10-30,5.33237
1998-11-02,5.46315
1998-11-03,5.29372
1998-11-04,5.37461
1998-11-05,5.37461
1998-11-06,5.37461
1998-11-09,5.31769
1998-11-10,5.33566
1998-11-11,5.22482
1998-11-12,5.11097
1998-11-13,5.18587
1998-11-16,5.24279
1998-11-17,5.28174
1998-11-18,5.26077
1998-11-19,5.24279
1998-11-20,5.18587
1998-11-23,5.16789
1998-11-24,5.24279
1998-11-25,5.24279
1998-11-27,5.29971
1998-11-30,5.29971
1998-12-01,5.26077
1998-12-02,5.20684
1998-12-03,5.18587
1998-12-04,5.05705
1998-12-07,5.03608
1998-12-08,5.0181
1998-12-09,5.093
1998-12-10,4.96118
1998-12-11,5.00012
1998-12-14,4.96118
1998-12-15,5.0181
1998-12-16,5.093
1998-12-17,4.90725
1998-12-18,4.83236
1998-12-21,4.79341
1998-12-22,4.68256
1998-12-23,4.79341
1998-12-24,4.77543
1998-12-28,4.79341
1998-12-29,4.75746
1998-12-30,4.86831
1998-12-31,4.9432
1999-01-04,5.05705
1999-01-05,5.0181
1999-01-06,4.92523
1999-01-07,4.92523
1999-01-08,4.90725
1999-01-11,4.88628
1999-01-12,4.73649
1999-01-13,4.85033
1999-01-14,4.81138
1999-01-15,4.86831
1999-01-19,4.92523
1999-01-20,4.88628
1999-01-21,4.81138
1999-01-22,4.77543
1999-01-25,4.96118
1999-01-26,5.05705
1999-01-27,5.03608
1999-01-28,5.0181
1999-01-29,5.03608
1999-02-01,5.13194
1999-02-02,5.13194
1999-02-03,5.13194
1999-02-04,5.093
1999-02-05,5.05705
1999-02-08,5.0181
1999-02-09,5.03608
1999-02-10,4.98215
1999-02-11,5.03608
1999-02-12,4.90725
1999-02-16,4.79341
1999-02-17,4.79341
1999-02-18,4.90725
1999-02-19,4.92523
1999-02-22,4.96118
1999-02-23,5.0181
1999-02-24,4.9432
1999-02-25,4.98215
1999-02-26,4.96118
1999-03-01,4.79341
1999-03-02,4.6275
1999-03-03,4.6668
1999-03-04,4.77863
1999-03-05,4.76049
1999-03-08,4.64866
1999-03-09,4.60937
1999-03-10,4.79979
1999-03-11,4.89349
1999-03-12,4.83606
1999-03-15,4.87535
1999-03-16,4.79979
1999-03-17,4.79979
1999-03-18,4.83606
1999-03-19,4.77863
1999-03-22,4.76049
1999-03-23,4.70307
1999-03-24,4.6275
1999-03-25,4.5731
1999-03-26,4.68493
1999-03-29,4.76049
1999-03-30,4.6668
1999-03-31,4.70307
1999-04-01,4.68493
1999-04-05,4.68493
1999-04-06,4.6668
1999-04-07,4.6668
1999-04-08,4.70307
1999-04-09,4.68493
1999-04-12,4.68493
1999-04-13,4.68493
1999-04-14,4.96905
1999-04-15,5.10204
1999-04-16,5.365
1999-04-19,5.78211
1999-04-20,5.81838
1999-04-21,5.81838
1999-04-22,5.49799
1999-04-23,5.40429
1999-04-26,5.4587
1999-04-27,5.47986
1999-04-28,5.60983
1999-04-29,5.68539
1999-04-30,5.64912
1999-05-03,6.04507
1999-05-04,6.36546
1999-05-05,6.04901
1999-05-06,6.04901
1999-05-07,6.14334
1999-05-10,6.2194
1999-05-11,6.16159
1999-05-12,6.2194
1999-05-13,6.37154
1999-05-14,6.35329
1999-05-17,6.06727
1999-05-18,6.27722
1999-05-19,6.29547
1999-05-20,6.40806
1999-05-21,6.40806
1999-05-24,6.33199
1999-05-25,6.3898
1999-05-26,6.31373
1999-05-27,6.23766
1999-05-28,6.23766
1999-06-01,6.23766
1999-06-02,6.27722
1999-06-03,6.33199
1999-06-04,6.42935
1999-06-07,6.44761
1999-06-08,6.44761
1999-06-09,6.54194
1999-06-10,6.3898
1999-06-11,6.50542
1999-06-14,6.42935
1999-06-15,6.37154
1999-06-16,6.3898
1999-06-17,6.23766
1999-06-18,6.29547
1999-06-21,6.31373
1999-06-22,6.27722
1999-06-23,6.37154
1999-06-24,6.25592
1999-06-25,6.29547
1999-06-28,5.97294
1999-06-29,5.68692
1999-06-30,5.68692
1999-07-01,5.64737
1999-07-02,5.66866
1999-07-06,5.76299
1999-07-07,5.66866
1999-07-08,5.7995
1999-07-09,5.76299
1999-07-12,5.78125
1999-07-13,5.85732
1999-07-14,5.89687
1999-07-15,5.91513
1999-07-16,6.08552
1999-07-19,5.9912
1999-07-20,5.83906
1999-07-21,5.7995
1999-07-22,5.76299
1999-07-23,5.76299
1999-07-26,5.70518
1999-07-27,5.51653
1999-07-28,5.36439
1999-07-29,5.26702
1999-07-30,5.34309
1999-08-02,5.17269
1999-08-03,5.19095
1999-08-04,5.10213
1999-08-05,5.00395
1999-08-06,5.06224
1999-08-09,4.92725
1999-08-10,4.92725
1999-08-11,4.85055
1999-08-12,4.85055
1999-08-13,4.90884
1999-08-16,4.89043
1999-08-17,4.90884
1999-08-18,4.89043
1999-08-19,4.90884
1999-08-20,4.87203
1999-08-23,4.92725
1999-08-24,4.89043
1999-08-25,4.92725
1999-08-26,4.94873
1999-08-27,4.79533
1999-08-30,4.83214
1999-08-31,4.89043
1999-09-01,4.96714
1999-09-02,4.87203
1999-09-03,4.89043
1999-09-07,4.94873
1999-09-08,4.89043
1999-09-09,4.90884
1999-09-10,4.90884
1999-09-13,4.90884
1999-09-14,4.90884
1999-09-15,5.00395
1999-09-16,5.00395
1999-09-17,5.27394
1999-09-20,5.36905
1999-09-21,5.10213
1999-09-22,5.15735
1999-09-23,5.04384
1999-09-24,5.06224
1999-09-27,5.12054
1999-09-28,5.15735
1999-09-29,5.12054
1999-09-30,5.10213
1999-10-01,5.08065
1999-10-04,5.08065
1999-10-05,5.12054
1999-10-06,5.17883
1999-10-07,5.17883
1999-10-08,5.12054
1999-10-11,5.12054
1999-10-12,5.02543
1999-10-13,5.02543
1999-10-14,4.90884
1999-10-15,4.83214
1999-10-18,4.90884
1999-10-19,4.87203
1999-10-20,4.83214
1999-10-21,4.79533
1999-10-22,4.81373
1999-10-25,4.75544
1999-10-26,4.96714
1999-10-27,5.00395
1999-10-28,5.08065
1999-10-29,5.15735
1999-11-01,5.35064
1999-11-02,5.21565
1999-11-03,5.27735
1999-11-04,5.25879
1999-11-05,5.25879
1999-11-08,5.24023
1999-11-09,5.24023
1999-11-10,5.24023
1999-11-11,5.18146
1999-11-12,5.14434
1999-11-15,5.14434
1999-11-16,5.25879
1999-11-17,5.29901
1999-11-18,5.45368
1999-11-19,5.31757
1999-11-22,5.31757
1999-11-23,5.24023
1999-11-24,5.10412
1999-11-26,5.22167
1999-11-29,5.29901
1999-11-30,5.45368
1999-12-01,5.37634
1999-12-02,5.43202
1999-12-03,5.45368
1999-12-06,5.22167
1999-12-07,5.00823
1999-12-08,4.96801
1999-12-09,4.89068
1999-12-10,4.835
1999-12-13,4.94945
1999-12-14,5.04535
1999-12-15,5.04535
1999-12-16,4.93089
1999-12-17,4.87212
1999-12-20,4.835
1999-12-21,5.02679
1999-12-22,4.98967
1999-12-23,4.94945
1999-12-27,4.96801
1999-12-28,5.22167
1999-12-29,5.24023
1999-12-30,5.22167
1999-12-31,5.25879
2000-01-03,5.08556
2000-01-04,4.98967
2000-01-05,5.067
2000-01-06,5.067
2000-01-07,5.12268
2000-01-10,5.00823
2000-01-11,4.94945
2000-01-12,5.02679
2000-01-13,5.00823
2000-01-14,4.94945
2000-01-18,4.94945
2000-01-19,5.067
2000-01-20,5.02679
2000-01-21,5.00823
2000-01-24,4.75766
2000-01-25,4.79478
2000-01-26,4.81334
2000-01-27,4.73601
2000-01-28,4.75766
2000-01-31,4.73601
2000-02-01,4.71745
2000-02-02,4.65867
2000-02-03,4.64011
2000-02-04,4.81334
2000-02-07,4.77622
2000-02-08,4.68033
2000-02-09,4.56278
2000-02-10,4.21632
2000-02-11,4.00287
2000-02-14,3.82964
2000-02-15,3.7523
2000-02-16,3.71209
2000-02-17,3.69353
2000-02-18,3.61619
2000-02-22,3.71209
2000-02-23,3.71209
2000-02-24,3.57598
2000-02-25,3.5203
2000-02-28,3.55742
2000-02-29,3.55742
2000-03-01,3.53886
2000-03-02,3.48008
2000-03-03,3.49864
2000-03-06,3.40275
2000-03-07,3.32541
2000-03-08,3.48008
2000-03-09,3.57598
2000-03-10,3.59763
2000-03-13,3.55742
2000-03-14,3.5203
2000-03-15,3.69353
2000-03-16,3.69353
2000-03-17,3.88532
2000-03-20,3.86676
2000-03-21,3.86676
2000-03-22,3.82964
2000-03-23,3.92553
2000-03-24,4.19466
2000-03-27,4.06165
2000-03-28,3.96266
2000-03-29,4.00287
2000-03-30,4.11733
2000-03-31,4.03999
2000-04-03,4.0802
2000-04-04,4.11733
2000-04-05,4.03999
2000-04-06,4.02143
2000-04-07,4.1761
2000-04-10,4.03999
2000-04-11,3.9441
2000-04-12,3.98431
2000-04-13,4.09877
2000-04-14,4.13898
2000-04-17,4.0802
2000-04-18,4.13898
2000-04-19,4.06165
2000-04-20,4.0802
2000-04-24,3.86676
2000-04-25,3.78942
2000-04-26,4.00287
2000-04-27,4.34933
2000-04-28,4.34933
2000-05-01,4.31221
2000-05-02,4.31221
2000-05-03,4.52566
2000-05-04,5.00823
2000-05-05,5.02679
2000-05-08,4.94945
2000-05-09,4.96801
2000-05-10,4.98967
2000-05-11,5.22167
2000-05-12,5.37634
2000-05-15,5.14434
2000-05-16,5.31757
2000-05-17,5.31757
2000-05-18,5.35469
2000-05-19,5.20002
2000-05-22,5.24023
2000-05-23,5.22167
2000-05-24,5.08556
2000-05-25,4.98967
2000-05-26,4.96801
2000-05-30,5.067
2000-05-31,4.94945
2000-06-01,5.08556
2000-06-02,5.37634
2000-06-05,5.45368
2000-06-06,5.31757
2000-06-07,5.31757
2000-06-08,5.22167
2000-06-09,5.1629
2000-06-12,5.12268
2000-06-13,5.1629
2000-06-14,5.10412
2000-06-15,4.98967
2000-06-16,4.89068
2000-06-19,4.94945
2000-06-20,4.81334
2000-06-21,4.77622
2000-06-22,4.62155
2000-06-23,4.56278
2000-06-26,4.58134
2000-06-27,4.75766
2000-06-28,4.91233
2000-06-29,4.91233
2000-06-30,4.68033
2000-07-03,4.75766
2000-07-05,4.75766
2000-07-06,4.69889
2000-07-07,4.68033
2000-07-10,4.60299
2000-07-11,4.69889
2000-07-12,4.77622
2000-07-13,4.89068
2000-07-14,4.73601
2000-07-17,4.73601
2000-07-18,4.58134
2000-07-19,4.62155
2000-07-20,4.64011
2000-07-21,4.64011
2000-07-24,4.60299
2000-07-25,4.69889
2000-07-26,4.68033
2000-07-27,4.71745
2000-07-28,4.68033
2000-07-31,4.85356
2000-08-01,4.93089
2000-08-02,4.85356
2000-08-03,4.91233
2000-08-04,4.81334
2000-08-07,4.89068
2000-08-08,5.02679
2000-08-09,5.14434
2000-08-10,5.10412
2000-08-11,5.1629
2000-08-14,5.20002
2000-08-15,5.18146
2000-08-16,5.1629
2000-08-17,5.43202
2000-08-18,5.35469
2000-08-21,5.37634
2000-08-22,5.45368
2000-08-23,5.3949
2000-08-24,5.45368
2000-08-25,5.47224
2000-08-28,5.41346
2000-08-29,5.70424
2000-08-30,5.74136
2000-08-31,5.72281
2000-09-01,5.66403
2000-09-05,5.70424
2000-09-06,5.76302
2000-09-07,5.68568
2000-09-08,5.62691
2000-09-11,5.4908
2000-09-12,5.56813
2000-09-13,5.64547
2000-09-14,5.62691
2000-09-15,5.53101
2000-09-18,5.41346
2000-09-19,5.22167
2000-09-20,5.37634
2000-09-21,5.1629
2000-09-22,4.96801
2000-09-25,5.10412
2000-09-26,5.04535
2000-09-27,5.20002
2000-09-28,5.1629
2000-09-29,5.067
2000-10-02,5.04535
2000-10-03,5.04535
2000-10-04,5.20002
2000-10-05,5.18146
2000-10-06,5.02679
2000-10-09,5.067
2000-10-10,5.04535
2000-10-11,5.04535
2000-10-12,5.02679
2000-10-13,5.067
2000-10-16,5.18146
2000-10-17,5.14434
2000-10-18,5.12268
2000-10-19,5.04535
2000-10-20,5.02679
2000-10-23,5.22167
2000-10-24,5.56813
2000-10-25,5.45368
2000-10-26,5.72281
2000-10-27,5.66403
2000-10-30,5.84035
2000-10-31,6.18682
2000-11-01,6.28271
2000-11-02,6.03215
2000-11-03,6.01359
2000-11-06,6.09092
2000-11-07,6.12804
2000-11-08,6.09092
2000-11-09,6.09092
2000-11-10,6.10948
2000-11-13,6.12804
2000-11-14,6.26415
2000-11-15,6.18682
2000-11-16,6.10948
2000-11-17,6.28271
2000-11-20,6.20538
2000-11-21,6.22703
2000-11-22,6.14969
2000-11-24,6.26415
2000-11-27,6.34149
2000-11-28,6.30437
2000-11-29,6.43738
2000-11-30,6.49616
2000-12-01,6.49616
2000-12-04,6.45904
2000-12-05,6.43738
2000-12-06,6.10948
2000-12-07,6.10948
2000-12-08,6.3817
2000-12-11,6.63227
2000-12-12,6.7096
2000-12-13,6.32293
2000-12-14,6.16826
2000-12-15,6.07236
2000-12-18,6.01359
2000-12-19,5.91769
2000-12-20,5.64547
2000-12-21,5.95481
2000-12-22,6.41882
2000-12-26,6.51472
2000-12-27,6.7096
2000-12-28,7.1334
2000-12-29,6.65083
2001-01-02,6.40026
2001-01-03,6.78694
2001-01-04,6.7096
2001-01-05,6.32293
2001-01-08,6.34149
2001-01-09,6.65083
2001-01-10,6.65083
2001-01-11,6.55493
2001-01-12,6.69104
2001-01-16,6.65083
2001-01-17,6.84571
2001-01-18,6.82406
2001-01-19,7.19217
2001-01-22,7.1334
2001-01-23,6.92305
2001-01-24,6.8055
2001-01-25,6.86427
2001-01-26,6.92305
2001-01-29,7.00657
2001-01-30,7.06534
2001-01-31,6.96326
2001-02-01,6.9911
2001-02-02,7.05297
2001-02-05,6.97873
2001-02-06,6.41573
2001-02-07,6.4776
2001-02-08,6.4776
2001-02-09,6.4745
2001-02-12,6.50234
2001-02-13,6.56421
2001-02-14,6.57349
2001-02-15,6.73126
2001-02-16,6.68176
2001-02-20,7.0375
2001-02-21,6.86427
2001-02-22,6.88283
2001-02-23,6.91377
2001-02-26,6.8055
2001-02-27,6.52709
2001-02-28,6.49306
2001-03-01,6.65083
2001-03-02,6.8055
2001-03-05,7.03132
2001-03-06,7.13959
2001-03-07,7.40871
2001-03-08,7.02204
2001-03-09,7.18289
2001-03-12,7.02204
2001-03-13,7.00657
2001-03-14,6.74363
2001-03-15,6.79003
2001-03-16,6.4281
2001-03-19,6.52709
2001-03-20,6.50234
2001-03-21,6.24868
2001-03-22,6.17754
2001-03-23,6.49925
2001-03-26,6.38789
2001-03-27,6.62299
2001-03-28,6.32911
2001-03-29,6.58277
2001-03-30,6.91686
2001-04-02,6.65083
2001-04-03,6.4745
2001-04-04,6.69723
2001-04-05,6.92923
2001-04-06,7.04369
2001-04-09,7.3221
2001-04-10,7.35303
2001-04-11,7.21073
2001-04-12,7.37778
2001-04-16,7.22311
2001-04-17,7.45202
2001-04-18,7.52317
2001-04-19,7.95006
2001-04-20,7.57885
2001-04-23,7.56338
2001-04-24,8.08307
2001-04-25,8.47594
2001-04-26,8.62751
2001-04-27,8.74197
2001-04-30,8.77909
2001-05-01,8.66154
2001-05-02,8.63061
2001-05-03,8.53162
2001-05-04,8.83477
2001-05-07,8.9647
2001-05-08,8.89664
2001-05-09,8.90901
2001-05-10,9.08534
2001-05-11,8.87808
2001-05-14,9.03275
2001-05-15,8.97088
2001-05-16,9.00182
2001-05-17,9.42871
2001-05-18,9.8092
2001-05-21,10.0412
2001-05-22,10.1649
2001-05-23,10.0072
2001-05-24,9.6669
2001-05-25,9.72877
2001-05-29,9.62978
2001-05-30,9.12246
2001-05-31,9.31425
2001-06-01,9.35756
2001-06-04,9.37303
2001-06-05,9.98243
2001-06-06,9.97933
2001-06-07,9.76898
2001-06-08,9.79064
2001-06-11,9.5741
2001-06-12,9.41324
2001-06-13,9.59266
2001-06-14,9.339
2001-06-15,9.4813
2001-06-18,9.58957
2001-06-19,9.40396
2001-06-20,9.60194
2001-06-21,10.0567
2001-06-22,9.82157
2001-06-25,9.2926
2001-06-26,9.60503
2001-06-27,9.5277
2001-06-28,9.35447
2001-06-29,9.58338
2001-07-02,9.37303
2001-07-03,9.4813
2001-07-05,9.49676
2001-07-06,9.20289
2001-07-09,9.12246
2001-07-10,8.46975
2001-07-11,8.65845
2001-07-12,8.70485
2001-07-13,8.89355
2001-07-16,8.56255
2001-07-17,8.58421
2001-07-18,8.38623
2001-07-19,8.3522
2001-07-20,8.15113
2001-07-23,8.10473
2001-07-24,7.18599
2001-07-25,7.73352
2001-07-26,7.65309
2001-07-27,7.73352
2001-07-30,7.69021
2001-07-31,7.58194
2001-08-01,7.73043
2001-08-02,7.95006
2001-08-03,7.91294
2001-08-06,7.95006
2001-08-07,7.84798
2001-08-08,7.7428
2001-08-09,7.76445
2001-08-10,7.79848
2001-08-13,7.88819
2001-08-14,7.70877
2001-08-15,7.76755
2001-08-16,7.85726
2001-08-17,7.81086
2001-08-20,7.79539
2001-08-21,7.70877
2001-08-22,7.74589
2001-08-23,7.73352
2001-08-24,7.90056
2001-08-27,7.78301
2001-08-28,7.77683
2001-08-29,7.84179
2001-08-30,7.70259
2001-08-31,7.68712
2001-09-04,7.84488
2001-09-05,7.88819
2001-09-06,7.82632
2001-09-07,7.80157
2001-09-10,7.44583
2001-09-17,7.16124
2001-09-18,7.26951
2001-09-19,6.84262
2001-09-20,6.42192
2001-09-21,5.97337
2001-09-24,6.56421
2001-09-25,6.36005
2001-09-26,6.10948
2001-09-27,6.09092
2001-09-28,6.10329
2001-10-01,6.08473
2001-10-02,6.20228
2001-10-03,6.30746
2001-10-04,6.39098
2001-10-05,6.44666
2001-10-08,6.32911
2001-10-09,6.31055
2001-10-10,6.46522
2001-10-11,6.4281
2001-10-12,6.32911
2001-10-15,6.59515
2001-10-16,6.77147
2001-10-17,6.73126
2001-10-18,6.61371
2001-10-19,6.55803
2001-10-22,6.33839
2001-10-23,6.756
2001-10-24,7.11484
2001-10-25,7.07772
2001-10-26,7.45511
2001-10-29,7.22001
2001-10-30,6.92923
2001-10-31,7.22311
2001-11-01,7.37468
2001-11-02,7.70259
2001-11-05,7.30044
2001-11-06,7.42418
2001-11-07,7.23548
2001-11-08,7.33756
2001-11-09,7.2757
2001-11-12,7.39015
2001-11-13,7.43346
2001-11-14,7.42109
2001-11-15,7.48605
2001-11-16,7.24476
2001-11-19,7.47677
2001-11-20,7.34066
2001-11-21,7.29116
2001-11-23,7.37159
2001-11-26,7.48605
2001-11-27,7.4149
2001-11-28,7.44583
2001-11-29,7.52936
2001-11-30,7.57885
2001-12-03,7.71187
2001-12-04,7.91603
2001-12-05,7.98099
2001-12-06,7.87272
2001-12-07,7.88819
2001-12-10,7.89438
2001-12-11,7.95006
2001-12-12,7.6964
2001-12-13,7.59122
2001-12-14,7.47677
2001-12-17,7.73352
2001-12-18,8.01502
2001-12-19,8.04905
2001-12-20,7.73352
2001-12-21,8.11092
2001-12-24,8.0738
2001-12-26,8.10782
2001-12-27,8.07689
2001-12-28,8.15113
2001-12-31,8.18206
2002-01-02,8.15422
2002-01-03,8.27487
2002-01-04,8.14494
2002-01-07,8.01811
2002-01-08,8.1171
2002-01-09,8.20991
2002-01-10,7.98409
2002-01-11,7.79848
2002-01-14,7.5077
2002-01-15,7.42418
2002-01-16,7.11484
2002-01-17,7.18599
2002-01-18,7.13649
2002-01-22,7.19217
2002-01-23,7.30663
2002-01-24,7.14268
2002-01-25,7.40253
2002-01-28,7.62216
2002-01-29,7.4149
2002-01-30,7.46439
2002-01-31,7.66547
2002-02-01,7.49223
2002-02-04,7.42727
2002-02-05,7.42418
2002-02-06,7.29735
2002-02-07,7.19527
2002-02-08,7.55101
2002-02-11,7.8387
2002-02-12,7.73352
2002-02-13,8.20062
2002-02-14,8.27487
2002-02-15,8.05214
2002-02-19,8.1635
2002-02-20,8.38623
2002-02-21,8.44191
2002-02-22,8.79456
2002-02-25,8.80075
2002-02-26,8.82859
2002-02-27,8.80384
2002-02-28,8.69866
2002-03-01,8.78837
2002-03-04,9.22764
2002-03-05,9.20289
2002-03-06,9.14411
2002-03-07,9.26166
2002-03-08,9.29569
2002-03-11,9.32353
2002-03-12,9.40705
2002-03-13,9.43489
2002-03-14,9.46583
2002-03-15,9.43799
2002-03-18,9.42871
2002-03-19,9.86797
2002-03-20,9.58338
2002-03-21,9.45655
2002-03-22,9.28022
2002-03-25,9.46892
2002-03-26,9.83394
2002-03-27,9.88963
2002-03-28,9.89891
2002-04-01,10.0226
2002-04-02,10.0536
2002-04-03,9.93603
2002-04-04,9.29569
2002-04-05,9.45345
2002-04-08,9.5741
2002-04-09,9.74424
2002-04-10,9.89581
2002-04-11,9.79064
2002-04-12,9.92675
2002-04-15,9.63597
2002-04-16,9.92675
2002-04-17,10.066
2002-04-18,9.92984
2002-04-19,9.95768
2002-04-22,9.72258
2002-04-23,9.6669
2002-04-24,10.0783
2002-04-25,10.3815
2002-04-26,10.5269
2002-04-29,10.4619
2002-04-30,10.5795
2002-05-01,10.6877
2002-05-02,10.8053
2002-05-03,10.7651
2002-05-06,10.5145
2002-05-07,10.4712
2002-05-08,10.4093
2002-05-09,10.3134
2002-05-10,10.035
2002-05-13,10.2175
2002-05-14,10.7589
2002-05-15,10.5609
2002-05-16,10.332
2002-05-17,10.5021
2002-05-20,10.6104
2002-05-21,10.1618
2002-05-22,10.2299
2002-05-23,10.4897
2002-05-24,10.3227
2002-05-28,10.2082
2002-05-29,9.74424
2002-05-30,9.61431
2002-05-31,9.89272
2002-06-03,9.73805
2002-06-04,9.44727
2002-06-05,9.54626
2002-06-06,9.47511
2002-06-07,9.77208
2002-06-10,9.74733
2002-06-11,9.62978
2002-06-12,9.70402
2002-06-13,9.49058
2002-06-14,9.48439
2002-06-17,9.71639
2002-06-18,9.93603
2002-06-19,9.75661
2002-06-20,9.59266
2002-06-21,9.53388
2002-06-24,9.47202
2002-06-25,9.23382
2002-06-26,9.02347
2002-06-27,9.03894
2002-06-28,9.18742
2002-07-01,8.67701
2002-07-02,8.53162
2002-07-03,8.40479
2002-07-05,8.70794
2002-07-08,8.61514
2002-07-09,8.47903
2002-07-10,8.5409
2002-07-11,8.54399
2002-07-12,8.51615
2002-07-15,8.24393
2002-07-16,7.70259
2002-07-17,7.68403
2002-07-18,7.6469
2002-07-19,7.44274
2002-07-22,7.1798
2002-07-23,4.37717
2002-07-24,5.31448
2002-07-25,5.28045
2002-07-26,5.13506
2002-07-29,5.53101
2002-07-30,5.44749
2002-07-31,5.398
2002-08-01,5.2093
2002-08-02,5.01751
2002-08-05,4.90615
2002-08-06,5.18765
2002-08-07,5.21858
2002-08-08,5.34232
2002-08-09,5.38253
2002-08-12,5.32375
2002-08-13,5.29282
2002-08-14,5.36706
2002-08-15,5.47843
2002-08-16,5.43202
2002-08-19,5.67022
2002-08-20,5.56195
2002-08-21,5.70424
2002-08-22,5.8651
2002-08-23,5.63
2002-08-26,5.69496
2002-08-27,5.70734
2002-08-28,5.69806
2002-08-29,5.73209
2002-08-30,5.65166
2002-09-03,5.3516
2002-09-04,5.48152
2002-09-05,5.38562
2002-09-06,5.56195
2002-09-09,5.55885
2002-09-10,5.69806
2002-09-11,5.65166
2002-09-12,5.50627
2002-09-13,5.36706
2002-09-16,5.29282
2002-09-17,5.18146
2002-09-18,4.84118
2002-09-19,4.68651
2002-09-20,4.57515
2002-09-23,4.46069
2002-09-24,4.32149
2002-09-25,4.35861
2002-09-26,4.36171
2002-09-27,2.60156
2002-09-30,3.0501
2002-10-01,3.13362
2002-10-02,2.86759
2002-10-03,2.70983
2002-10-04,2.53041
2002-10-07,2.6727
2002-10-08,2.65414
2002-10-09,2.48401
2002-10-10,2.48401
2002-10-11,2.58918
2002-10-14,2.57681
2002-10-15,2.95111
2002-10-16,2.75313
2002-10-17,2.9542
2002-10-18,2.9109
2002-10-21,3.31304
2002-10-22,3.7523
2002-10-23,3.41512
2002-10-24,3.44915
2002-10-25,3.65022
2002-10-28,3.6595
2002-10-29,3.53886
2002-10-30,3.65022
2002-10-31,3.6626
2002-11-01,3.78942
2002-11-04,3.96884
2002-11-05,3.9905
2002-11-06,4.10495
2002-11-07,4.02143
2002-11-08,3.90079
2002-11-11,3.83583
2002-11-12,3.91007
2002-11-13,3.93482
2002-11-14,4.07711
2002-11-15,4.1761
2002-11-18,4.19157
2002-11-19,4.12661
2002-11-20,4.19466
2002-11-21,4.42357
2002-11-22,4.42048
2002-11-25,4.47307
2002-11-26,4.50091
2002-11-27,4.77313
2002-11-29,4.70817
2002-12-02,4.70817
2002-12-03,4.61227
2002-12-04,4.47616
2002-12-05,4.3184
2002-12-06,4.3153
2002-12-09,4.18229
2002-12-10,4.25653
2002-12-11,4.38027
2002-12-12,4.4576
2002-12-13,4.48544
2002-12-16,4.64011
2002-12-17,4.62155
2002-12-18,4.54422
2002-12-19,4.42976
2002-12-20,4.39264
2002-12-23,4.54112
2002-12-24,4.55659
2002-12-26,4.57515
2002-12-27,4.56587
2002-12-30,4.48235
2002-12-31,4.57515
2003-01-02,4.72054
2003-01-03,4.73601
2003-01-06,4.68961
2003-01-07,4.67723
2003-01-08,4.55659
2003-01-09,4.62774
2003-01-10,4.55659
2003-01-13,4.59371
2003-01-14,4.52566
2003-01-15,4.48853
2003-01-16,4.54731
2003-01-17,4.23797
2003-01-21,4.19157
2003-01-22,3.88532
2003-01-23,3.88223
2003-01-24,3.86057
2003-01-27,3.65022
2003-01-28,3.709
2003-01-29,3.66878
2003-01-30,3.56051
2003-01-31,3.64403
2003-02-03,3.57598
2003-02-04,3.72446
2003-02-05,3.74921
2003-02-06,3.75849
2003-02-07,3.55433
2003-02-10,3.64403
2003-02-11,3.56361
2003-02-12,3.48318
2003-02-13,3.49246
2003-02-14,3.51411
2003-02-18,3.58526
2003-02-19,3.4739
2003-02-20,3.60073
2003-02-21,3.72137
2003-02-24,3.56361
2003-02-25,3.6131
2003-02-26,3.51102
2003-02-27,3.6626
2003-02-28,3.69972
2003-03-03,3.61929
2003-03-04,3.43678
2003-03-05,3.30995
2003-03-06,3.3811
2003-03-07,3.59454
2003-03-10,3.5203
2003-03-11,3.35944
2003-03-12,3.32541
2003-03-13,3.44915
2003-03-14,3.35325
2003-03-17,3.69662
2003-03-18,3.61619
2003-03-19,3.78324
2003-03-20,3.80489
2003-03-21,4.02452
2003-03-24,3.69662
2003-03-25,3.77086
2003-03-26,3.69044
2003-03-27,3.69662
2003-03-28,3.64403
2003-03-31,3.58835
2003-04-01,3.46152
2003-04-02,3.71209
2003-04-03,3.71209
2003-04-04,3.63475
2003-04-07,3.77396
2003-04-08,3.7523
2003-04-09,3.78324
2003-04-10,3.79252
2003-04-11,3.82655
2003-04-14,3.91935
2003-04-15,3.9874
2003-04-16,4.03071
2003-04-17,4.1761
2003-04-21,4.41429
2003-04-22,4.45451
2003-04-23,4.47307
2003-04-24,4.62774
2003-04-25,4.56278
2003-04-28,4.74529
2003-04-29,4.77004
2003-04-30,4.7855
2003-05-01,4.77313
2003-05-02,4.93399
2003-05-05,4.93089
2003-05-06,4.93089
2003-05-07,5.06082
2003-05-08,5.11959
2003-05-09,5.25879
2003-05-12,5.48771
2003-05-13,5.32994
2003-05-14,5.36397
2003-05-15,5.45059
2003-05-16,5.43202
2003-05-19,5.18146
2003-05-20,5.26807
2003-05-21,5.24023
2003-05-22,5.27117
2003-05-23,5.41346
2003-05-27,5.43202
2003-05-28,5.42584
2003-05-29,5.46915
2003-05-30,5.60526
2003-06-02,5.84035
2003-06-03,5.6764
2003-06-04,5.83726
2003-06-05,5.961
2003-06-06,5.88366
2003-06-09,5.75683
2003-06-10,5.87748
2003-06-11,6.04761
2003-06-12,6.08473
2003-06-13,5.99812
2003-06-16,6.0074
2003-06-17,6.04143
2003-06-18,6.05071
2003-06-19,6.00121
2003-06-20,6.01668
2003-06-23,5.83417
2003-06-24,5.81561
2003-06-25,5.961
2003-06-26,6.01977
2003-06-27,6.03524
2003-06-30,6.08473
2003-07-01,5.82798
2003-07-02,5.95172
2003-07-03,5.82798
2003-07-07,6.03215
2003-07-08,6.21156
2003-07-09,6.08783
2003-07-10,5.85273
2003-07-11,5.90841
2003-07-14,5.91769
2003-07-15,5.92388
2003-07-16,5.93006
2003-07-17,5.92697
2003-07-18,5.93625
2003-07-21,5.30519
2003-07-22,5.64856
2003-07-23,5.90841
2003-07-24,5.80942
2003-07-25,5.88676
2003-07-28,5.98884
2003-07-29,5.93316
2003-07-30,5.93006
2003-07-31,5.9579
2003-08-01,5.87438
2003-08-04,5.97337
2003-08-05,5.74136
2003-08-06,5.65475
2003-08-07,5.61144
2003-08-08,5.63619
2003-08-11,5.65166
2003-08-12,5.72899
2003-08-13,5.81561
2003-08-14,5.81561
2003-08-15,5.98574
2003-08-18,6.06617
2003-08-19,6.45904
2003-08-20,6.49616
2003-08-21,6.48069
2003-08-22,6.33221
2003-08-25,6.31983
2003-08-26,6.37242
2003-08-27,6.41882
2003-08-28,6.37242
2003-08-29,6.49925
2003-09-02,6.55803
2003-09-03,6.90758
2003-09-04,6.86737
2003-09-05,6.74982
2003-09-08,6.86737
2003-09-09,6.77766
2003-09-10,6.61989
2003-09-11,6.49616
2003-09-12,6.524
2003-09-15,6.55803
2003-09-16,6.67867
2003-09-17,6.63227
2003-09-18,6.76838
2003-09-19,6.90758
2003-09-22,6.78694
2003-09-23,7.00038
2003-09-24,6.87665
2003-09-25,6.68795
2003-09-26,6.3817
2003-09-29,6.48378
2003-09-30,6.28271
2003-10-01,6.53018
2003-10-02,6.40336
2003-10-03,6.52709
2003-10-06,6.55803
2003-10-07,6.61989
2003-10-08,6.56731
2003-10-09,6.60133
2003-10-10,6.58277
2003-10-13,6.74363
2003-10-14,6.82715
2003-10-15,6.71579
2003-10-16,6.72198
2003-10-17,6.55803
2003-10-20,6.68485
2003-10-21,6.00121
2003-10-22,6.04452
2003-10-23,5.99193
2003-10-24,5.961
2003-10-27,6.01049
2003-10-28,6.10639
2003-10-29,6.2889
2003-10-30,6.37551
2003-10-31,6.32602
2003-11-03,6.5209
2003-11-04,6.55184
2003-11-05,6.57349
2003-11-06,6.57968
2003-11-07,6.64464
2003-11-10,6.27962
2003-11-11,6.25178
2003-11-12,6.46213
2003-11-13,6.3817
2003-11-14,6.27034
2003-11-17,6.10948
2003-11-18,6.18063
2003-11-19,6.22084
2003-11-20,6.24868
2003-11-21,6.23322
2003-11-24,6.45904
2003-11-25,6.50234
2003-11-26,6.54256
2003-11-28,6.58277
2003-12-01,6.92923
2003-12-02,6.87046
2003-12-03,6.86118
2003-12-04,6.83334
2003-12-05,6.8024
2003-12-08,6.83643
2003-12-09,6.93233
2003-12-10,6.84571
2003-12-11,6.98492
2003-12-12,6.88283
2003-12-15,6.83643
2003-12-16,6.84262
2003-12-17,6.88593
2003-12-18,6.88902
2003-12-19,6.86737
2003-12-22,6.89521
2003-12-23,6.44357
2003-12-24,6.48069
2003-12-26,6.4281
2003-12-29,6.50853
2003-12-30,6.44666
2003-12-31,6.46832
2004-01-02,6.44048
2004-01-05,6.48997
2004-01-06,6.48069
2004-01-07,6.48069
2004-01-08,6.44666
2004-01-09,6.41882
2004-01-12,6.46522
2004-01-13,6.45904
2004-01-14,6.56731
2004-01-15,6.57659
2004-01-16,6.63536
2004-01-20,6.56421
2004-01-21,6.62608
2004-01-22,6.5209
2004-01-23,6.46522
2004-01-26,6.46522
2004-01-27,6.34458
2004-01-28,5.88057
2004-01-29,5.93934
2004-01-30,5.94244
2004-02-02,5.95481
2004-02-03,5.93316
2004-02-04,5.97028
2004-02-05,6.01977
2004-02-06,6.18063
2004-02-09,6.193
2004-02-10,6.2425
2004-02-11,6.31983
2004-02-12,6.33221
2004-02-13,6.31674
2004-02-17,6.44976
2004-02-18,6.45285
2004-02-19,6.58896
2004-02-20,6.55493
2004-02-23,6.53018
2004-02-24,6.57349
2004-02-25,6.57968
2004-02-26,6.65083
2004-02-27,6.7127
2004-03-01,6.83643
2004-03-02,6.72816
2004-03-03,6.79003
2004-03-04,6.93851
2004-03-05,6.9911
2004-03-08,6.88283
2004-03-09,6.65701
2004-03-10,6.59205
2004-03-11,6.55493
2004-03-12,6.66629
2004-03-15,6.40954
2004-03-16,6.40336
2004-03-17,6.49616
2004-03-18,6.45594
2004-03-19,6.32911
2004-03-22,6.17754
2004-03-23,6.12495
2004-03-24,6.05999
2004-03-25,6.34458
2004-03-26,6.3353
2004-03-29,6.46832
2004-03-30,6.50234
2004-03-31,6.4745
2004-04-01,6.51162
2004-04-02,6.59515
2004-04-05,6.67867
2004-04-06,6.76838
2004-04-07,6.74054
2004-04-08,6.70651
2004-04-12,6.69104
2004-04-13,6.64773
2004-04-14,6.65392
2004-04-15,6.6168
2004-04-16,6.58896
2004-04-19,6.74982
2004-04-20,6.65083
2004-04-21,6.74672
2004-04-22,6.94779
2004-04-23,6.84262
2004-04-26,6.79622
2004-04-27,6.96017
2004-04-28,6.73744
2004-04-29,6.74054
2004-04-30,6.6168
2004-05-03,6.65701
2004-05-04,6.67867
2004-05-05,6.64773
2004-05-06,6.53018
2004-05-07,6.36623
2004-05-10,6.2425
2004-05-11,6.35386
2004-05-12,6.38789
2004-05-13,6.34767
2004-05-14,6.31365
2004-05-17,6.15588
2004-05-18,6.25178
2004-05-19,6.12185
2004-05-20,6.1466
2004-05-21,6.15588
2004-05-24,6.20847
2004-05-25,6.46522
2004-05-26,6.32911
2004-05-27,6.43738
2004-05-28,6.48997
2004-06-01,6.70032
2004-06-02,6.78075
2004-06-03,6.91995
2004-06-04,6.98492
2004-06-07,7.29426
2004-06-08,7.31282
2004-06-09,7.19836
2004-06-10,7.21383
2004-06-14,7.10556
2004-06-15,7.16124
2004-06-16,7.15815
2004-06-17,7.20764
2004-06-18,7.18289
2004-06-21,7.1334
2004-06-22,7.23548
2004-06-23,7.26951
2004-06-24,7.26023
2004-06-25,7.25404
2004-06-28,7.30663
2004-06-29,7.63762
2004-06-30,7.71496
2004-07-01,7.69021
2004-07-02,7.59432
2004-07-06,7.44893
2004-07-07,7.51698
2004-07-08,7.18289
2004-07-09,7.19836
2004-07-12,7.18908
2004-07-13,7.20455
2004-07-14,7.11484
2004-07-15,7.05916
2004-07-16,6.9942
2004-07-19,6.94161
2004-07-20,6.95707
2004-07-21,6.81478
2004-07-22,6.69104
2004-07-23,6.70342
2004-07-26,6.65701
2004-07-27,6.756
2004-07-28,6.756
2004-07-29,7.39325
2004-07-30,7.39634
2004-08-02,7.43655
2004-08-03,7.32828
2004-08-04,7.32828
2004-08-05,7.07462
2004-08-06,6.96017
2004-08-09,6.81478
2004-08-10,6.97254
2004-08-11,7.06225
2004-08-12,6.89211
2004-08-13,6.83643
2004-08-16,7.06844
2004-08-17,7.09937
2004-08-18,7.16743
2004-08-19,7.09009
2004-08-20,7.11174
2004-08-23,7.05916
2004-08-24,7.08081
2004-08-25,7.06225
2004-08-26,7.10246
2004-08-27,7.11484
2004-08-30,6.98801
2004-08-31,7.10246
2004-09-01,7.06225
2004-09-02,7.21692
2004-09-03,7.15505
2004-09-07,7.28498
2004-09-08,7.3221
2004-09-09,7.42109
2004-09-10,7.41181
2004-09-13,7.39325
2004-09-14,7.35612
2004-09-15,7.36231
2004-09-16,7.47367
2004-09-17,7.46749
2004-09-20,7.49533
2004-09-21,7.54482
2004-09-22,7.45511
2004-09-23,7.45511
2004-09-24,7.43037
2004-09-27,7.28807
2004-09-28,7.38706
2004-09-29,7.53245
2004-09-30,7.47986
2004-10-01,7.57885
2004-10-04,7.67165
2004-10-05,7.57266
2004-10-06,7.67165
2004-10-07,7.57576
2004-10-08,7.47367
2004-10-11,7.54482
2004-10-12,7.52626
2004-10-13,7.42109
2004-10-14,7.36231
2004-10-15,7.42109
2004-10-18,7.35612
2004-10-19,7.19217
2004-10-20,7.16433
2004-10-21,7.25404
2004-10-22,7.16433
2004-10-25,7.25713
2004-10-26,7.37778
2004-10-27,6.49925
2004-10-28,6.72816
2004-10-29,6.67557
2004-11-01,6.86118
2004-11-02,6.84571
2004-11-03,6.96017
2004-11-04,7.11793
2004-11-05,7.0839
2004-11-08,7.0839
2004-11-09,7.17361
2004-11-10,7.19836
2004-11-11,7.24786
2004-11-12,7.42109
2004-11-15,7.47367
2004-11-16,7.45511
2004-11-17,7.67165
2004-11-18,7.68712
2004-11-19,7.55101
2004-11-22,7.71805
2004-11-23,7.73043
2004-11-24,7.91912
2004-11-26,7.88819
2004-11-29,7.89128
2004-11-30,7.79848
2004-12-01,7.89438
2004-12-02,8.18825
2004-12-03,8.10164
2004-12-06,7.96553
2004-12-07,7.82632
2004-12-08,7.90366
2004-12-09,7.8356
2004-12-10,7.97171
2004-12-13,8.03667
2004-12-14,8.32127
2004-12-15,8.41098
2004-12-16,8.28415
2004-12-17,8.25631
2004-12-20,8.22537
2004-12-21,8.33673
2004-12-22,8.48213
2004-12-23,8.49759
2004-12-27,8.37386
2004-12-28,8.56255
2004-12-29,8.56255
2004-12-30,8.52234
2004-12-31,8.52543
2005-01-03,8.31199
2005-01-04,8.08307
2005-01-05,7.87272
2005-01-06,7.86963
2005-01-07,7.7892
2005-01-10,7.73971
2005-01-11,7.65
2005-01-12,7.58813
2005-01-13,7.60978
2005-01-14,7.6469
2005-01-18,7.74899
2005-01-19,7.76136
2005-01-20,7.65619
2005-01-21,7.56957
2005-01-24,7.5541
2005-01-25,7.6469
2005-01-26,7.66547
2005-01-27,7.69949
2005-01-28,7.65619
2005-01-31,7.69949
2005-02-01,7.81086
2005-02-02,7.86654
2005-02-03,7.89128
2005-02-04,8.00883
2005-02-07,8.06761
2005-02-08,7.71187
2005-02-09,7.51698
2005-02-10,7.5108
2005-02-11,7.49842
2005-02-14,7.55101
2005-02-15,7.64072
2005-02-16,7.70259
2005-02-17,7.53554
2005-02-18,7.47986
2005-02-22,7.34375
2005-02-23,7.45202
2005-02-24,7.45511
2005-02-25,7.60669
2005-02-28,7.72424
2005-03-01,7.70259
2005-03-02,7.72733
2005-03-03,7.77064
2005-03-04,7.84488
2005-03-07,7.82632
2005-03-08,7.70877
2005-03-09,7.79539
2005-03-10,7.96862
2005-03-11,8.21609
2005-03-14,8.15113
2005-03-15,8.1202
2005-03-16,8.09236
2005-03-17,8.20372
2005-03-18,8.14494
2005-03-21,8.17588
2005-03-22,8.16041
2005-03-23,8.09854
2005-03-24,8.14804
2005-03-28,8.05523
2005-03-29,7.82014
2005-03-30,8.04286
2005-03-31,7.99337
2005-04-01,7.99337
2005-04-04,8.0738
2005-04-05,7.99646
2005-04-06,8.00265
2005-04-07,8.00265
2005-04-08,8.03358
2005-04-11,7.89438
2005-04-12,8.20991
2005-04-13,8.07998
2005-04-14,7.94697
2005-04-15,7.93769
2005-04-18,8.10473
2005-04-19,8.37695
2005-04-20,8.68938
2005-04-21,8.75125
2005-04-22,8.72032
2005-04-25,8.90901
2005-04-26,8.68629
2005-04-27,8.70176
2005-04-28,8.55327
2005-04-29,8.58421
2005-05-02,8.71722
2005-05-03,8.79456
2005-05-04,8.84405
2005-05-05,8.81621
2005-05-06,8.97088
2005-05-09,9.11318
2005-05-10,8.97398
2005-05-11,8.88117
2005-05-12,8.99254
2005-05-13,8.83168
2005-05-16,8.98944
2005-05-17,9.14411
2005-05-18,9.35756
2005-05-19,9.30806
2005-05-20,9.28022
2005-05-23,9.29569
2005-05-24,9.26476
2005-05-25,9.16886
2005-05-26,9.14102
2005-05-27,9.18433
2005-05-31,9.13483
2005-06-01,9.28951
2005-06-02,9.13483
2005-06-03,9.11318
2005-06-06,8.92139
2005-06-07,8.93995
2005-06-08,8.82859
2005-06-09,8.94614
2005-06-10,8.98635
2005-06-13,9.03275
2005-06-14,9.26785
2005-06-15,9.31735
2005-06-16,9.49058
2005-06-17,9.51223
2005-06-20,9.49058
2005-06-21,9.44108
2005-06-22,9.4813
2005-06-23,9.40396
2005-06-24,9.31425
2005-06-27,9.23692
2005-06-28,9.45964
2005-06-29,9.35756
2005-06-30,9.38849
2005-07-01,9.49058
2005-07-05,9.64215
2005-07-06,9.42871
2005-07-07,9.39159
2005-07-08,9.55244
2005-07-11,9.61741
2005-07-12,9.55554
2005-07-13,9.56791
2005-07-14,9.49986
2005-07-15,9.52151
2005-07-18,9.48439
2005-07-19,9.62359
2005-07-20,9.88963
2005-07-21,9.93912
2005-07-22,10.301
2005-07-25,10.1618
2005-07-26,10.2144
2005-07-27,10.2732
2005-07-28,10.4619
2005-07-29,10.465
2005-08-01,10.598
2005-08-02,10.8146
2005-08-03,10.7743
2005-08-04,10.8331
2005-08-05,10.366
2005-08-08,10.4279
2005-08-09,10.5825
2005-08-10,10.7279
2005-08-11,10.9909
2005-08-12,11.0991
2005-08-15,11.0404
2005-08-16,11.0156
2005-08-17,11.1084
2005-08-18,11.0961
2005-08-19,11.1239
2005-08-22,11.1332
2005-08-23,11.1053
2005-08-24,11.1084
2005-08-25,11.1486
2005-08-26,11.0497
2005-08-29,11.195
2005-08-30,11.127
2005-08-31,11.4796
2005-09-01,11.3528
2005-09-02,11.3126
2005-09-06,11.5786
2005-09-07,11.4456
2005-09-08,11.4301
2005-09-09,11.4456
2005-09-12,11.427
2005-09-13,11.393
2005-09-14,11.3435
2005-09-15,11.1146
2005-09-16,10.9569
2005-09-19,10.8424
2005-09-20,10.7187
2005-09-21,10.7465
2005-09-22,10.7774
2005-09-23,10.929
2005-09-26,10.9104
2005-09-27,10.8733
2005-09-28,10.7712
2005-09-29,11.0187
2005-09-30,11.2414
2005-10-03,11.2848
2005-10-04,11.0342
2005-10-05,10.5578
2005-10-06,10.3846
2005-10-07,10.5795
2005-10-10,10.3351
2005-10-11,10.3536
2005-10-12,10.4093
2005-10-13,10.4186
2005-10-14,10.6599
2005-10-17,10.7836
2005-10-18,10.6351
2005-10-19,10.7836
2005-10-20,10.4248
2005-10-21,10.4712
2005-10-24,10.7032
2005-10-25,10.5516
2005-10-26,10.564
2005-10-27,10.2516
2005-10-28,10.6661
2005-10-31,10.8207
2005-11-01,10.7836
2005-11-02,10.8238
2005-11-03,10.8362
2005-11-04,10.7434
2005-11-07,11.5075
2005-11-08,11.3219
2005-11-09,11.5972
2005-11-10,11.6405
2005-11-11,11.656
2005-11-14,11.6498
2005-11-15,11.4394
2005-11-16,11.4549
2005-11-17,11.755
2005-11-18,11.9251
2005-11-21,11.8539
2005-11-22,11.9839
2005-11-23,11.7735
2005-11-25,11.7859
2005-11-28,11.5013
2005-11-29,11.5724
2005-11-30,11.5322
2005-12-01,11.9498
2005-12-02,11.9127
2005-12-05,11.922
2005-12-06,11.7859
2005-12-07,11.7116
2005-12-08,11.6745
2005-12-09,11.7735
2005-12-12,11.9189
2005-12-13,11.9715
2005-12-14,12.1911
2005-12-15,12.1416
2005-12-16,12.219
2005-12-19,11.99
2005-12-20,11.9839
2005-12-21,11.9282
2005-12-22,12.1973
2005-12-23,12.2035
2005-12-27,11.9777
2005-12-28,12.0488
2005-12-29,12.0488
2005-12-30,12.2221
2006-01-03,12.6675
2006-01-04,12.683
2006-01-05,12.6953
2006-01-06,12.8686
2006-01-09,13.0418
2006-01-10,13.1408
2006-01-11,13.0511
2006-01-12,12.9985
2006-01-13,13.181
2006-01-17,13.3573
2006-01-18,13.3635
2006-01-19,13.5677
2006-01-20,13.5027
2006-01-23,13.6481
2006-01-24,13.6976
2006-01-25,13.7007
2006-01-26,13.8801
2006-01-27,14.0595
2006-01-30,14.1802
2006-01-31,14.2204
2006-02-01,14.4617
2006-02-02,14.1802
2006-02-03,14.2328
2006-02-06,14.14
2006-02-07,13.7873
2006-02-08,13.6667
2006-02-09,13.7842
2006-02-10,13.8925
2006-02-13,13.8585
2006-02-14,14.3287
2006-02-15,14.9195
2006-02-16,15.136
2006-02-17,15.2505
2006-02-21,15.1701
2006-02-22,15.4856
2006-02-23,15.6403
2006-02-24,15.8197
2006-02-27,16.0703
2006-02-28,15.9001
2006-03-01,16.1105
2006-03-02,16.194
2006-03-03,16.293
2006-03-06,16.6797
2006-03-07,16.7508
2006-03-08,16.6889
2006-03-09,16.7044
2006-03-10,17.0137
2006-03-13,17.1158
2006-03-14,17.2983
2006-03-15,17.4778
2006-03-16,17.6077
2006-03-17,17.7871
2006-03-20,17.7902
2006-03-21,17.5891
2006-03-22,17.9139
2006-03-23,17.951
2006-03-24,17.9263
2006-03-27,17.9758
2006-03-28,17.7685
2006-03-29,17.9851
2006-03-30,18.0655
2006-03-31,18.0438
2006-04-03,18.2573
2006-04-04,18.4769
2006-04-05,18.2109
2006-04-06,17.8613
2006-04-07,17.2272
2006-04-10,16.8622
2006-04-11,16.5807
2006-04-12,16.8529
2006-04-13,16.9055
2006-04-17,16.8189
2006-04-18,17.2396
2006-04-19,17.5767
2006-04-20,17.4097
2006-04-21,17.32
2006-04-24,17.0756
2006-04-25,17.2458
2006-04-26,17.5489
2006-04-27,17.6603
2006-04-28,17.7902
2006-05-01,17.9913
2006-05-02,18.2511
2006-05-03,18.3099
2006-05-04,18.4491
2006-05-05,18.6316
2006-05-08,18.6347
2006-05-09,18.7461
2006-05-10,18.7863
2006-05-11,18.2975
2006-05-12,17.6943
2006-05-15,17.1653
2006-05-16,17.1158
2006-05-17,16.825
2006-05-18,16.6209
2006-05-19,16.361
2006-05-22,16.1476
2006-05-23,16.0579
2006-05-24,16.0146
2006-05-25,16.3146
2006-05-26,16.5497
2006-05-30,16.2466
2006-05-31,16.4631
2006-06-01,17.0076
2006-06-02,17.122
2006-06-05,16.3394
2006-06-06,16.2126
2006-06-07,16.0269
2006-06-08,15.798
2006-06-09,15.7238
2006-06-12,15.2041
2006-06-13,15.0649
2006-06-14,15.3619
2006-06-15,16.0919
2006-06-16,15.8599
2006-06-19,15.3062
2006-06-20,15.0711
2006-06-21,15.566
2006-06-22,15.5753
2006-06-23,15.6434
2006-06-26,15.9775
2006-06-27,15.6681
2006-06-28,15.7485
2006-06-29,16.6116
2006-06-30,17.0385
2006-07-03,17.054
2006-07-05,16.8467
2006-07-06,17.1901
2006-07-07,17.054
2006-07-10,17.1065
2006-07-11,17.156
2006-07-12,17.1344
2006-07-13,16.7941
2006-07-14,16.4879
2006-07-17,16.3827
2006-07-18,16.46
2006-07-19,16.6611
2006-07-20,16.1167
2006-07-21,15.7083
2006-07-24,16.0641
2006-07-25,16.1754
2006-07-26,16.0424
2006-07-27,15.8939
2006-07-28,16.0826
2006-07-31,16.0115
2006-08-01,15.928
2006-08-02,16.1352
2006-08-03,16.5219
2006-08-04,16.3579
2006-08-07,16.1321
2006-08-08,15.9496
2006-08-09,15.4763
2006-08-10,15.4639
2006-08-11,15.2505
2006-08-14,15.3031
2006-08-15,15.3681
2006-08-16,15.8939
2006-08-17,15.7857
2006-08-18,15.7764
2006-08-21,15.5011
2006-08-22,15.5351
2006-08-23,15.3619
2006-08-24,15.3031
2006-08-25,15.3155
2006-08-28,15.5073
2006-08-29,15.5073
2006-08-30,15.6093
2006-08-31,15.829
2006-09-01,15.8475
2006-09-05,15.9805
2006-09-06,15.8073
2006-09-07,15.73
2006-09-08,15.8073
2006-09-11,15.4485
2006-09-12,15.5908
2006-09-13,15.6372
2006-09-14,15.566
2006-09-15,15.433
2006-09-18,15.3681
2006-09-19,15.1268
2006-09-20,15.3309
2006-09-21,15.1082
2006-09-22,14.8143
2006-09-25,15.2041
2006-09-26,15.4609
2006-09-27,15.3804
2006-09-28,15.6217
2006-09-29,15.631
2006-10-02,14.9907
2006-10-03,14.9999
2006-10-04,15.0989
2006-10-05,15.4268
2006-10-06,15.3835
2006-10-09,15.6217
2006-10-10,15.9558
2006-10-11,16.0115
2006-10-12,16.4353
2006-10-13,17.1004
2006-10-16,17.0509
2006-10-17,16.924
2006-10-18,16.8127
2006-10-19,16.7725
2006-10-20,16.5466
2006-10-23,16.5745
2006-10-24,16.5745
2006-10-25,16.6425
2006-10-26,16.5838
2006-10-27,16.3858
2006-10-30,16.4105
2006-10-31,16.3703
2006-11-01,16.1723
2006-11-02,16.1816
2006-11-03,16.5188
2006-11-06,16.7879
2006-11-07,16.989
2006-11-08,17.0942
2006-11-09,17.0973
2006-11-10,16.3641
2006-11-13,16.361
2006-11-14,16.293
2006-11-15,16.4538
2006-11-16,16.6951
2006-11-17,16.8498
2006-11-20,16.822
2006-11-21,16.7508
2006-11-22,16.8065
2006-11-24,16.7261
2006-11-27,16.3332
2006-11-28,16.3146
2006-11-29,16.4229
2006-11-30,16.6333
2006-12-01,16.5559
2006-12-04,16.6642
2006-12-05,16.6889
2006-12-06,16.4477
2006-12-07,16.4569
2006-12-08,16.5002
2006-12-11,16.4384
2006-12-12,16.2311
2006-12-13,16.1538
2006-12-14,16.1754
2006-12-15,15.8877
2006-12-18,15.7671
2006-12-19,15.7454
2006-12-20,15.699
2006-12-21,15.4701
2006-12-22,15.4145
2006-12-26,15.6217
2006-12-27,15.665
2006-12-28,15.7207
2006-12-29,15.6465
2007-01-03,15.8104
2007-01-04,15.699
2007-01-05,15.498
2007-01-08,15.1515
2007-01-09,15.1422
2007-01-10,15.8785
2007-01-11,15.8042
2007-01-12,15.73
2007-01-16,15.6619
2007-01-17,15.7393
2007-01-18,15.7114
2007-01-19,15.7454
2007-01-22,15.4763
2007-01-23,15.7702
2007-01-24,15.8816
2007-01-25,15.5753
2007-01-26,15.6619
2007-01-29,15.8135
2007-01-30,15.9713
2007-01-31,16.3982
2007-02-01,16.8745
2007-02-02,16.825
2007-02-05,16.7539
2007-02-06,16.8591
2007-02-07,16.7786
2007-02-08,16.5281
2007-02-09,16.1754
2007-02-12,15.6155
2007-02-13,15.897
2007-02-14,16.0548
2007-02-15,16.1074
2007-02-16,16.1259
2007-02-20,16.1538
2007-02-21,16.2373
2007-02-22,16.16
2007-02-23,16.194
2007-02-26,16.1259
2007-02-27,15.4454
2007-02-28,16.0486
2007-03-01,15.9558
2007-03-02,15.7362
2007-03-05,15.9775
2007-03-06,16.2095
2007-03-07,16.5528
2007-03-08,16.8436
2007-03-09,17.6293
2007-03-12,17.5211
2007-03-13,17.4406
2007-03-14,17.6201
2007-03-15,17.685
2007-03-16,17.6386
2007-03-19,17.9418
2007-03-20,17.9201
2007-03-21,18.0531
2007-03-22,17.9634
2007-03-23,18.0562
2007-03-26,17.9601
2007-03-27,17.7616
2007-03-28,17.7182
2007-03-29,17.7554
2007-03-30,17.7461
2007-04-02,18.1369
2007-04-03,18.2268
2007-04-04,18.2392
2007-04-05,18.2051
2007-04-09,18.1276
2007-04-10,18.0283
2007-04-11,18.1183
2007-04-12,18.2392
2007-04-13,18.4687
2007-04-16,18.5804
2007-04-17,18.6207
2007-04-18,18.5277
2007-04-19,18.537
2007-04-20,18.5277
2007-04-23,18.7386
2007-04-24,18.8068
2007-04-25,18.8502
2007-04-26,18.8161
2007-04-27,18.9277
2007-04-30,18.9184
2007-05-01,18.8254
2007-05-02,19.1386
2007-05-03,19.5821
2007-05-04,19.3061
2007-05-07,19.0115
2007-05-08,19.1511
2007-05-09,19.8613
2007-05-10,19.8706
2007-05-11,20.5436
2007-05-14,20.8599
2007-05-15,20.7452
2007-05-16,20.3947
2007-05-17,20.925
2007-05-18,20.8196
2007-05-21,20.8847
2007-05-22,21.0181
2007-05-23,20.9623
2007-05-24,20.5529
2007-05-25,21.0398
2007-05-29,21.5298
2007-05-30,21.5608
2007-05-31,21.5143
2007-06-01,21.75
2007-06-04,21.8741
2007-06-05,21.5174
2007-06-06,21.0987
2007-06-07,20.6397
2007-06-08,20.8816
2007-06-11,20.863
2007-06-12,20.5436
2007-06-13,22.1191
2007-06-14,22.3145
2007-06-15,22.4106
2007-06-18,22.4478
2007-06-19,22.4633
2007-06-20,21.9857
2007-06-21,22.2338
2007-06-22,22.0757
2007-06-25,21.7246
2007-06-26,21.6469
2007-06-27,21.7837
2007-06-28,22.0789
2007-06-29,22.2654
2007-07-02,22.7689
2007-07-03,22.9212
2007-07-05,22.7316
2007-07-06,23.0299
2007-07-09,23.1294
2007-07-10,22.7813
2007-07-11,23.0206
2007-07-12,23.4775
2007-07-13,23.4868
2007-07-16,23.3625
2007-07-17,23.4651
2007-07-18,23.2475
2007-07-19,23.7448
2007-07-20,23.7634
2007-07-23,23.7634
2007-07-24,23.6826
2007-07-25,23.4961
2007-07-26,23.1232
2007-07-27,22.4705
2007-07-30,22.7409
2007-07-31,22.4301
2007-08-01,22.1753
2007-08-02,22.4394
2007-08-03,21.3921
2007-08-06,21.7153
2007-08-07,23.3687
2007-08-08,23.9281
2007-08-09,23.8287
2007-08-10,22.915
2007-08-13,22.0665
2007-08-14,21.2895
2007-08-15,19.7324
2007-08-16,20.2141
2007-08-17,20.413
2007-08-20,21.3144
2007-08-21,21.1527
2007-08-22,21.4791
2007-08-23,21.7308
2007-08-24,21.8489
2007-08-27,22.0913
2007-08-28,21.6562
2007-08-29,21.8427
2007-08-30,21.8862
2007-08-31,22.2188
2007-09-04,22.7875
2007-09-05,22.399
2007-09-06,22.3089
2007-09-07,21.7277
2007-09-10,21.5412
2007-09-11,21.9235
2007-09-12,22.0572
2007-09-13,22.1815
2007-09-14,22.6632
2007-09-17,22.5917
2007-09-18,23.6702
2007-09-19,24.1177
2007-09-20,24.155
2007-09-21,23.7696
2007-09-24,23.2372
2007-09-25,23.477
2007-09-26,23.7821
2007-09-27,24.2991
2007-09-28,23.6202
2007-10-01,24.1901
2007-10-02,24.5825
2007-10-03,24.0904
2007-10-04,23.9285
2007-10-05,24.4672
2007-10-08,25.0464
2007-10-09,24.9312
2007-10-10,24.6603
2007-10-11,24.3084
2007-10-12,24.6136
2007-10-15,24.2804
2007-10-16,24.6229
2007-10-17,24.8067
2007-10-18,25.2022
2007-10-19,25.1118
2007-10-22,24.5451
2007-10-23,24.6011
2007-10-24,24.4143
2007-10-25,24.0344
2007-10-26,24.134
2007-10-29,24.4454
2007-10-30,24.1247
2007-10-31,24.5295
2007-11-01,23.4645
2007-11-02,27.5626
2007-11-05,28.4128
2007-11-06,29.2816
2007-11-07,29.4902
2007-11-08,28.9608
2007-11-09,28.4719
2007-11-12,28.0453
2007-11-13,28.6339
2007-11-14,28.5622
2007-11-15,28.3349
2007-11-16,28.3318
2007-11-19,27.6592
2007-11-20,28.7242
2007-11-21,28.1356
2007-11-23,28.8518
2007-11-26,27.9955
2007-11-27,27.9083
2007-11-28,29.0511
2007-11-29,29.0325
2007-11-30,29.2504
2007-12-03,28.9297
2007-12-04,28.6681
2007-12-05,28.7584
2007-12-06,30.7109
2007-12-07,29.8951
2007-12-10,30.2563
2007-12-11,30.0601
2007-12-12,30.3746
2007-12-13,31.3867
2007-12-14,31.0441
2007-12-17,29.3158
2007-12-18,29.4279
2007-12-19,29.2722
2007-12-20,29.5836
2007-12-21,30.747
2007-12-24,30.9591
2007-12-26,30.8686
2007-12-27,30.5162
2007-12-28,30.5661
2007-12-31,30.0358
2008-01-02,29.4682
2008-01-03,29.9672
2008-01-04,29.0596
2008-01-07,28.2674
2008-01-08,28.1582
2008-01-09,28.2206
2008-01-10,28.2487
2008-01-11,28.2019
2008-01-14,28.5886
2008-01-15,27.0385
2008-01-16,26.3804
2008-01-17,25.0455
2008-01-18,25.3418
2008-01-22,25.9624
2008-01-23,25.7098
2008-01-24,26.0186
2008-01-25,25.7005
2008-01-28,25.794
2008-01-29,25.7971
2008-01-30,25.0018
2008-01-31,25.5601
2008-02-01,30.039
2008-02-04,29.6959
2008-02-05,28.5886
2008-02-06,28.4732
2008-02-07,29.9048
2008-02-08,29.4651
2008-02-11,30.4226
2008-02-12,30.3976
2008-02-13,31.1244
2008-02-14,30.4351
2008-02-15,29.8893
2008-02-19,30.5099
2008-02-20,31.5641
2008-02-21,31.8386
2008-02-22,32.1318
2008-02-25,32.8398
2008-02-26,32.2347
2008-02-27,31.8605
2008-02-28,34.7954
2008-02-29,34.0469
2008-03-03,34.4149
2008-03-04,33.0956
2008-03-05,33.0238
2008-03-06,32.7338
2008-03-07,31.2834
2008-03-10,30.0047
2008-03-11,31.0183
2008-03-12,30.9591
2008-03-13,31.3084
2008-03-14,30.0015
2008-03-17,29.4058
2008-03-18,31.0183
2008-03-19,31.0745
2008-03-20,31.0495
2008-03-24,33.454
2008-03-25,33.7917
2008-03-26,34.2826
2008-03-27,32.8911
2008-03-28,32.3721
2008-03-31,32.5972
2008-04-01,33.1382
2008-04-02,32.7254
2008-04-03,34.1794
2008-04-04,34.6297
2008-04-07,36.0649
2008-04-08,34.3889
2008-04-09,33.7542
2008-04-10,34.1857
2008-04-11,33.2351
2008-04-14,32.9881
2008-04-15,33.4915
2008-04-16,35.0299
2008-04-17,34.3045
2008-04-18,35.599
2008-04-21,35.5458
2008-04-22,34.9486
2008-04-23,35.5771
2008-04-24,34.7985
2008-04-25,34.7798
2008-04-28,35.7741
2008-04-29,38.9291
2008-04-30,38.7164
2008-05-01,38.1474
2008-05-02,38.3256
2008-05-05,38.1474
2008-05-06,38.213
2008-05-07,37.9191
2008-05-08,38.0848
2008-05-09,37.9629
2008-05-12,38.5945
2008-05-13,39.3856
2008-05-14,39.5732
2008-05-15,39.8358
2008-05-16,40.3236
2008-05-19,39.742
2008-05-20,39.4825
2008-05-21,38.6602
2008-05-22,38.829
2008-05-23,40.6457
2008-05-27,42.1341
2008-05-28,42.9502
2008-05-29,42.4811
2008-05-30,43.2472
2008-06-02,42.9721
2008-06-03,42.5843
2008-06-04,42.0559
2008-06-05,42.7563
2008-06-06,41.9558
2008-06-09,42.9158
2008-06-10,41.7057
2008-06-11,41.2304
2008-06-12,40.5863
2008-06-13,42.1653
2008-06-16,43.3848
2008-06-17,42.9502
2008-06-18,42.1059
2008-06-19,42.2935
2008-06-20,41.5775
2008-06-23,41.3047
2008-06-24,40.6343
2008-06-25,40.9382
2008-06-26,41.4551
2008-06-27,41.43
2008-06-30,42.7332
2008-07-01,42.6956
2008-07-02,40.7408
2008-07-03,35.9165
2008-07-07,38.0436
2008-07-08,38.6012
2008-07-09,41.051
2008-07-10,41.5961
2008-07-11,41.6086
2008-07-14,43.3378
2008-07-15,41.1387
2008-07-16,41.098
2008-07-17,41.6994
2008-07-18,41.8028
2008-07-21,44.3654
2008-07-22,42.6706
2008-07-23,41.7433
2008-07-24,38.2284
2008-07-25,39.3938
2008-07-28,39.2747
2008-07-29,39.8856
2008-07-30,42.1975
2008-07-31,41.8623
2008-08-01,40.7095
2008-08-04,38.7077
2008-08-05,37.1696
2008-08-06,38.7046
2008-08-07,38.0279
2008-08-08,37.4954
2008-08-11,37.9809
2008-08-12,38.3318
2008-08-13,39.7885
2008-08-14,40.7534
2008-08-15,39.9107
2008-08-18,40.108
2008-08-19,41.217
2008-08-20,41.7088
2008-08-21,41.9093
2008-08-22,41.7934
2008-08-25,40.8599
2008-08-26,40.0047
2008-08-27,41.6337
2008-08-28,42.5797
2008-08-29,41.43
2008-09-02,40.5967
2008-09-03,37.6207
2008-09-04,35.6283
2008-09-05,35.6001
2008-09-08,32.8026
2008-09-09,30.1993
2008-09-10,31.9097
2008-09-11,32.6585
2008-09-12,33.2067
2008-09-15,30.4781
2008-09-16,31.7124
2008-09-17,28.9337
2008-09-18,28.3854
2008-09-19,31.396
2008-09-22,30.8209
2008-09-23,29.7939
2008-09-24,29.5647
2008-09-25,29.7029
2008-09-26,28.0541
2008-09-29,25.3972
2008-09-30,27.9159
2008-10-01,27.5202
2008-10-02,22.2536
2008-10-03,22.7341
2008-10-06,21.2957
2008-10-07,18.0076
2008-10-08,20.0018
2008-10-09,19.2638
2008-10-10,17.4329
2008-10-13,21.2769
2008-10-14,21.3114
2008-10-15,18.1521
2008-10-16,20.1934
2008-10-17,20.7399
2008-10-20,20.7744
2008-10-21,19.983
2008-10-22,16.6823
2008-10-23,15.1561
2008-10-24,13.9972
2008-10-27,13.5638
2008-10-28,15.9977
2008-10-29,16.8833
2008-10-30,18.5007
2008-10-31,17.7375
2008-11-03,18.3656
2008-11-04,19.9422
2008-11-05,17.6873
2008-11-06,16.0794
2008-11-07,16.5944
2008-11-10,17.4737
2008-11-11,16.2647
2008-11-12,15.0179
2008-11-13,16.3808
2008-11-14,15.2848
2008-11-17,14.6693
2008-11-18,14.8891
2008-11-19,13.2655
2008-11-20,11.7926
2008-11-21,12.6845
2008-11-24,14.2893
2008-11-25,14.5405
2008-11-26,15.3413
2008-11-28,15.8061
2008-12-01,12.9671
2008-12-02,13.9721
2008-12-03,13.7428
2008-12-04,12.8446
2008-12-05,13.4853
2008-12-08,14.8608
2008-12-09,15.3885
2008-12-10,16.1485
2008-12-11,15.5769
2008-12-12,16.3306
2008-12-15,16.1767
2008-12-16,17.5271
2008-12-17,16.9147
2008-12-18,15.6051
2008-12-19,16.34
2008-12-22,15.1282
2008-12-23,15.0714
2008-12-24,15.5953
2008-12-26,16.0023
2008-12-29,15.7846
2008-12-30,16.2264
2008-12-31,16.3368
2009-01-02,17.3182
2009-01-05,17.4319
2009-01-06,18.9466
2009-01-07,18.1766
2009-01-08,18.1545
2009-01-09,17.5612
2009-01-12,16.6082
2009-01-13,16.5104
2009-01-14,15.5858
2009-01-15,15.4533
2009-01-16,15.9487
2009-01-20,14.3141
2009-01-21,15.9203
2009-01-22,14.9641
2009-01-23,15.1061
2009-01-26,15.3049
2009-01-27,15.7373
2009-01-28,16.7344
2009-01-29,15.8698
2009-01-30,16.7944
2009-02-02,16.5609
2009-02-03,17.1826
2009-02-04,17.4224
2009-02-05,17.4445
2009-02-06,17.8042
2009-02-09,17.8768
2009-02-10,16.9901
2009-02-11,17.2015
2009-02-12,17.1605
2009-02-13,17.0121
2009-02-17,15.7215
2009-02-18,15.8793
2009-02-19,15.4469
2009-02-20,15.1314
2009-02-23,14.1563
2009-02-24,14.9736
2009-02-25,14.5223
2009-02-26,16.2516
2009-02-27,15.9834
2009-03-02,14.5129
2009-03-03,14.6612
2009-03-04,15.2324
2009-03-05,14.1721
2009-03-06,14.0805
2009-03-09,14.0301
2009-03-10,15.7688
2009-03-11,16.2327
2009-03-12,16.9837
2009-03-13,16.7187
2009-03-16,16.4662
2009-03-17,17.4571
2009-03-18,18.0756
2009-03-19,18.3943
2009-03-20,17.3845
2009-03-23,19.0271
2009-03-24,18.802
2009-03-25,18.1868
2009-03-26,18.6973
2009-03-27,18.1868
2009-03-30,17.5145
2009-03-31,17.8316
2009-04-01,18.2819
2009-04-02,19.4806
2009-04-03,20.2607
2009-04-06,20.1212
2009-04-07,19.0969
2009-04-08,19.636
2009-04-09,20.5652
2009-04-13,19.9119
2009-04-14,19.395
2009-04-15,19.5409
2009-04-16,19.636
2009-04-17,19.1952
2009-04-20,18.0028
2009-04-21,18.5863
2009-04-22,19.4299
2009-04-23,19.4521
2009-04-24,20.0197
2009-04-27,19.7375
2009-04-28,19.4996
2009-04-29,20.5747
2009-04-30,21.4055
2009-05-01,22.1539
2009-05-04,22.4964
2009-05-05,21.9827
2009-05-06,23.508
2009-05-07,22.5598
2009-05-08,23.5746
2009-05-11,22.8611
2009-05-12,22.1634
2009-05-13,21.1772
2009-05-14,21.4531
2009-05-15,21.3516
2009-05-18,22.5313
2009-05-19,22.3727
2009-05-20,22.1064
2009-05-21,21.5926
2009-05-22,21.7195
2009-05-26,22.4552
2009-05-27,22.3759
2009-05-28,22.5535
2009-05-29,23.3209
2009-06-01,24.9065
2009-06-02,24.8748
2009-06-03,24.0471
2009-06-04,25.2649
2009-06-05,26.0735
2009-06-08,25.6391
2009-06-09,26.1179
2009-06-10,26.0545
2009-06-11,26.6031
2009-06-12,26.7807
2009-06-15,25.6676
2009-06-16,24.897
2009-06-17,24.4308
2009-06-18,24.4213
2009-06-19,24.0122
2009-06-22,22.908
2009-06-23,22.5452
2009-06-24,22.5579
2009-06-25,22.9144
2009-06-26,22.6852
2009-06-29,23.0035
2009-06-30,22.1792
2009-07-01,22.1633
2009-07-02,21.3295
2009-07-06,20.4861
2009-07-07,19.6746
2009-07-08,19.8464
2009-07-09,20.1424
2009-07-10,20.0469
2009-07-13,20.5116
2009-07-14,20.3652
2009-07-15,21.4504
2009-07-16,21.5936
2009-07-17,21.6636
2009-07-20,22.2461
2009-07-21,22.4052
2009-07-22,22.2079
2009-07-23,23.2104
2009-07-24,23.78
2009-07-27,23.9583
2009-07-28,23.2263
2009-07-29,23.0099
2009-07-30,25.6832
2009-07-31,25.7182
2009-08-03,26.6571
2009-08-04,27.3318
2009-08-05,27.3795
2009-08-06,26.9753
2009-08-07,27.9492
2009-08-10,27.8219
2009-08-11,27.4527
2009-08-12,28.3979
2009-08-13,28.487
2009-08-14,27.51
2009-08-17,26.4152
2009-08-18,27.7264
2009-08-19,27.8887
2009-08-20,28.4266
2009-08-21,28.9708
2009-08-24,28.5793
2009-08-25,28.4711
2009-08-26,28.1847
2009-08-27,28.1592
2009-08-28,28.4648
2009-08-31,27.4718
2009-09-01,26.3325
2009-09-02,26.9721
2009-09-03,27.7423
2009-09-04,28.5316
2009-09-08,28.9517
2009-09-09,29.8396
2009-09-10,30.5875
2009-09-11,30.2406
2009-09-14,31.0108
2009-09-15,31.2654
2009-09-16,31.3991
2009-09-17,31.1349
2009-09-18,31.1636
2009-09-21,31.3168
2009-09-22,32.1721
2009-09-23,31.9934
2009-09-24,31.1413
2009-09-25,31.5722
2009-09-28,31.5083
2009-09-29,31.2754
2009-09-30,31.4317
2009-10-01,30.653
2009-10-02,30.3179
2009-10-05,31.6487
2009-10-06,32.1243
2009-10-07,31.7892
2009-10-08,32.0668
2009-10-09,32.1689
2009-10-12,32.7625
2009-10-13,32.2296
2009-10-14,33.8221
2009-10-15,33.7231
2009-10-16,33.4519
2009-10-19,34.055
2009-10-20,33.8189
2009-10-21,33.9497
2009-10-22,33.8284
2009-10-23,33.5699
2009-10-26,33.2285
2009-10-27,33.0849
2009-10-28,31.7764
2009-10-29,32.8742
2009-10-30,31.3615
2009-11-02,31.0551
2009-11-03,31.6456
2009-11-04,31.3519
2009-11-05,32.6732
2009-11-06,31.7349
2009-11-09,33.1902
2009-11-10,33.12
2009-11-11,33.2189
2009-11-12,32.7913
2009-11-13,33.1934
2009-11-16,34.1859
2009-11-17,33.9689
2009-11-18,33.2508
2009-11-19,32.4976
2009-11-20,32.4083
2009-11-23,32.8232
2009-11-24,32.5232
2009-11-25,32.9763
2009-11-27,31.9775
2009-11-30,31.7381
2009-12-01,32.4083
2009-12-02,32.0668
2009-12-03,31.6902
2009-12-04,31.7253
2009-12-07,31.4317
2009-12-08,30.519
2009-12-09,30.4871
2009-12-10,30.1967
2009-12-11,30.5413
2009-12-14,31.2785
2009-12-15,31.4732
2009-12-16,31.2658
2009-12-17,30.4903
2009-12-18,31.0009
2009-12-21,31.5352
2009-12-22,31.1544
2009-12-23,30.8823
2009-12-24,31.0648
2009-12-28,31.1
2009-12-29,30.9208
2009-12-30,30.6455
2009-12-31,30.2807
2010-01-04,31.0456
2010-01-05,31.4008
2010-01-06,32.2457
2010-01-07,33.1545
2010-01-08,34.5242
2010-01-11,34.665
2010-01-12,33.7082
2010-01-13,33.7338
2010-01-14,33.945
2010-01-15,33.5289
2010-01-19,33.5546
2010-01-20,33.2185
2010-01-21,32.1624
2010-01-22,32.0792
2010-01-25,31.3368
2010-01-26,30.6487
2010-01-27,30.7479
2010-01-28,30.4695
2010-01-29,28.8694
2010-02-01,30.1943
2010-02-02,30.7767
2010-02-03,30.5719
2010-02-04,29.535
2010-02-05,29.455
2010-02-08,29.3238
2010-02-09,29.6759
2010-02-10,29.5286
2010-02-11,30.1943
2010-02-12,30.1943
2010-02-16,30.8503
2010-02-17,31.1512
2010-02-18,31.5672
2010-02-19,31.628
2010-02-22,31.6984
2010-02-23,30.9208
2010-02-24,30.9368
2010-02-25,31.1096
2010-02-26,32.108
2010-03-01,33.1385
2010-03-02,33.8586
2010-03-03,33.833
2010-03-04,33.8298
2010-03-05,34.425
2010-03-08,34.4346
2010-03-09,33.7274
2010-03-10,33.6954
2010-03-11,33.7082
2010-03-12,33.5962
2010-03-15,33.5546
2010-03-16,34.0122
2010-03-17,34.0666
2010-03-18,33.993
2010-03-19,33.4585
2010-03-22,33.6383
2010-03-23,35.2685
2010-03-24,34.9572
2010-03-25,35.2493
2010-03-26,35.0888
2010-03-29,35.4771
2010-03-30,35.3167
2010-03-31,35.384
2010-04-01,36.2473
2010-04-05,36.8282
2010-04-06,37.1202
2010-04-07,36.8763
2010-04-08,36.8185
2010-04-09,36.918
2010-04-12,37.3641
2010-04-13,37.1138
2010-04-14,37.6272
2010-04-15,38.0123
2010-04-16,36.9726
2010-04-19,36.8506
2010-04-20,36.918
2010-04-21,37.0913
2010-04-22,37.2871
2010-04-23,37.332
2010-04-26,38.1888
2010-04-27,37.1651
2010-04-28,37.348
2010-04-29,38.2017
2010-04-30,36.7383
2010-05-03,37.5534
2010-05-04,35.5509
2010-05-05,34.3956
2010-05-06,34.4951
2010-05-07,33.2756
2010-05-10,35.7723
2010-05-11,35.9488
2010-05-12,36.2762
2010-05-13,35.9296
2010-05-14,34.4149
2010-05-17,32.9868
2010-05-18,32.714
2010-05-19,31.7096
2010-05-20,30.1082
2010-05-21,30.5864
2010-05-24,30.0344
2010-05-25,29.5691
2010-05-26,30.1692
2010-05-27,31.5363
2010-05-28,30.5543
2010-06-01,28.7411
2010-06-02,29.6782
2010-06-03,29.8322
2010-06-04,28.2533
2010-06-07,26.745
2010-06-08,26.591
2010-06-09,27.804
2010-06-10,28.8919
2010-06-11,28.9529
2010-06-14,29.338
2010-06-15,30.6666
2010-06-16,30.4195
2010-06-17,30.1563
2010-06-18,30.3649
2010-06-21,30.458
2010-06-22,29.2802
2010-06-23,29.6397
2010-06-24,29.0139
2010-06-25,29.1808
2010-06-28,28.7977
2010-06-29,27.4004
2010-06-30,27.3361
2010-07-01,27.9091
2010-07-02,27.629
2010-07-06,27.8962
2010-07-07,29.1293
2010-07-08,29.4416
2010-07-09,29.8536
2010-07-12,28.9554
2010-07-13,29.6186
2010-07-14,29.6186
2010-07-15,29.522
2010-07-16,28.5723
2010-07-19,28.846
2010-07-20,29.477
2010-07-21,29.4416
2010-07-22,30.1756
2010-07-23,30.8356
2010-07-26,31.6629
2010-07-27,31.0674
2010-07-28,30.7808
2010-07-29,31.898
2010-07-30,31.9527
2010-08-02,32.8477
2010-08-03,32.6481
2010-08-04,33.4626
2010-08-05,33.3789
2010-08-06,33.0087
2010-08-09,32.925
2010-08-10,32.1845
2010-08-11,31.1833
2010-08-12,31.1285
2010-08-13,30.9998
2010-08-16,30.9869
2010-08-17,32.2585
2010-08-18,31.9141
2010-08-19,31.0191
2010-08-20,30.7036
2010-08-23,30.0565
2010-08-24,28.9393
2010-08-25,29.0681
2010-08-26,28.8041
2010-08-27,29.6637
2010-08-30,29.0262
2010-08-31,28.7462
2010-09-01,30.3269
2010-09-02,31.2187
2010-09-03,31.679
2010-09-07,31.1607
2010-09-08,31.5213
2010-09-09,31.8883
2010-09-10,32.9024
2010-09-13,33.8264
2010-09-14,33.4465
2010-09-15,33.234
2010-09-16,33.2533
2010-09-17,33.4819
2010-09-20,34.3222
2010-09-21,34.2417
2010-09-22,34.2578
2010-09-23,33.2179
2010-09-24,34.5057
2010-09-27,34.4252
2010-09-28,34.5898
2010-09-29,35.2741
2010-09-30,35.3839
2010-10-01,35.739
2010-10-04,35.0288
2010-10-05,35.8391
2010-10-06,35.7519
2010-10-07,35.9262
2010-10-08,36.6364
2010-10-11,36.5331
2010-10-12,36.3039
2010-10-13,36.927
2010-10-14,36.6945
2010-10-15,36.7591
2010-10-18,36.9625
2010-10-19,36.0069
2010-10-20,36.3136
2010-10-21,36.6009
2010-10-22,36.8559
2010-10-25,37.5403
2010-10-26,37.1529
2010-10-27,36.9496
2010-10-28,32.4592
2010-10-29,32.2881
2010-11-01,31.6457
2010-11-02,32.0395
2010-11-03,31.3003
2010-11-04,31.8975
2010-11-05,33.6891
2010-11-08,34.0926
2010-11-09,34.07
2010-11-10,34.5962
2010-11-11,34.8803
2010-11-12,34.2282
2010-11-15,34.2411
2010-11-16,33.9829
2010-11-17,33.9215
2010-11-18,34.3832
2010-11-19,34.7738
2010-11-22,34.6802
2010-11-23,34.0442
2010-11-24,34.8739
2010-11-26,34.5446
2010-11-29,34.2314
2010-11-30,34.0797
2010-12-01,34.8706
2010-12-02,35.3226
2010-12-03,35.9262
2010-12-06,36.7075
2010-12-07,36.843
2010-12-08,36.6235
2010-12-09,36.7204
2010-12-10,37.4693
2010-12-13,37.6404
2010-12-14,37.5113
2010-12-15,37.395
2010-12-16,37.4112
2010-12-17,37.5048
2010-12-20,37.182
2010-12-21,37.9503
2010-12-22,38.5443
2010-12-23,38.1892
2010-12-27,38.3118
2010-12-28,38.0471
2010-12-29,38.2348
2010-12-30,38.4646
2010-12-31,38.5681
2011-01-03,39.0115
2011-01-04,38.2089
2011-01-05,37.853
2011-01-06,37.3772
2011-01-07,37.5423
2011-01-10,37.9274
2011-01-11,38.4969
2011-01-12,38.8303
2011-01-13,37.6944
2011-01-14,38.0406
2011-01-18,37.95
2011-01-19,37.1637
2011-01-20,36.8951
2011-01-21,37.3643
2011-01-24,38.183
2011-01-25,38.0309
2011-01-26,39.251
2011-01-27,39.6717
2011-01-28,39.7784
2011-01-31,40.4548
2011-02-01,41.5162
2011-02-02,41.2056
2011-02-03,41.1635
2011-02-04,42.2088
2011-02-07,42.7233
2011-02-08,42.5583
2011-02-09,42.034
2011-02-10,42.2962
2011-02-11,42.7622
2011-02-14,42.6295
2011-02-15,41.8593
2011-02-16,42.3253
2011-02-17,42.2897
2011-02-18,42.1408
2011-02-22,40.6943
2011-02-23,39.7105
2011-02-24,40.5616
2011-02-25,40.5681
2011-02-28,40.4224
2011-03-01,39.7655
2011-03-02,40.7978
2011-03-03,42.0081
2011-03-04,41.5389
2011-03-07,40.759
2011-03-08,40.7331
2011-03-09,40.2477
2011-03-10,38.9856
2011-03-11,39.7526
2011-03-14,40.5163
2011-03-15,39.6296
2011-03-16,38.416
2011-03-17,39.1862
2011-03-18,39.581
2011-03-21,40.3933
2011-03-22,40.3577
2011-03-23,40.581
2011-03-24,40.5713
2011-03-25,40.6425
2011-03-28,40.5422
2011-03-29,41.1261
2011-03-30,41.5641
2011-03-31,41.8107
2011-04-01,42.8456
2011-04-04,43.1798
2011-04-05,42.8943
2011-04-06,42.8294
2011-04-07,43.2285
2011-04-08,43.8027
2011-04-11,42.651
2011-04-12,41.2591
2011-04-13,41.4213
2011-04-14,41.3986
2011-04-15,41.4181
2011-04-18,40.8374
2011-04-19,41.9664
2011-04-20,42.7061
2011-04-21,43.1831
2011-04-25,43.1571
2011-04-26,43.7833
2011-04-27,43.6373
2011-04-28,41.3046
2011-04-29,41.058
2011-05-02,41.3759
2011-05-03,40.4091
2011-05-04,39.4909
2011-05-05,38.6701
2011-05-06,39.8219
2011-05-09,39.9711
2011-05-10,40.6654
2011-05-11,39.8446
2011-05-12,39.4066
2011-05-13,39.1373
2011-05-16,39.1308
2011-05-17,38.3976
2011-05-18,39.5201
2011-05-19,39.2022
2011-05-20,38.8031
2011-05-23,37.8298
2011-05-24,37.6935
2011-05-25,37.9693
2011-05-26,38.1413
2011-05-27,39.0108
2011-05-31,39.3125
2011-06-01,37.5508
2011-06-02,37.5345
2011-06-03,36.7526
2011-06-06,36.4866
2011-06-07,36.1589
2011-06-08,35.7631
2011-06-09,35.8637
2011-06-10,34.4589
2011-06-13,33.9397
2011-06-14,34.3453
2011-06-15,33.6737
2011-06-16,32.8172
2011-06-17,34.3129
2011-06-20,34.0371
2011-06-21,35.3089
2011-06-22,35.3835
2011-06-23,34.3258
2011-06-24,33.7775
2011-06-27,34.0598
2011-06-28,34.6294
2011-06-29,34.8279
2011-06-30,35.7749
2011-07-01,36.1036
2011-07-05,35.9148
2011-07-06,35.8628
2011-07-07,36.3574
2011-07-08,35.4853
2011-07-11,34.343
2011-07-12,33.6531
2011-07-13,33.6758
2011-07-14,33.0575
2011-07-15,34.2258
2011-07-18,33.78
2011-07-19,34.6098
2011-07-20,34.6619
2011-07-21,36.1198
2011-07-22,36.1459
2011-07-25,35.8888
2011-07-26,34.8669
2011-07-27,33.5522
2011-07-28,31.9055
2011-07-29,32.3611
2011-08-01,32.1723
2011-08-02,30.812
2011-08-03,31.4662
2011-08-04,29.481
2011-08-05,28.8757
2011-08-08,26.8613
2011-08-09,28.6316
2011-08-10,27.5056
2011-08-11,29.2467
2011-08-12,29.4029
2011-08-15,30.0245
2011-08-16,29.2662
2011-08-17,29.4354
2011-08-18,27.2681
2011-08-19,26.3113
2011-08-22,26.5586
2011-08-23,27.8018
2011-08-24,28.2899
2011-08-25,27.2095
2011-08-26,28.1142
2011-08-29,29.5591
2011-08-30,30.2588
2011-08-31,30.6363
2011-09-01,29.6209
2011-09-02,28.9994
2011-09-06,28.6902
2011-09-07,29.4062
2011-09-08,29.1035
2011-09-09,27.9027
2011-09-12,27.5056
2011-09-13,28.2216
2011-09-14,28.7716
2011-09-15,29.1426
2011-09-16,28.8334
2011-09-19,28.2932
2011-09-20,27.7041
2011-09-21,26.0542
2011-09-22,24.4954
2011-09-23,24.2643
2011-09-26,25.2504
2011-09-27,26.3471
2011-09-28,25.4551
2011-09-29,25.6218
2011-09-30,24.1907
2011-10-03,22.8838
2011-10-04,24.0535
2011-10-05,25.3114
2011-10-06,26.1217
2011-10-07,25.8015
2011-10-10,27.0169
2011-10-11,26.8143
2011-10-12,28.0689
2011-10-13,27.3077
2011-10-14,27.4874
2011-10-17,26.3667
2011-10-18,27.4416
2011-10-19,27.1214
2011-10-20,26.5921
2011-10-21,27.569
2011-10-24,29.1994
2011-10-25,28.3172
2011-10-26,28.4773
2011-10-27,30.0097
2011-10-28,31.7152
2011-10-31,30.3103
2011-11-01,29.4477
2011-11-02,30.7546
2011-11-03,32.3686
2011-11-04,32.5647
2011-11-07,32.2575
2011-11-08,32.6594
2011-11-09,31.0421
2011-11-10,31.2676
2011-11-11,32.4536
2011-11-14,31.823
2011-11-15,32.1791
2011-11-16,31.9962
2011-11-17,31.0291
2011-11-18,31.6531
2011-11-21,30.6141
2011-11-22,30.6174
2011-11-23,29.366
2011-11-25,29.647
2011-11-28,31.2022
2011-11-29,31.3623
2011-11-30,33.5742
2011-12-01,33.1985
2011-12-02,33.3586
2011-12-05,34.1035
2011-12-06,34.231
2011-12-07,33.8324
2011-12-08,32.5418
2011-12-09,33.8781
2011-12-12,33.0188
2011-12-13,32.3817
2011-12-14,31.5159
2011-12-15,31.5028
2011-12-16,31.8753
2011-12-19,31.5126
2011-12-20,32.9143
2011-12-21,32.826
2011-12-22,32.8816
2011-12-23,33.2933
2011-12-27,32.9502
2011-12-28,31.8489
2011-12-29,32.724
2011-12-30,32.5897
2012-01-03,33.3992
2012-01-04,34.3104
2012-01-05,33.8483
2012-01-06,33.5861
2012-01-09,33.9827
2012-01-10,34.4776
2012-01-11,34.3596
2012-01-12,34.5497
2012-01-13,34.5792
2012-01-17,34.7103
2012-01-18,34.9823
2012-01-19,35.4805
2012-01-20,35.0971
2012-01-23,35.1266
2012-01-24,35.2806
2012-01-25,35.6838
2012-01-26,35.6051
2012-01-27,35.7854
2012-01-30,35.651
2012-01-31,36.1557
2012-02-01,36.8834
2012-02-02,36.7261
2012-02-03,37.5291
2012-02-06,37.6635
2012-02-07,37.5881
2012-02-08,37.3685
2012-02-09,37.8339
2012-02-10,37.788
2012-02-13,38.437
2012-02-14,38.3714
2012-02-15,38.1781
2012-02-16,38.6369
2012-02-17,38.8565
2012-02-21,38.614
2012-02-22,38.5878
2012-02-23,39.4924
2012-02-24,39.0696
2012-02-27,39.2302
2012-02-28,39.0237
2012-02-29,38.7451
2012-03-01,38.7648
2012-03-02,38.1813
2012-03-05,38.1879
2012-03-06,36.8145
2012-03-07,36.9194
2012-03-08,37.5782
2012-03-09,38.1944
2012-03-12,37.7487
2012-03-13,38.4501
2012-03-14,38.2665
2012-03-15,38.6894
2012-03-16,38.3845
2012-03-19,38.5189
2012-03-20,37.752
2012-03-21,37.4799
2012-03-22,36.4475
2012-03-23,37.2374
2012-03-26,37.9257
2012-03-27,38.2534
2012-03-28,37.9181
2012-03-29,37.8655
2012-03-30,37.9805
2012-04-02,38.6085
2012-04-03,38.5296
2012-04-04,38.02
2012-04-05,38.0792
2012-04-09,37.0797
2012-04-10,35.9552
2012-04-11,36.1953
2012-04-12,36.9679
2012-04-13,36.5832
2012-04-16,36.8397
2012-04-17,37.5696
2012-04-18,37.3197
2012-04-19,36.5405
2012-04-20,36.6654
2012-04-23,36.021
2012-04-24,36.7805
2012-04-25,37.0205
2012-04-26,37.4906
2012-04-27,38.1186
2012-04-30,37.7142
2012-05-01,37.3
2012-05-02,38.6447
2012-05-03,38.477
2012-05-04,36.9646
2012-05-07,36.6161
2012-05-08,36.5273
2012-05-09,36.4944
2012-05-10,36.6588
2012-05-11,37.1389
2012-05-14,36.5273
2012-05-15,35.8073
2012-05-16,35.2648
2012-05-17,33.8116
2012-05-18,33.3875
2012-05-21,34.867
2012-05-22,35.2484
2012-05-23,35.4851
2012-05-24,35.5048
2012-05-25,34.8012
2012-05-29,35.587
2012-05-30,34.8933
2012-05-31,33.8083
2012-06-01,33.016
2012-06-04,32.9798
2012-06-05,33.7097
2012-06-06,34.6895
2012-06-07,34.4922
2012-06-08,34.5382
2012-06-11,34.1207
2012-06-12,34.5481
2012-06-13,34.3146
2012-06-14,34.9097
2012-06-15,35.6462
2012-06-18,35.7021
2012-06-19,36.1953
2012-06-20,36.3564
2012-06-21,35.5015
2012-06-22,35.4095
2012-06-25,35.0675
2012-06-26,35.7514
2012-06-27,36.6389
2012-06-28,37.0117
2012-06-29,37.7935
2012-07-02,38.0409
2012-07-03,39.0371
2012-07-05,38.661
2012-07-06,38.374
2012-07-09,38.4235
2012-07-10,37.1403
2012-07-11,35.9726
2012-07-12,35.7845
2012-07-13,36.5004
2012-07-16,36.2563
2012-07-17,36.5927
2012-07-18,37.4537
2012-07-19,37.5164
2012-07-20,37.0809
2012-07-23,36.7676
2012-07-24,36.3321
2012-07-25,36.5993
2012-07-26,37.0447
2012-07-27,38.2652
2012-07-30,38.1728
2012-07-31,39.5781
2012-08-01,39.1328
2012-08-02,39.1295
2012-08-03,40.9009
2012-08-06,41.3528
2012-08-07,41.8773
2012-08-08,42.1643
2012-08-09,42.1379
2012-08-10,42.2138
2012-08-13,42.1907
2012-08-14,41.9532
2012-08-15,41.9664
2012-08-16,42.702
2012-08-17,42.4216
2012-08-20,42.2698
2012-08-21,41.9103
2012-08-22,42.25
2012-08-23,42.1907
2012-08-24,42.1379
2012-08-27,42.316
2012-08-28,42.095
2012-08-29,42.1379
2012-08-30,41.5639
2012-08-31,42.1973
2012-09-04,42.0422
2012-09-05,41.8443
2012-09-06,42.6855
2012-09-07,43.2957
2012-09-10,43.0483
2012-09-11,43.6025
2012-09-12,43.718
2012-09-13,43.5497
2012-09-14,44.4008
2012-09-17,43.9555
2012-09-18,43.5168
2012-09-19,43.7774
2012-09-20,43.7114
2012-09-21,43.5728
2012-09-24,43.2199
2012-09-25,42.4414
2012-09-26,41.965
2012-09-27,42.18
2012-09-28,42.2627
2012-10-01,42.2826
2012-10-02,42.3587
2012-10-03,42.4678
2012-10-04,42.921
2012-10-05,43.0864
2012-10-08,42.964
2012-10-09,42.5902
2012-10-10,42.5836
2012-10-11,42.6233
2012-10-12,42.3951
2012-10-15,42.534
2012-10-16,42.9971
2012-10-17,43.9167
2012-10-18,44.5419
2012-10-19,43.9498
2012-10-22,43.6653
2012-10-23,43.093
2012-10-24,43.0699
2012-10-25,43.3908
2012-10-26,43.3147
2012-10-31,44.8297
2012-11-01,45.3061
2012-11-02,45.23
2012-11-05,46.272
2012-11-06,46.6028
2012-11-07,45.584
2012-11-08,45.0183
2012-11-09,44.7173
2012-11-12,44.8496
2012-11-13,45.1605
2012-11-14,44.0821
2012-11-15,43.877
2012-11-16,44.5816
2012-11-19,45.6931
2012-11-20,46.1265
2012-11-21,45.6666
2012-11-23,45.703
2012-11-26,46.0272
2012-11-27,45.9048
2012-11-28,46.0967
2012-11-29,46.1794
2012-11-30,45.8982
2012-12-03,45.8651
2012-12-04,46.6326
2012-12-05,46.6425
2012-12-06,46.7814
2012-12-07,46.9535
2012-12-10,47.2379
2012-12-11,47.2479
2012-12-12,46.8939
2012-12-13,47.0163
2012-12-14,47.0229
2012-12-17,46.9733
2012-12-18,47.8433
2012-12-19,47.9293
2012-12-20,48.3891
2012-12-21,47.7011
2012-12-24,47.7838
2012-12-26,47.6713
2012-12-27,48.1025
2012-12-28,47.4061
2012-12-31,48.5867
2013-01-02,49.9141
2013-01-03,50.0098
2013-01-04,50.4735
2013-01-07,50.5358
2013-01-08,50.9504
2013-01-09,50.8156
2013-01-10,51.0622
2013-01-11,51.1678
2013-01-14,50.7104
2013-01-15,50.5196
2013-01-16,50.1608
2013-01-17,51.2071
2013-01-18,51.7137
2013-01-22,51.6349
2013-01-23,51.0787
2013-01-24,50.8386
2013-01-25,50.7957
2013-01-28,50.2858
2013-01-29,51.6513
2013-01-30,51.592
2013-01-31,51.5754
2013-02-01,51.2928
2013-02-04,50.8222
2013-02-05,51.5099
2013-02-06,51.4439
2013-02-07,51.0164
2013-02-08,51.8717
2013-02-11,51.8585
2013-02-12,52.3258
2013-02-13,52.6448
2013-02-14,52.6216
2013-02-15,52.566
2013-02-19,52.5066
2013-02-20,51.9112
2013-02-21,51.2764
2013-02-22,53.1217
2013-02-25,50.7957
2013-02-26,51.0524
2013-02-27,52.2533
2013-02-28,52.8309
2013-03-01,53.0956
2013-03-04,53.1547
2013-03-05,54.2963
2013-03-06,54.2075
2013-03-07,54.0232
2013-03-08,54.2043
2013-03-11,54.4576
2013-03-12,54.0264
2013-03-13,54.2108
2013-03-14,54.8821
2013-03-15,55.1386
2013-03-18,55.0925
2013-03-19,55.033
2013-03-20,55.6188
2013-03-21,54.5071
2013-03-22,54.4576
2013-03-25,54.0759
2013-03-26,54.5542
2013-03-27,54.5047
2013-03-28,55.3061
2013-04-01,54.2607
2013-04-02,53.7329
2013-04-03,53.3998
2013-04-04,53.5416
2013-04-05,52.8292
2013-04-08,53.2744
2013-04-09,53.9243
2013-04-10,54.353
2013-04-11,54.2211
2013-04-12,53.2942
2013-04-15,51.3053
2013-04-16,52.4928
2013-04-17,51.0976
2013-04-18,50.207
2013-04-19,50.4148
2013-04-22,50.4742
2013-04-23,50.7842
2013-04-24,51.5791
2013-04-25,51.8958
2013-04-26,52.0541
2013-04-29,51.9453
2013-04-30,52.1233
2013-05-01,49.9101
2013-05-02,50.8666
2013-05-03,52.3312
2013-05-06,52.3641
2013-05-07,53.2051
2013-05-08,53.6636
2013-05-09,53.1392
2013-05-10,53.4723
2013-05-13,53.4592
2013-05-14,54.3265
2013-05-15,54.8181
2013-05-16,54.9598
2013-05-17,56.0616
2013-05-20,56.454
2013-05-21,56.7146
2013-05-22,55.5899
2013-05-23,55.3754
2013-05-24,54.9665
2013-05-28,55.791
2013-05-29,55.3161
2013-05-30,55.8702
2013-05-31,55.4941
2013-06-03,55.0456
2013-06-04,55.0291
2013-06-05,53.5449
2013-06-06,54.3827
2013-06-07,55.4612
2013-06-10,55.5041
2013-06-11,54.4618
2013-06-12,54.0891
2013-06-13,54.729
2013-06-14,54.6531
2013-06-17,54.2837
2013-06-18,54.7356
2013-06-19,54.1617
2013-06-20,52.9017
2013-06-21,52.5554
2013-06-24,51.5627
2013-06-25,52.1959
2013-06-26,53.7815
2013-06-27,54.4099
2013-06-28,54.16
2013-07-01,54.59
2013-07-02,54.32
2013-07-03,54.2
2013-07-05,55.34
2013-07-08,54.98
2013-07-09,55.72
2013-07-10,55.55
2013-07-11,55.95
2013-07-12,55.48
2013-07-15,55.3
2013-07-16,55.2
2013-07-17,55.8
2013-07-18,56.75
2013-07-19,57.33
2013-07-22,57.34
2013-07-23,56.96
2013-07-24,56.01
2013-07-25,57.35
2013-07-26,56.77
2013-07-29,56.34
2013-07-30,56.78
2013-07-31,56.7
2013-08-01,58.08
2013-08-02,57.24
2013-08-05,56.89
2013-08-06,56.43
2013-08-07,55.97
2013-08-08,56.3
2013-08-09,56.75
