date,close_price
1998-01-02,8.27959
1998-01-05,8.25753
1998-01-06,8.27223
1998-01-07,8.1264
1998-01-08,8.06512
1998-01-09,7.66683
1998-01-12,7.85066
1998-01-13,7.86659
1998-01-14,7.8433
1998-01-15,7.7134
1998-01-16,7.83595
1998-01-20,7.87394
1998-01-21,7.8433
1998-01-22,7.85066
1998-01-23,7.88987
1998-01-26,7.93522
1998-01-27,8.00385
1998-01-28,8.14968
1998-01-29,8.2416
1998-01-30,8.24895
1998-02-02,8.3568
1998-02-03,8.3568
1998-02-04,8.42542
1998-02-05,8.56391
1998-02-06,8.54798
1998-02-09,8.42542
1998-02-10,8.64724
1998-02-11,8.70117
1998-02-12,8.7318
1998-02-13,8.7171
1998-02-17,8.59455
1998-02-18,8.76244
1998-02-19,8.62518
1998-02-20,8.70117
1998-02-23,8.67053
1998-02-24,8.62518
1998-02-25,8.67053
1998-02-26,8.78573
1998-02-27,8.88499
1998-03-02,8.97691
1998-03-03,8.90828
1998-03-04,8.63989
1998-03-05,8.67053
1998-03-06,8.76244
1998-03-09,8.76244
1998-03-10,8.88499
1998-03-11,8.96955
1998-03-12,8.93156
1998-03-13,8.90092
1998-03-16,8.99284
1998-03-17,9.09211
1998-03-18,8.99284
1998-03-19,9.11539
1998-03-20,9.18402
1998-03-23,9.22201
1998-03-24,9.29922
1998-03-25,9.36049
1998-03-26,9.42912
1998-03-27,9.55167
1998-03-30,9.55903
1998-03-31,9.61295
1998-04-01,9.9034
1998-04-02,10.0419
1998-04-03,9.97325
1998-04-06,9.84212
1998-04-07,9.76614
1998-04-08,9.68158
1998-04-09,9.71957
1998-04-13,9.68158
1998-04-14,9.71222
1998-04-15,9.67423
1998-04-16,9.62766
1998-04-17,9.77349
1998-04-20,9.71957
1998-04-21,9.68893
1998-04-22,9.66687
1998-04-23,9.55903
1998-04-24,9.43648
1998-04-27,9.36785
1998-04-28,9.33721
1998-04-29,9.39113
1998-04-30,9.5051
1998-05-01,9.46711
1998-05-04,9.48304
1998-05-05,9.39113
1998-05-06,9.34456
1998-05-07,9.31392
1998-05-08,9.43648
1998-05-11,9.44383
1998-05-12,9.45241
1998-05-13,9.43648
1998-05-14,9.40584
1998-05-15,9.36049
1998-05-18,9.2073
1998-05-19,9.18402
1998-05-20,9.29922
1998-05-21,9.26858
1998-05-22,9.2073
1998-05-26,9.43648
1998-05-27,9.33721
1998-05-28,9.42912
1998-05-29,9.3752
1998-06-01,9.45976
1998-06-02,9.45241
1998-06-03,9.40584
1998-06-04,9.21466
1998-06-05,9.31392
1998-06-08,9.29064
1998-06-09,9.2073
1998-06-10,9.11539
1998-06-11,8.847
1998-06-12,8.82372
1998-06-15,8.63254
1998-06-16,8.66317
1998-06-17,8.70117
1998-06-18,8.66317
1998-06-19,8.47199
1998-06-22,8.31023
1998-06-23,8.28817
1998-06-24,8.45606
1998-06-25,8.38008
1998-06-26,8.44136
1998-06-29,8.41072
1998-06-30,8.36415
1998-07-01,8.44136
1998-07-02,8.39479
1998-07-06,8.4867
1998-07-07,8.3188
1998-07-08,8.38008
1998-07-09,8.19625
1998-07-10,8.21096
1998-07-13,8.01978
1998-07-14,8.11905
1998-07-15,8.0737
1998-07-16,8.06512
1998-07-17,7.90458
1998-07-20,7.75874
1998-07-21,7.80531
1998-07-22,7.83595
1998-07-23,7.8286
1998-07-24,7.87394
1998-07-27,7.85924
1998-07-28,7.76732
1998-07-29,7.89723
1998-07-30,7.95115
1998-07-31,7.8433
1998-08-03,7.85066
1998-08-04,7.65948
1998-08-05,7.69011
1998-08-06,7.69011
1998-08-07,7.72075
1998-08-10,7.51364
1998-08-11,7.39967
1998-08-12,7.42173
1998-08-13,7.21584
1998-08-14,6.88618
1998-08-17,7.07736
1998-08-18,7.15456
1998-08-19,7.22319
1998-08-20,7.31511
1998-08-21,7.13128
1998-08-24,7.21584
1998-08-25,7.20726
1998-08-26,7.03937
1998-08-27,6.67171
1998-08-28,6.54181
1998-08-31,6.40332
1998-09-01,6.37268
1998-09-02,6.44989
1998-09-03,6.4646
1998-09-04,6.51117
1998-09-08,6.66436
1998-09-09,6.64843
1998-09-10,6.54916
1998-09-11,6.55651
1998-09-14,6.8249
1998-09-15,6.67171
1998-09-16,6.64107
1998-09-17,6.47195
1998-09-18,6.44989
1998-09-21,6.40332
1998-09-22,6.35798
1998-09-23,6.48788
1998-09-24,6.41925
1998-09-25,6.31876
1998-09-28,6.32734
1998-09-29,6.41925
1998-09-30,6.31876
1998-10-01,6.03567
1998-10-02,6.15822
1998-10-05,6.22685
1998-10-06,6.2195
1998-10-07,6.18886
1998-10-08,6.20479
1998-10-09,6.02096
1998-10-12,6.1043
1998-10-13,6.1043
1998-10-14,6.00503
1998-10-15,5.98175
1998-10-16,6.14351
1998-10-19,6.00503
1998-10-20,6.0516
1998-10-21,6.36533
1998-10-22,6.31876
1998-10-23,6.18886
1998-10-26,6.28077
1998-10-27,6.18886
1998-10-28,6.19621
1998-10-29,6.20479
1998-10-30,6.25749
1998-11-02,6.54181
1998-11-03,6.75627
1998-11-04,6.74034
1998-11-05,6.73299
1998-11-06,6.81755
1998-11-09,6.87024
1998-11-10,7.06265
1998-11-11,6.9928
1998-11-12,7.1852
1998-11-13,7.23055
1998-11-16,7.16192
1998-11-17,7.10799
1998-11-18,6.98544
1998-11-19,6.97074
1998-11-20,7.19991
1998-11-23,7.23055
1998-11-24,7.33839
1998-11-25,7.3531
1998-11-27,7.29182
1998-11-30,7.13128
1998-12-01,7.02343
1998-12-02,6.90088
1998-12-03,6.81755
1998-12-04,6.97074
1998-12-07,7.22319
1998-12-08,7.08471
1998-12-09,6.97074
1998-12-10,6.85554
1998-12-11,6.77833
1998-12-14,6.74034
1998-12-15,6.54916
1998-12-16,6.58715
1998-12-17,6.55651
1998-12-18,6.67171
1998-12-21,6.57244
1998-12-22,6.50259
1998-12-23,6.695
1998-12-24,6.74034
1998-12-28,6.92417
1998-12-29,6.85554
1998-12-30,6.80162
1998-12-31,6.86289
1999-01-04,7.13128
1999-01-05,7.05407
1999-01-06,7.22319
1999-01-07,7.10064
1999-01-08,7.15456
1999-01-11,7.24648
1999-01-12,7.16927
1999-01-13,7.01608
1999-01-14,6.9548
1999-01-15,7.03201
1999-01-19,6.98544
1999-01-20,6.97074
1999-01-21,6.87024
1999-01-22,6.64843
1999-01-25,6.67171
1999-01-26,6.60308
1999-01-27,6.54181
1999-01-28,6.695
1999-01-29,6.63372
1999-02-01,6.61779
1999-02-02,6.64843
1999-02-03,6.65578
1999-02-04,6.85554
1999-02-05,6.79426
1999-02-08,6.73299
1999-02-09,6.64843
1999-02-10,6.61043
1999-02-11,6.7097
1999-02-12,6.60308
1999-02-16,6.61043
1999-02-17,6.60308
1999-02-18,6.62514
1999-02-19,6.58715
1999-02-22,6.60308
1999-02-23,6.47195
1999-02-24,6.31141
1999-02-25,6.31876
1999-02-26,6.28077
1999-03-01,6.3494
1999-03-02,6.30406
1999-03-03,6.1815
1999-03-04,6.18886
1999-03-05,6.19621
1999-03-08,6.04302
1999-03-09,6.01238
1999-03-10,6.20479
1999-03-11,6.24278
1999-03-12,6.17415
1999-03-15,6.14351
1999-03-16,6.15087
1999-03-17,6.1043
1999-03-18,6.02831
1999-03-19,5.99032
1999-03-22,5.95969
1999-03-23,5.95111
1999-03-24,5.94375
1999-03-25,5.97439
1999-03-26,5.95969
1999-03-29,6.22685
1999-03-30,5.99032
1999-03-31,6.0516
1999-04-01,6.11288
1999-04-05,6.32734
1999-04-06,6.23543
1999-04-07,6.26606
1999-04-08,6.31141
1999-04-09,6.24278
1999-04-12,6.26606
1999-04-13,6.63372
1999-04-14,6.98544
1999-04-15,6.97074
1999-04-16,7.56756
1999-04-19,8.06512
1999-04-20,7.80531
1999-04-21,7.85924
1999-04-22,7.93522
1999-04-23,8.11905
1999-04-26,8.03448
1999-04-27,8.01243
1999-04-28,8.3188
1999-04-29,7.91193
1999-04-30,7.9585
1999-05-03,8.54798
1999-05-04,8.57126
1999-05-05,8.70117
1999-05-06,8.95362
1999-05-07,9.09946
1999-05-10,8.73916
1999-05-11,8.78573
1999-05-12,8.56391
1999-05-13,8.6019
1999-05-14,8.40214
1999-05-17,8.45606
1999-05-18,8.1264
1999-05-19,8.27223
1999-05-20,8.43278
1999-05-21,8.55533
1999-05-24,8.54062
1999-05-25,8.47199
1999-05-26,8.45606
1999-05-27,8.08841
1999-05-28,8.1264
1999-06-01,8.31023
1999-06-02,8.3188
1999-06-03,8.3188
1999-06-04,8.33351
1999-06-07,8.36415
1999-06-08,8.25753
1999-06-09,8.28817
1999-06-10,8.21096
1999-06-11,8.30287
1999-06-14,8.42542
1999-06-15,8.44871
1999-06-16,8.51734
1999-06-17,8.55533
1999-06-18,8.57861
1999-06-21,8.28817
1999-06-22,8.26488
1999-06-23,8.19625
1999-06-24,8.01978
1999-06-25,8.02713
1999-06-28,8.16561
1999-06-29,8.18032
1999-06-30,8.34944
1999-07-01,8.23424
1999-07-02,8.36415
1999-07-06,8.20361
1999-07-07,8.24895
1999-07-08,8.46342
1999-07-09,8.55533
1999-07-12,8.49405
1999-07-13,8.33351
1999-07-14,8.39479
1999-07-15,8.38743
1999-07-16,8.50263
1999-07-19,8.41072
1999-07-20,8.3568
1999-07-21,8.3568
1999-07-22,8.36415
1999-07-23,8.31023
1999-07-26,8.47935
1999-07-27,8.54798
1999-07-28,8.59455
1999-07-29,8.58597
1999-07-30,8.54798
1999-08-02,8.63989
1999-08-03,8.50998
1999-08-04,8.22689
1999-08-05,8.41072
1999-08-06,8.45606
1999-08-09,8.38008
1999-08-10,8.26488
1999-08-11,8.25753
1999-08-12,8.30287
1999-08-13,8.42542
1999-08-16,8.2416
1999-08-17,8.28817
1999-08-18,8.17297
1999-08-19,8.08841
1999-08-20,8.11169
1999-08-23,8.08841
1999-08-24,7.85924
1999-08-25,7.7134
1999-08-26,7.50629
1999-08-27,7.29918
1999-08-30,7.32246
1999-08-31,7.24648
1999-09-01,7.33839
1999-09-02,7.39967
1999-09-03,7.49893
1999-09-07,7.25383
1999-09-08,7.06265
1999-09-09,6.97809
1999-09-10,6.83225
1999-09-13,6.74034
1999-09-14,6.58715
1999-09-15,6.54916
1999-09-16,6.41068
1999-09-17,6.30406
1999-09-20,6.15087
1999-09-21,5.97439
1999-09-22,5.92047
1999-09-23,5.75993
1999-09-24,5.68394
1999-09-27,5.81385
1999-09-28,5.71458
1999-09-29,5.76728
1999-09-30,5.95969
1999-10-01,5.71458
1999-10-04,5.59938
1999-10-05,5.53811
1999-10-06,5.48419
1999-10-07,5.53076
1999-10-08,5.53076
1999-10-11,5.60674
1999-10-12,5.46948
1999-10-13,5.36899
1999-10-14,5.17781
1999-10-15,4.94006
1999-10-18,5.30036
1999-10-19,5.00133
1999-10-20,4.94006
1999-10-21,4.88736
1999-10-22,5.02462
1999-10-25,5.06261
1999-10-26,4.86407
1999-10-27,4.96334
1999-10-28,4.94006
1999-10-29,5.00133
1999-11-01,5.15452
1999-11-02,5.27707
1999-11-03,5.41556
1999-11-04,5.50012
1999-11-05,5.4609
1999-11-08,5.56139
1999-11-09,5.63737
1999-11-10,5.68394
1999-11-11,5.63737
1999-11-12,5.66801
1999-11-15,5.69865
1999-11-16,5.8065
1999-11-17,5.90576
1999-11-18,5.88983
1999-11-19,5.79056
1999-11-22,5.76728
1999-11-23,5.76728
1999-11-24,5.77586
1999-11-26,5.76728
1999-11-29,5.79056
1999-11-30,5.9364
1999-12-01,5.89841
1999-12-02,5.75993
1999-12-03,5.99768
1999-12-06,5.92047
1999-12-07,5.72194
1999-12-08,5.92905
1999-12-09,5.67537
1999-12-10,5.77586
1999-12-13,5.8212
1999-12-14,6.4646
1999-12-15,6.12023
1999-12-16,6.36533
1999-12-17,6.48053
1999-12-20,6.31141
1999-12-21,6.3494
1999-12-22,6.40332
1999-12-23,6.64107
1999-12-27,6.67906
1999-12-28,6.83225
1999-12-29,6.89353
1999-12-30,6.88618
1999-12-31,7.02343
2000-01-03,6.74769
2000-01-04,6.65578
2000-01-05,6.77833
2000-01-06,6.76362
2000-01-07,6.76362
2000-01-10,7.01608
2000-01-11,7.07736
2000-01-12,7.23055
2000-01-13,7.27712
2000-01-14,7.32246
2000-01-18,7.19255
2000-01-19,6.98544
2000-01-20,6.80162
2000-01-21,6.75627
2000-01-24,6.7097
2000-01-25,6.52587
2000-01-26,6.71705
2000-01-27,6.78691
2000-01-28,6.57244
2000-01-31,6.5798
2000-02-01,6.61043
2000-02-02,6.55651
2000-02-03,6.5798
2000-02-04,6.43396
2000-02-07,6.45724
2000-02-08,6.35798
2000-02-09,6.20479
2000-02-10,6.12758
2000-02-11,6.03567
2000-02-14,6.1043
2000-02-15,6.27342
2000-02-16,6.12758
2000-02-17,6.21214
2000-02-18,6.04302
2000-02-22,6.09694
2000-02-23,5.90576
2000-02-24,5.94375
2000-02-25,5.72929
2000-02-28,5.75993
2000-02-29,5.91312
2000-03-01,5.95111
2000-03-02,5.90576
2000-03-03,6.04302
2000-03-06,5.88983
2000-03-07,5.75257
2000-03-08,5.91312
2000-03-09,5.99032
2000-03-10,5.90576
2000-03-13,5.88983
2000-03-14,6.01238
2000-03-15,6.44989
2000-03-16,6.87882
2000-03-17,6.4646
2000-03-20,6.51117
2000-03-21,6.66436
2000-03-22,6.49524
2000-03-23,6.55651
2000-03-24,6.55651
2000-03-27,6.47195
2000-03-28,6.695
2000-03-29,6.80897
2000-03-30,6.9401
2000-03-31,6.94745
2000-04-03,7.04672
2000-04-04,7.06265
2000-04-05,6.98544
2000-04-06,7.16927
2000-04-07,7.07736
2000-04-10,6.93152
2000-04-11,7.19991
2000-04-12,7.38374
2000-04-13,7.21584
2000-04-14,7.01608
2000-04-17,6.94745
2000-04-18,7.23055
2000-04-19,7.10799
2000-04-20,7.04672
2000-04-24,7.10064
2000-04-25,7.07
2000-04-26,7.08471
2000-04-27,7.15456
2000-04-28,7.14599
2000-05-01,7.16927
2000-05-02,7.24648
2000-05-03,7.14599
2000-05-04,7.02343
2000-05-05,7.17662
2000-05-08,7.2379
2000-05-09,7.22319
2000-05-10,7.13863
2000-05-11,7.17662
2000-05-12,7.29918
2000-05-15,7.51364
2000-05-16,7.7134
2000-05-17,7.81267
2000-05-18,7.72075
2000-05-19,7.69747
2000-05-22,7.85924
2000-05-23,7.93522
2000-05-24,8.08841
2000-05-25,7.94257
2000-05-26,7.73668
2000-05-30,7.44501
2000-05-31,7.44501
2000-06-01,7.56756
2000-06-02,7.56756
2000-06-05,7.33839
2000-06-06,7.44501
2000-06-07,7.26118
2000-06-08,7.45236
2000-06-09,7.67541
2000-06-12,7.69747
2000-06-13,7.65212
2000-06-14,7.70605
2000-06-15,7.56021
2000-06-16,7.54428
2000-06-19,7.34574
2000-06-20,7.28447
2000-06-21,7.41437
2000-06-22,7.32981
2000-06-23,7.2379
2000-06-26,7.13863
2000-06-27,7.36045
2000-06-28,7.30775
2000-06-29,7.23055
2000-06-30,7.14599
2000-07-03,7.46094
2000-07-05,7.16927
2000-07-06,7.17662
2000-07-07,7.2379
2000-07-10,7.31511
2000-07-11,7.54428
2000-07-12,7.49158
2000-07-13,7.50629
2000-07-14,7.39967
2000-07-17,7.42173
2000-07-18,7.43031
2000-07-19,7.20726
2000-07-20,7.23055
2000-07-21,7.16927
2000-07-24,7.2379
2000-07-25,7.43031
2000-07-26,7.41437
2000-07-27,7.60555
2000-07-28,7.50629
2000-07-31,7.39109
2000-08-01,7.43766
2000-08-02,7.28447
2000-08-03,7.47565
2000-08-04,7.62884
2000-08-07,7.75874
2000-08-08,7.83595
2000-08-09,7.8286
2000-08-10,7.8433
2000-08-11,8.08105
2000-08-14,8.00385
2000-08-15,8.03448
2000-08-16,8.09576
2000-08-17,8.2416
2000-08-18,8.11169
2000-08-21,8.08105
2000-08-22,8.15704
2000-08-23,8.16561
2000-08-24,8.34086
2000-08-25,8.28817
2000-08-28,8.38743
2000-08-29,8.30287
2000-08-30,8.28817
2000-08-31,8.3188
2000-09-01,8.3715
2000-09-05,8.50998
2000-09-06,8.68646
2000-09-07,8.76244
2000-09-08,8.63989
2000-09-11,8.70117
2000-09-12,8.73916
2000-09-13,8.63254
2000-09-14,8.49405
2000-09-15,8.21096
2000-09-18,7.92787
2000-09-19,7.89723
2000-09-20,7.88987
2000-09-21,8.01978
2000-09-22,7.92051
2000-09-25,7.90458
2000-09-26,7.98179
2000-09-27,8.10434
2000-09-28,8.09576
2000-09-29,8.21831
2000-10-02,8.05777
2000-10-03,8.38008
2000-10-04,8.32616
2000-10-05,8.18032
2000-10-06,8.32616
2000-10-09,8.45606
2000-10-10,8.42542
2000-10-11,8.45606
2000-10-12,8.32616
2000-10-13,8.22689
2000-10-16,8.39479
2000-10-17,8.16561
2000-10-18,8.14968
2000-10-19,8.26488
2000-10-20,8.47935
2000-10-23,8.38008
2000-10-24,8.45606
2000-10-25,8.4867
2000-10-26,8.50998
2000-10-27,8.3568
2000-10-30,8.76244
2000-10-31,9.32985
2000-11-01,9.36049
2000-11-02,9.26858
2000-11-03,9.31392
2000-11-06,9.06147
2000-11-07,9.17667
2000-11-08,9.04554
2000-11-09,8.83965
2000-11-10,8.78573
2000-11-13,8.73916
2000-11-14,8.88499
2000-11-15,9.03818
2000-11-16,8.80901
2000-11-17,8.92298
2000-11-20,8.68646
2000-11-21,8.75509
2000-11-22,8.70117
2000-11-24,8.76244
2000-11-27,8.69381
2000-11-28,8.81636
2000-11-29,8.68646
2000-11-30,8.3188
2000-12-01,8.34944
2000-12-04,8.58597
2000-12-05,8.70852
2000-12-06,8.85435
2000-12-07,8.68646
2000-12-08,8.50998
2000-12-11,8.47935
2000-12-12,8.54798
2000-12-13,8.49405
2000-12-14,8.31023
2000-12-15,8.11905
2000-12-18,8.26488
2000-12-19,8.30287
2000-12-20,8.17297
2000-12-21,8.21831
2000-12-22,8.17297
2000-12-26,8.3188
2000-12-27,8.47935
2000-12-28,8.76979
2000-12-29,8.77837
2001-01-02,8.46342
2001-01-03,8.72445
2001-01-04,8.93156
2001-01-05,8.95362
2001-01-08,9.06147
2001-01-09,8.92298
2001-01-10,9.23794
2001-01-11,8.93892
2001-01-12,9.08475
2001-01-16,9.11539
2001-01-17,9.02348
2001-01-18,8.87764
2001-01-19,8.83965
2001-01-22,8.59455
2001-01-23,8.65582
2001-01-24,8.44871
2001-01-25,8.42542
2001-01-26,8.44871
2001-01-29,8.45606
2001-01-30,8.5541
2001-01-31,8.62151
2001-02-01,8.72077
2001-02-02,8.83597
2001-02-05,8.97691
2001-02-06,8.97691
2001-02-07,8.89725
2001-02-08,8.77837
2001-02-09,8.82617
2001-02-12,8.94627
2001-02-13,9.19137
2001-02-14,9.3078
2001-02-15,9.41564
2001-02-16,9.25878
2001-02-20,9.29554
2001-02-21,9.13132
2001-02-22,9.1975
2001-02-23,9.09088
2001-02-26,9.42422
2001-02-27,9.42912
2001-02-28,9.40829
2001-03-01,9.27716
2001-03-02,9.46834
2001-03-05,9.8029
2001-03-06,9.83232
2001-03-07,10.1608
2001-03-08,10.2588
2001-03-09,10.184
2001-03-12,9.96957
2001-03-13,9.78942
2001-03-14,9.46099
2001-03-15,9.31392
2001-03-16,9.16564
2001-03-19,9.3274
2001-03-20,9.31392
2001-03-21,9.10681
2001-03-22,8.67666
2001-03-23,8.93524
2001-03-26,9.15583
2001-03-27,9.33843
2001-03-28,9.06147
2001-03-29,8.9524
2001-03-30,9.0247
2001-04-02,8.9671
2001-04-03,8.69136
2001-04-04,8.77592
2001-04-05,8.8997
2001-04-06,8.597
2001-04-09,8.73303
2001-04-10,8.90583
2001-04-11,8.7318
2001-04-12,8.76244
2001-04-16,8.61048
2001-04-17,8.97078
2001-04-18,9.16809
2001-04-19,8.86661
2001-04-20,8.70117
2001-04-23,8.72935
2001-04-24,8.75631
2001-04-25,8.70729
2001-04-26,8.9046
2001-04-27,8.85435
2001-04-30,8.7845
2001-05-01,8.722
2001-05-02,8.70117
2001-05-03,8.87274
2001-05-04,8.81391
2001-05-07,8.91073
2001-05-08,8.93034
2001-05-09,9.01122
2001-05-10,9.13622
2001-05-11,9.08353
2001-05-14,9.15093
2001-05-15,9.19505
2001-05-16,9.48427
2001-05-17,9.46711
2001-05-18,9.42422
2001-05-21,9.51368
2001-05-22,9.46834
2001-05-23,9.34456
2001-05-24,9.25265
2001-05-25,9.33476
2001-05-29,9.38378
2001-05-30,9.19137
2001-05-31,9.36417
2001-06-01,9.37152
2001-06-04,9.66565
2001-06-05,9.47202
2001-06-06,9.47324
2001-06-07,9.385
2001-06-08,9.39113
2001-06-11,9.38745
2001-06-12,9.36294
2001-06-13,9.36417
2001-06-14,9.06882
2001-06-15,8.97078
2001-06-18,9.0296
2001-06-19,9.07127
2001-06-20,9.10314
2001-06-21,8.87641
2001-06-22,8.63989
2001-06-25,8.51734
2001-06-26,8.51734
2001-06-27,8.44013
2001-06-28,8.32126
2001-06-29,8.39479
2001-07-02,8.41072
2001-07-03,8.43768
2001-07-05,8.5541
2001-07-06,8.39479
2001-07-09,8.38376
2001-07-10,8.434
2001-07-11,8.38743
2001-07-12,8.49405
2001-07-13,8.36782
2001-07-16,8.24037
2001-07-17,8.27223
2001-07-18,8.22934
2001-07-19,8.34454
2001-07-20,8.31145
2001-07-23,8.14968
2001-07-24,7.90213
2001-07-25,8.15336
2001-07-26,8.21218
2001-07-27,8.10311
2001-07-30,8.15581
2001-07-31,8.14356
2001-08-01,8.059
2001-08-02,8.03326
2001-08-03,8.01243
2001-08-06,7.81144
2001-08-07,7.81144
2001-08-08,7.61658
2001-08-09,7.49526
2001-08-10,7.62884
2001-08-13,7.67663
2001-08-14,7.72075
2001-08-15,7.79428
2001-08-16,7.771
2001-08-17,7.72198
2001-08-20,7.65703
2001-08-21,7.73791
2001-08-22,7.72198
2001-08-23,7.7134
2001-08-24,7.74894
2001-08-27,7.86904
2001-08-28,7.83963
2001-08-29,7.73668
2001-08-30,7.57246
2001-08-31,7.65457
2001-09-04,7.72075
2001-09-05,7.69869
2001-09-06,7.60433
2001-09-07,7.4732
2001-09-10,7.31633
2001-09-17,6.55651
2001-09-18,6.59573
2001-09-19,6.35553
2001-09-20,6.02954
2001-09-21,5.76728
2001-09-24,5.96826
2001-09-25,6.01974
2001-09-26,6.01974
2001-09-27,5.98665
2001-09-28,6.0038
2001-10-01,5.94253
2001-10-02,5.97684
2001-10-03,6.08469
2001-10-04,6.07366
2001-10-05,6.09572
2001-10-08,5.994
2001-10-09,5.97194
2001-10-10,6.1717
2001-10-11,6.35308
2001-10-12,6.29425
2001-10-15,6.18886
2001-10-16,6.19498
2001-10-17,6.01728
2001-10-18,5.94621
2001-10-19,5.89596
2001-10-22,6.06631
2001-10-23,6.05773
2001-10-24,5.92169
2001-10-25,5.94988
2001-10-26,6.05773
2001-10-29,5.92537
2001-10-30,5.75748
2001-10-31,5.80405
2001-11-01,5.96091
2001-11-02,6.05895
2001-11-05,6.07243
2001-11-06,6.20356
2001-11-07,6.20356
2001-11-08,6.20111
2001-11-09,6.25258
2001-11-12,6.13984
2001-11-13,6.29793
2001-11-14,6.31141
2001-11-15,6.29915
2001-11-16,6.3543
2001-11-19,6.43519
2001-11-20,6.40822
2001-11-21,6.35185
2001-11-23,6.47195
2001-11-26,6.41313
2001-11-27,6.47073
2001-11-28,6.48666
2001-11-29,6.44376
2001-11-30,6.58592
2001-12-03,6.52587
2001-12-04,6.58102
2001-12-05,6.87024
2001-12-06,6.90946
2001-12-07,6.88005
2001-12-10,6.74892
2001-12-11,6.79916
2001-12-12,6.73299
2001-12-13,6.62392
2001-12-14,6.64107
2001-12-17,6.72073
2001-12-18,6.90456
2001-12-19,6.95235
2001-12-20,7.10554
2001-12-21,7.09942
2001-12-24,7.15947
2001-12-26,7.32246
2001-12-27,7.22932
2001-12-28,7.27221
2001-12-31,7.23055
2002-01-02,7.75461
2002-01-03,7.99592
2002-01-04,7.96077
2002-01-07,8.06854
2002-01-08,7.97249
2002-01-09,7.98654
2002-01-10,7.85769
2002-01-11,7.74055
2002-01-14,7.63981
2002-01-15,7.50627
2002-01-16,7.35634
2002-01-17,7.41491
2002-01-18,7.40553
2002-01-22,7.34931
2002-01-23,7.60467
2002-01-24,7.73821
2002-01-25,8.0826
2002-01-28,8.14117
2002-01-29,8.13414
2002-01-30,8.32859
2002-01-31,8.40824
2002-02-01,8.27471
2002-02-04,8.08494
2002-02-05,7.90455
2002-02-06,7.78272
2002-02-07,7.77569
2002-02-08,7.77804
2002-02-11,8.00997
2002-02-12,7.9678
2002-02-13,7.96546
2002-02-14,7.95375
2002-02-15,8.00529
2002-02-19,7.92095
2002-02-20,8.09197
2002-02-21,8.36842
2002-02-22,8.44807
2002-02-25,8.55115
2002-02-26,8.64252
2002-02-27,8.7784
2002-02-28,8.84166
2002-03-01,8.78075
2002-03-04,9.09702
2002-03-05,9.03611
2002-03-06,9.13685
2002-03-07,9.0408
2002-03-08,9.01971
2002-03-11,9.05017
2002-03-12,9.15794
2002-03-13,9.12045
2002-03-14,9.16028
2002-03-15,9.13685
2002-03-18,9.15794
2002-03-19,9.23056
2002-03-20,9.07594
2002-03-21,8.96583
2002-03-22,8.79715
2002-03-25,9.0736
2002-03-26,9.61478
2002-03-27,9.80923
2002-03-28,9.83968
2002-04-01,9.67335
2002-04-02,9.57729
2002-04-03,9.28913
2002-04-04,9.06891
2002-04-05,9.24228
2002-04-08,9.30553
2002-04-09,9.33364
2002-04-10,9.37581
2002-04-11,9.39221
2002-04-12,9.42033
2002-04-15,9.28679
2002-04-16,9.44375
2002-04-17,9.4133
2002-04-18,9.3313
2002-04-19,9.28913
2002-04-22,9.10405
2002-04-23,8.94474
2002-04-24,9.00097
2002-04-25,9.0572
2002-04-26,9.0408
2002-04-29,8.88617
2002-04-30,9.06657
2002-05-01,9.07594
2002-05-02,9.10405
2002-05-03,9.24228
2002-05-06,9.08999
2002-05-07,9.09234
2002-05-08,9.21416
2002-05-09,9.06657
2002-05-10,8.95646
2002-05-13,8.93537
2002-05-14,9.12982
2002-05-15,9.16262
2002-05-16,9.03377
2002-05-17,9.04314
2002-05-20,8.92131
2002-05-21,9.02205
2002-05-22,9.01971
2002-05-23,8.18334
2002-05-24,8.15757
2002-05-28,8.1482
2002-05-29,8.20208
2002-05-30,8.24659
2002-05-31,8.31688
2002-06-03,8.12477
2002-06-04,7.90689
2002-06-05,7.86003
2002-06-06,7.24857
2002-06-07,7.47816
2002-06-10,7.52033
2002-06-11,7.30948
2002-06-12,7.35634
2002-06-13,7.01897
2002-06-14,6.95806
2002-06-17,6.77298
2002-06-18,6.78704
2002-06-19,6.63007
2002-06-20,6.78704
2002-06-21,6.79173
2002-06-24,6.86201
2002-06-25,6.82452
2002-06-26,7.00492
2002-06-27,6.93698
2002-06-28,7.07989
2002-07-01,7.09863
2002-07-02,6.85264
2002-07-03,6.78704
2002-07-05,7.01663
2002-07-08,6.93229
2002-07-09,6.80578
2002-07-10,6.50356
2002-07-11,6.46139
2002-07-12,6.45671
2002-07-15,6.30911
2002-07-16,6.21774
2002-07-17,6.33254
2002-07-18,6.08889
2002-07-19,5.80541
2002-07-22,5.6461
2002-07-23,5.50554
2002-07-24,5.85696
2002-07-25,5.64376
2002-07-26,5.55005
2002-07-29,5.85227
2002-07-30,5.7609
2002-07-31,5.76324
2002-08-01,5.80776
2002-08-02,5.62736
2002-08-05,5.55005
2002-08-06,5.75153
2002-08-07,5.89678
2002-08-08,6.03266
2002-08-09,6.15917
2002-08-12,6.0842
2002-08-13,6.07952
2002-08-14,6.29506
2002-08-15,6.22946
2002-08-16,6.32083
2002-08-19,6.49419
2002-08-20,6.38877
2002-08-21,6.60899
2002-08-22,6.76127
2002-08-23,6.6043
2002-08-26,6.79173
2002-08-27,6.74018
2002-08-28,6.53636
2002-08-29,6.56682
2002-08-30,6.63242
2002-09-03,6.35831
2002-09-04,6.50122
2002-09-05,6.36768
2002-09-06,6.60196
2002-09-09,6.68864
2002-09-10,6.79875
2002-09-11,6.81515
2002-09-12,6.76595
2002-09-13,6.79641
2002-09-16,6.75893
2002-09-17,6.62539
2002-09-18,6.59727
2002-09-19,6.35597
2002-09-20,6.54808
2002-09-23,6.46374
2002-09-24,6.26694
2002-09-25,6.45436
2002-09-26,6.44734
2002-09-27,6.1826
2002-09-30,6.05843
2002-10-01,6.38408
2002-10-02,6.05609
2002-10-03,6.03969
2002-10-04,5.91552
2002-10-07,5.96707
2002-10-08,6.30208
2002-10-09,6.04204
2002-10-10,6.30443
2002-10-11,6.51762
2002-10-14,6.52231
2002-10-15,7.12909
2002-10-16,6.76361
2002-10-17,7.08692
2002-10-18,7.07052
2002-10-21,7.50862
2002-10-22,7.27434
2002-10-23,7.41256
2002-10-24,7.18063
2002-10-25,7.39851
2002-10-28,7.19234
2002-10-29,7.08223
2002-10-30,7.1408
2002-10-31,7.19234
2002-11-01,7.2392
2002-11-04,7.12206
2002-11-05,6.91589
2002-11-06,7.01195
2002-11-07,6.77533
2002-11-08,6.48951
2002-11-11,6.29974
2002-11-12,6.42625
2002-11-13,6.29037
2002-11-14,6.45202
2002-11-15,6.56213
2002-11-18,6.45671
2002-11-19,6.39579
2002-11-20,6.44734
2002-11-21,6.59727
2002-11-22,6.40985
2002-11-25,6.42625
2002-11-26,6.33488
2002-11-27,6.61602
2002-11-29,6.63944
2002-12-02,6.52465
2002-12-03,6.45436
2002-12-04,6.31614
2002-12-05,6.27163
2002-12-06,6.3794
2002-12-09,6.25054
2002-12-10,6.32551
2002-12-11,6.36534
2002-12-12,6.37237
2002-12-13,6.25757
2002-12-16,6.48482
2002-12-17,6.54573
2002-12-18,6.29974
2002-12-19,6.30911
2002-12-20,6.30208
2002-12-23,6.30208
2002-12-24,6.26694
2002-12-26,6.363
2002-12-27,6.22009
2002-12-30,6.29506
2002-12-31,6.40985
2003-01-02,6.45436
2003-01-03,6.44031
2003-01-06,6.51293
2003-01-07,6.43562
2003-01-08,6.31145
2003-01-09,6.39579
2003-01-10,6.33722
2003-01-13,6.41688
2003-01-14,6.46139
2003-01-15,6.43796
2003-01-16,6.44968
2003-01-17,6.35362
2003-01-21,6.22477
2003-01-22,6.02798
2003-01-23,6.08889
2003-01-24,5.91787
2003-01-27,5.79136
2003-01-28,5.90147
2003-01-29,4.43957
2003-01-30,4.56608
2003-01-31,4.68322
2003-02-03,4.71836
2003-02-04,4.62699
2003-02-05,4.51688
2003-02-06,4.3318
2003-02-07,4.44426
2003-02-10,4.40677
2003-02-11,4.29666
2003-02-12,4.13267
2003-02-13,4.18421
2003-02-14,4.13267
2003-02-18,4.19827
2003-02-19,4.05301
2003-02-20,3.95696
2003-02-21,3.9593
2003-02-24,3.78594
2003-02-25,3.78125
2003-02-26,3.81405
2003-02-27,3.75079
2003-02-28,3.6524
2003-03-03,3.71799
2003-03-04,3.5868
2003-03-05,3.53526
2003-03-06,3.55869
2003-03-07,3.56571
2003-03-10,3.4392
2003-03-11,3.38766
2003-03-12,3.38532
2003-03-13,3.43218
2003-03-14,3.52589
2003-03-17,3.63131
2003-03-18,3.69925
2003-03-19,3.71331
2003-03-20,3.73908
2003-03-21,3.84919
2003-03-24,3.70394
2003-03-25,3.75314
2003-03-26,3.69691
2003-03-27,3.68051
2003-03-28,3.71097
2003-03-31,3.67348
2003-04-01,3.74611
2003-04-02,3.8937
2003-04-03,3.86559
2003-04-04,3.81639
2003-04-07,3.91713
2003-04-08,3.86325
2003-04-09,3.80702
2003-04-10,3.82811
2003-04-11,3.83748
2003-04-14,3.9757
2003-04-15,3.98039
2003-04-16,3.9265
2003-04-17,3.99679
2003-04-21,4.02959
2003-04-22,4.09987
2003-04-23,4.13735
2003-04-24,4.21701
2003-04-25,4.10221
2003-04-28,4.25449
2003-04-29,4.17484
2003-04-30,4.25449
2003-05-01,4.33649
2003-05-02,4.53328
2003-05-05,4.5122
2003-05-06,4.4958
2003-05-07,4.57545
2003-05-08,4.47237
2003-05-09,4.58717
2003-05-12,4.64339
2003-05-13,4.62699
2003-05-14,4.6106
2003-05-15,4.63637
2003-05-16,4.60825
2003-05-19,4.43957
2003-05-20,4.48877
2003-05-21,4.56374
2003-05-22,4.51923
2003-05-23,4.5286
2003-05-27,4.66448
2003-05-28,4.74882
2003-05-29,4.64574
2003-05-30,4.87064
2003-06-02,4.91047
2003-06-03,4.8519
2003-06-04,4.90344
2003-06-05,4.88704
2003-06-06,4.90579
2003-06-09,4.78162
2003-06-10,4.77459
2003-06-11,4.78162
2003-06-12,4.80036
2003-06-13,4.8027
2003-06-16,4.9667
2003-06-17,5.02761
2003-06-18,5.02292
2003-06-19,5.15412
2003-06-20,5.19395
2003-06-23,5.09789
2003-06-24,5.18223
2003-06-25,5.17286
2003-06-26,5.32983
2003-06-27,5.28297
2003-06-30,5.29937
2003-07-01,5.40948
2003-07-02,5.49148
2003-07-03,5.44697
2003-07-07,5.50085
2003-07-08,5.52897
2003-07-09,5.56879
2003-07-10,5.4868
2003-07-11,5.51491
2003-07-14,5.50319
2003-07-15,5.48445
2003-07-16,5.48211
2003-07-17,5.40246
2003-07-18,5.52662
2003-07-21,5.44228
2003-07-22,5.60862
2003-07-23,5.57816
2003-07-24,5.62033
2003-07-25,5.6461
2003-07-28,5.78199
2003-07-29,5.6953
2003-07-30,5.62268
2003-07-31,5.60159
2003-08-01,5.60628
2003-08-04,5.53131
2003-08-05,5.36029
2003-08-06,5.43291
2003-08-07,5.38137
2003-08-08,5.44931
2003-08-11,5.49148
2003-08-12,5.60393
2003-08-13,5.57114
2003-08-14,5.61565
2003-08-15,5.59925
2003-08-18,5.66719
2003-08-19,5.67188
2003-08-20,5.7281
2003-08-21,5.79839
2003-08-22,5.73513
2003-08-25,5.74919
2003-08-26,5.71405
2003-08-27,5.73982
2003-08-28,5.73044
2003-08-29,5.83118
2003-09-02,5.91552
2003-09-03,5.98112
2003-09-04,6.09123
2003-09-05,6.20837
2003-09-08,6.31848
2003-09-09,6.38408
2003-09-10,6.30208
2003-09-11,6.25757
2003-09-12,6.24117
2003-09-15,6.41219
2003-09-16,6.42157
2003-09-17,6.31614
2003-09-18,6.30677
2003-09-19,6.31614
2003-09-22,6.20837
2003-09-23,6.25289
2003-09-24,6.06781
2003-09-25,5.99518
2003-09-26,5.93661
2003-09-29,5.9249
2003-09-30,5.90381
2003-10-01,6.06546
2003-10-02,6.07249
2003-10-03,6.25757
2003-10-06,6.281
2003-10-07,6.3302
2003-10-08,6.39111
2003-10-09,6.43562
2003-10-10,6.42859
2003-10-13,6.51528
2003-10-14,6.58087
2003-10-15,6.63242
2003-10-16,6.55276
2003-10-17,6.50122
2003-10-20,6.47779
2003-10-21,6.44734
2003-10-22,6.35597
2003-10-23,6.32785
2003-10-24,6.31145
2003-10-27,6.45671
2003-10-28,6.58087
2003-10-29,6.64647
2003-10-30,6.64413
2003-10-31,6.56448
2003-11-03,6.76595
2003-11-04,6.67693
2003-11-05,6.78938
2003-11-06,7.04943
2003-11-07,6.75658
2003-11-10,6.6699
2003-11-11,6.54105
2003-11-12,6.8175
2003-11-13,6.93463
2003-11-14,6.78938
2003-11-17,6.7191
2003-11-18,6.70504
2003-11-19,6.80812
2003-11-20,6.79407
2003-11-21,6.78001
2003-11-24,6.86435
2003-11-25,6.96743
2003-11-26,7.04943
2003-11-28,7.01429
2003-12-01,7.12206
2003-12-02,7.15954
2003-12-03,7.20874
2003-12-04,7.32822
2003-12-05,7.34228
2003-12-08,7.41725
2003-12-09,7.4477
2003-12-10,7.40319
2003-12-11,7.47113
2003-12-12,7.69838
2003-12-15,7.71947
2003-12-16,7.68432
2003-12-17,7.63044
2003-12-18,7.83895
2003-12-19,7.83192
2003-12-22,7.94437
2003-12-23,7.98889
2003-12-24,7.95375
2003-12-26,7.99592
2003-12-29,8.07791
2003-12-30,8.1482
2003-12-31,8.00763
2004-01-02,8.02169
2004-01-05,8.03808
2004-01-06,8.06854
2004-01-07,8.05683
2004-01-08,8.18802
2004-01-09,7.99826
2004-01-12,8.1482
2004-01-13,8.05214
2004-01-14,8.07791
2004-01-15,7.90689
2004-01-16,7.90455
2004-01-20,7.89049
2004-01-21,7.9022
2004-01-22,7.94203
2004-01-23,7.92563
2004-01-26,7.96546
2004-01-27,8.07791
2004-01-28,8.09197
2004-01-29,7.99123
2004-01-30,8.0006
2004-02-02,7.88815
2004-02-03,7.76867
2004-02-04,7.8694
2004-02-05,8.10603
2004-02-06,8.27939
2004-02-09,8.39653
2004-02-10,8.61675
2004-02-11,8.79246
2004-02-12,8.90023
2004-02-13,8.82292
2004-02-17,9.13451
2004-02-18,8.48087
2004-02-19,8.65892
2004-02-20,8.60504
2004-02-23,8.61675
2004-02-24,8.63081
2004-02-25,8.69172
2004-02-26,8.88617
2004-02-27,8.78075
2004-03-01,9.14856
2004-03-02,9.15794
2004-03-03,9.12045
2004-03-04,9.18839
2004-03-05,9.30085
2004-03-08,9.23759
2004-03-09,9.06657
2004-03-10,8.72218
2004-03-11,8.68469
2004-03-12,8.9588
2004-03-15,8.60504
2004-03-16,8.71281
2004-03-17,8.77372
2004-03-18,8.77606
2004-03-19,8.73155
2004-03-22,8.56287
2004-03-23,8.59567
2004-03-24,8.46681
2004-03-25,8.6027
2004-03-26,8.68704
2004-03-29,9.86077
2004-03-30,10.1114
2004-03-31,10.0412
2004-04-01,9.98962
2004-04-02,10.0763
2004-04-05,10.1677
2004-04-06,10.1583
2004-04-07,10.1677
2004-04-08,10.0763
2004-04-12,10.1606
2004-04-13,9.89357
2004-04-14,9.89123
2004-04-15,9.82094
2004-04-16,9.95917
2004-04-19,10.2801
2004-04-20,9.9006
2004-04-21,10.1325
2004-04-22,10.4839
2004-04-23,10.334
2004-04-26,10.341
2004-04-27,10.2356
2004-04-28,9.84906
2004-04-29,10.0084
2004-04-30,10.0482
2004-05-03,10.0248
2004-05-04,10.0271
2004-05-05,9.97088
2004-05-06,9.73895
2004-05-07,9.38987
2004-05-10,9.16965
2004-05-11,9.56792
2004-05-12,9.29616
2004-05-13,9.46718
2004-05-14,9.35239
2004-05-17,9.24228
2004-05-18,9.36879
2004-05-19,9.32662
2004-05-20,9.18371
2004-05-21,9.14388
2004-05-24,9.17668
2004-05-25,9.18371
2004-05-26,9.21416
2004-05-27,9.42735
2004-05-28,9.49764
2004-06-01,9.64289
2004-06-02,9.75769
2004-06-03,9.59369
2004-06-04,9.74597
2004-06-07,9.90294
2004-06-08,9.87248
2004-06-09,9.77877
2004-06-10,9.73895
2004-06-14,9.63118
2004-06-15,9.56558
2004-06-16,9.671
2004-06-17,9.69443
2004-06-18,9.81157
2004-06-21,9.6874
2004-06-22,9.47421
2004-06-23,9.72255
2004-06-24,9.83266
2004-06-25,10.0904
2004-06-28,10.0341
2004-06-29,10.1208
2004-06-30,10.095
2004-07-01,9.85843
2004-07-02,9.83031
2004-07-06,9.74597
2004-07-07,9.69677
2004-07-08,9.61243
2004-07-09,9.71083
2004-07-12,9.49061
2004-07-13,9.51169
2004-07-14,9.48592
2004-07-15,9.46015
2004-07-16,9.35941
2004-07-19,9.40158
2004-07-20,9.40627
2004-07-21,9.2493
2004-07-22,9.3313
2004-07-23,9.2001
2004-07-26,9.06422
2004-07-27,9.19308
2004-07-28,10.2192
2004-07-29,10.3434
2004-07-30,10.2942
2004-08-02,10.2684
2004-08-03,10.2637
2004-08-04,10.2286
2004-08-05,10.081
2004-08-06,9.77174
2004-08-09,9.75769
2004-08-10,10.0857
2004-08-11,10.0997
2004-08-12,9.94745
2004-08-13,9.84203
2004-08-16,9.96151
2004-08-17,9.98962
2004-08-18,10.0131
2004-08-19,10.081
2004-08-20,10.2942
2004-08-23,10.32
2004-08-24,10.7581
2004-08-25,10.7909
2004-08-26,10.8635
2004-08-27,10.7534
2004-08-30,10.5987
2004-08-31,10.8166
2004-09-01,10.7299
2004-09-02,10.9759
2004-09-03,10.8565
2004-09-07,10.9525
2004-09-08,10.9408
2004-09-09,11.1259
2004-09-10,10.9923
2004-09-13,10.99
2004-09-14,10.8588
2004-09-15,10.8073
2004-09-16,10.8986
2004-09-17,10.8354
2004-09-20,10.8705
2004-09-21,11.0439
2004-09-22,10.7955
2004-09-23,10.9057
2004-09-24,11.0579
2004-09-27,10.8822
2004-09-28,11.5124
2004-09-29,11.3461
2004-09-30,11.3648
2004-10-01,11.4796
2004-10-04,11.4539
2004-10-05,11.4328
2004-10-06,11.5851
2004-10-07,11.3976
2004-10-08,11.2875
2004-10-11,11.2782
2004-10-12,11.1751
2004-10-13,10.7862
2004-10-14,10.901
2004-10-15,11.1868
2004-10-18,11.0954
2004-10-19,10.8283
2004-10-20,11.1165
2004-10-21,11.065
2004-10-22,10.9478
2004-10-25,11.1118
2004-10-26,11.4492
2004-10-27,10.3364
2004-10-28,10.3668
2004-10-29,10.2637
2004-11-01,10.3738
2004-11-02,10.2989
2004-11-03,10.5074
2004-11-04,10.7932
2004-11-05,10.8705
2004-11-08,10.8283
2004-11-09,11.0486
2004-11-10,11.0814
2004-11-11,11.2407
2004-11-12,11.3648
2004-11-15,11.3508
2004-11-16,11.1938
2004-11-17,11.3367
2004-11-18,11.4539
2004-11-19,11.3555
2004-11-22,11.3156
2004-11-23,11.407
2004-11-24,11.5523
2004-11-26,11.5077
2004-11-29,11.6483
2004-11-30,11.6015
2004-12-01,11.7092
2004-12-02,11.5195
2004-12-03,11.4632
2004-12-06,11.1727
2004-12-07,10.99
2004-12-08,11.1376
2004-12-09,10.9502
2004-12-10,10.9642
2004-12-13,11.1235
2004-12-14,11.1493
2004-12-15,11.3555
2004-12-16,11.2735
2004-12-17,11.2594
2004-12-20,11.2383
2004-12-21,11.3367
2004-12-22,11.3742
2004-12-23,11.4867
2004-12-27,11.2875
2004-12-28,11.4749
2004-12-29,11.3883
2004-12-30,11.3297
2004-12-31,11.3086
2005-01-03,11.1188
2005-01-04,10.6245
2005-01-05,10.3902
2005-01-06,10.5659
2005-01-07,10.5285
2005-01-10,10.498
2005-01-11,10.3996
2005-01-12,10.4512
2005-01-13,10.4605
2005-01-14,10.5753
2005-01-18,10.7089
2005-01-19,10.5964
2005-01-20,10.4793
2005-01-21,10.423
2005-01-24,10.17
2005-01-25,10.1958
2005-01-26,10.3902
2005-01-27,10.3551
2005-01-28,10.8986
2005-01-31,11.0696
2005-02-01,11.2547
2005-02-02,11.3086
2005-02-03,11.0626
2005-02-04,11.2758
2005-02-07,11.1915
2005-02-08,11.154
2005-02-09,10.9197
2005-02-10,10.7393
2005-02-11,10.9525
2005-02-14,11.2196
2005-02-15,11.3063
2005-02-16,11.3883
2005-02-17,11.2571
2005-02-18,11.2969
2005-02-22,11.1774
2005-02-23,11.2899
2005-02-24,11.5148
2005-02-25,11.728
2005-02-28,11.5405
2005-03-01,12.0747
2005-03-02,11.8474
2005-03-03,11.8709
2005-03-04,12.1684
2005-03-07,12.0817
2005-03-08,12.0068
2005-03-09,12.145
2005-03-10,12.0747
2005-03-11,12.1309
2005-03-14,12.1403
2005-03-15,12.1848
2005-03-16,11.8826
2005-03-17,12.0817
2005-03-18,12.0653
2005-03-21,12.0091
2005-03-22,11.9786
2005-03-23,11.6577
2005-03-24,13.1008
2005-03-28,12.7002
2005-03-29,12.391
2005-03-30,12.5058
2005-03-31,12.5222
2005-04-01,12.4519
2005-04-04,12.5292
2005-04-05,12.6627
2005-04-06,12.4777
2005-04-07,12.5222
2005-04-08,12.1965
2005-04-11,12.1098
2005-04-12,12.3019
2005-04-13,11.7444
2005-04-14,11.5405
2005-04-15,11.2454
2005-04-18,11.3625
2005-04-19,11.5733
2005-04-20,11.4773
2005-04-21,11.7022
2005-04-22,11.4703
2005-04-25,11.6741
2005-04-26,11.4398
2005-04-27,11.2992
2005-04-28,11.1563
2005-04-29,11.4726
2005-05-02,11.571
2005-05-03,11.8732
2005-05-04,12.1497
2005-05-05,12.1708
2005-05-06,12.2059
2005-05-09,12.5128
2005-05-10,12.4191
2005-05-11,12.5807
2005-05-12,12.1825
2005-05-13,12.0325
2005-05-16,12.3207
2005-05-17,12.6557
2005-05-18,12.9579
2005-05-19,12.9673
2005-05-20,12.9204
2005-05-23,13.0235
2005-05-24,13.1055
2005-05-25,12.8103
2005-05-26,13.0329
2005-05-27,13.1196
2005-05-31,13.0212
2005-06-01,13.396
2005-06-02,13.1992
2005-06-03,13.2156
2005-06-06,13.1594
2005-06-07,13.1126
2005-06-08,12.9087
2005-06-09,13.047
2005-06-10,13.1102
2005-06-13,13.2789
2005-06-14,13.4405
2005-06-15,13.6186
2005-06-16,13.5717
2005-06-17,13.4523
2005-06-20,13.3445
2005-06-21,13.1336
2005-06-22,13.143
2005-06-23,12.9556
2005-06-24,12.9368
2005-06-27,13.1079
2005-06-28,13.2929
2005-06-29,13.3234
2005-06-30,13.1664
2005-07-01,13.2531
2005-07-05,13.3187
2005-07-06,13.4054
2005-07-07,13.389
2005-07-08,13.7732
2005-07-11,14.1879
2005-07-12,14.2019
2005-07-13,14.0661
2005-07-14,14.1973
2005-07-15,14.1855
2005-07-18,14.2886
2005-07-19,14.4924
2005-07-20,14.626
2005-07-21,14.6072
2005-07-22,14.6658
2005-07-25,14.5721
2005-07-26,14.1012
2005-07-27,14.0403
2005-07-28,14.2886
2005-07-29,14.1691
2005-08-01,14.2582
2005-08-02,14.3121
2005-08-03,14.6143
2005-08-04,14.2863
2005-08-05,14.2254
2005-08-08,14.2746
2005-08-09,14.223
2005-08-10,14.1434
2005-08-11,14.3121
2005-08-12,14.1129
2005-08-15,14.0216
2005-08-16,13.8482
2005-08-17,13.7076
2005-08-18,13.5577
2005-08-19,13.5553
2005-08-22,13.4476
2005-08-23,13.3328
2005-08-24,13.2625
2005-08-25,13.1336
2005-08-26,13.1969
2005-08-29,13.1313
2005-08-30,13.143
2005-08-31,13.3304
2005-09-01,13.4265
2005-09-02,13.2672
2005-09-06,13.4335
2005-09-07,13.5436
2005-09-08,13.5741
2005-09-09,13.7709
2005-09-12,13.7849
2005-09-13,13.7896
2005-09-14,13.7615
2005-09-15,13.4991
2005-09-16,13.5905
2005-09-19,13.464
2005-09-20,13.1758
2005-09-21,12.9603
2005-09-22,13.1383
2005-09-23,13.143
2005-09-26,13.15
2005-09-27,13.1899
2005-09-28,13.15
2005-09-29,13.0844
2005-09-30,13.3937
2005-10-03,13.232
2005-10-04,12.9907
2005-10-05,12.4613
2005-10-06,12.2645
2005-10-07,12.3957
2005-10-10,12.1637
2005-10-11,12.2481
2005-10-12,11.8826
2005-10-13,11.9435
2005-10-14,11.906
2005-10-17,11.9599
2005-10-18,11.9107
2005-10-19,12.0091
2005-10-20,12.0419
2005-10-21,12.0888
2005-10-24,12.4425
2005-10-25,12.2785
2005-10-26,12.2738
2005-10-27,12.1754
2005-10-28,12.5245
2005-10-31,12.7541
2005-11-01,12.8197
2005-11-02,12.7869
2005-11-03,12.0349
2005-11-04,12.07
2005-11-07,11.899
2005-11-08,11.7233
2005-11-09,11.8404
2005-11-10,11.9786
2005-11-11,12.0653
2005-11-14,11.653
2005-11-15,11.6717
2005-11-16,11.5523
2005-11-17,11.5429
2005-11-18,11.5452
2005-11-21,11.5359
2005-11-22,11.8006
2005-11-23,12.3465
2005-11-25,12.3722
2005-11-28,12.309
2005-11-29,12.4214
2005-11-30,12.4753
2005-12-01,12.8853
2005-12-02,12.9814
2005-12-05,12.6979
2005-12-06,12.7963
2005-12-07,12.5526
2005-12-08,12.5761
2005-12-09,12.6604
2005-12-12,12.6042
2005-12-13,12.7283
2005-12-14,12.5948
2005-12-15,12.4683
2005-12-16,12.3511
2005-12-19,12.1614
2005-12-20,12.2574
2005-12-21,12.3301
2005-12-22,12.5925
2005-12-23,12.562
2005-12-27,12.4519
2005-12-28,12.3839
2005-12-29,12.6135
2005-12-30,12.4542
2006-01-03,12.6581
2006-01-04,12.7424
2006-01-05,12.8103
2006-01-06,12.9064
2006-01-09,12.8291
2006-01-10,12.7447
2006-01-11,12.6581
2006-01-12,12.6744
2006-01-13,12.7213
2006-01-17,12.6885
2006-01-18,12.5479
2006-01-19,12.48
2006-01-20,12.241
2006-01-23,12.3746
2006-01-24,12.5854
2006-01-25,12.7447
2006-01-26,12.8291
2006-01-27,13.0516
2006-01-30,13.136
2006-01-31,13.2156
2006-02-01,13.4897
2006-02-02,13.314
2006-02-03,13.2109
2006-02-06,13.3632
2006-02-07,13.8669
2006-02-08,13.7756
2006-02-09,13.9817
2006-02-10,14.0403
2006-02-13,13.9911
2006-02-14,14.1246
2006-02-15,14.3378
2006-02-16,14.5042
2006-02-17,14.6471
2006-02-21,14.462
2006-02-22,14.5299
2006-02-23,14.6518
2006-02-24,14.3495
2006-02-27,14.4737
2006-02-28,14.2441
2006-03-01,14.5065
2006-03-02,14.373
2006-03-03,14.3894
2006-03-06,14.2207
2006-03-07,14.1176
2006-03-08,14.1832
2006-03-09,14.1527
2006-03-10,14.305
2006-03-13,14.2605
2006-03-14,14.4362
2006-03-15,14.4948
2006-03-16,14.6892
2006-03-17,14.6283
2006-03-20,14.5791
2006-03-21,14.4503
2006-03-22,14.5182
2006-03-23,14.6049
2006-03-24,14.5252
2006-03-27,14.4737
2006-03-28,14.3238
2006-03-29,14.6081
2006-03-30,14.594
2006-03-31,14.5282
2006-04-03,14.3896
2006-04-04,14.5211
2006-04-05,14.4342
2006-04-06,14.6245
2006-04-07,14.5658
2006-04-10,14.5258
2006-04-11,14.5141
2006-04-12,14.5705
2006-04-13,14.6527
2006-04-17,14.6104
2006-04-18,14.89
2006-04-19,15.0968
2006-04-20,15.0804
2006-04-21,14.9629
2006-04-24,14.8384
2006-04-25,14.8501
2006-04-26,14.6739
2006-04-27,15.4422
2006-04-28,14.9276
2006-05-01,14.8736
2006-05-02,15.0099
2006-05-03,15.0287
2006-05-04,15.2754
2006-05-05,15.5315
2006-05-08,15.4234
2006-05-09,15.4939
2006-05-10,15.4892
2006-05-11,15.4657
2006-05-12,15.2214
2006-05-15,15.1438
2006-05-16,15.1885
2006-05-17,14.89
2006-05-18,14.8877
2006-05-19,14.8431
2006-05-22,14.6081
2006-05-23,14.5846
2006-05-24,14.6457
2006-05-25,14.8712
2006-05-26,14.9699
2006-05-30,14.7303
2006-05-31,15.1579
2006-06-01,15.2284
2006-06-02,15.6161
2006-06-05,15.3694
2006-06-06,15.2425
2006-06-07,14.8971
2006-06-08,14.6692
2006-06-09,14.6527
2006-06-12,14.7444
2006-06-13,14.4413
2006-06-14,14.4013
2006-06-15,14.9934
2006-06-16,15.0146
2006-06-19,14.8971
2006-06-20,14.8971
2006-06-21,15.0851
2006-06-22,15.031
2006-06-23,15.0193
2006-06-26,14.9981
2006-06-27,14.695
2006-06-28,14.7162
2006-06-29,15.1993
2006-06-30,15.2252
2006-07-03,15.3407
2006-07-05,15.3054
2006-07-06,15.2488
2006-07-07,15.1451
2006-07-10,15.2135
2006-07-11,15.2441
2006-07-12,15.0839
2006-07-13,14.8081
2006-07-14,14.5301
2006-07-17,14.4688
2006-07-18,14.4782
2006-07-19,14.7445
2006-07-20,14.4005
2006-07-21,14.2379
2006-07-24,14.5277
2006-07-25,14.7539
2006-07-26,14.7045
2006-07-27,14.5348
2006-07-28,14.7092
2006-07-31,14.5419
2006-08-01,14.3769
2006-08-02,13.4838
2006-08-03,13.8585
2006-08-04,13.8632
2006-08-07,13.8137
2006-08-08,13.505
2006-08-09,13.5498
2006-08-10,13.6723
2006-08-11,13.7595
2006-08-14,14.0234
2006-08-15,14.2167
2006-08-16,14.4971
2006-08-17,14.4665
2006-08-18,14.523
2006-08-21,14.4594
2006-08-22,14.5631
2006-08-23,14.5866
2006-08-24,14.2072
2006-08-25,14.212
2006-08-28,14.2355
2006-08-29,14.1672
2006-08-30,14.4288
2006-08-31,14.4075
2006-09-01,14.4924
2006-09-05,14.6243
2006-09-06,14.3581
2006-09-07,14.2237
2006-09-08,14.5442
2006-09-11,14.4123
2006-09-12,14.721
2006-09-13,14.6833
2006-09-14,14.7375
2006-09-15,14.7728
2006-09-18,14.7115
2006-09-19,14.6243
2006-09-20,14.7045
2006-09-21,14.6291
2006-09-22,14.5136
2006-09-25,14.523
2006-09-26,14.9354
2006-09-27,15.1055
2006-09-28,15.167
2006-09-29,15.1339
2006-10-02,15.2544
2006-10-03,15.349
2006-10-04,15.5616
2006-10-05,15.9185
2006-10-06,15.8523
2006-10-09,15.8381
2006-10-10,15.9421
2006-10-11,15.7507
2006-10-12,16.0697
2006-10-13,16.1075
2006-10-16,16.1359
2006-10-17,16.0768
2006-10-18,16.0556
2006-10-19,16.2517
2006-10-20,16.1075
2006-10-23,16.1808
2006-10-24,16.306
2006-10-25,16.2824
2006-10-26,16.4927
2006-10-27,16.2824
2006-10-30,16.299
2006-10-31,16.1879
2006-11-01,15.9799
2006-11-02,16.3391
2006-11-03,16.1973
2006-11-06,16.2895
2006-11-07,16.4455
2006-11-08,16.5636
2006-11-09,16.5542
2006-11-10,16.4478
2006-11-13,16.5636
2006-11-14,16.5636
2006-11-15,16.5329
2006-11-16,16.5849
2006-11-17,16.5447
2006-11-20,16.7621
2006-11-21,16.8496
2006-11-22,16.9937
2006-11-24,16.9158
2006-11-27,16.7007
2006-11-28,16.6605
2006-11-29,16.7763
2006-11-30,16.748
2006-12-01,16.833
2006-12-04,16.8827
2006-12-05,16.8945
2006-12-06,17.0174
2006-12-07,17.1308
2006-12-08,17.2371
2006-12-11,17.3151
2006-12-12,17.3577
2006-12-13,17.4286
2006-12-14,17.6507
2006-12-15,17.7665
2006-12-18,17.7122
2006-12-19,17.8469
2006-12-20,17.9981
2006-12-21,17.7689
2006-12-22,17.6932
2006-12-26,17.9816
2006-12-27,18.2776
2006-12-28,18.2705
2006-12-29,18.0787
2007-01-03,18.1095
2007-01-04,17.901
2007-01-05,17.5907
2007-01-08,17.4344
2007-01-09,17.4936
2007-01-10,17.5788
2007-01-11,17.946
2007-01-12,18.3653
2007-01-16,18.1213
2007-01-17,18.1474
2007-01-18,18.1853
2007-01-19,18.2776
2007-01-22,18.01
2007-01-23,18.3487
2007-01-24,18.5832
2007-01-25,18.2919
2007-01-26,18.1545
2007-01-29,18.2942
2007-01-30,18.4695
2007-01-31,18.4411
2007-02-01,18.7893
2007-02-02,18.2516
2007-02-05,18.524
2007-02-06,18.704
2007-02-07,17.9744
2007-02-08,17.4841
2007-02-09,17.2472
2007-02-12,17.2377
2007-02-13,17.4604
2007-02-14,17.4912
2007-02-15,17.7068
2007-02-16,17.9105
2007-02-20,18.0881
2007-02-21,18.5169
2007-02-22,18.3795
2007-02-23,18.209
2007-02-26,18.0029
2007-02-27,17.4936
2007-02-28,17.4367
2007-03-01,17.4154
2007-03-02,17.2401
2007-03-05,16.8966
2007-03-06,17.2448
2007-03-07,17.3301
2007-03-08,17.3846
2007-03-09,17.5409
2007-03-12,17.6878
2007-03-13,17.297
2007-03-14,17.3064
2007-03-15,17.6475
2007-03-16,17.5599
2007-03-19,17.7494
2007-03-20,17.9034
2007-03-21,18.2397
2007-03-22,18.3653
2007-03-23,18.4624
2007-03-26,18.3606
2007-03-27,18.0858
2007-03-28,17.9267
2007-03-29,17.8436
2007-03-30,17.9077
2007-04-02,17.8887
2007-04-03,17.9291
2007-04-04,17.8697
2007-04-05,17.8388
2007-04-09,17.7795
2007-04-10,17.6275
2007-04-11,17.5349
2007-04-12,17.6821
2007-04-13,17.7771
2007-04-16,18.157
2007-04-17,18.0834
2007-04-18,18.0977
2007-04-19,18.0454
2007-04-20,18.1238
2007-04-23,18.0929
2007-04-24,18.1428
2007-04-25,18.3755
2007-04-26,18.3493
2007-04-27,18.3185
2007-04-30,18.2496
2007-05-01,19.3869
2007-05-02,19.6671
2007-05-03,19.7241
2007-05-04,19.7289
2007-05-07,19.8713
2007-05-08,19.9758
2007-05-09,20.1349
2007-05-10,20.1919
2007-05-11,20.1752
2007-05-14,19.9283
2007-05-15,19.8048
2007-05-16,20.009
2007-05-17,20.085
2007-05-18,20.1776
2007-05-21,20.3866
2007-05-22,20.1871
2007-05-23,20.0542
2007-05-24,19.6481
2007-05-25,19.9022
2007-05-29,20.0162
2007-05-30,20.0138
2007-05-31,19.8238
2007-06-01,20.1563
2007-06-04,20.4198
2007-06-05,20.5646
2007-06-06,20.1373
2007-06-07,19.8571
2007-06-08,20.1752
2007-06-11,20.1705
2007-06-12,19.8262
2007-06-13,20.3367
2007-06-14,20.4174
2007-06-15,20.4697
2007-06-18,20.681
2007-06-19,20.6406
2007-06-20,20.4649
2007-06-21,20.4578
2007-06-22,20.2417
2007-06-25,21.0253
2007-06-26,21.0989
2007-06-27,21.0965
2007-06-28,21.0156
2007-06-29,21.2583
2007-07-02,21.4178
2007-07-03,21.4154
2007-07-05,21.5225
2007-07-06,21.613
2007-07-09,21.6772
2007-07-10,21.4844
2007-07-11,21.5368
2007-07-12,21.7748
2007-07-13,21.8319
2007-07-16,21.8724
2007-07-17,22.2318
2007-07-18,22.2532
2007-07-19,22.465
2007-07-20,22.0009
2007-07-23,21.9057
2007-07-24,21.7129
2007-07-25,21.6772
2007-07-26,21.0608
2007-07-27,20.8775
2007-07-30,21.2345
2007-07-31,21.2417
2007-08-01,21.3821
2007-08-02,21.582
2007-08-03,21.2322
2007-08-06,21.4249
2007-08-07,21.2345
2007-08-08,21.037
2007-08-09,20.0255
2007-08-10,20.2349
2007-08-13,21.3964
2007-08-14,21.0346
2007-08-15,20.5277
2007-08-16,20.4682
2007-08-17,20.7062
2007-08-20,20.8442
2007-08-21,20.611
2007-08-22,20.7538
2007-08-23,20.899
2007-08-24,20.8918
2007-08-27,21.0322
2007-08-28,20.6157
2007-08-29,21.0751
2007-08-30,21.0037
2007-08-31,21.3892
2007-09-04,21.8438
2007-09-05,21.7653
2007-09-06,21.8057
2007-09-07,21.4202
2007-09-10,21.3583
2007-09-11,21.3416
2007-09-12,21.8938
2007-09-13,22.2532
2007-09-14,22.4008
2007-09-17,22.5483
2007-09-18,23.5146
2007-09-19,24.1001
2007-09-20,24.2238
2007-09-21,24.2476
2007-09-24,23.8573
2007-09-25,23.9906
2007-09-26,24.6084
2007-09-27,24.8469
2007-09-28,24.8469
2007-10-01,24.9853
2007-10-02,24.8565
2007-10-03,25.0139
2007-10-04,25.033
2007-10-05,25.033
2007-10-08,24.8708
2007-10-09,25.1522
2007-10-10,24.9948
2007-10-11,24.9853
2007-10-12,25.2142
2007-10-15,25.157
2007-10-16,25.1665
2007-10-17,25.1808
2007-10-18,25.4098
2007-10-19,25.1188
2007-10-22,25.0091
2007-10-23,25.2905
2007-10-24,25.4193
2007-10-25,25.281
2007-10-26,25.6483
2007-10-29,26.7311
2007-10-30,27.065
2007-10-31,27.2272
2007-11-01,26.5832
2007-11-02,27.1413
2007-11-05,27.0888
2007-11-06,28.0953
2007-11-07,27.1413
2007-11-08,27.1318
2007-11-09,26.3447
2007-11-12,25.4527
2007-11-13,25.343
2007-11-14,25.3239
2007-11-15,24.8899
2007-11-16,24.8899
2007-11-19,24.6418
2007-11-20,24.8183
2007-11-21,24.3699
2007-11-23,24.8803
2007-11-26,24.3032
2007-11-27,24.494
2007-11-28,25.7437
2007-11-29,25.9631
2007-11-30,26.0347
2007-12-03,26.3829
2007-12-04,26.4258
2007-12-05,25.9917
2007-12-06,26.2779
2007-12-07,26.049
2007-12-10,25.9536
2007-12-11,25.0043
2007-12-12,25.2715
2007-12-13,25.6435
2007-12-14,25.6054
2007-12-17,25.4813
2007-12-18,25.7342
2007-12-19,25.6626
2007-12-20,26.0537
2007-12-21,26.0251
2007-12-24,26.2112
2007-12-26,26.3447
2007-12-27,26.1127
2007-12-28,26.2513
2007-12-31,26.0458
2008-01-02,25.7591
2008-01-03,26.1558
2008-01-04,25.3624
2008-01-07,25.2525
2008-01-08,25.09
2008-01-09,24.918
2008-01-10,24.9323
2008-01-11,24.8893
2008-01-14,25.5488
2008-01-15,24.9897
2008-01-16,25.2047
2008-01-17,24.6742
2008-01-18,23.8809
2008-01-22,23.3887
2008-01-23,23.1593
2008-01-24,24.1533
2008-01-25,24.1342
2008-01-28,24.507
2008-01-29,24.5691
2008-01-30,24.3779
2008-01-31,25.4054
2008-02-01,25.5345
2008-02-04,25.3577
2008-02-05,24.7029
2008-02-06,24.8224
2008-02-07,23.9526
2008-02-08,23.8379
2008-02-11,24.6504
2008-02-12,24.9753
2008-02-13,25.5679
2008-02-14,26.194
2008-02-15,26.4377
2008-02-19,26.4951
2008-02-20,26.8009
2008-02-21,26.6241
2008-02-22,26.9873
2008-02-25,27.8667
2008-02-26,28.3637
2008-02-27,28.2203
2008-02-28,28.3541
2008-02-29,27.1498
2008-03-03,27.4604
2008-03-04,27.3218
2008-03-05,27.8284
2008-03-06,27.2263
2008-03-07,25.912
2008-03-10,25.1139
2008-03-11,26.2943
2008-03-12,26.7675
2008-03-13,27.2502
2008-03-14,26.8678
2008-03-17,26.3947
2008-03-18,27.0829
2008-03-19,25.8833
2008-03-20,26.1844
2008-03-24,26.9825
2008-03-25,27.6086
2008-03-26,27.384
2008-03-27,26.7112
2008-03-28,26.7256
2008-03-31,26.5436
2008-04-01,27.4054
2008-04-02,27.7118
2008-04-03,27.8507
2008-04-04,28.1571
2008-04-07,28.9375
2008-04-08,29.0141
2008-04-09,28.6311
2008-04-10,28.8657
2008-04-11,28.679
2008-04-14,29.0046
2008-04-15,29.1913
2008-04-16,30.1967
2008-04-17,30.1488
2008-04-18,30.3643
2008-04-21,30.5223
2008-04-22,30.3787
2008-04-23,30.1393
2008-04-24,29.9525
2008-04-25,30.6611
2008-04-28,30.4936
2008-04-29,29.6844
2008-04-30,29.9908
2008-05-01,29.5935
2008-05-02,29.7323
2008-05-05,29.9861
2008-05-06,30.393
2008-05-07,30.6372
2008-05-08,31.1016
2008-05-09,32.1501
2008-05-12,32.5236
2008-05-13,32.4374
2008-05-14,32.8109
2008-05-15,33.3758
2008-05-16,33.3184
2008-05-19,32.9449
2008-05-20,32.9784
2008-05-21,33.1364
2008-05-22,33.1652
2008-05-23,33.0167
2008-05-27,32.921
2008-05-28,34.094
2008-05-29,34.5057
2008-05-30,35.3771
2008-06-02,35.2287
2008-06-03,36.1097
2008-06-04,35.5495
2008-06-05,36.2437
2008-06-06,35.8751
2008-06-09,36.148
2008-06-10,35.8224
2008-06-11,35.966
2008-06-12,35.4346
2008-06-13,36.7225
2008-06-16,37.6322
2008-06-17,38.111
2008-06-18,37.795
2008-06-19,37.4311
2008-06-20,37.6753
2008-06-23,37.8333
2008-06-24,37.7662
2008-06-25,37.8189
2008-06-26,36.1526
2008-06-27,36.7233
2008-06-30,37.1596
2008-07-01,36.8288
2008-07-02,34.8722
2008-07-03,33.3185
2008-07-07,33.3185
2008-07-08,32.9972
2008-07-09,33.0835
2008-07-10,33.237
2008-07-11,33.2754
2008-07-14,32.7479
2008-07-15,32.9732
2008-07-16,34.2009
2008-07-17,34.2248
2008-07-18,34.1385
2008-07-21,34.6852
2008-07-22,33.6398
2008-07-23,32.8198
2008-07-24,32.0381
2008-07-25,31.4771
2008-07-28,31.4675
2008-07-29,31.2133
2008-07-30,35.4381
2008-07-31,35.6779
2008-08-01,35.5915
2008-08-04,33.8796
2008-08-05,34.0666
2008-08-06,34.4982
2008-08-07,33.8076
2008-08-08,34.0666
2008-08-11,34.5557
2008-08-12,34.6181
2008-08-13,35.8265
2008-08-14,35.9176
2008-08-15,35.2463
2008-08-18,35.3086
2008-08-19,35.1504
2008-08-20,35.2367
2008-08-21,34.9969
2008-08-22,35.2367
2008-08-25,34.6229
2008-08-26,34.3591
2008-08-27,35.0353
2008-08-28,35.7498
2008-08-29,35.2463
2008-09-02,34.8818
2008-09-03,34.7188
2008-09-04,32.4793
2008-09-05,32.345
2008-09-08,32.6951
2008-09-09,30.1775
2008-09-10,31.0215
2008-09-11,31.7456
2008-09-12,32.7335
2008-09-15,31.1318
2008-09-16,30.6619
2008-09-17,28.5519
2008-09-18,28.8971
2008-09-19,30.4844
2008-09-22,29.7172
2008-09-23,29.0506
2008-09-24,28.8923
2008-09-25,29.3095
2008-09-26,27.7743
2008-09-29,24.0503
2008-09-30,24.6942
2008-10-01,24.4587
2008-10-02,19.4901
2008-10-03,21.7197
2008-10-06,20.9413
2008-10-07,17.3037
2008-10-08,17.1884
2008-10-09,15.9726
2008-10-10,15.8093
2008-10-13,18.9567
2008-10-14,19.2642
2008-10-15,16.112
2008-10-16,17.5392
2008-10-17,17.5007
2008-10-20,18.6876
2008-10-21,17.5728
2008-10-22,15.5834
2008-10-23,15.5017
2008-10-24,14.8098
2008-10-27,14.6128
2008-10-28,16.5108
2008-10-29,19.8793
2008-10-30,21.7918
2008-10-31,20.7731
2008-11-03,21.936
2008-11-04,22.181
2008-11-05,20.4271
2008-11-06,19.9562
2008-11-07,21.1863
2008-11-10,21.2007
2008-11-11,19.4853
2008-11-12,17.3902
2008-11-13,18.8846
2008-11-14,17.8227
2008-11-17,17.5728
2008-11-18,16.9433
2008-11-19,15.3816
2008-11-20,14.9203
2008-11-21,16.2706
2008-11-24,17.8803
2008-11-25,19.1633
2008-11-26,20.0859
2008-11-28,21.0278
2008-12-01,17.1211
2008-12-02,18.6924
2008-12-03,18.4233
2008-12-04,17.4959
2008-12-05,18.8654
2008-12-08,20.1532
2008-12-09,20.8211
2008-12-10,22.3444
2008-12-11,20.4463
2008-12-12,21.4074
2008-12-15,20.5376
2008-12-16,21.8687
2008-12-17,21.2776
2008-12-18,19.9033
2008-12-19,20.4848
2008-12-22,19.8024
2008-12-23,19.6679
2008-12-24,19.6631
2008-12-26,20.3022
2008-12-29,20.2562
2008-12-30,21.5719
2008-12-31,21.5719
2009-01-02,21.8563
2009-01-05,22.0828
2009-01-06,22.7575
2009-01-07,22.0202
2009-01-08,22.5937
2009-01-09,21.8274
2009-01-12,20.3285
2009-01-13,21.0177
2009-01-14,19.808
2009-01-15,21.1286
2009-01-16,21.7888
2009-01-20,20.3237
2009-01-21,22.2515
2009-01-22,21.784
2009-01-23,22.0635
2009-01-26,21.9864
2009-01-27,22.0443
2009-01-28,22.6467
2009-01-29,22.2563
2009-01-30,21.4322
2009-02-02,21.3213
2009-02-03,21.6153
2009-02-04,21.3984
2009-02-05,22.6901
2009-02-06,24.6178
2009-02-09,24.6468
2009-02-10,22.9889
2009-02-11,23.3021
2009-02-12,23.3985
2009-02-13,23.0226
2009-02-17,21.9093
2009-02-18,21.596
2009-02-19,21.437
2009-02-20,21.0852
2009-02-23,19.7309
2009-02-24,20.7912
2009-02-25,20.0104
2009-02-26,19.6827
2009-02-27,19.5285
2009-03-02,17.6296
2009-03-03,17.9863
2009-03-04,19.0417
2009-03-05,17.62
2009-03-06,17.273
2009-03-09,17.0272
2009-03-10,18.3477
2009-03-11,18.7333
2009-03-12,18.8489
2009-03-13,18.9068
2009-03-16,18.2417
2009-03-17,18.4393
2009-03-18,19.3213
2009-03-19,20.0056
2009-03-20,19.3502
2009-03-23,20.9888
2009-03-24,20.9984
2009-03-25,21.2249
2009-03-26,22.0587
2009-03-27,20.7224
2009-03-30,20.3164
2009-03-31,20.8818
2009-04-01,21.6599
2009-04-02,23.0904
2009-04-03,23.2643
2009-04-06,22.6264
2009-04-07,21.858
2009-04-08,22.0079
2009-04-09,23.2208
2009-04-13,22.984
2009-04-14,21.9837
2009-04-15,22.2398
2009-04-16,22.9937
2009-04-17,22.3026
2009-04-20,20.8384
2009-04-21,22.2833
2009-04-22,22.0948
2009-04-23,22.0175
2009-04-24,22.3075
2009-04-27,22.5974
2009-04-28,23.1967
2009-04-29,24.0424
2009-04-30,23.535
2009-05-01,23.7186
2009-05-04,24.6851
2009-05-05,21.7517
2009-05-06,22.6603
2009-05-07,22.8342
2009-05-08,24.0956
2009-05-11,22.9309
2009-05-12,23.3707
2009-05-13,23.2353
2009-05-14,24.284
2009-05-15,23.4093
2009-05-18,24.0859
2009-05-19,24.2357
2009-05-20,25.4004
2009-05-21,24.5257
2009-05-22,24.7866
2009-05-26,25.6033
2009-05-27,24.9896
2009-05-28,25.613
2009-05-29,26.2123
2009-06-01,26.7003
2009-06-02,26.1204
2009-06-03,25.9416
2009-06-04,26.2171
2009-06-05,25.5695
2009-06-08,24.8253
2009-06-09,26.0673
2009-06-10,25.7145
2009-06-11,25.7193
2009-06-12,25.3955
2009-06-15,24.6996
2009-06-16,24.2115
2009-06-17,24.1342
2009-06-18,23.7186
2009-06-19,23.6268
2009-06-22,22.2495
2009-06-23,22.235
2009-06-24,22.0997
2009-06-25,22.8391
2009-06-26,22.9578
2009-06-29,23.2921
2009-06-30,22.8996
2009-07-01,22.5847
2009-07-02,21.7949
2009-07-06,21.0244
2009-07-07,20.2492
2009-07-08,20.535
2009-07-09,20.3267
2009-07-10,19.973
2009-07-13,20.9421
2009-07-14,20.9324
2009-07-15,21.5332
2009-07-16,21.4702
2009-07-17,21.2231
2009-07-20,21.2715
2009-07-21,21.4314
2009-07-22,21.2279
2009-07-23,21.9111
2009-07-24,22.1583
2009-07-27,22.1728
2009-07-28,21.7125
2009-07-29,20.8064
2009-07-30,22.3036
2009-07-31,23.6022
2009-08-03,24.1449
2009-08-04,24.5761
2009-08-05,24.4114
2009-08-06,24.0092
2009-08-07,24.4647
2009-08-10,24.0577
2009-08-11,24.111
2009-08-12,25.0025
2009-08-13,25.0122
2009-08-14,24.6876
2009-08-17,24.1982
2009-08-18,24.2418
2009-08-19,23.641
2009-08-20,23.7524
2009-08-21,24.266
2009-08-24,24.1013
2009-08-25,24.0528
2009-08-26,23.5974
2009-08-27,23.9075
2009-08-28,23.9269
2009-08-31,23.0644
2009-09-01,22.8996
2009-09-02,23.1661
2009-09-03,23.5974
2009-09-04,23.8251
2009-09-08,24.736
2009-09-09,25.24
2009-09-10,25.8699
2009-09-11,26.1218
2009-09-14,26.713
2009-09-15,27.8178
2009-09-16,27.9098
2009-09-17,27.5997
2009-09-18,28.0988
2009-09-21,27.7402
2009-09-22,27.7015
2009-09-23,27.3817
2009-09-24,27.1103
2009-09-25,26.8584
2009-09-28,27.3367
2009-09-29,27.5358
2009-09-30,27.293
2009-10-01,25.1708
2009-10-02,25.5787
2009-10-05,26.2926
2009-10-06,26.55
2009-10-07,26.2732
2009-10-08,26.5985
2009-10-09,26.6762
2009-10-12,27.2687
2009-10-13,26.7588
2009-10-14,27.2833
2009-10-15,27.327
2009-10-16,26.9968
2009-10-19,27.5747
2009-10-20,26.9093
2009-10-21,26.6617
2009-10-22,27.2833
2009-10-23,26.6471
2009-10-26,26.3849
2009-10-27,26.0838
2009-10-28,24.7531
2009-10-29,25.6418
2009-10-30,24.8357
2009-11-02,24.7288
2009-11-03,25.2436
2009-11-04,24.9862
2009-11-05,25.467
2009-11-06,25.3359
2009-11-09,26.4383
2009-11-10,26.5888
2009-11-11,26.4528
2009-11-12,26.3751
2009-11-13,26.7102
2009-11-16,27.6912
2009-11-17,27.8078
2009-11-18,27.6524
2009-11-19,27.4435
2009-11-20,27.3367
2009-11-23,27.599
2009-11-24,27.4435
2009-11-25,27.5552
2009-11-27,26.8656
2009-11-30,27.2153
2009-12-01,27.5164
2009-12-02,27.6961
2009-12-03,27.1813
2009-12-04,27.395
2009-12-07,27.5212
2009-12-08,27.0502
2009-12-09,27.0793
2009-12-10,27.1473
2009-12-11,27.2687
2009-12-14,27.531
2009-12-15,27.2007
2009-12-16,27.395
2009-12-17,27.1279
2009-12-18,27.0793
2009-12-21,27.3416
2009-12-22,27.4873
2009-12-23,27.5747
2009-12-24,27.6475
2009-12-28,27.4435
2009-12-29,27.5578
2009-12-30,27.4556
2009-12-31,27.1636
2010-01-04,27.6747
2010-01-05,27.5432
2010-01-06,27.7915
2010-01-07,27.4459
2010-01-08,27.2463
2010-01-11,26.5163
2010-01-12,26.38
2010-01-13,26.5017
2010-01-14,26.1269
2010-01-15,25.8835
2010-01-19,26.3021
2010-01-20,26.2242
2010-01-21,26.234
2010-01-22,25.6207
2010-01-25,25.9371
2010-01-26,25.5769
2010-01-27,25.5088
2010-01-28,24.9247
2010-01-29,24.8079
2010-02-01,25.5866
2010-02-02,25.9176
2010-02-03,25.7278
2010-02-04,24.7252
2010-02-05,25.8251
2010-02-08,25.9906
2010-02-09,26.672
2010-02-10,26.6428
2010-02-11,27.3047
2010-02-12,27.0711
2010-02-16,27.4702
2010-02-17,27.7525
2010-02-18,27.8547
2010-02-19,27.9229
2010-02-22,27.6211
2010-02-23,27.1977
2010-02-24,27.4118
2010-02-25,27.2415
2010-02-26,27.8207
2010-03-01,28.0884
2010-03-02,28.4145
2010-03-03,28.541
2010-03-04,28.5751
2010-03-05,29.091
2010-03-08,28.9985
2010-03-09,28.9109
2010-03-10,28.945
2010-03-11,29.0229
2010-03-12,29.3441
2010-03-15,29.1932
2010-03-16,29.3149
2010-03-17,29.422
2010-03-18,29.3928
2010-03-19,29.164
2010-03-22,29.4706
2010-03-23,29.8843
2010-03-24,30.0012
2010-03-25,29.4122
2010-03-26,29.349
2010-03-29,29.4636
2010-03-30,29.9513
2010-03-31,29.5465
2010-04-01,29.8147
2010-04-05,30.3561
2010-04-06,30.8341
2010-04-07,30.9706
2010-04-08,30.917
2010-04-09,31.3169
2010-04-12,31.2389
2010-04-13,31.3267
2010-04-14,31.3121
2010-04-15,31.2096
2010-04-16,31.2145
2010-04-19,31.2682
2010-04-20,31.4876
2010-04-21,31.2925
2010-04-22,31.4779
2010-04-23,31.7754
2010-04-26,31.4242
2010-04-27,31.117
2010-04-28,31.234
2010-04-29,31.7217
2010-04-30,31.0633
2010-05-03,31.3462
2010-05-04,31.234
2010-05-05,31.2194
2010-05-06,31.2243
2010-05-07,30.6683
2010-05-10,31.4584
2010-05-11,31.273
2010-05-12,31.7705
2010-05-13,31.4779
2010-05-14,30.4537
2010-05-17,30.7024
2010-05-18,29.8099
2010-05-19,29.6294
2010-05-20,28.7417
2010-05-21,29.0588
2010-05-24,28.4345
2010-05-25,28.7076
2010-05-26,28.7905
2010-05-27,29.9708
2010-05-28,29.5709
2010-06-01,28.6442
2010-06-02,29.9367
2010-06-03,29.6684
2010-06-04,28.3954
2010-06-07,28.2247
2010-06-08,28.8978
2010-06-09,28.9076
2010-06-10,29.8781
2010-06-11,30.1708
2010-06-14,30.0976
2010-06-15,30.8536
2010-06-16,30.8097
2010-06-17,30.9706
2010-06-18,30.4341
2010-06-21,30.5171
2010-06-22,30.083
2010-06-23,30.0049
2010-06-24,29.4343
2010-06-25,29.405
2010-06-28,29.4808
2010-06-29,28.474
2010-06-30,28.0928
2010-07-01,28.039
2010-07-02,27.6431
2010-07-06,27.4672
2010-07-07,28.0683
2010-07-08,28.6695
2010-07-09,29.0751
2010-07-12,28.5424
2010-07-13,29.2218
2010-07-14,29.1387
2010-07-15,28.9921
2010-07-16,28.3518
2010-07-19,28.3909
2010-07-20,28.8748
2010-07-21,28.5962
2010-07-22,29.0458
2010-07-23,29.5003
2010-07-26,30.1699
2010-07-27,30.1553
2010-07-28,30.2872
2010-07-29,30.776
2010-07-30,30.5707
2010-08-02,31.0448
2010-08-03,31.0301
2010-08-04,31.5188
2010-08-05,31.4651
2010-08-06,31.3967
2010-08-09,31.4455
2010-08-10,30.6293
2010-08-11,29.818
2010-08-12,29.7594
2010-08-13,29.7007
2010-08-16,29.8376
2010-08-17,30.5267
2010-08-18,30.8199
2010-08-19,30.0771
2010-08-20,30.2383
2010-08-23,30.3801
2010-08-24,29.7398
2010-08-25,29.5248
2010-08-26,29.8913
2010-08-27,30.8248
2010-08-30,30.5169
2010-08-31,30.3996
2010-09-01,31.1767
2010-09-02,31.5042
2010-09-03,31.8658
2010-09-07,31.6312
2010-09-08,32.0125
2010-09-09,31.6655
2010-09-10,31.3771
2010-09-13,32.1884
2010-09-14,32.2862
2010-09-15,32.4181
2010-09-16,32.5794
2010-09-17,32.9166
2010-09-20,33.4298
2010-09-21,33.4445
2010-09-22,33.1121
2010-09-23,32.5696
2010-09-24,33.2441
2010-09-27,33.0535
2010-09-28,33.4329
2010-09-29,33.2762
2010-09-30,33.5015
2010-10-01,33.2419
2010-10-04,33.2468
2010-10-05,34.0597
2010-10-06,33.9764
2010-10-07,33.5113
2010-10-08,33.9177
2010-10-11,34.0401
2010-10-12,34.0841
2010-10-13,34.7696
2010-10-14,34.4514
2010-10-15,34.5297
2010-10-18,34.5689
2010-10-19,33.8883
2010-10-20,34.28
2010-10-21,34.422
2010-10-22,34.3485
2010-10-25,34.8235
2010-10-26,34.6472
2010-10-27,33.9519
2010-10-28,36.1406
2010-10-29,35.7832
2010-11-01,35.9399
2010-11-02,36.6548
2010-11-03,36.6009
2010-11-04,37.3158
2010-11-05,37.6536
2010-11-08,37.6732
2010-11-09,37.3158
2010-11-10,37.5263
2010-11-11,37.7712
2010-11-12,36.8066
2010-11-15,37.1003
2010-11-16,36.5421
2010-11-17,36.6352
2010-11-18,37.5998
2010-11-19,37.7858
2010-11-22,37.8152
2010-11-23,37.1983
2010-11-24,38.6035
2010-11-26,38.726
2010-11-29,38.6133
2010-11-30,38.1678
2010-12-01,39.3919
2010-12-02,39.2254
2010-12-03,39.2793
2010-12-06,39.3429
2010-12-07,39.7297
2010-12-08,39.5877
2010-12-09,39.7493
2010-12-10,39.8472
2010-12-13,39.103
2010-12-14,39.054
2010-12-15,38.8141
2010-12-16,39.152
2010-12-17,39.0344
2010-12-20,38.8875
2010-12-21,39.2842
2010-12-22,38.9904
2010-12-23,39.0295
2010-12-27,38.9953
2010-12-28,38.9757
2010-12-29,39.1204
2010-12-30,39.3117
2010-12-31,39.1989
2011-01-03,39.5373
2011-01-04,38.4927
2011-01-05,38.1641
2011-01-06,37.8061
2011-01-07,37.6492
2011-01-10,37.5756
2011-01-11,37.6394
2011-01-12,38.223
2011-01-13,38.0268
2011-01-14,38.12
2011-01-18,38.7036
2011-01-19,37.659
2011-01-20,37.1244
2011-01-21,37.301
2011-01-24,37.6933
2011-01-25,37.6639
2011-01-26,37.4824
2011-01-27,37.5266
2011-01-28,36.786
2011-01-31,37.2716
2011-02-01,38.7771
2011-02-02,38.8458
2011-02-03,38.9782
2011-02-04,39.346
2011-02-07,39.807
2011-02-08,40.4347
2011-02-09,39.9198
2011-02-10,39.9247
2011-02-11,40.0179
2011-02-14,40.013
2011-02-15,39.2626
2011-02-16,39.8953
2011-02-17,40.1062
2011-02-18,39.8168
2011-02-22,38.0072
2011-02-23,37.2078
2011-02-24,36.8841
2011-02-25,37.3059
2011-02-28,37.9385
2011-03-01,37.3059
2011-03-02,37.7816
2011-03-03,38.7281
2011-03-04,38.2622
2011-03-07,37.5511
2011-03-08,38.0219
2011-03-09,37.3255
2011-03-10,36.8596
2011-03-11,37.1882
2011-03-14,37.0263
2011-03-15,36.8841
2011-03-16,36.84
2011-03-17,37.2863
2011-03-18,37.7178
2011-03-21,39.0714
2011-03-22,39.1253
2011-03-23,40.013
2011-03-24,40.5573
2011-03-25,40.9251
2011-03-28,40.5671
2011-03-29,41.2157
2011-03-30,41.6382
2011-03-31,41.7413
2011-04-01,42.2769
2011-04-04,42.6699
2011-04-05,42.6945
2011-04-06,42.4193
2011-04-07,42.1933
2011-04-08,41.8887
2011-04-11,41.4613
2011-04-12,41.1665
2011-04-13,41.2206
2011-04-14,41.5694
2011-04-15,41.9575
2011-04-18,41.5645
2011-04-19,41.761
2011-04-20,42.6601
2011-04-21,43.1612
2011-04-25,42.8861
2011-04-26,43.2251
2011-04-27,42.9254
2011-04-28,43.1416
2011-04-29,43.3528
2011-05-02,42.8419
2011-05-03,41.3827
2011-05-04,40.9209
2011-05-05,40.9209
2011-05-06,41.6431
2011-05-09,42.0509
2011-05-10,42.3555
2011-05-11,41.6431
2011-05-12,41.3385
2011-05-13,41.1321
2011-05-16,41.0781
2011-05-17,40.5426
2011-05-18,41.1469
2011-05-19,41.3139
2011-05-20,41.2107
2011-05-23,40.4836
2011-05-24,40.3706
2011-05-25,40.7587
2011-05-26,40.7587
2011-05-27,40.9897
2011-05-31,41.422
2011-06-01,40.0955
2011-06-02,40.007
2011-06-03,39.1423
2011-06-06,38.877
2011-06-07,38.8033
2011-06-08,38.4398
2011-06-09,39.0932
2011-06-10,38.4643
2011-06-13,38.0271
2011-06-14,39.2946
2011-06-15,38.8426
2011-06-16,38.9163
2011-06-17,38.936
2011-06-20,39.5452
2011-06-21,40.2723
2011-06-22,40.2871
2011-06-23,40.0955
2011-06-24,40.8177
2011-06-27,40.8423
2011-06-28,41.551
2011-06-29,42.1368
2011-06-30,42.3632
2011-07-01,43.0768
2011-07-05,43.3426
2011-07-06,43.4804
2011-07-07,43.953
2011-07-08,43.6724
2011-07-11,42.7618
2011-07-12,42.816
2011-07-13,43.0965
2011-07-14,42.6388
2011-07-15,43.0079
2011-07-18,42.3435
2011-07-19,43.4066
2011-07-20,43.889
2011-07-21,45.6904
2011-07-22,45.1391
2011-07-25,45.2622
2011-07-26,44.9669
2011-07-27,43.6773
2011-07-28,43.4804
2011-07-29,43.1654
2011-08-01,43.4755
2011-08-02,40.6454
2011-08-03,40.8374
2011-08-04,38.2829
2011-08-05,38.2681
2011-08-08,34.6652
2011-08-09,36.6094
2011-08-10,34.936
2011-08-11,36.8309
2011-08-12,36.9146
2011-08-15,37.205
2011-08-16,36.1714
2011-08-17,35.881
2011-08-18,33.5873
2011-08-19,33.0016
2011-08-22,32.8441
2011-08-23,34.4979
2011-08-24,34.995
2011-08-25,34.6111
2011-08-26,35.6595
2011-08-29,36.5799
2011-08-30,37.3182
2011-08-31,37.3083
2011-09-01,36.7325
2011-09-02,35.7087
2011-09-06,35.3494
2011-09-07,36.4519
2011-09-08,35.9696
2011-09-09,35.059
2011-09-12,34.6259
2011-09-13,35.5955
2011-09-14,36.8112
2011-09-15,37.6233
2011-09-16,37.9629
2011-09-19,37.7168
2011-09-20,37.6479
2011-09-21,35.9302
2011-09-22,33.8827
2011-09-23,33.8531
2011-09-26,34.6652
2011-09-27,36.762
2011-09-28,35.6573
2011-09-29,35.2874
2011-09-30,34.0988
2011-10-03,32.4811
2011-10-04,33.0384
2011-10-05,34.1876
2011-10-06,35.2232
2011-10-07,34.9816
2011-10-10,36.5598
2011-10-11,36.5943
2011-10-12,37.2206
2011-10-13,36.979
2011-10-14,37.9506
2011-10-17,36.6535
2011-10-18,37.8766
2011-10-19,36.6584
2011-10-20,36.6979
2011-10-21,37.4376
2011-10-24,38.572
2011-10-25,37.413
2011-10-26,38.4881
2011-10-27,40.9343
2011-10-28,40.6631
2011-10-31,38.9419
2011-11-01,38.6114
2011-11-02,39.9677
2011-11-03,41.3535
2011-11-04,41.102
2011-11-07,41.462
2011-11-08,41.6445
2011-11-09,39.4893
2011-11-10,40.3968
2011-11-11,41.1513
2011-11-14,40.5743
2011-11-15,40.599
2011-11-16,40.0071
2011-11-17,38.7545
2011-11-18,39.5633
2011-11-21,38.8925
2011-11-22,38.2563
2011-11-23,37.8026
2011-11-25,37.8717
2011-11-28,39.0356
2011-11-29,39.3759
2011-11-30,41.3683
2011-12-01,41.1415
2011-12-02,40.7814
2011-12-05,41.6199
2011-12-06,42.0045
2011-12-07,42.2709
2011-12-08,40.9738
2011-12-09,41.8517
2011-12-12,41.0724
2011-12-13,40.5201
2011-12-14,40.2044
2011-12-15,41.1069
2011-12-16,41.7185
2011-12-19,41.0774
2011-12-20,42.7098
2011-12-21,42.3843
2011-12-22,42.7246
2011-12-23,43.1043
2011-12-27,43.2868
2011-12-28,42.1753
2011-12-29,42.6545
2011-12-30,42.5211
2012-01-03,43.2374
2012-01-04,43.1238
2012-01-05,42.9805
2012-01-06,43.4943
2012-01-09,43.4647
2012-01-10,43.9488
2012-01-11,44.1711
2012-01-12,44.6899
2012-01-13,44.5318
2012-01-17,44.5614
2012-01-18,44.9863
2012-01-19,45.3864
2012-01-20,45.1987
2012-01-23,45.1444
2012-01-24,45.3667
2012-01-25,45.836
2012-01-26,45.2036
2012-01-27,46.004
2012-01-30,45.8706
2012-01-31,45.836
2012-02-01,46.0534
2012-02-02,46.1324
2012-02-03,46.9426
2012-02-06,46.33
2012-02-07,45.9595
2012-02-08,46.9871
2012-02-09,45.8706
2012-02-10,45.011
2012-02-13,46.3004
2012-02-14,45.6927
2012-02-15,46.419
2012-02-16,47.0661
2012-02-17,47.7183
2012-02-21,48.652
2012-02-22,48.7063
2012-02-23,48.7014
2012-02-24,48.6668
2012-02-27,49.0719
2012-02-28,49.398
2012-02-29,48.9039
2012-03-01,49.5511
2012-03-02,49.4128
2012-03-05,49.3189
2012-03-06,47.7874
2012-03-07,47.8665
2012-03-08,48.9731
2012-03-09,48.9632
2012-03-12,48.5729
2012-03-13,49.4227
2012-03-14,49.0818
2012-03-15,49.393
2012-03-16,49.3189
2012-03-19,49.5412
2012-03-20,49.0126
2012-03-21,49.1262
2012-03-22,48.1283
2012-03-23,49.1559
2012-03-26,49.9414
2012-03-27,52.1991
2012-03-28,51.4964
2012-03-29,52.1545
2012-03-30,52.3772
2012-04-02,53.3274
2012-04-03,53.3274
2012-04-04,52.7286
2012-04-05,52.6296
2012-04-09,51.7834
2012-04-10,50.6501
2012-04-11,50.7738
2012-04-12,52.0308
2012-04-13,51.818
2012-04-16,52.1644
2012-04-17,53.4808
2012-04-18,53.07
2012-04-19,52.7731
2012-04-20,53.0404
2012-04-23,52.1545
2012-04-24,51.7834
2012-04-25,53.753
2012-04-26,54.525
2012-04-27,55.4751
2012-04-30,54.614
2012-05-01,54.1835
2012-05-02,53.7332
2012-05-03,53.3323
2012-05-04,52.5108
2012-05-07,52.4762
2012-05-08,52.3178
2012-05-09,52.2337
2012-05-10,52.2387
2012-05-11,52.4614
2012-05-14,51.437
2012-05-15,51.1846
2012-05-16,49.8534
2012-05-17,48.1708
2012-05-18,47.6067
2012-05-21,49.6307
2012-05-22,49.9029
2012-05-23,50.6353
2012-05-24,51.4023
2012-05-25,50.9025
2012-05-29,51.9219
2012-05-30,51.2588
2012-05-31,50.5066
2012-06-01,48.537
2012-06-04,48.4875
2012-06-05,48.8043
2012-06-06,49.8138
2012-06-07,50.3582
2012-06-08,51.3578
2012-06-11,50.2097
2012-06-12,51.051
2012-06-13,49.982
2012-06-14,49.7148
2012-06-15,49.9919
2012-06-18,50.2295
2012-06-19,52.0605
2012-06-20,51.7933
2012-06-21,49.6554
2012-06-22,49.9524
2012-06-25,49.1804
2012-06-26,49.8633
2012-06-27,50.8648
2012-06-28,51.311
2012-06-29,52.9173
2012-07-02,53.1354
2012-07-03,53.5816
2012-07-05,53.2445
2012-07-06,52.134
2012-07-09,52.7289
2012-07-10,51.9456
2012-07-11,50.6963
2012-07-12,51.2714
2012-07-13,53.1949
2012-07-16,53.2048
2012-07-17,54.1963
2012-07-18,54.4244
2012-07-19,54.6425
2012-07-20,54.0278
2012-07-23,53.3833
2012-07-24,53.0858
2012-07-25,53.5717
2012-07-26,54.7714
2012-07-27,54.7813
2012-07-30,54.3451
2012-07-31,54.2757
2012-08-01,52.4413
2012-08-02,51.9852
2012-08-03,53.4824
2012-08-06,53.7303
2012-08-07,54.7417
2012-08-08,54.1468
2012-08-09,53.7402
2012-08-10,54.1765
2012-08-13,53.8394
2012-08-14,53.3139
2012-08-15,54.0873
2012-08-16,55.0589
2012-08-17,54.4541
2012-08-20,54.4541
2012-08-21,54.0377
2012-08-22,55.0887
2012-08-23,54.0575
2012-08-24,53.7303
2012-08-27,53.2147
2012-08-28,53.0957
2012-08-29,53.5915
2012-08-30,53.3734
2012-08-31,53.9881
2012-09-04,53.294
2012-09-05,53.8096
2012-09-06,55.0788
2012-09-07,55.3862
2012-09-10,56.2587
2012-09-11,56.7644
2012-09-12,56.7941
2012-09-13,58.0831
2012-09-14,57.9641
2012-09-17,57.7559
2012-09-18,57.4188
2012-09-19,57.5278
2012-09-20,57.4485
2012-09-21,57.2205
2012-09-24,56.5066
2012-09-25,55.7927
2012-09-26,55.2067
2012-09-27,55.316
2012-09-28,55.0677
2012-10-01,55.9913
2012-10-02,54.879
2012-10-03,54.7002
2012-10-04,55.306
2012-10-05,55.7728
2012-10-08,55.4053
2012-10-09,54.5016
2012-10-10,53.3695
2012-10-11,53.6773
2012-10-12,53.3298
2012-10-15,53.9554
2012-10-16,55.1571
2012-10-17,55.743
2012-10-18,55.5642
2012-10-19,54.7499
2012-10-22,54.591
2012-10-23,53.7965
2012-10-24,53.151
2012-10-25,53.2205
2012-10-26,53.8859
2012-10-31,53.1311
2012-11-01,54.2732
2012-11-02,53.7866
2012-11-05,54.442
2012-11-06,54.2235
2012-11-07,53.1808
2012-11-08,52.5353
2012-11-09,52.7835
2012-11-12,52.5055
2012-11-13,51.9195
2012-11-14,51.0158
2012-11-15,51.1151
2012-11-16,51.3237
2012-11-19,53.3298
2012-11-20,53.7071
2012-11-21,53.5085
2012-11-23,54.4222
2012-11-26,55.0578
2012-11-27,55.018
2012-11-28,55.1372
2012-11-29,55.0677
2012-11-30,55.1372
2012-12-03,53.5582
2012-12-04,53.4986
2012-12-05,53.578
2012-12-06,52.6842
2012-12-07,52.6544
2012-12-10,53.3794
2012-12-11,53.7866
2012-12-12,56.4183
2012-12-13,56.4183
2012-12-14,56.3885
2012-12-17,56.9347
2012-12-18,57.7391
2012-12-19,57.6001
2012-12-20,58.1662
2012-12-21,57.62
2012-12-24,57.8782
2012-12-26,57.3022
2012-12-27,57.7053
2012-12-28,57.0583
2012-12-31,58.1433
2013-01-02,59.0294
2013-01-03,58.5416
2013-01-04,58.8403
2013-01-07,59.6466
2013-01-08,60.1045
2013-01-09,61.289
2013-01-10,61.518
2013-01-11,61.0601
2013-01-14,60.9406
2013-01-15,60.851
2013-01-16,60.5524
2013-01-17,60.5822
2013-01-18,60.3732
2013-01-22,61.0501
2013-01-23,60.622
2013-01-24,61.0303
2013-01-25,61.528
2013-01-28,61.1596
2013-01-29,61.5378
2013-01-30,61.2492
2013-01-31,61.1944
2013-02-01,62.1451
2013-02-04,61.8067
2013-02-05,62.3044
2013-02-06,61.488
2013-02-07,59.4972
2013-02-08,59.5171
2013-02-11,58.9299
2013-02-12,57.8547
2013-02-13,58.5366
2013-02-14,58.7307
2013-02-15,59.1886
2013-02-19,59.0791
2013-02-20,57.9842
2013-02-21,57.1978
2013-02-22,58.4122
2013-02-25,57.3072
2013-02-26,58.2928
2013-02-27,59.338
2013-02-28,60.0447
2013-03-01,59.5718
2013-03-04,59.9452
2013-03-05,60.3832
2013-03-06,60.7913
2013-03-07,60.632
2013-03-08,60.9307
2013-03-11,61.0799
2013-03-12,60.9605
2013-03-13,60.851
2013-03-14,60.8013
2013-03-15,59.7461
2013-03-18,59.2385
2013-03-19,58.9995
2013-03-20,58.8502
2013-03-21,56.9589
2013-03-22,57.1181
2013-03-25,56.4213
2013-03-26,56.8554
2013-03-27,56.4463
2013-03-28,56.9452
2013-04-01,55.9873
2013-04-02,56.3066
2013-04-03,55.9773
2013-04-04,56.147
2013-04-05,55.3487
2013-04-08,56.9153
2013-04-09,57.025
2013-04-10,57.6636
2013-04-11,58.5617
2013-04-12,58.2723
2013-04-15,56.3266
2013-04-16,58.0628
2013-04-17,57.7634
2013-04-18,57.5638
2013-04-19,57.7734
2013-04-22,58.0029
2013-04-23,59.0805
2013-04-24,59.4397
2013-04-25,60.5174
2013-04-26,59.799
2013-04-29,60.5373
2013-04-30,60.6271
2013-05-01,58.2523
2013-05-02,58.6714
2013-05-03,59.4697
2013-05-06,60.0584
2013-05-07,60.4375
2013-05-08,61.6549
2013-05-09,61.3356
2013-05-10,61.8046
2013-05-13,60.6471
2013-05-14,62.7625
2013-05-15,62.8722
2013-05-16,61.8744
2013-05-17,63.1815
2013-05-20,63.0319
2013-05-21,62.7525
2013-05-22,62.7325
2013-05-23,63.3512
2013-05-24,63.3312
2013-05-28,64.3789
2013-05-29,63.7702
2013-05-30,63.7403
2013-05-31,62.6926
2013-06-03,61.8944
2013-06-04,62.054
2013-06-05,61.0462
2013-06-06,61.0362
2013-06-07,62.7325
2013-06-10,62.6627
2013-06-11,62.533
2013-06-12,62.074
2013-06-13,62.972
2013-06-14,62.4631
2013-06-17,63.7004
2013-06-18,64.5585
2013-06-19,64.0796
2013-06-20,62.513
2013-06-21,62.4831
2013-06-24,61.6249
2013-06-25,61.585
2013-06-26,62.21
2013-06-27,62.39
2013-06-28,61.08
2013-07-01,61.6
2013-07-02,61.54
2013-07-03,61.7
2013-07-05,62.24
2013-07-08,61.3
2013-07-09,61.93
2013-07-10,62.29
2013-07-11,62.29
2013-07-12,62.11
2013-07-15,62.59
2013-07-16,61.56
2013-07-17,62.32
2013-07-18,63.11
2013-07-19,63.48
2013-07-22,63.23
2013-07-23,62.96
2013-07-24,63.53
2013-07-25,63.67
2013-07-26,63.4
2013-07-29,63.57
2013-07-30,65.5
2013-07-31,66.04
2013-08-01,66.73
2013-08-02,67.24
2013-08-05,66.32
2013-08-06,65.78
2013-08-07,65.25
2013-08-08,65.97
2013-08-09,65.68
