date,close_price
2006-11-17,24.84
2006-11-20,25.0
2006-11-21,24.7
2006-11-22,26.73
2006-11-24,27.75
2006-11-27,28.35
2006-11-28,28.29
2006-11-29,28.34
2006-11-30,28.29
2006-12-01,28.0
2006-12-04,27.66
2006-12-05,27.03
2006-12-06,27.3
2006-12-07,27.34
2006-12-08,27.42
2006-12-11,27.95
2006-12-12,26.94
2006-12-13,28.05
2006-12-14,27.8
2006-12-15,28.16
2006-12-18,28.59
2006-12-19,27.86
2006-12-20,27.78
2006-12-21,26.78
2006-12-22,27.45
2006-12-26,27.16
2006-12-27,28.75
2006-12-28,29.87
2006-12-29,29.83
2007-01-03,28.5
2007-01-04,28.69
2007-01-05,28.15
2007-01-08,28.94
2007-01-09,29.18
2007-01-10,29.14
2007-01-11,29.37
2007-01-12,29.47
2007-01-16,29.13
2007-01-17,29.02
2007-01-18,28.25
2007-01-19,27.77
2007-01-22,27.96
2007-01-23,28.84
2007-01-24,29.11
2007-01-25,29.42
2007-01-26,29.19
2007-01-29,31.17
2007-01-30,32.8
2007-01-31,32.46
2007-02-01,32.63
2007-02-02,31.18
2007-02-05,32.79
2007-02-06,32.68
2007-02-07,33.4
2007-02-08,33.79
2007-02-09,32.77
2007-02-12,33.02
2007-02-13,34.26
2007-02-14,43.67
2007-02-15,45.09
2007-02-16,45.17
2007-02-20,49.33
2007-02-21,51.05
2007-02-22,49.17
2007-02-23,49.38
2007-02-26,51.9
2007-02-27,49.2
2007-02-28,47.82
2007-03-01,47.84
2007-03-02,46.36
2007-03-05,44.13
2007-03-06,46.41
2007-03-07,47.65
2007-03-08,51.81
2007-03-09,52.1
2007-03-12,57.9
2007-03-13,53.9
2007-03-14,54.37
2007-03-15,52.67
2007-03-16,51.48
2007-03-19,52.5
2007-03-20,52.27
2007-03-21,54.35
2007-03-22,58.2
2007-03-23,58.3
2007-03-26,56.98
2007-03-27,55.48
2007-03-28,54.43
2007-03-29,53.2
2007-03-30,52.03
2007-04-02,55.8
2007-04-03,55.68
2007-04-04,57.27
2007-04-05,56.36
2007-04-09,57.53
2007-04-10,60.17
2007-04-11,62.19
2007-04-12,62.9
2007-04-13,61.27
2007-04-16,65.08
2007-04-17,62.49
2007-04-18,61.85
2007-04-19,60.11
2007-04-20,60.89
2007-04-23,63.06
2007-04-24,63.69
2007-04-25,64.88
2007-04-26,64.0
2007-04-27,63.65
2007-04-30,60.0
2007-05-01,55.46
2007-05-02,58.83
2007-05-03,57.84
2007-05-04,66.77
2007-05-07,69.56
2007-05-08,68.76
2007-05-09,68.61
2007-05-10,68.77
2007-05-11,67.82
2007-05-14,65.21
2007-05-15,63.38
2007-05-16,64.05
2007-05-17,65.19
2007-05-18,63.42
2007-05-21,61.91
2007-05-22,65.0
2007-05-23,65.99
2007-05-24,64.91
2007-05-25,66.74
2007-05-29,67.05
2007-05-30,68.33
2007-05-31,67.9
2007-06-01,68.17
2007-06-04,68.79
2007-06-05,71.72
2007-06-06,71.38
2007-06-07,70.47
2007-06-08,71.29
2007-06-11,70.86
2007-06-12,71.05
2007-06-13,74.43
2007-06-14,74.95
2007-06-15,78.0
2007-06-18,78.11
2007-06-19,79.2
2007-06-20,80.8
2007-06-21,80.29
2007-06-22,84.64
2007-06-25,86.3
2007-06-26,88.28
2007-06-27,88.63
2007-06-28,90.27
2007-06-29,89.22
2007-07-02,93.87
2007-07-03,97.93
2007-07-05,94.48
2007-07-06,96.34
2007-07-09,119.33
2007-07-10,114.94
2007-07-11,113.13
2007-07-12,114.57
2007-07-13,115.8
2007-07-16,111.98
2007-07-17,109.25
2007-07-18,109.95
2007-07-19,111.51
2007-07-20,110.08
2007-07-23,108.67
2007-07-24,107.78
2007-07-25,108.05
2007-07-26,107.2
2007-07-27,110.63
2007-07-30,120.47
2007-07-31,112.52
2007-08-01,107.59
2007-08-02,104.37
2007-08-03,100.03
2007-08-06,98.15
2007-08-07,105.32
2007-08-08,109.29
2007-08-09,102.94
2007-08-10,94.31
2007-08-13,95.22
2007-08-14,91.45
2007-08-15,87.23
2007-08-16,82.37
2007-08-17,85.13
2007-08-20,93.73
2007-08-21,96.29
2007-08-22,99.0
2007-08-23,94.06
2007-08-24,97.6
2007-08-27,96.22
2007-08-28,91.1
2007-08-29,95.74
2007-08-30,102.42
2007-08-31,103.63
2007-09-04,106.89
2007-09-05,106.41
2007-09-06,104.33
2007-09-07,100.05
2007-09-10,100.41
2007-09-11,102.34
2007-09-12,98.06
2007-09-13,99.97
2007-09-14,98.2
2007-09-17,94.83
2007-09-18,101.1
2007-09-19,100.96
2007-09-20,103.0
2007-09-21,112.44
2007-09-24,112.57
2007-09-25,113.81
2007-09-26,114.42
2007-09-27,109.91
2007-09-28,117.82
2007-10-01,126.99
2007-10-02,131.21
2007-10-03,127.76
2007-10-04,131.5
2007-10-05,137.01
2007-10-08,137.17
2007-10-09,137.23
2007-10-10,136.03
2007-10-11,129.95
2007-10-12,135.5
2007-10-15,134.87
2007-10-16,138.69
2007-10-17,138.99
2007-10-18,140.51
2007-10-19,133.45
2007-10-22,136.66
2007-10-23,149.95
2007-10-24,148.25
2007-10-25,150.02
2007-10-26,149.99
2007-10-29,156.13
2007-10-30,149.93
2007-10-31,158.58
2007-11-01,155.4
2007-11-02,146.56
2007-11-05,148.2
2007-11-06,168.29
2007-11-07,167.07
2007-11-08,225.14
2007-11-09,206.55
2007-11-12,177.49
2007-11-13,187.72
2007-11-14,185.8
2007-11-15,190.78
2007-11-16,211.75
2007-11-19,215.66
2007-11-20,207.96
2007-11-21,212.87
2007-11-23,210.8
2007-11-26,212.73
2007-11-27,207.49
2007-11-28,215.75
2007-11-29,238.08
2007-11-30,236.29
2007-12-03,229.46
2007-12-04,214.0
2007-12-05,225.88
2007-12-06,218.5
2007-12-07,234.85
2007-12-10,249.91
2007-12-11,235.99
2007-12-12,241.67
2007-12-13,248.0
2007-12-14,251.42
2007-12-17,232.0
2007-12-18,246.4
2007-12-19,248.0
2007-12-20,245.54
2007-12-21,265.06
2007-12-24,272.05
2007-12-26,280.79
2007-12-27,275.15
2007-12-28,266.25
2007-12-31,267.5
2008-01-02,267.23
2008-01-03,266.73
2008-01-04,245.8
2008-01-07,236.11
2008-01-08,231.44
2008-01-09,234.2
2008-01-10,226.64
2008-01-11,221.16
2008-01-14,224.0
2008-01-15,205.25
2008-01-16,182.15
2008-01-17,167.06
2008-01-18,175.49
2008-01-22,181.5
2008-01-23,161.3
2008-01-24,171.0
2008-01-25,171.0
2008-01-28,177.05
2008-01-29,191.75
2008-01-30,184.36
2008-01-31,182.51
2008-02-01,185.4
2008-02-04,192.38
2008-02-05,178.48
2008-02-06,171.8
2008-02-07,165.78
2008-02-08,173.2
2008-02-11,188.87
2008-02-12,176.44
2008-02-13,227.26
2008-02-14,223.97
2008-02-15,219.43
2008-02-19,211.75
2008-02-20,216.87
2008-02-21,210.9
2008-02-22,211.77
2008-02-25,219.3
2008-02-26,220.7
2008-02-27,217.91
2008-02-28,204.92
2008-02-29,205.2
2008-03-03,207.51
2008-03-04,202.57
2008-03-05,212.84
2008-03-06,207.77
2008-03-07,197.32
2008-03-10,176.33
2008-03-11,198.11
2008-03-12,205.71
2008-03-13,206.2
2008-03-14,201.26
2008-03-17,193.71
2008-03-18,204.54
2008-03-19,196.51
2008-03-20,194.88
2008-03-24,209.3
2008-03-25,219.66
2008-03-26,220.41
2008-03-27,227.5
2008-03-28,229.14
2008-03-31,231.09
2008-04-01,237.76
2008-04-02,249.71
2008-04-03,251.99
2008-04-04,277.38
2008-04-07,271.89
2008-04-08,272.01
2008-04-09,269.68
2008-04-10,271.37
2008-04-11,268.14
2008-04-14,274.46
2008-04-15,287.65
2008-04-16,295.55
2008-04-17,287.5
2008-04-18,285.96
2008-04-21,291.6
2008-04-22,298.66
2008-04-23,285.91
2008-04-24,283.12
2008-04-25,288.33
2008-04-28,285.13
2008-04-29,284.4
2008-04-30,291.55
2008-05-01,263.86
2008-05-02,275.87
2008-05-05,268.63
2008-05-06,278.2
2008-05-07,276.51
2008-05-08,275.42
2008-05-09,284.79
2008-05-12,284.16
2008-05-13,302.7
2008-05-14,307.03
2008-05-15,306.71
2008-05-16,311.19
2008-05-19,296.01
2008-05-20,298.8
2008-05-21,280.01
2008-05-22,270.98
2008-05-23,277.99
2008-05-27,265.2
2008-05-28,273.07
2008-05-29,252.02
2008-05-30,267.46
2008-06-02,256.32
2008-06-03,257.02
2008-06-04,242.56
2008-06-05,256.53
2008-06-06,251.0
2008-06-09,244.2
2008-06-10,245.2
2008-06-11,253.03
2008-06-12,261.78
2008-06-13,273.69
2008-06-16,276.5
2008-06-17,281.97
2008-06-18,275.15
2008-06-19,274.42
2008-06-20,268.0
2008-06-23,287.77
2008-06-24,288.02
2008-06-25,290.0
2008-06-26,273.5
2008-06-27,265.54
2008-06-30,271.55
2008-07-01,270.83
2008-07-02,247.74
2008-07-03,254.0
2008-07-07,256.68
2008-07-08,261.83
2008-07-09,265.92
2008-07-10,280.01
2008-07-11,279.34
2008-07-14,286.0
2008-07-15,277.0
2008-07-16,288.51
2008-07-17,278.0
2008-07-18,278.72
2008-07-21,280.72
2008-07-22,266.25
2008-07-23,260.21
2008-07-24,264.86
2008-07-25,262.15
2008-07-28,265.9
2008-07-29,275.47
2008-07-30,284.66
2008-07-31,284.48
2008-08-01,280.73
2008-08-04,267.17
2008-08-05,263.39
2008-08-06,268.94
2008-08-07,265.83
2008-08-08,257.68
2008-08-11,247.36
2008-08-12,250.08
2008-08-13,259.9
2008-08-14,260.05
2008-08-15,264.8
2008-08-18,256.43
2008-08-19,258.86
2008-08-20,273.46
2008-08-21,278.52
2008-08-22,282.65
2008-08-25,270.97
2008-08-26,273.01
2008-08-27,276.76
2008-08-28,277.74
2008-08-29,276.47
2008-09-02,260.5
2008-09-03,247.09
2008-09-04,236.62
2008-09-05,236.32
2008-09-08,223.12
2008-09-09,199.98
2008-09-10,211.36
2008-09-11,209.97
2008-09-12,213.96
2008-09-15,203.57
2008-09-16,213.78
2008-09-17,212.87
2008-09-18,225.0
2008-09-19,240.89
2008-09-22,222.48
2008-09-23,211.45
2008-09-24,220.91
2008-09-25,220.43
2008-09-26,207.44
2008-09-29,179.99
2008-09-30,187.0
2008-10-01,197.53
2008-10-02,177.11
2008-10-03,163.34
2008-10-06,160.63
2008-10-07,126.86
2008-10-08,127.0
2008-10-09,118.28
2008-10-10,116.54
2008-10-13,143.41
2008-10-14,144.0
2008-10-15,123.4
2008-10-16,142.75
2008-10-17,135.19
2008-10-20,144.37
2008-10-21,141.19
2008-10-22,136.63
2008-10-23,124.75
2008-10-24,119.4
2008-10-27,107.07
2008-10-28,113.57
2008-10-29,117.24
2008-10-30,143.69
2008-10-31,144.0
2008-11-03,162.35
2008-11-04,177.39
2008-11-05,152.01
2008-11-06,144.23
2008-11-07,149.8
2008-11-10,138.77
2008-11-11,130.65
2008-11-12,110.21
2008-11-13,125.43
2008-11-14,116.62
2008-11-17,115.41
2008-11-18,110.27
2008-11-19,101.02
2008-11-20,87.35
2008-11-21,91.74
2008-11-24,111.9
2008-11-25,117.16
2008-11-26,127.86
2008-11-28,124.84
2008-12-01,109.88
2008-12-02,116.4
2008-12-03,133.1
2008-12-04,122.12
2008-12-05,128.17
2008-12-08,134.23
2008-12-09,116.9
2008-12-10,119.87
2008-12-11,117.8
2008-12-12,116.99
2008-12-15,111.2
2008-12-16,127.77
2008-12-17,142.31
2008-12-18,137.27
2008-12-19,138.39
2008-12-22,133.4
2008-12-23,137.32
2008-12-24,133.6
2008-12-26,134.82
2008-12-29,135.98
2008-12-30,135.9
2008-12-31,137.91
2009-01-02,151.59
2009-01-05,157.93
2009-01-06,153.51
2009-01-07,148.35
2009-01-08,155.0
2009-01-09,162.53
2009-01-12,150.0
2009-01-13,141.0
2009-01-14,133.67
2009-01-15,142.75
2009-01-16,145.17
2009-01-20,138.2
2009-01-21,141.24
2009-01-22,137.47
2009-01-23,137.4
2009-01-26,138.75
2009-01-27,140.86
2009-01-28,145.82
2009-01-29,136.8
2009-01-30,142.66
2009-02-02,138.03
2009-02-03,140.12
2009-02-04,144.76
2009-02-05,149.38
2009-02-06,146.19
2009-02-09,148.73
2009-02-10,145.74
2009-02-11,147.18
2009-02-12,146.0
2009-02-13,144.76
2009-02-17,133.54
2009-02-18,128.98
2009-02-19,131.41
2009-02-20,134.45
2009-02-23,124.93
2009-02-24,137.15
2009-02-25,107.47
2009-02-26,105.19
2009-02-27,106.44
2009-03-02,103.82
2009-03-03,110.64
2009-03-04,113.47
2009-03-05,109.52
2009-03-06,108.9
2009-03-09,108.16
2009-03-10,120.34
2009-03-11,119.46
2009-03-12,126.03
2009-03-13,129.29
2009-03-16,124.92
2009-03-17,115.44
2009-03-18,118.44
2009-03-19,124.79
2009-03-20,120.54
2009-03-23,130.86
2009-03-24,128.62
2009-03-25,133.44
2009-03-26,148.95
2009-03-27,147.12
2009-03-30,136.94
2009-03-31,132.41
2009-04-01,135.25
2009-04-02,137.31
2009-04-03,134.16
2009-04-06,138.53
2009-04-07,133.19
2009-04-08,135.48
2009-04-09,141.96
2009-04-13,144.48
2009-04-14,148.76
2009-04-15,149.38
2009-04-16,146.76
2009-04-17,143.75
2009-04-20,138.77
2009-04-21,140.29
2009-04-22,145.01
2009-04-23,143.19
2009-04-24,147.34
2009-04-27,152.15
2009-04-28,146.22
2009-04-29,151.38
2009-04-30,188.62
2009-05-01,181.09
2009-05-04,193.63
2009-05-05,192.03
2009-05-06,199.0
2009-05-07,194.82
2009-05-08,190.67
2009-05-11,193.75
2009-05-12,190.82
2009-05-13,179.11
2009-05-14,180.35
2009-05-15,177.48
2009-05-18,184.51
2009-05-19,189.16
2009-05-20,201.51
2009-05-21,192.4
2009-05-22,191.83
2009-05-26,179.0
2009-05-27,180.14
2009-05-28,184.22
2009-05-29,189.47
2009-06-01,188.69
2009-06-02,183.93
2009-06-03,178.0
2009-06-04,183.72
2009-06-05,181.82
2009-06-08,183.42
2009-06-09,183.04
2009-06-10,186.51
2009-06-11,184.06
2009-06-12,183.44
2009-06-15,178.54
2009-06-16,171.67
2009-06-17,168.32
2009-06-18,170.21
2009-06-19,172.6
2009-06-22,162.13
2009-06-23,164.1
2009-06-24,171.01
2009-06-25,160.21
2009-06-26,160.31
2009-06-29,157.22
2009-06-30,162.15
2009-07-01,155.01
2009-07-02,154.02
2009-07-06,149.77
2009-07-07,145.04
2009-07-08,149.81
2009-07-09,145.83
2009-07-10,143.43
2009-07-13,145.46
2009-07-14,141.36
2009-07-15,148.86
2009-07-16,145.35
2009-07-17,144.56
2009-07-20,146.43
2009-07-21,155.12
2009-07-22,151.27
2009-07-23,157.63
2009-07-24,169.75
2009-07-27,171.27
2009-07-28,167.6
2009-07-29,167.43
2009-07-30,174.2
2009-07-31,154.63
2009-08-03,155.72
2009-08-04,147.54
2009-08-05,149.33
2009-08-06,142.54
2009-08-07,146.32
2009-08-10,147.68
2009-08-11,146.28
2009-08-12,144.85
2009-08-13,145.03
2009-08-14,141.75
2009-08-17,134.16
2009-08-18,133.02
2009-08-19,131.03
2009-08-20,130.03
2009-08-21,121.69
2009-08-24,123.83
2009-08-25,127.71
2009-08-26,126.65
2009-08-27,125.61
2009-08-28,124.05
2009-08-31,121.25
2009-09-01,114.93
2009-09-02,118.37
2009-09-03,119.99
2009-09-04,121.4
2009-09-08,134.42
2009-09-09,136.46
2009-09-10,140.4
2009-09-11,136.69
2009-09-14,132.96
2009-09-15,140.02
2009-09-16,146.8
2009-09-17,150.55
2009-09-18,155.72
2009-09-21,157.15
2009-09-22,156.01
2009-09-23,152.86
2009-09-24,150.9
2009-09-25,152.61
2009-09-28,147.98
2009-09-29,151.59
2009-09-30,153.3
2009-10-01,144.03
2009-10-02,149.58
2009-10-05,148.82
2009-10-06,150.52
2009-10-07,154.74
2009-10-08,156.56
2009-10-09,156.71
2009-10-12,159.85
2009-10-13,154.49
2009-10-14,154.13
2009-10-15,151.89
2009-10-16,147.29
2009-10-19,151.91
2009-10-20,155.09
2009-10-21,153.75
2009-10-22,156.03
2009-10-23,152.43
2009-10-26,154.59
2009-10-27,150.07
2009-10-28,152.02
2009-10-29,126.3
2009-10-30,121.95
2009-11-02,121.85
2009-11-03,124.41
2009-11-04,121.25
2009-11-05,120.6
2009-11-06,117.9
2009-11-09,119.19
2009-11-10,120.01
2009-11-11,119.87
2009-11-12,115.29
2009-11-13,118.31
2009-11-16,123.35
2009-11-17,123.97
2009-11-18,124.71
2009-11-19,121.17
2009-11-20,121.03
2009-11-23,121.17
2009-11-24,119.05
2009-11-25,121.09
2009-11-27,120.42
2009-11-30,119.22
2009-12-01,122.16
2009-12-02,121.77
2009-12-03,128.07
2009-12-04,129.5
2009-12-07,135.19
2009-12-08,133.58
2009-12-09,135.59
2009-12-10,132.99
2009-12-11,132.76
2009-12-14,138.48
2009-12-15,138.84
2009-12-16,136.81
2009-12-17,135.71
2009-12-18,135.15
2009-12-21,136.99
2009-12-22,135.67
2009-12-23,132.21
2009-12-24,133.8
2009-12-28,134.85
2009-12-29,135.57
2009-12-30,136.52
2009-12-31,135.55
2010-01-04,135.22
2010-01-05,137.56
2010-01-06,140.05
2010-01-07,140.42
2010-01-08,139.55
2010-01-11,138.11
2010-01-12,132.88
2010-01-13,132.03
2010-01-14,124.76
2010-01-15,124.52
2010-01-19,124.03
2010-01-20,119.39
2010-01-21,119.05
2010-01-22,112.7
2010-01-25,111.85
2010-01-26,115.25
2010-01-27,113.93
2010-01-28,114.14
2010-01-29,113.38
2010-02-01,117.52
2010-02-02,117.12
2010-02-03,118.98
2010-02-04,113.33
2010-02-05,114.01
2010-02-08,111.08
2010-02-09,113.19
2010-02-10,109.41
2010-02-11,113.89
2010-02-12,115.1
2010-02-16,121.56
2010-02-17,124.53
2010-02-18,126.17
2010-02-19,115.9
2010-02-22,112.76
2010-02-23,105.26
2010-02-24,105.0
2010-02-25,102.89
2010-02-26,105.53
2010-03-01,105.52
2010-03-02,107.04
2010-03-03,107.63
2010-03-04,108.21
2010-03-05,108.78
2010-03-08,108.51
2010-03-09,106.24
2010-03-10,110.92
2010-03-11,113.9
2010-03-12,115.36
2010-03-15,114.95
2010-03-16,115.31
2010-03-17,114.6
2010-03-18,115.05
2010-03-19,113.2
2010-03-22,109.33
2010-03-23,112.02
2010-03-24,109.5
2010-03-25,112.0
2010-03-26,116.37
2010-03-29,119.34
2010-03-30,122.4
2010-03-31,122.35
2010-04-01,121.17
2010-04-05,122.19
2010-04-06,120.55
2010-04-07,126.57
2010-04-08,126.43
2010-04-09,124.12
2010-04-12,127.87
2010-04-13,126.77
2010-04-14,132.48
2010-04-15,137.8
2010-04-16,134.47
2010-04-19,132.41
2010-04-20,133.97
2010-04-21,130.42
2010-04-22,134.12
2010-04-23,133.78
2010-04-26,132.06
2010-04-27,128.15
2010-04-28,128.22
2010-04-29,150.99
2010-04-30,143.91
2010-05-03,146.59
2010-05-04,139.83
2010-05-05,134.07
2010-05-06,121.09
2010-05-07,122.54
2010-05-10,130.15
2010-05-11,127.74
2010-05-12,128.5
2010-05-13,126.14
2010-05-14,120.45
2010-05-17,113.11
2010-05-18,110.09
2010-05-19,110.15
2010-05-20,109.61
2010-05-21,113.96
2010-05-24,109.21
2010-05-25,112.66
2010-05-26,110.36
2010-05-27,115.59
2010-05-28,112.4
2010-06-01,107.2
2010-06-02,110.91
2010-06-03,113.04
2010-06-04,109.66
2010-06-07,105.05
2010-06-08,104.28
2010-06-09,102.94
2010-06-10,109.29
2010-06-11,107.18
2010-06-14,107.49
2010-06-15,117.08
2010-06-16,118.84
2010-06-17,123.53
2010-06-18,123.8
2010-06-21,122.39
2010-06-22,119.9
2010-06-23,120.58
2010-06-24,116.71
2010-06-25,119.22
2010-06-28,119.45
2010-06-29,114.53
2010-06-30,113.84
2010-07-01,117.59
2010-07-02,120.66
2010-07-06,121.57
2010-07-07,128.5
2010-07-08,130.61
2010-07-09,132.03
2010-07-12,129.49
2010-07-13,130.63
2010-07-14,133.02
2010-07-15,131.31
2010-07-16,128.82
2010-07-19,131.55
2010-07-20,136.29
2010-07-21,134.9
2010-07-22,137.47
2010-07-23,139.97
2010-07-26,139.32
2010-07-27,136.6
2010-07-28,137.08
2010-07-29,135.74
2010-07-30,125.54
2010-08-02,125.92
2010-08-03,126.54
2010-08-04,131.37
2010-08-05,129.75
2010-08-06,129.22
2010-08-09,129.51
2010-08-10,129.04
2010-08-11,125.3
2010-08-12,124.3
2010-08-13,124.71
2010-08-16,125.02
2010-08-17,125.72
2010-08-18,125.22
2010-08-19,123.38
2010-08-20,124.91
2010-08-23,126.3
2010-08-24,125.02
2010-08-25,125.01
2010-08-26,126.7
2010-08-27,128.66
2010-08-30,126.4
2010-08-31,127.59
2010-09-01,129.98
2010-09-02,134.93
2010-09-03,136.17
2010-09-07,134.96
2010-09-08,137.07
2010-09-09,138.54
2010-09-10,138.22
2010-09-13,138.63
2010-09-14,141.41
2010-09-15,140.0
2010-09-16,144.98
2010-09-17,144.4
2010-09-20,145.92
2010-09-21,145.75
2010-09-22,143.56
2010-09-23,142.73
2010-09-24,147.13
2010-09-27,147.93
2010-09-28,148.32
2010-09-29,149.16
2010-09-30,147.4
2010-10-01,147.25
2010-10-04,142.06
2010-10-05,142.36
2010-10-06,138.55
2010-10-07,140.43
2010-10-08,137.45
2010-10-11,139.48
2010-10-12,136.8
2010-10-13,136.78
2010-10-14,142.47
2010-10-15,144.65
2010-10-18,147.07
2010-10-19,143.77
2010-10-20,143.41
2010-10-21,144.7
2010-10-22,145.27
2010-10-25,147.11
2010-10-26,148.18
2010-10-27,150.12
2010-10-28,151.17
2010-10-29,137.47
2010-11-01,134.36
2010-11-02,137.35
2010-11-03,137.47
2010-11-04,136.36
2010-11-05,138.69
2010-11-08,140.33
2010-11-09,138.88
2010-11-10,140.13
2010-11-11,140.86
2010-11-12,138.6
2010-11-15,139.75
2010-11-16,130.62
2010-11-17,122.83
2010-11-18,123.63
2010-11-19,126.59
2010-11-22,124.51
2010-11-23,124.44
2010-11-24,126.21
2010-11-26,125.95
2010-11-29,122.33
2010-11-30,122.94
2010-12-01,126.67
2010-12-02,131.51
2010-12-03,131.32
2010-12-06,133.98
2010-12-07,131.11
2010-12-08,133.65
2010-12-09,133.1
2010-12-10,138.41
2010-12-13,137.05
2010-12-14,136.91
2010-12-15,135.06
2010-12-16,135.64
2010-12-17,132.43
2010-12-20,132.04
2010-12-21,132.97
2010-12-22,131.69
2010-12-23,131.83
2010-12-27,131.21
2010-12-28,129.16
2010-12-29,129.77
2010-12-30,130.96
2010-12-31,130.17
2011-01-03,132.64
2011-01-04,131.08
2011-01-05,131.55
2011-01-06,134.28
2011-01-07,133.76
2011-01-10,136.61
2011-01-11,137.47
2011-01-12,139.75
2011-01-13,141.46
2011-01-14,140.75
2011-01-18,148.1
2011-01-19,143.71
2011-01-20,147.21
2011-01-21,147.35
2011-01-24,156.3
2011-01-25,150.6
2011-01-26,151.54
2011-01-27,151.0
2011-01-28,147.42
2011-01-31,154.51
2011-02-01,156.0
2011-02-02,164.4
2011-02-03,162.16
2011-02-04,157.63
2011-02-07,159.38
2011-02-08,158.66
2011-02-09,155.28
2011-02-10,157.47
2011-02-11,165.76
2011-02-14,167.69
2011-02-15,166.07
2011-02-16,168.95
2011-02-17,170.76
2011-02-18,167.78
2011-02-22,164.01
2011-02-23,163.19
2011-02-24,164.92
2011-02-25,155.77
2011-02-28,147.4
2011-03-01,147.12
2011-03-02,145.64
2011-03-03,145.95
2011-03-04,146.71
2011-03-07,142.82
2011-03-08,143.04
2011-03-09,142.7
2011-03-10,140.11
2011-03-11,139.84
2011-03-14,146.98
2011-03-15,159.19
2011-03-16,155.4
2011-03-17,153.8
2011-03-18,149.9
2011-03-21,150.2
2011-03-22,148.88
2011-03-23,149.86
2011-03-24,150.08
2011-03-25,150.37
2011-03-28,153.21
2011-03-29,156.02
2011-03-30,155.22
2011-03-31,160.52
2011-04-01,159.16
2011-04-04,155.8
2011-04-05,152.23
2011-04-06,150.32
2011-04-07,148.69
2011-04-08,147.02
2011-04-11,144.29
2011-04-12,143.43
2011-04-13,144.51
2011-04-14,140.82
2011-04-15,137.51
2011-04-18,136.87
2011-04-19,134.36
2011-04-20,138.56
2011-04-21,137.0
2011-04-25,134.62
2011-04-26,136.45
2011-04-27,138.54
2011-04-28,138.38
2011-04-29,139.5
2011-05-02,137.44
2011-05-03,134.5
2011-05-04,126.29
2011-05-05,127.91
2011-05-06,129.95
2011-05-09,130.07
2011-05-10,128.45
2011-05-11,124.21
2011-05-12,132.02
2011-05-13,125.6
2011-05-16,125.16
2011-05-17,126.55
2011-05-18,129.26
2011-05-19,128.27
2011-05-20,126.42
2011-05-23,124.17
2011-05-24,123.88
2011-05-25,120.44
2011-05-26,117.82
2011-05-27,121.26
2011-05-31,124.14
2011-06-01,119.68
2011-06-02,120.57
2011-06-03,118.75
2011-06-06,116.65
2011-06-07,117.85
2011-06-08,114.22
2011-06-09,114.02
2011-06-10,117.09
2011-06-13,116.32
2011-06-14,119.25
2011-06-15,116.8
2011-06-16,118.79
2011-06-17,121.52
2011-06-20,125.09
2011-06-21,124.57
2011-06-22,122.94
2011-06-23,122.45
2011-06-24,116.29
2011-06-27,116.69
2011-06-28,124.59
2011-06-29,129.26
2011-06-30,132.44
2011-07-01,133.14
2011-07-05,132.04
2011-07-06,131.37
2011-07-07,132.84
2011-07-08,132.47
2011-07-11,126.86
2011-07-12,124.1
2011-07-13,125.13
2011-07-14,123.24
2011-07-15,124.64
2011-07-18,121.95
2011-07-19,123.73
2011-07-20,123.38
2011-07-21,125.24
2011-07-22,123.99
2011-07-25,120.59
2011-07-26,120.13
2011-07-27,116.54
2011-07-28,117.63
2011-07-29,118.17
2011-08-01,117.48
2011-08-02,115.09
2011-08-03,115.43
2011-08-04,107.92
2011-08-05,105.41
2011-08-08,100.11
2011-08-09,99.65
2011-08-10,100.25
2011-08-11,103.09
2011-08-12,104.1
2011-08-15,106.12
2011-08-16,104.36
2011-08-17,99.37
2011-08-18,94.77
2011-08-19,88.75
2011-08-22,87.7
2011-08-23,94.18
2011-08-24,95.62
2011-08-25,96.62
2011-08-26,100.54
2011-08-29,102.26
2011-08-30,101.9
2011-08-31,99.82
2011-09-01,96.93
2011-09-02,90.12
2011-09-06,87.64
2011-09-07,90.0
2011-09-08,86.7
2011-09-09,85.0
2011-09-12,86.02
2011-09-13,90.76
2011-09-14,91.43
2011-09-15,90.48
2011-09-16,85.62
2011-09-19,83.97
2011-09-20,79.2
2011-09-21,73.57
2011-09-22,66.91
2011-09-23,70.06
2011-09-26,71.75
2011-09-27,72.17
2011-09-28,64.85
2011-09-29,64.92
2011-09-30,63.17
2011-10-03,58.0
2011-10-04,57.75
2011-10-05,60.88
2011-10-06,64.62
2011-10-07,59.68
2011-10-10,59.64
2011-10-11,55.85
2011-10-12,57.05
2011-10-13,56.81
2011-10-14,56.25
2011-10-17,52.8
2011-10-18,55.83
2011-10-19,51.12
2011-10-20,52.34
2011-10-21,53.76
2011-10-24,57.96
2011-10-25,43.12
2011-10-26,46.13
2011-10-27,52.71
2011-10-28,53.99
2011-10-31,49.8
2011-11-01,46.8
2011-11-02,47.16
2011-11-03,48.11
2011-11-04,49.49
2011-11-07,47.72
2011-11-08,47.52
2011-11-09,44.96
2011-11-10,45.13
2011-11-11,46.1
2011-11-14,44.67
2011-11-15,45.05
2011-11-16,44.13
2011-11-17,45.61
2011-11-18,45.48
2011-11-21,43.6
2011-11-22,40.79
2011-11-23,41.68
2011-11-25,40.3
2011-11-28,44.5
2011-11-29,43.78
2011-11-30,47.85
2011-12-01,47.48
2011-12-02,47.85
2011-12-05,47.68
2011-12-06,46.18
2011-12-07,48.06
2011-12-08,45.26
2011-12-09,45.77
2011-12-12,44.36
2011-12-13,42.59
2011-12-14,33.36
2011-12-15,31.37
2011-12-16,31.86
2011-12-19,30.59
2011-12-20,32.82
2011-12-21,31.88
2011-12-22,34.19
2011-12-23,34.7
2011-12-27,32.95
2011-12-28,32.06
2011-12-29,32.85
2011-12-30,33.8
2012-01-03,35.83
2012-01-04,34.73
2012-01-05,35.5
2012-01-06,35.24
2012-01-09,36.83
2012-01-10,38.77
2012-01-11,41.81
2012-01-12,41.54
2012-01-13,39.84
2012-01-17,39.93
2012-01-18,42.98
2012-01-19,38.74
2012-01-20,38.43
2012-01-23,37.91
2012-01-24,38.04
2012-01-25,38.66
2012-01-26,40.89
2012-01-27,45.62
2012-01-30,43.93
2012-01-31,42.32
2012-02-01,42.62
2012-02-02,44.73
2012-02-03,45.14
2012-02-06,46.45
2012-02-07,46.56
2012-02-08,45.8
2012-02-09,49.05
2012-02-10,43.89
2012-02-13,41.72
2012-02-14,39.19
2012-02-15,39.07
2012-02-16,39.68
2012-02-17,42.61
2012-02-21,42.38
2012-02-22,40.47
2012-02-23,37.22
2012-02-24,35.52
2012-02-27,36.17
2012-02-28,36.43
2012-02-29,32.12
2012-03-01,30.44
2012-03-02,30.02
2012-03-05,28.08
2012-03-06,27.63
2012-03-07,25.76
2012-03-08,26.15
2012-03-09,27.49
2012-03-12,25.81
2012-03-13,27.31
2012-03-14,27.1
2012-03-15,27.86
2012-03-16,29.08
2012-03-19,28.61
2012-03-20,27.44
2012-03-21,26.32
2012-03-22,26.93
2012-03-23,26.12
2012-03-26,26.38
2012-03-27,26.1
2012-03-28,25.06
2012-03-29,25.15
2012-03-30,25.1
2012-04-02,24.51
2012-04-03,22.57
2012-04-04,21.78
2012-04-05,20.98
2012-04-09,20.19
2012-04-10,21.35
2012-04-11,22.54
2012-04-12,22.0
2012-04-13,20.88
2012-04-16,20.76
2012-04-17,22.96
2012-04-18,21.38
2012-04-19,21.4
2012-04-20,20.72
2012-04-23,19.24
2012-04-24,18.7
2012-04-25,18.38
2012-04-26,18.3
2012-04-27,18.38
2012-04-30,18.42
2012-05-01,18.41
2012-05-02,18.2
2012-05-03,18.08
2012-05-04,16.95
2012-05-07,17.67
2012-05-08,16.51
2012-05-09,16.94
2012-05-10,16.2
2012-05-11,16.22
2012-05-14,16.24
2012-05-15,15.2
2012-05-16,14.01
2012-05-17,14.93
2012-05-18,13.69
2012-05-21,13.91
2012-05-22,13.57
2012-05-23,14.31
2012-05-24,14.1
2012-05-25,14.33
2012-05-29,14.2
2012-05-30,13.41
2012-05-31,12.56
2012-06-01,11.77
2012-06-04,12.26
2012-06-05,12.64
2012-06-06,13.32
2012-06-07,12.83
2012-06-08,12.75
2012-06-11,12.32
2012-06-12,14.98
2012-06-13,13.83
2012-06-14,13.42
2012-06-15,13.93
2012-06-18,14.48
2012-06-19,15.25
2012-06-20,14.92
2012-06-21,14.55
2012-06-22,15.8
2012-06-25,15.2
2012-06-26,14.9
2012-06-27,15.35
2012-06-28,14.74
2012-06-29,15.04
2012-07-02,15.26
2012-07-03,15.67
2012-07-05,15.44
2012-07-06,14.99
2012-07-09,14.58
2012-07-10,14.13
2012-07-11,14.65
2012-07-12,13.99
2012-07-13,14.14
2012-07-16,14.98
2012-07-17,14.43
2012-07-18,14.46
2012-07-19,15.13
2012-07-20,14.81
2012-07-23,14.25
2012-07-24,14.06
2012-07-25,14.17
2012-07-26,13.98
2012-07-27,14.47
2012-07-30,14.2
2012-07-31,15.57
2012-08-01,14.87
2012-08-02,17.97
2012-08-03,17.04
2012-08-06,19.1
2012-08-07,20.65
2012-08-08,21.32
2012-08-09,21.67
2012-08-10,21.42
2012-08-13,20.46
2012-08-14,20.02
2012-08-15,21.07
2012-08-16,21.48
2012-08-17,21.26
2012-08-20,22.48
2012-08-21,24.07
2012-08-22,23.89
2012-08-23,24.59
2012-08-24,24.78
2012-08-27,25.51
2012-08-28,25.68
2012-08-29,24.18
2012-08-30,19.66
2012-08-31,20.02
2012-09-04,18.9
2012-09-05,18.6
2012-09-06,20.01
2012-09-07,20.44
2012-09-10,20.81
2012-09-11,21.81
2012-09-12,22.44
2012-09-13,22.58
2012-09-14,24.6
2012-09-17,23.2
2012-09-18,23.09
2012-09-19,23.47
2012-09-20,22.55
2012-09-21,21.3
2012-09-24,21.03
2012-09-25,20.53
2012-09-26,20.89
2012-09-27,23.08
2012-09-28,22.17
2012-10-01,21.91
2012-10-02,22.89
2012-10-03,21.98
2012-10-04,22.56
2012-10-05,20.04
2012-10-08,20.26
2012-10-09,20.79
2012-10-10,21.0
2012-10-11,21.72
2012-10-12,22.14
2012-10-15,22.22
2012-10-16,24.08
2012-10-17,25.22
2012-10-18,25.17
2012-10-19,23.57
2012-10-22,23.8
2012-10-23,23.34
2012-10-24,23.38
2012-10-25,23.8
2012-10-26,23.97
2012-10-31,24.31
2012-11-01,24.75
2012-11-02,22.6
2012-11-05,23.33
2012-11-06,24.84
2012-11-07,23.71
2012-11-08,24.17
2012-11-09,24.53
2012-11-12,25.45
2012-11-13,24.41
2012-11-14,23.41
2012-11-15,23.26
2012-11-16,23.56
2012-11-19,24.1
2012-11-20,23.84
2012-11-21,24.46
2012-11-23,24.49
2012-11-26,25.24
2012-11-27,26.32
2012-11-28,27.21
2012-11-29,27.03
2012-11-30,27.0
2012-12-03,27.5
2012-12-04,29.6
2012-12-05,29.94
2012-12-06,30.72
2012-12-07,29.9
2012-12-10,30.07
2012-12-11,31.08
2012-12-12,32.0
2012-12-13,31.82
2012-12-14,32.51
2012-12-17,32.0
2012-12-18,31.99
2012-12-19,33.06
2012-12-20,32.28
2012-12-21,30.98
2012-12-24,30.25
2012-12-26,30.59
2012-12-27,30.03
2012-12-28,29.81
2012-12-31,30.83
2013-01-02,31.97
2013-01-03,34.39
2013-01-04,33.61
2013-01-07,31.32
2013-01-08,30.99
2013-01-09,31.9
2013-01-10,31.95
2013-01-11,32.0
2013-01-14,31.16
2013-01-15,31.61
2013-01-16,30.71
2013-01-17,30.59
2013-01-18,30.04
2013-01-22,31.57
2013-01-23,31.13
2013-01-24,30.29
2013-01-25,30.2
2013-01-28,29.705
2013-01-29,27.94
2013-01-30,27.9
2013-01-31,28.175
2013-02-01,28.365
2013-02-04,28.3401
2013-02-05,28.9801
2013-02-06,31.17
2013-02-07,31.06
2013-02-08,30.37
2013-02-11,32.39
2013-02-12,33.75
2013-02-13,32.44
2013-02-14,34.93
2013-02-15,34.0601
2013-02-19,36.16
2013-02-20,35.08
2013-02-21,34.44
2013-02-22,33.81
2013-02-25,32.77
2013-02-26,31.41
2013-02-27,27.02
2013-02-28,25.85
2013-03-01,25.32
2013-03-04,24.69
2013-03-05,25.09
2013-03-06,25.88
2013-03-07,26.09
2013-03-08,26.26
2013-03-11,26.6
2013-03-12,27.46
2013-03-13,26.91
2013-03-14,27.24
2013-03-15,26.56
2013-03-18,26.92
2013-03-19,27.85
2013-03-20,29.49
2013-03-21,28.98
2013-03-22,28.8
2013-03-25,28.02
2013-03-26,27.6
2013-03-27,27.43
2013-03-28,26.99
2013-04-01,26.8
2013-04-02,26.21
2013-04-03,26.08
2013-04-04,26.47
2013-04-05,26.43
2013-04-08,27.07
2013-04-09,39.47
2013-04-10,36.34
2013-04-11,37.16
2013-04-12,37.15
2013-04-15,36.03
2013-04-16,37.57
2013-04-17,37.38
2013-04-18,37.65
2013-04-19,38.07
2013-04-22,38.74
2013-04-23,40.31
2013-04-24,45.06
2013-04-25,44.49
2013-04-26,44.09
2013-04-29,45.55
2013-04-30,46.54
2013-05-01,45.78
2013-05-02,46.52
2013-05-03,45.97
2013-05-06,47.65
2013-05-07,43.44
2013-05-08,45.21
2013-05-09,47.12
2013-05-10,49.32
2013-05-13,50.43
2013-05-14,50.58
2013-05-15,50.1
2013-05-16,48.39
2013-05-17,50.01
2013-05-20,54.91
2013-05-21,55.6
2013-05-22,52.35
2013-05-23,51.58
2013-05-24,51.48
2013-05-28,51.06
2013-05-29,51.75
2013-05-30,55.12
2013-05-31,54.51
2013-06-03,53.27
2013-06-04,52.61
2013-06-05,50.99
2013-06-06,53.2
2013-06-07,53.14
2013-06-10,56.35
2013-06-11,52.27
2013-06-12,46.72
2013-06-13,45.98
2013-06-14,44.68
2013-06-17,45.29
2013-06-18,46.0
2013-06-19,44.58
2013-06-20,42.09
2013-06-21,41.45
2013-06-24,41.29
2013-06-25,44.52
2013-06-26,45.13
2013-06-27,44.49
2013-06-28,45.01
2013-07-01,46.33
2013-07-02,45.12
2013-07-03,45.69
2013-07-05,46.34
2013-07-08,46.04
2013-07-09,44.97
2013-07-10,44.65
2013-07-11,46.49
2013-07-12,47.65
2013-07-15,50.31
2013-07-16,48.91
2013-07-17,49.08
2013-07-18,48.89
2013-07-19,48.25
2013-07-22,49.03
2013-07-23,48.0
2013-07-24,46.76
2013-07-25,47.54
2013-07-26,47.49
2013-07-29,47.28
2013-07-30,48.51
2013-07-31,49.24
2013-08-01,48.14
2013-08-02,47.27
2013-08-05,47.81
2013-08-06,46.76
2013-08-07,40.46
2013-08-08,40.52
2013-08-09,41.02
