date,close_price
1998-01-02,11.0691
1998-01-05,11.6896
1998-01-06,11.6342
1998-01-07,11.5789
1998-01-08,11.7245
1998-01-09,11.2148
1998-01-12,11.0138
1998-01-13,11.0517
1998-01-14,11.0517
1998-01-15,10.8681
1998-01-16,10.941
1998-01-20,10.8157
1998-01-21,10.6322
1998-01-22,10.4691
1998-01-23,10.4516
1998-01-26,10.3234
1998-01-27,10.4312
1998-01-28,9.41168
1998-01-29,9.92144
1998-01-30,9.94183
1998-02-02,10.1603
1998-02-03,10.1778
1998-02-04,10.1953
1998-02-05,10.2681
1998-02-06,10.4866
1998-02-09,10.5594
1998-02-10,10.7778
1998-02-11,11.0342
1998-02-12,10.9788
1998-02-13,10.9614
1998-02-17,10.9788
1998-02-18,10.906
1998-02-19,10.941
1998-02-20,11.1973
1998-02-23,11.1798
1998-02-24,11.4507
1998-02-25,11.7245
1998-02-26,11.9059
1998-02-27,11.9234
1998-03-02,11.742
1998-03-03,12.0141
1998-03-04,11.941
1998-03-05,12.1078
1998-03-06,11.941
1998-03-09,12.0697
1998-03-10,11.9966
1998-03-11,12.0873
1998-03-12,12.1809
1998-03-13,12.2541
1998-03-16,12.1429
1998-03-17,12.1985
1998-03-18,12.1985
1998-03-19,12.2716
1998-03-20,12.453
1998-03-23,12.4735
1998-03-24,12.6198
1998-03-25,12.693
1998-03-26,12.7661
1998-03-27,12.693
1998-03-30,12.8393
1998-03-31,12.93
1998-04-01,12.7456
1998-04-02,12.3623
1998-04-03,11.7771
1998-04-06,11.6133
1998-04-07,11.5957
1998-04-08,11.6308
1998-04-09,11.5957
1998-04-13,11.5752
1998-04-14,11.5226
1998-04-15,11.5577
1998-04-16,11.5752
1998-04-17,11.9234
1998-04-20,11.704
1998-04-21,11.6484
1998-04-22,11.7215
1998-04-23,11.8678
1998-04-24,11.704
1998-04-27,11.4289
1998-04-28,11.4289
1998-04-29,11.5021
1998-04-30,11.742
1998-05-01,11.979
1998-05-04,12.3623
1998-05-05,12.1078
1998-05-06,12.1604
1998-05-07,11.941
1998-05-08,12.0522
1998-05-11,12.1809
1998-05-12,12.216
1998-05-13,11.9966
1998-05-14,12.1429
1998-05-15,11.9234
1998-05-18,11.9615
1998-05-19,11.742
1998-05-20,11.7947
1998-05-21,11.742
1998-05-22,11.8152
1998-05-26,11.6864
1998-05-27,11.5021
1998-05-28,11.6491
1998-05-29,11.5933
1998-06-01,11.2993
1998-06-02,11.1142
1998-06-03,11.0965
1998-06-04,11.0612
1998-06-05,11.1142
1998-06-08,11.2993
1998-06-09,11.1142
1998-06-10,10.8408
1998-06-11,10.4175
1998-06-12,10.5645
1998-06-15,10.1588
1998-06-16,9.99422
1998-06-17,10.0677
1998-06-18,10.2323
1998-06-19,10.1059
1998-06-22,10.1236
1998-06-23,10.0677
1998-06-24,10.2529
1998-06-25,10.3617
1998-06-26,10.2882
1998-06-29,10.1412
1998-06-30,10.2323
1998-07-01,10.2147
1998-07-02,10.2705
1998-07-06,10.2882
1998-07-07,10.3617
1998-07-08,10.344
1998-07-09,9.99422
1998-07-10,10.0119
1998-07-13,9.95894
1998-07-14,9.99422
1998-07-15,9.90309
1998-07-16,9.90309
1998-07-17,9.84724
1998-07-20,9.70027
1998-07-21,9.62678
1998-07-22,9.57093
1998-07-23,9.38869
1998-07-24,9.0771
1998-07-27,8.76258
1998-07-28,8.85664
1998-07-29,9.15059
1998-07-30,9.2035
1998-07-31,9.02125
1998-08-03,8.94776
1998-08-04,8.7273
1998-08-05,8.74494
1998-08-06,8.43336
1998-08-07,8.52448
1998-08-10,8.54212
1998-08-11,8.58033
1998-08-12,8.70967
1998-08-13,8.76258
1998-08-14,8.68909
1998-08-17,8.80079
1998-08-18,9.0771
1998-08-19,8.98304
1998-08-20,8.87428
1998-08-21,8.81843
1998-08-24,8.85664
1998-08-25,8.56269
1998-08-26,8.08356
1998-08-27,7.71612
1998-08-28,7.65989
1998-08-31,7.2692
1998-09-01,7.10345
1998-09-02,6.97322
1998-09-03,6.95546
1998-09-04,7.15969
1998-09-08,7.39943
1998-09-09,7.32543
1998-09-10,7.28992
1998-09-11,7.5119
1998-09-14,7.63917
1998-09-15,8.04762
1998-09-16,8.25184
1998-09-17,8.21336
1998-09-18,7.97362
1998-09-21,7.88187
1998-09-22,7.99138
1998-09-23,8.74908
1998-09-24,8.5271
1998-09-25,8.62181
1998-09-28,8.87931
1998-09-29,8.74908
1998-09-30,8.67509
1998-10-01,8.32584
1998-10-02,8.36135
1998-10-05,8.17785
1998-10-06,8.2696
1998-10-07,8.41759
1998-10-08,8.21336
1998-10-09,8.39983
1998-10-12,8.73132
1998-10-13,8.54782
1998-10-14,8.69581
1998-10-15,9.04506
1998-10-16,9.36176
1998-10-19,9.28776
1998-10-20,10.8209
1998-10-21,10.5457
1998-10-22,10.6197
1998-10-23,10.6197
1998-10-26,10.5072
1998-10-27,10.3237
1998-10-28,10.1195
1998-10-29,10.3414
1998-10-30,10.7114
1998-11-02,10.9334
1998-11-03,11.3596
1998-11-04,11.8213
1998-11-05,11.8213
1998-11-06,11.6911
1998-11-09,11.4336
1998-11-10,11.7828
1998-11-11,11.7828
1998-11-12,11.7651
1998-11-13,11.8568
1998-11-16,11.8213
1998-11-17,11.4691
1998-11-18,11.5816
1998-11-19,11.7089
1998-11-20,11.8036
1998-11-23,12.0788
1998-11-24,12.1528
1998-11-25,12.1528
1998-11-27,12.1173
1998-11-30,11.8953
1998-12-01,11.9693
1998-12-02,12.0995
1998-12-03,11.8568
1998-12-04,12.1735
1998-12-07,12.505
1998-12-08,13.097
1998-12-09,13.1355
1998-12-10,12.743
1998-12-11,13.1888
1998-12-14,12.7787
1998-12-15,12.4815
1998-12-16,12.4815
1998-12-17,13.0194
1998-12-18,12.9273
1998-12-21,12.9659
1998-12-22,12.9273
1998-12-23,13.0194
1998-12-24,13.1323
1998-12-28,13.168
1998-12-29,13.2988
1998-12-30,13.3166
1998-12-31,13.3374
1999-01-04,13.5217
1999-01-05,13.5603
1999-01-06,14.4132
1999-01-07,14.3211
1999-01-08,14.3032
1999-01-11,14.0417
1999-01-12,14.1338
1999-01-13,13.9853
1999-01-14,13.8188
1999-01-15,14.3567
1999-01-19,14.8411
1999-01-20,14.7104
1999-01-21,14.5261
1999-01-22,14.5261
1999-01-25,14.3032
1999-01-26,13.9496
1999-01-27,14.3211
1999-01-28,14.4132
1999-01-29,14.5053
1999-02-01,14.431
1999-02-02,14.0595
1999-02-03,14.5261
1999-02-04,14.5618
1999-02-05,14.2289
1999-02-08,14.2468
1999-02-09,14.0239
1999-02-10,14.116
1999-02-11,14.6925
1999-02-12,14.3775
1999-02-16,14.4875
1999-02-17,14.4518
1999-02-18,14.3567
1999-02-19,14.2824
1999-02-22,14.8976
1999-02-23,16.3092
1999-02-24,15.8634
1999-02-25,16.0273
1999-02-26,15.8782
1999-03-01,16.7549
1999-03-02,16.6416
1999-03-03,16.3643
1999-03-04,16.6803
1999-03-05,16.904
1999-03-08,17.3125
1999-03-09,17.6852
1999-03-10,17.7806
1999-03-11,18.0788
1999-03-12,17.5182
1999-03-15,17.5749
1999-03-16,17.5003
1999-03-17,17.891
1999-03-18,18.0043
1999-03-19,17.4824
1999-03-22,17.22
1999-03-23,16.6803
1999-03-24,16.9398
1999-03-25,17.071
1999-03-26,16.9964
1999-03-29,18.1534
1999-03-30,17.891
1999-03-31,17.9297
1999-04-01,18.0222
1999-04-05,18.1534
1999-04-06,17.891
1999-04-07,18.1534
1999-04-08,18.207
1999-04-09,18.1325
1999-04-12,18.711
1999-04-13,18.5798
1999-04-14,19.5131
1999-04-15,18.3203
1999-04-16,18.1146
1999-04-19,17.9834
1999-04-20,17.6315
1999-04-21,17.891
1999-04-22,17.8552
1999-04-23,18.1534
1999-04-26,17.8552
1999-04-27,17.8731
1999-04-28,18.1534
1999-04-29,17.387
1999-04-30,17.071
1999-05-03,16.9785
1999-05-04,17.3512
1999-05-05,17.5928
1999-05-06,17.1276
1999-05-07,17.3334
1999-05-10,17.1097
1999-05-11,16.6803
1999-05-12,17.2946
1999-05-13,17.071
1999-05-14,16.4388
1999-05-17,15.8424
1999-05-18,16.1198
1999-05-19,15.8424
1999-05-20,16.1943
1999-05-21,15.8782
1999-05-24,15.097
1999-05-25,14.2561
1999-05-26,15.917
1999-05-27,15.6546
1999-05-28,16.3076
1999-06-01,16.5491
1999-06-02,16.4
1999-06-03,16.4359
1999-06-04,16.4539
1999-06-07,16.4718
1999-06-08,17.5399
1999-06-09,17.7433
1999-06-10,17.839
1999-06-11,18.0634
1999-06-14,18.4732
1999-06-15,18.2668
1999-06-16,18.2489
1999-06-17,18.4732
1999-06-18,18.3984
1999-06-21,18.2309
1999-06-22,18.0993
1999-06-23,18.0065
1999-06-24,17.6894
1999-06-25,17.9318
1999-06-28,18.548
1999-06-29,19.4096
1999-06-30,20.9413
1999-07-01,20.9413
1999-07-02,20.9413
1999-07-06,21.1836
1999-07-07,21.3721
1999-07-08,21.4649
1999-07-09,21.8568
1999-07-12,21.8568
1999-07-13,21.6892
1999-07-14,21.3332
1999-07-15,21.2405
1999-07-16,21.2973
1999-07-19,21.2794
1999-07-20,21.1298
1999-07-21,22.4012
1999-07-22,21.9704
1999-07-23,21.9525
1999-07-26,21.6533
1999-07-27,21.5576
1999-07-28,21.5396
1999-07-29,21.1298
1999-07-30,20.9413
1999-08-02,21.1298
1999-08-03,20.8845
1999-08-04,20.4178
1999-08-05,21.055
1999-08-06,20.7917
1999-08-09,20.9413
1999-08-10,19.613
1999-08-11,19.5203
1999-08-12,18.2878
1999-08-13,19.3887
1999-08-16,19.5024
1999-08-17,19.7267
1999-08-18,19.6519
1999-08-19,19.2391
1999-08-20,19.4276
1999-08-23,19.4096
1999-08-24,19.5592
1999-08-25,20.3071
1999-08-26,20.4746
1999-08-27,20.2114
1999-08-30,20.0438
1999-08-31,19.969
1999-09-01,19.8584
1999-09-02,19.9304
1999-09-03,20.7553
1999-09-07,21.2412
1999-09-08,21.4302
1999-09-09,21.4122
1999-09-10,21.3162
1999-09-13,20.9803
1999-09-14,20.7913
1999-09-15,20.4913
1999-09-16,20.1733
1999-09-17,20.3413
1999-09-20,20.3803
1999-09-21,19.7804
1999-09-22,19.4804
1999-09-23,19.6664
1999-09-24,19.1414
1999-09-27,19.7624
1999-09-28,19.5734
1999-09-29,19.7624
1999-09-30,20.5483
1999-10-01,20.5483
1999-10-04,20.6623
1999-10-05,20.4553
1999-10-06,20.7733
1999-10-07,20.6053
1999-10-08,21.0733
1999-10-11,21.2053
1999-10-12,21.3162
1999-10-13,20.3053
1999-10-14,19.8554
1999-10-15,19.6484
1999-10-18,19.7804
1999-10-19,20.0054
1999-10-20,20.0623
1999-10-21,20.0983
1999-10-22,20.9053
1999-10-25,20.6233
1999-10-26,20.9413
1999-10-27,21.0373
1999-10-28,22.1622
1999-10-29,23.5871
1999-11-01,23.866
1999-11-02,23.5481
1999-11-03,23.0801
1999-11-04,23.812
1999-11-05,24.505
1999-11-08,24.598
1999-11-09,25.6869
1999-11-10,25.8729
1999-11-11,25.3119
1999-11-12,26.9228
1999-11-15,26.0229
1999-11-16,27.5797
1999-11-17,28.5726
1999-11-18,28.9296
1999-11-19,29.2116
1999-11-22,29.7905
1999-11-23,29.9045
1999-11-24,29.6796
1999-11-26,29.7725
1999-11-29,29.3939
1999-11-30,28.1377
1999-12-01,29.0934
1999-12-02,29.3007
1999-12-03,31.161
1999-12-06,31.5186
1999-12-07,31.9303
1999-12-08,32.9461
1999-12-09,34.5028
1999-12-10,35.1248
1999-12-13,36.1195
1999-12-14,34.0159
1999-12-15,31.78
1999-12-16,32.6065
1999-12-17,33.8085
1999-12-20,34.2774
1999-12-21,33.8476
1999-12-22,35.7619
1999-12-23,36.982
1999-12-27,36.0444
1999-12-28,36.8138
1999-12-29,37.2645
1999-12-30,36.6455
1999-12-31,38.7491
2000-01-03,36.5884
2000-01-04,33.0753
2000-01-05,32.3059
2000-01-06,32.1196
2000-01-07,34.7101
2000-01-10,35.4434
2000-01-11,32.3059
2000-01-12,31.1429
2000-01-13,35.1248
2000-01-14,33.6403
2000-01-18,37.7724
2000-01-19,40.1195
2000-01-20,47.0705
2000-01-21,48.9097
2000-01-24,46.4695
2000-01-25,45.5288
2000-01-26,47.0495
2000-01-27,48.6272
2000-01-28,44.4019
2000-01-31,46.4304
2000-02-01,44.2907
2000-02-02,44.5341
2000-02-03,45.7933
2000-02-04,49.5288
2000-02-07,49.2853
2000-02-08,51.0704
2000-02-09,49.3244
2000-02-10,50.7128
2000-02-11,49.7001
2000-02-14,54.0185
2000-02-15,52.6662
2000-02-16,53.3063
2000-02-17,57.5677
2000-02-18,57.9644
2000-02-22,57.0808
2000-02-23,56.573
2000-02-24,57.8321
2000-02-25,56.4618
2000-02-28,54.2079
2000-02-29,56.4798
2000-03-01,60.9696
2000-03-02,62.0193
2000-03-03,61.7757
2000-03-06,62.9788
2000-03-07,59.1979
2000-03-08,56.7736
2000-03-09,58.8219
2000-03-10,57.4504
2000-03-13,55.4952
2000-03-14,53.4649
2000-03-15,51.1158
2000-03-16,52.4122
2000-03-17,57.0744
2000-03-20,59.3483
2000-03-21,58.3527
2000-03-22,61.2493
2000-03-23,66.1371
2000-03-24,64.4828
2000-03-27,62.7532
2000-03-28,61.6253
2000-03-29,59.4807
2000-03-30,55.8712
2000-03-31,58.3527
2000-04-03,54.274
2000-04-04,50.2315
2000-04-05,49.8555
2000-04-06,52.8273
2000-04-07,58.7287
2000-04-10,57.0383
2000-04-11,50.3819
2000-04-12,45.7377
2000-04-13,47.0732
2000-04-14,41.0575
2000-04-17,44.5165
2000-04-18,47.5244
2000-04-19,48.3155
2000-04-20,45.7949
2000-04-24,44.5165
2000-04-25,53.8048
2000-04-26,54.5177
2000-04-27,57.3
2000-04-28,59.4055
2000-05-01,60.0642
2000-05-02,57.6007
2000-05-03,54.256
2000-05-04,54.8004
2000-05-05,56.8879
2000-05-08,55.2516
2000-05-09,53.5792
2000-05-10,51.6031
2000-05-11,54.7433
2000-05-12,56.0216
2000-05-15,55.008
2000-05-16,58.3166
2000-05-17,59.219
2000-05-18,57.6007
2000-05-19,54.8937
2000-05-22,52.5626
2000-05-23,49.4795
2000-05-24,51.3594
2000-05-25,51.8858
2000-05-26,51.0225
2000-05-30,55.6276
2000-05-31,57.9948
2000-06-01,58.633
2000-06-02,62.7155
2000-06-05,64.0522
2000-06-06,65.3318
2000-06-07,63.5434
2000-06-08,63.715
2000-06-09,63.9198
2000-06-12,69.622
2000-06-13,73.3101
2000-06-14,71.2026
2000-06-15,74.8726
2000-06-16,73.9122
2000-06-19,76.2094
2000-06-20,73.0482
2000-06-21,72.7079
2000-06-22,72.3888
2000-06-23,72.2955
2000-06-26,78.7474
2000-06-27,76.3208
2000-06-28,79.8583
2000-06-29,80.3852
2000-06-30,80.7043
2000-07-03,82.3421
2000-07-05,76.6218
2000-07-06,75.0051
2000-07-07,77.2992
2000-07-10,73.2348
2000-07-11,74.966
2000-07-12,76.6399
2000-07-13,78.5607
2000-07-14,80.1985
2000-07-17,83.9619
2000-07-18,82.9443
2000-07-19,81.0265
2000-07-20,82.8871
2000-07-21,85.3528
2000-07-24,74.966
2000-07-25,77.224
2000-07-26,77.7147
2000-07-27,74.8154
2000-07-28,69.622
2000-07-31,70.5252
2000-08-01,70.3175
2000-08-02,72.1811
2000-08-03,74.6468
2000-08-04,79.9336
2000-08-07,82.7937
2000-08-08,85.9549
2000-08-09,83.2092
2000-08-10,82.1916
2000-08-11,82.7937
2000-08-14,84.6182
2000-08-15,82.9443
2000-08-16,83.4892
2000-08-17,86.9906
2000-08-18,88.9656
2000-08-21,90.0194
2000-08-22,90.5101
2000-08-23,88.8151
2000-08-24,90.471
2000-08-25,90.8292
2000-08-28,93.5569
2000-08-29,93.1806
2000-08-30,97.4347
2000-08-31,98.6936
2000-09-01,102.269
2000-09-05,98.7298
2000-09-06,94.1359
2000-09-07,96.2446
2000-09-08,91.7652
2000-09-11,88.5059
2000-09-12,86.1532
2000-09-13,86.4545
2000-09-14,90.2199
2000-09-15,89.4668
2000-09-18,87.3582
2000-09-19,92.7804
2000-09-20,94.3619
2000-09-21,93.5907
2000-09-22,94.7776
2000-09-25,97.1875
2000-09-26,96.9615
2000-09-27,92.4791
2000-09-28,92.2924
2000-09-29,89.506
2000-10-02,88.6384
2000-10-03,86.6051
2000-10-04,89.015
2000-10-05,87.551
2000-10-06,82.0655
2000-10-09,83.9362
2000-10-10,76.4174
2000-10-11,74.8992
2000-10-12,76.3632
2000-10-13,84.0447
2000-10-16,88.9066
2000-10-17,87.6595
2000-10-18,80.4298
2000-10-19,85.9696
2000-10-20,96.2447
2000-10-23,92.0696
2000-10-24,85.1743
2000-10-25,69.3594
2000-10-26,64.1631
2000-10-27,68.5732
2000-10-30,64.1631
2000-10-31,69.1877
2000-11-01,66.6483
2000-11-02,64.6692
2000-11-03,66.4224
2000-11-06,63.2594
2000-11-07,61.6779
2000-11-08,55.8038
2000-11-09,58.2348
2000-11-10,54.5025
2000-11-13,53.888
2000-11-14,60.2139
2000-11-15,61.2261
2000-11-16,57.5028
2000-11-17,56.1473
2000-11-20,53.6621
2000-11-21,58.3433
2000-11-22,56.9877
2000-11-24,59.6446
2000-11-27,58.2348
2000-11-28,55.1803
2000-11-29,56.3732
2000-11-30,52.7584
2000-12-01,54.8459
2000-12-04,55.5237
2000-12-05,62.5274
2000-12-06,62.7533
2000-12-07,64.6692
2000-12-08,69.5311
2000-12-11,71.8446
2000-12-12,67.6062
2000-12-13,65.9705
2000-12-14,62.6335
2000-12-15,63.3661
2000-12-18,58.3916
2000-12-19,56.646
2000-12-20,49.745
2000-12-21,47.1492
2000-12-22,50.4234
2000-12-26,49.745
2000-12-27,48.7863
2000-12-28,49.5189
2000-12-29,47.7643
2001-01-02,42.7898
2001-01-03,50.2515
2001-01-04,49.745
2001-01-05,45.5031
2001-01-08,47.8818
2001-01-09,47.71
2001-01-10,51.4997
2001-01-11,53.3628
2001-01-12,54.4391
2001-01-16,54.0954
2001-01-17,57.8851
2001-01-18,62.0727
2001-01-19,62.6335
2001-01-22,61.105
2001-01-23,63.2033
2001-01-24,63.4294
2001-01-25,51.1017
2001-01-26,49.745
2001-01-29,52.377
2001-01-30,52.5488
2001-01-31,51.1921
2001-02-01,49.2928
2001-02-02,46.2267
2001-02-05,46.8327
2001-02-06,45.0419
2001-02-07,41.831
2001-02-08,38.9096
2001-02-09,37.0826
2001-02-12,37.6525
2001-02-13,35.5451
2001-02-14,35.1471
2001-02-15,38.0775
2001-02-16,29.847
2001-02-20,27.4321
2001-02-21,27.3598
2001-02-22,28.4903
2001-02-23,30.0279
2001-02-26,29.3315
2001-02-27,25.9307
2001-02-28,24.4293
2001-03-01,27.5474
2001-03-02,24.9277
2001-03-05,26.6953
2001-03-06,28.1547
2001-03-07,27.2664
2001-03-08,25.816
2001-03-09,24.4926
2001-03-12,21.2112
2001-03-13,22.3987
2001-03-14,21.6916
2001-03-15,21.6735
2001-03-16,20.9846
2001-03-19,23.0241
2001-03-20,21.3019
2001-03-21,21.8276
2001-03-22,22.1539
2001-03-23,21.6554
2001-03-26,21.9636
2001-03-27,22.6343
2001-03-28,19.3802
2001-03-29,18.1202
2001-03-30,18.5643
2001-04-02,17.9026
2001-04-03,16.6517
2001-04-04,17.2228
2001-04-05,18.6369
2001-04-06,17.4766
2001-04-09,17.7395
2001-04-10,20.1053
2001-04-11,19.7518
2001-04-12,21.6644
2001-04-16,20.2504
2001-04-17,20.7942
2001-04-18,22.6525
2001-04-19,24.1119
2001-04-20,24.2025
2001-04-23,20.9846
2001-04-24,20.196
2001-04-25,19.8515
2001-04-26,19.072
2001-04-27,19.0357
2001-04-30,19.8968
2001-05-01,20.4226
2001-05-02,22.5437
2001-05-03,20.767
2001-05-04,20.8124
2001-05-07,21.2203
2001-05-08,21.3834
2001-05-09,20.9393
2001-05-10,20.6764
2001-05-11,20.06
2001-05-14,19.3076
2001-05-15,18.6731
2001-05-16,19.2532
2001-05-17,19.0448
2001-05-18,19.0266
2001-05-21,20.6039
2001-05-22,21.0118
2001-05-23,20.3591
2001-05-24,20.0056
2001-05-25,19.634
2001-05-29,18.7275
2001-05-30,17.2409
2001-05-31,17.0956
2001-06-01,17.723
2001-06-04,17.1774
2001-06-05,18.2868
2001-06-06,17.723
2001-06-07,17.6321
2001-06-08,17.1865
2001-06-11,16.8319
2001-06-12,16.4227
2001-06-13,15.8953
2001-06-14,14.5313
2001-06-15,13.049
2001-06-18,11.9942
2001-06-19,12.0669
2001-06-20,11.6396
2001-06-21,13.1491
2001-06-22,13.5855
2001-06-25,13.6128
2001-06-26,12.9399
2001-06-27,13.3764
2001-06-28,14.2403
2001-06-29,15.186
2001-07-02,15.2587
2001-07-03,15.4588
2001-07-05,14.1675
2001-07-06,13.7674
2001-07-09,13.6947
2001-07-10,12.7762
2001-07-11,12.7126
2001-07-12,13.2491
2001-07-13,13.1854
2001-07-16,12.7762
2001-07-17,12.6944
2001-07-18,12.3125
2001-07-19,12.6307
2001-07-20,12.4125
2001-07-23,12.5398
2001-07-24,12.2943
2001-07-25,12.5307
2001-07-26,14.2312
2001-07-27,14.6222
2001-07-30,14.3949
2001-07-31,14.2675
2001-08-01,14.5767
2001-08-02,14.7859
2001-08-03,15.2224
2001-08-06,15.2951
2001-08-07,14.7768
2001-08-08,14.4221
2001-08-09,14.4494
2001-08-10,14.7222
2001-08-13,14.9314
2001-08-14,13.9856
2001-08-15,13.6765
2001-08-16,13.6492
2001-08-17,13.6128
2001-08-20,13.0945
2001-08-21,13.049
2001-08-22,13.0854
2001-08-23,13.2491
2001-08-24,14.3858
2001-08-27,14.5131
2001-08-28,14.0038
2001-08-29,13.4128
2001-08-30,11.0394
2001-08-31,10.9212
2001-09-04,10.13
2001-09-05,9.73903
2001-09-06,9.93909
2001-09-07,9.98455
2001-09-10,9.37529
2001-09-17,9.14796
2001-09-18,9.06612
2001-09-19,9.20252
2001-09-20,8.47505
2001-09-21,8.27499
2001-09-24,9.16615
2001-09-25,8.6842
2001-09-26,8.36593
2001-09-27,7.63845
2001-09-28,8.03856
2001-10-01,7.82942
2001-10-02,8.01128
2001-10-03,8.08403
2001-10-04,6.91098
2001-10-05,7.00192
2001-10-08,6.72912
2001-10-09,6.39266
2001-10-10,6.7564
2001-10-11,8.00219
2001-10-12,8.22043
2001-10-15,8.09312
2001-10-16,7.76576
2001-10-17,7.50205
2001-10-18,7.39293
2001-10-19,7.13832
2001-10-22,7.37475
2001-10-23,7.55661
2001-10-24,7.45659
2001-10-25,7.91126
2001-10-26,7.82032
2001-10-29,7.78395
2001-10-30,7.37475
2001-10-31,7.32019
2001-11-01,7.27472
2001-11-02,7.15651
2001-11-05,7.60208
2001-11-06,7.82942
2001-11-07,7.92035
2001-11-08,6.97464
2001-11-09,6.8928
2001-11-12,6.97464
2001-11-13,7.29291
2001-11-14,7.88398
2001-11-15,8.18406
2001-11-16,9.2298
2001-11-19,9.32983
2001-11-20,8.73876
2001-11-21,8.96609
2001-11-23,9.32073
2001-11-26,9.23889
2001-11-27,9.27527
2001-11-28,8.52961
2001-11-29,8.62054
2001-11-30,8.60236
2001-12-03,8.12041
2001-12-04,8.56598
2001-12-05,9.16615
2001-12-06,9.27527
2001-12-07,8.77513
2001-12-10,8.91153
2001-12-11,9.27527
2001-12-12,9.19343
2001-12-13,8.17497
2001-12-14,7.91126
2001-12-17,7.81123
2001-12-18,7.86579
2001-12-19,7.79304
2001-12-20,7.60208
2001-12-21,7.69302
2001-12-24,7.63845
2001-12-26,7.55661
2001-12-27,7.68392
2001-12-28,8.21134
2001-12-31,8.11131
2002-01-02,8.32046
2002-01-03,8.82969
2002-01-04,9.71175
2002-01-07,9.58444
2002-01-08,9.44804
2002-01-09,9.54807
2002-01-10,9.48442
2002-01-11,9.20252
2002-01-14,8.9479
2002-01-15,8.87516
2002-01-16,8.21134
2002-01-17,8.14769
2002-01-18,7.83851
2002-01-22,7.64755
2002-01-23,7.63845
2002-01-24,7.7112
2002-01-25,7.41112
2002-01-28,7.41112
2002-01-29,7.07466
2002-01-30,7.23835
2002-01-31,7.21107
2002-02-01,6.91098
2002-02-04,6.46541
2002-02-05,5.82887
2002-02-06,6.09258
2002-02-07,5.91071
2002-02-08,6.87461
2002-02-11,7.53843
2002-02-12,7.31109
2002-02-13,6.62909
2002-02-14,6.44722
2002-02-15,6.40175
2002-02-19,6.23807
2002-02-20,6.18351
2002-02-21,5.9289
2002-02-22,6.01074
2002-02-25,6.29263
2002-02-26,6.22898
2002-02-27,6.32901
2002-02-28,6.18351
2002-03-01,6.09258
2002-03-04,6.72912
2002-03-05,6.53815
2002-03-06,7.34747
2002-03-07,7.10194
2002-03-08,7.12922
2002-03-11,8.07494
2002-03-12,7.36565
2002-03-13,7.302
2002-03-14,7.20197
2002-03-15,7.15651
2002-03-18,7.29291
2002-03-19,7.04738
2002-03-20,6.83824
2002-03-21,6.81096
2002-03-22,6.66546
2002-03-25,6.41994
2002-03-26,6.58362
2002-03-27,6.6109
2002-03-28,6.93826
2002-04-01,7.07466
2002-04-02,6.69274
2002-04-03,6.41994
2002-04-04,6.36538
2002-04-05,6.1926
2002-04-08,6.39266
2002-04-09,6.32901
2002-04-10,6.27445
2002-04-11,6.01983
2002-04-12,6.23807
2002-04-15,6.21079
2002-04-16,6.7473
2002-04-17,6.91098
2002-04-18,6.80186
2002-04-19,6.72002
2002-04-22,6.34719
2002-04-23,6.17442
2002-04-24,6.00164
2002-04-25,6.17442
2002-04-26,5.82887
2002-04-29,6.09258
2002-04-30,6.07439
2002-05-01,6.13804
2002-05-02,6.09258
2002-05-03,6.01983
2002-05-06,5.91071
2002-05-07,5.68337
2002-05-08,6.18351
2002-05-09,6.01983
2002-05-10,5.80159
2002-05-13,5.45604
2002-05-14,5.82887
2002-05-15,5.647
2002-05-16,5.66519
2002-05-17,5.61063
2002-05-20,5.45604
2002-05-21,5.35601
2002-05-22,5.32873
2002-05-23,5.17414
2002-05-24,5.03774
2002-05-28,4.94681
2002-05-29,4.84678
2002-05-30,4.53761
2002-05-31,4.35574
2002-06-03,4.06475
2002-06-04,4.11022
2002-06-05,4.20115
2002-06-06,4.05566
2002-06-07,4.06475
2002-06-10,3.61008
2002-06-11,3.55552
2002-06-12,3.59189
2002-06-13,3.5828
2002-06-14,3.54643
2002-06-17,3.78285
2002-06-18,3.79195
2002-06-19,3.61917
2002-06-20,3.55552
2002-06-21,3.51005
2002-06-24,3.40093
2002-06-25,3.38274
2002-06-26,2.95535
2002-06-27,2.82805
2002-06-28,3.22816
2002-07-01,3.1645
2002-07-02,3.1736
2002-07-03,3.21906
2002-07-05,3.22816
2002-07-08,3.4373
2002-07-09,3.41002
2002-07-10,3.31
2002-07-11,3.45549
2002-07-12,3.38274
2002-07-15,3.55552
2002-07-16,3.60099
2002-07-17,3.74648
2002-07-18,3.61917
2002-07-19,3.13722
2002-07-22,3.00082
2002-07-23,2.8917
2002-07-24,3.04629
2002-07-25,2.82805
2002-07-26,2.65527
2002-07-29,2.84623
2002-07-30,2.24607
2002-07-31,1.54588
2002-08-01,1.41857
2002-08-02,1.55497
2002-08-05,1.45494
2002-08-06,1.46404
2002-08-07,1.44585
2002-08-08,1.42766
2002-08-09,1.40948
2002-08-12,1.44585
2002-08-13,1.41857
2002-08-14,1.40948
2002-08-15,1.42766
2002-08-16,1.43676
2002-08-19,1.47313
2002-08-20,1.62772
2002-08-21,1.61863
2002-08-22,1.81868
2002-08-23,1.80049
2002-08-26,2.02783
2002-08-27,2.04601
2002-08-28,1.77321
2002-08-29,1.82777
2002-08-30,1.82777
2002-09-03,1.75503
2002-09-04,1.89143
2002-09-05,1.84596
2002-09-06,1.9278
2002-09-09,1.91871
2002-09-10,1.93689
2002-09-11,1.96417
2002-09-12,1.87324
2002-09-13,1.82777
2002-09-16,1.76412
2002-09-17,1.69137
2002-09-18,1.60044
2002-09-19,1.50041
2002-09-20,1.67319
2002-09-23,1.60044
2002-09-24,1.52769
2002-09-25,1.54588
2002-09-26,1.5186
2002-09-27,1.32764
2002-09-30,1.41857
2002-10-01,1.44585
2002-10-02,1.41857
2002-10-03,1.27308
2002-10-04,1.19124
2002-10-07,1.19124
2002-10-08,1.03665
2002-10-09,1.1003
2002-10-10,1.22761
2002-10-11,1.34582
2002-10-14,1.30945
2002-10-15,1.50041
2002-10-16,1.40948
2002-10-17,1.46404
2002-10-18,1.41857
2002-10-21,1.50041
2002-10-22,1.46404
2002-10-23,1.54588
2002-10-24,1.81868
2002-10-25,1.77321
2002-10-28,1.84596
2002-10-29,1.80959
2002-10-30,1.80959
2002-10-31,1.72775
2002-11-01,1.85505
2002-11-04,1.94599
2002-11-05,2.09148
2002-11-06,2.57343
2002-11-07,2.38247
2002-11-08,2.18242
2002-11-11,1.97327
2002-11-12,2.36428
2002-11-13,2.66437
2002-11-14,3.09176
2002-11-15,3.09176
2002-11-18,3.45549
2002-11-19,3.5828
2002-11-20,3.83741
2002-11-21,4.11931
2002-11-22,3.78285
2002-11-25,3.80104
2002-11-26,3.4464
2002-11-27,3.76467
2002-11-29,4.0011
2002-12-02,4.52851
2002-12-03,4.08294
2002-12-04,3.78285
2002-12-05,3.54643
2002-12-06,3.50096
2002-12-09,3.04629
2002-12-10,3.37365
2002-12-11,3.59189
2002-12-12,3.54643
2002-12-13,3.42821
2002-12-16,3.53733
2002-12-17,3.40093
2002-12-18,3.26453
2002-12-19,3.04629
2002-12-20,2.95535
2002-12-23,3.04629
2002-12-24,2.95535
2002-12-26,2.85533
2002-12-27,2.92807
2002-12-30,2.81895
2002-12-31,2.99173
2003-01-02,3.39184
2003-01-03,3.51915
2003-01-06,3.57371
2003-01-07,3.64645
2003-01-08,3.41002
2003-01-09,3.83741
2003-01-10,4.09203
2003-01-13,4.19206
2003-01-14,4.29208
2003-01-15,4.2648
2003-01-16,3.91016
2003-01-17,3.91016
2003-01-21,3.72829
2003-01-22,3.7192
2003-01-23,3.992
2003-01-24,3.61008
2003-01-27,3.5828
2003-01-28,3.78285
2003-01-29,3.95563
2003-01-30,3.75557
2003-01-31,3.69192
2003-02-03,3.72829
2003-02-04,3.65555
2003-02-05,3.68283
2003-02-06,3.79195
2003-02-07,4.11022
2003-02-10,4.87406
2003-02-11,4.82859
2003-02-12,4.51942
2003-02-13,4.57398
2003-02-14,4.69219
2003-02-18,4.77403
2003-02-19,4.75585
2003-02-20,4.66491
2003-02-21,4.53761
2003-02-24,4.43758
2003-02-25,4.40121
2003-02-26,4.29208
2003-02-27,4.40121
2003-02-28,4.46486
2003-03-03,4.61945
2003-03-04,4.55579
2003-03-05,4.88316
2003-03-06,5.00137
2003-03-07,5.25598
2003-03-10,5.06502
2003-03-11,4.98318
2003-03-12,4.93772
2003-03-13,5.17414
2003-03-14,5.32873
2003-03-17,5.27417
2003-03-18,5.44695
2003-03-19,5.68337
2003-03-20,5.59244
2003-03-21,5.59244
2003-03-24,5.35601
2003-03-25,5.36511
2003-03-26,5.44695
2003-03-27,5.50151
2003-03-28,5.45604
2003-03-31,5.30145
2003-04-01,5.31964
2003-04-02,5.38329
2003-04-03,5.33783
2003-04-04,5.26508
2003-04-07,5.31964
2003-04-08,5.2287
2003-04-09,5.0923
2003-04-10,5.24689
2003-04-11,5.16505
2003-04-14,5.27417
2003-04-15,5.42876
2003-04-16,5.28326
2003-04-17,5.44695
2003-04-21,5.56516
2003-04-22,5.66519
2003-04-23,5.33783
2003-04-24,5.30145
2003-04-25,5.20142
2003-04-28,5.19233
2003-04-29,4.92862
2003-04-30,4.88316
2003-05-01,4.93772
2003-05-02,4.93772
2003-05-05,5.11049
2003-05-06,5.24689
2003-05-07,5.35601
2003-05-08,5.21052
2003-05-09,5.34692
2003-05-12,5.41967
2003-05-13,5.58335
2003-05-14,5.69247
2003-05-15,5.60153
2003-05-16,5.55607
2003-05-19,5.46513
2003-05-20,5.41967
2003-05-21,5.20142
2003-05-22,5.45604
2003-05-23,5.48332
2003-05-27,5.80159
2003-05-28,5.76521
2003-05-29,6.24717
2003-05-30,6.62909
2003-06-02,6.63818
2003-06-03,6.39266
2003-06-04,7.00192
2003-06-05,7.13832
2003-06-06,7.14741
2003-06-09,6.96554
2003-06-10,6.99282
2003-06-11,7.18379
2003-06-12,7.12922
2003-06-13,6.90189
2003-06-16,7.04738
2003-06-17,7.1656
2003-06-18,7.17469
2003-06-19,7.27472
2003-06-20,7.19288
2003-06-23,6.67455
2003-06-24,6.4745
2003-06-25,6.62909
2003-06-26,6.82005
2003-06-27,6.82914
2003-06-30,6.72002
2003-07-01,6.76549
2003-07-02,7.04738
2003-07-03,6.92917
2003-07-07,7.17469
2003-07-08,7.60208
2003-07-09,7.93854
2003-07-10,7.60208
2003-07-11,7.7203
2003-07-14,7.58389
2003-07-15,7.63845
2003-07-16,7.45659
2003-07-17,6.8837
2003-07-18,6.98373
2003-07-21,6.8928
2003-07-22,7.46568
2003-07-23,7.91126
2003-07-24,7.32928
2003-07-25,7.40203
2003-07-28,7.302
2003-07-29,7.18379
2003-07-30,7.27472
2003-07-31,7.40203
2003-08-01,7.42021
2003-08-04,7.21107
2003-08-05,6.83824
2003-08-06,6.60181
2003-08-07,6.67455
2003-08-08,6.68365
2003-08-11,6.77458
2003-08-12,6.94736
2003-08-13,7.12922
2003-08-14,7.22925
2003-08-15,7.23835
2003-08-18,7.40203
2003-08-19,7.46568
2003-08-20,7.61118
2003-08-21,7.58389
2003-08-22,7.41112
2003-08-25,7.33837
2003-08-26,7.45659
2003-08-27,7.59299
2003-08-28,7.49296
2003-08-29,7.50205
2003-09-02,7.53843
2003-09-03,7.83851
2003-09-04,7.78395
2003-09-05,7.95672
2003-09-08,8.21134
2003-09-09,8.06584
2003-09-10,7.73848
2003-09-11,7.74758
2003-09-12,7.80214
2003-09-15,7.89307
2003-09-16,8.33865
2003-09-17,8.45686
2003-09-18,8.86606
2003-09-19,9.03884
2003-09-22,8.8115
2003-09-23,8.65692
2003-09-24,8.51142
2003-09-25,8.21134
2003-09-26,8.19315
2003-09-29,8.72966
2003-09-30,8.57508
2003-10-01,8.50233
2003-10-02,8.61145
2003-10-03,8.89334
2003-10-06,9.27527
2003-10-07,9.65719
2003-10-08,9.639
2003-10-09,9.7754
2003-10-10,9.92999
2003-10-13,10.0937
2003-10-14,10.1482
2003-10-15,9.92999
2003-10-16,10.0027
2003-10-17,9.99365
2003-10-20,9.82087
2003-10-21,9.7845
2003-10-22,9.46623
2003-10-23,9.60263
2003-10-24,9.43895
2003-10-27,9.7845
2003-10-28,10.2392
2003-10-29,10.221
2003-10-30,10.0937
2003-10-31,9.93909
2003-11-03,10.221
2003-11-04,10.6302
2003-11-05,10.6757
2003-11-06,10.9394
2003-11-07,10.903
2003-11-10,10.8484
2003-11-11,10.512
2003-11-12,10.6575
2003-11-13,10.6847
2003-11-14,10.5483
2003-11-17,10.0664
2003-11-18,9.59354
2003-11-19,9.94818
2003-11-20,9.84815
2003-11-21,9.89362
2003-11-24,10.321
2003-11-25,10.3938
2003-11-26,10.4119
2003-11-28,10.4301
2003-12-01,10.512
2003-12-02,10.2574
2003-12-03,10.03
2003-12-04,10.0027
2003-12-05,9.59354
2003-12-08,9.5026
2003-12-09,8.97518
2003-12-10,9.15705
2003-12-11,9.54807
2003-12-12,9.81178
2003-12-15,9.81178
2003-12-16,9.31164
2003-12-17,9.12977
2003-12-18,9.58444
2003-12-19,9.47532
2003-12-22,9.42076
2003-12-23,9.3662
2003-12-24,9.30255
2003-12-26,9.32073
2003-12-29,9.45713
2003-12-30,9.40257
2003-12-31,9.49351
2004-01-02,9.32983
2004-01-05,10.0027
2004-01-06,10.4392
2004-01-07,10.3756
2004-01-08,10.8757
2004-01-09,10.9121
2004-01-12,11.0394
2004-01-13,10.9485
2004-01-14,11.1485
2004-01-15,11.3031
2004-01-16,12.1761
2004-01-20,12.558
2004-01-21,12.167
2004-01-22,11.685
2004-01-23,12.0033
2004-01-26,12.2215
2004-01-27,12.1033
2004-01-28,11.6941
2004-01-29,11.3395
2004-01-30,11.7487
2004-02-02,11.485
2004-02-03,11.3486
2004-02-04,10.8666
2004-02-05,10.8575
2004-02-06,11.4304
2004-02-09,11.5395
2004-02-10,11.5031
2004-02-11,11.6577
2004-02-12,11.4668
2004-02-13,11.2758
2004-02-17,11.7214
2004-02-18,11.9851
2004-02-19,11.876
2004-02-20,11.6577
2004-02-23,11.3213
2004-02-24,11.1849
2004-02-25,11.4304
2004-02-26,11.4577
2004-02-27,11.4122
2004-03-01,11.5759
2004-03-02,11.785
2004-03-03,11.6396
2004-03-04,11.6759
2004-03-05,11.5668
2004-03-08,11.5031
2004-03-09,11.0485
2004-03-10,10.5756
2004-03-11,10.0027
2004-03-12,10.3119
2004-03-15,9.85724
2004-03-16,9.68447
2004-03-17,9.96637
2004-03-18,9.85724
2004-03-19,9.639
2004-03-22,9.40257
2004-03-23,9.56626
2004-03-24,9.38439
2004-03-25,9.96637
2004-03-26,10.0755
2004-03-29,10.2301
2004-03-30,10.2755
2004-03-31,10.1573
2004-04-01,10.4756
2004-04-02,10.7939
2004-04-05,10.7393
2004-04-06,10.4028
2004-04-07,10.2119
2004-04-08,10.3483
2004-04-12,10.3392
2004-04-13,10.03
2004-04-14,9.90271
2004-04-15,9.80268
2004-04-16,9.59354
2004-04-19,9.59354
2004-04-20,9.39348
2004-04-21,9.31164
2004-04-22,9.39348
2004-04-23,11.0394
2004-04-26,10.9575
2004-04-27,10.9485
2004-04-28,10.5938
2004-04-29,10.1664
2004-04-30,10.0027
2004-05-03,10.2483
2004-05-04,10.4574
2004-05-05,10.712
2004-05-06,10.5029
2004-05-07,10.4847
2004-05-10,10.1573
2004-05-11,10.4119
2004-05-12,10.4665
2004-05-13,10.5847
2004-05-14,10.2755
2004-05-17,9.98455
2004-05-18,10.0027
2004-05-19,10.3847
2004-05-20,10.5665
2004-05-21,10.8302
2004-05-24,11.0303
2004-05-25,11.2576
2004-05-26,11.4213
2004-05-27,11.0849
2004-05-28,11.2576
2004-06-01,11.1303
2004-06-02,11.2303
2004-06-03,10.903
2004-06-04,11.194
2004-06-07,11.685
2004-06-08,11.785
2004-06-09,11.5031
2004-06-10,11.6577
2004-06-14,10.9121
2004-06-15,11.4031
2004-06-16,11.1667
2004-06-17,10.9575
2004-06-18,11.294
2004-06-21,10.9848
2004-06-22,11.1121
2004-06-23,11.4031
2004-06-24,11.394
2004-06-25,11.5577
2004-06-28,11.3667
2004-06-29,11.7396
2004-06-30,11.9033
2004-07-01,11.4577
2004-07-02,11.3667
2004-07-06,10.903
2004-07-07,11.1212
2004-07-08,10.7757
2004-07-09,10.9939
2004-07-12,10.7848
2004-07-13,10.9212
2004-07-14,10.7666
2004-07-15,10.5483
2004-07-16,10.6393
2004-07-19,10.2574
2004-07-20,11.5577
2004-07-21,11.0849
2004-07-22,11.1394
2004-07-23,10.9757
2004-07-26,10.8666
2004-07-27,10.9939
2004-07-28,11.003
2004-07-29,11.3213
2004-07-30,11.2576
2004-08-02,11.2667
2004-08-03,11.0212
2004-08-04,10.9303
2004-08-05,10.7211
2004-08-06,10.1391
2004-08-09,10.0118
2004-08-10,10.0937
2004-08-11,9.72084
2004-08-12,8.85697
2004-08-13,8.66601
2004-08-16,9.19343
2004-08-17,9.6481
2004-08-18,9.639
2004-08-19,9.72994
2004-08-20,9.75722
2004-08-23,9.67538
2004-08-24,9.53898
2004-08-25,9.34801
2004-08-26,8.99337
2004-08-27,9.26617
2004-08-30,9.11159
2004-08-31,9.20252
2004-09-01,9.29345
2004-09-02,9.43895
2004-09-03,9.17524
2004-09-07,9.14796
2004-09-08,9.22071
2004-09-09,10.0664
2004-09-10,10.0846
2004-09-13,10.2483
2004-09-14,10.0846
2004-09-15,9.94818
2004-09-16,10.2119
2004-09-17,10.2483
2004-09-20,10.2392
2004-09-21,10.4483
2004-09-22,10.3483
2004-09-23,10.4028
2004-09-24,10.4028
2004-09-27,10.0755
2004-09-28,9.87543
2004-09-29,10.0937
2004-09-30,10.0664
2004-10-01,10.4392
2004-10-04,10.6575
2004-10-05,10.3574
2004-10-06,10.3119
2004-10-07,9.55716
2004-10-08,9.32073
2004-10-11,9.62991
2004-10-12,9.42076
2004-10-13,9.42985
2004-10-14,9.34801
2004-10-15,9.5026
2004-10-18,9.32073
2004-10-19,9.28436
2004-10-20,9.52079
2004-10-21,9.80268
2004-10-22,9.72994
2004-10-25,9.7845
2004-10-26,9.85724
2004-10-27,10.3119
2004-10-28,10.2937
2004-10-29,10.4574
2004-11-01,10.5756
2004-11-02,10.712
2004-11-03,10.9666
2004-11-04,11.0576
2004-11-05,11.2485
2004-11-08,11.0394
2004-11-09,10.7666
2004-11-10,10.6847
2004-11-11,10.9394
2004-11-12,11.103
2004-11-15,11.103
2004-11-16,11.1758
2004-11-17,11.5395
2004-11-18,11.6668
2004-11-19,11.3395
2004-11-22,11.4031
2004-11-23,11.3758
2004-11-24,11.5486
2004-11-26,11.3667
2004-11-29,11.5031
2004-11-30,11.4486
2004-12-01,11.6577
2004-12-02,10.7211
2004-12-03,10.7939
2004-12-06,10.6211
2004-12-07,10.4301
2004-12-08,10.1391
2004-12-09,10.13
2004-12-10,10.2028
2004-12-13,10.121
2004-12-14,10.3119
2004-12-15,10.4938
2004-12-16,10.6029
2004-12-17,10.4847
2004-12-20,10.5302
2004-12-21,10.7211
2004-12-22,10.7757
2004-12-23,10.7484
2004-12-27,10.8121
2004-12-28,10.6302
2004-12-29,10.5665
2004-12-30,10.6847
2004-12-31,10.7029
2005-01-03,10.6484
2005-01-04,10.512
2005-01-05,10.3665
2005-01-06,10.6757
2005-01-07,10.8121
2005-01-10,10.8211
2005-01-11,10.6666
2005-01-12,10.7211
2005-01-13,10.7939
2005-01-14,10.7211
2005-01-18,11.103
2005-01-19,10.8302
2005-01-20,10.612
2005-01-21,10.4938
2005-01-24,10.1664
2005-01-25,10.4392
2005-01-26,9.96637
2005-01-27,9.7845
2005-01-28,9.76631
2005-01-31,9.92999
2005-02-01,9.92999
2005-02-02,10.1028
2005-02-03,10.0482
2005-02-04,10.2664
2005-02-07,10.6847
2005-02-08,10.9848
2005-02-09,10.6029
2005-02-10,10.6757
2005-02-11,10.8211
2005-02-14,10.7757
2005-02-15,10.712
2005-02-16,10.7848
2005-02-17,10.6847
2005-02-18,10.6211
2005-02-22,10.4847
2005-02-23,10.2755
2005-02-24,10.4574
2005-02-25,10.6211
2005-02-28,10.4119
2005-03-01,10.5574
2005-03-02,10.4483
2005-03-03,10.6666
2005-03-04,10.2664
2005-03-07,10.3847
2005-03-08,10.2846
2005-03-09,10.3574
2005-03-10,10.3483
2005-03-11,10.2755
2005-03-14,10.4392
2005-03-15,10.2937
2005-03-16,10.1482
2005-03-17,10.2937
2005-03-18,10.0846
2005-03-21,9.83906
2005-03-22,9.96637
2005-03-23,9.80268
2005-03-24,9.90271
2005-03-28,10.0027
2005-03-29,9.88452
2005-03-30,9.81178
2005-03-31,10.121
2005-04-01,10.121
2005-04-04,10.221
2005-04-05,10.2574
2005-04-06,10.7029
2005-04-07,10.9575
2005-04-08,10.9121
2005-04-11,10.7848
2005-04-12,10.8484
2005-04-13,10.5483
2005-04-14,10.3483
2005-04-15,10.0846
2005-04-18,10.5302
2005-04-19,10.6484
2005-04-20,11.2213
2005-04-21,11.2303
2005-04-22,11.2213
2005-04-25,11.4213
2005-04-26,11.4577
2005-04-27,12.3488
2005-04-28,12.5398
2005-04-29,12.4216
2005-05-02,12.5489
2005-05-03,12.5944
2005-05-04,12.4398
2005-05-05,12.558
2005-05-06,13.4219
2005-05-09,13.8311
2005-05-10,13.5037
2005-05-11,14.0857
2005-05-12,13.7856
2005-05-13,13.7038
2005-05-16,13.6401
2005-05-17,13.3855
2005-05-18,13.2309
2005-05-19,13.4855
2005-05-20,13.3764
2005-05-23,13.2127
2005-05-24,13.2309
2005-05-25,13.4673
2005-05-26,13.9038
2005-05-27,14.122
2005-05-31,14.2494
2005-06-01,14.8222
2005-06-02,14.5313
2005-06-03,14.5949
2005-06-06,14.5313
2005-06-07,14.1675
2005-06-08,14.3858
2005-06-09,14.504
2005-06-10,14.504
2005-06-13,14.5403
2005-06-14,14.8677
2005-06-15,15.0041
2005-06-16,15.2496
2005-06-17,15.0769
2005-06-20,15.1223
2005-06-21,14.995
2005-06-22,15.2587
2005-06-23,15.0041
2005-06-24,15.0678
2005-06-27,14.7495
2005-06-28,15.1587
2005-06-29,15.2951
2005-06-30,15.095
2005-07-01,15.3588
2005-07-05,15.286
2005-07-06,15.0132
2005-07-07,15.0859
2005-07-08,15.4133
2005-07-11,15.6406
2005-07-12,15.8407
2005-07-13,15.8407
2005-07-14,15.577
2005-07-15,15.7225
2005-07-18,15.9044
2005-07-19,16.5227
2005-07-20,16.5136
2005-07-21,16.5227
2005-07-22,16.0226
2005-07-25,16.1862
2005-07-26,16.5773
2005-07-27,17.3684
2005-07-28,17.0592
2005-07-29,17.3229
2005-08-01,17.6048
2005-08-02,17.8867
2005-08-03,18.305
2005-08-04,18.0231
2005-08-05,17.8594
2005-08-08,17.6412
2005-08-09,18.1504
2005-08-10,17.8049
2005-08-11,17.7412
2005-08-12,17.5957
2005-08-15,17.6139
2005-08-16,17.1502
2005-08-17,17.2593
2005-08-18,16.7864
2005-08-19,17.1865
2005-08-22,17.3229
2005-08-23,17.4957
2005-08-24,17.5321
2005-08-25,17.523
2005-08-26,17.4502
2005-08-29,17.4593
2005-08-30,18.1504
2005-08-31,18.1413
2005-09-01,17.9867
2005-09-02,18.0413
2005-09-06,18.2595
2005-09-07,18.1959
2005-09-08,18.9143
2005-09-09,18.8961
2005-09-12,19.2598
2005-09-13,19.7509
2005-09-14,18.9143
2005-09-15,17.8231
2005-09-16,18.4323
2005-09-19,18.3232
2005-09-20,18.2686
2005-09-21,17.9867
2005-09-22,17.0501
2005-09-23,17.3047
2005-09-26,17.1047
2005-09-27,16.841
2005-09-28,16.4954
2005-09-29,17.041
2005-09-30,17.5321
2005-10-03,17.6412
2005-10-04,17.5139
2005-10-05,16.8592
2005-10-06,16.9319
2005-10-07,16.841
2005-10-10,16.5955
2005-10-11,16.1499
2005-10-12,15.9589
2005-10-13,16.0771
2005-10-14,16.55
2005-10-17,16.4409
2005-10-18,16.4863
2005-10-19,16.7046
2005-10-20,16.6045
2005-10-21,16.8683
2005-10-24,17.0319
2005-10-25,16.8955
2005-10-26,16.359
2005-10-27,17.3047
2005-10-28,17.3047
2005-10-31,18.2323
2005-11-01,18.1231
2005-11-02,18.5414
2005-11-03,18.5778
2005-11-04,18.4778
2005-11-07,18.1868
2005-11-08,17.523
2005-11-09,17.7594
2005-11-10,17.8958
2005-11-11,18.2959
2005-11-14,18.205
2005-11-15,18.2414
2005-11-16,18.5323
2005-11-17,18.9597
2005-11-18,19.0416
2005-11-21,18.9688
2005-11-22,19.0961
2005-11-23,19.1507
2005-11-25,19.0325
2005-11-28,18.5051
2005-11-29,18.496
2005-11-30,18.4141
2005-12-01,18.5687
2005-12-02,18.9597
2005-12-05,19.3962
2005-12-06,19.2962
2005-12-07,19.0598
2005-12-08,19.2234
2005-12-09,19.2234
2005-12-12,19.469
2005-12-13,19.3235
2005-12-14,19.3508
2005-12-15,19.1871
2005-12-16,19.1052
2005-12-19,18.2232
2005-12-20,18.0413
2005-12-21,17.9049
2005-12-22,17.9958
2005-12-23,18.3141
2005-12-27,18.2232
2005-12-28,18.2959
2005-12-29,18.0868
2005-12-30,17.8958
2006-01-03,18.2232
2006-01-04,18.9234
2006-01-05,18.6415
2006-01-06,19.3053
2006-01-09,20.4783
2006-01-10,21.2058
2006-01-11,22.7426
2006-01-12,21.715
2006-01-13,22.5516
2006-01-17,22.1515
2006-01-18,22.9063
2006-01-19,22.6153
2006-01-20,21.7241
2006-01-23,21.6059
2006-01-24,22.0515
2006-01-25,23.1518
2006-01-26,22.7972
2006-01-27,22.6608
2006-01-30,22.6789
2006-01-31,22.197
2006-02-01,22.7881
2006-02-02,22.0697
2006-02-03,22.297
2006-02-06,21.8151
2006-02-07,21.8514
2006-02-08,21.906
2006-02-09,21.5604
2006-02-10,21.3604
2006-02-13,21.4877
2006-02-14,22.0242
2006-02-15,22.1879
2006-02-16,22.6517
2006-02-17,22.0788
2006-02-21,21.6787
2006-02-22,22.7153
2006-02-23,22.3698
2006-02-24,22.4425
2006-02-27,22.688
2006-02-28,22.1515
2006-03-01,24.0884
2006-03-02,23.9429
2006-03-03,24.2703
2006-03-06,24.2794
2006-03-07,23.6337
2006-03-08,23.0245
2006-03-09,22.6789
2006-03-10,22.9608
2006-03-13,23.0245
2006-03-14,23.6428
2006-03-15,24.5067
2006-03-16,25.025
2006-03-17,24.4794
2006-03-20,25.4251
2006-03-21,24.7886
2006-03-22,24.7613
2006-03-23,25.0887
2006-03-24,25.1705
2006-03-27,25.1796
2006-03-28,24.5249
2006-03-29,24.9796
2006-03-30,24.7431
2006-03-31,24.4794
2006-04-03,25.0432
2006-04-04,24.5067
2006-04-05,24.0884
2006-04-06,23.952
2006-04-07,23.8793
2006-04-10,23.5337
2006-04-11,23.7883
2006-04-12,24.343
2006-04-13,24.6249
2006-04-17,24.0248
2006-04-18,24.6704
2006-04-19,25.025
2006-04-20,25.4251
2006-04-21,26.4163
2006-04-24,26.1526
2006-04-25,24.9705
2006-04-26,25.8253
2006-04-27,25.6707
2006-04-28,25.0978
2006-05-01,25.0614
2006-05-02,25.2706
2006-05-03,25.5434
2006-05-04,25.8525
2006-05-05,25.6889
2006-05-08,25.3797
2006-05-09,25.4161
2006-05-10,24.7159
2006-05-11,23.3609
2006-05-12,22.6971
2006-05-15,22.4152
2006-05-16,22.3698
2006-05-17,22.1424
2006-05-18,21.7423
2006-05-19,22.297
2006-05-22,21.1876
2006-05-23,20.8603
2006-05-24,21.1603
2006-05-25,22.3061
2006-05-26,22.4698
2006-05-30,21.6423
2006-05-31,22.0151
2006-06-01,22.7153
2006-06-02,22.6789
2006-06-05,22.006
2006-06-06,21.8969
2006-06-07,20.0237
2006-06-08,19.8236
2006-06-09,20.251
2006-06-12,18.9597
2006-06-13,19.0961
2006-06-14,19.4599
2006-06-15,20.6602
2006-06-16,20.1419
2006-06-19,19.7054
2006-06-20,19.4781
2006-06-21,19.8236
2006-06-22,19.5963
2006-06-23,19.6145
2006-06-26,20.1601
2006-06-27,19.8691
2006-06-28,20.3692
2006-06-29,21.6968
2006-06-30,22.0242
2006-07-03,22.2788
2006-07-05,21.3695
2006-07-06,21.1422
2006-07-07,20.1419
2006-07-10,19.0689
2006-07-11,19.1962
2006-07-12,19.2325
2006-07-13,18.787
2006-07-14,20.0055
2006-07-17,19.7872
2006-07-18,19.9509
2006-07-19,20.5693
2006-07-20,20.642
2006-07-21,19.9509
2006-07-24,19.8691
2006-07-25,19.7236
2006-07-26,16.8501
2006-07-27,16.65
2006-07-28,17.3775
2006-07-31,17.3411
2006-08-01,16.5773
2006-08-02,16.3499
2006-08-03,16.7773
2006-08-04,16.5864
2006-08-07,16.841
2006-08-08,16.3681
2006-08-09,16.2135
2006-08-10,16.6955
2006-08-11,17.232
2006-08-14,17.4048
2006-08-15,18.2414
2006-08-16,18.9325
2006-08-17,19.0961
2006-08-18,19.1052
2006-08-21,18.9234
2006-08-22,18.696
2006-08-23,18.8779
2006-08-24,19.3326
2006-08-25,19.8236
2006-08-28,19.6236
2006-08-29,20.0328
2006-08-30,20.6511
2006-08-31,20.2237
2006-09-01,19.9782
2006-09-05,20.3692
2006-09-06,19.9145
2006-09-07,19.4781
2006-09-08,19.7963
2006-09-11,19.7236
2006-09-12,20.5056
2006-09-13,20.4965
2006-09-14,20.8148
2006-09-15,20.9421
2006-09-18,20.7602
2006-09-19,21.1422
2006-09-20,22.1424
2006-09-21,21.4877
2006-09-22,21.6968
2006-09-25,21.6514
2006-09-26,22.1515
2006-09-27,22.1879
2006-09-28,22.4516
2006-09-29,22.197
2006-10-02,21.806
2006-10-03,21.8151
2006-10-04,22.1424
2006-10-05,22.6517
2006-10-06,22.3516
2006-10-09,22.2515
2006-10-10,22.4971
2006-10-11,22.6517
2006-10-12,22.8062
2006-10-13,22.9336
2006-10-16,22.7608
2006-10-17,22.4789
2006-10-18,22.2061
2006-10-19,21.6332
2006-10-20,21.1331
2006-10-23,21.2695
2006-10-24,21.0603
2006-10-25,19.2144
2006-10-26,19.3144
2006-10-27,18.7051
2006-10-30,18.8597
2006-10-31,18.596
2006-11-01,18.4414
2006-11-02,18.4778
2006-11-03,18.6506
2006-11-06,18.7233
2006-11-07,19.1234
2006-11-08,18.8142
2006-11-09,18.3414
2006-11-10,18.2686
2006-11-13,18.8324
2006-11-14,19.4144
2006-11-15,19.4599
2006-11-16,19.669
2006-11-17,19.2871
2006-11-20,19.0234
2006-11-21,19.078
2006-11-22,19.5781
2006-11-24,19.6145
2006-11-27,19.0961
2006-11-28,19.0325
2006-11-29,19.5417
2006-11-30,19.6236
2006-12-01,19.1143
2006-12-04,19.1234
2006-12-05,19.9691
2006-12-06,19.9236
2006-12-07,19.1598
2006-12-08,18.8233
2006-12-11,18.4687
2006-12-12,17.9686
2006-12-13,17.814
2006-12-14,18.0231
2006-12-15,17.7321
2006-12-18,17.8049
2006-12-19,17.2593
2006-12-20,17.4502
2006-12-21,17.3593
2006-12-22,17.2047
2006-12-26,17.0956
2006-12-27,17.2684
2006-12-28,17.1138
2006-12-29,17.0047
2007-01-03,17.1683
2007-01-04,17.7321
2007-01-05,17.3229
2007-01-08,16.941
2007-01-09,16.7955
2007-01-10,17.2411
2007-01-11,17.6776
2007-01-12,18.205
2007-01-16,18.2141
2007-01-17,17.6776
2007-01-18,17.6048
2007-01-19,17.5775
2007-01-22,17.2956
2007-01-23,17.0956
2007-01-24,18.9961
2007-01-25,19.2871
2007-01-26,19.2689
2007-01-29,19.0234
2007-01-30,18.7961
2007-01-31,18.9506
2007-02-01,18.9325
2007-02-02,19.1689
2007-02-05,19.4599
2007-02-06,20.3237
2007-02-07,20.3601
2007-02-08,20.4329
2007-02-09,19.6326
2007-02-12,19.6326
2007-02-13,19.9145
2007-02-14,20.2328
2007-02-15,20.06
2007-02-16,19.7236
2007-02-20,19.7781
2007-02-21,19.9236
2007-02-22,19.7872
2007-02-23,19.6599
2007-02-26,19.5781
2007-02-27,18.5414
2007-02-28,18.7688
2007-03-01,18.9325
2007-03-02,18.4687
2007-03-05,18.3232
2007-03-06,18.787
2007-03-07,19.1325
2007-03-08,19.278
2007-03-09,19.4053
2007-03-12,19.7781
2007-03-13,19.4235
2007-03-14,19.6145
2007-03-15,19.769
2007-03-16,19.7781
2007-03-19,20.3783
2007-03-20,20.833
2007-03-21,21.0148
2007-03-22,20.8603
2007-03-23,20.8784
2007-03-26,20.8057
2007-03-27,20.9785
2007-03-28,20.8239
2007-03-29,20.7511
2007-03-30,20.6693
2007-04-02,20.6602
2007-04-03,20.933
2007-04-04,20.9967
2007-04-05,21.4331
2007-04-09,21.3604
2007-04-10,21.615
2007-04-11,21.5604
2007-04-12,21.6605
2007-04-13,21.6241
2007-04-16,21.8242
2007-04-17,21.5514
2007-04-18,21.5059
2007-04-19,21.4059
2007-04-20,21.324
2007-04-23,21.2331
2007-04-24,21.5514
2007-04-25,22.688
2007-04-26,22.6517
2007-04-27,22.2061
2007-04-30,21.5695
2007-05-01,21.4059
2007-05-02,21.6696
2007-05-03,21.8151
2007-05-04,21.7878
2007-05-07,21.6968
2007-05-08,21.5786
2007-05-09,21.5332
2007-05-10,21.1512
2007-05-11,21.5968
2007-05-14,21.1967
2007-05-15,21.1876
2007-05-16,21.6696
2007-05-17,21.5241
2007-05-18,21.7423
2007-05-21,22.3061
2007-05-22,22.3698
2007-05-23,22.397
2007-05-24,21.7787
2007-05-25,21.9333
2007-05-29,21.9878
2007-05-30,22.6244
2007-05-31,22.7244
2007-06-01,23.3246
2007-06-04,23.6337
2007-06-05,23.4064
2007-06-06,23.3518
2007-06-07,22.9063
2007-06-08,23.2791
2007-06-11,23.561
2007-06-12,23.0427
2007-06-13,23.6701
2007-06-14,23.6428
2007-06-15,23.9338
2007-06-18,23.8156
2007-06-19,23.5792
2007-06-20,23.2882
2007-06-21,23.3518
2007-06-22,23.1882
2007-06-25,23.3064
2007-06-26,23.0972
2007-06-27,23.2064
2007-06-28,23.3973
2007-06-29,23.2154
2007-07-02,23.4246
2007-07-03,23.5428
2007-07-05,23.37
2007-07-06,23.4792
2007-07-09,23.8338
2007-07-10,23.5428
2007-07-11,23.661
2007-07-12,24.7159
2007-07-13,24.5886
2007-07-16,24.4885
2007-07-17,24.3885
2007-07-18,24.2794
2007-07-19,24.4794
2007-07-20,24.143
2007-07-23,24.2612
2007-07-24,23.8611
2007-07-25,22.4425
2007-07-26,22.2152
2007-07-27,21.4786
2007-07-30,22.1151
2007-07-31,21.6605
2007-08-01,22.0242
2007-08-02,21.906
2007-08-03,21.415
2007-08-06,21.224
2007-08-07,21.1058
2007-08-08,21.7787
2007-08-09,21.4786
2007-08-10,21.3604
2007-08-13,21.5423
2007-08-14,21.2786
2007-08-15,20.8694
2007-08-16,20.5329
2007-08-17,20.8694
2007-08-20,21.4786
2007-08-21,21.2149
2007-08-22,21.4422
2007-08-23,21.3058
2007-08-24,21.8151
2007-08-27,21.4962
2007-08-28,20.8856
2007-08-29,21.56
2007-08-30,21.159
2007-08-31,21.2957
2007-09-04,21.9974
2007-09-05,21.9609
2007-09-06,22.9633
2007-09-07,22.5441
2007-09-10,22.7081
2007-09-11,22.9542
2007-09-12,22.8448
2007-09-13,21.8971
2007-09-14,21.6237
2007-09-17,21.3321
2007-09-18,21.8516
2007-09-19,21.8698
2007-09-20,21.7331
2007-09-21,21.8242
2007-09-24,21.9153
2007-09-25,21.9791
2007-09-26,21.9882
2007-09-27,22.6717
2007-09-28,22.453
2007-10-01,22.863
2007-10-02,23.1546
2007-10-03,23.0088
2007-10-04,22.945
2007-10-05,23.6923
2007-10-08,23.5465
2007-10-09,23.9656
2007-10-10,23.9565
2007-10-11,23.911
2007-10-12,23.7652
2007-10-15,23.3551
2007-10-16,23.0362
2007-10-17,23.1637
2007-10-18,23.2366
2007-10-19,22.4712
2007-10-22,22.4347
2007-10-23,22.5076
2007-10-24,21.1681
2007-10-25,21.0223
2007-10-26,21.4962
2007-10-29,21.6875
2007-10-30,21.5053
2007-10-31,22.1249
2007-11-01,21.6966
2007-11-02,21.7695
2007-11-05,21.3686
2007-11-06,22.052
2007-11-07,21.2684
2007-11-08,20.0655
2007-11-09,19.4823
2007-11-12,19.5826
2007-11-13,21.5373
2007-11-14,21.4551
2007-11-15,21.5281
2007-11-16,21.3729
2007-11-19,20.77
2007-11-20,20.4778
2007-11-21,20.2585
2007-11-23,20.9618
2007-11-26,20.9618
2007-11-27,21.6743
2007-11-28,21.9848
2007-11-29,22.1949
2007-11-30,22.1492
2007-12-03,22.4415
2007-12-04,22.2497
2007-12-05,22.7155
2007-12-06,22.9256
2007-12-07,22.7246
2007-12-10,23.09
2007-12-11,22.6242
2007-12-12,22.7612
2007-12-13,22.5694
2007-12-14,22.1309
2007-12-17,21.3729
2007-12-18,21.1445
2007-12-19,21.3546
2007-12-20,21.6103
2007-12-21,21.9665
2007-12-24,21.9665
2007-12-26,22.2497
2007-12-27,21.8569
2007-12-28,21.9939
2007-12-31,21.8935
2008-01-02,21.3455
2008-01-03,21.1536
2008-01-04,20.5508
2008-01-07,20.2951
2008-01-08,19.7562
2008-01-09,20.5052
2008-01-10,20.9618
2008-01-11,20.6148
2008-01-14,21.1993
2008-01-15,21.1354
2008-01-16,20.3407
2008-01-17,20.2585
2008-01-18,20.2677
2008-01-22,19.8567
2008-01-23,19.473
2008-01-24,20.3133
2008-01-25,20.3955
2008-01-28,21.1354
2008-01-29,21.6469
2008-01-30,21.8295
2008-01-31,22.0944
2008-02-01,22.4324
2008-02-04,22.3958
2008-02-05,21.1171
2008-02-06,20.8431
2008-02-07,21.4642
2008-02-08,21.4277
2008-02-11,21.5555
2008-02-12,21.2358
2008-02-13,22.0761
2008-02-14,21.6012
2008-02-15,21.0532
2008-02-19,20.907
2008-02-20,21.5281
2008-02-21,21.3637
2008-02-22,21.5647
2008-02-25,22.0761
2008-02-26,22.1309
2008-02-27,22.0213
2008-02-28,21.8475
2008-02-29,21.2617
2008-03-03,21.2251
2008-03-04,21.1153
2008-03-05,21.4814
2008-03-06,21.161
2008-03-07,20.8681
2008-03-10,21.042
2008-03-11,21.8566
2008-03-12,21.5729
2008-03-13,21.6644
2008-03-14,21.3349
2008-03-17,21.28
2008-03-18,22.2685
2008-03-19,21.7468
2008-03-20,21.9482
2008-03-24,22.5431
2008-03-25,22.9641
2008-03-26,22.1953
2008-03-27,22.1678
2008-03-28,22.0946
2008-03-31,21.9848
2008-04-01,22.8085
2008-04-02,22.8726
2008-04-03,23.3119
2008-04-04,23.4217
2008-04-07,23.6139
2008-04-08,23.8977
2008-04-09,23.1746
2008-04-10,23.2112
2008-04-11,22.7261
2008-04-14,22.8543
2008-04-15,22.4699
2008-04-16,23.4583
2008-04-17,23.2753
2008-04-18,23.5133
2008-04-21,23.5316
2008-04-22,23.5682
2008-04-23,23.019
2008-04-24,23.2936
2008-04-25,23.7146
2008-04-28,23.4675
2008-04-29,24.2821
2008-04-30,24.4377
2008-05-01,24.758
2008-05-02,24.7031
2008-05-05,24.7672
2008-05-06,24.8312
2008-05-07,23.9251
2008-05-08,24.3553
2008-05-09,23.8428
2008-05-12,23.8885
2008-05-13,23.6048
2008-05-14,23.7238
2008-05-15,24.7214
2008-05-16,25.0235
2008-05-19,25.4079
2008-05-20,24.9411
2008-05-21,24.4743
2008-05-22,24.8038
2008-05-23,24.7306
2008-05-27,24.9685
2008-05-28,25.1974
2008-05-29,25.1423
2008-05-30,25.0231
2008-06-02,24.6564
2008-06-03,24.5463
2008-06-04,24.3721
2008-06-05,24.8673
2008-06-06,24.3629
2008-06-09,24.5555
2008-06-10,24.1887
2008-06-11,24.3538
2008-06-12,24.5922
2008-06-13,25.1973
2008-06-16,24.8397
2008-06-17,24.4363
2008-06-18,24.0053
2008-06-19,23.4919
2008-06-20,23.1618
2008-06-23,23.2901
2008-06-24,22.8042
2008-06-25,23.1067
2008-06-26,22.2815
2008-06-27,21.5296
2008-06-30,21.1078
2008-07-01,20.741
2008-07-02,20.3559
2008-07-03,20.5302
2008-07-07,20.4018
2008-07-08,19.5399
2008-07-09,18.6779
2008-07-10,18.4854
2008-07-11,18.5679
2008-07-14,18.1828
2008-07-15,18.2011
2008-07-16,18.357
2008-07-17,18.9163
2008-07-18,18.5221
2008-07-21,18.788
2008-07-22,18.4212
2008-07-23,18.4579
2008-07-24,18.2562
2008-07-25,18.788
2008-07-28,19.0539
2008-07-29,19.5307
2008-07-30,18.7788
2008-07-31,18.3479
2008-08-01,18.6321
2008-08-04,18.4579
2008-08-05,18.7055
2008-08-06,18.6688
2008-08-07,18.1736
2008-08-08,18.9255
2008-08-11,19.7324
2008-08-12,19.6866
2008-08-13,19.1639
2008-08-14,19.0722
2008-08-15,19.439
2008-08-18,19.5949
2008-08-19,19.329
2008-08-20,19.3565
2008-08-21,19.5215
2008-08-22,19.6866
2008-08-25,19.3473
2008-08-26,19.2098
2008-08-27,19.2466
2008-08-28,19.0627
2008-08-29,18.9249
2008-09-02,17.9414
2008-09-03,15.6711
2008-09-04,15.2208
2008-09-05,15.3495
2008-09-08,15.2484
2008-09-09,14.7061
2008-09-10,14.8899
2008-09-11,14.9267
2008-09-12,15.1381
2008-09-15,14.0994
2008-09-16,14.0994
2008-09-17,13.3917
2008-09-18,14.6233
2008-09-19,15.6987
2008-09-22,14.8347
2008-09-23,14.9175
2008-09-24,15.1656
2008-09-25,15.3311
2008-09-26,14.8164
2008-09-29,13.695
2008-09-30,14.366
2008-10-01,14.0811
2008-10-02,13.5204
2008-10-03,13.6491
2008-10-06,12.2152
2008-10-07,11.6821
2008-10-08,10.6619
2008-10-09,11.1674
2008-10-10,11.4983
2008-10-13,13.0608
2008-10-14,12.4174
2008-10-15,11.2961
2008-10-16,11.1215
2008-10-17,11.2869
2008-10-20,11.0295
2008-10-21,10.3953
2008-10-22,10.0369
2008-10-23,10.2207
2008-10-24,9.78872
2008-10-27,9.32916
2008-10-28,10.4597
2008-10-29,9.63247
2008-10-30,9.30159
2008-10-31,9.96336
2008-11-03,10.2023
2008-11-04,10.7814
2008-11-05,10.1656
2008-11-06,9.15452
2008-11-07,9.59571
2008-11-10,9.15452
2008-11-11,9.15452
2008-11-12,8.45599
2008-11-13,8.77965
2008-11-14,8.25287
2008-11-17,8.30832
2008-11-18,7.72609
2008-11-19,7.7723
2008-11-20,7.20856
2008-11-21,7.43036
2008-11-24,8.26212
2008-11-25,8.38226
2008-11-26,8.65027
2008-11-28,8.40998
2008-12-01,7.85548
2008-12-02,7.9479
2008-12-03,7.96638
2008-12-04,7.67064
2008-12-05,7.85548
2008-12-08,8.29908
2008-12-09,8.13273
2008-12-10,8.15121
2008-12-11,7.67989
2008-12-12,7.78155
2008-12-15,7.84624
2008-12-16,8.46543
2008-12-17,8.47468
2008-12-18,8.18818
2008-12-19,8.11425
2008-12-22,8.11425
2008-12-23,8.04031
2008-12-24,8.13273
2008-12-26,8.1697
2008-12-29,8.04031
2008-12-30,8.31757
2008-12-31,8.82586
2009-01-02,9.28795
2009-01-05,9.75928
2009-01-06,10.6742
2009-01-07,10.2768
2009-01-08,10.2768
2009-01-09,9.87942
2009-01-12,9.2325
2009-01-13,8.90904
2009-01-14,8.49316
2009-01-15,8.89055
2009-01-16,8.95525
2009-01-20,8.45619
2009-01-21,8.77041
2009-01-22,8.77965
2009-01-23,9.24174
2009-01-26,9.18629
2009-01-27,9.24174
2009-01-28,10.055
2009-01-29,9.68534
2009-01-30,9.33416
2009-02-02,9.48203
2009-02-03,9.52824
2009-02-04,9.94411
2009-02-05,10.1844
2009-02-06,10.8406
2009-02-09,11.0254
2009-02-10,10.3415
2009-02-11,10.3323
2009-02-12,10.5079
2009-02-13,10.7204
2009-02-17,9.98108
2009-02-18,9.92563
2009-02-19,9.40809
2009-02-20,9.05691
2009-02-23,8.75193
2009-02-24,9.36188
2009-02-25,9.59293
2009-02-26,9.74137
2009-02-27,9.85281
2009-03-02,8.80345
2009-03-03,9.06347
2009-03-04,9.74137
2009-03-05,9.36063
2009-03-06,9.40707
2009-03-09,9.27706
2009-03-10,10.3914
2009-03-11,10.5679
2009-03-12,10.9857
2009-03-13,10.8743
2009-03-16,10.5586
2009-03-17,11.5058
2009-03-18,11.5894
2009-03-19,12.0165
2009-03-20,11.5429
2009-03-23,12.0258
2009-03-24,12.193
2009-03-25,12.6016
2009-03-26,13.1866
2009-03-27,12.6109
2009-03-30,11.9794
2009-03-31,12.3044
2009-04-01,13.3073
2009-04-02,14.1524
2009-04-03,14.8396
2009-04-06,14.5981
2009-04-07,13.4466
2009-04-08,13.8459
2009-04-09,14.0688
2009-04-13,13.7531
2009-04-14,13.5488
2009-04-15,13.6602
2009-04-16,13.9574
2009-04-17,14.1617
2009-04-20,13.5302
2009-04-21,14.0038
2009-04-22,13.6695
2009-04-23,14.0502
2009-04-24,14.2452
2009-04-27,14.7003
2009-04-28,13.6602
2009-04-29,13.7531
2009-04-30,13.5952
2009-05-01,13.2795
2009-05-04,13.8274
2009-05-05,14.1895
2009-05-06,14.5703
2009-05-07,13.6231
2009-05-08,13.4931
2009-05-11,13.0659
2009-05-12,12.9173
2009-05-13,12.5087
2009-05-14,13.0566
2009-05-15,12.8616
2009-05-18,13.1495
2009-05-19,13.1959
2009-05-20,13.5116
2009-05-21,13.0566
2009-05-22,13.233
2009-05-26,13.7159
2009-05-27,13.5581
2009-05-28,13.2132
2009-05-29,13.6791
2009-06-01,14.5364
2009-06-02,14.4153
2009-06-03,14.2103
2009-06-04,14.5271
2009-06-05,14.555
2009-06-08,14.4712
2009-06-09,15.0582
2009-06-10,14.9744
2009-06-11,14.8532
2009-06-12,14.8066
2009-06-15,14.6669
2009-06-16,14.4153
2009-06-17,14.2382
2009-06-18,14.3314
2009-06-19,14.2755
2009-06-22,14.1264
2009-06-23,14.2569
2009-06-24,14.3314
2009-06-25,15.0396
2009-06-26,15.2446
2009-06-29,15.1794
2009-06-30,14.9837
2009-07-01,14.4898
2009-07-02,14.2475
2009-07-06,14.1544
2009-07-07,13.3716
2009-07-08,13.2505
2009-07-09,13.4369
2009-07-10,13.7723
2009-07-13,13.996
2009-07-14,14.3407
2009-07-15,14.9371
2009-07-16,15.2725
2009-07-17,15.4869
2009-07-20,15.7385
2009-07-21,15.5614
2009-07-22,15.3378
2009-07-23,15.6173
2009-07-24,15.8223
2009-07-27,15.3564
2009-07-28,15.6919
2009-07-29,15.6453
2009-07-30,15.7571
2009-07-31,15.841
2009-08-03,15.6639
2009-08-04,15.6266
2009-08-05,15.4403
2009-08-06,15.4775
2009-08-07,15.8037
2009-08-10,15.2446
2009-08-11,14.9185
2009-08-12,15.1421
2009-08-13,15.3471
2009-08-14,14.76
2009-08-17,14.145
2009-08-18,14.7694
2009-08-19,14.6575
2009-08-20,14.7973
2009-08-21,14.9557
2009-08-24,14.8346
2009-08-25,15.0955
2009-08-26,14.9557
2009-08-27,14.8623
2009-08-28,14.8809
2009-08-31,14.0771
2009-09-01,13.8621
2009-09-02,14.1051
2009-09-03,14.1986
2009-09-04,14.3201
2009-09-08,14.3855
2009-09-09,14.7688
2009-09-10,15.1146
2009-09-11,15.0118
2009-09-14,14.8155
2009-09-15,14.7594
2009-09-16,14.7127
2009-09-17,14.5351
2009-09-18,14.2921
2009-09-21,14.5538
2009-09-22,14.5257
2009-09-23,14.451
2009-09-24,13.9743
2009-09-25,13.8901
2009-09-28,14.0771
2009-09-29,14.1799
2009-09-30,14.3014
2009-10-01,13.9369
2009-10-02,13.6097
2009-10-05,13.8247
2009-10-06,14.4697
2009-10-07,14.3575
2009-10-08,14.4416
2009-10-09,14.6566
2009-10-12,14.7033
2009-10-13,14.3855
2009-10-14,14.9464
2009-10-15,14.4884
2009-10-16,14.3388
2009-10-19,14.5257
2009-10-20,14.5164
2009-10-21,14.4977
2009-10-22,14.5818
2009-10-23,14.666
2009-10-26,14.4977
2009-10-27,14.1051
2009-10-28,13.8434
2009-10-29,14.1519
2009-10-30,13.6658
2009-11-02,13.563
2009-11-03,13.6284
2009-11-04,13.8901
2009-11-05,14.2827
2009-11-06,14.2921
2009-11-09,14.7781
2009-11-10,14.7594
2009-11-11,15.2268
2009-11-12,15.4049
2009-11-13,15.6018
2009-11-16,15.8081
2009-11-17,15.8925
2009-11-18,15.8081
2009-11-19,15.555
2009-11-20,15.3862
2009-11-23,15.4706
2009-11-24,15.4799
2009-11-25,15.7894
2009-11-27,15.5456
2009-11-30,15.6487
2009-12-01,16.1175
2009-12-02,16.6895
2009-12-03,16.4644
2009-12-04,17.1864
2009-12-07,17.2427
2009-12-08,16.7738
2009-12-09,16.9426
2009-12-10,17.0645
2009-12-11,17.327
2009-12-14,17.6646
2009-12-15,17.6458
2009-12-16,17.5802
2009-12-17,17.3083
2009-12-18,17.3083
2009-12-21,17.7958
2009-12-22,18.0302
2009-12-23,18.0959
2009-12-24,18.124
2009-12-28,18.0209
2009-12-29,18.0115
2009-12-30,18.1334
2009-12-31,18.1146
2010-01-04,18.3303
2010-01-05,18.4053
2010-01-06,18.1521
2010-01-07,18.3772
2010-01-08,18.6397
2010-01-11,19.2116
2010-01-12,18.9116
2010-01-13,19.0241
2010-01-14,18.9397
2010-01-15,18.4428
2010-01-19,18.5272
2010-01-20,18.5272
2010-01-21,18.3772
2010-01-22,17.402
2010-01-25,17.5239
2010-01-26,17.4864
2010-01-27,17.974
2010-01-28,17.4583
2010-01-29,16.9614
2010-02-01,17.0176
2010-02-02,17.5333
2010-02-03,17.749
2010-02-04,17.1489
2010-02-05,16.9145
2010-02-08,16.727
2010-02-09,16.652
2010-02-10,16.4457
2010-02-11,16.8114
2010-02-12,16.7738
2010-02-16,17.0176
2010-02-17,16.877
2010-02-18,16.8489
2010-02-19,17.1489
2010-02-22,16.6238
2010-02-23,16.155
2010-02-24,16.4466
2010-02-25,16.456
2010-02-26,16.597
2010-03-01,16.7099
2010-03-02,16.55
2010-03-03,16.5594
2010-03-04,16.4654
2010-03-05,17.0014
2010-03-08,17.2647
2010-03-09,17.3305
2010-03-10,17.3869
2010-03-11,17.2271
2010-03-12,16.9638
2010-03-15,17.0014
2010-03-16,17.3963
2010-03-17,17.7537
2010-03-18,18.0734
2010-03-19,18.2426
2010-03-22,18.2802
2010-03-23,18.5247
2010-03-24,18.3179
2010-03-25,18.5153
2010-03-26,18.5812
2010-03-29,18.8915
2010-03-30,18.9761
2010-03-31,19.0137
2010-04-01,19.1642
2010-04-05,19.4275
2010-04-06,19.2206
2010-04-07,18.8821
2010-04-08,18.6564
2010-04-09,18.5059
2010-04-12,18.7974
2010-04-13,18.8256
2010-04-14,19.0889
2010-04-15,19.0137
2010-04-16,18.7034
2010-04-19,18.8068
2010-04-20,18.8915
2010-04-21,19.1736
2010-04-22,19.4745
2010-04-23,19.5779
2010-04-26,19.6626
2010-04-27,18.9479
2010-04-28,18.8821
2010-04-29,18.7128
2010-04-30,18.1298
2010-05-03,18.5906
2010-05-04,17.8195
2010-05-05,17.5374
2010-05-06,16.503
2010-05-07,16.5218
2010-05-10,17.3023
2010-05-11,17.133
2010-05-12,17.4151
2010-05-13,17.4433
2010-05-14,16.8885
2010-05-17,17.2365
2010-05-18,16.9638
2010-05-19,16.456
2010-05-20,15.8354
2010-05-21,15.9764
2010-05-24,15.8918
2010-05-25,15.9388
2010-05-26,15.8728
2010-05-27,16.5047
2010-05-28,16.4292
2010-06-01,15.4767
2010-06-02,15.8539
2010-06-03,15.8728
2010-06-04,15.288
2010-06-07,15.1088
2010-06-08,16.0614
2010-06-09,16.316
2010-06-10,16.8159
2010-06-11,17.1083
2010-06-14,17.3158
2010-06-15,17.6836
2010-06-16,17.1932
2010-06-17,17.2875
2010-06-18,17.1932
2010-06-21,17.3723
2010-06-22,17.1083
2010-06-23,17.0988
2010-06-24,16.6367
2010-06-25,16.4009
2010-06-28,16.2783
2010-06-29,15.5238
2010-06-30,15.2503
2010-07-01,15.222
2010-07-02,15.4106
2010-07-06,15.4389
2010-07-07,16.0991
2010-07-08,16.4104
2010-07-09,16.5047
2010-07-12,16.3066
2010-07-13,16.731
2010-07-14,16.6744
2010-07-15,16.6273
2010-07-16,15.986
2010-07-19,16.0331
2010-07-20,15.703
2010-07-21,15.8256
2010-07-22,17.0988
2010-07-23,16.9951
2010-07-26,16.8914
2010-07-27,16.9762
2010-07-28,16.6744
2010-07-29,17.1177
2010-07-30,17.0894
2010-08-02,18.0514
2010-08-03,17.9288
2010-08-04,18.1646
2010-08-05,18.0891
2010-08-06,17.7213
2010-08-09,17.8628
2010-08-10,17.4855
2010-08-11,17.0328
2010-08-12,16.5141
2010-08-13,15.9199
2010-08-16,15.5993
2010-08-17,15.6181
2010-08-18,15.7785
2010-08-19,15.1466
2010-08-20,15.1937
2010-08-23,15.0334
2010-08-24,14.8165
2010-08-25,15.2786
2010-08-26,14.9476
2010-08-27,15.1273
2010-08-30,15.0895
2010-08-31,14.7962
2010-09-01,15.4395
2010-09-02,15.5625
2010-09-03,15.9125
2010-09-07,15.9314
2010-09-08,15.8085
2010-09-09,15.449
2010-09-10,15.2124
2010-09-13,15.9125
2010-09-14,16.6599
2010-09-15,16.2153
2010-09-16,16.1112
2010-09-17,16.0828
2010-09-20,16.6599
2010-09-21,16.6599
2010-09-22,16.2247
2010-09-23,16.4612
2010-09-24,16.7829
2010-09-27,16.7829
2010-09-28,17.2843
2010-09-29,17.3789
2010-09-30,17.3032
2010-10-01,17.237
2010-10-04,16.9248
2010-10-05,17.5113
2010-10-06,17.3978
2010-10-07,17.2181
2010-10-08,17.3505
2010-10-11,17.3127
2010-10-12,17.4546
2010-10-13,17.6911
2010-10-14,17.3884
2010-10-15,17.7668
2010-10-18,17.8235
2010-10-19,17.2937
2010-10-20,17.5492
2010-10-21,17.5303
2010-10-22,17.5681
2010-10-25,17.6911
2010-10-26,17.464
2010-10-27,17.4451
2010-10-28,17.483
2010-10-29,17.3505
2010-11-01,17.5019
2010-11-02,17.3032
2010-11-03,17.5681
2010-11-04,17.9087
2010-11-05,17.8614
2010-11-08,17.9276
2010-11-09,17.9276
2010-11-10,17.7668
2010-11-11,17.6059
2010-11-12,17.36
2010-11-15,17.2176
2010-11-16,16.5536
2010-11-17,16.5631
2010-11-18,16.8287
2010-11-19,16.9141
2010-11-22,17.0658
2010-11-23,16.8002
2010-11-24,17.1797
2010-11-26,17.1417
2010-11-29,16.9236
2010-11-30,16.7813
2010-12-01,17.1038
2010-12-02,17.7678
2010-12-03,17.7868
2010-12-06,17.7204
2010-12-07,17.6445
2010-12-08,17.8722
2010-12-09,18.005
2010-12-10,17.8912
2010-12-13,18.2991
2010-12-14,17.9006
2010-12-15,17.6919
2010-12-16,17.7963
2010-12-17,18.024
2010-12-20,17.9481
2010-12-21,18.2516
2010-12-22,18.4034
2010-12-23,18.375
2010-12-27,18.4129
2010-12-28,18.356
2010-12-29,18.2801
2010-12-30,18.3655
2010-12-31,18.3275
2011-01-03,18.2137
2011-01-04,18.0904
2011-01-05,17.9955
2011-01-06,18.5078
2011-01-07,18.4508
2011-01-10,18.4983
2011-01-11,18.4793
2011-01-12,18.8777
2011-01-13,18.8208
2011-01-14,18.8018
2011-01-18,18.8208
2011-01-19,18.6311
2011-01-20,18.3844
2011-01-21,18.3465
2011-01-24,18.6216
2011-01-25,20.1204
2011-01-26,20.6706
2011-01-27,21.0121
2011-01-28,20.6801
2011-01-31,21.0596
2011-02-01,21.5244
2011-02-02,21.6288
2011-02-03,21.4201
2011-02-04,22.179
2011-02-07,21.5149
2011-02-08,21.4485
2011-02-09,21.5908
2011-02-10,21.0216
2011-02-11,21.2019
2011-02-14,21.088
2011-02-15,20.7181
2011-02-16,21.145
2011-02-17,21.7805
2011-02-18,22.0462
2011-02-22,21.4675
2011-02-23,21.2303
2011-02-24,21.6392
2011-02-25,21.468
2011-02-28,21.9149
2011-03-01,20.9546
2011-03-02,21.2303
2011-03-03,21.6867
2011-03-04,21.7818
2011-03-07,21.487
2011-03-08,21.5821
2011-03-09,21.1067
2011-03-10,20.3081
2011-03-11,20.2701
2011-03-14,20.3556
2011-03-15,20.0704
2011-03-16,19.5095
2011-03-17,19.7091
2011-03-18,19.7186
2011-03-21,19.7472
2011-03-22,19.7662
2011-03-23,19.8422
2011-03-24,20.2796
2011-03-25,20.3937
2011-03-28,20.3747
2011-03-29,20.0704
2011-03-30,19.8137
2011-03-31,19.6236
2011-04-01,19.6236
2011-04-04,19.595
2011-04-05,19.3954
2011-04-06,19.4144
2011-04-07,19.1767
2011-04-08,18.6062
2011-04-11,18.6253
2011-04-12,18.245
2011-04-13,18.3876
2011-04-14,18.6538
2011-04-15,18.7679
2011-04-18,18.5397
2011-04-19,18.7203
2011-04-20,19.4714
2011-04-21,19.3954
2011-04-25,19.2813
2011-04-26,19.5475
2011-04-27,20.0134
2011-04-28,20.0134
2011-04-29,19.9088
2011-05-02,19.7376
2011-05-03,19.576
2011-05-04,19.3764
2011-05-05,19.0816
2011-05-06,19.3098
2011-05-09,19.7757
2011-05-10,19.9183
2011-05-11,19.7472
2011-05-12,20.0039
2011-05-13,19.6996
2011-05-16,19.576
2011-05-17,19.2718
2011-05-18,19.3098
2011-05-19,19.2052
2011-05-20,18.9866
2011-05-23,18.5397
2011-05-24,18.5872
2011-05-25,18.6253
2011-05-26,18.8064
2011-05-27,18.9303
2011-05-31,19.2067
2011-06-01,18.7969
2011-06-02,18.5776
2011-06-03,18.1487
2011-06-06,18.0057
2011-06-07,18.0153
2011-06-08,17.7865
2011-06-09,17.8437
2011-06-10,17.5291
2011-06-13,17.4529
2011-06-14,17.6626
2011-06-15,17.1383
2011-06-16,17.1288
2011-06-17,16.9667
2011-06-20,17.0716
2011-06-21,16.8238
2011-06-22,16.8714
2011-06-23,16.9667
2011-06-24,16.7475
2011-06-27,16.5664
2011-06-28,16.7189
2011-06-29,16.8333
2011-06-30,17.3099
2011-07-01,17.6721
2011-07-05,17.4719
2011-07-06,17.3862
2011-07-07,17.348
2011-07-08,17.0335
2011-07-11,16.4234
2011-07-12,16.0993
2011-07-13,16.1089
2011-07-14,15.7943
2011-07-15,15.9373
2011-07-18,15.7181
2011-07-19,16.0517
2011-07-20,16.0517
2011-07-21,16.2042
2011-07-22,16.3472
2011-07-25,16.2137
2011-07-26,16.4806
2011-07-27,15.3273
2011-07-28,15.2605
2011-07-29,15.1938
2011-08-01,14.8983
2011-08-02,14.4408
2011-08-03,14.6886
2011-08-04,13.8498
2011-08-05,13.6783
2011-08-08,12.7727
2011-08-09,13.6211
2011-08-10,12.5535
2011-08-11,13.5829
2011-08-12,13.7259
2011-08-15,14.8507
2011-08-16,14.4694
2011-08-17,14.355
2011-08-18,13.7164
2011-08-19,13.6401
2011-08-22,13.4781
2011-08-23,13.8975
2011-08-24,13.7926
2011-08-25,13.3732
2011-08-26,13.6783
2011-08-29,14.4338
2011-08-30,14.1851
2011-08-31,14.319
2011-09-01,14.1373
2011-09-02,13.5156
2011-09-06,13.4677
2011-09-07,13.8695
2011-09-08,13.7356
2011-09-09,12.9991
2011-09-12,12.9225
2011-09-13,13.1043
2011-09-14,13.1425
2011-09-15,13.3147
2011-09-16,13.3147
2011-09-19,12.7791
2011-09-20,12.846
2011-09-21,12.3391
2011-09-22,11.6025
2011-09-23,11.8034
2011-09-26,11.813
2011-09-27,12.2243
2011-09-28,11.966
2011-09-29,12.0617
2011-09-30,11.8512
2011-10-03,11.373
2011-10-04,11.3921
2011-10-05,12.0521
2011-10-06,12.8843
2011-10-07,12.8173
2011-10-10,13.1043
2011-10-11,13.0851
2011-10-12,12.9895
2011-10-13,12.9704
2011-10-14,13.1138
2011-10-17,12.4921
2011-10-18,12.9608
2011-10-19,12.6738
2011-10-20,12.5877
2011-10-21,13.1521
2011-10-24,13.6686
2011-10-25,13.1234
2011-10-26,13.506
2011-10-27,14.7303
2011-10-28,14.6251
2011-10-31,13.7164
2011-11-01,13.286
2011-11-02,13.3243
2011-11-03,13.726
2011-11-04,13.8886
2011-11-07,14.1182
2011-11-08,14.2425
2011-11-09,13.6017
2011-11-10,13.9269
2011-11-11,14.5295
2011-11-14,14.765
2011-11-15,14.9284
2011-11-16,14.813
2011-11-17,14.4766
2011-11-18,14.4285
2011-11-21,13.996
2011-11-22,13.871
2011-11-23,13.525
2011-11-25,13.4096
2011-11-28,14.1882
2011-11-29,12.679
2011-11-30,12.7271
2011-12-01,12.9578
2011-12-02,12.7271
2011-12-05,13.0924
2011-12-06,13.3519
2011-12-07,13.448
2011-12-08,12.9866
2011-12-09,13.2846
2011-12-12,12.9578
2011-12-13,12.6502
2011-12-14,12.631
2011-12-15,12.6694
2011-12-16,12.5829
2011-12-19,12.0927
2011-12-20,12.0927
2011-12-21,12.0446
2011-12-22,12.5349
2011-12-23,12.8425
2011-12-27,12.6887
2011-12-28,12.4291
2011-12-29,12.5541
2011-12-30,12.4868
2012-01-03,12.5252
2012-01-04,12.6598
2012-01-05,12.7944
2012-01-06,12.9866
2012-01-09,13.1981
2012-01-10,13.448
2012-01-11,13.7653
2012-01-12,13.6403
2012-01-13,13.4384
2012-01-17,13.6115
2012-01-18,13.7172
2012-01-19,13.9095
2012-01-20,13.8326
2012-01-23,13.8037
2012-01-24,14.0152
2012-01-25,12.5445
2012-01-26,12.16
2012-01-27,12.1407
2012-01-30,12.1215
2012-01-31,12.3714
2012-02-01,12.3907
2012-02-02,12.4387
2012-02-03,13.0443
2012-02-06,13.1789
2012-02-07,13.227
2012-02-08,13.2366
2012-02-09,13.2654
2012-02-10,13.0732
2012-02-13,13.1308
2012-02-14,12.9674
2012-02-15,12.9866
2012-02-16,13.2654
2012-02-17,13.2942
2012-02-21,13.2366
2012-02-22,13.0251
2012-02-23,13.0539
2012-02-24,13.2173
2012-02-27,13.0869
2012-02-28,12.9032
2012-02-29,12.6133
2012-03-01,12.5456
2012-03-02,12.5649
2012-03-05,12.4586
2012-03-06,12.391
2012-03-07,12.5359
2012-03-08,12.9419
2012-03-09,12.8356
2012-03-12,13.0095
2012-03-13,13.4348
2012-03-14,13.5605
2012-03-15,13.7248
2012-03-16,13.8214
2012-03-19,13.8021
2012-03-20,13.5701
2012-03-21,13.4735
2012-03-22,13.3865
2012-03-23,13.5605
2012-03-26,13.9374
2012-03-27,13.7441
2012-03-28,13.5605
2012-03-29,13.5605
2012-03-30,13.6378
2012-04-02,13.4252
2012-04-03,13.3865
2012-04-04,13.2512
2012-04-05,13.1062
2012-04-09,13.0289
2012-04-10,12.9516
2012-04-11,13.0869
2012-04-12,13.2802
2012-04-13,13.1449
2012-04-16,13.1255
2012-04-17,13.2512
2012-04-18,13.0965
2012-04-19,13.0675
2012-04-20,12.7389
2012-04-23,12.7679
2012-04-24,12.9032
2012-04-25,13.8214
2012-04-26,13.8214
2012-04-27,13.9761
2012-04-30,13.8698
2012-05-01,13.8311
2012-05-02,13.7828
2012-05-03,13.5218
2012-05-04,13.2222
2012-05-07,13.1449
2012-05-08,12.9226
2012-05-09,12.9226
2012-05-10,12.8646
2012-05-11,12.8646
2012-05-14,12.8646
2012-05-15,12.7293
2012-05-16,12.4973
2012-05-17,12.42
2012-05-18,12.3136
2012-05-21,12.7293
2012-05-22,12.6616
2012-05-23,12.3233
2012-05-24,12.3716
2012-05-25,12.4683
2012-05-29,12.7356
2012-05-30,12.5314
2012-05-31,12.6384
2012-06-01,12.2398
2012-06-04,11.9578
2012-06-05,12.1328
2012-06-06,12.4439
2012-06-07,12.5606
2012-06-08,12.7453
2012-06-11,12.5509
2012-06-12,12.7939
2012-06-13,12.6772
2012-06-14,12.6578
2012-06-15,12.6384
2012-06-18,12.755
2012-06-19,12.862
2012-06-20,12.8911
2012-06-21,12.405
2012-06-22,12.5023
2012-06-25,12.1037
2012-06-26,12.1037
2012-06-27,12.23
2012-06-28,12.2398
2012-06-29,12.5703
2012-07-02,12.5411
2012-07-03,12.7064
2012-07-05,12.6481
2012-07-06,12.4342
2012-07-09,12.3078
2012-07-10,12.2009
2012-07-11,12.0745
2012-07-12,11.9676
2012-07-13,11.9773
2012-07-16,11.8995
2012-07-17,11.987
2012-07-18,12.0648
2012-07-19,12.1037
2012-07-20,11.9189
2012-07-23,11.7828
2012-07-24,11.7245
2012-07-25,10.8009
2012-07-26,10.9079
2012-07-27,11.219
2012-07-30,11.1023
2012-07-31,11.0926
2012-08-01,10.9857
2012-08-02,10.9079
2012-08-03,11.044
2012-08-06,10.9662
2012-08-07,11.2093
2012-08-08,11.2579
2012-08-09,11.2579
2012-08-10,11.2481
2012-08-13,11.1898
2012-08-14,11.1995
2012-08-15,11.2773
2012-08-16,11.4134
2012-08-17,11.6662
2012-08-20,11.6565
2012-08-21,11.5301
2012-08-22,11.4231
2012-08-23,11.2287
2012-08-24,11.1801
2012-08-27,11.2676
2012-08-28,11.3551
2012-08-29,11.5165
2012-08-30,11.36
2012-08-31,11.7709
2012-09-04,11.6535
2012-09-05,11.5752
2012-09-06,12.0449
2012-09-07,12.2797
2012-09-10,12.3189
2012-09-11,12.5048
2012-09-12,12.4363
2012-09-13,12.5635
2012-09-14,12.8179
2012-09-17,12.6711
2012-09-18,12.4558
2012-09-19,12.6809
2012-09-20,12.8179
2012-09-21,12.9353
2012-09-24,12.9744
2012-09-25,12.6515
2012-09-26,12.5928
2012-09-27,13.0234
2012-09-28,12.8766
2012-10-01,12.8179
2012-10-02,12.9451
2012-10-03,13.1016
2012-10-04,13.1114
2012-10-05,13.0136
2012-10-08,12.994
2012-10-09,12.7592
2012-10-10,12.6613
2012-10-11,12.7298
2012-10-12,12.7102
2012-10-15,12.7885
2012-10-16,13.268
2012-10-17,13.5419
2012-10-18,13.4539
2012-10-19,13.2288
2012-10-22,13.1995
2012-10-23,13.1016
2012-10-24,11.8883
2012-10-25,11.8101
2012-10-26,11.5557
2012-10-31,11.5067
2012-11-01,11.4676
2012-11-02,11.4382
2012-11-05,11.6046
2012-11-06,11.6339
2012-11-07,11.2523
2012-11-08,11.1545
2012-11-09,11.086
2012-11-12,11.0371
2012-11-13,10.9099
2012-11-14,10.7914
2012-11-15,10.752
2012-11-16,10.752
2012-11-19,10.8703
2012-11-20,11.0282
2012-11-21,10.9591
2012-11-23,11.1663
2012-11-26,11.186
2012-11-27,11.985
2012-11-28,12.054
2012-11-29,12.1626
2012-11-30,12.0836
2012-12-03,11.985
2012-12-04,12.0836
2012-12-05,12.2119
2012-12-06,12.2809
2012-12-07,12.35
2012-12-10,12.4683
2012-12-11,12.4289
2012-12-12,12.5374
2012-12-13,12.567
2012-12-14,12.4289
2012-12-17,12.4782
2012-12-18,12.8333
2012-12-19,12.6064
2012-12-20,12.6262
2012-12-21,12.419
2012-12-24,12.567
2012-12-26,12.4289
2012-12-27,12.4092
2012-12-28,12.3105
2012-12-31,12.419
2013-01-02,12.6655
2013-01-03,12.6459
2013-01-04,12.6261
2013-01-07,12.4979
2013-01-08,12.3302
2013-01-09,12.2217
2013-01-10,12.4781
2013-01-11,12.2809
2013-01-14,12.3105
2013-01-15,12.4585
2013-01-16,12.3203
2013-01-17,12.1329
2013-01-18,11.9356
2013-01-22,12.1329
2013-01-23,12.0639
2013-01-24,11.9948
2013-01-25,12.054
2013-01-28,11.985
2013-01-29,12.0442
2013-01-30,11.8321
2013-01-31,11.8321
2013-02-01,11.768
2013-02-04,11.6299
2013-02-05,11.8074
2013-02-06,11.9949
2013-02-07,12.1428
2013-02-08,12.0935
2013-02-11,12.276
2013-02-12,12.3993
2013-02-13,12.6163
2013-02-14,12.784
2013-02-15,12.5966
2013-02-19,12.7248
2013-02-20,12.4585
2013-02-21,12.3203
2013-02-22,12.4288
2013-02-25,12.202
2013-02-26,12.2071
2013-02-27,12.5003
2013-02-28,12.4903
2013-03-01,12.4208
2013-03-04,12.2915
2013-03-05,12.4306
2013-03-06,12.4803
2013-03-07,12.5896
2013-03-08,12.6194
2013-03-11,12.5598
2013-03-12,12.5896
2013-03-13,12.5697
2013-03-14,12.7188
2013-03-15,12.8082
2013-03-18,12.7585
2013-03-19,12.7585
2013-03-20,13.0765
2013-03-21,12.9076
2013-03-22,12.9374
2013-03-25,12.9374
2013-03-26,13.0268
2013-03-27,13.0666
2013-03-28,13.2454
2013-04-01,13.2355
2013-04-02,13.2454
2013-04-03,13.2554
2013-04-04,13.2653
2013-04-05,13.2454
2013-04-08,13.2554
2013-04-09,13.2951
2013-04-10,13.315
2013-04-11,13.2653
2013-04-12,13.2057
2013-04-15,13.0368
2013-04-16,13.0964
2013-04-17,12.8877
2013-04-18,12.9573
2013-04-19,12.7784
2013-04-22,12.7387
2013-04-23,13.0467
2013-04-24,13.7224
2013-04-25,14.1397
2013-04-26,14.1397
2013-04-29,14.3086
2013-04-30,14.3881
2013-05-01,14.249
2013-05-02,14.2689
2013-05-03,14.7856
2013-05-06,14.7757
2013-05-07,14.7856
2013-05-08,14.7757
2013-05-09,14.9346
2013-05-10,14.9943
2013-05-13,15.1334
2013-05-14,15.4315
2013-05-15,15.5706
2013-05-16,15.3321
2013-05-17,15.978
2013-05-20,16.1867
2013-05-21,16.0873
2013-05-22,15.7097
2013-05-23,15.6501
2013-05-24,15.5408
2013-05-28,15.67
2013-05-29,15.59
2013-05-30,15.6
2013-05-31,15.38
2013-06-03,15.68
2013-06-04,15.58
2013-06-05,14.99
2013-06-06,15.01
2013-06-07,15.39
2013-06-10,15.23
2013-06-11,14.98
2013-06-12,14.79
2013-06-13,15.12
2013-06-14,14.93
2013-06-17,15.11
2013-06-18,15.16
2013-06-19,14.95
2013-06-20,14.35
2013-06-21,14.28
2013-06-24,13.95
2013-06-25,14.22
2013-06-26,14.33
2013-06-27,14.31
2013-06-28,14.26
2013-07-01,14.44
2013-07-02,14.41
2013-07-03,14.2
2013-07-05,14.52
2013-07-08,14.55
2013-07-09,14.76
2013-07-10,14.8
2013-07-11,15.06
2013-07-12,15.03
2013-07-15,15.09
2013-07-16,15.01
2013-07-17,14.83
2013-07-18,14.8
2013-07-19,15.11
2013-07-22,14.98
2013-07-23,15.02
2013-07-24,15.13
2013-07-25,15.27
2013-07-26,15.24
2013-07-29,15.35
2013-07-30,15.19
2013-07-31,15.19
2013-08-01,15.45
2013-08-02,15.39
2013-08-05,15.35
2013-08-06,15.06
2013-08-07,15.02
2013-08-08,15.16
2013-08-09,15.09
