date,close_price
1998-01-02,33.3636
1998-01-05,33.342
1998-01-06,33.2048
1998-01-07,33.1146
1998-01-08,32.5732
1998-01-09,32.3242
1998-01-12,32.483
1998-01-13,32.981
1998-01-14,33.0929
1998-01-15,32.4613
1998-01-16,32.9341
1998-01-20,33.7678
1998-01-21,32.8006
1998-01-22,32.981
1998-01-23,32.483
1998-01-26,32.4397
1998-01-27,32.3494
1998-01-28,32.4613
1998-01-29,32.6634
1998-01-30,32.483
1998-02-02,32.4397
1998-02-03,32.5515
1998-02-04,32.7753
1998-02-05,32.5299
1998-02-06,32.8655
1998-02-09,33.5224
1998-02-10,33.5874
1998-02-11,33.3636
1998-02-12,33.5224
1998-02-13,33.8833
1998-02-17,33.3853
1998-02-18,33.3853
1998-02-19,33.4069
1998-02-20,33.905
1998-02-23,34.2659
1998-02-24,34.5583
1998-02-25,35.078
1998-02-26,35.2518
1998-02-27,35.6143
1998-03-02,35.752
1998-03-03,36.4299
1998-03-04,35.9985
1998-03-05,35.9079
1998-03-06,36.1798
1998-03-09,37.3361
1998-03-10,37.4267
1998-03-11,37.5173
1998-03-12,37.3578
1998-03-13,37.3143
1998-03-16,37.9487
1998-03-17,38.1082
1998-03-18,38.4018
1998-03-19,38.1734
1998-03-20,39.2174
1998-03-23,38.4707
1998-03-24,39.0579
1998-03-25,39.5581
1998-03-26,39.2609
1998-03-27,39.0579
1998-03-30,38.6737
1998-03-31,39.3298
1998-04-01,39.1956
1998-04-02,40.0112
1998-04-03,41.0516
1998-04-06,40.5985
1998-04-07,40.3484
1998-04-08,39.6705
1998-04-09,39.8735
1998-04-13,39.7394
1998-04-14,40.961
1998-04-15,41.2546
1998-04-16,40.3737
1998-04-17,41.0516
1998-04-20,40.4172
1998-04-21,41.7077
1998-04-22,41.1422
1998-04-23,40.8486
1998-04-24,39.8518
1998-04-27,38.3801
1998-04-28,39.0579
1998-04-29,39.6923
1998-04-30,40.1236
1998-05-01,40.3484
1998-05-04,40.5985
1998-05-05,41.3017
1998-05-06,40.6202
1998-05-07,40.5296
1998-05-08,40.7797
1998-05-11,40.439
1998-05-12,40.3049
1998-05-13,40.1454
1998-05-14,39.8735
1998-05-15,39.83
1998-05-18,39.6016
1998-05-19,39.83
1998-05-20,40.3484
1998-05-21,40.5767
1998-05-22,40.439
1998-05-26,39.9859
1998-05-27,39.4675
1998-05-28,39.7112
1998-05-29,40.0969
1998-06-01,40.1406
1998-06-02,40.5736
1998-06-03,39.6639
1998-06-04,39.5038
1998-06-05,39.482
1998-06-08,39.8932
1998-06-09,40.6646
1998-06-10,40.8939
1998-06-11,39.6857
1998-06-12,39.2782
1998-06-15,38.5723
1998-06-16,38.2084
1998-06-17,38.5723
1998-06-18,38.2084
1998-06-19,38.0956
1998-06-22,38.2775
1998-06-23,38.2775
1998-06-24,38.5031
1998-06-25,39.1654
1998-06-26,39.3692
1998-06-29,40.4827
1998-06-30,41.1195
1998-07-01,41.8036
1998-07-02,41.7126
1998-07-06,43.0299
1998-07-07,42.7788
1998-07-08,42.7351
1998-07-09,43.0081
1998-07-10,42.4841
1998-07-13,42.666
1998-07-14,43.3501
1998-07-15,43.3028
1998-07-16,42.2111
1998-07-17,42.8516
1998-07-20,42.3494
1998-07-21,42.4877
1998-07-22,40.6173
1998-07-23,38.7105
1998-07-24,38.2084
1998-07-27,39.4383
1998-07-28,38.0701
1998-07-29,38.1647
1998-07-30,38.6159
1998-07-31,38.0264
1998-08-03,38.252
1998-08-04,37.0294
1998-08-05,36.7528
1998-08-06,37.073
1998-08-07,37.073
1998-08-10,36.3452
1998-08-11,36.1196
1998-08-12,37.3423
1998-08-13,37.1167
1998-08-14,36.2506
1998-08-17,36.6655
1998-08-18,37.255
1998-08-19,37.255
1998-08-20,37.9827
1998-08-21,37.4806
1998-08-24,37.7571
1998-08-25,37.2986
1998-08-26,36.3452
1998-08-27,34.3875
1998-08-28,34.1319
1998-08-31,32.7137
1998-09-01,33.4447
1998-09-02,34.2196
1998-09-03,32.9914
1998-09-04,32.8526
1998-09-08,34.088
1998-09-09,34.5851
1998-09-10,34.819
1998-09-11,34.724
1998-09-14,36.5516
1998-09-15,37.9259
1998-09-16,38.0136
1998-09-17,37.692
1998-09-18,37.3776
1998-09-21,36.5516
1998-09-22,36.5077
1998-09-23,37.7432
1998-09-24,36.9171
1998-09-25,36.4638
1998-09-28,35.5501
1998-09-29,35.9594
1998-09-30,34.724
1998-10-01,33.9491
1998-10-02,34.1319
1998-10-05,32.487
1998-10-06,32.487
1998-10-07,29.2851
1998-10-08,27.962
1998-10-09,30.5206
1998-10-12,31.4344
1998-10-13,32.0777
1998-10-14,33.3058
1998-10-15,35.6816
1998-10-16,34.9067
1998-10-19,35.0895
1998-10-20,36.1422
1998-10-21,36.2811
1998-10-22,36.1861
1998-10-23,36.0033
1998-10-26,35.5939
1998-10-27,37.0998
1998-10-28,37.3776
1998-10-29,37.692
1998-10-30,38.7008
1998-11-02,39.388
1998-11-03,39.8851
1998-11-04,39.7535
1998-11-05,39.4757
1998-11-06,39.0225
1998-11-09,38.9274
1998-11-10,38.1964
1998-11-11,38.1964
1998-11-12,38.1525
1998-11-13,38.2403
1998-11-16,38.7008
1998-11-17,38.8397
1998-11-18,38.423
1998-11-19,38.8397
1998-11-20,39.5196
1998-11-23,42.0343
1998-11-24,42.2171
1998-11-25,41.6688
1998-11-27,41.1404
1998-11-30,40.546
1998-12-01,40.135
1998-12-02,39.3058
1998-12-03,39.6287
1998-12-04,40.0396
1998-12-07,40.0396
1998-12-08,40.6414
1998-12-09,40.546
1998-12-10,40.3625
1998-12-11,40.3185
1998-12-14,38.7113
1998-12-15,39.3571
1998-12-16,38.6673
1998-12-17,42.0137
1998-12-18,41.0524
1998-12-21,41.6028
1998-12-22,41.3239
1998-12-23,41.7422
1998-12-24,41.4193
1998-12-28,41.2799
1998-12-29,41.2799
1998-12-30,41.0524
1998-12-31,40.2231
1999-01-04,40.502
1999-01-05,40.2231
1999-01-06,40.6414
1999-01-07,40.091
1999-01-08,40.6414
1999-01-11,39.9075
1999-01-12,38.5719
1999-01-13,37.838
1999-01-14,37.6105
1999-01-15,38.1169
1999-01-19,37.794
1999-01-20,37.5665
1999-01-21,35.8199
1999-01-22,35.453
1999-01-25,35.6364
1999-01-26,37.8894
1999-01-27,37.1042
1999-01-28,37.9775
1999-01-29,38.1609
1999-02-01,37.1555
1999-02-02,36.6492
1999-02-03,37.1042
1999-02-04,37.2876
1999-02-05,37.1555
1999-02-08,36.9721
1999-02-09,37.2436
1999-02-10,36.9721
1999-02-11,37.4271
1999-02-12,37.0161
1999-02-16,37.7059
1999-02-17,37.0601
1999-02-18,37.4271
1999-02-19,38.2563
1999-02-22,39.1737
1999-02-23,39.9075
1999-02-24,39.6727
1999-02-25,39.702
1999-02-26,39.8346
1999-03-01,39.9304
1999-03-02,41.3083
1999-03-03,40.0188
1999-03-04,39.7904
1999-03-05,39.6062
1999-03-08,40.3431
1999-03-09,40.8073
1999-03-10,41.1757
1999-03-11,39.7904
1999-03-12,40.6673
1999-03-15,41.8168
1999-03-16,41.4483
1999-03-17,41.5441
1999-03-18,42.6936
1999-03-19,42.7821
1999-03-22,43.3863
1999-03-23,41.9126
1999-03-24,42.001
1999-03-25,42.4136
1999-03-26,41.9126
1999-03-29,42.3694
1999-03-30,42.5094
1999-03-31,41.7283
1999-04-01,42.5094
1999-04-05,43.7031
1999-04-06,42.4652
1999-04-07,42.7821
1999-04-08,42.4652
1999-04-09,42.6936
1999-04-12,43.5705
1999-04-13,42.7821
1999-04-14,42.6494
1999-04-15,42.7378
1999-04-16,43.0179
1999-04-19,43.0621
1999-04-20,43.8873
1999-04-21,43.7989
1999-04-22,44.2116
1999-04-23,44.2116
1999-04-26,43.4305
1999-04-27,44.9042
1999-04-28,44.3958
1999-04-29,45.1768
1999-04-30,43.4747
1999-05-03,44.6242
1999-05-04,43.4747
1999-05-05,44.2116
1999-05-06,43.2905
1999-05-07,46.3337
1999-05-10,46.3779
1999-05-11,47.7116
1999-05-12,47.2032
1999-05-13,47.8517
1999-05-14,46.6064
1999-05-17,46.6506
1999-05-18,46.5179
1999-05-19,47.439
1999-05-20,47.3874
1999-05-21,47.8959
1999-05-24,47.159
1999-05-25,46.6506
1999-05-26,47.019
1999-05-27,46.5455
1999-05-28,46.8192
1999-06-01,46.7748
1999-06-02,45.7616
1999-06-03,45.806
1999-06-04,45.7616
1999-06-07,45.7616
1999-06-08,45.3919
1999-06-09,44.6967
1999-06-10,43.4026
1999-06-11,43.6318
1999-06-14,44.6524
1999-06-15,44.3713
1999-06-16,44.7855
1999-06-17,45.0665
1999-06-18,44.6524
1999-06-21,44.6524
1999-06-22,44.0016
1999-06-23,43.0772
1999-06-24,43.4026
1999-06-25,42.8479
1999-06-28,42.382
1999-06-29,42.9884
1999-06-30,43.3064
1999-07-01,43.5874
1999-07-02,44.4157
1999-07-06,45.8948
1999-07-07,45.207
1999-07-08,45.0221
1999-07-09,44.8372
1999-07-12,44.8372
1999-07-13,44.6524
1999-07-14,44.2826
1999-07-15,45.1552
1999-07-16,45.2957
1999-07-19,44.8372
1999-07-20,44.1421
1999-07-21,42.9884
1999-07-22,42.9884
1999-07-23,42.9884
1999-07-26,42.9367
1999-07-27,42.8479
1999-07-28,42.5225
1999-07-29,41.1396
1999-07-30,39.9342
1999-08-02,40.304
1999-08-03,38.7362
1999-08-04,38.1815
1999-08-05,38.64
1999-08-06,37.8118
1999-08-09,37.76
1999-08-10,37.2054
1999-08-11,36.8356
1999-08-12,36.9317
1999-08-13,37.5751
1999-08-16,37.161
1999-08-17,37.9005
1999-08-18,38.5513
1999-08-19,37.9449
1999-08-20,37.3459
1999-08-23,38.041
1999-08-24,37.3015
1999-08-25,36.7912
1999-08-26,36.6064
1999-08-27,36.2366
1999-08-30,34.647
1999-08-31,33.8074
1999-09-01,34.2235
1999-09-02,34.2755
1999-09-03,36.4079
1999-09-07,36.5491
1999-09-08,35.8061
1999-09-09,35.39
1999-09-10,35.39
1999-09-13,35.8061
1999-09-14,34.8327
1999-09-15,34.8327
1999-09-16,35.1076
1999-09-17,35.8507
1999-09-20,35.1522
1999-09-21,34.3646
1999-09-22,33.7628
1999-09-23,33.7182
1999-09-24,32.2767
1999-09-27,31.3034
1999-09-28,31.1622
1999-09-29,30.3746
1999-09-30,30.3746
1999-10-01,29.1189
1999-10-04,30.0477
1999-10-05,28.8886
1999-10-06,29.4904
1999-10-07,29.8619
1999-10-08,30.5604
1999-10-11,29.6762
1999-10-12,29.3493
1999-10-13,28.049
1999-10-14,28.0935
1999-10-15,27.9078
1999-10-18,28.3313
1999-10-19,28.0935
1999-10-20,27.6775
1999-10-21,29.0223
1999-10-22,32.5517
1999-10-25,34.647
1999-10-26,33.2947
1999-10-27,35.0185
1999-10-28,37.5225
1999-10-29,38.4512
1999-11-01,38.1243
1999-11-02,38.4512
1999-11-03,37.2475
1999-11-04,38.5924
1999-11-05,39.9819
1999-11-08,38.8227
1999-11-09,38.7336
1999-11-10,37.4333
1999-11-11,36.5491
1999-11-12,36.9652
1999-11-15,37.2475
1999-11-16,37.4333
1999-11-17,36.3633
1999-11-18,35.7615
1999-11-19,36.0364
1999-11-22,35.2934
1999-11-23,35.2488
1999-11-24,33.904
1999-11-26,34.1343
1999-11-29,33.7534
1999-11-30,34.9186
1999-12-01,35.1501
1999-12-02,34.3136
1999-12-03,34.3584
1999-12-06,32.2595
1999-12-07,32.1176
1999-12-08,31.5126
1999-12-09,32.4463
1999-12-10,33.9849
1999-12-13,34.5451
1999-12-14,33.3799
1999-12-15,32.7749
1999-12-16,31.9757
1999-12-17,32.3044
1999-12-20,31.7442
1999-12-21,32.0728
1999-12-22,33.0961
1999-12-23,34.3136
1999-12-27,34.5451
1999-12-28,34.5899
1999-12-29,34.4555
1999-12-30,35.1501
1999-12-31,35.3892
2000-01-03,33.7982
2000-01-04,32.633
2000-01-05,31.7442
2000-01-06,31.9757
2000-01-07,33.4247
2000-01-10,32.9094
2000-01-11,33.1484
2000-01-12,32.4911
2000-01-13,32.2595
2000-01-14,32.633
2000-01-18,31.3259
2000-01-19,30.2951
2000-01-20,29.5482
2000-01-21,28.3382
2000-01-24,28.8536
2000-01-25,28.4801
2000-01-26,29.1299
2000-01-27,29.1748
2000-01-28,28.2411
2000-01-31,28.4278
2000-02-01,28.988
2000-02-02,29.6005
2000-02-03,30.4371
2000-02-04,31.3259
2000-02-07,29.8769
2000-02-08,28.0096
2000-02-09,26.4261
2000-02-10,25.9555
2000-02-11,25.8659
2000-02-14,25.2086
2000-02-15,26.3738
2000-02-16,25.4402
2000-02-17,25.3953
2000-02-18,24.7455
2000-02-22,24.6932
2000-02-23,24.4617
2000-02-24,24.275
2000-02-25,23.2965
2000-02-28,23.3352
2000-02-29,23.4331
2000-03-01,23.6213
2000-03-02,23.0567
2000-03-03,23.3352
2000-03-06,23.3352
2000-03-07,22.4922
2000-03-08,22.1609
2000-03-09,22.7255
2000-03-10,22.9589
2000-03-13,22.2061
2000-03-14,22.6276
2000-03-15,25.1268
2000-03-16,30.2078
2000-03-17,27.0087
2000-03-20,27.4302
2000-03-21,30.0648
2000-03-22,30.1551
2000-03-23,31.2843
2000-03-24,32.5112
2000-03-27,31.8488
2000-03-28,31.9467
2000-03-29,33.0306
2000-03-30,34.9125
2000-03-31,39.5193
2000-04-03,38.2999
2000-04-04,37.5923
2000-04-05,36.9299
2000-04-06,35.8986
2000-04-07,35.0029
2000-04-10,35.7556
2000-04-11,35.5674
2000-04-12,36.3202
2000-04-13,35.6126
2000-04-14,33.3092
2000-04-17,35.2889
2000-04-18,35.1459
2000-04-19,33.8737
2000-04-20,35.7104
2000-04-24,39.0
2000-04-25,40.2721
2000-04-26,38.3902
2000-04-27,37.5471
2000-04-28,39.286
2000-05-01,41.1227
2000-05-02,40.6033
2000-05-03,39.0978
2000-05-04,38.5784
2000-05-05,38.6236
2000-05-08,39.7527
2000-05-09,39.6172
2000-05-10,39.143
2000-05-11,40.6936
2000-05-12,40.1818
2000-05-15,42.8164
2000-05-16,42.0636
2000-05-17,40.3173
2000-05-18,42.3873
2000-05-19,42.44
2000-05-22,44.224
2000-05-23,45.2101
2000-05-24,47.8975
2000-05-25,44.3671
2000-05-26,44.5101
2000-05-30,46.1049
2000-05-31,44.6386
2000-06-01,45.6816
2000-06-02,45.3037
2000-06-05,43.9357
2000-06-06,41.5246
2000-06-07,42.0915
2000-06-08,41.9025
2000-06-09,40.6252
2000-06-12,41.1467
2000-06-13,41.1467
2000-06-14,41.9025
2000-06-15,41.8043
2000-06-16,40.4816
2000-06-19,41.7589
2000-06-20,39.6351
2000-06-21,38.8339
2000-06-22,38.4031
2000-06-23,40.2926
2000-06-26,40.4816
2000-06-27,42.2804
2000-06-28,42.2351
2000-06-29,42.424
2000-06-30,42.3711
2000-07-03,42.8019
2000-07-05,43.6485
2000-07-06,43.3688
2000-07-07,44.7822
2000-07-10,44.7822
2000-07-11,44.7822
2000-07-12,45.2054
2000-07-13,44.17
2000-07-14,45.3037
2000-07-17,44.5932
2000-07-18,43.4142
2000-07-19,42.5601
2000-07-20,44.3136
2000-07-21,43.6938
2000-07-24,44.0264
2000-07-25,46.4374
2000-07-26,48.7956
2000-07-27,49.2264
2000-07-28,48.1834
2000-07-31,48.6066
2000-08-01,49.1281
2000-08-02,47.8508
2000-08-03,49.4607
2000-08-04,50.738
2000-08-07,52.0607
2000-08-08,51.4938
2000-08-09,49.7403
2000-08-10,48.3723
2000-08-11,49.6043
2000-08-14,49.0828
2000-08-15,48.9392
2000-08-16,48.6595
2000-08-17,49.3624
2000-08-18,49.506
2000-08-21,49.8839
2000-08-22,49.0828
2000-08-23,47.8508
2000-08-24,47.3822
2000-08-25,47.8055
2000-08-28,48.8485
2000-08-29,47.3368
2000-08-30,50.0762
2000-08-31,50.5998
2000-09-01,50.1218
2000-09-05,50.4556
2000-09-06,51.2143
2000-09-07,50.5542
2000-09-08,52.3069
2000-09-11,53.7788
2000-09-12,52.4511
2000-09-13,52.6863
2000-09-14,53.2098
2000-09-15,52.1628
2000-09-18,50.8805
2000-09-19,51.9731
2000-09-20,51.313
2000-09-21,50.3646
2000-09-22,52.0717
2000-09-25,53.0201
2000-09-26,54.0596
2000-09-27,55.1066
2000-09-28,55.9564
2000-09-29,55.3418
2000-10-02,58.2326
2000-10-03,57.3297
2000-10-04,57.3828
2000-10-05,55.8122
2000-10-06,54.2948
2000-10-09,54.1051
2000-10-10,53.445
2000-10-11,53.6347
2000-10-12,49.841
2000-10-13,52.8304
2000-10-16,51.5937
2000-10-17,50.9791
2000-10-18,51.6392
2000-10-19,53.8699
2000-10-20,54.3934
2000-10-23,53.1567
2000-10-24,53.9685
2000-10-25,55.6757
2000-10-26,55.1977
2000-10-27,56.4799
2000-10-30,59.0368
2000-10-31,56.3813
2000-11-01,56.3813
2000-11-02,56.2447
2000-11-03,54.6741
2000-11-06,55.2432
2000-11-07,56.8593
2000-11-08,55.7667
2000-11-09,56.1461
2000-11-10,57.6635
2000-11-13,55.4329
2000-11-14,57.2842
2000-11-15,57.2387
2000-11-16,57.4283
2000-11-17,57.2387
2000-11-20,58.1415
2000-11-21,57.6635
2000-11-22,52.5421
2000-11-24,53.445
2000-11-27,52.967
2000-11-28,53.1567
2000-11-29,55.8747
2000-11-30,54.0625
2000-12-01,55.9204
2000-12-04,56.1107
2000-12-05,58.0144
2000-12-06,59.3012
2000-12-07,58.4864
2000-12-08,60.4433
2000-12-11,58.2047
2000-12-12,56.7732
2000-12-13,54.7325
2000-12-14,54.3975
2000-12-15,54.1081
2000-12-18,56.1107
2000-12-19,51.2527
2000-12-20,49.8288
2000-12-21,51.8771
2000-12-22,52.966
2000-12-26,52.5853
2000-12-27,54.4889
2000-12-28,54.6792
2000-12-29,53.8264
2001-01-02,51.1614
2001-01-03,50.9253
2001-01-04,48.207
2001-01-05,48.0699
2001-01-08,47.0648
2001-01-09,47.0191
2001-01-10,47.3085
2001-01-11,47.9709
2001-01-12,45.9759
2001-01-16,45.5952
2001-01-17,44.3997
2001-01-18,44.5444
2001-01-19,44.9251
2001-01-22,47.0648
2001-01-23,47.7349
2001-01-24,49.0217
2001-01-25,48.3516
2001-01-26,47.3541
2001-01-29,47.6663
2001-01-30,46.4709
2001-01-31,46.8211
2001-02-01,46.6232
2001-02-02,48.7324
2001-02-05,49.4786
2001-02-06,47.5902
2001-02-07,49.8745
2001-02-08,50.0725
2001-02-09,49.6461
2001-02-12,49.7984
2001-02-13,48.7324
2001-02-14,48.1613
2001-02-15,48.2603
2001-02-16,48.4278
2001-02-20,47.9709
2001-02-21,47.2856
2001-02-22,47.8948
2001-02-23,48.5572
2001-02-26,48.7857
2001-02-27,49.8517
2001-02-28,48.6181
2001-03-01,49.6119
2001-03-02,49.8794
2001-03-05,49.9253
2001-03-06,49.3826
2001-03-07,50.4375
2001-03-08,51.4312
2001-03-09,50.5751
2001-03-12,49.1762
2001-03-13,48.8092
2001-03-14,47.7084
2001-03-15,47.395
2001-03-16,46.7529
2001-03-19,46.2178
2001-03-20,45.4151
2001-03-21,43.9551
2001-03-22,41.937
2001-03-23,43.5728
2001-03-26,44.7501
2001-03-27,44.7959
2001-03-28,44.3679
2001-03-29,44.9106
2001-03-30,45.3234
2001-04-02,45.8203
2001-04-03,43.6416
2001-04-04,44.0315
2001-04-05,45.8279
2001-04-06,44.6048
2001-04-09,44.88
2001-04-10,43.6416
2001-04-11,44.5895
2001-04-12,44.5895
2001-04-16,44.7501
2001-04-17,44.9106
2001-04-18,45.6827
2001-04-19,46.9822
2001-04-20,45.2164
2001-04-23,45.4457
2001-04-24,43.5652
2001-04-25,44.4749
2001-04-26,46.3554
2001-04-27,46.8676
2001-04-30,47.4868
2001-05-01,48.1748
2001-05-02,48.1059
2001-05-03,47.7161
2001-05-04,48.1442
2001-05-07,48.3123
2001-05-08,48.4958
2001-05-09,48.8475
2001-05-10,48.8322
2001-05-11,48.7863
2001-05-14,49.0386
2001-05-15,49.3061
2001-05-16,50.5369
2001-05-17,50.2234
2001-05-18,50.4375
2001-05-21,51.3548
2001-05-22,50.7585
2001-05-23,51.1408
2001-05-24,51.7064
2001-05-25,51.1408
2001-05-29,52.6696
2001-05-30,52.6998
2001-05-31,51.9402
2001-06-01,51.0886
2001-06-04,51.6333
2001-06-05,52.4696
2001-06-06,51.9249
2001-06-07,51.9556
2001-06-08,52.017
2001-06-11,51.8865
2001-06-12,51.8635
2001-06-13,51.9019
2001-06-14,51.2881
2001-06-15,51.5106
2001-06-18,51.3878
2001-06-19,51.6103
2001-06-20,51.3955
2001-06-21,52.9376
2001-06-22,52.623
2001-06-25,52.9376
2001-06-26,53.3212
2001-06-27,53.5821
2001-06-28,53.9733
2001-06-29,52.4006
2001-07-02,52.6921
2001-07-03,53.1524
2001-07-05,52.3469
2001-07-06,51.3188
2001-07-09,51.8021
2001-07-10,50.3981
2001-07-11,49.2934
2001-07-12,50.5439
2001-07-13,50.9429
2001-07-16,51.8789
2001-07-17,50.9429
2001-07-18,51.2881
2001-07-19,48.8714
2001-07-20,47.9584
2001-07-23,47.9891
2001-07-24,48.0275
2001-07-25,48.3343
2001-07-26,49.0632
2001-07-27,48.6412
2001-07-30,49.5619
2001-07-31,50.7971
2001-08-01,50.7741
2001-08-02,49.6616
2001-08-03,49.4852
2001-08-06,49.1322
2001-08-07,49.7153
2001-08-08,49.3394
2001-08-09,49.6386
2001-08-10,49.4238
2001-08-13,49.9608
2001-08-14,50.1756
2001-08-15,49.8994
2001-08-16,49.5926
2001-08-17,49.5235
2001-08-20,49.8304
2001-08-21,50.0682
2001-08-22,49.9148
2001-08-23,50.4979
2001-08-24,50.8738
2001-08-27,50.2754
2001-08-28,49.8304
2001-08-29,49.7307
2001-08-30,49.7076
2001-08-31,49.6768
2001-09-04,49.5997
2001-09-05,49.361
2001-09-06,48.4368
2001-09-07,46.9811
2001-09-10,47.7359
2001-09-17,45.3252
2001-09-18,43.3305
2001-09-19,41.5667
2001-09-20,39.6644
2001-09-21,38.64
2001-09-24,41.5436
2001-09-25,42.206
2001-09-26,42.5526
2001-09-27,44.401
2001-09-28,45.2482
2001-10-01,44.0467
2001-10-02,44.7476
2001-10-03,45.5794
2001-10-04,45.7642
2001-10-05,43.1302
2001-10-08,42.3677
2001-10-09,42.8683
2001-10-10,44.2239
2001-10-11,45.1404
2001-10-12,44.5627
2001-10-15,45.0788
2001-10-16,46.0184
2001-10-17,44.9016
2001-10-18,42.7682
2001-10-19,41.7516
2001-10-22,43.4306
2001-10-23,42.9993
2001-10-24,42.799
2001-10-25,42.3523
2001-10-26,43.1379
2001-10-29,41.5667
2001-10-30,42.129
2001-10-31,41.6746
2001-11-01,42.4524
2001-11-02,42.9762
2001-11-05,43.8234
2001-11-06,44.2855
2001-11-07,43.9697
2001-11-08,44.1237
2001-11-09,42.93
2001-11-12,42.8992
2001-11-13,43.9004
2001-11-14,44.0544
2001-11-15,44.2855
2001-11-16,44.5319
2001-11-19,44.9247
2001-11-20,44.8169
2001-11-21,45.2944
2001-11-23,45.7642
2001-11-26,45.8875
2001-11-27,45.9876
2001-11-28,45.5332
2001-11-29,45.8426
2001-11-30,45.7575
2001-12-03,45.2005
2001-12-04,45.3243
2001-12-05,45.2546
2001-12-06,45.8194
2001-12-07,46.1056
2001-12-10,45.5718
2001-12-11,46.5233
2001-12-12,46.3531
2001-12-13,45.4867
2001-12-14,45.7729
2001-12-17,46.415
2001-12-18,46.6007
2001-12-19,47.4826
2001-12-20,48.0163
2001-12-21,47.2428
2001-12-24,47.2273
2001-12-26,47.676
2001-12-27,48.1401
2001-12-28,48.5733
2001-12-31,48.5424
2002-01-02,48.318
2002-01-03,47.5754
2002-01-04,47.2118
2002-01-07,46.8095
2002-01-08,46.415
2002-01-09,46.3996
2002-01-10,47.4671
2002-01-11,47.3665
2002-01-14,47.3124
2002-01-15,48.2252
2002-01-16,48.1633
2002-01-17,48.3877
2002-01-18,48.6429
2002-01-22,49.0452
2002-01-23,48.8982
2002-01-24,48.7512
2002-01-25,50.1669
2002-01-28,49.432
2002-01-29,48.6894
2002-01-30,49.4707
2002-01-31,51.0488
2002-02-01,50.7858
2002-02-04,50.136
2002-02-05,48.9756
2002-02-06,48.7435
2002-02-07,49.3701
2002-02-08,49.9967
2002-02-11,51.2499
2002-02-12,50.956
2002-02-13,51.8301
2002-02-14,52.3716
2002-02-15,51.5129
2002-02-19,50.6311
2002-02-20,51.2112
2002-02-21,50.6697
2002-02-22,50.956
2002-02-25,51.8224
2002-02-26,51.9926
2002-02-27,52.3252
2002-02-28,52.1466
2002-03-01,52.2631
2002-03-04,53.3037
2002-03-05,53.0241
2002-03-06,53.2416
2002-03-07,52.4805
2002-03-08,51.005
2002-03-11,51.0283
2002-03-12,50.8031
2002-03-13,51.0206
2002-03-14,51.8437
2002-03-15,52.4883
2002-03-18,52.5426
2002-03-19,52.2475
2002-03-20,51.7971
2002-03-21,51.7971
2002-03-22,51.8204
2002-03-25,51.37
2002-03-26,51.6108
2002-03-27,52.2708
2002-03-28,52.7445
2002-04-01,52.698
2002-04-02,53.1328
2002-04-03,52.9076
2002-04-04,53.2571
2002-04-05,53.6764
2002-04-08,53.7153
2002-04-09,54.1967
2002-04-10,53.8162
2002-04-11,53.1173
2002-04-12,53.2726
2002-04-15,52.4572
2002-04-16,53.3503
2002-04-17,54.1967
2002-04-18,53.7852
2002-04-19,54.1113
2002-04-22,54.3288
2002-04-23,53.4512
2002-04-24,53.7386
2002-04-25,52.8843
2002-04-26,52.9465
2002-04-29,52.1854
2002-04-30,53.8007
2002-05-01,53.5755
2002-05-02,53.2726
2002-05-03,52.9076
2002-05-06,52.6824
2002-05-07,51.0516
2002-05-08,52.2786
2002-05-09,51.4089
2002-05-10,51.106
2002-05-13,52.1932
2002-05-14,51.9059
2002-05-15,51.2302
2002-05-16,51.6418
2002-05-17,51.999
2002-05-20,51.5642
2002-05-21,50.6556
2002-05-22,50.4692
2002-05-23,51.0128
2002-05-24,50.7798
2002-05-28,50.7798
2002-05-29,50.9041
2002-05-30,50.7873
2002-05-31,51.4578
2002-06-03,50.1947
2002-06-04,49.5866
2002-06-05,49.7425
2002-06-06,49.1578
2002-06-07,49.1266
2002-06-10,49.1188
2002-06-11,47.4581
2002-06-12,47.7544
2002-06-13,46.4212
2002-06-14,46.6395
2002-06-17,48.4561
2002-06-18,48.2923
2002-06-19,48.0584
2002-06-20,47.4425
2002-06-21,47.2242
2002-06-24,47.1306
2002-06-25,46.1327
2002-06-26,45.9767
2002-06-27,45.2439
2002-06-28,46.351
2002-07-01,45.5713
2002-07-02,44.2303
2002-07-03,43.5832
2002-07-05,45.4544
2002-07-08,45.2283
2002-07-09,44.1445
2002-07-10,42.3201
2002-07-11,42.8035
2002-07-12,42.2266
2002-07-15,42.6086
2002-07-16,41.5483
2002-07-17,40.3866
2002-07-18,39.0845
2002-07-19,38.5154
2002-07-22,37.416
2002-07-23,35.3032
2002-07-24,36.1608
2002-07-25,36.0828
2002-07-26,37.9306
2002-07-29,40.0357
2002-07-30,39.5523
2002-07-31,39.4042
2002-08-01,39.6147
2002-08-02,38.032
2002-08-05,36.6442
2002-08-06,37.2679
2002-08-07,37.3771
2002-08-08,38.6713
2002-08-09,39.3184
2002-08-12,39.1157
2002-08-13,38.5154
2002-08-14,39.1391
2002-08-15,39.4042
2002-08-16,39.0689
2002-08-19,40.7764
2002-08-20,40.2306
2002-08-21,40.1449
2002-08-22,41.9927
2002-08-23,40.6984
2002-08-26,41.595
2002-08-27,40.1994
2002-08-28,39.373
2002-08-29,39.4984
2002-08-30,39.2084
2002-09-03,37.8526
2002-09-04,37.978
2002-09-05,36.2069
2002-09-06,36.4106
2002-09-09,37.1865
2002-09-10,38.362
2002-09-11,38.1426
2002-09-12,37.4294
2002-09-13,37.7664
2002-09-16,38.0172
2002-09-17,37.0454
2002-09-18,37.1552
2002-09-19,35.8229
2002-09-20,35.2508
2002-09-23,34.8981
2002-09-24,33.3934
2002-09-25,33.5658
2002-09-26,34.6081
2002-09-27,33.1583
2002-09-30,32.0611
2002-10-01,33.699
2002-10-02,32.3903
2002-10-03,31.3166
2002-10-04,30.2743
2002-10-07,29.3965
2002-10-08,31.0031
2002-10-09,29.3809
2002-10-10,31.5909
2002-10-11,33.895
2002-10-14,34.3182
2002-10-15,36.7555
2002-10-16,35.5015
2002-10-17,37.5784
2002-10-18,37.6254
2002-10-21,38.5736
2002-10-22,37.6646
2002-10-23,37.7508
2002-10-24,37.0846
2002-10-25,37.5235
2002-10-28,37.1865
2002-10-29,34.953
2002-10-30,31.3479
2002-10-31,31.0031
2002-11-01,32.2257
2002-11-04,33.6599
2002-11-05,33.2445
2002-11-06,34.6473
2002-11-07,33.2367
2002-11-08,33.3542
2002-11-11,32.6567
2002-11-12,33.9106
2002-11-13,33.8166
2002-11-14,34.8119
2002-11-15,35.8856
2002-11-18,35.1881
2002-11-19,35.7367
2002-11-20,36.1599
2002-11-21,36.9279
2002-11-22,37.6959
2002-11-25,37.2962
2002-11-26,36.3166
2002-11-27,37.2943
2002-11-29,38.6738
2002-12-02,39.4385
2002-12-03,39.0128
2002-12-04,38.4689
2002-12-05,37.6569
2002-12-06,37.2234
2002-12-09,36.5612
2002-12-10,36.8213
2002-12-11,37.3258
2002-12-12,36.8056
2002-12-13,36.2617
2002-12-16,37.5466
2002-12-17,37.0972
2002-12-18,36.1355
2002-12-19,35.8754
2002-12-20,36.9711
2002-12-23,36.8765
2002-12-24,36.7346
2002-12-26,36.6716
2002-12-27,35.5758
2002-12-30,35.8911
2002-12-31,35.7493
2003-01-02,36.9632
2003-01-03,36.9711
2003-01-06,38.2639
2003-01-07,37.925
2003-01-08,37.0184
2003-01-09,38.1457
2003-01-10,38.0747
2003-01-13,38.1141
2003-01-14,38.3428
2003-01-15,37.3653
2003-01-16,36.9553
2003-01-17,36.4981
2003-01-21,35.6783
2003-01-22,34.8821
2003-01-23,35.4734
2003-01-24,33.9992
2003-01-27,33.4868
2003-01-28,34.2751
2003-01-29,34.4092
2003-01-30,32.9272
2003-01-31,32.872
2003-02-03,32.5567
2003-02-04,31.524
2003-02-05,31.7447
2003-02-06,30.5623
2003-02-07,30.381
2003-02-10,30.6726
2003-02-11,30.0499
2003-02-12,29.6636
2003-02-13,29.0251
2003-02-14,29.3168
2003-02-18,29.4586
2003-02-19,29.2379
2003-02-20,29.4035
2003-02-21,29.4823
2003-02-24,28.8911
2003-02-25,29.1906
2003-02-26,28.5994
2003-02-27,29.2666
2003-02-28,28.6551
2003-03-03,28.6153
2003-03-04,28.4009
2003-03-05,28.4406
2003-03-06,27.6385
2003-03-07,27.837
2003-03-10,26.4392
2003-03-11,26.1612
2003-03-12,25.7006
2003-03-13,27.2175
2003-03-14,27.7258
2003-03-17,29.4175
2003-03-18,29.4016
2003-03-19,29.7431
2003-03-20,29.7511
2003-03-21,30.6088
2003-03-24,29.0601
2003-03-25,29.3857
2003-03-26,28.7662
2003-03-27,28.6392
2003-03-28,28.4168
2003-03-31,27.98
2003-04-01,28.7901
2003-04-02,29.616
2003-04-03,29.6478
2003-04-04,29.9337
2003-04-07,30.5929
2003-04-08,30.5135
2003-04-09,30.2355
2003-04-10,30.1402
2003-04-11,30.3308
2003-04-14,31.4189
2003-04-15,31.8637
2003-04-16,31.4189
2003-04-17,31.816
2003-04-21,31.9272
2003-04-22,33.6665
2003-04-23,33.1264
2003-04-24,32.0463
2003-04-25,31.6572
2003-04-28,32.5784
2003-04-29,32.2846
2003-04-30,32.3561
2003-05-01,34.0636
2003-05-02,34.7466
2003-05-05,35.5726
2003-05-06,35.8426
2003-05-07,35.6123
2003-05-08,34.8975
2003-05-09,34.6434
2003-05-12,36.9307
2003-05-13,36.3033
2003-05-14,36.3986
2003-05-15,36.4939
2003-05-16,37.7567
2003-05-19,36.4065
2003-05-20,35.9935
2003-05-21,35.5488
2003-05-22,35.0802
2003-05-23,35.0008
2003-05-27,36.0174
2003-05-28,36.2556
2003-05-29,36.3595
2003-05-30,37.2144
2003-06-02,37.1505
2003-06-03,36.751
2003-06-04,37.2303
2003-06-05,37.9015
2003-06-06,38.4767
2003-06-09,37.8375
2003-06-10,38.3409
2003-06-11,39.1398
2003-06-12,40.1704
2003-06-13,39.9148
2003-06-16,40.8735
2003-06-17,41.0892
2003-06-18,41.4567
2003-06-19,40.4501
2003-06-20,40.9374
2003-06-23,39.9387
2003-06-24,41.0013
2003-06-25,40.3622
2003-06-26,41.3049
2003-06-27,41.257
2003-06-30,40.3462
2003-07-01,40.5779
2003-07-02,41.273
2003-07-03,41.2969
2003-07-07,41.8242
2003-07-08,42.5992
2003-07-09,42.0799
2003-07-10,40.9454
2003-07-11,41.3768
2003-07-14,41.9201
2003-07-15,41.6245
2003-07-16,41.3528
2003-07-17,40.4021
2003-07-18,40.7776
2003-07-21,40.2264
2003-07-22,40.6019
2003-07-23,40.0586
2003-07-24,39.9467
2003-07-25,40.7057
2003-07-28,41.1691
2003-07-29,40.7936
2003-07-30,40.5539
2003-07-31,41.6724
2003-08-01,40.8016
2003-08-04,40.0346
2003-08-05,39.8588
2003-08-06,40.498
2003-08-07,42.6232
2003-08-08,42.1678
2003-08-11,42.3515
2003-08-12,42.5912
2003-08-13,42.3675
2003-08-14,43.1984
2003-08-15,42.8948
2003-08-18,43.3262
2003-08-19,43.1345
2003-08-20,43.0226
2003-08-21,42.8149
2003-08-22,42.4394
2003-08-25,42.3595
2003-08-26,42.5672
2003-08-27,42.5033
2003-08-28,42.632
2003-08-29,42.6722
2003-09-02,43.3467
2003-09-03,44.0533
2003-09-04,43.6599
2003-09-05,43.1459
2003-09-08,44.0855
2003-09-09,44.0212
2003-09-10,43.2905
2003-09-11,43.1218
2003-09-12,42.8087
2003-09-15,42.624
2003-09-16,43.3467
2003-09-17,43.3627
2003-09-18,44.8001
2003-09-19,44.3745
2003-09-22,43.6518
2003-09-23,44.0132
2003-09-24,42.8167
2003-09-25,42.0137
2003-09-26,41.7647
2003-09-29,42.4794
2003-09-30,42.2385
2003-10-01,42.8729
2003-10-02,42.8649
2003-10-03,43.5555
2003-10-06,43.7723
2003-10-07,43.8044
2003-10-08,43.4832
2003-10-09,43.6277
2003-10-10,43.2824
2003-10-13,44.0453
2003-10-14,44.3103
2003-10-15,44.3665
2003-10-16,44.6235
2003-10-17,43.965
2003-10-20,43.965
2003-10-21,43.6679
2003-10-22,42.7685
2003-10-23,43.2584
2003-10-24,43.2182
2003-10-27,42.8167
2003-10-28,43.0576
2003-10-29,43.9409
2003-10-30,43.5956
2003-10-31,44.0533
2003-11-03,44.5914
2003-11-04,44.2702
2003-11-05,44.1818
2003-11-06,46.1331
2003-11-07,45.1454
2003-11-10,45.0732
2003-11-11,44.8162
2003-11-12,45.0089
2003-11-13,44.8724
2003-11-14,44.1256
2003-11-17,43.7643
2003-11-18,42.6802
2003-11-19,43.2262
2003-11-20,42.8247
2003-11-21,43.1379
2003-11-24,43.692
2003-11-25,44.1336
2003-11-26,44.4648
2003-11-28,44.3921
2003-12-01,45.4414
2003-12-02,45.1185
2003-12-03,45.6997
2003-12-04,46.3615
2003-12-05,46.0387
2003-12-08,46.7005
2003-12-09,46.5391
2003-12-10,46.6521
2003-12-11,46.9749
2003-12-12,46.7893
2003-12-15,46.1194
2003-12-16,46.5391
2003-12-17,46.0467
2003-12-18,46.6359
2003-12-19,46.7489
2003-12-22,46.3534
2003-12-23,46.418
2003-12-24,46.5552
2003-12-26,46.6924
2003-12-29,47.4188
2003-12-30,47.5561
2003-12-31,47.6206
2004-01-02,47.5803
2004-01-05,48.1533
2004-01-06,48.0726
2004-01-07,49.1703
2004-01-08,50.0824
2004-01-09,50.155
2004-01-12,50.6232
2004-01-13,50.3568
2004-01-14,51.3738
2004-01-15,51.4949
2004-01-16,51.2931
2004-01-20,51.0267
2004-01-21,51.3899
2004-01-22,50.9379
2004-01-23,50.9702
2004-01-26,51.8742
2004-01-27,51.511
2004-01-28,51.0671
2004-01-29,51.1478
2004-01-30,51.9065
2004-02-02,52.2939
2004-02-03,52.4715
2004-02-04,51.7451
2004-02-05,52.2536
2004-02-06,52.5764
2004-02-09,52.3423
2004-02-10,52.9396
2004-02-11,53.1091
2004-02-12,52.7782
2004-02-13,52.867
2004-02-17,53.3916
2004-02-18,53.2383
2004-02-19,53.0445
2004-02-20,52.7943
2004-02-23,52.9477
2004-02-24,52.6733
2004-02-25,52.7701
2004-02-26,53.4024
2004-02-27,53.0944
2004-03-01,52.9241
2004-03-02,52.9241
2004-03-03,53.5078
2004-03-04,53.9293
2004-03-05,53.4348
2004-03-08,53.678
2004-03-09,53.3943
2004-03-10,52.227
2004-03-11,50.7679
2004-03-12,51.8947
2004-03-15,50.1438
2004-03-16,50.8328
2004-03-17,51.5948
2004-03-18,52.2919
2004-03-19,51.8704
2004-03-22,50.3951
2004-03-23,50.3383
2004-03-24,49.9411
2004-03-25,50.541
2004-03-26,50.8895
2004-03-29,51.6272
2004-03-30,51.5056
2004-03-31,51.6029
2004-04-01,52.5351
2004-04-02,53.2646
2004-04-05,53.986
2004-04-06,53.7753
2004-04-07,53.3781
2004-04-08,54.0671
2004-04-12,54.675
2004-04-13,53.4591
2004-04-14,52.608
2004-04-15,51.5542
2004-04-16,52.2513
2004-04-19,52.3
2004-04-20,50.5491
2004-04-21,51.6839
2004-04-22,51.9838
2004-04-23,51.7488
2004-04-26,51.2381
2004-04-27,51.0598
2004-04-28,50.0951
2004-04-29,49.8277
2004-04-30,49.5439
2004-05-03,50.3464
2004-05-04,49.8601
2004-05-05,52.227
2004-05-06,52.4135
2004-05-07,51.4813
2004-05-10,50.7436
2004-05-11,51.4489
2004-05-12,51.8947
2004-05-13,51.4002
2004-05-14,51.0922
2004-05-17,51.2219
2004-05-18,52.0001
2004-05-19,52.1784
2004-05-20,52.4945
2004-05-21,52.681
2004-05-24,52.8755
2004-05-25,54.3913
2004-05-26,53.8239
2004-05-27,53.8808
2004-05-28,53.8808
2004-06-01,53.5389
2004-06-02,53.9785
2004-06-03,53.4575
2004-06-04,53.4901
2004-06-07,54.6216
2004-06-08,54.3285
2004-06-09,53.3598
2004-06-10,53.9134
2004-06-14,53.1156
2004-06-15,53.6447
2004-06-16,53.8645
2004-06-17,54.589
2004-06-18,54.9716
2004-06-21,54.8821
2004-06-22,54.9309
2004-06-23,54.8739
2004-06-24,54.76
2004-06-25,55.2077
2004-06-28,55.2728
2004-06-29,55.11
2004-06-30,55.924
2004-07-01,55.5903
2004-07-02,55.5496
2004-07-06,55.1588
2004-07-07,54.5402
2004-07-08,54.4343
2004-07-09,54.1494
2004-07-12,54.3367
2004-07-13,54.2471
2004-07-14,53.6854
2004-07-15,53.3354
2004-07-16,52.7493
2004-07-19,53.4087
2004-07-20,52.0981
2004-07-21,51.6341
2004-07-22,50.9014
2004-07-23,50.7549
2004-07-26,51.048
2004-07-27,51.4875
2004-07-28,51.9434
2004-07-29,52.4725
2004-07-30,52.9447
2004-08-02,52.5295
2004-08-03,52.3423
2004-08-04,52.7167
2004-08-05,51.4306
2004-08-06,49.9734
2004-08-09,49.6641
2004-08-10,49.8513
2004-08-11,49.3873
2004-08-12,48.1826
2004-08-13,47.6372
2004-08-16,48.4838
2004-08-17,48.5245
2004-08-18,48.8989
2004-08-19,48.6303
2004-08-20,49.2897
2004-08-23,48.5326
2004-08-24,48.6873
2004-08-25,49.7374
2004-08-26,49.9165
2004-08-27,49.9653
2004-08-30,50.0309
2004-08-31,49.9982
2004-09-01,49.3194
2004-09-02,49.8919
2004-09-03,50.1208
2004-09-07,51.0286
2004-09-08,51.0122
2004-09-09,50.5624
2004-09-10,50.2271
2004-09-13,50.9631
2004-09-14,51.0858
2004-09-15,51.1103
2004-09-16,51.5765
2004-09-17,51.9117
2004-09-20,51.9772
2004-09-21,52.6232
2004-09-22,52.0099
2004-09-23,51.74
2004-09-24,51.5601
2004-09-27,50.4561
2004-09-28,50.2926
2004-09-29,50.2844
2004-09-30,50.6115
2004-10-01,51.5928
2004-10-04,52.0099
2004-10-05,52.2879
2004-10-06,52.0426
2004-10-07,51.5928
2004-10-08,51.4456
2004-10-11,51.4293
2004-10-12,50.9795
2004-10-13,50.8159
2004-10-14,47.7575
2004-10-15,45.8685
2004-10-18,44.3965
2004-10-19,43.5215
2004-10-20,44.7236
2004-10-21,44.421
2004-10-22,45.0098
2004-10-25,45.0507
2004-10-26,48.011
2004-10-27,48.3136
2004-10-28,47.9456
2004-10-29,47.7902
2004-11-01,48.3299
2004-11-02,48.4117
2004-11-03,48.7388
2004-11-04,49.5239
2004-11-05,50.587
2004-11-08,51.1022
2004-11-09,51.6419
2004-11-10,51.9772
2004-11-11,52.6641
2004-11-12,50.6851
2004-11-15,51.6828
2004-11-16,51.323
2004-11-17,51.5192
2004-11-18,51.691
2004-11-19,51.969
2004-11-22,52.5087
2004-11-23,51.969
2004-11-24,52.5169
2004-11-26,52.9094
2004-11-29,53.008
2004-11-30,52.5562
2004-12-01,54.0759
2004-12-02,53.9691
2004-12-03,53.8212
2004-12-06,53.9034
2004-12-07,53.4762
2004-12-08,53.6323
2004-12-09,54.1087
2004-12-10,54.0019
2004-12-13,54.388
2004-12-14,54.9302
2004-12-15,54.8069
2004-12-16,55.2505
2004-12-17,55.4066
2004-12-20,55.0945
2004-12-21,55.9816
2004-12-22,56.1541
2004-12-23,56.4088
2004-12-27,55.8913
2004-12-28,56.4745
2004-12-29,56.7045
2004-12-30,56.6552
2004-12-31,56.9263
2005-01-03,56.5484
2005-01-04,55.7927
2005-01-05,55.5873
2005-01-06,55.8913
2005-01-07,55.4066
2005-01-10,55.612
2005-01-11,54.9466
2005-01-12,54.8891
2005-01-13,54.5934
2005-01-14,55.6695
2005-01-18,56.2527
2005-01-19,56.0145
2005-01-20,54.9384
2005-01-21,54.4455
2005-01-24,54.2894
2005-01-25,54.7412
2005-01-26,55.9323
2005-01-27,55.0534
2005-01-28,54.3223
2005-01-31,55.1602
2005-02-01,56.4416
2005-02-02,56.5648
2005-02-03,56.9427
2005-02-04,58.4624
2005-02-07,58.3227
2005-02-08,58.216
2005-02-09,57.8299
2005-02-10,58.8238
2005-02-11,60.6392
2005-02-14,59.8835
2005-02-15,59.596
2005-02-16,58.8567
2005-02-17,58.5281
2005-02-18,58.4952
2005-02-22,57.912
2005-02-23,58.4213
2005-02-24,58.676
2005-02-25,60.1604
2005-02-28,59.3604
2005-03-01,60.0037
2005-03-02,59.5748
2005-03-03,59.913
2005-03-04,60.1027
2005-03-07,60.1192
2005-03-08,59.6738
2005-03-09,59.1872
2005-03-10,59.1789
2005-03-11,58.5521
2005-03-14,58.8737
2005-03-15,58.8078
2005-03-16,58.4943
2005-03-17,58.2716
2005-03-18,57.95
2005-03-21,57.1582
2005-03-22,56.0859
2005-03-23,55.6735
2005-03-24,56.0282
2005-03-28,56.853
2005-03-29,57.018
2005-03-30,57.0674
2005-03-31,56.4736
2005-04-01,55.4344
2005-04-04,57.1334
2005-04-05,56.7045
2005-04-06,57.0427
2005-04-07,57.1334
2005-04-08,56.6468
2005-04-11,56.5396
2005-04-12,57.5293
2005-04-13,56.2262
2005-04-14,55.6653
2005-04-15,55.1209
2005-04-18,55.022
2005-04-19,55.055
2005-04-20,53.9745
2005-04-21,54.7168
2005-04-22,54.791
2005-04-25,55.0137
2005-04-26,54.6508
2005-04-27,55.9045
2005-04-28,55.4261
2005-04-29,59.7068
2005-05-02,60.3996
2005-05-03,60.4821
2005-05-04,62.2884
2005-05-05,60.8368
2005-05-06,61.1089
2005-05-09,61.2491
2005-05-10,60.045
2005-05-11,60.7295
2005-05-12,59.6655
2005-05-13,59.0387
2005-05-16,59.014
2005-05-17,59.715
2005-05-18,59.5501
2005-05-19,59.3191
2005-05-20,60.2759
2005-05-23,60.6635
2005-05-24,60.6553
2005-05-25,60.8203
2005-05-26,61.8512
2005-05-27,61.9505
2005-05-31,61.8429
2005-06-01,61.5862
2005-06-02,61.7021
2005-06-03,61.2799
2005-06-06,61.7684
2005-06-07,61.7684
2005-06-08,61.3958
2005-06-09,61.4951
2005-06-10,61.4289
2005-06-13,61.4289
2005-06-14,62.2321
2005-06-15,62.2238
2005-06-16,62.7288
2005-06-17,63.2256
2005-06-20,63.2919
2005-06-21,63.118
2005-06-22,63.2836
2005-06-23,62.0333
2005-06-24,62.9938
2005-06-27,64.0205
2005-06-28,63.4906
2005-06-29,62.8862
2005-06-30,61.8843
2005-07-01,62.5798
2005-07-05,63.5568
2005-07-06,63.383
2005-07-07,63.5403
2005-07-08,63.6479
2005-07-11,64.0288
2005-07-12,64.0371
2005-07-13,63.9543
2005-07-14,64.3517
2005-07-15,64.8899
2005-07-18,64.7574
2005-07-19,65.4778
2005-07-20,65.8338
2005-07-21,65.4281
2005-07-22,65.5771
2005-07-25,65.13
2005-07-26,65.4529
2005-07-27,66.4548
2005-07-28,66.7363
2005-07-29,66.7695
2005-08-01,66.6287
2005-08-02,67.0427
2005-08-03,67.8541
2005-08-04,66.5625
2005-08-05,63.8715
2005-08-08,63.4409
2005-08-09,64.3269
2005-08-10,64.3434
2005-08-11,64.7078
2005-08-12,64.3269
2005-08-15,64.1364
2005-08-16,63.5486
2005-08-17,63.3664
2005-08-18,63.1925
2005-08-19,63.4906
2005-08-22,63.8135
2005-08-23,63.3333
2005-08-24,62.5798
2005-08-25,62.7371
2005-08-26,61.8926
2005-08-29,60.8576
2005-08-30,60.7242
2005-08-31,60.7491
2005-09-01,61.3643
2005-09-02,61.7383
2005-09-06,62.6943
2005-09-07,63.0185
2005-09-08,62.7109
2005-09-09,63.4341
2005-09-12,63.0434
2005-09-13,62.5945
2005-09-14,61.6053
2005-09-15,62.262
2005-09-16,63.4092
2005-09-19,63.1515
2005-09-20,62.4283
2005-09-21,60.8988
2005-09-22,61.3892
2005-09-23,62.4532
2005-09-26,61.9461
2005-09-27,61.9046
2005-09-28,63.0019
2005-09-29,63.5837
2005-09-30,64.0825
2005-10-03,64.0991
2005-10-04,63.9828
2005-10-05,63.2928
2005-10-06,63.1764
2005-10-07,63.9744
2005-10-10,63.193
2005-10-11,63.0684
2005-10-12,62.5114
2005-10-13,61.7965
2005-10-14,61.996
2005-10-17,62.0625
2005-10-18,61.2645
2005-10-19,62.5364
2005-10-20,61.4889
2005-10-21,62.2205
2005-10-24,63.3676
2005-10-25,63.1099
2005-10-26,63.7749
2005-10-27,64.0659
2005-10-28,65.0883
2005-10-31,66.2521
2005-11-01,66.435
2005-11-02,67.5489
2005-11-03,67.2663
2005-11-04,69.8432
2005-11-07,70.3835
2005-11-08,70.2671
2005-11-09,70.4251
2005-11-10,71.8216
2005-11-11,71.8216
2005-11-14,71.7468
2005-11-15,70.7659
2005-11-16,71.3977
2005-11-17,72.3121
2005-11-18,73.0851
2005-11-21,72.8607
2005-11-22,72.7028
2005-11-23,73.7003
2005-11-25,73.1101
2005-11-28,73.1516
2005-11-29,74.2361
2005-11-30,72.9432
2005-12-01,74.2778
2005-12-02,73.4604
2005-12-05,72.9432
2005-12-06,72.2176
2005-12-07,71.567
2005-12-08,71.3418
2005-12-09,71.984
2005-12-12,71.909
2005-12-13,72.5012
2005-12-14,72.9015
2005-12-15,72.8932
2005-12-16,72.2343
2005-12-19,71.3251
2005-12-20,71.567
2005-12-21,71.5753
2005-12-22,71.7254
2005-12-23,72.0257
2005-12-27,71.225
2005-12-28,71.5503
2005-12-29,72.1175
2005-12-30,71.5836
2006-01-03,73.3686
2006-01-04,73.8858
2006-01-05,73.2602
2006-01-06,74.0776
2006-01-09,73.8858
2006-01-10,73.1935
2006-01-11,73.7774
2006-01-12,73.4854
2006-01-13,73.1935
2006-01-17,72.3761
2006-01-18,72.4511
2006-01-19,72.8598
2006-01-20,71.2
2006-01-23,71.3167
2006-01-24,70.6244
2006-01-25,69.5985
2006-01-26,71.3584
2006-01-27,70.7078
2006-01-30,70.3074
2006-01-31,68.6642
2006-02-01,68.6559
2006-02-02,67.9386
2006-02-03,67.3547
2006-02-06,66.6791
2006-02-07,66.921
2006-02-08,67.0127
2006-02-09,67.2296
2006-02-10,67.5632
2006-02-13,67.3046
2006-02-14,68.4307
2006-02-15,69.1981
2006-02-16,69.5067
2006-02-17,69.7402
2006-02-21,70.0322
2006-02-22,71.592
2006-02-23,70.5827
2006-02-24,69.5484
2006-02-27,69.8338
2006-02-28,68.9705
2006-03-01,69.9846
2006-03-02,69.4734
2006-03-03,68.7861
2006-03-06,68.4844
2006-03-07,68.4257
2006-03-08,68.4341
2006-03-09,68.0569
2006-03-10,68.3084
2006-03-13,68.6352
2006-03-14,68.9789
2006-03-15,69.6242
2006-03-16,69.7667
2006-03-17,69.18
2006-03-20,69.465
2006-03-21,68.7777
2006-03-22,69.3896
2006-03-23,68.8448
2006-03-24,67.8809
2006-03-27,67.1433
2006-03-28,66.4309
2006-03-29,67.202
2006-03-30,67.772
2006-03-31,67.5121
2006-04-03,67.5708
2006-04-04,68.3503
2006-04-05,69.6494
2006-04-06,69.7416
2006-04-07,68.9537
2006-04-10,68.9034
2006-04-11,68.2664
2006-04-12,67.5289
2006-04-13,67.8558
2006-04-17,68.124
2006-04-18,69.18
2006-04-19,71.2586
2006-04-20,71.7783
2006-04-21,71.1832
2006-04-24,71.6106
2006-04-25,71.8034
2006-04-26,73.0103
2006-04-27,72.9181
2006-04-28,77.0837
2006-05-01,73.706
2006-05-02,75.8516
2006-05-03,75.86
2006-05-04,75.9354
2006-05-05,75.9187
2006-05-08,76.7736
2006-05-09,76.9328
2006-05-10,77.2178
2006-05-11,76.782
2006-05-12,76.2372
2006-05-15,76.5473
2006-05-16,75.7929
2006-05-17,73.7144
2006-05-18,73.1779
2006-05-19,73.706
2006-05-22,73.0355
2006-05-23,74.1753
2006-05-24,73.9071
2006-05-25,73.7982
2006-05-26,73.7982
2006-05-30,72.8383
2006-05-31,74.0424
2006-06-01,74.8422
2006-06-02,74.8254
2006-06-05,73.5119
2006-06-06,73.8992
2006-06-07,74.0676
2006-06-08,74.2444
2006-06-09,72.8131
2006-06-12,72.1227
2006-06-13,70.565
2006-06-14,70.5229
2006-06-15,71.8869
2006-06-16,70.4977
2006-06-19,69.6894
2006-06-20,69.26
2006-06-21,69.4789
2006-06-22,69.2347
2006-06-23,69.361
2006-06-26,69.3442
2006-06-27,69.3947
2006-06-28,69.3105
2006-06-29,71.2134
2006-06-30,71.2049
2006-07-03,71.7354
2006-07-05,70.6829
2006-07-06,70.9439
2006-07-07,70.3293
2006-07-10,71.0029
2006-07-11,70.2704
2006-07-12,69.1337
2006-07-13,68.7211
2006-07-14,68.2328
2006-07-17,68.839
2006-07-18,68.5948
2006-07-19,70.0346
2006-07-20,71.5754
2006-07-21,70.6408
2006-07-24,71.4996
2006-07-25,72.1479
2006-07-26,71.7354
2006-07-27,70.725
2006-07-28,71.9459
2006-07-31,71.4407
2006-08-01,71.3144
2006-08-02,70.4388
2006-08-03,69.4873
2006-08-04,69.4368
2006-08-07,68.8811
2006-08-08,68.157
2006-08-09,67.2309
2006-08-10,67.7529
2006-08-11,67.8455
2006-08-14,68.5612
2006-08-15,69.5799
2006-08-16,69.9757
2006-08-17,71.0365
2006-08-18,71.1039
2006-08-21,70.5145
2006-08-22,69.7652
2006-08-23,70.2788
2006-08-24,70.5398
2006-08-25,70.6408
2006-08-28,71.5754
2006-08-29,71.8364
2006-08-30,72.1073
2006-08-31,72.6403
2006-09-01,72.0735
2006-09-05,71.9466
2006-09-06,71.8028
2006-09-07,70.83
2006-09-08,71.2106
2006-09-11,71.955
2006-09-12,72.9702
2006-09-13,73.4439
2006-09-14,72.6825
2006-09-15,73.6131
2006-09-18,72.8348
2006-09-19,72.5641
2006-09-20,73.4185
2006-09-21,72.3696
2006-09-22,71.862
2006-09-25,73.6385
2006-09-26,74.2475
2006-09-27,74.036
2006-09-28,74.1291
2006-09-29,73.3424
2006-10-02,72.5387
2006-10-03,73.9599
2006-10-04,75.7702
2006-10-05,76.0578
2006-10-06,75.9225
2006-10-09,75.3472
2006-10-10,75.2796
2006-10-11,75.1527
2006-10-12,75.6518
2006-10-13,75.9986
2006-10-16,76.7092
2006-10-17,76.1339
2006-10-18,76.9968
2006-10-19,75.9225
2006-10-20,75.4487
2006-10-23,75.4403
2006-10-24,75.4149
2006-10-25,75.4657
2006-10-26,77.2083
2006-10-27,73.8415
2006-10-30,74.146
2006-10-31,73.6385
2006-11-01,73.6723
2006-11-02,73.5962
2006-11-03,73.1309
2006-11-06,72.9617
2006-11-07,73.3508
2006-11-08,73.8246
2006-11-09,72.8856
2006-11-10,72.5641
2006-11-13,72.8433
2006-11-14,73.317
2006-11-15,73.2832
2006-11-16,74.459
2006-11-17,74.7635
2006-11-20,74.8481
2006-11-21,74.1122
2006-11-22,73.5877
2006-11-24,73.317
2006-11-27,72.285
2006-11-28,72.1411
2006-11-29,72.7537
2006-11-30,73.0175
2006-12-01,72.0475
2006-12-04,72.2942
2006-12-05,73.911
2006-12-06,73.5536
2006-12-07,73.8004
2006-12-08,73.945
2006-12-11,75.2214
2006-12-12,76.1915
2006-12-13,76.4467
2006-12-14,77.4338
2006-12-15,78.2847
2006-12-18,77.8763
2006-12-19,77.8252
2006-12-20,78.4719
2006-12-21,78.6336
2006-12-22,78.6847
2006-12-26,79.0591
2006-12-27,79.6377
2006-12-28,79.6037
2006-12-29,79.3569
2007-01-03,79.8504
2007-01-04,79.3314
2007-01-05,77.9869
2007-01-08,78.4294
2007-01-09,77.4168
2007-01-10,77.2466
2007-01-11,77.187
2007-01-12,77.7316
2007-01-16,79.0846
2007-01-17,78.523
2007-01-18,78.0975
2007-01-19,78.4889
2007-01-22,78.0209
2007-01-23,78.6506
2007-01-24,79.5356
2007-01-25,78.3698
2007-01-26,79.3824
2007-01-29,79.6717
2007-01-30,80.4205
2007-01-31,80.7013
2007-02-01,81.8756
2007-02-02,81.799
2007-02-05,81.7735
2007-02-06,81.7054
2007-02-07,81.6288
2007-02-08,81.5863
2007-02-09,81.0247
2007-02-12,81.6374
2007-02-13,82.7521
2007-02-14,82.3777
2007-02-15,82.667
2007-02-16,82.5819
2007-02-20,82.8457
2007-02-21,82.5819
2007-02-22,82.1649
2007-02-23,82.0883
2007-02-26,82.7606
2007-02-27,80.2546
2007-02-28,80.7934
2007-03-01,80.5796
2007-03-02,80.6224
2007-03-05,80.3401
2007-03-06,81.7428
2007-03-07,81.281
2007-03-08,82.2475
2007-03-09,81.931
2007-03-12,81.4178
2007-03-13,79.5532
2007-03-14,79.7756
2007-03-15,80.6566
2007-03-16,80.6053
2007-03-19,81.7685
2007-03-20,82.2133
2007-03-21,83.5476
2007-03-22,83.3679
2007-03-23,82.4613
2007-03-26,82.3587
2007-03-27,81.7685
2007-03-28,80.9132
2007-03-29,81.8797
2007-03-30,81.7343
2007-04-02,81.9053
2007-04-03,82.9232
2007-04-04,83.0344
2007-04-05,83.0942
2007-04-09,83.291
2007-04-10,82.983
2007-04-11,82.3672
2007-04-12,82.7607
2007-04-13,82.7949
2007-04-16,83.1798
2007-04-17,84.1463
2007-04-18,83.9838
2007-04-19,83.8897
2007-04-20,84.6766
2007-04-23,85.0615
2007-04-24,84.6595
2007-04-25,86.7037
2007-04-26,86.1563
2007-04-27,88.3117
2007-04-30,86.4899
2007-05-01,86.9261
2007-05-02,87.636
2007-05-03,88.6538
2007-05-04,88.7564
2007-05-07,89.1499
2007-05-08,88.8847
2007-05-09,89.3381
2007-05-10,88.9361
2007-05-11,90.0223
2007-05-14,89.5433
2007-05-15,89.0644
2007-05-16,89.8427
2007-05-17,89.2354
2007-05-18,89.2867
2007-05-21,90.1763
2007-05-22,90.5868
2007-05-23,90.3302
2007-05-24,88.44
2007-05-25,88.2261
2007-05-29,88.2261
2007-05-30,89.0429
2007-05-31,88.7679
2007-06-01,88.5788
2007-06-04,88.4928
2007-06-05,87.1864
2007-06-06,86.4902
2007-06-07,84.4532
2007-06-08,85.6135
2007-06-11,86.241
2007-06-12,85.6135
2007-06-13,86.5504
2007-06-14,86.9286
2007-06-15,87.8224
2007-06-18,87.5818
2007-06-19,87.1176
2007-06-20,84.9431
2007-06-21,85.6221
2007-06-22,84.6251
2007-06-25,84.7798
2007-06-26,84.9861
2007-06-27,85.1064
2007-06-28,84.7025
2007-06-29,84.5908
2007-07-02,85.7167
2007-07-03,85.837
2007-07-05,85.0291
2007-07-06,85.4159
2007-07-09,85.8456
2007-07-10,83.1898
2007-07-11,83.1984
2007-07-12,84.8572
2007-07-13,84.522
2007-07-16,83.8774
2007-07-17,84.2641
2007-07-18,83.1468
2007-07-19,83.0866
2007-07-20,82.3475
2007-07-23,82.6397
2007-07-24,81.5138
2007-07-25,83.0523
2007-07-26,82.3819
2007-07-27,79.1244
2007-07-30,79.5628
2007-07-31,79.0557
2007-08-01,80.8004
2007-08-02,79.2791
2007-08-03,75.8584
2007-08-06,78.8408
2007-08-07,78.9697
2007-08-08,78.6173
2007-08-09,73.744
2007-08-10,75.3341
2007-08-13,75.7724
2007-08-14,74.5605
2007-08-15,73.4432
2007-08-16,75.5146
2007-08-17,77.4484
2007-08-20,75.8326
2007-08-21,75.145
2007-08-22,78.2649
2007-08-23,77.8696
2007-08-24,78.772
2007-08-27,78.8838
2007-08-28,75.5661
2007-08-29,76.4428
2007-08-30,75.9077
2007-08-31,76.8239
2007-09-04,77.4376
2007-09-05,76.1411
2007-09-06,76.3053
2007-09-07,75.8558
2007-09-10,75.3718
2007-09-11,75.7521
2007-09-12,75.5447
2007-09-13,76.4436
2007-09-14,76.1497
2007-09-17,75.4582
2007-09-18,78.1204
2007-09-19,79.6417
2007-09-20,78.4835
2007-09-21,79.3133
2007-09-24,78.155
2007-09-25,80.1517
2007-09-26,80.895
2007-09-27,80.4542
2007-09-28,79.8751
2007-10-01,81.5087
2007-10-02,82.2088
2007-10-03,82.8485
2007-10-04,82.8917
2007-10-05,84.6117
2007-10-08,84.2228
2007-10-09,84.3006
2007-10-10,83.4622
2007-10-11,83.8684
2007-10-12,83.9808
2007-10-15,83.6782
2007-10-16,82.2002
2007-10-17,81.8717
2007-10-18,81.8631
2007-10-19,79.1749
2007-10-22,80.2467
2007-10-23,80.0047
2007-10-24,79.9183
2007-10-25,79.0972
2007-10-26,85.2341
2007-10-29,82.9781
2007-10-30,82.8053
2007-10-31,83.9203
2007-11-01,81.5606
2007-11-02,81.258
2007-11-05,80.4628
2007-11-06,81.889
2007-11-07,78.9243
2007-11-08,79.6331
2007-11-09,79.1922
2007-11-12,79.659
2007-11-13,82.7275
2007-11-14,81.8372
2007-11-15,80.895
2007-11-16,80.4888
2007-11-19,77.1869
2007-11-20,76.5127
2007-11-21,75.8472
2007-11-23,78.0772
2007-11-26,76.1756
2007-11-27,78.4748
2007-11-28,81.9323
2007-11-29,81.7153
2007-11-30,82.8626
2007-12-03,82.4541
2007-12-04,80.9503
2007-12-05,83.1929
2007-12-06,84.3055
2007-12-07,81.9239
2007-12-10,80.9938
2007-12-11,77.8559
2007-12-12,78.5339
2007-12-13,78.2732
2007-12-14,77.1171
2007-12-17,75.483
2007-12-18,75.8046
2007-12-19,76.5956
2007-12-20,76.0219
2007-12-21,76.8216
2007-12-24,77.8125
2007-12-26,77.3605
2007-12-27,76.1349
2007-12-28,75.8393
2007-12-31,75.7177
2008-01-02,73.9358
2008-01-03,73.5011
2008-01-04,72.1017
2008-01-07,72.8927
2008-01-08,70.7544
2008-01-09,72.6754
2008-01-10,73.4751
2008-01-11,72.7971
2008-01-14,73.5881
2008-01-15,71.3107
2008-01-16,73.0926
2008-01-17,69.5114
2008-01-18,66.7908
2008-01-22,65.2696
2008-01-23,68.677
2008-01-24,69.3115
2008-01-25,65.4435
2008-01-28,68.0598
2008-01-29,69.1811
2008-01-30,68.0338
2008-01-31,70.2329
2008-02-01,70.937
2008-02-04,70.0677
2008-02-05,67.3905
2008-02-06,66.8864
2008-02-07,66.3214
2008-02-08,64.5917
2008-02-11,61.8102
2008-02-12,62.8271
2008-02-13,62.4447
2008-02-14,61.419
2008-02-15,62.9488
2008-02-19,63.6964
2008-02-20,62.888
2008-02-21,63.6268
2008-02-22,64.6438
2008-02-25,64.609
2008-02-26,65.1914
2008-02-27,65.9563
2008-02-28,63.6362
2008-02-29,61.2641
2008-03-03,60.4325
2008-03-04,61.019
2008-03-05,60.1874
2008-03-06,58.323
2008-03-07,58.6731
2008-03-10,58.4017
2008-03-11,61.4829
2008-03-12,61.0277
2008-03-13,60.52
2008-03-14,58.5943
2008-03-17,57.9291
2008-03-18,62.2794
2008-03-19,62.4808
2008-03-20,65.133
2008-03-24,66.2447
2008-03-25,65.5094
2008-03-26,64.4853
2008-03-27,64.9579
2008-03-28,65.1155
2008-03-31,66.3059
2008-04-01,69.2383
2008-04-02,69.3083
2008-04-03,68.7306
2008-04-04,68.2229
2008-04-07,66.5685
2008-04-08,65.8333
2008-04-09,64.7916
2008-04-10,65.133
2008-04-11,64.1176
2008-04-14,62.2532
2008-04-15,62.5683
2008-04-16,64.319
2008-04-17,64.9579
2008-04-18,66.2972
2008-04-21,64.7041
2008-04-22,63.9776
2008-04-23,61.6755
2008-04-24,62.5946
2008-04-25,63.1285
2008-04-28,62.7346
2008-04-29,63.4261
2008-04-30,62.4808
2008-05-01,65.2205
2008-05-02,66.0784
2008-05-05,64.1964
2008-05-06,63.5749
2008-05-07,61.2028
2008-05-08,59.9948
2008-05-09,59.811
2008-05-12,60.5288
2008-05-13,60.1524
2008-05-14,61.0802
2008-05-15,61.5529
2008-05-16,61.7805
2008-05-19,61.7367
2008-05-20,60.7914
2008-05-21,60.4325
2008-05-22,62.0168
2008-05-23,61.1153
2008-05-27,61.6404
2008-05-28,61.5529
2008-05-29,63.0165
2008-05-30,62.5667
2008-06-02,62.2315
2008-06-03,63.1929
2008-06-04,62.4079
2008-06-05,64.7275
2008-06-06,62.4344
2008-06-09,62.6902
2008-06-10,63.3693
2008-06-11,62.3021
2008-06-12,64.066
2008-06-13,65.0009
2008-06-16,63.6956
2008-06-17,62.6902
2008-06-18,62.0375
2008-06-19,62.0728
2008-06-20,60.8909
2008-06-23,60.4323
2008-06-24,60.6793
2008-06-25,60.547
2008-06-26,59.2152
2008-06-27,58.9506
2008-06-30,56.9045
2008-07-01,56.684
2008-07-02,56.6399
2008-07-03,57.2396
2008-07-07,56.2077
2008-07-08,58.2098
2008-07-09,56.5076
2008-07-10,54.8407
2008-07-11,50.766
2008-07-14,49.9193
2008-07-15,47.9084
2008-07-16,51.4892
2008-07-17,51.7097
2008-07-18,52.6269
2008-07-21,52.0448
2008-07-22,55.3522
2008-07-23,56.8427
2008-07-24,54.3997
2008-07-25,53.6235
2008-07-28,51.4451
2008-07-29,55.5903
2008-07-30,55.9872
2008-07-31,55.8902
2008-08-01,55.4757
2008-08-04,55.7932
2008-08-05,59.6738
2008-08-06,59.3034
2008-08-07,56.0137
2008-08-08,58.7213
2008-08-11,58.7037
2008-08-12,56.8868
2008-08-13,55.3787
2008-08-14,56.2253
2008-08-15,56.7986
2008-08-18,54.7436
2008-08-19,53.7029
2008-08-20,54.0733
2008-08-21,52.6975
2008-08-22,54.1615
2008-08-25,52.9709
2008-08-26,52.5652
2008-08-27,53.0591
2008-08-28,56.2978
2008-08-29,56.2177
2008-09-02,57.1431
2008-09-03,57.3211
2008-09-04,54.883
2008-09-05,55.15
2008-09-08,58.985
2008-09-09,55.8796
2008-09-10,55.1589
2008-09-11,55.1767
2008-09-12,53.753
2008-09-15,51.2526
2008-09-16,51.1726
2008-09-17,45.807
2008-09-18,49.6777
2008-09-19,55.0699
2008-09-22,52.445
2008-09-23,50.3984
2008-09-24,46.2431
2008-09-25,46.2164
2008-09-26,50.2116
2008-09-29,48.69
2008-09-30,36.215
2008-10-01,34.4087
2008-10-02,22.8946
2008-10-03,24.9234
2008-10-06,28.3847
2008-10-07,26.089
2008-10-08,21.898
2008-10-09,18.3566
2008-10-10,17.0842
2008-10-13,22.1917
2008-10-14,29.7283
2008-10-15,28.8029
2008-10-16,25.7687
2008-10-17,25.4573
2008-10-20,26.0979
2008-10-21,24.523
2008-10-22,19.9761
2008-10-23,18.757
2008-10-24,21.3909
2008-10-27,17.716
2008-10-28,17.1732
2008-10-29,17.5558
2008-10-30,8.5599
2008-10-31,9.10268
2008-11-03,14.6728
2008-11-04,15.1622
2008-11-05,15.3046
2008-11-06,12.2081
2008-11-07,13.1513
2008-11-10,13.0267
2008-11-11,9.95689
2008-11-12,8.63999
2008-11-13,9.41411
2008-11-14,11.2827
2008-11-17,8.28406
2008-11-18,8.53321
2008-11-19,6.16633
2008-11-20,4.93841
2008-11-21,4.43122
2008-11-24,5.49898
2008-11-25,6.26421
2008-11-26,7.04724
2008-11-28,7.86755
2008-12-01,6.13371
2008-12-02,6.34811
2008-12-03,6.45065
2008-12-04,6.7303
2008-12-05,13.5911
2008-12-08,13.8148
2008-12-09,14.1691
2008-12-10,14.5419
2008-12-11,13.936
2008-12-12,13.5538
2008-12-15,12.9945
2008-12-16,16.0054
2008-12-17,16.3224
2008-12-18,15.9588
2008-12-19,16.0148
2008-12-22,14.8868
2008-12-23,14.6631
2008-12-24,14.3368
2008-12-26,14.486
2008-12-29,14.4394
2008-12-30,15.3156
2008-12-31,15.3716
2009-01-02,15.8936
2009-01-05,16.0241
2009-01-06,18.3079
2009-01-07,16.6673
2009-01-08,17.18
2009-01-09,17.0215
2009-01-12,13.8335
2009-01-13,14.4394
2009-01-14,12.9106
2009-01-15,12.37
2009-01-16,12.892
2009-01-20,10.7946
2009-01-21,12.631
2009-01-22,11.4564
2009-01-23,13.1157
2009-01-26,13.0504
2009-01-27,13.6191
2009-01-28,16.5368
2009-01-29,14.3089
2009-01-30,12.3047
2009-02-02,14.1877
2009-02-03,13.6843
2009-02-04,13.5538
2009-02-05,14.0665
2009-02-06,11.764
2009-02-09,14.0292
2009-02-10,12.2208
2009-02-11,12.6869
2009-02-12,11.6708
2009-02-13,11.6895
2009-02-17,9.36836
2009-02-18,9.54547
2009-02-19,7.23368
2009-02-20,6.32947
2009-02-23,6.19896
2009-02-24,7.54129
2009-02-25,6.53454
2009-02-26,6.71272
2009-02-27,5.68
2009-03-02,4.83504
2009-03-03,4.38439
2009-03-04,4.85382
2009-03-05,3.88681
2009-03-06,3.42677
2009-03-09,3.83048
2009-03-10,4.83504
2009-03-11,5.06036
2009-03-12,5.71755
2009-03-13,6.60006
2009-03-16,6.18697
2009-03-17,6.68456
2009-03-18,8.30876
2009-03-19,7.5389
2009-03-20,7.05071
2009-03-23,8.68429
2009-03-24,8.44958
2009-03-25,8.70307
2009-03-26,8.88145
2009-03-27,8.79695
2009-03-30,7.31358
2009-03-31,7.3793
2009-04-01,7.17276
2009-04-02,7.45441
2009-04-03,8.13976
2009-04-06,8.8439
2009-04-07,7.98016
2009-04-08,9.05044
2009-04-09,10.1395
2009-04-13,10.8249
2009-04-14,9.51047
2009-04-15,10.1489
2009-04-16,10.1771
2009-04-17,10.4399
2009-04-20,8.58102
2009-04-21,9.51047
2009-04-22,9.01289
2009-04-23,9.2476
2009-04-24,9.02227
2009-04-27,9.0035
2009-04-28,9.12555
2009-04-29,10.1958
2009-04-30,10.7497
2009-05-01,9.92356
2009-05-04,11.8482
2009-05-05,12.0266
2009-05-06,14.1671
2009-05-07,14.7962
2009-05-08,16.871
2009-05-11,15.0215
2009-05-12,13.5475
2009-05-13,11.7919
2009-05-14,13.8855
2009-05-15,13.6414
2009-05-18,15.4158
2009-05-19,15.0496
2009-05-20,14.7398
2009-05-21,14.4769
2009-05-22,14.092
2009-05-26,13.9136
2009-05-27,13.7728
2009-05-28,13.5277
2009-05-29,13.49
2009-06-01,14.2908
2009-06-02,14.8089
2009-06-03,14.0176
2009-06-04,14.0835
2009-06-05,13.9988
2009-06-08,13.8951
2009-06-09,13.5089
2009-06-10,12.8966
2009-06-11,13.2545
2009-06-12,12.1806
2009-06-15,10.8146
2009-06-16,11.2197
2009-06-17,10.5415
2009-06-18,11.2668
2009-06-19,11.6248
2009-06-22,10.3154
2009-06-23,10.6074
2009-06-24,10.9748
2009-06-25,11.3893
2009-06-26,11.1161
2009-06-29,11.427
2009-06-30,11.1538
2009-07-01,11.2574
2009-07-02,10.5886
2009-07-06,10.532
2009-07-07,10.1741
2009-07-08,9.63709
2009-07-09,10.1458
2009-07-10,9.87261
2009-07-13,10.6545
2009-07-14,10.5038
2009-07-15,11.2291
2009-07-16,11.3516
2009-07-17,11.1444
2009-07-20,11.2857
2009-07-21,11.361
2009-07-22,11.606
2009-07-23,13.5372
2009-07-24,14.1683
2009-07-27,14.9973
2009-07-28,13.848
2009-07-29,14.0741
2009-07-30,15.9676
2009-07-31,15.5249
2009-08-03,15.3553
2009-08-04,15.3459
2009-08-05,15.5625
2009-08-06,16.8155
2009-08-07,18.0119
2009-08-10,17.4843
2009-08-11,17.0981
2009-08-12,18.3416
2009-08-13,18.5111
2009-08-14,18.3321
2009-08-17,17.456
2009-08-18,18.1532
2009-08-19,18.0495
2009-08-20,18.643
2009-08-21,19.3684
2009-08-24,19.8017
2009-08-25,21.3655
2009-08-26,21.6199
2009-08-27,22.2228
2009-08-28,22.7126
2009-08-31,22.3727
2009-09-01,19.8617
2009-09-02,19.6823
2009-09-03,20.5414
2009-09-04,20.9378
2009-09-08,21.1455
2009-09-09,21.7119
2009-09-10,23.5905
2009-09-11,23.2223
2009-09-14,24.3268
2009-09-15,24.0342
2009-09-16,26.6018
2009-09-17,25.7994
2009-09-18,25.6389
2009-09-21,25.2802
2009-09-22,25.7805
2009-09-23,25.318
2009-09-24,24.6761
2009-09-25,24.3362
2009-09-28,27.1021
2009-09-29,25.8749
2009-09-30,25.0065
2009-10-01,23.5433
2009-10-02,23.7226
2009-10-05,24.761
2009-10-06,26.7245
2009-10-07,26.9794
2009-10-08,27.5364
2009-10-09,27.5175
2009-10-12,26.8945
2009-10-13,25.1009
2009-10-14,26.8661
2009-10-15,26.649
2009-10-16,25.9221
2009-10-19,25.9033
2009-10-20,25.1292
2009-10-21,24.5534
2009-10-22,25.3841
2009-10-23,24.5156
2009-10-26,22.958
2009-10-27,22.7031
2009-10-28,22.0329
2009-10-29,24.2041
2009-10-30,23.109
2009-11-02,23.3828
2009-11-03,24.3551
2009-11-04,23.0052
2009-11-05,22.7786
2009-11-06,22.7126
2009-11-09,23.9303
2009-11-10,23.6094
2009-11-11,24.2135
2009-11-12,23.4017
2009-11-13,23.279
2009-11-16,23.902
2009-11-17,23.9586
2009-11-18,24.4778
2009-11-19,23.902
2009-11-20,23.5999
2009-11-23,23.8737
2009-11-24,23.7321
2009-11-25,23.6566
2009-11-27,22.5309
2009-11-30,23.1173
2009-12-01,23.1457
2009-12-02,23.9402
2009-12-03,22.9187
2009-12-04,23.3538
2009-12-07,22.6444
2009-12-08,22.512
2009-12-09,22.4458
2009-12-10,22.7201
2009-12-11,22.7863
2009-12-14,22.9092
2009-12-15,22.3322
2009-12-16,22.8241
2009-12-17,22.0201
2009-12-18,22.2282
2009-12-21,21.9161
2009-12-22,22.1904
2009-12-23,22.0674
2009-12-24,22.3985
2009-12-28,22.3985
2009-12-29,22.6728
2009-12-30,22.4174
2009-12-31,22.0201
2010-01-04,22.5687
2010-01-05,24.3186
2010-01-06,24.7253
2010-01-07,25.0658
2010-01-08,24.7915
2010-01-11,24.7064
2010-01-12,25.6807
2010-01-13,26.3144
2010-01-14,25.7847
2010-01-15,25.3496
2010-01-19,25.9644
2010-01-20,25.4915
2010-01-21,24.1578
2010-01-22,23.316
2010-01-25,23.3349
2010-01-26,23.0984
2010-01-27,23.5808
2010-01-28,22.9471
2010-01-29,22.6822
2010-02-01,23.0984
2010-02-02,23.9686
2010-02-03,23.2308
2010-02-04,21.9539
2010-02-05,22.2377
2010-02-08,22.2093
2010-02-09,21.131
2010-02-10,21.8593
2010-02-11,21.7647
2010-02-12,22.1714
2010-02-16,22.6255
2010-02-17,22.7863
2010-02-18,22.8146
2010-02-19,22.966
2010-02-22,23.4484
2010-02-23,22.5025
2010-02-24,22.9944
2010-02-25,23.0796
2010-02-26,23.146
2010-03-01,23.4967
2010-03-02,24.3876
2010-03-03,24.0369
2010-03-04,25.0132
2010-03-05,25.4587
2010-03-08,25.4776
2010-03-09,25.1838
2010-03-10,25.8662
2010-03-11,25.8852
2010-03-12,25.3449
2010-03-15,25.4113
2010-03-16,25.8662
2010-03-17,27.1363
2010-03-18,26.4444
2010-03-19,25.9136
2010-03-22,26.2169
2010-03-23,26.3781
2010-03-24,26.6624
2010-03-25,26.3591
2010-03-26,26.5013
2010-03-29,26.6814
2010-03-30,26.5866
2010-03-31,26.9373
2010-04-01,27.3449
2010-04-05,27.8093
2010-04-06,27.4681
2010-04-07,26.9942
2010-04-08,27.0605
2010-04-09,26.5487
2010-04-12,26.416
2010-04-13,26.4918
2010-04-14,26.6719
2010-04-15,26.3686
2010-04-16,25.6008
2010-04-19,26.1506
2010-04-20,27.2216
2010-04-21,27.2122
2010-04-22,27.3259
2010-04-23,27.9894
2010-04-26,28.0557
2010-04-27,26.9562
2010-04-28,27.3354
2010-04-29,28.0842
2010-04-30,27.07
2010-05-03,27.4681
2010-05-04,26.2264
2010-05-05,25.8378
2010-05-06,24.7004
2010-05-07,23.9611
2010-05-10,25.6293
2010-05-11,25.3923
2010-05-12,25.8852
2010-05-13,25.4208
2010-05-14,24.8521
2010-05-17,24.6625
2010-05-18,23.9137
2010-05-19,24.0464
2010-05-20,22.473
2010-05-21,23.0512
2010-05-24,22.6436
2010-05-25,22.928
2010-05-26,22.6721
2010-05-27,24.2109
2010-05-28,23.8405
2010-06-01,23.2801
2010-06-02,24.2394
2010-06-03,23.907
2010-06-04,22.3493
2010-06-07,21.2
2010-06-08,21.6464
2010-06-09,21.6464
2010-06-10,22.6912
2010-06-11,22.7577
2010-06-14,23.641
2010-06-15,24.2299
2010-06-16,23.736
2010-06-17,23.698
2010-06-18,23.812
2010-06-21,23.5081
2010-06-22,23.2231
2010-06-23,23.3846
2010-06-24,22.4632
2010-06-25,22.9002
2010-06-28,22.4158
2010-06-29,21.0575
2010-06-30,20.9815
2010-07-01,20.7346
2010-07-02,20.6206
2010-07-06,20.5541
2010-07-07,21.2855
2010-07-08,21.5229
2010-07-09,22.3398
2010-07-12,21.9788
2010-07-13,22.7387
2010-07-14,22.0738
2010-07-15,21.6749
2010-07-16,20.6871
2010-07-19,20.7916
2010-07-20,21.0385
2010-07-21,20.6491
2010-07-22,21.8839
2010-07-23,22.2543
2010-07-26,22.2448
2010-07-27,22.0833
2010-07-28,21.6844
2010-07-29,22.0833
2010-07-30,22.2638
2010-08-02,22.9192
2010-08-03,22.2448
2010-08-04,22.7102
2010-08-05,21.4849
2010-08-06,21.3805
2010-08-09,21.7129
2010-08-10,21.4469
2010-08-11,19.8133
2010-08-12,19.6613
2010-08-13,19.8228
2010-08-16,19.3288
2010-08-17,19.9462
2010-08-18,20.1457
2010-08-19,19.3573
2010-08-20,19.1389
2010-08-23,19.0724
2010-08-24,18.322
2010-08-25,18.5595
2010-08-26,18.1321
2010-08-27,19.2814
2010-08-30,18.6243
2010-08-31,19.1861
2010-09-01,20.4144
2010-09-02,20.7191
2010-09-03,21.4332
2010-09-07,20.5858
2010-09-08,21.0904
2010-09-09,21.2713
2010-09-10,21.8236
2010-09-13,22.3282
2010-09-14,22.0331
2010-09-15,21.8998
2010-09-16,21.6236
2010-09-17,21.4522
2010-09-20,21.8045
2010-09-21,22.1283
2010-09-22,21.2713
2010-09-23,20.8619
2010-09-24,21.6046
2010-09-27,21.4142
2010-09-28,22.3568
2010-09-29,22.1854
2010-09-30,21.8522
2010-10-01,22.2901
2010-10-04,22.1378
2010-10-05,22.6425
2010-10-06,22.5853
2010-10-07,22.2616
2010-10-08,22.7758
2010-10-11,22.8424
2010-10-12,23.2423
2010-10-13,23.328
2010-10-14,23.1757
2010-10-15,22.5948
2010-10-18,23.109
2010-10-19,22.3758
2010-10-20,22.6329
2010-10-21,23.0233
2010-10-22,22.7758
2010-10-25,23.3566
2010-10-26,23.7946
2010-10-27,23.3947
2010-10-28,23.0424
2010-10-29,22.7662
2010-11-01,22.5853
2010-11-02,22.3473
2010-11-03,24.2992
2010-11-04,25.0514
2010-11-05,25.1847
2010-11-08,24.9943
2010-11-09,24.2135
2010-11-10,24.7086
2010-11-11,24.1183
2010-11-12,23.1757
2010-11-15,23.0424
2010-11-16,22.5568
2010-11-17,22.5472
2010-11-18,22.6139
2010-11-19,22.4425
2010-11-22,22.0616
2010-11-23,21.5094
2010-11-24,21.9664
2010-11-26,21.6808
2010-11-29,21.5853
2010-11-30,21.2514
2010-12-01,22.1961
2010-12-02,22.9213
2010-12-03,22.864
2010-12-06,22.9213
2010-12-07,22.9976
2010-12-08,23.8565
2010-12-09,24.076
2010-12-10,24.6103
2010-12-13,24.41
2010-12-14,24.4863
2010-12-15,24.2668
2010-12-16,24.6485
2010-12-17,24.9825
2010-12-20,25.3356
2010-12-21,25.8986
2010-12-22,26.1753
2010-12-23,25.5073
2010-12-27,25.6887
2010-12-28,25.3833
2010-12-29,25.2783
2010-12-30,25.1161
2010-12-31,25.2688
2011-01-03,26.5093
2011-01-04,26.6715
2011-01-05,27.0532
2011-01-06,26.6143
2011-01-07,26.5284
2011-01-10,26.3376
2011-01-11,26.6429
2011-01-12,26.8624
2011-01-13,26.9769
2011-01-14,27.1487
2011-01-18,27.1868
2011-01-19,26.2421
2011-01-20,26.1085
2011-01-21,26.6047
2011-01-24,26.4139
2011-01-25,26.5475
2011-01-26,26.8242
2011-01-27,27.3491
2011-01-28,26.4139
2011-01-31,26.5093
2011-02-01,27.454
2011-02-02,26.6715
2011-02-03,27.3968
2011-02-04,27.8739
2011-02-07,28.3892
2011-02-08,28.7518
2011-02-09,28.1125
2011-02-10,27.8644
2011-02-11,28.3892
2011-02-14,27.8739
2011-02-15,27.9503
2011-02-16,28.8377
2011-02-17,29.3626
2011-02-18,29.4007
2011-02-22,28.1125
2011-02-23,27.9216
2011-02-24,27.4063
2011-02-25,28.182
2011-02-28,28.364
2011-03-01,27.6745
2011-03-02,26.6977
2011-03-03,27.6362
2011-03-04,27.4159
2011-03-07,26.6307
2011-03-08,27.2148
2011-03-09,27.0233
2011-03-10,26.2572
2011-03-11,26.4488
2011-03-14,25.7018
2011-03-15,24.524
2011-03-16,23.7005
2011-03-17,24.1314
2011-03-18,24.4187
2011-03-21,25.3763
2011-03-22,25.3188
2011-03-23,25.1847
2011-03-24,25.4624
2011-03-25,25.5486
2011-03-28,25.4816
2011-03-29,25.6157
2011-03-30,25.6348
2011-03-31,25.788
2011-04-01,26.5828
2011-04-04,26.3243
2011-04-05,26.1232
2011-04-06,26.8126
2011-04-07,26.2477
2011-04-08,25.9987
2011-04-11,26.1328
2011-04-12,25.6157
2011-04-13,25.4337
2011-04-14,25.2996
2011-04-15,25.6731
2011-04-18,25.6252
2011-04-19,25.3092
2011-04-20,26.0083
2011-04-21,26.3913
2011-04-25,26.0178
2011-04-26,26.3434
2011-04-27,26.8031
2011-04-28,27.7128
2011-04-29,27.7607
2011-05-02,27.5787
2011-05-03,27.3489
2011-05-04,26.851
2011-05-05,25.9317
2011-05-06,26.3338
2011-05-09,25.7784
2011-05-10,26.4296
2011-05-11,26.4105
2011-05-12,26.7839
2011-05-13,26.4009
2011-05-16,26.4966
2011-05-17,26.2189
2011-05-18,26.3626
2011-05-19,26.3243
2011-05-20,25.8934
2011-05-23,25.405
2011-05-24,25.2518
2011-05-25,25.2709
2011-05-26,25.2422
2011-05-27,25.492
2011-05-31,25.617
2011-06-01,24.6365
2011-06-02,24.8384
2011-06-03,24.4731
2011-06-06,23.9156
2011-06-07,23.7907
2011-06-08,23.4542
2011-06-09,23.7041
2011-06-10,23.3196
2011-06-13,23.56
2011-06-14,24.0502
2011-06-15,22.8871
2011-06-16,23.1947
2011-06-17,23.4638
2011-06-20,23.3196
2011-06-21,23.9156
2011-06-22,23.6657
2011-06-23,23.4158
2011-06-24,23.5311
2011-06-27,23.781
2011-06-28,24.3866
2011-06-29,25.0403
2011-06-30,25.3575
2011-07-01,25.9823
2011-07-05,25.5017
2011-07-06,25.4536
2011-07-07,25.9823
2011-07-08,25.2421
2011-07-11,24.1463
2011-07-12,24.5596
2011-07-13,24.6269
2011-07-14,23.9541
2011-07-15,23.4062
2011-07-18,22.5603
2011-07-19,22.8102
2011-07-20,22.9544
2011-07-21,23.2043
2011-07-22,22.9544
2011-07-25,22.7621
2011-07-26,22.6756
2011-07-27,22.2142
2011-07-28,22.4834
2011-07-29,22.5507
2011-08-01,22.1277
2011-08-02,21.0223
2011-08-03,21.5125
2011-08-04,20.1091
2011-08-05,19.7919
2011-08-08,16.9947
2011-08-09,19.5228
2011-08-10,17.4465
2011-08-11,19.4074
2011-08-12,19.1094
2011-08-15,19.888
2011-08-16,19.4555
2011-08-17,19.3882
2011-08-18,17.5426
2011-08-19,17.0428
2011-08-22,16.3411
2011-08-23,16.2161
2011-08-24,16.7832
2011-08-25,16.2834
2011-08-26,16.5141
2011-08-29,18.6576
2011-08-30,18.6093
2011-08-31,18.4257
2011-09-01,17.701
2011-09-02,16.6672
2011-09-06,16.1841
2011-09-07,17.2083
2011-09-08,16.7348
2011-09-09,16.1164
2011-09-12,16.5899
2011-09-13,16.7638
2011-09-14,17.5947
2011-09-15,18.2421
2011-09-16,18.2711
2011-09-19,17.6914
2011-09-20,17.3532
2011-09-21,16.0391
2011-09-22,15.4691
2011-09-23,15.5367
2011-09-26,16.0295
2011-09-27,16.0488
2011-09-28,15.2952
2011-09-29,16.5223
2011-09-30,15.6333
2011-10-03,14.4449
2011-10-04,15.3435
2011-10-05,16.416
2011-10-06,17.0633
2011-10-07,16.387
2011-10-10,17.1986
2011-10-11,17.2662
2011-10-12,17.8363
2011-10-13,17.4015
2011-10-14,17.8363
2011-10-17,17.1116
2011-10-18,18.0779
2011-10-19,17.7204
2011-10-20,18.1648
2011-10-21,18.5416
2011-10-24,18.5416
2011-10-25,17.2856
2011-10-26,17.9233
2011-10-27,19.5079
2011-10-28,19.5948
2011-10-31,18.6189
2011-11-01,17.5561
2011-11-02,18.387
2011-11-03,17.2856
2011-11-04,17.1793
2011-11-07,17.2373
2011-11-08,17.3532
2011-11-09,16.4643
2011-11-10,16.5223
2011-11-11,17.0343
2011-11-14,16.9281
2011-11-15,17.0923
2011-11-16,17.0247
2011-11-17,16.6092
2011-11-18,16.6672
2011-11-21,16.1261
2011-11-22,15.8073
2011-11-23,15.1212
2011-11-25,14.9956
2011-11-28,15.8942
2011-11-29,15.9429
2011-11-30,17.2553
2011-12-01,17.3525
2011-12-02,17.4691
2011-12-05,17.9552
2011-12-06,18.0135
2011-12-07,18.2079
2011-12-08,16.6817
2011-12-09,17.0414
2011-12-12,16.0693
2011-12-13,15.6707
2011-12-14,15.7971
2011-12-15,15.5346
2011-12-16,15.2527
2011-12-19,14.5625
2011-12-20,15.4471
2011-12-21,15.7873
2011-12-22,16.1081
2011-12-23,16.3317
2011-12-27,15.8943
2011-12-28,15.6124
2011-12-29,15.9234
2011-12-30,15.8165
2012-01-03,16.3123
2012-01-04,16.1081
2012-01-05,16.2345
2012-01-06,15.9234
2012-01-09,16.254
2012-01-10,17.1386
2012-01-11,17.3622
2012-01-12,17.6927
2012-01-13,17.2941
2012-01-17,17.1775
2012-01-18,17.5955
2012-01-19,17.8094
2012-01-20,18.0232
2012-01-23,18.1302
2012-01-24,18.101
2012-01-25,17.7024
2012-01-26,17.0608
2012-01-27,17.1192
2012-01-30,16.9636
2012-01-31,17.0219
2012-02-01,17.7024
2012-02-02,18.0232
2012-02-03,18.8107
2012-02-06,18.7815
2012-02-07,18.6065
2012-02-08,20.0355
2012-02-09,19.8314
2012-02-10,19.3162
2012-02-13,19.6467
2012-02-14,19.2287
2012-02-15,19.705
2012-02-16,20.5897
2012-02-17,21.066
2012-02-21,20.3466
2012-02-22,19.5786
2012-02-23,20.0161
2012-02-24,19.8897
2012-02-27,19.8897
2012-02-28,20.0939
2012-02-29,20.1425
2012-03-01,20.2109
2012-03-02,19.9276
2012-03-05,19.6639
2012-03-06,18.9117
2012-03-07,19.0582
2012-03-08,19.449
2012-03-09,19.5955
2012-03-12,19.6053
2012-03-13,20.3672
2012-03-14,20.3086
2012-03-15,21.178
2012-03-16,21.2854
2012-03-19,21.178
2012-03-20,21.1878
2012-03-21,21.5199
2012-03-22,20.8263
2012-03-23,20.9533
2012-03-26,21.471
2012-03-27,20.9924
2012-03-28,20.9142
2012-03-29,20.6016
2012-03-30,20.6407
2012-04-02,21.4124
2012-04-03,21.178
2012-04-04,20.7189
2012-04-05,20.543
2012-04-09,19.9569
2012-04-10,19.3708
2012-04-11,19.4978
2012-04-12,20.0839
2012-04-13,19.7323
2012-04-16,19.6346
2012-04-17,20.0741
2012-04-18,19.5955
2012-04-19,19.6248
2012-04-20,19.576
2012-04-23,19.6932
2012-04-24,19.9081
2012-04-25,20.2695
2012-04-26,20.25
2012-04-27,20.2891
2012-04-30,20.0937
2012-05-01,20.3477
2012-05-02,19.9179
2012-05-03,19.488
2012-05-04,19.2145
2012-05-07,19.2341
2012-05-08,19.2341
2012-05-09,19.3024
2012-05-10,19.2731
2012-05-11,19.2731
2012-05-14,18.6284
2012-05-15,18.4819
2012-05-16,17.8567
2012-05-17,16.9482
2012-05-18,16.665
2012-05-21,16.8017
2012-05-22,16.6845
2012-05-23,16.8701
2012-05-24,16.8115
2012-05-25,16.9092
2012-05-29,17.2804
2012-05-30,16.6514
2012-05-31,16.5532
2012-06-01,15.895
2012-06-04,15.8262
2012-06-05,16.0227
2012-06-06,16.8675
2012-06-07,17.0149
2012-06-08,16.8283
2012-06-11,16.3764
2012-06-12,16.6711
2012-06-13,16.4549
2012-06-14,16.563
2012-06-15,16.7005
2012-06-18,16.3862
2012-06-19,16.956
2012-06-20,17.0542
2012-06-21,16.4353
2012-06-22,16.73
2012-06-25,16.062
2012-06-26,16.2486
2012-06-27,16.622
2012-06-28,16.6612
2012-06-29,17.3096
2012-07-02,17.1426
2012-07-03,17.4275
2012-07-05,16.956
2012-07-06,16.73
2012-07-09,16.5139
2012-07-10,16.396
2012-07-11,16.396
2012-07-12,16.062
2012-07-13,16.5827
2012-07-16,16.2388
2012-07-17,16.5237
2012-07-18,16.6023
2012-07-19,16.563
2012-07-20,15.9539
2012-07-23,15.7967
2012-07-24,15.6494
2012-07-25,15.6789
2012-07-26,15.895
2012-07-27,16.1406
2012-07-30,16.1111
2012-07-31,16.1602
2012-08-01,15.9932
2012-08-02,15.8557
2012-08-03,16.6023
2012-08-06,16.8381
2012-08-07,16.9068
2012-08-08,16.7791
2012-08-09,16.9854
2012-08-10,17.0935
2012-08-13,17.064
2012-08-14,16.956
2012-08-15,17.231
2012-08-16,17.4668
2012-08-17,17.4079
2012-08-20,17.7812
2012-08-21,18.2527
2012-08-22,17.9383
2012-08-23,17.6829
2012-08-24,17.8205
2012-08-27,17.6338
2012-08-28,17.4864
2012-08-29,17.4963
2012-08-30,17.5358
2012-08-31,17.7037
2012-09-04,17.4666
2012-09-05,17.8421
2012-09-06,18.3953
2012-09-07,19.2449
2012-09-10,18.8102
2012-09-11,18.9782
2012-09-12,19.1165
2012-09-13,19.6598
2012-09-14,20.055
2012-09-17,19.7685
2012-09-18,19.4326
2012-09-19,19.4524
2012-09-20,19.0078
2012-09-21,19.1264
2012-09-24,19.1362
2012-09-25,18.6028
2012-09-26,18.4546
2012-09-27,19.077
2012-09-28,19.2252
2012-10-01,19.1856
2012-10-02,19.4524
2012-10-03,19.6203
2012-10-04,20.4996
2012-10-05,20.9442
2012-10-08,21.0331
2012-10-09,20.7268
2012-10-10,20.7663
2012-10-11,21.2504
2012-10-12,21.0726
2012-10-15,21.3097
2012-10-16,21.6357
2012-10-17,21.8234
2012-10-18,22.268
2012-10-19,21.8135
2012-10-22,21.774
2012-10-23,21.616
2012-10-24,21.8333
2012-10-25,22.189
2012-10-26,21.4381
2012-10-31,21.4579
2012-11-01,21.616
2012-11-02,21.0034
2012-11-05,21.201
2012-11-06,21.4381
2012-11-07,20.5391
2012-11-08,20.2328
2012-11-09,20.5391
2012-11-12,20.628
2012-11-13,20.3218
2012-11-14,19.9562
2012-11-15,20.2131
2012-11-16,20.1242
2012-11-19,20.5786
2012-11-20,20.6675
2012-11-21,20.9343
2012-11-23,21.0528
2012-11-26,20.9442
2012-11-27,20.6181
2012-11-28,20.796
2012-11-29,20.9647
2012-11-30,21.0937
2012-12-03,20.9746
2012-12-04,20.7959
2012-12-05,21.3518
2012-12-06,21.4908
2012-12-07,21.7091
2012-12-10,21.6595
2012-12-11,21.9077
2012-12-12,21.7687
2012-12-13,21.322
2012-12-14,21.1136
2012-12-17,21.8878
2012-12-18,22.3643
2012-12-19,22.3345
2012-12-20,22.7018
2012-12-21,22.0764
2012-12-24,22.1558
2012-12-26,22.1261
2012-12-27,22.3643
2012-12-28,22.0367
2012-12-31,22.2253
2013-01-02,23.5248
2013-01-03,23.9814
2013-01-04,24.3387
2013-01-07,24.031
2013-01-08,23.6439
2013-01-09,23.6737
2013-01-10,23.8524
2013-01-11,23.6837
2013-01-14,23.6241
2013-01-15,23.7333
2013-01-16,23.9417
2013-01-17,24.1799
2013-01-18,24.2196
2013-01-22,24.4479
2013-01-23,24.3785
2013-01-24,24.1998
2013-01-25,24.5969
2013-01-28,24.6226
2013-01-29,24.7169
2013-01-30,24.3992
2013-01-31,24.6325
2013-02-01,25.0147
2013-02-04,24.5779
2013-02-05,24.2404
2013-02-06,24.2801
2013-02-07,24.0518
2013-02-08,24.0022
2013-02-11,24.2404
2013-02-12,24.2106
2013-02-13,24.2503
2013-02-14,24.3
2013-02-15,24.0121
2013-02-19,24.5472
2013-02-20,24.1403
2013-02-21,23.4951
2013-02-22,23.902
2013-02-25,22.8935
2013-02-26,23.2031
2013-02-27,23.5555
2013-02-28,23.4364
2013-03-01,23.4711
2013-03-04,23.5049
2013-03-05,23.9219
2013-03-06,24.041
2013-03-07,24.2901
2013-03-08,25.3566
2013-03-11,25.5459
2013-03-12,25.6057
2013-03-13,25.6655
2013-03-14,26.3632
2013-03-15,26.2038
2013-03-18,25.7951
2013-03-19,25.4164
2013-03-20,26.0343
2013-03-21,25.9346
2013-03-22,26.3034
2013-03-25,25.9446
2013-03-26,26.1539
2013-03-27,25.835
2013-03-28,25.7253
2013-04-01,25.4662
2013-04-02,25.4463
2013-04-03,24.7585
2013-04-04,25.7951
2013-04-05,25.1373
2013-04-08,25.9945
2013-04-09,26.0742
2013-04-10,26.9015
2013-04-11,27.2902
2013-04-12,27.4098
2013-04-15,26.2237
2013-04-16,27.3101
2013-04-17,26.9314
2013-04-18,26.4131
2013-04-19,26.752
2013-04-22,26.5526
2013-04-23,27.3201
2013-04-24,27.659
2013-04-25,27.4098
2013-04-26,27.041
2013-04-29,27.0809
2013-04-30,27.9381
2013-05-01,27.7188
2013-05-02,28.3168
2013-05-03,28.7155
2013-05-06,28.9049
2013-05-07,29.184
2013-05-08,29.5727
2013-05-09,29.3634
2013-05-10,29.5328
2013-05-13,29.772
2013-05-14,30.4797
2013-05-15,30.7089
2013-05-16,30.7089
2013-05-17,31.0777
2013-05-20,30.9781
2013-05-21,30.9282
2013-05-22,30.4996
2013-05-23,30.2903
2013-05-24,30.1508
2013-05-28,30.5654
2013-05-29,30.7488
2013-05-30,31.43
2013-05-31,30.69
2013-06-03,29.92
2013-06-04,29.71
2013-06-05,28.98
2013-06-06,29.48
2013-06-07,30.49
2013-06-10,30.71
2013-06-11,29.75
2013-06-12,29.44
2013-06-13,30.04
2013-06-14,29.24
2013-06-17,29.71
2013-06-18,30.295
2013-06-19,29.74
2013-06-20,29.68
2013-06-21,29.41
2013-06-24,28.66
2013-06-25,29.21
2013-06-26,29.96
2013-06-27,31.23
2013-06-28,30.96
2013-07-01,31.21
2013-07-02,30.88
2013-07-03,30.34
2013-07-05,31.32
2013-07-08,31.44
2013-07-09,31.57
2013-07-10,31.75
2013-07-11,31.82
2013-07-12,32.15
2013-07-15,32.0
2013-07-16,31.79
2013-07-17,31.65
2013-07-18,31.91
2013-07-19,31.71
2013-07-22,32.07
2013-07-23,31.56
2013-07-24,31.21
2013-07-25,31.38
2013-07-26,31.38
2013-07-29,30.76
2013-07-30,30.56
2013-07-31,30.88
2013-08-01,31.94
2013-08-02,32.02
2013-08-05,31.88
2013-08-06,31.6
2013-08-07,31.4
2013-08-08,31.34
2013-08-09,31.28
