date,close_price
1998-01-02,30.5897
1998-01-05,30.5993
1998-01-06,30.33
1998-01-07,29.6469
1998-01-08,29.6662
1998-01-09,28.839
1998-01-12,28.0501
1998-01-13,28.0406
1998-01-14,28.9063
1998-01-15,28.839
1998-01-16,29.166
1998-01-20,29.2718
1998-01-21,28.7716
1998-01-22,28.5793
1998-01-23,28.3771
1998-01-26,28.4445
1998-01-27,28.839
1998-01-28,29.2429
1998-01-29,28.4156
1998-01-30,28.1463
1998-02-02,27.5788
1998-02-03,28.0501
1998-02-04,28.079
1998-02-05,27.6558
1998-02-06,27.4249
1998-02-09,27.4538
1998-02-10,27.8481
1998-02-11,29.0409
1998-02-12,28.4541
1998-02-13,28.9736
1998-02-17,28.9447
1998-02-18,28.7428
1998-02-19,28.0501
1998-02-20,28.0501
1998-02-23,28.5696
1998-02-24,28.6369
1998-02-25,29.6374
1998-02-26,29.368
1998-02-27,29.8682
1998-03-02,30.0414
1998-03-03,29.2718
1998-03-04,28.8678
1998-03-05,28.079
1998-03-06,28.2425
1998-03-09,27.55
1998-03-10,27.6173
1998-03-11,27.7808
1998-03-12,27.1171
1998-03-13,26.6265
1998-03-16,27.2806
1998-03-17,27.5788
1998-03-18,27.8866
1998-03-19,27.4538
1998-03-20,27.2228
1998-03-23,26.915
1998-03-24,27.2517
1998-03-25,27.1556
1998-03-26,27.6269
1998-03-27,28.3483
1998-03-30,28.3771
1998-03-31,28.281
1998-04-01,28.5793
1998-04-02,28.6082
1998-04-03,28.3771
1998-04-06,28.5408
1998-04-07,28.8678
1998-04-08,28.7235
1998-04-09,28.3868
1998-04-13,28.0117
1998-04-14,27.5115
1998-04-15,28.5215
1998-04-16,27.5403
1998-04-17,27.5788
1998-04-20,27.3095
1998-04-21,26.7997
1998-04-22,26.8958
1998-04-23,27.0112
1998-04-24,26.8671
1998-04-27,25.8184
1998-04-28,26.5303
1998-04-29,26.9632
1998-04-30,27.1075
1998-05-01,27.8096
1998-05-04,28.3099
1998-05-05,28.3579
1998-05-06,27.473
1998-05-07,27.9155
1998-05-08,27.8481
1998-05-11,27.6077
1998-05-12,27.2998
1998-05-13,27.1652
1998-05-14,26.7612
1998-05-15,26.7612
1998-05-18,26.4341
1998-05-19,26.5688
1998-05-20,26.3572
1998-05-21,26.3956
1998-05-22,26.4245
1998-05-26,25.7222
1998-05-27,25.4432
1998-05-28,25.6838
1998-05-29,25.4145
1998-06-01,25.3471
1998-06-02,25.1451
1998-06-03,26.2224
1998-06-04,26.2224
1998-06-05,26.3187
1998-06-08,26.2514
1998-06-09,26.2224
1998-06-10,25.7799
1998-06-11,25.2124
1998-06-12,24.8373
1998-06-15,24.4621
1998-06-16,24.3274
1998-06-17,24.4044
1998-06-18,24.9046
1998-06-19,25.7511
1998-06-22,25.9243
1998-06-23,25.4817
1998-06-24,25.1163
1998-06-25,25.6838
1998-06-26,25.4048
1998-06-29,25.4145
1998-06-30,26.2321
1998-07-01,25.7127
1998-07-02,25.982
1998-07-06,25.8184
1998-07-07,26.4341
1998-07-08,26.4919
1998-07-09,26.4245
1998-07-10,26.1551
1998-07-13,26.0204
1998-07-14,26.4341
1998-07-15,26.5784
1998-07-16,26.5014
1998-07-17,26.1551
1998-07-20,25.9243
1998-07-21,25.0875
1998-07-22,24.9238
1998-07-23,24.3659
1998-07-24,24.0966
1998-07-27,22.6729
1998-07-28,23.0192
1998-07-29,22.3266
1998-07-30,23.0577
1998-07-31,22.7499
1998-08-03,22.567
1998-08-04,22.0861
1998-08-05,21.3551
1998-08-06,22.2689
1998-08-07,23.3944
1998-08-10,24.0581
1998-08-11,23.4328
1998-08-12,23.6349
1998-08-13,23.2212
1998-08-14,21.6341
1998-08-17,22.2592
1998-08-18,22.192
1998-08-19,22.6055
1998-08-20,23.0481
1998-08-21,22.7788
1998-08-24,22.7017
1998-08-25,23.1923
1998-08-26,23.6349
1998-08-27,21.4224
1998-08-28,21.9514
1998-08-31,20.1912
1998-09-01,19.6331
1998-09-02,18.8732
1998-09-03,18.5942
1998-09-04,18.248
1998-09-08,18.2864
1998-09-09,17.4207
1998-09-10,16.555
1998-09-11,16.8628
1998-09-14,17.6901
1998-09-15,16.9687
1998-09-16,16.5935
1998-09-17,16.9398
1998-09-18,17.2476
1998-09-21,17.6708
1998-09-22,17.6997
1998-09-23,18.6616
1998-09-24,18.5942
1998-09-25,18.4595
1998-09-28,18.6327
1998-09-29,18.0075
1998-09-30,17.1418
1998-10-01,16.0067
1998-10-02,15.4103
1998-10-05,12.9593
1998-10-06,13.5479
1998-10-07,12.2282
1998-10-08,11.601
1998-10-09,11.9964
1998-10-12,11.7905
1998-10-13,11.4625
1998-10-14,11.3085
1998-10-15,11.676
1998-10-16,12.6129
1998-10-19,14.2415
1998-10-20,15.035
1998-10-21,15.9778
1998-10-22,16.3722
1998-10-23,15.9778
1998-10-26,15.6507
1998-10-27,16.4107
1998-10-28,16.555
1998-10-29,16.3434
1998-10-30,16.3722
1998-11-02,16.6993
1998-11-03,16.276
1998-11-04,16.1509
1998-11-05,15.949
1998-11-06,16.199
1998-11-09,16.1125
1998-11-10,15.8336
1998-11-11,15.6123
1998-11-12,14.708
1998-11-13,14.9294
1998-11-16,14.785
1998-11-17,14.9677
1998-11-18,15.4103
1998-11-19,15.4103
1998-11-20,16.4203
1998-11-23,16.9494
1998-11-24,17.2861
1998-11-25,17.9594
1998-11-27,18.1038
1998-11-30,17.6324
1998-12-01,16.6223
1998-12-02,16.5935
1998-12-03,16.478
1998-12-04,17.0551
1998-12-07,16.9205
1998-12-08,15.112
1998-12-09,14.4609
1998-12-10,14.1337
1998-12-11,13.7057
1998-12-14,13.3026
1998-12-15,13.6672
1998-12-16,13.7365
1998-12-17,13.2747
1998-12-18,13.3401
1998-12-21,13.116
1998-12-22,13.3324
1998-12-23,12.8948
1998-12-24,13.2248
1998-12-28,13.1228
1998-12-29,13.7923
1998-12-30,13.4969
1998-12-31,13.7269
1999-01-04,14.6696
1999-01-05,14.9389
1999-01-06,14.4868
1999-01-07,14.6696
1999-01-08,15.6892
1999-01-11,15.6507
1999-01-12,15.7662
1999-01-13,15.7662
1999-01-14,15.5833
1999-01-15,15.314
1999-01-19,15.7277
1999-01-20,15.6218
1999-01-21,15.4007
1999-01-22,14.9389
1999-01-25,14.6696
1999-01-26,14.5157
1999-01-27,14.5542
1999-01-28,14.5542
1999-01-29,15.2755
1999-02-01,15.2372
1999-02-02,15.0158
1999-02-03,16.3722
1999-02-04,16.6416
1999-02-05,16.6416
1999-02-08,17.0648
1999-02-09,16.9494
1999-02-10,17.4399
1999-02-11,17.161
1999-02-12,17.1706
1999-02-16,17.2476
1999-02-17,16.9783
1999-02-18,17.517
1999-02-19,18.1615
1999-02-22,18.8059
1999-02-23,19.9795
1999-02-24,19.7871
1999-02-25,19.0272
1999-02-26,18.7674
1999-03-01,18.8059
1999-03-02,18.5847
1999-03-03,18.7578
1999-03-04,19.412
1999-03-05,20.5855
1999-03-08,20.4702
1999-03-09,20.4702
1999-03-10,20.095
1999-03-11,19.941
1999-03-12,19.6716
1999-03-15,18.9117
1999-03-16,18.2864
1999-03-17,18.1902
1999-03-18,18.6906
1999-03-19,17.9209
1999-03-22,18.2672
1999-03-23,18.2672
1999-03-24,18.2672
1999-03-25,18.0075
1999-03-26,17.892
1999-03-29,18.1902
1999-03-30,17.6612
1999-03-31,17.4688
1999-04-01,17.5842
1999-04-05,17.5458
1999-04-06,18.498
1999-04-07,19.2677
1999-04-08,19.9891
1999-04-09,19.6524
1999-04-12,19.614
1999-04-13,20.4028
1999-04-14,20.143
1999-04-15,20.7587
1999-04-16,20.9511
1999-04-19,21.4512
1999-04-20,20.7971
1999-04-21,19.7967
1999-04-22,20.3738
1999-04-23,20.9126
1999-04-26,21.5282
1999-04-27,21.1049
1999-04-28,21.6821
1999-04-29,21.9419
1999-04-30,22.5191
1999-05-03,22.6729
1999-05-04,22.4421
1999-05-05,22.1728
1999-05-06,21.913
1999-05-07,21.7976
1999-05-10,22.6729
1999-05-11,22.0284
1999-05-12,22.1342
1999-05-13,21.7976
1999-05-14,21.4512
1999-05-17,21.1723
1999-05-18,21.2973
1999-05-19,21.2973
1999-05-20,21.913
1999-05-21,22.0957
1999-05-24,21.4512
1999-05-25,20.7971
1999-05-26,19.7678
1999-05-27,19.6908
1999-05-28,20.066
1999-06-01,20.2199
1999-06-02,20.066
1999-06-03,20.143
1999-06-04,19.537
1999-06-07,19.1522
1999-06-08,19.0367
1999-06-09,19.0752
1999-06-10,18.9984
1999-06-11,19.1522
1999-06-14,19.3062
1999-06-15,19.5755
1999-06-16,19.0752
1999-06-17,18.9984
1999-06-18,18.9214
1999-06-21,18.9694
1999-06-22,18.6135
1999-06-23,18.0364
1999-06-24,18.0749
1999-06-25,17.9594
1999-06-28,18.1902
1999-06-29,18.4211
1999-06-30,19.0079
1999-07-01,19.1618
1999-07-02,19.1233
1999-07-06,18.6135
1999-07-07,18.1518
1999-07-08,17.7959
1999-07-09,17.2283
1999-07-12,17.3052
1999-07-13,17.3149
1999-07-14,17.0744
1999-07-15,17.7671
1999-07-16,17.8824
1999-07-19,17.6516
1999-07-20,17.4977
1999-07-21,17.0744
1999-07-22,16.7954
1999-07-23,16.5646
1999-07-26,16.3338
1999-07-27,16.5646
1999-07-28,16.7954
1999-07-29,16.8051
1999-07-30,16.7184
1999-08-02,16.7184
1999-08-03,16.4876
1999-08-04,15.7951
1999-08-05,16.1798
1999-08-06,15.5257
1999-08-09,14.785
1999-08-10,14.8235
1999-08-11,15.3237
1999-08-12,15.5641
1999-08-13,16.1798
1999-08-16,16.68
1999-08-17,16.5261
1999-08-18,16.68
1999-08-19,16.4107
1999-08-20,16.4876
1999-08-23,16.1413
1999-08-24,15.9105
1999-08-25,15.9393
1999-08-26,15.6411
1999-08-27,15.3237
1999-08-30,15.2083
1999-08-31,14.785
1999-09-01,14.862
1999-09-02,14.5926
1999-09-03,14.9389
1999-09-07,15.1699
1999-09-08,14.862
1999-09-09,14.785
1999-09-10,14.4387
1999-09-13,14.2473
1999-09-14,14.0155
1999-09-15,14.6696
1999-09-16,14.785
1999-09-17,14.6311
1999-09-20,14.5542
1999-09-21,13.8673
1999-09-22,13.6191
1999-09-23,14.0192
1999-09-24,13.824
1999-09-27,14.0202
1999-09-28,14.3993
1999-09-29,14.0472
1999-09-30,14.0068
1999-10-01,13.7596
1999-10-04,13.7269
1999-10-05,13.7269
1999-10-06,13.4546
1999-10-07,13.1113
1999-10-08,12.9891
1999-10-11,12.8342
1999-10-12,13.3017
1999-10-13,13.0977
1999-10-14,12.8342
1999-10-15,12.6659
1999-10-18,12.3302
1999-10-19,12.4321
1999-10-20,12.5908
1999-10-21,12.4773
1999-10-22,12.7832
1999-10-25,12.7841
1999-10-26,12.5158
1999-10-27,12.5206
1999-10-28,13.6143
1999-10-29,14.3656
1999-11-01,13.8019
1999-11-02,14.1194
1999-11-03,15.0255
1999-11-04,13.6528
1999-11-05,14.4387
1999-11-08,14.987
1999-11-09,14.7947
1999-11-10,15.2179
1999-11-11,15.1409
1999-11-12,14.7465
1999-11-15,14.0482
1999-11-16,14.6792
1999-11-17,14.1549
1999-11-18,14.1194
1999-11-19,14.2031
1999-11-22,14.2049
1999-11-23,13.9635
1999-11-24,14.279
1999-11-26,14.1539
1999-11-29,14.1992
1999-11-30,13.926
1999-12-01,14.0
1999-12-02,14.0511
1999-12-03,14.3165
1999-12-06,13.8943
1999-12-07,13.6114
1999-12-08,13.2189
1999-12-09,12.8284
1999-12-10,12.9044
1999-12-13,12.7967
1999-12-14,12.7438
1999-12-15,12.9843
1999-12-16,12.9054
1999-12-17,13.1709
1999-12-20,13.2555
1999-12-21,13.6499
1999-12-22,13.6143
1999-12-23,13.8077
1999-12-27,14.5926
1999-12-28,13.8422
1999-12-29,14.1597
1999-12-30,14.6792
1999-12-31,14.9582
2000-01-03,14.6023
2000-01-04,14.5637
2000-01-05,14.9966
2000-01-06,14.9966
2000-01-07,15.6218
2000-01-10,16.3819
2000-01-11,16.709
2000-01-12,16.2663
2000-01-13,15.9105
2000-01-14,15.872
2000-01-18,16.9398
2000-01-19,16.9879
2000-01-20,16.4684
2000-01-21,16.1029
2000-01-24,15.1987
2000-01-25,15.1891
2000-01-26,15.0735
2000-01-27,15.9778
2000-01-28,16.074
2000-01-31,15.4392
2000-02-01,15.3525
2000-02-02,15.747
2000-02-03,15.997
2000-02-04,15.4969
2000-02-07,15.7855
2000-02-08,15.8336
2000-02-09,15.6315
2000-02-10,15.4295
2000-02-11,14.2809
2000-02-14,14.2752
2000-02-15,15.2372
2000-02-16,15.7566
2000-02-17,15.6315
2000-02-18,15.747
2000-02-22,15.3525
2000-02-23,14.8716
2000-02-24,14.3194
2000-02-25,14.3492
2000-02-28,14.279
2000-02-29,14.1924
2000-03-01,13.6403
2000-03-02,13.8807
2000-03-03,13.4383
2000-03-06,13.3229
2000-03-07,12.6879
2000-03-08,13.0824
2000-03-09,12.7217
2000-03-10,13.3546
2000-03-13,13.5249
2000-03-14,15.5833
2000-03-15,15.2755
2000-03-16,15.7085
2000-03-17,16.6993
2000-03-20,17.1129
2000-03-21,17.2956
2000-03-22,16.2568
2000-03-23,15.9105
2000-03-24,15.9105
2000-03-27,15.593
2000-03-28,15.8336
2000-03-29,16.1509
2000-03-30,15.5354
2000-03-31,16.5358
2000-04-03,16.2183
2000-04-04,15.7277
2000-04-05,16.6512
2000-04-06,18.5847
2000-04-07,18.0267
2000-04-10,17.9402
2000-04-11,18.2672
2000-04-12,18.6616
2000-04-13,18.2961
2000-04-14,16.5838
2000-04-17,16.6608
2000-04-18,17.2572
2000-04-19,17.4303
2000-04-20,16.9783
2000-04-24,17.2572
2000-04-25,17.4207
2000-04-26,17.2668
2000-04-27,16.9013
2000-04-28,18.2191
2000-05-01,18.8252
2000-05-02,19.181
2000-05-03,18.2961
2000-05-04,18.9406
2000-05-05,18.8155
2000-05-08,18.5847
2000-05-09,17.9402
2000-05-10,17.8536
2000-05-11,17.8633
2000-05-12,17.9402
2000-05-15,18.7867
2000-05-16,17.9017
2000-05-17,17.2956
2000-05-18,17.9305
2000-05-19,17.9402
2000-05-22,17.8633
2000-05-23,17.5362
2000-05-24,17.1033
2000-05-25,17.5458
2000-05-26,18.2576
2000-05-30,19.0656
2000-05-31,18.9406
2000-06-01,18.7001
2000-06-02,18.9021
2000-06-05,18.7001
2000-06-06,18.8637
2000-06-07,19.335
2000-06-08,19.2677
2000-06-09,19.5467
2000-06-12,19.739
2000-06-13,19.739
2000-06-14,21.2396
2000-06-15,20.7874
2000-06-16,20.4989
2000-06-19,20.547
2000-06-20,20.2296
2000-06-21,20.143
2000-06-22,20.2199
2000-06-23,20.143
2000-06-26,20.4317
2000-06-27,20.345
2000-06-28,20.7779
2000-06-29,21.4993
2000-06-30,20.7779
2000-07-03,21.2973
2000-07-05,21.4127
2000-07-06,21.6629
2000-07-07,21.9419
2000-07-10,21.8649
2000-07-11,21.3455
2000-07-12,20.4509
2000-07-13,20.6143
2000-07-14,21.1434
2000-07-17,20.701
2000-07-18,20.8067
2000-07-19,21.3455
2000-07-20,21.913
2000-07-21,22.0765
2000-07-24,22.1439
2000-07-25,22.2305
2000-07-26,22.5478
2000-07-27,22.4228
2000-07-28,22.5478
2000-07-31,22.115
2000-08-01,21.9034
2000-08-02,21.7494
2000-08-03,21.2589
2000-08-04,21.4224
2000-08-07,21.2204
2000-08-08,21.1434
2000-08-09,21.7783
2000-08-10,21.6724
2000-08-11,21.9034
2000-08-14,21.5089
2000-08-15,21.9419
2000-08-16,21.8649
2000-08-17,21.9034
2000-08-18,21.9034
2000-08-21,21.8168
2000-08-22,22.0669
2000-08-23,21.9034
2000-08-24,21.2108
2000-08-25,21.2589
2000-08-28,20.6528
2000-08-29,20.8548
2000-08-30,20.9799
2000-08-31,20.8163
2000-09-01,20.8163
2000-09-05,21.6245
2000-09-06,21.4609
2000-09-07,21.3455
2000-09-08,21.0185
2000-09-11,21.2589
2000-09-12,21.3455
2000-09-13,20.9029
2000-09-14,20.1334
2000-09-15,19.9313
2000-09-18,18.931
2000-09-19,19.3253
2000-09-20,19.2581
2000-09-21,19.0079
2000-09-22,18.652
2000-09-25,18.9599
2000-09-26,19.1715
2000-09-27,19.9218
2000-09-28,20.2873
2000-09-29,20.2103
2000-10-02,21.1531
2000-10-03,21.7014
2000-10-04,21.3839
2000-10-05,20.7395
2000-10-06,20.0468
2000-10-09,19.8449
2000-10-10,19.5177
2000-10-11,18.6327
2000-10-12,17.9112
2000-10-13,19.412
2000-10-16,18.8347
2000-10-17,17.4592
2000-10-18,17.4977
2000-10-19,17.6997
2000-10-20,17.6612
2000-10-23,17.7766
2000-10-24,18.0652
2000-10-25,17.6997
2000-10-26,17.4977
2000-10-27,17.6901
2000-10-30,17.844
2000-10-31,19.2099
2000-11-01,18.7482
2000-11-02,19.2099
2000-11-03,19.8063
2000-11-06,19.6428
2000-11-07,20.2488
2000-11-08,20.2873
2000-11-09,20.6048
2000-11-10,20.5759
2000-11-13,20.6625
2000-11-14,20.9029
2000-11-15,20.8259
2000-11-16,20.9414
2000-11-17,21.307
2000-11-20,21.2204
2000-11-21,21.4224
2000-11-22,20.8644
2000-11-24,20.8259
2000-11-27,21.4224
2000-11-28,21.3455
2000-11-29,21.5474
2000-11-30,21.1434
2000-12-01,21.1819
2000-12-04,20.9414
2000-12-05,21.4224
2000-12-06,21.4224
2000-12-07,21.1531
2000-12-08,21.4704
2000-12-11,21.2493
2000-12-12,21.3455
2000-12-13,21.4704
2000-12-14,21.6629
2000-12-15,20.9799
2000-12-18,21.4224
2000-12-19,21.5089
2000-12-20,21.1819
2000-12-21,21.3455
2000-12-22,21.9034
2000-12-26,22.644
2000-12-27,23.731
2000-12-28,23.731
2000-12-29,23.606
2001-01-02,22.4709
2001-01-03,24.4236
2001-01-04,25.1547
2001-01-05,24.7892
2001-01-08,24.7411
2001-01-09,24.3851
2001-01-10,24.4236
2001-01-11,23.9716
2001-01-12,24.01
2001-01-16,24.9046
2001-01-17,24.8757
2001-01-18,24.8277
2001-01-19,24.7507
2001-01-22,24.7892
2001-01-23,25.3183
2001-01-24,24.7892
2001-01-25,25.0296
2001-01-26,25.1163
2001-01-29,25.2316
2001-01-30,24.9238
2001-01-31,25.0681
2001-02-01,24.8854
2001-02-02,24.9046
2001-02-05,25.0201
2001-02-06,24.7603
2001-02-07,24.6545
2001-02-08,24.2024
2001-02-09,24.01
2001-02-12,24.0773
2001-02-13,24.2889
2001-02-14,24.3851
2001-02-15,24.3081
2001-02-16,23.6734
2001-02-20,23.6734
2001-02-21,23.5483
2001-02-22,23.2308
2001-02-23,22.1824
2001-02-26,20.9318
2001-02-27,21.5089
2001-02-28,22.4036
2001-03-01,22.9037
2001-03-02,22.5191
2001-03-05,22.2689
2001-03-06,22.1824
2001-03-07,22.2305
2001-03-08,22.6922
2001-03-09,22.5959
2001-03-12,21.7302
2001-03-13,22.0861
2001-03-14,21.1723
2001-03-15,21.8361
2001-03-16,21.8841
2001-03-19,21.9226
2001-03-20,21.8841
2001-03-21,22.0861
2001-03-22,21.3935
2001-03-23,21.1819
2001-03-26,21.8072
2001-03-27,22.7017
2001-03-28,22.4421
2001-03-29,22.1342
2001-03-30,22.2785
2001-04-02,22.4036
2001-04-03,21.4704
2001-04-04,21.6724
2001-04-05,22.1439
2001-04-06,21.1626
2001-04-09,21.0088
2001-04-10,21.4993
2001-04-11,21.3646
2001-04-12,21.0857
2001-04-16,20.7106
2001-04-17,21.1723
2001-04-18,22.8076
2001-04-19,23.606
2001-04-20,23.5002
2001-04-23,23.5772
2001-04-24,23.6157
2001-04-25,23.5098
2001-04-26,23.2982
2001-04-27,22.8076
2001-04-30,23.5002
2001-05-01,24.3371
2001-05-02,24.7988
2001-05-03,24.8277
2001-05-04,24.8854
2001-05-07,23.7888
2001-05-08,23.529
2001-05-09,24.0293
2001-05-10,24.6545
2001-05-11,24.9046
2001-05-14,25.4625
2001-05-15,25.5876
2001-05-16,25.5299
2001-05-17,25.9436
2001-05-18,25.6068
2001-05-21,26.6938
2001-05-22,26.4919
2001-05-23,26.1359
2001-05-24,26.0974
2001-05-25,25.6357
2001-05-29,25.501
2001-05-30,24.6256
2001-05-31,24.7988
2001-06-01,24.6064
2001-06-04,24.7218
2001-06-05,24.5583
2001-06-06,24.2505
2001-06-07,23.5867
2001-06-08,23.5964
2001-06-11,23.5002
2001-06-12,23.1538
2001-06-13,23.2115
2001-06-14,23.0866
2001-06-15,23.7118
2001-06-18,23.6734
2001-06-19,23.6925
2001-06-20,23.3367
2001-06-21,23.6445
2001-06-22,23.8946
2001-06-25,23.4328
2001-06-26,23.5675
2001-06-27,23.9427
2001-06-28,23.9042
2001-06-29,24.6449
2001-07-02,24.693
2001-07-03,24.5968
2001-07-05,23.8946
2001-07-06,23.4136
2001-07-09,23.3848
2001-07-10,23.1058
2001-07-11,23.1538
2001-07-12,24.1158
2001-07-13,24.2313
2001-07-16,24.1447
2001-07-17,23.962
2001-07-18,23.5964
2001-07-19,23.2212
2001-07-20,22.9519
2001-07-23,22.5191
2001-07-24,22.7884
2001-07-25,23.5867
2001-07-26,23.1442
2001-07-27,23.0866
2001-07-30,23.0577
2001-07-31,23.5387
2001-08-01,24.2313
2001-08-02,24.3178
2001-08-03,24.3563
2001-08-06,23.9716
2001-08-07,24.0003
2001-08-08,24.0003
2001-08-09,24.0003
2001-08-10,24.2217
2001-08-13,24.2697
2001-08-14,24.3563
2001-08-15,23.7598
2001-08-16,23.25
2001-08-17,23.606
2001-08-20,23.4136
2001-08-21,23.2212
2001-08-22,23.2885
2001-08-23,23.4232
2001-08-24,23.962
2001-08-27,23.9235
2001-08-28,23.7118
2001-08-29,23.0
2001-08-30,21.9323
2001-08-31,22.3074
2001-09-04,22.2305
2001-09-05,21.7302
2001-09-06,20.3835
2001-09-07,19.6428
2001-09-10,19.3638
2001-09-17,13.9289
2001-09-18,13.2084
2001-09-19,12.9775
2001-09-20,11.8665
2001-09-21,11.7203
2001-09-24,12.2552
2001-09-25,13.3998
2001-09-26,13.9039
2001-09-27,14.1483
2001-09-28,14.6311
2001-10-01,14.1405
2001-10-02,14.6311
2001-10-03,15.468
2001-10-04,15.3718
2001-10-05,15.064
2001-10-08,14.6696
2001-10-09,14.2367
2001-10-10,14.506
2001-10-11,16.0933
2001-10-12,16.0355
2001-10-15,15.6315
2001-10-16,15.872
2001-10-17,15.6411
2001-10-18,14.7947
2001-10-19,14.5542
2001-10-22,14.8812
2001-10-23,15.6026
2001-10-24,14.9773
2001-10-25,15.5833
2001-10-26,15.266
2001-10-29,14.9197
2001-10-30,14.6792
2001-10-31,14.6888
2001-11-01,15.2276
2001-11-02,15.4103
2001-11-05,15.747
2001-11-06,15.6507
2001-11-07,15.8431
2001-11-08,16.3048
2001-11-09,16.1222
2001-11-12,15.9393
2001-11-13,16.9398
2001-11-14,17.2283
2001-11-15,17.9017
2001-11-16,17.9305
2001-11-19,17.6901
2001-11-20,17.2956
2001-11-21,17.3052
2001-11-23,17.4111
2001-11-26,17.5939
2001-11-27,17.7671
2001-11-28,17.7863
2001-11-29,17.9786
2001-11-30,18.0556
2001-12-03,18.1326
2001-12-04,18.171
2001-12-05,19.5082
2001-12-06,19.6716
2001-12-07,19.2195
2001-12-10,18.729
2001-12-11,18.8829
2001-12-12,18.498
2001-12-13,18.4211
2001-12-14,18.6616
2001-12-17,18.248
2001-12-18,18.4595
2001-12-19,18.6039
2001-12-20,18.8059
2001-12-21,19.2388
2001-12-24,19.2292
2001-12-26,19.739
2001-12-27,19.9506
2001-12-28,20.0853
2001-12-31,20.0276
2002-01-02,19.739
2002-01-03,20.1623
2002-01-04,21.1049
2002-01-07,21.3742
2002-01-08,21.1049
2002-01-09,20.9511
2002-01-10,21.5763
2002-01-11,21.0569
2002-01-14,20.9029
2002-01-15,20.7683
2002-01-16,20.2776
2002-01-17,20.7971
2002-01-18,20.6913
2002-01-22,20.5663
2002-01-23,20.5759
2002-01-24,20.4317
2002-01-25,20.8356
2002-01-28,21.23
2002-01-29,21.4801
2002-01-30,21.8264
2002-01-31,22.9519
2002-02-01,22.0861
2002-02-04,21.9707
2002-02-05,21.8072
2002-02-06,21.5571
2002-02-07,21.5667
2002-02-08,21.5571
2002-02-11,21.6821
2002-02-12,21.2589
2002-02-13,22.1054
2002-02-14,22.5863
2002-02-15,23.1731
2002-02-19,23.1153
2002-02-20,23.3174
2002-02-21,22.9807
2002-02-22,23.4136
2002-02-25,23.4425
2002-02-26,23.4328
2002-02-27,23.5483
2002-02-28,24.1447
2002-03-01,24.3948
2002-03-04,25.2124
2002-03-05,24.9623
2002-03-06,24.7796
2002-03-07,24.5871
2002-03-08,24.7123
2002-03-11,24.3371
2002-03-12,24.4428
2002-03-13,24.2889
2002-03-14,24.616
2002-03-15,25.0875
2002-03-18,25.5299
2002-03-19,26.0589
2002-03-20,26.0685
2002-03-21,25.7127
2002-03-22,25.5587
2002-03-25,24.9623
2002-03-26,24.8949
2002-03-27,24.9816
2002-03-28,25.1932
2002-04-01,24.8757
2002-04-02,24.7796
2002-04-03,24.8181
2002-04-04,25.0201
2002-04-05,24.8661
2002-04-08,24.9719
2002-04-09,25.2798
2002-04-10,26.4629
2002-04-11,26.2995
2002-04-12,26.6168
2002-04-15,26.3667
2002-04-16,25.8473
2002-04-17,25.2413
2002-04-18,25.2509
2002-04-19,25.2798
2002-04-22,24.9911
2002-04-23,25.4145
2002-04-24,25.5587
2002-04-25,25.8089
2002-04-26,26.2898
2002-04-29,25.4914
2002-04-30,25.376
2002-05-01,25.2509
2002-05-02,25.0875
2002-05-03,24.9911
2002-05-06,24.01
2002-05-07,23.962
2002-05-08,23.9908
2002-05-09,23.1346
2002-05-10,22.8268
2002-05-13,22.846
2002-05-14,23.5675
2002-05-15,23.8561
2002-05-16,24.4044
2002-05-17,24.2217
2002-05-20,23.6542
2002-05-21,23.1538
2002-05-22,22.7788
2002-05-23,22.7981
2002-05-24,23.0481
2002-05-28,23.1058
2002-05-29,23.1827
2002-05-30,23.0289
2002-05-31,23.683
2002-06-03,22.8942
2002-06-04,22.7402
2002-06-05,22.5863
2002-06-06,22.4613
2002-06-07,22.6632
2002-06-10,23.1923
2002-06-11,23.1827
2002-06-12,22.7691
2002-06-13,22.2881
2002-06-14,22.2881
2002-06-17,23.3559
2002-06-18,22.9037
2002-06-19,23.452
2002-06-20,23.1153
2002-06-21,23.7888
2002-06-24,23.5579
2002-06-25,23.3559
2002-06-26,22.6537
2002-06-27,21.8456
2002-06-28,22.038
2002-07-01,21.0664
2002-07-02,20.4412
2002-07-03,20.5374
2002-07-05,21.4319
2002-07-08,21.7109
2002-07-09,20.7298
2002-07-10,19.614
2002-07-11,20.3738
2002-07-12,20.4702
2002-07-15,20.3835
2002-07-16,19.941
2002-07-17,19.4312
2002-07-18,18.3538
2002-07-19,17.6034
2002-07-22,17.6419
2002-07-23,16.4876
2002-07-24,17.3052
2002-07-25,14.8716
2002-07-26,15.6026
2002-07-29,17.5939
2002-07-30,17.517
2002-07-31,17.2476
2002-08-01,16.2953
2002-08-02,15.5257
2002-08-05,15.0735
2002-08-06,16.1222
2002-08-07,16.3627
2002-08-08,16.8051
2002-08-09,16.709
2002-08-12,16.9398
2002-08-13,16.5742
2002-08-14,16.8724
2002-08-15,17.6901
2002-08-16,17.5362
2002-08-19,17.9594
2002-08-20,17.6804
2002-08-21,17.969
2002-08-22,18.6809
2002-08-23,18.652
2002-08-26,18.4211
2002-08-27,18.2864
2002-08-28,17.5651
2002-08-29,17.3437
2002-08-30,17.2668
2002-09-03,17.1514
2002-09-04,17.6804
2002-09-05,17.3341
2002-09-06,17.8248
2002-09-09,17.8824
2002-09-10,18.1518
2002-09-11,17.7574
2002-09-12,16.5261
2002-09-13,16.3241
2002-09-16,16.3819
2002-09-17,16.2375
2002-09-18,16.1798
2002-09-19,15.112
2002-09-20,15.2372
2002-09-23,14.9101
2002-09-24,14.708
2002-09-25,15.2948
2002-09-26,16.0644
2002-09-27,15.4103
2002-09-30,14.8909
2002-10-01,15.4872
2002-10-02,14.7465
2002-10-03,14.6311
2002-10-04,14.3051
2002-10-07,13.4066
2002-10-08,13.5277
2002-10-09,13.1401
2002-10-10,14.0636
2002-10-11,14.4387
2002-10-14,14.3002
2002-10-15,15.4392
2002-10-16,15.0928
2002-10-17,15.6988
2002-10-18,15.7277
2002-10-21,16.3048
2002-10-22,15.6603
2002-10-23,15.8144
2002-10-24,15.1987
2002-10-25,15.7566
2002-10-28,15.1409
2002-10-29,15.747
2002-10-30,15.4969
2002-10-31,15.6218
2002-11-01,16.0163
2002-11-04,16.68
2002-11-05,16.5453
2002-11-06,16.709
2002-11-07,16.6993
2002-11-08,16.478
2002-11-11,16.4588
2002-11-12,16.6993
2002-11-13,15.8144
2002-11-14,15.872
2002-11-15,16.3338
2002-11-18,16.199
2002-11-19,16.2183
2002-11-20,15.949
2002-11-21,16.3048
2002-11-22,16.5742
2002-11-25,16.7954
2002-11-26,16.68
2002-11-27,17.0359
2002-11-29,16.9687
2002-12-02,17.1321
2002-12-03,16.68
2002-12-04,16.6512
2002-12-05,16.4876
2002-12-06,16.6512
2002-12-09,16.5068
2002-12-10,16.4107
2002-12-11,16.3722
2002-12-12,16.3627
2002-12-13,15.9105
2002-12-16,16.0548
2002-12-17,15.9008
2002-12-18,16.276
2002-12-19,16.2568
2002-12-20,16.7762
2002-12-23,16.6897
2002-12-24,16.5358
2002-12-26,16.7473
2002-12-27,16.0548
2002-12-30,15.8816
2002-12-31,15.9778
2003-01-02,16.555
2003-01-03,16.6993
2003-01-06,16.3048
2003-01-07,16.1606
2003-01-08,16.0644
2003-01-09,16.4395
2003-01-10,16.2086
2003-01-13,16.3338
2003-01-14,16.6223
2003-01-15,16.5068
2003-01-16,16.5742
2003-01-17,16.5068
2003-01-21,15.8144
2003-01-22,15.9105
2003-01-23,15.7951
2003-01-24,15.4872
2003-01-27,15.1891
2003-01-28,14.8427
2003-01-29,15.6603
2003-01-30,15.4199
2003-01-31,15.8336
2003-02-03,15.8047
2003-02-04,15.4969
2003-02-05,15.3525
2003-02-06,15.3814
2003-02-07,15.2948
2003-02-10,15.4007
2003-02-11,15.4969
2003-02-12,15.1987
2003-02-13,14.862
2003-02-14,15.1505
2003-02-18,15.3622
2003-02-19,15.2276
2003-02-20,15.064
2003-02-21,15.4295
2003-02-24,14.9773
2003-02-25,15.1025
2003-02-26,14.862
2003-02-27,14.9582
2003-02-28,15.266
2003-03-03,15.1505
2003-03-04,15.0255
2003-03-05,15.5354
2003-03-06,15.4007
2003-03-07,16.1509
2003-03-10,15.3525
2003-03-11,15.1987
2003-03-12,15.1313
2003-03-13,15.9105
2003-03-14,15.9778
2003-03-17,16.7762
2003-03-18,16.5646
2003-03-19,16.8916
2003-03-20,17.5555
2003-03-21,18.1326
2003-03-24,16.2375
2003-03-25,16.5838
2003-03-26,16.5838
2003-03-27,16.5453
2003-03-28,16.4107
2003-03-31,16.074
2003-04-01,15.8912
2003-04-02,16.6127
2003-04-03,16.709
2003-04-04,16.7184
2003-04-07,17.4688
2003-04-08,16.7473
2003-04-09,16.4684
2003-04-10,16.5742
2003-04-11,16.7569
2003-04-14,17.1129
2003-04-15,17.1995
2003-04-16,16.9975
2003-04-17,17.161
2003-04-21,17.4688
2003-04-22,17.9882
2003-04-23,18.248
2003-04-24,17.844
2003-04-25,17.3822
2003-04-28,17.9017
2003-04-29,18.7386
2003-04-30,18.1038
2003-05-01,17.8055
2003-05-02,18.171
2003-05-05,18.3827
2003-05-06,19.0367
2003-05-07,18.9021
2003-05-08,18.3634
2003-05-09,18.2095
2003-05-12,18.5173
2003-05-13,18.6424
2003-05-14,18.3923
2003-05-15,18.5654
2003-05-16,18.3827
2003-05-19,17.9594
2003-05-20,18.0075
2003-05-21,18.0075
2003-05-22,18.3538
2003-05-23,18.3827
2003-05-27,18.8347
2003-05-28,19.412
2003-05-29,19.0176
2003-05-30,19.5562
2003-06-02,19.7967
2003-06-03,19.8449
2003-06-04,20.1719
2003-06-05,20.2488
2003-06-06,20.5278
2003-06-09,20.1912
2003-06-10,20.4124
2003-06-11,20.4797
2003-06-12,20.1623
2003-06-13,19.6908
2003-06-16,19.9506
2003-06-17,20.0372
2003-06-18,19.8545
2003-06-19,19.3542
2003-06-20,19.2292
2003-06-23,18.9984
2003-06-24,19.0367
2003-06-25,18.9599
2003-06-26,19.412
2003-06-27,19.46
2003-06-30,19.3542
2003-07-01,19.4312
2003-07-02,19.7005
2003-07-03,19.6716
2003-07-07,20.2199
2003-07-08,20.5663
2003-07-09,20.7683
2003-07-10,20.6817
2003-07-11,21.0569
2003-07-14,20.9414
2003-07-15,21.0473
2003-07-16,20.6625
2003-07-17,20.3258
2003-07-18,20.5855
2003-07-21,20.268
2003-07-22,20.4797
2003-07-23,20.1815
2003-07-24,20.8644
2003-07-25,21.4609
2003-07-28,21.8072
2003-07-29,21.4416
2003-07-30,21.5667
2003-07-31,21.9707
2003-08-01,22.1246
2003-08-04,22.0765
2003-08-05,21.7109
2003-08-06,21.6052
2003-08-07,21.7302
2003-08-08,21.9899
2003-08-11,21.6052
2003-08-12,21.7109
2003-08-13,21.7976
2003-08-14,22.0284
2003-08-15,21.9034
2003-08-18,22.2016
2003-08-19,22.3651
2003-08-20,22.5863
2003-08-21,22.923
2003-08-22,22.7402
2003-08-25,22.721
2003-08-26,22.4228
2003-08-27,22.4998
2003-08-28,22.5575
2003-08-29,22.8172
2003-09-02,22.8845
2003-09-03,22.9134
2003-09-04,23.0289
2003-09-05,23.25
2003-09-08,23.2212
2003-09-09,23.0385
2003-09-10,22.6055
2003-09-11,22.7499
2003-09-12,22.6248
2003-09-15,22.3844
2003-09-16,22.5191
2003-09-17,22.4324
2003-09-18,22.7884
2003-09-19,23.2212
2003-09-22,22.9711
2003-09-23,24.4428
2003-09-24,24.2409
2003-09-25,23.5867
2003-09-26,23.3174
2003-09-29,23.5194
2003-09-30,23.5002
2003-10-01,24.135
2003-10-02,24.3081
2003-10-03,24.3755
2003-10-06,24.7026
2003-10-07,25.0489
2003-10-08,24.7796
2003-10-09,24.8661
2003-10-10,24.7315
2003-10-13,24.9623
2003-10-14,25.0201
2003-10-15,24.7123
2003-10-16,24.7892
2003-10-17,24.4718
2003-10-20,24.6833
2003-10-21,24.5007
2003-10-22,23.7214
2003-10-23,23.7888
2003-10-24,23.606
2003-10-27,23.9908
2003-10-28,24.2602
2003-10-29,24.4525
2003-10-30,23.2885
2003-10-31,23.4425
2003-11-03,22.6729
2003-11-04,22.5285
2003-11-05,22.5094
2003-11-06,22.9615
2003-11-07,23.3656
2003-11-10,23.4328
2003-11-11,22.9615
2003-11-12,23.8465
2003-11-13,23.8272
2003-11-14,23.5483
2003-11-17,23.2885
2003-11-18,22.9615
2003-11-19,22.9615
2003-11-20,22.5382
2003-11-21,22.3554
2003-11-24,22.5863
2003-11-25,22.6825
2003-11-26,23.1442
2003-11-28,23.2789
2003-12-01,23.529
2003-12-02,23.452
2003-12-03,23.3367
2003-12-04,23.2597
2003-12-05,22.9422
2003-12-08,22.721
2003-12-09,22.7402
2003-12-10,22.6152
2003-12-11,22.923
2003-12-12,23.0096
2003-12-15,23.0
2003-12-16,23.0096
2003-12-17,23.1442
2003-12-18,24.0581
2003-12-19,24.2313
2003-12-22,24.3371
2003-12-23,24.2409
2003-12-24,24.0677
2003-12-26,24.0966
2003-12-29,24.7988
2003-12-30,24.7411
2003-12-31,24.8564
2004-01-02,24.7411
2004-01-05,24.7988
2004-01-06,25.0681
2004-01-07,25.299
2004-01-08,25.299
2004-01-09,25.1259
2004-01-12,25.2028
2004-01-13,25.2028
2004-01-14,25.2606
2004-01-15,25.3183
2004-01-16,25.2894
2004-01-20,25.376
2004-01-21,25.6357
2004-01-22,25.7704
2004-01-23,25.7511
2004-01-26,25.6164
2004-01-27,25.4048
2004-01-28,24.8373
2004-01-29,24.7315
2004-01-30,24.4525
2004-02-02,24.4333
2004-02-03,24.6738
2004-02-04,24.1255
2004-02-05,25.6838
2004-02-06,26.4822
2004-02-09,26.6938
2004-02-10,26.4341
2004-02-11,26.665
2004-02-12,26.636
2004-02-13,26.713
2004-02-17,26.8189
2004-02-18,26.6457
2004-02-19,26.713
2004-02-20,26.6938
2004-02-23,26.4437
2004-02-24,26.5784
2004-02-25,26.5399
2004-02-26,26.7323
2004-02-27,26.9632
2004-03-01,27.194
2004-03-02,26.9728
2004-03-03,27.1075
2004-03-04,27.5115
2004-03-05,27.5595
2004-03-08,27.6847
2004-03-09,27.4538
2004-03-10,26.7323
2004-03-11,26.0013
2004-03-12,26.2803
2004-03-15,25.4048
2004-03-16,25.7799
2004-03-17,26.4437
2004-03-18,26.5784
2004-03-19,26.3956
2004-03-22,26.4052
2004-03-23,26.5784
2004-03-24,27.1364
2004-03-25,27.7039
2004-03-26,27.6365
2004-03-29,28.1367
2004-03-30,27.8866
2004-03-31,28.0214
2004-04-01,28.7043
2004-04-02,29.195
2004-04-05,29.7047
2004-04-06,29.166
2004-04-07,28.9351
2004-04-08,28.4061
2004-04-12,28.1656
2004-04-13,27.6942
2004-04-14,27.6462
2004-04-15,27.6365
2004-04-16,28.1752
2004-04-19,28.5889
2004-04-20,28.1078
2004-04-21,28.2137
2004-04-22,28.7716
2004-04-23,28.6466
2004-04-26,28.4156
2004-04-27,28.2041
2004-04-28,28.0598
2004-04-29,27.6942
2004-04-30,27.4538
2004-05-03,27.9155
2004-05-04,28.1271
2004-05-05,28.5503
2004-05-06,28.483
2004-05-07,28.0406
2004-05-10,26.9632
2004-05-11,27.0017
2004-05-12,27.0112
2004-05-13,27.1075
2004-05-14,27.1556
2004-05-17,26.7034
2004-05-18,27.2902
2004-05-19,27.2228
2004-05-20,27.4538
2004-05-21,28.2522
2004-05-24,28.4734
2004-05-25,29.0506
2004-05-26,29.195
2004-05-27,29.2333
2004-05-28,29.2045
2004-06-01,29.0121
2004-06-02,29.1276
2004-06-03,28.7428
2004-06-04,29.3103
2004-06-07,30.3493
2004-06-08,30.4165
2004-06-09,30.2434
2004-06-10,30.3204
2004-06-14,30.2241
2004-06-15,30.4262
2004-06-16,30.3972
2004-06-17,30.7435
2004-06-18,30.5704
2004-06-21,30.253
2004-06-22,30.4165
2004-06-23,30.6762
2004-06-24,30.4357
2004-06-25,30.3589
2004-06-28,30.8205
2004-06-29,30.6666
2004-06-30,31.0322
2004-07-01,31.4554
2004-07-02,31.2246
2004-07-06,30.7917
2004-07-07,30.7628
2004-07-08,30.4742
2004-07-09,30.6282
2004-07-12,30.859
2004-07-13,30.9168
2004-07-14,30.9552
2004-07-15,31.3785
2004-07-16,31.8498
2004-07-19,31.0033
2004-07-20,30.9456
2004-07-21,30.7532
2004-07-22,29.9163
2004-07-23,30.8109
2004-07-26,30.1567
2004-07-27,30.5224
2004-07-28,31.0322
2004-07-29,31.0995
2004-07-30,31.1187
2004-08-02,30.734
2004-08-03,30.3011
2004-08-04,29.6951
2004-08-05,29.3584
2004-08-06,29.0217
2004-08-09,28.7523
2004-08-10,29.1179
2004-08-11,28.6754
2004-08-12,28.0693
2004-08-13,27.9925
2004-08-16,28.8293
2004-08-17,29.6566
2004-08-18,29.7625
2004-08-19,29.3584
2004-08-20,29.7721
2004-08-23,29.9067
2004-08-24,30.1375
2004-08-25,30.3493
2004-08-26,30.4262
2004-08-27,30.5704
2004-08-30,30.4646
2004-08-31,30.5512
2004-09-01,30.8302
2004-09-02,31.2726
2004-09-03,31.1861
2004-09-07,31.1669
2004-09-08,30.734
2004-09-09,30.3972
2004-09-10,30.4646
2004-09-13,30.6762
2004-09-14,31.2149
2004-09-15,31.0899
2004-09-16,31.388
2004-09-17,31.5805
2004-09-20,30.782
2004-09-21,31.9845
2004-09-22,31.8114
2004-09-23,31.8498
2004-09-24,31.8017
2004-09-27,31.4747
2004-09-28,31.6478
2004-09-29,31.7632
2004-09-30,32.0904
2004-10-01,32.6675
2004-10-04,33.0619
2004-10-05,33.2927
2004-10-06,33.5525
2004-10-07,33.0714
2004-10-08,33.0522
2004-10-11,33.0811
2004-10-12,32.5809
2004-10-13,32.2635
2004-10-14,32.0518
2004-10-15,32.4558
2004-10-18,33.0811
2004-10-19,32.5905
2004-10-20,32.4269
2004-10-21,32.8791
2004-10-22,33.0137
2004-10-25,32.8791
2004-10-26,32.9849
2004-10-27,33.1676
2004-10-28,33.3119
2004-10-29,33.0041
2004-11-01,33.1773
2004-11-02,33.1003
2004-11-03,33.4371
2004-11-04,34.4183
2004-11-05,34.1873
2004-11-08,34.7837
2004-11-09,34.5914
2004-11-10,34.5817
2004-11-11,34.9954
2004-11-12,35.1877
2004-11-15,35.332
2004-11-16,35.053
2004-11-17,34.5721
2004-11-18,34.7452
2004-11-19,34.0816
2004-11-22,35.13
2004-11-23,35.2647
2004-11-24,35.688
2004-11-26,35.9958
2004-11-29,36.0246
2004-11-30,36.1401
2004-12-01,36.7268
2004-12-02,36.7173
2004-12-03,37.0347
2004-12-06,37.1789
2004-12-07,37.3425
2004-12-08,37.6599
2004-12-09,37.9004
2004-12-10,37.9292
2004-12-13,38.4006
2004-12-14,38.6892
2004-12-15,39.0452
2004-12-16,39.3722
2004-12-17,39.9686
2004-12-20,40.3148
2004-12-21,40.5842
2004-12-22,40.7381
2004-12-23,40.5362
2004-12-27,40.5553
2004-12-28,41.1421
2004-12-29,40.6611
2004-12-30,40.7285
2004-12-31,40.9401
2005-01-03,40.1128
2005-01-04,39.7955
2005-01-05,39.4972
2005-01-06,40.4785
2005-01-07,40.44
2005-01-10,39.7281
2005-01-11,38.9778
2005-01-12,39.8243
2005-01-13,40.1128
2005-01-14,40.6611
2005-01-18,40.9498
2005-01-19,40.9305
2005-01-20,40.3918
2005-01-21,40.3245
2005-01-24,39.3626
2005-01-25,39.2183
2005-01-26,39.7088
2005-01-27,40.4111
2005-01-28,40.6516
2005-01-31,40.6131
2005-02-01,40.8921
2005-02-02,40.9883
2005-02-03,41.4307
2005-02-04,42.5274
2005-02-07,42.6524
2005-02-08,41.1902
2005-02-09,41.4307
2005-02-10,41.4596
2005-02-11,41.3923
2005-02-14,41.6135
2005-02-15,41.9309
2005-02-16,41.7482
2005-02-17,41.3153
2005-02-18,41.0748
2005-02-22,39.6992
2005-02-23,39.7377
2005-02-24,39.555
2005-02-25,40.3918
2005-02-28,40.1418
2005-03-01,40.7958
2005-03-02,40.9979
2005-03-03,41.2383
2005-03-04,41.7097
2005-03-07,41.6713
2005-03-08,41.652
2005-03-09,41.2094
2005-03-10,41.2094
2005-03-11,41.4499
2005-03-14,41.5366
2005-03-15,41.6135
2005-03-16,41.2768
2005-03-17,41.046
2005-03-18,41.5077
2005-03-21,41.1709
2005-03-22,40.7093
2005-03-23,40.9498
2005-03-24,40.7285
2005-03-28,40.7093
2005-03-29,40.3726
2005-03-30,42.056
2005-03-31,42.0752
2005-04-01,41.6231
2005-04-04,41.4404
2005-04-05,42.2003
2005-04-06,41.8636
2005-04-07,42.3734
2005-04-08,41.9117
2005-04-11,41.8347
2005-04-12,42.5274
2005-04-13,42.2965
2005-04-14,41.4788
2005-04-15,39.4298
2005-04-18,39.1125
2005-04-19,38.8527
2005-04-20,38.3429
2005-04-21,39.7377
2005-04-22,39.3819
2005-04-25,39.6512
2005-04-26,40.2475
2005-04-27,40.2764
2005-04-28,38.795
2005-04-29,38.1506
2005-05-02,37.5253
2005-05-03,37.2656
2005-05-04,37.9966
2005-05-05,38.1986
2005-05-06,37.6792
2005-05-09,38.1891
2005-05-10,37.6599
2005-05-11,37.8908
2005-05-12,36.7749
2005-05-13,36.294
2005-05-16,37.2751
2005-05-17,37.2174
2005-05-18,37.7754
2005-05-19,38.0639
2005-05-20,38.1024
2005-05-23,38.3622
2005-05-24,38.4679
2005-05-25,38.1698
2005-05-26,38.3717
2005-05-27,38.8815
2005-05-31,39.2279
2005-06-01,39.5068
2005-06-02,40.2475
2005-06-03,40.488
2005-06-06,40.2475
2005-06-07,40.2283
2005-06-08,40.4496
2005-06-09,41.0748
2005-06-10,40.5938
2005-06-13,39.68
2005-06-14,40.084
2005-06-15,39.8435
2005-06-16,40.6131
2005-06-17,41.1037
2005-06-20,41.2672
2005-06-21,41.3826
2005-06-22,41.5846
2005-06-23,40.9979
2005-06-24,40.5842
2005-06-27,40.1033
2005-06-28,40.9401
2005-06-29,40.9594
2005-06-30,41.0363
2005-07-01,41.854
2005-07-05,42.7582
2005-07-06,43.0083
2005-07-07,42.6139
2005-07-08,43.0949
2005-07-11,43.9125
2005-07-12,43.8548
2005-07-13,43.7298
2005-07-14,43.2873
2005-07-15,43.624
2005-07-18,44.0087
2005-07-19,44.3935
2005-07-20,44.5763
2005-07-21,44.3261
2005-07-22,44.4801
2005-07-25,43.8452
2005-07-26,44.4416
2005-07-27,44.1241
2005-07-28,45.0573
2005-07-29,44.3743
2005-08-01,44.1241
2005-08-02,44.4801
2005-08-03,44.3935
2005-08-04,43.6335
2005-08-05,42.8641
2005-08-08,42.6909
2005-08-09,42.9987
2005-08-10,43.4316
2005-08-11,43.2103
2005-08-12,42.5177
2005-08-15,42.3157
2005-08-16,41.8251
2005-08-17,42.2388
2005-08-18,42.2773
2005-08-19,42.2676
2005-08-22,41.9791
2005-08-23,42.3445
2005-08-24,41.9791
2005-08-25,42.1137
2005-08-26,41.5846
2005-08-29,41.3538
2005-08-30,40.44
2005-08-31,40.8921
2005-09-01,40.5938
2005-09-02,40.2956
2005-09-06,40.9979
2005-09-07,41.9791
2005-09-08,41.7962
2005-09-09,41.9983
2005-09-12,41.7289
2005-09-13,41.5366
2005-09-14,40.9594
2005-09-15,40.969
2005-09-16,40.9594
2005-09-19,39.9878
2005-09-20,38.8815
2005-09-21,38.3622
2005-09-22,38.9297
2005-09-23,39.68
2005-09-26,39.5453
2005-09-27,39.1605
2005-09-28,38.516
2005-09-29,38.6122
2005-09-30,40.0744
2005-10-03,39.9494
2005-10-04,41.0171
2005-10-05,40.4688
2005-10-06,41.2672
2005-10-07,41.4115
2005-10-10,40.7285
2005-10-11,40.4785
2005-10-12,39.7955
2005-10-13,39.7185
2005-10-14,40.2091
2005-10-17,40.2091
2005-10-18,39.9013
2005-10-19,41.1614
2005-10-20,40.5362
2005-10-21,40.488
2005-10-24,41.6231
2005-10-25,41.3346
2005-10-26,40.5073
2005-10-27,38.7277
2005-10-28,40.4015
2005-10-31,40.9113
2005-11-01,40.4688
2005-11-02,41.6424
2005-11-03,40.6419
2005-11-04,41.0748
2005-11-07,41.5943
2005-11-08,40.4785
2005-11-09,40.4496
2005-11-10,41.7
2005-11-11,41.5269
2005-11-14,42.1618
2005-11-15,41.5846
2005-11-16,40.9594
2005-11-17,41.0653
2005-11-18,41.5654
2005-11-21,42.2773
2005-11-22,42.6717
2005-11-23,43.3835
2005-11-25,43.4316
2005-11-28,43.2969
2005-11-29,43.4604
2005-11-30,42.4407
2005-12-01,44.2492
2005-12-02,44.7686
2005-12-05,44.355
2005-12-06,44.5186
2005-12-07,44.3165
2005-12-08,44.9514
2005-12-09,45.0476
2005-12-12,45.4901
2005-12-13,45.0861
2005-12-14,45.4805
2005-12-15,45.2689
2005-12-16,44.8841
2005-12-19,44.2588
2005-12-20,44.4608
2005-12-21,44.8841
2005-12-22,44.7591
2005-12-23,44.7206
2005-12-27,44.8745
2005-12-28,44.8553
2005-12-29,45.6536
2005-12-30,45.3747
2006-01-03,45.4516
2006-01-04,45.115
2006-01-05,45.115
2006-01-06,45.5094
2006-01-09,45.8652
2006-01-10,46.3463
2006-01-11,46.3078
2006-01-12,45.4997
2006-01-13,45.3362
2006-01-17,44.8648
2006-01-18,44.7494
2006-01-19,45.0958
2006-01-20,44.509
2006-01-23,44.153
2006-01-24,44.4416
2006-01-25,43.9414
2006-01-26,44.4513
2006-01-27,44.7686
2006-01-30,43.7778
2006-01-31,43.1815
2006-02-01,43.3547
2006-02-02,42.2196
2006-02-03,42.4985
2006-02-06,42.4792
2006-02-07,42.4985
2006-02-08,42.0752
2006-02-09,43.2295
2006-02-10,44.2011
2006-02-13,44.1434
2006-02-14,44.1241
2006-02-15,45.1053
2006-02-16,45.1822
2006-02-17,45.2015
2006-02-21,44.7975
2006-02-22,45.4131
2006-02-23,45.4421
2006-02-24,45.4131
2006-02-27,45.6344
2006-02-28,45.3074
2006-03-01,45.8749
2006-03-02,45.5959
2006-03-03,45.3843
2006-03-06,45.2689
2006-03-07,44.9514
2006-03-08,45.2304
2006-03-09,45.4516
2006-03-10,45.9904
2006-03-13,45.3169
2006-03-14,45.846
2006-03-15,46.4135
2006-03-16,47.0773
2006-03-17,47.7892
2006-03-20,47.7026
2006-03-21,47.4044
2006-03-22,47.741
2006-03-23,47.8661
2006-03-24,47.491
2006-03-27,47.337
2006-03-28,47.2985
2006-03-29,48.3182
2006-03-30,48.5491
2006-03-31,48.3086
2006-04-03,48.1643
2006-04-04,47.8853
2006-04-05,48.2701
2006-04-06,48.8088
2006-04-07,48.3663
2006-04-10,48.2399
2006-04-11,48.0899
2006-04-12,47.834
2006-04-13,47.9928
2006-04-17,47.6575
2006-04-18,47.8163
2006-04-19,48.5399
2006-04-20,48.2928
2006-04-21,47.984
2006-04-24,47.2781
2006-04-25,46.7663
2006-04-26,47.6046
2006-04-27,50.0841
2006-04-28,50.5341
2006-05-01,50.5076
2006-05-02,50.7635
2006-05-03,52.0782
2006-05-04,53.1195
2006-05-05,54.0548
2006-05-08,54.5754
2006-05-09,54.6901
2006-05-10,53.8607
2006-05-11,53.6136
2006-05-12,53.4548
2006-05-15,53.8165
2006-05-16,53.8254
2006-05-17,53.2871
2006-05-18,53.2077
2006-05-19,53.5518
2006-05-22,53.3048
2006-05-23,52.9342
2006-05-24,52.6077
2006-05-25,53.993
2006-05-26,54.9636
2006-05-30,53.9401
2006-05-31,53.8783
2006-06-01,55.3872
2006-06-02,55.1578
2006-06-05,53.8783
2006-06-06,53.6489
2006-06-07,53.6136
2006-06-08,52.4753
2006-06-09,52.8459
2006-06-12,51.6106
2006-06-13,50.2958
2006-06-14,49.0252
2006-06-15,50.4194
2006-06-16,49.9605
2006-06-19,50.6929
2006-06-20,50.5605
2006-06-21,51.1164
2006-06-22,51.2135
2006-06-23,51.2223
2006-06-26,51.8047
2006-06-27,51.337
2006-06-28,51.0106
2006-06-29,53.0842
2006-06-30,53.2606
2006-07-03,54.2754
2006-07-05,54.1783
2006-07-06,53.6224
2006-07-07,52.343
2006-07-10,52.5724
2006-07-11,52.1577
2006-07-12,52.1488
2006-07-13,50.2517
2006-07-14,48.9811
2006-07-17,49.687
2006-07-18,49.7488
2006-07-19,50.587
2006-07-20,49.6782
2006-07-21,47.9399
2006-07-24,49.3958
2006-07-25,49.5546
2006-07-26,48.5311
2006-07-27,45.681
2006-07-28,46.3251
2006-07-31,46.431
2006-08-01,46.7575
2006-08-02,47.5693
2006-08-03,48.1869
2006-08-04,48.5046
2006-08-07,47.8075
2006-08-08,46.8192
2006-08-09,46.3339
2006-08-10,45.3986
2006-08-11,44.2692
2006-08-14,44.9398
2006-08-15,45.7869
2006-08-16,47.4369
2006-08-17,47.2516
2006-08-18,46.8016
2006-08-21,46.1751
2006-08-22,45.8663
2006-08-23,45.5221
2006-08-24,45.6898
2006-08-25,44.9662
2006-08-28,45.9722
2006-08-29,46.3251
2006-08-30,46.8016
2006-08-31,47.0575
2006-09-01,47.7281
2006-09-05,48.5134
2006-09-06,47.931
2006-09-07,48.5575
2006-09-08,51.09
2006-09-11,50.79
2006-09-12,53.0047
2006-09-13,52.3959
2006-09-14,52.14
2006-09-15,52.6959
2006-09-18,52.5106
2006-09-19,52.9253
2006-09-20,53.4018
2006-09-21,52.6694
2006-09-22,51.0635
2006-09-25,51.0547
2006-09-26,50.2517
2006-09-27,50.2164
2006-09-28,50.0929
2006-09-29,50.4017
2006-10-02,50.3135
2006-10-03,51.2753
2006-10-04,51.1517
2006-10-05,53.4812
2006-10-06,53.2783
2006-10-09,53.7812
2006-10-10,53.3489
2006-10-11,51.7782
2006-10-12,51.7871
2006-10-13,52.9077
2006-10-16,53.8254
2006-10-17,55.1136
2006-10-18,54.8313
2006-10-19,54.7077
2006-10-20,54.6283
2006-10-23,54.6195
2006-10-24,54.1871
2006-10-25,54.0636
2006-10-26,53.4283
2006-10-27,52.3694
2006-10-30,52.9606
2006-10-31,52.6253
2006-11-01,52.1135
2006-11-02,52.1047
2006-11-03,51.4341
2006-11-06,53.2165
2006-11-07,53.5606
2006-11-08,54.0636
2006-11-09,53.9401
2006-11-10,54.2224
2006-11-13,55.1931
2006-11-14,54.5666
2006-11-15,54.3989
2006-11-16,54.5754
2006-11-17,54.5048
2006-11-20,55.5813
2006-11-21,57.902
2006-11-22,57.7167
2006-11-24,56.9578
2006-11-27,55.9519
2006-11-28,55.7225
2006-11-29,57.1431
2006-11-30,56.6137
2006-12-01,56.2784
2006-12-04,57.3902
2006-12-05,57.4343
2006-12-06,57.1608
2006-12-07,56.9225
2006-12-08,57.0019
2006-12-11,56.499
2006-12-12,56.2784
2006-12-13,56.2343
2006-12-14,56.7372
2006-12-15,56.0843
2006-12-18,55.5813
2006-12-19,56.2519
2006-12-20,56.9666
2006-12-21,55.6695
2006-12-22,55.3519
2006-12-26,55.0078
2006-12-27,55.8426
2006-12-28,56.1091
2006-12-29,55.5761
2007-01-03,55.3096
2007-01-04,54.8921
2007-01-05,54.1014
2007-01-08,54.6167
2007-01-09,54.8832
2007-01-10,54.8565
2007-01-11,55.4695
2007-01-12,56.0647
2007-01-16,56.9975
2007-01-17,56.5
2007-01-18,55.7716
2007-01-19,56.5622
2007-01-22,55.5406
2007-01-23,55.6472
2007-01-24,55.6472
2007-01-25,54.5634
2007-01-26,54.1014
2007-01-29,53.5595
2007-01-30,53.7194
2007-01-31,55.5495
2007-02-01,57.7437
2007-02-02,58.8631
2007-02-05,59.2895
2007-02-06,59.6182
2007-02-07,60.3289
2007-02-08,61.2705
2007-02-09,59.4405
2007-02-12,59.1562
2007-02-13,60.2667
2007-02-14,61.3683
2007-02-15,61.2528
2007-02-16,61.2172
2007-02-20,61.0218
2007-02-21,61.2972
2007-02-22,60.6043
2007-02-23,60.2045
2007-02-26,59.7514
2007-02-27,57.9214
2007-02-28,58.4811
2007-03-01,58.0635
2007-03-02,57.2995
2007-03-05,56.0914
2007-03-06,57.5483
2007-03-07,57.5039
2007-03-08,57.7171
2007-03-09,58.259
2007-03-12,57.2729
2007-03-13,56.0825
2007-03-14,56.1624
2007-03-15,56.7221
2007-03-16,55.9226
2007-03-19,56.9264
2007-03-20,57.8326
2007-03-21,59.0496
2007-03-22,58.4011
2007-03-23,58.0813
2007-03-26,58.2856
2007-03-27,57.7526
2007-03-28,57.4328
2007-03-29,57.6105
2007-03-30,57.6105
2007-04-02,60.2223
2007-04-03,61.9723
2007-04-04,62.9584
2007-04-05,62.1855
2007-04-09,61.0573
2007-04-10,60.3289
2007-04-11,60.0002
2007-04-12,59.9025
2007-04-13,60.169
2007-04-16,60.8885
2007-04-17,61.4837
2007-04-18,61.3505
2007-04-19,60.5065
2007-04-20,61.386
2007-04-23,61.5193
2007-04-24,61.5903
2007-04-25,61.3505
2007-04-26,61.5548
2007-04-27,61.3061
2007-04-30,59.5471
2007-05-01,59.4583
2007-05-02,61.1817
2007-05-03,61.9457
2007-05-04,62.9762
2007-05-07,62.2033
2007-05-08,62.8429
2007-05-09,62.8518
2007-05-10,61.1995
2007-05-11,61.7947
2007-05-14,61.3771
2007-05-15,60.9774
2007-05-16,61.7414
2007-05-17,61.386
2007-05-18,61.5104
2007-05-21,60.7109
2007-05-22,61.4571
2007-05-23,61.4127
2007-05-24,59.5471
2007-05-25,59.8669
2007-05-29,60.5598
2007-05-30,62.15
2007-05-31,64.0689
2007-06-01,65.508
2007-06-04,64.4509
2007-06-05,64.3976
2007-06-06,63.7313
2007-06-07,62.0523
2007-06-08,62.4521
2007-06-11,62.2655
2007-06-12,61.6348
2007-06-13,62.1855
2007-06-14,62.9851
2007-06-15,63.5625
2007-06-18,62.8607
2007-06-19,62.4876
2007-06-20,61.6436
2007-06-21,62.2655
2007-06-22,62.3721
2007-06-25,61.5104
2007-06-26,60.8708
2007-06-27,61.3149
2007-06-28,60.5687
2007-06-29,59.5116
2007-07-02,59.6093
2007-07-03,61.4127
2007-07-05,66.2454
2007-07-06,66.0233
2007-07-09,65.8545
2007-07-10,64.824
2007-07-11,64.291
2007-07-12,64.3354
2007-07-13,66.7251
2007-07-16,66.0055
2007-07-17,65.9966
2007-07-18,65.5169
2007-07-19,65.0727
2007-07-20,64.673
2007-07-23,64.6996
2007-07-24,63.1183
2007-07-25,61.2972
2007-07-26,57.1307
2007-07-27,56.3845
2007-07-30,55.9315
2007-07-31,55.9581
2007-08-01,55.4784
2007-08-02,56.5178
2007-08-03,53.7017
2007-08-06,53.0087
2007-08-07,52.6445
2007-08-08,52.6356
2007-08-09,49.9439
2007-08-10,49.855
2007-08-13,50.5924
2007-08-14,48.8512
2007-08-15,48.025
2007-08-16,48.176
2007-08-17,49.1177
2007-08-20,50.468
2007-08-21,52.6001
2007-08-22,53.4707
2007-08-23,54.0304
2007-08-24,55.2385
2007-08-27,53.7017
2007-08-28,52.1204
2007-08-29,53.1242
2007-08-30,52.4224
2007-08-31,54.2436
2007-09-04,52.9821
2007-09-05,51.5874
2007-09-06,51.4186
2007-09-07,50.0327
2007-09-10,49.7929
2007-09-11,49.9705
2007-09-12,49.0644
2007-09-13,50.0594
2007-09-14,50.6546
2007-09-17,51.0455
2007-09-18,52.227
2007-09-19,53.1864
2007-09-20,52.3602
2007-09-21,52.1914
2007-09-24,52.3869
2007-09-25,52.3869
2007-09-26,52.9821
2007-09-27,53.6839
2007-09-28,53.9238
2007-10-01,55.2918
2007-10-02,55.0786
2007-10-03,54.5989
2007-10-04,53.1331
2007-10-05,53.4263
2007-10-08,54.1725
2007-10-09,53.3819
2007-10-10,53.3641
2007-10-11,53.524
2007-10-12,53.8083
2007-10-15,53.1065
2007-10-16,53.4085
2007-10-17,53.4263
2007-10-18,53.5951
2007-10-19,52.0138
2007-10-22,52.4047
2007-10-23,51.9516
2007-10-24,51.0988
2007-10-25,49.3043
2007-10-26,49.3043
2007-10-29,48.6558
2007-10-30,49.3131
2007-10-31,50.4591
2007-11-01,48.7446
2007-11-02,49.5974
2007-11-05,47.7763
2007-11-06,47.6341
2007-11-07,46.7724
2007-11-08,45.8219
2007-11-09,46.0351
2007-11-12,46.8524
2007-11-13,48.5847
2007-11-14,46.7991
2007-11-15,46.4793
2007-11-16,46.2039
2007-11-19,45.3599
2007-11-20,45.3777
2007-11-21,45.9462
2007-11-23,46.9323
2007-11-26,46.044
2007-11-27,46.1328
2007-11-28,47.6164
2007-11-29,47.341
2007-11-30,47.492
2007-12-03,47.4831
2007-12-04,46.5859
2007-12-05,46.8879
2007-12-06,47.4742
2007-12-07,47.7318
2007-12-10,47.9451
2007-12-11,45.5909
2007-12-12,45.6708
2007-12-13,43.9385
2007-12-14,41.4955
2007-12-17,40.7848
2007-12-18,40.4295
2007-12-19,40.3762
2007-12-20,40.1719
2007-12-21,40.5361
2007-12-24,40.9003
2007-12-26,40.3229
2007-12-27,39.2723
2007-12-28,39.2904
2007-12-31,39.8977
2008-01-02,38.6378
2008-01-03,37.1423
2008-01-04,36.1635
2008-01-07,36.3176
2008-01-08,34.8855
2008-01-09,35.2118
2008-01-10,37.242
2008-01-11,35.7738
2008-01-14,36.7889
2008-01-15,34.8674
2008-01-16,35.5562
2008-01-17,34.5774
2008-01-18,35.3296
2008-01-22,36.3901
2008-01-23,39.5442
2008-01-24,39.952
2008-01-25,38.5925
2008-01-28,39.5079
2008-01-29,39.8251
2008-01-30,38.6831
2008-01-31,41.2119
2008-02-01,42.2995
2008-02-04,41.8282
2008-02-05,42.3176
2008-02-06,41.5291
2008-02-07,41.4203
2008-02-08,41.2119
2008-02-11,41.9098
2008-02-12,43.369
2008-02-13,43.514
2008-02-14,42.9521
2008-02-15,43.4687
2008-02-19,43.5684
2008-02-20,44.2572
2008-02-21,44.221
2008-02-22,45.0457
2008-02-25,45.0911
2008-02-26,45.2542
2008-02-27,45.0367
2008-02-28,43.369
2008-02-29,42.9521
2008-03-03,43.0608
2008-03-04,46.1062
2008-03-05,45.8977
2008-03-06,43.8947
2008-03-07,44.3479
2008-03-10,43.6772
2008-03-11,44.9551
2008-03-12,45.1001
2008-03-13,45.8887
2008-03-14,46.0427
2008-03-17,44.4204
2008-03-18,45.1092
2008-03-19,44.9914
2008-03-20,47.0669
2008-03-24,50.2845
2008-03-25,48.8524
2008-03-26,47.8101
2008-03-27,46.36
2008-03-28,46.7134
2008-03-31,46.9128
2008-04-01,49.0246
2008-04-02,49.1787
2008-04-03,47.6198
2008-04-04,47.3569
2008-04-07,46.4778
2008-04-08,46.3146
2008-04-09,44.7466
2008-04-10,45.5805
2008-04-11,44.5473
2008-04-14,44.1394
2008-04-15,43.5049
2008-04-16,44.4113
2008-04-17,44.4657
2008-04-18,45.7346
2008-04-21,44.8101
2008-04-22,44.1666
2008-04-23,44.9914
2008-04-24,48.1273
2008-04-25,48.073
2008-04-28,47.7014
2008-04-29,46.9219
2008-04-30,47.2844
2008-05-01,49.3056
2008-05-02,49.1697
2008-05-05,48.4355
2008-05-06,49.2422
2008-05-07,47.5835
2008-05-08,47.5382
2008-05-09,47.1938
2008-05-12,48.1364
2008-05-13,47.6017
2008-05-14,48.4174
2008-05-15,48.6349
2008-05-16,48.0367
2008-05-19,47.2482
2008-05-20,46.4778
2008-05-21,45.2905
2008-05-22,45.4264
2008-05-23,44.2753
2008-05-27,44.4022
2008-05-28,45.3902
2008-05-29,44.5563
2008-05-30,43.9309
2008-06-02,42.082
2008-06-03,41.9007
2008-06-04,43.3781
2008-06-05,44.5019
2008-06-06,41.7013
2008-06-09,40.804
2008-06-10,42.0548
2008-06-11,40.514
2008-06-12,41.5925
2008-06-13,42.4536
2008-06-16,43.7587
2008-06-17,42.6711
2008-06-18,41.4928
2008-06-19,41.5835
2008-06-20,40.2602
2008-06-23,38.7919
2008-06-24,38.085
2008-06-25,39.0185
2008-06-26,37.0245
2008-06-27,36.4082
2008-06-30,36.3901
2008-07-01,34.958
2008-07-02,33.7798
2008-07-03,34.1786
2008-07-07,34.2692
2008-07-08,36.0185
2008-07-09,33.8704
2008-07-10,32.239
2008-07-11,31.0063
2008-07-14,28.6408
2008-07-15,29.2752
2008-07-16,31.677
2008-07-17,33.952
2008-07-18,34.0336
2008-07-21,34.5049
2008-07-22,35.1665
2008-07-23,36.1997
2008-07-24,32.1393
2008-07-25,31.7314
2008-07-28,30.5169
2008-07-29,32.1937
2008-07-30,31.7767
2008-07-31,31.0879
2008-08-01,32.2843
2008-08-04,31.6227
2008-08-05,33.8613
2008-08-06,35.0124
2008-08-07,33.7707
2008-08-08,35.9731
2008-08-11,36.5713
2008-08-12,35.8553
2008-08-13,34.9399
2008-08-14,36.9158
2008-08-15,36.9067
2008-08-18,35.3387
2008-08-19,33.5351
2008-08-20,32.4384
2008-08-21,31.9761
2008-08-22,33.2994
2008-08-25,32.103
2008-08-26,32.0758
2008-08-27,31.9308
2008-08-28,32.9278
2008-08-29,32.9006
2008-09-02,33.1091
2008-09-03,33.236
2008-09-04,32.8825
2008-09-05,33.4807
2008-09-08,35.0396
2008-09-09,34.532
2008-09-10,34.6861
2008-09-11,35.3206
2008-09-12,35.0305
2008-09-15,33.0728
2008-09-16,33.6982
2008-09-17,30.2178
2008-09-18,30.9882
2008-09-19,32.9641
2008-09-22,30.816
2008-09-23,29.0033
2008-09-24,28.4142
2008-09-25,27.8341
2008-09-26,27.4625
2008-09-29,24.7525
2008-09-30,25.5048
2008-10-01,24.4806
2008-10-02,22.9035
2008-10-03,22.3597
2008-10-06,21.7072
2008-10-07,19.9035
2008-10-08,20.1301
2008-10-09,18.2721
2008-10-10,19.26
2008-10-13,21.9972
2008-10-14,21.3174
2008-10-15,18.4805
2008-10-16,18.6618
2008-10-17,19.2781
2008-10-20,19.124
2008-10-21,18.3718
2008-10-22,17.3295
2008-10-23,17.837
2008-10-24,17.5107
2008-10-27,15.8793
2008-10-28,17.3929
2008-10-29,18.399
2008-10-30,19.8129
2008-10-31,20.3476
2008-11-03,19.1875
2008-11-04,20.1935
2008-11-05,18.2811
2008-11-06,17.0032
2008-11-07,17.121
2008-11-10,16.0424
2008-11-11,15.4896
2008-11-12,13.5228
2008-11-13,14.982
2008-11-14,13.6587
2008-11-17,13.4322
2008-11-18,12.8793
2008-11-19,11.0484
2008-11-20,10.3777
2008-11-21,11.1119
2008-11-24,13.0515
2008-11-25,13.1602
2008-11-26,15.0908
2008-11-28,15.2811
2008-12-01,13.414
2008-12-02,14.13
2008-12-03,14.5742
2008-12-04,13.976
2008-12-05,14.5288
2008-12-08,16.0153
2008-12-09,14.6195
2008-12-10,15.3989
2008-12-11,14.5832
2008-12-12,14.0575
2008-12-15,13.269
2008-12-16,15.5349
2008-12-17,16.84
2008-12-18,15.5711
2008-12-19,15.9156
2008-12-22,15.0273
2008-12-23,15.3355
2008-12-24,15.3446
2008-12-26,15.4714
2008-12-29,15.4035
2008-12-30,15.6618
2008-12-31,17.2117
2009-01-02,19.8905
2009-01-05,20.3785
2009-01-06,22.1963
2009-01-07,20.4454
2009-01-08,20.522
2009-01-09,20.522
2009-01-12,18.2354
2009-01-13,17.6422
2009-01-14,16.1593
2009-01-15,16.054
2009-01-16,16.5994
2009-01-20,15.3173
2009-01-21,16.4272
2009-01-22,15.5565
2009-01-23,15.48
2009-01-26,15.5661
2009-01-27,15.3078
2009-01-28,16.6376
2009-01-29,15.6809
2009-01-30,14.4754
2009-02-02,14.2075
2009-02-03,14.5424
2009-02-04,14.131
2009-02-05,14.2171
2009-02-06,14.6094
2009-02-09,14.351
2009-02-10,13.2699
2009-02-11,13.0594
2009-02-12,12.6672
2009-02-13,12.0644
2009-02-17,11.7392
2009-02-18,11.2799
2009-02-19,11.0407
2009-02-20,11.0599
2009-02-23,10.5911
2009-02-24,11.5765
2009-02-25,10.8972
2009-02-26,10.8781
2009-02-27,11.1173
2009-03-02,9.7013
2009-03-03,9.43342
2009-03-04,10.084
2009-03-05,9.43342
2009-03-06,9.08899
2009-03-09,9.33774
2009-03-10,10.8303
2009-03-11,11.2321
2009-03-12,12.2271
2009-03-13,11.7009
2009-03-16,11.5287
2009-03-17,11.8348
2009-03-18,12.5237
2009-03-19,12.3897
2009-03-20,11.1555
2009-03-23,12.6481
2009-03-24,12.9829
2009-03-25,13.1647
2009-03-26,14.0736
2009-03-27,13.2604
2009-03-30,12.0453
2009-03-31,12.141
2009-04-01,12.4663
2009-04-02,14.2362
2009-04-03,15.3269
2009-04-06,14.9634
2009-04-07,13.8057
2009-04-08,13.7483
2009-04-09,14.6476
2009-04-13,15.0399
2009-04-14,15.1164
2009-04-15,15.1547
2009-04-16,16.2262
2009-04-17,17.2308
2009-04-20,15.413
2009-04-21,16.5324
2009-04-22,17.183
2009-04-23,19.0008
2009-04-24,19.8523
2009-04-27,17.824
2009-04-28,17.4796
2009-04-29,19.7088
2009-04-30,20.0054
2009-05-01,18.7042
2009-05-04,19.881
2009-05-05,19.7375
2009-05-06,20.2924
2009-05-07,19.4217
2009-05-08,21.0865
2009-05-11,20.943
2009-05-12,20.1967
2009-05-13,18.9051
2009-05-14,19.1156
2009-05-15,18.9912
2009-05-18,20.4741
2009-05-19,20.4741
2009-05-20,20.3976
2009-05-21,20.4263
2009-05-22,20.6464
2009-05-26,22.512
2009-05-27,21.4883
2009-05-28,22.5216
2009-05-29,23.3348
2009-06-01,24.9804
2009-06-02,24.2915
2009-06-03,23.5261
2009-06-04,23.7845
2009-06-05,24.0523
2009-06-08,24.5785
2009-06-09,24.6551
2009-06-10,24.1576
2009-06-11,23.8036
2009-06-12,23.2965
2009-06-15,22.3015
2009-06-16,21.6988
2009-06-17,21.9093
2009-06-18,21.6031
2009-06-19,21.6892
2009-06-22,20.3115
2009-06-23,20.3019
2009-06-24,21.1152
2009-06-25,21.8136
2009-06-26,21.6318
2009-06-29,21.6605
2009-06-30,21.2013
2009-07-01,20.4167
2009-07-02,20.0723
2009-07-06,19.2974
2009-07-07,19.0965
2009-07-08,18.1684
2009-07-09,19.3069
2009-07-10,18.8764
2009-07-13,19.5557
2009-07-14,19.7949
2009-07-15,20.8473
2009-07-16,20.2254
2009-07-17,19.747
2009-07-20,20.7707
2009-07-21,20.455
2009-07-22,20.3306
2009-07-23,21.7657
2009-07-24,21.9093
2009-07-27,21.8997
2009-07-28,21.8614
2009-07-29,21.3926
2009-07-30,22.2824
2009-07-31,22.5981
2009-08-03,23.7558
2009-08-04,25.6884
2009-08-05,25.8127
2009-08-06,24.9899
2009-08-07,28.3577
2009-08-10,26.5686
2009-08-11,26.5781
2009-08-12,27.7836
2009-08-13,27.9941
2009-08-14,27.1904
2009-08-17,26.0806
2009-08-18,27.3339
2009-08-19,27.3531
2009-08-20,28.6542
2009-08-21,29.0178
2009-08-24,28.8169
2009-08-25,29.0082
2009-08-26,29.0561
2009-08-27,28.9508
2009-08-28,29.2092
2009-08-31,28.482
2009-09-01,26.5494
2009-09-02,26.4633
2009-09-03,27.0278
2009-09-04,27.3339
2009-09-08,27.1904
2009-09-09,27.9845
2009-09-10,28.9317
2009-09-11,29.5057
2009-09-14,29.8502
2009-09-15,31.2374
2009-09-16,31.6871
2009-09-17,32.663
2009-09-18,32.5864
2009-09-21,31.467
2009-09-22,32.5482
2009-09-23,31.467
2009-09-24,30.7112
2009-09-25,30.0798
2009-09-28,30.3285
2009-09-29,31.2757
2009-09-30,31.534
2009-10-01,29.4579
2009-10-02,28.4533
2009-10-05,29.6014
2009-10-06,31.2183
2009-10-07,31.4288
2009-10-08,31.9741
2009-10-09,31.8115
2009-10-12,31.6584
2009-10-13,32.5099
2009-10-14,33.7154
2009-10-15,33.1318
2009-10-16,33.7823
2009-10-19,34.4616
2009-10-20,33.3327
2009-10-21,32.6821
2009-10-22,32.2324
2009-10-23,31.5723
2009-10-26,31.5819
2009-10-27,29.9171
2009-10-28,28.2907
2009-10-29,29.0943
2009-10-30,27.8027
2009-11-02,27.267
2009-11-03,27.9367
2009-11-04,28.4629
2009-11-05,29.8502
2009-11-06,29.6875
2009-11-09,31.668
2009-11-10,31.6967
2009-11-11,32.3855
2009-11-12,31.9646
2009-11-13,32.0698
2009-11-16,32.9022
2009-11-17,32.5003
2009-11-18,32.0507
2009-11-19,31.0844
2009-11-20,30.6825
2009-11-23,30.7112
2009-11-24,30.2616
2009-11-25,30.96
2009-11-27,30.2329
2009-11-30,30.6251
2009-12-01,30.6825
2009-12-02,30.826
2009-12-03,30.3094
2009-12-04,31.955
2009-12-07,31.8306
2009-12-08,32.1176
2009-12-09,32.0315
2009-12-10,32.4046
2009-12-11,32.5482
2009-12-14,34.0502
2009-12-15,34.7869
2009-12-16,35.3036
2009-12-17,34.9591
2009-12-18,34.9496
2009-12-21,35.1505
2009-12-22,34.8635
2009-12-23,35.2557
2009-12-24,35.3131
2009-12-28,35.5332
2009-12-29,35.8891
2009-12-30,35.7448
2009-12-31,35.2061
2010-01-04,35.2638
2010-01-05,34.4174
2010-01-06,34.7252
2010-01-07,35.5717
2010-01-08,36.1584
2010-01-11,36.245
2010-01-12,35.6871
2010-01-13,36.8895
2010-01-14,38.0342
2010-01-15,37.4666
2010-01-19,37.3127
2010-01-20,36.5913
2010-01-21,35.8218
2010-01-22,34.552
2010-01-25,34.5809
2010-01-26,34.6097
2010-01-27,33.619
2010-01-28,33.2919
2010-01-29,32.0703
2010-02-01,33.0899
2010-02-02,33.8979
2010-02-03,34.023
2010-02-04,34.0903
2010-02-05,35.2542
2010-02-08,35.1099
2010-02-09,35.8506
2010-02-10,35.3023
2010-02-11,35.4755
2010-02-12,35.5236
2010-02-16,36.0238
2010-02-17,36.1103
2010-02-18,36.2065
2010-02-19,36.6105
2010-02-22,36.9472
2010-02-23,36.37
2010-02-24,36.6201
2010-02-25,36.4374
2010-02-26,37.2358
2010-03-01,37.3031
2010-03-02,37.3512
2010-03-03,37.4474
2010-03-04,38.1015
2010-03-05,39.756
2010-03-08,39.8714
2010-03-09,39.7752
2010-03-10,40.3139
2010-03-11,40.3235
2010-03-12,40.6794
2010-03-15,40.2562
2010-03-16,40.8718
2010-03-17,40.8526
2010-03-18,40.7468
2010-03-19,40.9584
2010-03-22,42.1608
2010-03-23,42.3435
2010-03-24,42.2281
2010-03-25,43.2862
2010-03-26,44.4309
2010-03-29,44.3828
2010-03-30,45.6141
2010-03-31,44.8253
2010-04-01,45.7487
2010-04-05,46.1624
2010-04-06,46.8549
2010-04-07,46.5952
2010-04-08,47.8842
2010-04-09,48.0862
2010-04-12,47.2205
2010-04-13,48.1343
2010-04-14,48.2786
2010-04-15,48.192
2010-04-16,46.4317
2010-04-19,45.9219
2010-04-20,47.1916
2010-04-21,48.1343
2010-04-22,51.6837
2010-04-23,51.8473
2010-04-26,52.3571
2010-04-27,50.7122
2010-04-28,51.2413
2010-04-29,54.1366
2010-04-30,52.4148
2010-05-03,53.9443
2010-05-04,51.9723
2010-05-05,48.9904
2010-05-06,47.5764
2010-05-07,45.2197
2010-05-10,48.7788
2010-05-11,48.8557
2010-05-12,51.1932
2010-05-13,49.7022
2010-05-14,46.1912
2010-05-17,46.0758
2010-05-18,45.2678
2010-05-19,44.5656
2010-05-20,42.4975
2010-05-21,43.4882
2010-05-24,42.7764
2010-05-25,42.9976
2010-05-26,42.6321
2010-05-27,45.6622
2010-05-28,44.5175
2010-06-01,43.594
2010-06-02,43.8441
2010-06-03,45.2293
2010-06-04,42.3339
2010-06-07,40.843
2010-06-08,43.2381
2010-06-09,44.277
2010-06-10,46.0084
2010-06-11,45.0946
2010-06-14,45.4602
2010-06-15,47.711
2010-06-16,47.6822
2010-06-17,46.7876
2010-06-18,46.4702
2010-06-21,46.1527
2010-06-22,44.4501
2010-06-23,44.6425
2010-06-24,42.7668
2010-06-25,43.873
2010-06-28,42.5455
2010-06-29,40.487
2010-06-30,39.9195
2010-07-01,40.0157
2010-07-02,39.3231
2010-07-06,39.2366
2010-07-07,41.3816
2010-07-08,42.3243
2010-07-09,43.2381
2010-07-12,43.1516
2010-07-13,45.0465
2010-07-14,44.7676
2010-07-15,44.5848
2010-07-16,41.449
2010-07-19,42.2281
2010-07-20,43.3343
2010-07-21,42.2185
2010-07-22,43.7095
2010-07-23,45.8738
2010-07-26,47.5571
2010-07-27,46.4894
2010-07-28,47.4417
2010-07-29,46.8357
2010-07-30,46.6722
2010-08-02,48.192
2010-08-03,48.0285
2010-08-04,49.4425
2010-08-05,48.3267
2010-08-06,47.5667
2010-08-09,48.2786
2010-08-10,46.7203
2010-08-11,44.7291
2010-08-12,45.1042
2010-08-13,44.9984
2010-08-16,45.7968
2010-08-17,46.6433
2010-08-18,46.9319
2010-08-19,45.1235
2010-08-20,45.3928
2010-08-23,44.9696
2010-08-24,43.594
2010-08-25,43.267
2010-08-26,43.4978
2010-08-27,45.6814
2010-08-30,44.2674
2010-08-31,44.9215
2010-09-01,47.3551
2010-09-02,47.9611
2010-09-03,48.7884
2010-09-07,47.7591
2010-09-08,48.2882
2010-09-09,48.875
2010-09-10,48.7595
2010-09-13,49.5964
2010-09-14,49.7407
2010-09-15,49.077
2010-09-16,49.0096
2010-09-17,49.9523
2010-09-20,51.7222
2010-09-21,51.1355
2010-09-22,50.1928
2010-09-23,48.596
2010-09-24,50.5583
2010-09-27,50.9142
2010-09-28,51.5298
2010-09-29,50.0677
2010-09-30,50.6641
2010-10-01,50.7699
2010-10-04,50.5294
2010-10-05,52.5879
2010-10-06,53.4248
2010-10-07,51.7896
2010-10-08,52.8092
2010-10-11,52.2801
2010-10-12,52.7419
2010-10-13,53.5595
2010-10-14,53.2998
2010-10-15,53.0401
2010-10-18,53.0304
2010-10-19,51.5202
2010-10-20,52.5687
2010-10-21,53.1266
2010-10-22,54.7523
2010-10-25,55.4064
2010-10-26,55.82
2010-10-27,55.4352
2010-10-28,52.9246
2010-10-29,52.0878
2010-11-01,52.9823
2010-11-02,52.6745
2010-11-03,53.0208
2010-11-04,55.214
2010-11-05,57.0512
2010-11-08,56.2817
2010-11-09,54.8388
2010-11-10,55.9066
2010-11-11,55.6084
2010-11-12,54.2232
2010-11-15,53.5595
2010-11-16,52.4437
2010-11-17,52.6168
2010-11-18,53.9731
2010-11-19,54.5022
2010-11-22,54.5406
2010-11-23,53.9058
2010-11-24,55.7046
2010-11-26,55.6853
2010-11-29,55.0408
2010-11-30,54.6945
2010-12-01,56.224
2010-12-02,56.4933
2010-12-03,56.6184
2010-12-06,57.7246
2010-12-07,57.5995
2010-12-08,57.6284
2010-12-09,58.5422
2010-12-10,58.9462
2010-12-13,58.4749
2010-12-14,57.4118
2010-12-15,55.9715
2010-12-16,57.6148
2010-12-17,57.7695
2010-12-20,59.0069
2010-12-21,60.3506
2010-12-22,59.8092
2010-12-23,59.1035
2010-12-27,58.6685
2010-12-28,59.2002
2010-12-29,59.0165
2010-12-30,58.7749
2010-12-31,58.7555
2011-01-03,59.9252
2011-01-04,59.1712
2011-01-05,60.0896
2011-01-06,59.2099
2011-01-07,59.2099
2011-01-10,58.9972
2011-01-11,58.5235
2011-01-12,58.1079
2011-01-13,59.1905
2011-01-14,60.7759
2011-01-18,60.5826
2011-01-19,59.8286
2011-01-20,59.0552
2011-01-21,59.8866
2011-01-24,60.5826
2011-01-25,59.4129
2011-01-26,59.7416
2011-01-27,59.2486
2011-01-28,56.5031
2011-01-31,56.9672
2011-02-01,58.3592
2011-02-02,58.7942
2011-02-03,58.1852
2011-02-04,59.6836
2011-02-07,60.7663
2011-02-08,60.9209
2011-02-09,60.7373
2011-02-10,61.2206
2011-02-11,62.8253
2011-02-14,62.8156
2011-02-15,62.7286
2011-02-16,62.6996
2011-02-17,62.429
2011-02-18,62.9123
2011-02-22,59.9059
2011-02-23,58.3592
2011-02-24,58.0112
2011-02-25,59.4999
2011-02-28,59.0649
2011-03-01,56.5805
2011-03-02,57.2185
2011-03-03,58.3012
2011-03-04,56.9575
2011-03-07,55.7298
2011-03-08,56.5998
2011-03-09,57.3152
2011-03-10,56.0198
2011-03-11,55.9811
2011-03-14,56.3388
2011-03-15,55.2078
2011-03-16,54.3474
2011-03-17,55.2271
2011-03-18,55.8651
2011-03-21,56.7545
2011-03-22,54.8308
2011-03-23,55.1304
2011-03-24,55.9425
2011-03-25,56.7835
2011-03-28,53.5644
2011-03-29,55.5945
2011-03-30,56.3968
2011-03-31,56.2228
2011-04-01,55.7781
2011-04-04,55.6041
2011-04-05,55.4205
2011-04-06,55.4495
2011-04-07,54.9178
2011-04-08,54.5601
2011-04-11,54.4924
2011-04-12,55.1208
2011-04-13,55.1691
2011-04-14,54.6954
2011-04-15,55.5655
2011-04-18,56.3291
2011-04-19,56.7351
2011-04-20,57.3152
2011-04-21,58.7555
2011-04-25,58.2335
2011-04-26,58.2915
2011-04-27,58.6299
2011-04-28,57.9919
2011-04-29,57.5762
2011-05-02,57.0252
2011-05-03,55.7491
2011-05-04,55.8748
2011-05-05,56.6578
2011-05-06,56.7835
2011-05-09,56.3485
2011-05-10,57.7405
2011-05-11,57.4408
2011-05-12,57.1412
2011-05-13,56.1938
2011-05-16,55.2754
2011-05-17,54.6181
2011-05-18,55.5365
2011-05-19,57.1605
2011-05-20,57.2765
2011-05-23,56.0295
2011-05-24,55.5655
2011-05-25,56.0198
2011-05-26,58.7072
2011-05-27,58.4559
2011-05-31,58.9585
2011-06-01,56.7255
2011-06-02,56.5998
2011-06-03,56.0778
2011-06-06,55.6138
2011-06-07,55.7781
2011-06-08,54.2604
2011-06-09,54.5311
2011-06-10,53.1197
2011-06-13,52.7427
2011-06-14,53.0231
2011-06-15,50.6063
2011-06-16,50.6643
2011-06-17,50.181
2011-06-20,50.413
2011-06-21,52.2594
2011-06-22,51.9017
2011-06-23,52.3174
2011-06-24,51.4667
2011-06-27,51.8437
2011-06-28,53.5257
2011-06-29,53.0617
2011-06-30,54.1928
2011-07-01,56.2131
2011-07-05,56.4258
2011-07-06,55.5171
2011-07-07,56.6965
2011-07-08,56.1648
2011-07-11,54.7148
2011-07-12,54.6664
2011-07-13,55.0048
2011-07-14,53.8254
2011-07-15,53.9607
2011-07-18,52.9554
2011-07-19,54.2121
2011-07-20,55.1594
2011-07-21,55.2948
2011-07-22,55.9521
2011-07-25,55.2561
2011-07-26,54.9854
2011-07-27,53.9124
2011-07-28,53.5257
2011-07-29,53.1874
2011-08-01,52.1337
2011-08-02,48.2186
2011-08-03,48.8856
2011-08-04,45.1348
2011-08-05,45.3572
2011-08-08,41.9544
2011-08-09,43.6945
2011-08-10,40.6301
2011-08-11,42.2734
2011-08-12,42.3218
2011-08-15,44.3518
2011-08-16,42.6118
2011-08-17,42.7471
2011-08-18,38.8997
2011-08-19,37.092
2011-08-22,36.744
2011-08-23,39.4217
2011-08-24,41.4518
2011-08-25,39.2767
2011-08-26,39.8374
2011-08-29,42.0801
2011-08-30,42.2444
2011-08-31,43.0178
2011-09-01,41.8771
2011-09-02,40.6107
2011-09-06,39.644
2011-09-07,41.0361
2011-09-08,39.76
2011-09-09,38.31
2011-09-12,39.267
2011-09-13,40.4657
2011-09-14,42.0028
2011-09-15,43.5108
2011-09-16,43.8685
2011-09-19,43.1725
2011-09-20,42.5538
2011-09-21,40.6784
2011-09-22,38.3197
2011-09-23,38.3293
2011-09-26,39.1607
2011-09-27,40.6397
2011-09-28,39.4894
2011-09-29,39.5667
2011-09-30,37.5753
2011-10-03,35.7193
2011-10-04,37.498
2011-10-05,38.6
2011-10-06,40.1274
2011-10-07,39.4894
2011-10-10,42.3411
2011-10-11,42.2444
2011-10-12,44.6128
2011-10-13,44.9705
2011-10-14,45.7342
2011-10-17,43.7235
2011-10-18,45.3089
2011-10-19,44.6515
2011-10-20,44.9318
2011-10-21,46.5656
2011-10-24,48.5473
2011-10-25,47.1939
2011-10-26,47.8706
2011-10-27,50.7997
2011-10-28,50.2583
2011-10-31,48.5183
2011-11-01,46.6816
2011-11-02,49.1466
2011-11-03,49.4076
2011-11-04,48.8663
2011-11-07,48.992
2011-11-08,49.4366
2011-11-09,46.9329
2011-11-10,47.1649
2011-11-11,48.5183
2011-11-14,47.7353
2011-11-15,48.0929
2011-11-16,47.0876
2011-11-17,46.4495
2011-11-18,47.4742
2011-11-21,46.0725
2011-11-22,43.9651
2011-11-23,42.7471
2011-11-25,42.1381
2011-11-28,44.3808
2011-11-29,43.8008
2011-11-30,46.0822
2011-12-01,45.6472
2011-12-02,46.8362
2011-12-05,48.0156
2011-12-06,47.3292
2011-12-07,47.2326
2011-12-08,45.4925
2011-12-09,46.8072
2011-12-12,46.5849
2011-12-13,44.3776
2011-12-14,44.0357
2011-12-15,44.0748
2011-12-16,44.3776
2011-12-19,43.2836
2011-12-20,45.5596
2011-12-21,45.755
2011-12-22,46.6048
2011-12-23,47.65
2011-12-27,48.158
2011-12-28,46.9565
2011-12-29,47.4449
2011-12-30,46.8978
2012-01-03,48.285
2012-01-04,48.3143
2012-01-05,49.4572
2012-01-06,49.2325
2012-01-09,50.1898
2012-01-10,50.7075
2012-01-11,51.1862
2012-01-12,51.362
2012-01-13,50.0726
2012-01-17,49.506
2012-01-18,50.7563
2012-01-19,52.0555
2012-01-20,52.29
2012-01-23,52.7491
2012-01-24,53.1984
2012-01-25,53.5306
2012-01-26,52.4365
2012-01-27,53.1789
2012-01-30,52.9347
2012-01-31,53.0324
2012-02-01,53.7552
2012-02-02,52.9835
2012-02-03,55.4647
2012-02-06,55.9824
2012-02-07,54.986
2012-02-08,55.4745
2012-02-09,55.4647
2012-02-10,54.2534
2012-02-13,54.4292
2012-02-14,54.0092
2012-02-15,52.4463
2012-02-16,53.1007
2012-02-17,53.8431
2012-02-21,52.7882
2012-02-22,52.3877
2012-02-23,52.8565
2012-02-24,53.7259
2012-02-27,53.9994
2012-02-28,53.7259
2012-02-29,52.6416
2012-03-01,53.2277
2012-03-02,52.9249
2012-03-05,53.2082
2012-03-06,51.6453
2012-03-07,52.2411
2012-03-08,52.8858
2012-03-09,53.6478
2012-03-12,53.2375
2012-03-13,56.0899
2012-03-14,55.0544
2012-03-15,54.7321
2012-03-16,54.7516
2012-03-19,55.4452
2012-03-20,55.3084
2012-03-21,56.4904
2012-03-22,55.9238
2012-03-23,56.2364
2012-03-26,57.4379
2012-03-27,56.8518
2012-03-28,56.1192
2012-03-29,55.3182
2012-03-30,55.1033
2012-04-02,55.0447
2012-04-03,54.4488
2012-04-04,53.9701
2012-04-05,54.2143
2012-04-09,53.3645
2012-04-10,52.0262
2012-04-11,54.0776
2012-04-12,54.9665
2012-04-13,54.7907
2012-04-16,54.1753
2012-04-17,55.5624
2012-04-18,55.2986
2012-04-19,56.7053
2012-04-20,56.2852
2012-04-23,55.0837
2012-04-24,55.5135
2012-04-25,56.2559
2012-04-26,58.3561
2012-04-27,58.8641
2012-04-30,57.8775
2012-05-01,58.8738
2012-05-02,59.0497
2012-05-03,58.532
2012-05-04,56.2559
2012-05-07,55.4452
2012-05-08,55.8847
2012-05-09,55.7284
2012-05-10,55.494
2012-05-11,55.3963
2012-05-14,53.6282
2012-05-15,53.7064
2012-05-16,53.0226
2012-05-17,50.3949
2012-05-18,49.2618
2012-05-21,51.9286
2012-05-22,52.2997
2012-05-23,52.0165
2012-05-24,52.2411
2012-05-25,52.0848
2012-05-29,53.4036
2012-05-30,52.1239
2012-05-31,51.616
2012-06-01,48.0017
2012-06-04,47.3765
2012-06-05,47.6402
2012-06-06,49.506
2012-06-07,50.3949
2012-06-08,50.8247
2012-06-11,49.0371
2012-06-12,49.6037
2012-06-13,48.7831
2012-06-14,49.7795
2012-06-15,50.0823
2012-06-18,50.0628
2012-06-19,51.6648
2012-06-20,52.1044
2012-06-21,50.5219
2012-06-22,51.1568
2012-06-25,49.1153
2012-06-26,49.379
2012-06-27,49.6232
2012-06-28,49.0762
2012-06-29,51.782
2012-07-02,52.3388
2012-07-03,52.5537
2012-07-05,53.0031
2012-07-06,52.2509
2012-07-09,50.9615
2012-07-10,50.2484
2012-07-11,50.2386
2012-07-12,47.5621
2012-07-13,49.4669
2012-07-16,48.9004
2012-07-17,50.014
2012-07-18,49.9456
2012-07-19,50.854
2012-07-20,50.6977
2012-07-23,49.5255
2012-07-24,48.4706
2012-07-25,48.3533
2012-07-26,51.5476
2012-07-27,52.8175
2012-07-30,52.4951
2012-07-31,52.9249
2012-08-01,52.544
2012-08-02,52.5049
2012-08-03,54.4195
2012-08-06,54.5758
2012-08-07,54.8298
2012-08-08,53.5403
2012-08-09,54.0971
2012-08-10,52.964
2012-08-13,52.7882
2012-08-14,52.4658
2012-08-15,52.7784
2012-08-16,53.9604
2012-08-17,53.7064
2012-08-20,53.2082
2012-08-21,52.837
2012-08-22,52.8565
2012-08-23,52.0751
2012-08-24,53.1203
2012-08-27,53.1887
2012-08-28,53.1007
2012-08-29,53.8236
2012-08-30,53.4817
2012-08-31,53.9604
2012-09-04,53.8041
2012-09-05,52.9151
2012-09-06,55.4745
2012-09-07,56.5001
2012-09-10,56.4611
2012-09-11,56.969
2012-09-12,56.8225
2012-09-13,58.3561
2012-09-14,59.1962
2012-09-17,59.1181
2012-09-18,58.444
2012-09-19,57.7993
2012-09-20,57.0862
2012-09-21,57.5356
2012-09-24,57.1839
2012-09-25,55.9531
2012-09-26,55.621
2012-09-27,56.676
2012-09-28,56.6369
2012-10-01,56.168
2012-10-02,55.2986
2012-10-03,55.8164
2012-10-04,55.875
2012-10-05,55.8652
2012-10-08,55.7675
2012-10-09,55.0544
2012-10-10,54.947
2012-10-11,55.24
2012-10-12,55.0056
2012-10-15,55.2693
2012-10-16,55.7089
2012-10-17,56.1192
2012-10-18,56.2755
2012-10-19,54.3902
2012-10-22,54.6832
2012-10-23,53.1203
2012-10-24,52.0848
2012-10-25,50.4047
2012-10-26,50.7368
2012-10-31,50.6587
2012-11-01,50.5219
2012-11-02,50.4145
2012-11-05,51.4401
2012-11-06,51.8016
2012-11-07,50.8345
2012-11-08,49.9163
2012-11-09,50.5024
2012-11-12,50.6782
2012-11-13,50.7075
2012-11-14,49.6623
2012-11-15,49.4083
2012-11-16,50.3363
2012-11-19,51.655
2012-11-20,51.1568
2012-11-21,51.4108
2012-11-23,51.4206
2012-11-26,51.4792
2012-11-27,51.6062
2012-11-28,52.1532
2012-11-29,52.7393
2012-11-30,52.7491
2012-12-03,51.782
2012-12-04,52.0165
2012-12-05,51.6453
2012-12-06,52.8761
2012-12-07,53.0324
2012-12-10,52.9542
2012-12-11,52.6123
2012-12-12,53.64
2012-12-13,53.46
2012-12-14,54.05
2012-12-17,55.69
2012-12-18,56.17
2012-12-19,56.41
2012-12-20,57.67
2012-12-21,57.59
2012-12-24,57.28
2012-12-26,56.68
2012-12-27,56.94
2012-12-28,56.16
2012-12-31,57.29
2013-01-02,59.35
2013-01-03,59.52
2013-01-04,60.37
2013-01-07,59.63
2013-01-08,59.11
2013-01-09,59.16
2013-01-10,59.48
2013-01-11,59.52
2013-01-14,59.47
2013-01-15,60.44
2013-01-16,59.54
2013-01-17,60.18
2013-01-18,59.99
2013-01-22,60.62
2013-01-23,60.36
2013-01-24,59.97
2013-01-25,60.78
2013-01-28,62.07
2013-01-29,62.14
2013-01-30,61.17
2013-01-31,61.47
2013-02-01,61.845
2013-02-04,60.76
2013-02-05,61.755
2013-02-06,62.54
2013-02-07,61.68
2013-02-08,62.77
2013-02-11,62.82
2013-02-12,62.69
2013-02-13,62.01
2013-02-14,62.25
2013-02-15,62.21
2013-02-19,61.44
2013-02-20,59.95
2013-02-21,59.2
2013-02-22,60.03
2013-02-25,58.79
2013-02-26,58.84
2013-02-27,60.065
2013-02-28,60.35
2013-03-01,60.46
2013-03-04,60.08
2013-03-05,60.43
2013-03-06,60.22
2013-03-07,60.41
2013-03-08,62.54
2013-03-11,62.94
2013-03-12,62.22
2013-03-13,62.96
2013-03-14,63.34
2013-03-15,63.32
2013-03-18,62.1
2013-03-19,62.25
2013-03-20,62.44
2013-03-21,61.04
2013-03-22,60.79
2013-03-25,60.36
2013-03-26,60.9
2013-03-27,62.44
2013-03-28,63.78
2013-04-01,62.9
2013-04-02,62.24
2013-04-03,60.73
2013-04-04,61.13
2013-04-05,60.15
2013-04-08,61.96
2013-04-09,62.34
2013-04-10,63.07
2013-04-11,63.7
2013-04-12,63.88
2013-04-15,60.81
2013-04-16,61.93
2013-04-17,61.33
2013-04-18,60.5
2013-04-19,61.28
2013-04-22,61.22
2013-04-23,62.0
2013-04-24,61.77
2013-04-25,62.52
2013-04-26,62.09
2013-04-29,62.5
2013-04-30,64.42
2013-05-01,64.08
2013-05-02,64.47
2013-05-03,65.2
2013-05-06,65.56
2013-05-07,66.36
2013-05-08,66.43
2013-05-09,66.66
2013-05-10,67.87
2013-05-13,67.27
2013-05-14,67.87
2013-05-15,66.9
2013-05-16,66.23
2013-05-17,67.48
2013-05-20,67.87
2013-05-21,68.35
2013-05-22,67.87
2013-05-23,68.47
2013-05-24,68.44
2013-05-28,69.85
2013-05-29,69.02
2013-05-30,68.96
2013-05-31,68.4
2013-06-03,68.97
2013-06-04,67.31
2013-06-05,65.76
2013-06-06,66.92
2013-06-07,69.22
2013-06-10,68.76
2013-06-11,66.84
2013-06-12,66.07
2013-06-13,66.93
2013-06-14,66.36
2013-06-17,66.64
2013-06-18,66.88
2013-06-19,65.78
2013-06-20,63.1
2013-06-21,62.47
2013-06-24,61.54
2013-06-25,62.85
2013-06-26,63.26
2013-06-27,63.8
2013-06-28,63.38
2013-07-01,63.75
2013-07-02,62.99
2013-07-03,62.68
2013-07-05,65.39
2013-07-08,65.06
2013-07-09,66.2
2013-07-10,66.76
2013-07-11,67.36
2013-07-12,66.76
2013-07-15,66.61
2013-07-16,66.49
2013-07-17,66.17
2013-07-18,66.84
2013-07-19,66.12
2013-07-22,66.09
2013-07-23,65.81
2013-07-24,63.3
2013-07-25,66.22
2013-07-26,65.93
2013-07-29,65.45
2013-07-30,66.41
2013-07-31,66.15
2013-08-01,68.02
2013-08-02,68.2
2013-08-05,68.34
2013-08-06,68.11
2013-08-07,67.22
2013-08-08,67.65
2013-08-09,66.6
