date,close_price
2004-05-03,27.0
2004-05-04,26.01
2004-05-05,26.39
2004-05-06,26.2
2004-05-07,26.68
2004-05-10,26.92
2004-05-11,26.9
2004-05-12,26.59
2004-05-13,26.4
2004-05-14,26.32
2004-05-17,26.59
2004-05-18,26.5
2004-05-19,26.47
2004-05-20,26.2
2004-05-21,25.69
2004-05-24,25.4
2004-05-25,25.54
2004-05-26,25.88
2004-05-27,25.97
2004-05-28,25.64
2004-06-01,25.58
2004-06-02,25.61
2004-06-03,25.7
2004-06-04,26.45
2004-06-07,27.15
2004-06-08,28.64
2004-06-09,28.06
2004-06-10,27.3
2004-06-14,26.75
2004-06-15,27.17
2004-06-16,27.74
2004-06-17,28.0
2004-06-18,28.06
2004-06-21,27.14
2004-06-22,27.1
2004-06-23,27.36
2004-06-24,27.99
2004-06-25,28.0
2004-06-28,28.19
2004-06-29,28.56
2004-06-30,27.6
2004-07-01,27.06
2004-07-02,27.0
2004-07-06,27.89
2004-07-07,27.6
2004-07-08,27.05
2004-07-09,26.81
2004-07-12,26.95
2004-07-13,26.55
2004-07-14,26.4
2004-07-15,26.35
2004-07-16,25.91
2004-07-19,25.97
2004-07-20,26.03
2004-07-21,25.37
2004-07-22,25.49
2004-07-23,25.35
2004-07-26,25.08
2004-07-27,25.75
2004-07-28,26.44
2004-07-29,26.0
2004-07-30,25.97
2004-08-02,25.41
2004-08-03,25.15
2004-08-04,25.2
2004-08-05,24.78
2004-08-06,24.42
2004-08-09,24.78
2004-08-10,27.05
2004-08-11,27.63
2004-08-12,27.5
2004-08-13,27.87
2004-08-16,28.31
2004-08-17,28.13
2004-08-18,27.94
2004-08-19,27.79
2004-08-20,27.84
2004-08-23,27.55
2004-08-24,27.35
2004-08-25,27.55
2004-08-26,28.2
2004-08-27,28.24
2004-08-30,27.5
2004-08-31,27.7
2004-09-01,27.59
2004-09-02,27.6
2004-09-03,28.09
2004-09-07,28.91
2004-09-08,28.39
2004-09-09,28.88
2004-09-10,29.12
2004-09-13,28.87
2004-09-14,29.06
2004-09-15,29.24
2004-09-16,28.54
2004-09-17,29.4
2004-09-20,29.78
2004-09-21,30.14
2004-09-22,30.26
2004-09-23,30.46
2004-09-24,31.06
2004-09-27,30.33
2004-09-28,30.62
2004-09-29,30.84
2004-09-30,30.45
2004-10-01,30.56
2004-10-04,29.6
2004-10-05,30.05
2004-10-06,30.0
2004-10-07,29.78
2004-10-08,29.38
2004-10-11,29.98
2004-10-12,30.05
2004-10-13,29.86
2004-10-14,29.97
2004-10-15,30.04
2004-10-18,30.36
2004-10-19,29.64
2004-10-20,30.22
2004-10-21,30.18
2004-10-22,29.8
2004-10-25,30.56
2004-10-26,31.69
2004-10-27,31.8
2004-10-28,31.87
2004-10-29,31.83
2004-11-01,31.66
2004-11-02,31.19
2004-11-03,32.32
2004-11-04,32.72
2004-11-05,32.01
2004-11-08,32.8
2004-11-09,30.98
2004-11-10,31.16
2004-11-11,31.63
2004-11-12,32.11
2004-11-15,31.82
2004-11-16,32.22
2004-11-17,31.95
2004-11-18,32.49
2004-11-19,32.19
2004-11-22,32.02
2004-11-23,31.78
2004-11-24,32.05
2004-11-26,32.25
2004-11-29,31.95
2004-11-30,32.23
2004-12-01,32.2
2004-12-02,31.72
2004-12-03,32.47
2004-12-06,32.94
2004-12-07,32.48
2004-12-08,33.2
2004-12-09,33.93
2004-12-10,33.81
2004-12-13,33.45
2004-12-14,33.18
2004-12-15,33.56
2004-12-16,33.39
2004-12-17,32.97
2004-12-20,32.98
2004-12-21,32.87
2004-12-22,33.05
2004-12-23,33.17
2004-12-27,33.46
2004-12-28,33.38
2004-12-29,33.47
2004-12-30,33.5
2004-12-31,33.51
2005-01-03,33.0
2005-01-04,32.45
2005-01-05,31.51
2005-01-06,31.89
2005-01-07,32.57
2005-01-10,32.2
2005-01-11,31.9
2005-01-12,32.39
2005-01-13,32.25
2005-01-14,32.57
2005-01-18,32.05
2005-01-19,31.63
2005-01-20,31.64
2005-01-21,31.26
2005-01-24,30.78
2005-01-25,30.85
2005-01-26,31.13
2005-01-27,31.43
2005-01-28,31.4
2005-01-31,28.82
2005-02-01,29.55
2005-02-02,29.61
2005-02-03,29.01
2005-02-04,28.69
2005-02-07,28.49
2005-02-08,28.54
2005-02-09,28.96
2005-02-10,28.65
2005-02-11,29.38
2005-02-14,29.3
2005-02-15,29.86
2005-02-16,29.86
2005-02-17,29.89
2005-02-18,29.74
2005-02-22,29.49
2005-02-23,29.83
2005-02-24,29.9
2005-02-25,30.1
2005-02-28,29.54
2005-03-01,29.83
2005-03-02,31.81
2005-03-03,31.17
2005-03-04,31.69
2005-03-07,31.7
2005-03-08,32.01
2005-03-09,32.14
2005-03-10,31.99
2005-03-11,31.97
2005-03-14,32.15
2005-03-15,31.94
2005-03-16,31.21
2005-03-17,31.16
2005-03-18,30.96
2005-03-21,31.21
2005-03-22,30.79
2005-03-23,31.31
2005-03-24,31.28
2005-03-28,31.91
2005-03-29,32.36
2005-03-30,32.23
2005-03-31,32.2
2005-04-01,32.1
2005-04-04,31.93
2005-04-05,32.22
2005-04-06,32.44
2005-04-07,32.42
2005-04-08,32.45
2005-04-11,33.12
2005-04-12,33.4
2005-04-13,33.04
2005-04-14,33.05
2005-04-15,33.07
2005-04-18,33.0
2005-04-19,33.35
2005-04-20,33.31
2005-04-21,34.3
2005-04-22,33.71
2005-04-25,33.81
2005-04-26,33.87
2005-04-27,34.29
2005-04-28,32.98
2005-04-29,33.54
2005-05-02,32.71
2005-05-03,32.55
2005-05-04,33.29
2005-05-05,33.02
2005-05-06,32.71
2005-05-09,32.67
2005-05-10,32.66
2005-05-11,33.2
2005-05-12,35.53
2005-05-13,34.93
2005-05-16,35.89
2005-05-17,35.74
2005-05-18,35.5
2005-05-19,35.74
2005-05-20,36.86
2005-05-23,37.03
2005-05-24,37.22
2005-05-25,37.23
2005-05-26,37.7
2005-05-27,37.71
2005-05-31,38.0
2005-06-01,38.49
2005-06-02,39.13
2005-06-03,39.09
2005-06-06,39.11
2005-06-07,39.07
2005-06-08,37.9
2005-06-09,38.49
2005-06-10,38.87
2005-06-13,39.28
2005-06-14,38.97
2005-06-15,38.55
2005-06-16,38.91
2005-06-17,38.8
2005-06-20,38.23
2005-06-21,38.05
2005-06-22,38.78
2005-06-23,38.37
2005-06-24,38.66
2005-06-27,38.82
2005-06-28,39.66
2005-06-29,39.15
2005-06-30,38.93
2005-07-01,38.7
2005-07-05,38.85
2005-07-06,38.29
2005-07-07,38.33
2005-07-08,38.99
2005-07-11,38.97
2005-07-12,38.7
2005-07-13,38.8
2005-07-14,38.97
2005-07-15,38.93
2005-07-18,38.43
2005-07-19,39.16
2005-07-20,39.1
2005-07-21,39.34
2005-07-22,39.05
2005-07-25,38.41
2005-07-26,37.99
2005-07-27,38.0
2005-07-28,37.67
2005-07-29,38.24
2005-08-01,38.91
2005-08-02,38.76
2005-08-03,38.64
2005-08-04,38.18
2005-08-05,38.26
2005-08-08,37.49
2005-08-09,37.37
2005-08-10,37.71
2005-08-11,38.54
2005-08-12,38.48
2005-08-15,38.95
2005-08-16,38.5
2005-08-17,38.33
2005-08-18,38.25
2005-08-19,37.78
2005-08-22,37.81
2005-08-23,37.98
2005-08-24,37.84
2005-08-25,37.6
2005-08-26,37.48
2005-08-29,38.32
2005-08-30,39.01
2005-08-31,39.78
2005-09-01,40.27
2005-09-02,40.13
2005-09-06,41.22
2005-09-07,41.49
2005-09-08,41.31
2005-09-09,41.3
2005-09-12,41.31
2005-09-13,40.9
2005-09-14,40.3
2005-09-15,40.75
2005-09-16,40.95
2005-09-19,40.66
2005-09-20,40.77
2005-09-21,40.18
2005-09-22,40.06
2005-09-23,40.56
2005-09-26,40.38
2005-09-27,40.32
2005-09-28,40.35
2005-09-29,40.75
2005-09-30,40.9
2005-10-03,40.96
2005-10-04,41.15
2005-10-05,40.34
2005-10-06,39.75
2005-10-07,39.83
2005-10-10,39.3
2005-10-11,38.57
2005-10-12,38.35
2005-10-13,38.0
2005-10-14,38.5
2005-10-17,38.47
2005-10-18,38.4
2005-10-19,38.57
2005-10-20,38.07
2005-10-21,38.26
2005-10-24,39.32
2005-10-25,39.29
2005-10-26,39.98
2005-10-27,39.31
2005-10-28,39.61
2005-10-31,39.89
2005-11-01,40.47
2005-11-02,40.77
2005-11-03,41.08
2005-11-04,41.1
2005-11-07,41.29
2005-11-08,41.06
2005-11-09,41.06
2005-11-10,44.83
2005-11-11,43.74
2005-11-14,44.21
2005-11-15,44.09
2005-11-16,43.93
2005-11-17,44.0
2005-11-18,44.53
2005-11-21,44.6
2005-11-22,44.89
2005-11-23,44.54
2005-11-25,44.2
2005-11-28,44.28
2005-11-29,44.11
2005-11-30,44.13
2005-12-01,44.32
2005-12-02,44.12
2005-12-05,44.7
2005-12-06,44.45
2005-12-07,44.5
2005-12-08,44.22
2005-12-09,44.19
2005-12-12,43.82
2005-12-13,43.7
2005-12-14,43.77
2005-12-15,43.97
2005-12-16,44.05
2005-12-19,43.85
2005-12-20,43.94
2005-12-21,44.06
2005-12-22,44.04
2005-12-23,43.89
2005-12-27,43.85
2005-12-28,43.7
2005-12-29,43.07
2005-12-30,42.78
2006-01-03,43.13
2006-01-04,44.0
2006-01-05,44.69
2006-01-06,44.74
2006-01-09,44.96
2006-01-10,44.85
2006-01-11,44.62
2006-01-12,44.8
2006-01-13,45.22
2006-01-17,45.3
2006-01-18,45.24
2006-01-19,45.38
2006-01-20,44.72
2006-01-23,45.48
2006-01-24,44.82
2006-01-25,43.79
2006-01-26,44.36
2006-01-27,45.04
2006-01-30,45.03
2006-01-31,44.71
2006-02-01,45.88
2006-02-02,45.74
2006-02-03,45.62
2006-02-06,45.64
2006-02-07,45.64
2006-02-08,46.01
2006-02-09,45.79
2006-02-10,45.55
2006-02-13,45.29
2006-02-14,45.95
2006-02-15,46.65
2006-02-16,46.43
2006-02-17,46.97
2006-02-21,47.15
2006-02-22,47.21
2006-02-23,47.59
2006-02-24,47.02
2006-02-27,47.04
2006-02-28,39.47
2006-03-01,39.17
2006-03-02,40.18
2006-03-03,40.49
2006-03-06,39.99
2006-03-07,39.76
2006-03-08,41.09
2006-03-09,40.46
2006-03-10,40.82
2006-03-13,40.99
2006-03-14,41.3
2006-03-15,41.79
2006-03-16,41.39
2006-03-17,41.62
2006-03-20,40.74
2006-03-21,39.85
2006-03-22,41.21
2006-03-23,40.52
2006-03-24,40.07
2006-03-27,39.37
2006-03-28,39.14
2006-03-29,39.56
2006-03-30,39.39
2006-03-31,39.41
2006-04-03,38.4
2006-04-04,38.32
2006-04-05,37.89
2006-04-06,37.49
2006-04-07,36.99
2006-04-10,37.3
2006-04-11,37.1
2006-04-12,37.0
2006-04-13,36.95
2006-04-17,36.89
2006-04-18,37.56
2006-04-19,38.56
2006-04-20,39.03
2006-04-21,38.79
2006-04-24,39.19
2006-04-25,38.7
2006-04-26,38.35
2006-04-27,38.67
2006-04-28,38.54
2006-05-01,38.58
2006-05-02,38.58
2006-05-03,38.31
2006-05-04,37.98
2006-05-05,38.28
2006-05-08,38.69
2006-05-09,42.06
2006-05-10,41.79
2006-05-11,41.04
2006-05-12,40.94
2006-05-15,41.43
2006-05-16,42.13
2006-05-17,41.88
2006-05-18,41.58
2006-05-19,42.19
2006-05-22,41.96
2006-05-23,41.91
2006-05-24,43.01
2006-05-25,43.23
2006-05-26,43.67
2006-05-30,43.28
2006-05-31,44.9
2006-06-01,45.17
2006-06-02,44.83
2006-06-05,44.06
2006-06-06,43.84
2006-06-07,43.66
2006-06-08,43.14
2006-06-09,43.16
2006-06-12,42.52
2006-06-13,41.76
2006-06-14,42.6
2006-06-15,43.54
2006-06-16,43.03
2006-06-19,42.64
2006-06-20,42.43
2006-06-21,42.43
2006-06-22,42.43
2006-06-23,42.84
2006-06-26,42.36
2006-06-27,41.73
2006-06-28,41.22
2006-06-29,42.93
2006-06-30,42.86
2006-07-03,43.61
2006-07-05,43.24
2006-07-06,43.0
2006-07-07,42.28
2006-07-10,42.1
2006-07-11,42.5
2006-07-12,42.65
2006-07-13,42.36
2006-07-14,41.89
2006-07-17,41.95
2006-07-18,42.36
2006-07-19,42.99
2006-07-20,42.84
2006-07-21,41.97
2006-07-24,42.71
2006-07-25,43.83
2006-07-26,43.83
2006-07-27,43.12
2006-07-28,43.85
2006-07-31,43.74
2006-08-01,43.07
2006-08-02,43.26
2006-08-03,43.53
2006-08-04,43.7
2006-08-07,42.6
2006-08-08,42.76
2006-08-09,35.22
2006-08-10,34.5
2006-08-11,34.36
2006-08-14,35.45
2006-08-15,34.81
2006-08-16,35.67
2006-08-17,37.16
2006-08-18,36.65
2006-08-21,36.66
2006-08-22,36.02
2006-08-23,35.81
2006-08-24,35.8
2006-08-25,36.29
2006-08-28,37.5
2006-08-29,37.87
2006-08-30,36.99
2006-08-31,36.71
2006-09-01,36.88
2006-09-05,36.72
2006-09-06,35.99
2006-09-07,35.49
2006-09-08,36.03
2006-09-11,35.98
2006-09-12,36.29
2006-09-13,35.94
2006-09-14,36.57
2006-09-15,37.05
2006-09-18,37.17
2006-09-19,36.84
2006-09-20,37.54
2006-09-21,39.18
2006-09-22,38.72
2006-09-25,37.99
2006-09-26,37.55
2006-09-27,37.34
2006-09-28,37.85
2006-09-29,38.31
2006-10-02,37.91
2006-10-03,37.37
2006-10-04,37.73
2006-10-05,38.21
2006-10-06,37.94
2006-10-09,38.17
2006-10-10,37.44
2006-10-11,37.28
2006-10-12,37.31
2006-10-13,37.73
2006-10-16,37.62
2006-10-17,37.45
2006-10-18,37.75
2006-10-19,38.09
2006-10-20,38.63
2006-10-23,38.4
2006-10-24,38.11
2006-10-25,37.76
2006-10-26,37.75
2006-10-27,36.96
2006-10-30,36.78
2006-10-31,36.31
2006-11-01,36.16
2006-11-02,36.48
2006-11-03,36.59
2006-11-06,36.71
2006-11-07,37.77
2006-11-08,33.33
2006-11-09,32.02
2006-11-10,32.2
2006-11-13,31.94
2006-11-14,31.63
2006-11-15,32.36
2006-11-16,32.5
2006-11-17,32.75
2006-11-20,32.22
2006-11-21,31.21
2006-11-22,32.61
2006-11-24,32.48
2006-11-27,32.38
2006-11-28,32.39
2006-11-29,32.95
2006-11-30,32.84
2006-12-01,32.9
2006-12-04,33.8
2006-12-05,34.4
2006-12-06,34.24
2006-12-07,34.19
2006-12-08,34.48
2006-12-11,34.28
2006-12-12,34.08
2006-12-13,33.84
2006-12-14,34.19
2006-12-15,34.18
2006-12-18,33.86
2006-12-19,33.53
2006-12-20,33.8
2006-12-21,33.81
2006-12-22,33.61
2006-12-26,33.73
2006-12-27,33.5
2006-12-28,33.58
2006-12-29,33.53
2007-01-03,33.85
2007-01-04,33.86
2007-01-05,33.86
2007-01-08,33.97
2007-01-09,34.73
2007-01-10,34.59
2007-01-11,34.76
2007-01-12,34.64
2007-01-16,34.53
2007-01-17,34.86
2007-01-18,34.93
2007-01-19,35.03
2007-01-22,35.74
2007-01-23,35.76
2007-01-24,35.91
2007-01-25,36.33
2007-01-26,36.75
2007-01-29,36.55
2007-01-30,36.65
2007-01-31,36.81
2007-02-01,36.88
2007-02-02,37.12
2007-02-05,37.26
2007-02-06,37.24
2007-02-07,37.14
2007-02-08,36.95
2007-02-09,36.78
2007-02-12,36.46
2007-02-13,36.92
2007-02-14,36.99
2007-02-15,37.03
2007-02-16,37.0
2007-02-20,37.31
2007-02-21,37.4
2007-02-22,37.55
2007-02-23,37.22
2007-02-26,37.01
2007-02-27,36.09
2007-02-28,38.27
2007-03-01,39.22
2007-03-02,39.13
2007-03-05,38.78
2007-03-06,38.95
2007-03-07,39.91
2007-03-08,40.2
2007-03-09,40.01
2007-03-12,39.91
2007-03-13,39.34
2007-03-14,39.39
2007-03-15,39.57
2007-03-16,39.13
2007-03-19,39.45
2007-03-20,39.3
2007-03-21,40.03
2007-03-22,39.75
2007-03-23,39.74
2007-03-26,39.58
2007-03-27,39.44
2007-03-28,40.54
2007-03-29,40.63
2007-03-30,40.85
2007-04-02,40.94
2007-04-03,41.06
2007-04-04,40.84
2007-04-05,40.9
2007-04-09,40.69
2007-04-10,40.71
2007-04-11,40.55
2007-04-12,40.81
2007-04-13,41.24
2007-04-16,41.56
2007-04-17,41.76
2007-04-18,41.4
2007-04-19,41.44
2007-04-20,41.54
2007-04-23,41.89
2007-04-24,41.21
2007-04-25,41.14
2007-04-26,41.03
2007-04-27,41.06
2007-04-30,40.58
2007-05-01,40.74
2007-05-02,41.44
2007-05-03,41.17
2007-05-04,40.95
2007-05-07,41.16
2007-05-08,40.88
2007-05-09,41.85
2007-05-10,41.2
2007-05-11,40.42
2007-05-14,39.96
2007-05-15,39.98
2007-05-16,39.79
2007-05-17,39.63
2007-05-18,39.7
2007-05-21,39.41
2007-05-22,39.2
2007-05-23,39.09
2007-05-24,38.6
2007-05-25,38.87
2007-05-29,38.96
2007-05-30,39.03
2007-05-31,39.86
2007-06-01,40.71
2007-06-04,40.51
2007-06-05,39.77
2007-06-06,39.41
2007-06-07,38.89
2007-06-08,39.43
2007-06-11,39.0
2007-06-12,38.83
2007-06-13,39.27
2007-06-14,39.31
2007-06-15,39.31
2007-06-18,39.26
2007-06-19,39.17
2007-06-20,38.84
2007-06-21,39.0
2007-06-22,38.71
2007-06-25,38.33
2007-06-26,38.56
2007-06-27,38.53
2007-06-28,38.86
2007-06-29,39.02
2007-07-02,38.95
2007-07-03,39.5
2007-07-05,40.05
2007-07-06,40.61
2007-07-09,40.35
2007-07-10,39.86
2007-07-11,40.1
2007-07-12,40.71
2007-07-13,40.72
2007-07-16,40.82
2007-07-17,40.5
2007-07-18,40.51
2007-07-19,40.52
2007-07-20,40.36
2007-07-23,40.28
2007-07-24,40.17
2007-07-25,40.35
2007-07-26,39.51
2007-07-27,38.59
2007-07-30,38.86
2007-07-31,38.64
2007-08-01,39.46
2007-08-02,39.39
2007-08-03,39.03
2007-08-06,39.19
2007-08-07,39.0
2007-08-08,39.0
2007-08-09,38.07
2007-08-10,38.58
2007-08-13,38.64
2007-08-14,38.58
2007-08-15,38.44
2007-08-16,37.54
2007-08-17,37.78
2007-08-20,37.63
2007-08-21,37.91
2007-08-22,37.97
2007-08-23,38.17
2007-08-24,38.61
2007-08-27,38.26
2007-08-28,38.03
2007-08-29,38.38
2007-08-30,38.3
2007-08-31,38.65
2007-09-04,38.89
2007-09-05,38.65
2007-09-06,39.0
2007-09-07,38.78
2007-09-10,39.07
2007-09-11,39.04
2007-09-12,39.05
2007-09-13,39.3
2007-09-14,39.24
2007-09-17,39.04
2007-09-18,39.57
2007-09-19,40.44
2007-09-20,40.28
2007-09-21,40.83
2007-09-24,40.67
2007-09-25,40.88
2007-09-26,41.25
2007-09-27,41.4
2007-09-28,41.4
2007-10-01,41.68
2007-10-02,41.56
2007-10-03,41.32
2007-10-04,41.43
2007-10-05,41.53
2007-10-08,41.3
2007-10-09,41.6
2007-10-10,41.63
2007-10-11,41.46
2007-10-12,41.19
2007-10-15,41.04
2007-10-16,41.1
2007-10-17,40.83
2007-10-18,40.91
2007-10-19,40.35
2007-10-22,40.3
2007-10-23,40.61
2007-10-24,40.42
2007-10-25,40.65
2007-10-26,40.88
2007-10-29,41.14
2007-10-30,40.9
2007-10-31,41.33
2007-11-01,41.3
2007-11-02,41.45
2007-11-05,41.13
2007-11-06,41.83
2007-11-07,41.02
2007-11-08,39.65
2007-11-09,39.49
2007-11-12,39.46
2007-11-13,40.72
2007-11-14,41.08
2007-11-15,40.44
2007-11-16,41.36
2007-11-19,41.72
2007-11-20,42.08
2007-11-21,42.4
2007-11-23,42.38
2007-11-26,41.96
2007-11-27,42.68
2007-11-28,42.99
2007-11-29,42.94
2007-11-30,43.25
2007-12-03,42.53
2007-12-04,43.09
2007-12-05,43.09
2007-12-06,43.3
2007-12-07,43.9
2007-12-10,43.54
2007-12-11,42.83
2007-12-12,44.09
2007-12-13,44.44
2007-12-14,44.09
2007-12-17,42.75
2007-12-18,43.17
2007-12-19,42.77
2007-12-20,43.06
2007-12-21,42.97
2007-12-24,43.21
2007-12-26,43.48
2007-12-27,43.17
2007-12-28,43.25
2007-12-31,42.66
2008-01-02,42.01
2008-01-03,41.69
2008-01-04,40.75
2008-01-07,40.69
2008-01-08,40.67
2008-01-09,42.42
2008-01-10,42.02
2008-01-11,42.88
2008-01-14,42.51
2008-01-15,41.95
2008-01-16,42.19
2008-01-17,42.53
2008-01-18,41.53
2008-01-22,40.81
2008-01-23,40.81
2008-01-24,40.72
2008-01-25,39.96
2008-01-28,40.57
2008-01-29,40.78
2008-01-30,40.58
2008-01-31,41.03
2008-02-01,41.7
2008-02-04,41.72
2008-02-05,41.03
2008-02-06,41.06
2008-02-07,41.39
2008-02-08,41.09
2008-02-11,41.27
2008-02-12,41.53
2008-02-13,41.5
2008-02-14,41.04
2008-02-15,41.31
2008-02-19,41.02
2008-02-20,41.21
2008-02-21,40.42
2008-02-22,40.52
2008-02-25,40.59
2008-02-26,40.19
2008-02-27,39.7
2008-02-28,42.98
2008-02-29,42.55
2008-03-03,42.93
2008-03-04,43.8
2008-03-05,43.41
2008-03-06,42.75
2008-03-07,42.05
2008-03-10,42.03
2008-03-11,42.19
2008-03-12,42.31
2008-03-13,42.38
2008-03-14,42.05
2008-03-17,42.08
2008-03-18,42.98
2008-03-19,42.68
2008-03-20,43.0
2008-03-24,43.39
2008-03-25,43.3
2008-03-26,42.73
2008-03-27,42.57
2008-03-28,42.29
2008-03-31,42.71
2008-04-01,43.52
2008-04-02,43.47
2008-04-03,42.83
2008-04-04,42.98
2008-04-07,42.78
2008-04-08,42.63
2008-04-09,42.65
2008-04-10,42.01
2008-04-11,40.9
2008-04-14,40.61
2008-04-15,40.21
2008-04-16,40.73
2008-04-17,40.65
2008-04-18,41.33
2008-04-21,41.24
2008-04-22,40.92
2008-04-23,41.47
2008-04-24,41.88
2008-04-25,41.64
2008-04-28,41.81
2008-04-29,41.88
2008-04-30,41.18
2008-05-01,42.24
2008-05-02,41.95
2008-05-05,42.07
2008-05-06,41.69
2008-05-07,40.42
2008-05-08,40.7
2008-05-09,40.96
2008-05-12,40.91
2008-05-13,40.92
2008-05-14,40.44
2008-05-15,40.14
2008-05-16,39.9
2008-05-19,39.75
2008-05-20,39.93
2008-05-21,39.4
2008-05-22,39.95
2008-05-23,39.79
2008-05-27,40.23
2008-05-28,40.59
2008-05-29,41.42
2008-05-30,41.89
2008-06-02,41.49
2008-06-03,41.9
2008-06-04,42.22
2008-06-05,42.62
2008-06-06,41.8
2008-06-09,41.8
2008-06-10,41.72
2008-06-11,41.29
2008-06-12,41.23
2008-06-13,41.3
2008-06-16,40.79
2008-06-17,40.71
2008-06-18,39.92
2008-06-19,39.93
2008-06-20,40.0
2008-06-23,39.94
2008-06-24,39.7
2008-06-25,39.83
2008-06-26,39.69
2008-06-27,39.26
2008-06-30,40.13
2008-07-01,40.16
2008-07-02,40.34
2008-07-03,38.62
2008-07-07,39.05
2008-07-08,39.3
2008-07-09,38.96
2008-07-10,38.95
2008-07-11,38.8
2008-07-14,38.78
2008-07-15,38.95
2008-07-16,38.57
2008-07-17,38.65
2008-07-18,38.25
2008-07-21,37.46
2008-07-22,38.25
2008-07-23,38.0
2008-07-24,38.0
2008-07-25,38.32
2008-07-28,37.9
2008-07-29,37.87
2008-07-30,37.77
2008-07-31,38.15
2008-08-01,36.99
2008-08-04,37.75
2008-08-05,38.2
2008-08-06,38.35
2008-08-07,38.04
2008-08-08,38.82
2008-08-11,39.02
2008-08-12,39.7
2008-08-13,40.0
2008-08-14,39.37
2008-08-15,39.66
2008-08-18,39.22
2008-08-19,38.84
2008-08-20,38.32
2008-08-21,38.77
2008-08-22,39.0
2008-08-25,38.74
2008-08-26,39.12
2008-08-27,39.31
2008-08-28,40.25
2008-08-29,40.31
2008-09-02,39.9
2008-09-03,40.22
2008-09-04,39.41
2008-09-05,39.02
2008-09-08,39.76
2008-09-09,39.52
2008-09-10,39.37
2008-09-11,39.29
2008-09-12,39.49
2008-09-15,39.45
2008-09-16,39.55
2008-09-17,38.79
2008-09-18,39.42
2008-09-19,38.59
2008-09-22,37.49
2008-09-23,37.7
2008-09-24,38.63
2008-09-25,39.25
2008-09-26,39.26
2008-09-29,38.68
2008-09-30,38.17
2008-10-01,38.39
2008-10-02,37.59
2008-10-03,37.35
2008-10-06,35.81
2008-10-07,34.63
2008-10-08,32.63
2008-10-09,30.08
2008-10-10,29.5
2008-10-13,31.91
2008-10-14,31.63
2008-10-15,30.15
2008-10-16,30.21
2008-10-17,29.62
2008-10-20,30.1
2008-10-21,29.79
2008-10-22,27.84
2008-10-23,28.02
2008-10-24,27.31
2008-10-27,26.08
2008-10-28,26.72
2008-10-29,25.49
2008-10-30,27.32
2008-10-31,27.67
2008-11-03,28.59
2008-11-04,28.73
2008-11-05,30.56
2008-11-06,29.98
2008-11-07,30.85
2008-11-10,30.63
2008-11-11,30.23
2008-11-12,29.3
2008-11-13,31.01
2008-11-14,30.17
2008-11-17,29.46
2008-11-18,28.99
2008-11-19,27.2
2008-11-20,26.28
2008-11-21,27.11
2008-11-24,28.91
2008-11-25,28.82
2008-11-26,29.1
2008-11-28,30.03
2008-12-01,28.13
2008-12-02,28.54
2008-12-03,29.01
2008-12-04,27.32
2008-12-05,27.57
2008-12-08,28.61
2008-12-09,27.96
2008-12-10,28.05
2008-12-11,27.69
2008-12-12,26.82
2008-12-15,26.55
2008-12-16,27.83
2008-12-17,27.86
2008-12-18,26.62
2008-12-19,26.11
2008-12-22,26.15
2008-12-23,25.65
2008-12-24,25.82
2008-12-26,25.88
2008-12-29,25.8
2008-12-30,26.27
2008-12-31,26.85
2009-01-02,27.45
2009-01-05,26.93
2009-01-06,26.98
2009-01-07,26.86
2009-01-08,26.02
2009-01-09,25.98
2009-01-12,25.79
2009-01-13,25.5
2009-01-14,24.64
2009-01-15,24.99
2009-01-16,27.03
2009-01-20,24.77
2009-01-21,24.63
2009-01-22,24.41
2009-01-23,24.1
2009-01-26,23.7
2009-01-27,24.56
2009-01-28,25.46
2009-01-29,25.34
2009-01-30,24.93
2009-02-02,25.17
2009-02-03,25.57
2009-02-04,25.82
2009-02-05,25.86
2009-02-06,26.38
2009-02-09,25.96
2009-02-10,25.18
2009-02-11,25.44
2009-02-12,26.28
2009-02-13,26.51
2009-02-17,25.3
2009-02-18,25.54
2009-02-19,25.79
2009-02-20,25.53
2009-02-23,24.94
2009-02-24,25.32
2009-02-25,24.85
2009-02-26,24.02
2009-02-27,23.22
2009-03-02,21.9
2009-03-03,22.35
2009-03-04,23.03
2009-03-05,21.83
2009-03-06,22.21
2009-03-09,21.39
2009-03-10,22.33
2009-03-11,22.94
2009-03-12,23.83
2009-03-13,24.55
2009-03-16,24.8
2009-03-17,25.27
2009-03-18,25.64
2009-03-19,25.25
2009-03-20,25.1
2009-03-23,26.3
2009-03-24,28.25
2009-03-25,29.8
2009-03-26,30.62
2009-03-27,30.78
2009-03-30,30.52
2009-03-31,30.89
2009-04-01,30.59
2009-04-02,31.47
2009-04-03,30.34
2009-04-06,30.69
2009-04-07,30.94
2009-04-08,31.36
2009-04-09,32.06
2009-04-13,32.45
2009-04-14,32.37
2009-04-15,31.4
2009-04-16,31.63
2009-04-17,32.89
2009-04-20,31.92
2009-04-21,31.8
2009-04-22,31.75
2009-04-23,30.88
2009-04-24,31.48
2009-04-27,31.37
2009-04-28,33.01
2009-04-29,32.73
2009-04-30,32.88
2009-05-01,32.21
2009-05-04,32.28
2009-05-05,32.59
2009-05-06,32.59
2009-05-07,33.35
2009-05-08,33.86
2009-05-11,33.75
2009-05-12,33.93
2009-05-13,33.32
2009-05-14,32.82
2009-05-15,33.02
2009-05-18,33.68
2009-05-19,33.51
2009-05-20,33.5
2009-05-21,32.83
2009-05-22,32.76
2009-05-26,34.14
2009-05-27,33.93
2009-05-28,33.68
2009-05-29,34.45
2009-06-01,34.99
2009-06-02,36.37
2009-06-03,35.95
2009-06-04,35.51
2009-06-05,35.12
2009-06-08,34.5
2009-06-09,34.32
2009-06-10,34.28
2009-06-11,34.92
2009-06-12,34.99
2009-06-15,34.16
2009-06-16,33.63
2009-06-17,33.67
2009-06-18,34.55
2009-06-19,36.62
2009-06-22,36.09
2009-06-23,35.68
2009-06-24,36.6
2009-06-25,38.33
2009-06-26,38.67
2009-06-29,38.84
2009-06-30,38.54
2009-07-01,38.01
2009-07-02,37.42
2009-07-06,37.76
2009-07-07,37.44
2009-07-08,36.66
2009-07-09,36.11
2009-07-10,37.1
2009-07-13,37.0
2009-07-14,37.11
2009-07-15,37.8
2009-07-16,37.88
2009-07-17,37.15
2009-07-20,37.09
2009-07-21,37.21
2009-07-22,36.82
2009-07-23,37.22
2009-07-24,37.63
2009-07-27,37.4
2009-07-28,37.31
2009-07-29,39.03
2009-07-30,38.73
2009-07-31,38.47
2009-08-03,39.4
2009-08-04,39.62
2009-08-05,38.86
2009-08-06,38.1
2009-08-07,38.63
2009-08-10,39.28
2009-08-11,39.61
2009-08-12,40.14
2009-08-13,40.48
2009-08-14,39.99
2009-08-17,39.16
2009-08-18,38.83
2009-08-19,39.76
2009-08-20,39.95
2009-08-21,40.32
2009-08-24,40.12
2009-08-25,40.2
2009-08-26,39.97
2009-08-27,40.15
2009-08-28,39.57
2009-08-31,39.1
2009-09-01,39.2
2009-09-02,39.08
2009-09-03,39.25
2009-09-04,39.64
2009-09-08,39.24
2009-09-09,39.64
2009-09-10,40.63
2009-09-11,40.83
2009-09-14,41.07
2009-09-15,41.63
2009-09-16,42.16
2009-09-17,43.57
2009-09-18,43.08
2009-09-21,43.66
2009-09-22,43.7
2009-09-23,44.02
2009-09-24,44.39
2009-09-25,44.34
2009-09-28,44.84
2009-09-29,44.8
2009-09-30,44.57
2009-10-01,43.33
2009-10-02,43.21
2009-10-05,43.73
2009-10-06,43.95
2009-10-07,44.17
2009-10-08,44.26
2009-10-09,44.84
2009-10-12,45.24
2009-10-13,44.93
2009-10-14,45.28
2009-10-15,45.79
2009-10-16,46.19
2009-10-19,46.94
2009-10-20,46.45
2009-10-21,45.89
2009-10-22,46.13
2009-10-23,46.02
2009-10-26,46.34
2009-10-27,47.09
2009-10-28,45.71
2009-10-29,45.44
2009-10-30,44.71
2009-11-02,44.87
2009-11-03,45.19
2009-11-04,45.66
2009-11-05,47.16
2009-11-06,46.54
2009-11-09,47.44
2009-11-10,47.97
2009-11-11,48.04
2009-11-12,47.15
2009-11-13,47.74
2009-11-16,48.08
2009-11-17,48.16
2009-11-18,47.65
2009-11-19,47.07
2009-11-20,46.89
2009-11-23,47.48
2009-11-24,47.44
2009-11-25,47.74
2009-11-27,47.05
2009-11-30,46.95
2009-12-01,47.87
2009-12-02,48.57
2009-12-03,47.79
2009-12-04,48.13
2009-12-07,47.87
2009-12-08,47.84
2009-12-09,47.56
2009-12-10,48.07
2009-12-11,47.51
2009-12-14,48.94
2009-12-15,49.43
2009-12-16,48.85
2009-12-17,47.81
2009-12-18,47.59
2009-12-21,48.28
2009-12-22,49.41
2009-12-23,50.1
2009-12-24,50.19
2009-12-28,50.57
2009-12-29,51.08
2009-12-30,51.09
2009-12-31,51.04
2010-01-04,50.92
2010-01-05,50.92
2010-01-06,50.38
2010-01-07,51.1
2010-01-08,51.43
2010-01-11,52.22
2010-01-12,52.1
2010-01-13,51.92
2010-01-14,52.21
2010-01-15,51.29
2010-01-19,51.48
2010-01-20,51.49
2010-01-21,51.2
2010-01-22,50.46
2010-01-25,51.23
2010-01-26,51.15
2010-01-27,51.33
2010-01-28,50.99
2010-01-29,50.7
2010-02-01,50.65
2010-02-02,51.48
2010-02-03,51.79
2010-02-04,49.08
2010-02-05,48.48
2010-02-08,48.83
2010-02-09,49.34
2010-02-10,49.45
2010-02-11,50.04
2010-02-12,49.87
2010-02-16,50.87
2010-02-17,51.65
2010-02-18,51.79
2010-02-19,51.82
2010-02-22,51.64
2010-02-23,50.84
2010-02-24,51.68
2010-02-25,52.11
2010-02-26,52.39
2010-03-01,53.38
2010-03-02,53.81
2010-03-03,53.68
2010-03-04,53.83
2010-03-05,53.89
2010-03-08,53.18
2010-03-09,53.58
2010-03-10,54.2
2010-03-11,54.22
2010-03-12,54.0
2010-03-15,54.78
2010-03-16,55.88
2010-03-17,56.0
2010-03-18,56.11
2010-03-19,56.62
2010-03-22,57.37
2010-03-23,57.21
2010-03-24,57.04
2010-03-25,56.82
2010-03-26,56.51
2010-03-29,56.81
2010-03-30,56.88
2010-03-31,56.67
2010-04-01,56.48
2010-04-05,56.96
2010-04-06,56.64
2010-04-07,56.04
2010-04-08,56.19
2010-04-09,56.26
2010-04-12,56.1
2010-04-13,57.51
2010-04-14,57.98
2010-04-15,57.74
2010-04-16,57.06
2010-04-19,55.55
2010-04-20,57.22
2010-04-21,57.03
2010-04-22,56.9
2010-04-23,57.01
2010-04-26,56.01
2010-04-27,54.53
2010-04-28,53.95
2010-04-29,54.87
2010-04-30,53.84
2010-05-03,53.59
2010-05-04,55.62
2010-05-05,54.99
2010-05-06,53.43
2010-05-07,52.18
2010-05-10,53.86
2010-05-11,53.5
2010-05-12,53.35
2010-05-13,53.06
2010-05-14,52.08
2010-05-17,52.92
2010-05-18,52.74
2010-05-19,52.16
2010-05-20,50.19
2010-05-21,50.65
2010-05-24,50.8
2010-05-25,50.26
2010-05-26,50.48
2010-05-27,52.07
2010-05-28,52.04
2010-06-01,50.65
2010-06-02,51.81
2010-06-03,52.39
2010-06-04,50.78
2010-06-07,50.09
2010-06-08,50.36
2010-06-09,51.33
2010-06-10,52.89
2010-06-11,53.81
2010-06-14,53.94
2010-06-15,55.67
2010-06-16,55.8
2010-06-17,56.22
2010-06-18,56.41
2010-06-21,56.62
2010-06-22,55.37
2010-06-23,56.52
2010-06-24,57.11
2010-06-25,57.61
2010-06-28,57.78
2010-06-29,57.22
2010-06-30,57.46
2010-07-01,57.11
2010-07-02,57.18
2010-07-06,58.01
2010-07-07,58.83
2010-07-08,58.64
2010-07-09,58.18
2010-07-12,58.24
2010-07-13,58.97
2010-07-14,59.69
2010-07-15,58.7
2010-07-16,57.32
2010-07-19,57.81
2010-07-20,57.52
2010-07-21,56.45
2010-07-22,57.56
2010-07-23,57.19
2010-07-26,58.0
2010-07-27,56.77
2010-07-28,52.61
2010-07-29,51.6
2010-07-30,52.15
2010-08-02,52.93
2010-08-03,52.44
2010-08-04,51.49
2010-08-05,51.99
2010-08-06,51.85
2010-08-09,51.83
2010-08-10,51.58
2010-08-11,50.26
2010-08-12,51.74
2010-08-13,52.53
2010-08-16,52.42
2010-08-17,53.5
2010-08-18,53.16
2010-08-19,52.14
2010-08-20,51.39
2010-08-23,51.74
2010-08-24,51.16
2010-08-25,51.75
2010-08-26,51.03
2010-08-27,51.78
2010-08-30,51.33
2010-08-31,51.37
2010-09-01,52.81
2010-09-02,54.01
2010-09-03,54.32
2010-09-07,53.95
2010-09-08,53.98
2010-09-09,54.47
2010-09-10,54.67
2010-09-13,54.66
2010-09-14,54.61
2010-09-15,55.39
2010-09-16,55.66
2010-09-17,55.67
2010-09-20,56.27
2010-09-21,55.7
2010-09-22,55.33
2010-09-23,55.03
2010-09-24,55.24
2010-09-27,57.01
2010-09-28,57.82
2010-09-29,57.54
2010-09-30,56.98
2010-10-01,56.47
2010-10-04,56.21
2010-10-05,56.85
2010-10-06,56.39
2010-10-07,56.43
2010-10-08,56.45
2010-10-11,56.62
2010-10-12,57.03
2010-10-13,57.38
2010-10-14,57.87
2010-10-15,58.3
2010-10-18,58.34
2010-10-19,57.75
2010-10-20,58.01
2010-10-21,59.44
2010-10-22,59.34
2010-10-25,58.58
2010-10-26,58.64
2010-10-27,59.18
2010-10-28,58.9
2010-10-29,59.54
2010-11-01,59.51
2010-11-02,59.6
2010-11-03,59.42
2010-11-04,59.54
2010-11-05,59.52
2010-11-08,59.05
2010-11-09,59.23
2010-11-10,59.37
2010-11-11,59.12
2010-11-12,58.15
2010-11-15,58.07
2010-11-16,57.33
2010-11-17,56.93
2010-11-18,57.29
2010-11-19,57.71
2010-11-22,57.45
2010-11-23,56.54
2010-11-24,57.23
2010-11-26,56.79
2010-11-29,56.3
2010-11-30,56.21
2010-12-01,56.18
2010-12-02,56.53
2010-12-03,56.84
2010-12-06,55.64
2010-12-07,55.07
2010-12-08,54.84
2010-12-09,56.1
2010-12-10,56.32
2010-12-13,55.98
2010-12-14,56.58
2010-12-15,56.4
2010-12-16,57.26
2010-12-17,57.47
2010-12-20,57.3
2010-12-21,56.85
2010-12-22,56.74
2010-12-23,56.64
2010-12-27,56.57
2010-12-28,56.0
2010-12-29,55.51
2010-12-30,55.82
2010-12-31,55.65
2011-01-03,55.0
2011-01-04,54.87
2011-01-05,54.6
2011-01-06,54.73
2011-01-07,55.17
2011-01-10,55.55
2011-01-11,55.4
2011-01-12,56.26
2011-01-13,56.22
2011-01-14,56.29
2011-01-18,56.82
2011-01-19,56.29
2011-01-20,55.65
2011-01-21,55.25
2011-01-24,55.24
2011-01-25,55.59
2011-01-26,56.25
2011-01-27,55.73
2011-01-28,54.6
2011-01-31,55.26
2011-02-01,55.05
2011-02-02,51.07
2011-02-03,51.99
2011-02-04,52.37
2011-02-07,52.66
2011-02-08,52.45
2011-02-09,53.39
2011-02-10,53.18
2011-02-11,54.25
2011-02-14,54.05
2011-02-15,55.0
2011-02-16,54.98
2011-02-17,54.59
2011-02-18,54.6
2011-02-22,53.17
2011-02-23,52.81
2011-02-24,52.45
2011-02-25,53.31
2011-02-28,52.84
2011-03-01,52.01
2011-03-02,52.99
2011-03-03,54.02
2011-03-04,54.13
2011-03-07,53.31
2011-03-08,53.61
2011-03-09,54.56
2011-03-10,54.91
2011-03-11,55.01
2011-03-14,54.25
2011-03-15,53.01
2011-03-16,51.84
2011-03-17,52.06
2011-03-18,51.81
2011-03-21,52.14
2011-03-22,51.91
2011-03-23,52.91
2011-03-24,54.01
2011-03-25,54.02
2011-03-28,53.98
2011-03-29,54.55
2011-03-30,55.05
2011-03-31,55.21
2011-04-01,56.14
2011-04-04,56.3
2011-04-05,56.54
2011-04-06,56.05
2011-04-07,56.3
2011-04-08,55.74
2011-04-11,55.83
2011-04-12,56.1
2011-04-13,56.52
2011-04-14,55.7
2011-04-15,56.02
2011-04-18,55.97
2011-04-19,56.46
2011-04-20,57.32
2011-04-21,57.78
2011-04-25,58.15
2011-04-26,57.39
2011-04-27,57.05
2011-04-28,57.07
2011-04-29,56.73
2011-05-02,56.99
2011-05-03,56.91
2011-05-04,55.85
2011-05-05,55.91
2011-05-06,56.5
2011-05-09,56.77
2011-05-10,56.93
2011-05-11,55.93
2011-05-12,56.18
2011-05-13,55.48
2011-05-16,54.95
2011-05-17,54.56
2011-05-18,55.07
2011-05-19,54.56
2011-05-20,55.05
2011-05-23,53.99
2011-05-24,54.06
2011-05-25,54.21
2011-05-26,54.62
2011-05-27,55.01
2011-05-31,55.25
2011-06-01,54.91
2011-06-02,54.3
2011-06-03,53.91
2011-06-06,53.87
2011-06-07,54.32
2011-06-08,53.68
2011-06-09,54.75
2011-06-10,54.03
2011-06-13,54.13
2011-06-14,54.12
2011-06-15,53.83
2011-06-16,54.17
2011-06-17,54.12
2011-06-20,54.85
2011-06-21,55.49
2011-06-22,55.21
2011-06-23,55.17
2011-06-24,54.75
2011-06-27,55.45
2011-06-28,56.25
2011-06-29,56.24
2011-06-30,56.69
2011-07-01,55.67
2011-07-05,54.13
2011-07-06,53.9
2011-07-07,54.17
2011-07-08,53.71
2011-07-11,53.07
2011-07-12,53.11
2011-07-13,52.98
2011-07-14,52.72
2011-07-15,53.4
2011-07-18,52.7
2011-07-19,53.23
2011-07-20,52.56
2011-07-21,53.6
2011-07-22,52.82
2011-07-25,52.58
2011-07-26,52.08
2011-07-27,52.51
2011-07-28,51.61
2011-07-29,51.18
2011-08-01,49.7
2011-08-02,47.78
2011-08-03,48.7
2011-08-04,47.14
2011-08-05,47.57
2011-08-08,44.44
2011-08-09,45.28
2011-08-10,42.75
2011-08-11,44.64
2011-08-12,44.63
2011-08-15,45.39
2011-08-16,44.53
2011-08-17,44.79
2011-08-18,42.9
2011-08-19,42.61
2011-08-22,42.82
2011-08-23,44.51
2011-08-24,44.7
2011-08-25,43.76
2011-08-26,44.47
2011-08-29,45.77
2011-08-30,46.02
2011-08-31,46.1
2011-09-01,46.27
2011-09-02,44.59
2011-09-06,44.28
2011-09-07,45.55
2011-09-08,43.32
2011-09-09,41.27
2011-09-12,40.58
2011-09-13,39.52
2011-09-14,39.68
2011-09-15,39.51
2011-09-16,39.44
2011-09-19,38.5
2011-09-20,37.86
2011-09-21,36.19
2011-09-22,34.47
2011-09-23,37.38
2011-09-26,37.27
2011-09-27,38.4
2011-09-28,37.66
2011-09-29,37.62
2011-09-30,37.02
2011-10-03,35.77
2011-10-04,36.7
2011-10-05,37.18
2011-10-06,37.74
2011-10-07,37.23
2011-10-10,38.56
2011-10-11,38.33
2011-10-12,38.76
2011-10-13,38.04
2011-10-14,38.05
2011-10-17,37.28
2011-10-18,29.39
2011-10-19,29.64
2011-10-20,28.68
2011-10-21,29.35
2011-10-24,30.63
2011-10-25,30.26
2011-10-26,30.01
2011-10-27,31.08
2011-10-28,31.74
2011-10-31,31.47
2011-11-01,30.95
2011-11-02,31.43
2011-11-03,31.95
2011-11-04,31.27
2011-11-07,31.98
2011-11-08,32.98
2011-11-09,31.4
2011-11-10,31.62
2011-11-11,32.38
2011-11-14,31.19
2011-11-15,31.29
2011-11-16,30.98
2011-11-17,30.76
2011-11-18,30.89
2011-11-21,30.84
2011-11-22,30.57
2011-11-23,30.21
2011-11-25,30.18
2011-11-28,30.96
2011-11-29,28.15
2011-11-30,28.17
2011-12-01,28.28
2011-12-02,27.72
2011-12-05,27.89
2011-12-06,28.17
2011-12-07,27.89
2011-12-08,27.26
2011-12-09,28.11
2011-12-12,27.91
2011-12-13,28.07
2011-12-14,28.21
2011-12-15,28.83
2011-12-16,28.96
2011-12-19,28.65
2011-12-20,29.16
2011-12-21,29.26
2011-12-22,30.44
2011-12-23,30.93
2011-12-27,30.55
2011-12-28,30.13
2011-12-29,30.62
2011-12-30,30.39
2012-01-03,31.36
2012-01-04,31.35
2012-01-05,30.89
2012-01-06,30.3
2012-01-09,30.11
2012-01-10,30.31
2012-01-11,31.78
2012-01-12,32.24
2012-01-13,31.54
2012-01-17,32.15
2012-01-18,32.98
2012-01-19,33.95
2012-01-20,34.19
2012-01-23,34.08
2012-01-24,34.0
2012-01-25,35.44
2012-01-26,35.02
2012-01-27,35.32
2012-01-30,34.72
2012-01-31,34.49
2012-02-01,34.48
2012-02-02,34.68
2012-02-03,35.19
2012-02-06,35.43
2012-02-07,35.28
2012-02-08,34.75
2012-02-09,34.08
2012-02-10,33.73
2012-02-13,34.15
2012-02-14,36.29
2012-02-15,36.4
2012-02-16,37.98
2012-02-17,37.14
2012-02-21,36.88
2012-02-22,36.28
2012-02-23,36.36
2012-02-24,36.15
2012-02-27,36.41
2012-02-28,36.45
2012-02-29,35.61
2012-03-01,35.46
2012-03-02,35.01
2012-03-05,34.51
2012-03-06,33.94
2012-03-07,34.44
2012-03-08,35.25
2012-03-09,35.89
2012-03-12,35.6
2012-03-13,36.68
2012-03-14,36.81
2012-03-15,36.82
2012-03-16,37.14
2012-03-19,37.34
2012-03-20,37.36
2012-03-21,37.04
2012-03-22,37.02
2012-03-23,36.71
2012-03-26,38.01
2012-03-27,38.13
2012-03-28,37.81
2012-03-29,37.7
2012-03-30,37.37
2012-04-02,37.59
2012-04-03,36.85
2012-04-04,36.11
2012-04-05,36.16
2012-04-09,35.14
2012-04-10,34.77
2012-04-11,35.13
2012-04-12,35.2
2012-04-13,34.41
2012-04-16,34.47
2012-04-17,35.0
2012-04-18,34.92
2012-04-19,34.38
2012-04-20,34.44
2012-04-23,34.13
2012-04-24,34.5
2012-04-25,35.0
2012-04-26,35.1
2012-04-27,35.42
2012-04-30,35.23
2012-05-01,35.45
2012-05-02,35.59
2012-05-03,34.44
2012-05-04,33.91
2012-05-07,34.13
2012-05-08,34.1
2012-05-09,33.95
2012-05-10,33.76
2012-05-11,33.33
2012-05-14,32.73
2012-05-15,32.7
2012-05-16,32.88
2012-05-17,32.58
2012-05-18,31.83
2012-05-21,32.63
2012-05-22,32.75
2012-05-23,31.95
2012-05-24,31.95
2012-05-25,32.36
2012-05-29,32.59
2012-05-30,31.91
2012-05-31,31.28
2012-06-01,31.36
2012-06-04,32.0
2012-06-05,32.12
2012-06-06,32.42
2012-06-07,32.39
2012-06-08,32.74
2012-06-11,32.4
2012-06-12,32.29
2012-06-13,32.18
2012-06-14,32.32
2012-06-15,33.65
2012-06-18,33.72
2012-06-19,34.4
2012-06-20,34.48
2012-06-21,33.55
2012-06-22,34.11
2012-06-25,33.14
2012-06-26,33.22
2012-06-27,33.82
2012-06-28,34.13
2012-06-29,34.92
2012-07-02,34.95
2012-07-03,34.78
2012-07-05,34.49
2012-07-06,33.99
2012-07-09,34.04
2012-07-10,34.13
2012-07-11,34.63
2012-07-12,34.3
2012-07-13,34.08
2012-07-16,33.79
2012-07-17,34.5
2012-07-18,36.16
2012-07-19,36.65
2012-07-20,35.46
2012-07-23,34.36
2012-07-24,33.63
2012-07-25,34.03
2012-07-26,34.5
2012-07-27,35.03
2012-07-30,34.88
2012-07-31,34.82
2012-08-01,36.41
2012-08-02,35.28
2012-08-03,34.58
2012-08-06,34.58
2012-08-07,34.79
2012-08-08,34.58
2012-08-09,34.34
2012-08-10,34.15
2012-08-13,33.7
2012-08-14,33.83
2012-08-15,33.9
2012-08-16,33.85
2012-08-17,33.97
2012-08-20,34.12
2012-08-21,34.02
2012-08-22,33.84
2012-08-23,33.35
2012-08-24,33.72
2012-08-27,33.8
2012-08-28,33.35
2012-08-29,33.62
2012-08-30,33.48
2012-08-31,33.67
2012-09-04,33.98
2012-09-05,34.02
2012-09-06,34.37
2012-09-07,34.93
2012-09-10,34.15
2012-09-11,34.3
2012-09-12,34.39
2012-09-13,34.91
2012-09-14,34.6
2012-09-17,34.7
2012-09-18,35.26
2012-09-19,35.11
2012-09-20,35.01
2012-09-21,34.65
2012-09-24,34.26
2012-09-25,34.17
2012-09-26,33.41
2012-09-27,33.19
2012-09-28,32.81
2012-10-01,32.8
2012-10-02,33.64
2012-10-03,33.83
2012-10-04,33.58
2012-10-05,33.41
2012-10-08,33.47
2012-10-09,32.77
2012-10-10,32.64
2012-10-11,32.72
2012-10-12,32.38
2012-10-15,32.24
2012-10-16,32.5
2012-10-17,32.72
2012-10-18,32.09
2012-10-19,31.42
2012-10-22,31.49
2012-10-23,30.67
2012-10-24,30.9
2012-10-25,31.26
2012-10-26,30.96
2012-10-31,30.86
2012-11-01,31.08
2012-11-02,30.55
2012-11-05,30.58
2012-11-06,30.54
2012-11-07,31.4
2012-11-08,29.94
2012-11-09,29.96
2012-11-12,29.95
2012-11-13,29.58
2012-11-14,29.27
2012-11-15,28.94
2012-11-16,28.99
2012-11-19,29.54
2012-11-20,29.33
2012-11-21,29.25
2012-11-23,29.24
2012-11-26,29.09
2012-11-27,29.2
2012-11-28,29.66
2012-11-29,29.91
2012-11-30,29.8
2012-12-03,30.19
2012-12-04,30.92
2012-12-05,30.98
2012-12-06,31.28
2012-12-07,31.56
2012-12-10,32.04
2012-12-11,32.05
2012-12-12,31.78
2012-12-13,31.73
2012-12-14,31.84
2012-12-17,31.94
2012-12-18,32.13
2012-12-19,32.09
2012-12-20,32.31
2012-12-21,32.11
2012-12-24,31.96
2012-12-26,31.34
2012-12-27,31.14
2012-12-28,30.71
2012-12-31,31.2
2013-01-02,31.74
2013-01-03,32.2
2013-01-04,32.37
2013-01-07,32.53
2013-01-08,32.33
2013-01-09,34.07
2013-01-10,34.01
2013-01-11,34.1
2013-01-14,34.36
2013-01-15,34.74
2013-01-16,34.92
2013-01-17,34.9
2013-01-18,34.87
2013-01-22,35.99
2013-01-23,35.21
2013-01-24,35.0
2013-01-25,35.07
2013-01-28,34.4
2013-01-29,34.38
2013-01-30,34.315
2013-01-31,34.12
2013-02-01,34.53
2013-02-04,34.13
2013-02-05,34.18
2013-02-06,34.33
2013-02-07,34.215
2013-02-08,34.455
2013-02-11,35.3
2013-02-12,34.93
2013-02-13,32.585
2013-02-14,29.9
2013-02-15,29.15
2013-02-19,30.05
2013-02-20,29.92
2013-02-21,29.7
2013-02-22,29.69
2013-02-25,29.17
2013-02-26,28.975
2013-02-27,28.9675
2013-02-28,29.44
2013-03-01,29.421
2013-03-04,29.73
2013-03-05,29.19
2013-03-06,29.74
2013-03-07,29.67
2013-03-08,30.11
2013-03-11,30.6
2013-03-12,31.0
2013-03-13,30.76
2013-03-14,31.72
2013-03-15,32.23
2013-03-18,31.55
2013-03-19,31.8
2013-03-20,32.68
2013-03-21,32.67
2013-03-22,32.6
2013-03-25,32.61
2013-03-26,32.64
2013-03-27,32.61
2013-03-28,32.81
2013-04-01,32.0
2013-04-02,31.66
2013-04-03,30.97
2013-04-04,30.64
2013-04-05,30.66
2013-04-08,30.56
2013-04-09,30.67
2013-04-10,30.79
2013-04-11,31.66
2013-04-12,31.58
2013-04-15,31.35
2013-04-16,31.6
2013-04-17,31.32
2013-04-18,31.18
2013-04-19,31.18
2013-04-22,30.98
2013-04-23,31.6
2013-04-24,31.72
2013-04-25,32.86
2013-04-26,32.66
2013-04-29,33.41
2013-04-30,33.15
2013-05-01,32.08
2013-05-02,31.97
2013-05-03,33.0
2013-05-06,32.66
2013-05-07,32.77
2013-05-08,33.6
2013-05-09,34.52
2013-05-10,34.61
2013-05-13,34.29
2013-05-14,34.28
2013-05-15,34.43
2013-05-16,35.69
2013-05-17,35.74
2013-05-20,36.06
2013-05-21,35.93
2013-05-22,35.42
2013-05-23,35.17
2013-05-24,35.08
2013-05-28,35.35
2013-05-29,34.71
2013-05-30,35.05
2013-05-31,34.72
2013-06-03,35.28
2013-06-04,34.45
2013-06-05,34.5
2013-06-06,35.0
2013-06-07,35.85
2013-06-10,36.39
2013-06-11,36.08
2013-06-12,35.24
2013-06-13,36.46
2013-06-14,36.23
2013-06-17,36.39
2013-06-18,36.54
2013-06-19,35.88
2013-06-20,34.54
2013-06-21,34.78
2013-06-24,34.6
2013-06-25,34.68
2013-06-26,35.27
2013-06-27,36.15
2013-06-28,38.31
2013-07-01,39.08
2013-07-02,38.58
2013-07-03,38.58
2013-07-05,38.94
2013-07-08,38.47
2013-07-09,39.45
2013-07-10,39.41
2013-07-11,39.62
2013-07-12,39.65
2013-07-15,39.57
2013-07-16,39.19
2013-07-17,39.45
2013-07-18,39.42
2013-07-19,39.79
2013-07-22,39.77
2013-07-23,39.49
2013-07-24,39.53
2013-07-25,39.81
2013-07-26,39.89
2013-07-29,39.28
2013-07-30,39.74
2013-07-31,40.68
2013-08-01,42.04
2013-08-02,41.62
2013-08-05,41.51
2013-08-06,41.16
2013-08-07,40.86
2013-08-08,41.24
2013-08-09,41.21
