date,close_price
1998-01-02,21.8583
1998-01-05,21.812
1998-01-06,22.0575
1998-01-07,22.0362
1998-01-08,22.0575
1998-01-09,21.5239
1998-01-12,21.9899
1998-01-13,22.1927
1998-01-14,22.0789
1998-01-15,21.8583
1998-01-16,21.901
1998-01-20,22.0575
1998-01-21,21.9899
1998-01-22,21.7017
1998-01-23,21.3922
1998-01-26,21.3246
1998-01-27,21.5701
1998-01-28,22.858
1998-01-29,23.2137
1998-01-30,22.6801
1998-02-02,22.3243
1998-02-03,22.7014
1998-02-04,22.6374
1998-02-05,22.3706
1998-02-06,22.769
1998-02-09,22.8153
1998-02-10,22.5912
1998-02-11,22.6801
1998-02-12,22.9932
1998-02-13,22.5485
1998-02-17,22.9469
1998-02-18,23.4806
1998-02-19,23.0572
1998-02-20,23.3606
1998-02-23,23.8068
1998-02-24,23.8497
1998-02-25,23.9175
1998-02-26,23.9389
1998-02-27,23.8283
1998-03-02,23.5177
1998-03-03,23.6962
1998-03-04,24.2959
1998-03-05,24.5422
1998-03-06,25.2776
1998-03-09,25.5917
1998-03-10,25.5917
1998-03-11,25.3454
1998-03-12,25.2133
1998-03-13,25.3454
1998-03-16,25.4347
1998-03-17,25.3668
1998-03-18,25.4132
1998-03-19,25.5239
1998-03-20,26.038
1998-03-23,25.681
1998-03-24,25.9273
1998-03-25,25.9701
1998-03-26,25.9273
1998-03-27,25.5453
1998-03-30,25.3668
1998-03-31,25.5453
1998-04-01,25.9916
1998-04-02,26.5734
1998-04-03,26.7305
1998-04-06,26.9304
1998-04-07,26.884
1998-04-08,26.4842
1998-04-09,27.1767
1998-04-13,26.8626
1998-04-14,26.7305
1998-04-15,26.6841
1998-04-16,26.4628
1998-04-17,26.7519
1998-04-20,26.7519
1998-04-21,26.0594
1998-04-22,25.681
1998-04-23,25.2133
1998-04-24,24.4994
1998-04-27,25.0099
1998-04-28,25.0099
1998-04-29,25.3026
1998-04-30,26.2164
1998-05-01,26.0808
1998-05-04,26.0165
1998-05-05,25.8595
1998-05-06,25.5917
1998-05-07,25.0563
1998-05-08,25.4561
1998-05-11,25.324
1998-05-12,25.2776
1998-05-13,25.0991
1998-05-14,24.9884
1998-05-15,24.8778
1998-05-18,24.6779
1998-05-19,24.7207
1998-05-20,25.4261
1998-05-21,25.136
1998-05-22,25.179
1998-05-26,24.957
1998-05-27,24.7564
1998-05-28,24.8209
1998-05-29,24.7994
1998-06-01,25.4046
1998-06-02,25.4046
1998-06-03,25.3366
1998-06-04,25.2686
1998-06-05,25.8523
1998-06-08,25.9203
1998-06-09,25.8953
1998-06-10,25.8523
1998-06-11,25.3151
1998-06-12,24.7314
1998-06-15,25.0
1998-06-16,25.3151
1998-06-17,25.8738
1998-06-18,25.6052
1998-06-19,25.6732
1998-06-22,25.5622
1998-06-23,25.7162
1998-06-24,25.7162
1998-06-25,25.2041
1998-06-26,25.6517
1998-06-29,25.6052
1998-06-30,25.068
1998-07-01,25.2041
1998-07-02,25.2471
1998-07-06,25.7413
1998-07-07,25.2686
1998-07-08,24.0152
1998-07-09,23.6141
1998-07-10,23.2989
1998-07-13,23.1199
1998-07-14,23.2559
1998-07-15,22.7618
1998-07-16,23.324
1998-07-17,23.5675
1998-07-20,23.1664
1998-07-21,23.2774
1998-07-22,23.0089
1998-07-23,22.3607
1998-07-24,23.1664
1998-07-27,23.324
1998-07-28,22.8978
1998-07-29,23.1664
1998-07-30,23.2559
1998-07-31,22.4287
1998-08-03,23.0089
1998-08-04,21.8665
1998-08-05,22.0025
1998-08-06,22.2926
1998-08-07,22.2246
1998-08-10,22.2496
1998-08-11,22.2711
1998-08-12,22.8763
1998-08-13,22.6078
1998-08-14,22.0455
1998-08-17,22.4287
1998-08-18,23.0554
1998-08-19,22.6722
1998-08-20,22.9408
1998-08-21,23.0737
1998-08-24,23.4332
1998-08-25,24.0155
1998-08-26,24.0622
1998-08-27,23.9256
1998-08-28,24.8926
1998-08-31,25.0939
1998-09-01,24.9142
1998-09-02,23.7927
1998-09-03,23.1852
1998-09-04,23.6812
1998-09-08,24.623
1998-09-09,24.0838
1998-09-10,23.4763
1998-09-11,23.8609
1998-09-14,24.1952
1998-09-15,24.5799
1998-09-16,24.1952
1998-09-17,23.5662
1998-09-18,23.4116
1998-09-21,23.275
1998-09-22,23.7927
1998-09-23,24.6697
1998-09-24,24.242
1998-09-25,24.1054
1998-09-28,24.8926
1998-09-29,25.004
1998-09-30,24.5547
1998-10-01,24.4217
1998-10-02,25.2305
1998-10-05,25.8811
1998-10-06,25.9278
1998-10-07,26.1291
1998-10-08,26.8481
1998-10-09,26.5102
1998-10-12,26.0177
1998-10-13,25.7481
1998-10-14,25.9027
1998-10-15,26.6216
1998-10-16,25.9027
1998-10-19,26.2406
1998-10-20,26.3089
1998-10-21,26.8481
1998-10-22,27.1177
1998-10-23,26.4886
1998-10-26,25.971
1998-10-27,25.6582
1998-10-28,24.2204
1998-10-29,23.8358
1998-10-30,24.4001
1998-11-02,24.9609
1998-11-03,24.6014
1998-11-04,24.4001
1998-11-05,24.623
1998-11-06,24.0838
1998-11-09,24.0838
1998-11-10,23.7711
1998-11-11,23.6129
1998-11-12,23.4116
1998-11-13,23.6129
1998-11-16,24.242
1998-11-17,23.9939
1998-11-18,24.242
1998-11-19,24.2384
1998-11-20,24.5775
1998-11-23,25.0031
1998-11-24,24.8697
1998-11-25,24.848
1998-11-27,24.8011
1998-11-30,24.3502
1998-12-01,24.3971
1998-12-02,24.1013
1998-12-03,23.7874
1998-12-04,24.1482
1998-12-07,24.4187
1998-12-08,23.9678
1998-12-09,23.6973
1998-12-10,23.47
1998-12-11,22.9541
1998-12-14,22.7485
1998-12-15,22.7485
1998-12-16,22.6836
1998-12-17,22.2976
1998-12-18,22.1172
1998-12-21,22.1857
1998-12-22,22.8856
1998-12-23,23.7189
1998-12-24,23.1778
1998-12-28,23.0876
1998-12-29,22.8639
1998-12-30,22.5465
1998-12-31,22.413
1999-01-04,22.4563
1999-01-05,22.4779
1999-01-06,23.0443
1999-01-07,22.6836
1999-01-08,22.7269
1999-01-11,22.027
1999-01-12,21.7348
1999-01-13,21.4426
1999-01-14,21.6013
1999-01-15,22.1172
1999-01-19,21.9621
1999-01-20,21.5328
1999-01-21,20.8798
1999-01-22,21.2839
1999-01-25,22.1857
1999-01-26,22.1857
1999-01-27,22.3445
1999-01-28,23.066
1999-01-29,20.8798
1999-02-01,20.0429
1999-02-02,20.2485
1999-02-03,20.5624
1999-02-04,20.5624
1999-02-05,20.5407
1999-02-08,20.0682
1999-02-09,20.7211
1999-02-10,21.3308
1999-02-11,21.5112
1999-02-12,21.4426
1999-02-16,22.0739
1999-02-17,21.8935
1999-02-18,22.2543
1999-02-19,22.6836
1999-02-22,23.0419
1999-02-23,22.6327
1999-02-24,22.9043
1999-02-25,22.8355
1999-02-26,22.5422
1999-03-01,22.3829
1999-03-02,22.0678
1999-03-03,21.865
1999-03-04,21.5681
1999-03-05,21.7745
1999-03-08,21.7962
1999-03-09,22.1113
1999-03-10,21.9085
1999-03-11,22.0895
1999-03-12,22.2489
1999-03-15,22.3611
1999-03-16,22.4082
1999-03-17,21.5246
1999-03-18,20.8221
1999-03-19,20.3694
1999-03-22,20.5288
1999-03-23,20.2789
1999-03-24,20.1196
1999-03-25,20.5722
1999-03-26,20.5722
1999-03-29,21.2965
1999-03-30,21.0502
1999-03-31,20.326
1999-04-01,20.2101
1999-04-05,19.9639
1999-04-06,19.102
1999-04-07,19.102
1999-04-08,18.9898
1999-04-09,18.6711
1999-04-12,19.102
1999-04-13,19.3519
1999-04-14,18.5588
1999-04-15,18.4466
1999-04-16,19.6452
1999-04-19,19.6669
1999-04-20,19.6669
1999-04-21,19.8263
1999-04-22,19.9168
1999-04-23,19.6923
1999-04-26,18.8087
1999-04-27,18.8775
1999-04-28,18.9898
1999-04-29,19.0803
1999-04-30,19.0586
1999-05-03,19.848
1999-05-04,18.9898
1999-05-05,19.4207
1999-05-06,19.6669
1999-05-07,20.0761
1999-05-10,20.1449
1999-05-11,20.2101
1999-05-12,19.9639
1999-05-13,20.8438
1999-05-14,20.6193
1999-05-17,20.0979
1999-05-18,20.4165
1999-05-19,20.3694
1999-05-20,20.3876
1999-05-21,20.5949
1999-05-24,20.3222
1999-05-25,20.5477
1999-05-26,20.5258
1999-05-27,19.8203
1999-05-28,19.7076
1999-06-01,19.7512
1999-06-02,19.7294
1999-06-03,19.5948
1999-06-04,20.0494
1999-06-07,19.9585
1999-06-08,19.933
1999-06-09,19.5475
1999-06-10,19.5475
1999-06-11,19.5694
1999-06-14,20.024
1999-06-15,20.0021
1999-06-16,20.2058
1999-06-17,20.2967
1999-06-18,20.4349
1999-06-21,20.7768
1999-06-22,20.7768
1999-06-23,20.5949
1999-06-24,20.6604
1999-06-25,20.344
1999-06-28,20.6858
1999-06-29,21.4568
1999-06-30,21.5041
1999-07-01,21.4132
1999-07-02,21.3223
1999-07-06,21.2968
1999-07-07,21.2314
1999-07-08,21.0932
1999-07-09,21.3441
1999-07-12,21.2059
1999-07-13,21.0022
1999-07-14,20.9804
1999-07-15,21.0713
1999-07-16,21.2314
1999-07-19,20.9804
1999-07-20,21.0241
1999-07-21,21.4132
1999-07-22,21.2059
1999-07-23,21.115
1999-07-26,21.6387
1999-07-27,22.0024
1999-07-28,21.6387
1999-07-29,21.0022
1999-07-30,21.0932
1999-08-02,21.3441
1999-08-03,21.2314
1999-08-04,21.0241
1999-08-05,20.9113
1999-08-06,20.8204
1999-08-09,20.9331
1999-08-10,20.8422
1999-08-11,20.6858
1999-08-12,20.184
1999-08-13,20.5949
1999-08-16,20.3876
1999-08-17,20.5477
1999-08-18,20.0494
1999-08-19,19.9803
1999-08-20,19.9585
1999-08-23,20.2104
1999-08-24,20.1885
1999-08-25,20.1191
1999-08-26,19.8706
1999-08-27,19.7792
1999-08-30,19.6404
1999-08-31,19.5271
1999-09-01,19.571
1999-09-02,19.2969
1999-09-03,19.3444
1999-09-07,19.0229
1999-09-08,18.9096
1999-09-09,18.3834
1999-09-10,18.9571
1999-09-13,18.9571
1999-09-14,18.7488
1999-09-15,18.9571
1999-09-16,18.7963
1999-09-17,19.275
1999-09-20,19.275
1999-09-21,18.979
1999-09-22,18.8182
1999-09-23,18.7269
1999-09-24,18.8402
1999-09-27,18.8182
1999-09-28,18.5442
1999-09-29,18.3176
1999-09-30,17.7914
1999-10-01,17.5868
1999-10-04,17.8134
1999-10-05,18.0655
1999-10-06,18.2701
1999-10-07,17.9961
1999-10-08,18.5917
1999-10-11,18.2263
1999-10-12,17.9266
1999-10-13,17.722
1999-10-14,18.1349
1999-10-15,17.448
1999-10-18,17.8609
1999-10-19,18.1568
1999-10-20,18.6355
1999-10-21,18.6575
1999-10-22,18.1568
1999-10-25,18.3834
1999-10-26,17.8828
1999-10-27,18.4309
1999-10-28,18.3615
1999-10-29,18.5917
1999-11-01,19.0484
1999-11-02,19.2056
1999-11-03,18.7269
1999-11-04,18.3615
1999-11-05,18.3615
1999-11-08,18.4748
1999-11-09,18.0874
1999-11-10,18.0655
1999-11-11,17.7914
1999-11-12,17.8609
1999-11-15,17.8353
1999-11-16,18.2263
1999-11-17,18.8877
1999-11-18,18.5022
1999-11-19,18.3406
1999-11-22,18.201
1999-11-23,17.9953
1999-11-24,18.4544
1999-11-26,18.2928
1999-11-29,18.0174
1999-11-30,18.1092
1999-12-01,18.179
1999-12-02,18.5242
1999-12-03,19.6039
1999-12-06,19.053
1999-12-07,18.7776
1999-12-08,18.8437
1999-12-09,18.8217
1999-12-10,18.7776
1999-12-13,18.4544
1999-12-14,17.9953
1999-12-15,17.6758
1999-12-16,17.6281
1999-12-17,17.7677
1999-12-20,18.3626
1999-12-21,18.4324
1999-12-22,18.179
1999-12-23,18.1569
1999-12-27,18.4544
1999-12-28,17.6061
1999-12-29,16.9854
1999-12-30,17.4922
1999-12-31,17.4224
2000-01-03,17.0331
2000-01-04,16.3647
2000-01-05,16.5043
2000-01-06,16.8936
2000-01-07,16.9413
2000-01-10,16.9854
2000-01-11,16.6182
2000-01-12,16.5741
2000-01-13,16.3905
2000-01-14,15.656
2000-01-18,15.7221
2000-01-19,15.8139
2000-01-20,15.4466
2000-01-21,15.1712
2000-01-24,14.7378
2000-01-25,14.5983
2000-01-26,14.7378
2000-01-27,14.4624
2000-01-28,13.9115
2000-01-31,15.4723
2000-02-01,14.8957
2000-02-02,14.9876
2000-02-03,15.1712
2000-02-04,15.2189
2000-02-07,15.0573
2000-02-08,15.4944
2000-02-09,15.2887
2000-02-10,15.4723
2000-02-11,15.7
2000-02-14,15.5862
2000-02-15,16.1371
2000-02-16,16.2729
2000-02-17,16.3647
2000-02-18,16.5961
2000-02-22,17.169
2000-02-23,17.0584
2000-02-24,16.5044
2000-02-25,16.7334
2000-02-28,16.2976
2000-02-29,16.2053
2000-03-01,16.5487
2000-03-02,16.1351
2000-03-03,15.9024
2000-03-06,15.5811
2000-03-07,14.7945
2000-03-08,15.4186
2000-03-09,15.1897
2000-03-10,14.7723
2000-03-13,14.7723
2000-03-14,15.1897
2000-03-15,16.1573
2000-03-16,17.6345
2000-03-17,17.1027
2000-03-20,17.3575
2000-03-21,17.3353
2000-03-22,16.6669
2000-03-23,16.7334
2000-03-24,16.2274
2000-03-27,15.9726
2000-03-28,15.5331
2000-03-29,17.2652
2000-03-30,18.1183
2000-03-31,18.0961
2000-04-03,17.3575
2000-04-04,17.8893
2000-04-05,17.7748
2000-04-06,17.5643
2000-04-07,17.0805
2000-04-10,17.1729
2000-04-11,17.7268
2000-04-12,18.0961
2000-04-13,17.8413
2000-04-14,17.3575
2000-04-17,17.2652
2000-04-18,17.243
2000-04-19,17.5902
2000-04-20,17.6345
2000-04-24,18.1885
2000-04-25,18.1183
2000-04-26,17.6345
2000-04-27,17.3575
2000-04-28,16.8257
2000-05-01,16.7112
2000-05-02,16.918
2000-05-03,17.3575
2000-05-04,17.472
2000-05-05,17.1507
2000-05-08,17.8191
2000-05-09,17.9595
2000-05-10,18.4876
2000-05-11,18.4433
2000-05-12,18.2106
2000-05-15,19.0194
2000-05-16,18.9492
2000-05-17,18.5578
2000-05-18,18.6981
2000-05-19,18.4211
2000-05-22,18.8569
2000-05-23,19.258
2000-05-24,19.6738
2000-05-25,19.7666
2000-05-26,20.4385
2000-05-30,19.9744
2000-05-31,19.258
2000-06-01,19.0724
2000-06-02,18.5602
2000-06-05,18.2372
2000-06-06,18.8608
2000-06-07,19.3508
2000-06-08,19.4176
2000-06-09,19.232
2000-06-12,19.1652
2000-06-13,19.5364
2000-06-14,19.7443
2000-06-15,19.7888
2000-06-16,19.1875
2000-06-19,19.3248
2000-06-20,18.768
2000-06-21,18.3746
2000-06-22,18.1444
2000-06-23,18.4451
2000-06-26,18.5602
2000-06-27,18.9091
2000-06-28,18.6752
2000-06-29,18.0962
2000-06-30,18.0962
2000-07-03,17.866
2000-07-05,17.9106
2000-07-06,17.0531
2000-07-07,17.1904
2000-07-10,16.8192
2000-07-11,16.8452
2000-07-12,16.5408
2000-07-13,16.7524
2000-07-14,16.6113
2000-07-17,16.2401
2000-07-18,16.6113
2000-07-19,16.7969
2000-07-20,16.5408
2000-07-21,16.0545
2000-07-24,16.0545
2000-07-25,16.4035
2000-07-26,17.3538
2000-07-27,17.0753
2000-07-28,17.2832
2000-07-31,17.1681
2000-08-01,17.1904
2000-08-02,17.2164
2000-08-03,17.1904
2000-08-04,17.402
2000-08-07,17.3315
2000-08-08,17.2164
2000-08-09,17.1236
2000-08-10,17.4466
2000-08-11,17.3092
2000-08-14,17.1904
2000-08-15,17.1681
2000-08-16,16.8897
2000-08-17,16.8675
2000-08-18,16.5408
2000-08-21,16.7041
2000-08-22,16.5408
2000-08-23,16.7649
2000-08-24,16.623
2000-08-25,16.3652
2000-08-28,16.4586
2000-08-29,16.5782
2000-08-30,16.1336
2000-08-31,15.9244
2000-09-01,15.8535
2000-09-05,15.7377
2000-09-06,16.6006
2000-09-07,16.6716
2000-09-08,16.7388
2000-09-11,16.5072
2000-09-12,16.8098
2000-09-13,16.8583
2000-09-14,17.019
2000-09-15,17.512
2000-09-18,17.979
2000-09-19,18.1172
2000-09-20,18.3525
2000-09-21,18.6551
2000-09-22,19.0287
2000-09-25,18.4683
2000-09-26,18.7261
2000-09-27,19.4956
2000-09-28,20.0335
2000-09-29,20.2203
2000-10-02,19.6114
2000-10-03,19.0735
2000-10-04,19.2864
2000-10-05,19.5666
2000-10-06,19.6824
2000-10-09,20.0074
2000-10-10,19.6338
2000-10-11,19.7048
2000-10-12,19.4732
2000-10-13,18.9577
2000-10-16,19.1669
2000-10-17,18.7709
2000-10-18,18.7933
2000-10-19,18.3974
2000-10-20,18.2591
2000-10-23,18.6065
2000-10-24,19.2154
2000-10-25,19.6824
2000-10-26,19.3536
2000-10-27,19.6114
2000-10-30,20.1493
2000-10-31,20.3137
2000-11-01,20.3585
2000-11-02,20.1269
2000-11-03,20.2651
2000-11-06,21.0608
2000-11-07,21.4082
2000-11-08,21.6435
2000-11-09,21.9237
2000-11-10,22.5774
2000-11-13,22.3682
2000-11-14,22.0171
2000-11-15,22.3906
2000-11-16,22.6484
2000-11-17,22.413
2000-11-20,22.1653
2000-11-21,22.3792
2000-11-22,22.3792
2000-11-24,22.2592
2000-11-27,22.7058
2000-11-28,23.2912
2000-11-29,24.1619
2000-11-30,23.7604
2000-12-01,23.644
2000-12-04,23.4789
2000-12-05,22.6119
2000-12-06,22.7546
2000-12-07,22.9872
2000-12-08,22.8221
2000-12-11,21.8613
2000-12-12,21.7675
2000-12-13,22.1916
2000-12-14,22.2366
2000-12-15,22.0039
2000-12-18,22.7996
2000-12-19,22.9872
2000-12-20,23.1299
2000-12-21,23.0585
2000-12-22,23.1299
2000-12-26,24.1845
2000-12-27,24.6536
2000-12-28,24.5823
2000-12-29,24.3008
2001-01-02,24.4434
2001-01-03,23.0585
2001-01-04,21.486
2001-01-05,21.6962
2001-01-08,22.2366
2001-01-09,22.2366
2001-01-10,21.9777
2001-01-11,21.5573
2001-01-12,21.4635
2001-01-16,22.0978
2001-01-17,21.745
2001-01-18,21.8839
2001-01-19,21.486
2001-01-22,21.3697
2001-01-23,21.5085
2001-01-24,21.9101
2001-01-25,21.9101
2001-01-26,21.9326
2001-01-29,22.2742
2001-01-30,22.1428
2001-01-31,22.383
2001-02-01,22.4993
2001-02-02,22.4468
2001-02-05,22.7808
2001-02-06,22.9384
2001-02-07,23.2387
2001-02-08,23.8805
2001-02-09,24.0568
2001-02-12,24.2295
2001-02-13,24.4134
2001-02-14,23.8504
2001-02-15,23.7303
2001-02-16,24.1657
2001-02-20,24.3721
2001-02-21,24.1157
2001-02-22,23.7539
2001-02-23,23.6672
2001-02-26,24.0365
2001-02-27,24.078
2001-02-28,24.1609
2001-03-01,24.3984
2001-03-02,23.9762
2001-03-05,24.0742
2001-03-06,23.9461
2001-03-07,24.0177
2001-03-08,24.3042
2001-03-09,24.3758
2001-03-12,24.5755
2001-03-13,24.4097
2001-03-14,24.3494
2001-03-15,24.5718
2001-03-16,24.9148
2001-03-19,25.0354
2001-03-20,25.0505
2001-03-21,24.8092
2001-03-22,24.4851
2001-03-23,24.3909
2001-03-26,24.3607
2001-03-27,25.0656
2001-03-28,25.6008
2001-03-29,25.989
2001-03-30,26.1209
2001-04-02,25.9438
2001-04-03,25.4349
2001-04-04,25.3784
2001-04-05,25.1786
2001-04-06,25.0052
2001-04-09,25.2201
2001-04-10,25.1975
2001-04-11,25.0241
2001-04-12,24.8394
2001-04-16,24.6999
2001-04-17,24.4851
2001-04-18,23.7463
2001-04-19,23.9348
2001-04-20,23.3656
2001-04-23,22.8907
2001-04-24,22.8643
2001-04-25,23.441
2001-04-26,23.4598
2001-04-27,23.6031
2001-04-30,22.7852
2001-05-01,22.5251
2001-05-02,22.6796
2001-05-03,22.5929
2001-05-04,22.6872
2001-05-07,23.0829
2001-05-08,23.1885
2001-05-09,22.9435
2001-05-10,22.6344
2001-05-11,22.5439
2001-05-14,22.6155
2001-05-15,22.4271
2001-05-16,22.6155
2001-05-17,22.5025
2001-05-18,22.2876
2001-05-21,22.3215
2001-05-22,22.1745
2001-05-23,22.5533
2001-05-24,22.8449
2001-05-25,22.6291
2001-05-29,22.9018
2001-05-30,23.0646
2001-05-31,22.9851
2001-06-01,23.0646
2001-06-04,23.1934
2001-06-05,23.1176
2001-06-06,23.0192
2001-06-07,23.0911
2001-06-08,23.0835
2001-06-11,23.1252
2001-06-12,23.0873
2001-06-13,23.0495
2001-06-14,22.72
2001-06-15,22.7389
2001-06-18,22.6594
2001-06-19,22.773
2001-06-20,22.8563
2001-06-21,23.3146
2001-06-22,23.1025
2001-06-25,23.1025
2001-06-26,23.3676
2001-06-27,23.1669
2001-06-28,23.1782
2001-06-29,23.3752
2001-07-02,23.3449
2001-07-03,23.3979
2001-07-05,23.36
2001-07-06,23.2918
2001-07-09,23.235
2001-07-10,23.3714
2001-07-11,23.5759
2001-07-12,23.61
2001-07-13,23.6554
2001-07-16,23.841
2001-07-17,24.2728
2001-07-18,24.3371
2001-07-19,24.4205
2001-07-20,23.7084
2001-07-23,23.1858
2001-07-24,22.8109
2001-07-25,22.9737
2001-07-26,23.0002
2001-07-27,22.8374
2001-07-30,22.5533
2001-07-31,22.8601
2001-08-01,22.6556
2001-08-02,22.8601
2001-08-03,22.5988
2001-08-06,22.4246
2001-08-07,22.4056
2001-08-08,22.292
2001-08-09,22.3488
2001-08-10,22.5344
2001-08-13,22.5988
2001-08-14,22.6632
2001-08-15,22.8374
2001-08-16,22.8336
2001-08-17,22.8487
2001-08-20,22.9813
2001-08-21,23.7766
2001-08-22,24.1088
2001-08-23,24.1659
2001-08-24,24.36
2001-08-27,24.7939
2001-08-28,24.459
2001-08-29,24.3714
2001-08-30,24.5465
2001-08-31,24.5275
2001-09-04,24.7596
2001-09-05,25.0945
2001-09-06,25.0793
2001-09-07,24.7939
2001-09-10,25.1782
2001-09-17,24.341
2001-09-18,24.1659
2001-09-19,23.8805
2001-09-20,23.5951
2001-09-21,22.9139
2001-09-24,23.5608
2001-09-25,24.0518
2001-09-26,24.2991
2001-09-27,24.6987
2001-09-28,24.8776
2001-10-01,24.5503
2001-10-02,24.6302
2001-10-03,24.4323
2001-10-04,24.1621
2001-10-05,24.4818
2001-10-08,24.223
2001-10-09,24.0518
2001-10-10,24.3981
2001-10-11,24.0137
2001-10-12,23.2145
2001-10-15,23.2107
2001-10-16,23.1879
2001-10-17,23.283
2001-10-18,23.6103
2001-10-19,24.5275
2001-10-22,24.6492
2001-10-23,24.3676
2001-10-24,24.3486
2001-10-25,24.5655
2001-10-26,24.6949
2001-10-29,24.4323
2001-10-30,24.2763
2001-10-31,24.2573
2001-11-01,24.6721
2001-11-02,25.045
2001-11-05,25.4104
2001-11-06,25.6768
2001-11-07,25.6311
2001-11-08,25.2277
2001-11-09,25.1858
2001-11-12,25.2772
2001-11-13,25.2886
2001-11-14,25.4066
2001-11-15,25.2467
2001-11-16,25.3837
2001-11-19,25.3419
2001-11-20,25.2321
2001-11-21,25.236
2001-11-23,25.3698
2001-11-26,25.4042
2001-11-27,25.1786
2001-11-28,24.9454
2001-11-29,25.041
2001-11-30,25.0372
2001-12-03,25.1939
2001-12-04,25.0869
2001-12-05,25.213
2001-12-06,24.8307
2001-12-07,24.8919
2001-12-10,24.9187
2001-12-11,24.8307
2001-12-12,24.8307
2001-12-13,24.934
2001-12-14,25.301
2001-12-17,25.2971
2001-12-18,25.4577
2001-12-19,25.6527
2001-12-20,25.8859
2001-12-21,26.1038
2001-12-24,25.9662
2001-12-26,25.9394
2001-12-27,26.0121
2001-12-28,25.9776
2001-12-31,25.8974
2002-01-02,25.8438
2002-01-03,25.71
2002-01-04,25.5189
2002-01-07,25.5418
2002-01-08,25.7406
2002-01-09,25.6794
2002-01-10,25.6642
2002-01-11,25.7712
2002-01-14,25.9891
2002-01-15,26.2873
2002-01-16,26.2376
2002-01-17,26.272
2002-01-18,26.4938
2002-01-22,26.7499
2002-01-23,26.7614
2002-01-24,26.4135
2002-01-25,26.1573
2002-01-28,26.4173
2002-01-29,26.4938
2002-01-30,26.6734
2002-01-31,26.8761
2002-02-01,26.7078
2002-02-04,26.7958
2002-02-05,26.7499
2002-02-06,26.7728
2002-02-07,26.9908
2002-02-08,26.9066
2002-02-11,26.6084
2002-02-12,26.6581
2002-02-13,26.7346
2002-02-14,26.8455
2002-02-15,27.1054
2002-02-19,26.9066
2002-02-20,27.2201
2002-02-21,27.1714
2002-02-22,27.4978
2002-02-25,27.6898
2002-02-26,27.5477
2002-02-27,27.2521
2002-02-28,27.133
2002-03-01,27.2828
2002-03-04,26.8681
2002-03-05,26.5994
2002-03-06,26.657
2002-03-07,26.5226
2002-03-08,26.4842
2002-03-11,26.3344
2002-03-12,26.4381
2002-03-13,26.369
2002-03-14,26.4611
2002-03-15,26.4266
2002-03-18,25.9313
2002-03-19,25.8737
2002-03-20,25.724
2002-03-21,25.9697
2002-03-22,25.9774
2002-03-25,25.8891
2002-03-26,26.4957
2002-03-27,26.4957
2002-03-28,26.3844
2002-04-01,26.3498
2002-04-02,26.6224
2002-04-03,26.3882
2002-04-04,26.6723
2002-04-05,26.7107
2002-04-08,26.8029
2002-04-09,26.8105
2002-04-10,27.3826
2002-04-11,27.4978
2002-04-12,27.5592
2002-04-15,27.2022
2002-04-16,26.8374
2002-04-17,26.177
2002-04-18,26.1847
2002-04-19,26.1924
2002-04-22,26.2346
2002-04-23,26.2001
2002-04-24,26.1079
2002-04-25,26.1578
2002-04-26,25.9812
2002-04-29,26.0887
2002-04-30,26.0964
2002-05-01,26.1041
2002-05-02,26.4304
2002-05-03,26.2769
2002-05-06,26.2653
2002-05-07,26.2154
2002-05-08,26.1156
2002-05-09,26.1271
2002-05-10,26.0887
2002-05-13,26.2346
2002-05-14,26.3229
2002-05-15,26.2538
2002-05-16,26.4803
2002-05-17,26.2577
2002-05-20,25.9851
2002-05-21,26.035
2002-05-22,26.2482
2002-05-23,26.1942
2002-05-24,25.8741
2002-05-28,25.6736
2002-05-29,25.8587
2002-05-30,25.4576
2002-05-31,25.7083
2002-06-03,25.2841
2002-06-04,24.8367
2002-06-05,25.3033
2002-06-06,24.9524
2002-06-07,25.473
2002-06-10,25.4036
2002-06-11,25.4807
2002-06-12,25.3149
2002-06-13,24.964
2002-06-14,24.8598
2002-06-17,25.2995
2002-06-18,25.2416
2002-06-19,25.1838
2002-06-20,25.3188
2002-06-21,25.0449
2002-06-24,25.0141
2002-06-25,24.5629
2002-06-26,24.4163
2002-06-27,24.6439
2002-06-28,24.2389
2002-07-01,24.3585
2002-07-02,24.1348
2002-07-03,23.8764
2002-07-05,24.1695
2002-07-08,23.9689
2002-07-09,24.2698
2002-07-10,23.834
2002-07-11,24.5166
2002-07-12,23.9612
2002-07-15,24.1039
2002-07-16,23.6218
2002-07-17,23.9149
2002-07-18,23.24
2002-07-19,22.1216
2002-07-22,22.1988
2002-07-23,23.0665
2002-07-24,24.2196
2002-07-25,30.3671
2002-07-26,30.3555
2002-07-29,30.6563
2002-07-30,30.1203
2002-07-31,30.2321
2002-08-01,29.3104
2002-08-02,28.5198
2002-08-05,27.9451
2002-08-06,28.1727
2002-08-07,27.7099
2002-08-08,28.6085
2002-08-09,28.4619
2002-08-12,28.782
2002-08-13,28.7203
2002-08-14,29.1137
2002-08-15,29.0558
2002-08-16,28.944
2002-08-19,28.8129
2002-08-20,28.7357
2002-08-21,28.9093
2002-08-22,29.0178
2002-08-23,29.1185
2002-08-26,29.7305
2002-08-27,29.6337
2002-08-28,29.5252
2002-08-29,29.5523
2002-08-30,29.3238
2002-09-03,29.1688
2002-09-04,28.1539
2002-09-05,28.7427
2002-09-06,28.5917
2002-09-09,28.5026
2002-09-10,28.7234
2002-09-11,28.4677
2002-09-12,28.1965
2002-09-13,28.6072
2002-09-16,28.979
2002-09-17,28.5917
2002-09-18,25.2177
2002-09-19,24.6792
2002-09-20,24.8458
2002-09-23,24.6947
2002-09-24,24.1757
2002-09-25,24.2105
2002-09-26,24.7064
2002-09-27,24.3345
2002-09-30,23.9665
2002-10-01,24.3965
2002-10-02,24.4042
2002-10-03,24.4042
2002-10-04,23.9394
2002-10-07,24.1524
2002-10-08,24.4429
2002-10-09,24.656
2002-10-10,24.3345
2002-10-11,24.0943
2002-10-14,24.2957
2002-10-15,24.5011
2002-10-16,24.8574
2002-10-17,24.0401
2002-10-18,24.7412
2002-10-21,24.6405
2002-10-22,24.7025
2002-10-23,24.9078
2002-10-24,25.0356
2002-10-25,25.3455
2002-10-28,25.0085
2002-10-29,25.3378
2002-10-30,25.3339
2002-10-31,25.2061
2002-11-01,25.0937
2002-11-04,24.9581
2002-11-05,25.1441
2002-11-06,24.9078
2002-11-07,24.9
2002-11-08,24.9736
2002-11-11,25.024
2002-11-12,24.8458
2002-11-13,25.2758
2002-11-14,25.1596
2002-11-15,25.1828
2002-11-18,25.2177
2002-11-19,25.361
2002-11-20,25.5861
2002-11-21,25.3447
2002-11-22,25.3798
2002-11-25,25.1929
2002-11-26,24.6245
2002-11-27,24.9749
2002-11-29,25.0683
2002-12-02,24.7024
2002-12-03,24.7179
2002-12-04,24.823
2002-12-05,24.6245
2002-12-06,24.8892
2002-12-09,25.0138
2002-12-10,25.2007
2002-12-11,25.7769
2002-12-12,25.7652
2002-12-13,25.481
2002-12-16,25.6212
2002-12-17,25.6873
2002-12-18,26.1234
2002-12-19,26.0728
2002-12-20,26.3959
2002-12-23,26.2596
2002-12-24,26.3492
2002-12-26,26.0922
2002-12-27,26.1428
2002-12-30,26.1428
2002-12-31,26.2752
2003-01-02,26.3064
2003-01-03,26.2791
2003-01-06,26.3881
2003-01-07,26.0728
2003-01-08,25.8509
2003-01-09,26.1701
2003-01-10,26.1545
2003-01-13,26.4037
2003-01-14,26.3141
2003-01-15,26.2596
2003-01-16,26.5594
2003-01-17,26.6022
2003-01-21,26.1
2003-01-22,26.1234
2003-01-23,26.1117
2003-01-24,25.7146
2003-01-27,25.625
2003-01-28,25.9482
2003-01-29,25.1695
2003-01-30,25.0255
2003-01-31,25.0995
2003-02-03,25.2279
2003-02-04,24.9476
2003-02-05,25.0644
2003-02-06,25.0722
2003-02-07,25.1111
2003-02-10,25.2435
2003-02-11,24.8853
2003-02-12,24.7101
2003-02-13,25.0177
2003-02-14,25.3447
2003-02-18,25.4693
2003-02-19,25.2902
2003-02-20,25.0605
2003-02-21,25.3963
2003-02-24,25.095
2003-02-25,25.4707
2003-02-26,25.232
2003-02-27,25.455
2003-02-28,25.2789
2003-03-03,25.3415
2003-03-04,24.6176
2003-03-05,24.7898
2003-03-06,24.6567
2003-03-07,24.6802
2003-03-10,24.0071
2003-03-11,24.148
2003-03-12,24.0111
2003-03-13,24.3828
2003-03-14,24.4963
2003-03-17,25.2946
2003-03-18,25.1615
2003-03-19,25.3807
2003-03-20,25.5489
2003-03-21,25.8542
2003-03-24,25.2515
2003-03-25,25.6233
2003-03-26,25.4472
2003-03-27,24.7741
2003-03-28,24.6333
2003-03-31,24.5393
2003-04-01,24.598
2003-04-02,25.0754
2003-04-03,24.8211
2003-04-04,24.9463
2003-04-07,24.872
2003-04-08,24.9033
2003-04-09,24.8759
2003-04-10,24.8485
2003-04-11,24.7585
2003-04-14,25.2085
2003-04-15,25.3102
2003-04-16,24.6059
2003-04-17,25.0911
2003-04-21,24.8485
2003-04-22,25.142
2003-04-23,25.0793
2003-04-24,25.2515
2003-04-25,25.2241
2003-04-28,25.545
2003-04-29,25.6702
2003-04-30,25.5528
2003-05-01,25.5802
2003-05-02,25.6937
2003-05-05,25.6389
2003-05-06,25.905
2003-05-07,26.0342
2003-05-08,25.952
2003-05-09,26.4842
2003-05-12,26.6368
2003-05-13,26.7268
2003-05-14,26.6916
2003-05-15,26.5898
2003-05-16,26.5116
2003-05-19,26.2924
2003-05-20,26.4763
2003-05-21,26.5347
2003-05-22,26.8768
2003-05-23,26.979
2003-05-27,27.2032
2003-05-28,27.2661
2003-05-29,27.0931
2003-05-30,27.9503
2003-06-02,27.9385
2003-06-03,28.0801
2003-06-04,28.0604
2003-06-05,27.9385
2003-06-06,27.8363
2003-06-09,27.8323
2003-06-10,27.7026
2003-06-11,28.0801
2003-06-12,28.1627
2003-06-13,28.4772
2003-06-16,28.6149
2003-06-17,28.2728
2003-06-18,28.3435
2003-06-19,28.0211
2003-06-20,28.0132
2003-06-23,27.6279
2003-06-24,27.7655
2003-06-25,27.4666
2003-06-26,27.4391
2003-06-27,27.4666
2003-06-30,27.4234
2003-07-01,27.7734
2003-07-02,27.8953
2003-07-03,27.8795
2003-07-07,27.8205
2003-07-08,28.0093
2003-07-09,27.8205
2003-07-10,27.9542
2003-07-11,28.0054
2003-07-14,27.8677
2003-07-15,28.0368
2003-07-16,28.2256
2003-07-17,28.7643
2003-07-18,28.9491
2003-07-21,28.5716
2003-07-22,29.0199
2003-07-23,28.9058
2003-07-24,28.8547
2003-07-25,29.1575
2003-07-28,28.8744
2003-07-29,28.8705
2003-07-30,28.8429
2003-07-31,28.6542
2003-08-01,28.3199
2003-08-04,28.1902
2003-08-05,28.0368
2003-08-06,28.0565
2003-08-07,28.1627
2003-08-08,28.2924
2003-08-11,28.7289
2003-08-12,28.8351
2003-08-13,28.6345
2003-08-14,28.5913
2003-08-15,28.6699
2003-08-18,28.6149
2003-08-19,28.4497
2003-08-20,28.2413
2003-08-21,28.0139
2003-08-22,27.5474
2003-08-25,27.9309
2003-08-26,27.9863
2003-08-27,27.7728
2003-08-28,27.7925
2003-08-29,27.6581
2003-09-02,27.9823
2003-09-03,28.0574
2003-09-04,28.2077
2003-09-05,28.0139
2003-09-08,27.9744
2003-09-09,28.0812
2003-09-10,28.441
2003-09-11,28.5715
2003-09-12,28.6347
2003-09-15,28.694
2003-09-16,28.6901
2003-09-17,28.694
2003-09-18,28.8878
2003-09-19,28.8641
2003-09-22,28.9392
2003-09-23,29.0459
2003-09-24,29.1013
2003-09-25,29.1922
2003-09-26,29.0341
2003-09-29,28.8522
2003-09-30,28.7612
2003-10-01,29.2041
2003-10-02,29.2595
2003-10-03,29.4413
2003-10-06,29.5955
2003-10-07,29.6549
2003-10-08,29.4927
2003-10-09,29.3543
2003-10-10,29.2832
2003-10-13,29.7537
2003-10-14,29.8763
2003-10-15,29.7577
2003-10-16,29.9
2003-10-17,29.6983
2003-10-20,29.9712
2003-10-21,29.8802
2003-10-22,29.7853
2003-10-23,29.9593
2003-10-24,30.1807
2003-10-27,30.2005
2003-10-28,30.2638
2003-10-29,30.0977
2003-10-30,29.8091
2003-10-31,30.4654
2003-11-03,30.6552
2003-11-04,30.6868
2003-11-05,30.5129
2003-11-06,30.5643
2003-11-07,30.4219
2003-11-10,30.3705
2003-11-11,30.5247
2003-11-12,30.7936
2003-11-13,30.8489
2003-11-14,30.5129
2003-11-17,30.5998
2003-11-18,30.5326
2003-11-19,30.5801
2003-11-20,30.418
2003-11-21,30.6225
2003-11-24,31.016
2003-11-25,31.004
2003-11-26,30.8808
2003-11-28,30.8808
2003-12-01,30.7894
2003-12-02,31.0557
2003-12-03,31.1749
2003-12-04,30.9405
2003-12-05,30.9007
2003-12-08,30.9206
2003-12-09,30.6305
2003-12-10,30.3205
2003-12-11,30.539
2003-12-12,30.543
2003-12-15,30.7457
2003-12-16,30.6344
2003-12-17,30.5708
2003-12-18,30.5549
2003-12-19,30.2251
2003-12-22,30.3403
2003-12-23,30.6305
2003-12-24,30.4635
2003-12-26,30.4953
2003-12-29,30.6742
2003-12-30,30.6185
2003-12-31,30.5549
2004-01-02,30.388
2004-01-05,30.5351
2004-01-06,30.6782
2004-01-07,30.5589
2004-01-08,30.2211
2004-01-09,29.7601
2004-01-12,30.0105
2004-01-13,30.384
2004-01-14,30.4198
2004-01-15,30.1178
2004-01-16,29.9628
2004-01-20,29.8078
2004-01-21,29.8753
2004-01-22,29.8038
2004-01-23,29.7998
2004-01-26,29.9429
2004-01-27,29.9429
2004-01-28,29.8157
2004-01-29,29.9787
2004-01-30,30.0105
2004-02-02,30.392
2004-02-03,30.8848
2004-02-04,30.8411
2004-02-05,31.0637
2004-02-06,31.0796
2004-02-09,31.0279
2004-02-10,31.163
2004-02-11,31.6996
2004-02-12,31.5843
2004-02-13,31.3538
2004-02-17,31.6558
2004-02-18,31.7512
2004-02-19,31.8546
2004-02-20,33.2853
2004-02-23,33.4351
2004-02-24,33.3034
2004-02-25,33.2914
2004-02-26,33.1876
2004-02-27,33.1197
2004-03-01,33.495
2004-03-02,33.1197
2004-03-03,33.0997
2004-03-04,32.7124
2004-03-05,33.6588
2004-03-08,33.3792
2004-03-09,33.5429
2004-03-10,34.1539
2004-03-11,33.5669
2004-03-12,33.9303
2004-03-15,33.6308
2004-03-16,32.936
2004-03-17,33.4631
2004-03-18,33.5829
2004-03-19,33.3433
2004-03-22,32.924
2004-03-23,32.936
2004-03-24,32.7802
2004-03-25,32.7603
2004-03-26,32.7004
2004-03-29,33.0119
2004-03-30,33.0398
2004-03-31,33.0957
2004-04-01,32.9759
2004-04-02,32.8761
2004-04-05,33.0398
2004-04-06,33.515
2004-04-07,33.3034
2004-04-08,33.2834
2004-04-12,33.1516
2004-04-13,32.6485
2004-04-14,33.2395
2004-04-15,33.7027
2004-04-16,34.4175
2004-04-19,33.9782
2004-04-20,33.7666
2004-04-21,33.8225
2004-04-22,34.8208
2004-04-23,35.0005
2004-04-26,35.9708
2004-04-27,35.6514
2004-04-28,35.4237
2004-04-29,35.4956
2004-04-30,35.5316
2004-05-03,35.891
2004-05-04,35.855
2004-05-05,35.9908
2004-05-06,35.879
2004-05-07,35.7113
2004-05-10,35.6434
2004-05-11,35.4717
2004-05-12,35.3998
2004-05-13,35.5595
2004-05-14,35.3599
2004-05-17,35.4916
2004-05-18,35.6953
2004-05-19,35.3758
2004-05-20,35.3079
2004-05-21,35.4544
2004-05-24,35.2739
2004-05-25,35.2979
2004-05-26,35.4945
2004-05-27,35.5707
2004-05-28,35.6068
2004-06-01,35.3982
2004-06-02,35.9437
2004-06-03,35.9197
2004-06-04,35.7632
2004-06-07,36.032
2004-06-08,36.9906
2004-06-09,36.8342
2004-06-10,36.7219
2004-06-14,36.7861
2004-06-15,36.9225
2004-06-16,36.6698
2004-06-17,36.5013
2004-06-18,36.2686
2004-06-21,36.2045
2004-06-22,36.4531
2004-06-23,36.9104
2004-06-24,36.5093
2004-06-25,36.1242
2004-06-28,36.3168
2004-06-29,36.8543
2004-06-30,37.1511
2004-07-01,37.1591
2004-07-02,36.5494
2004-07-06,36.9586
2004-07-07,36.9505
2004-07-08,36.9586
2004-07-09,37.103
2004-07-12,37.3436
2004-07-13,37.0709
2004-07-14,37.4479
2004-07-15,37.3356
2004-07-16,37.2072
2004-07-19,37.6485
2004-07-20,37.2794
2004-07-21,37.1431
2004-07-22,37.3115
2004-07-23,36.9265
2004-07-26,36.2767
2004-07-27,36.774
2004-07-28,38.0335
2004-07-29,38.3223
2004-07-30,38.8358
2004-08-02,38.6192
2004-08-03,38.1619
2004-08-04,38.0576
2004-08-05,37.4479
2004-08-06,37.3998
2004-08-09,37.2393
2004-08-10,37.8651
2004-08-11,38.218
2004-08-12,37.9453
2004-08-13,38.2822
2004-08-16,38.7154
2004-08-17,38.4988
2004-08-18,38.4106
2004-08-19,38.2662
2004-08-20,38.4106
2004-08-23,38.4672
2004-08-24,38.709
2004-08-25,39.1281
2004-08-26,39.1684
2004-08-27,39.0394
2004-08-30,38.6607
2004-08-31,38.975
2004-09-01,39.3941
2004-09-02,39.8212
2004-09-03,40.1194
2004-09-07,39.8212
2004-09-08,38.9266
2004-09-09,39.0556
2004-09-10,38.6365
2004-09-13,38.8138
2004-09-14,38.9427
2004-09-15,38.846
2004-09-16,38.1529
2004-09-17,38.8218
2004-09-20,38.5236
2004-09-21,38.0804
2004-09-22,37.4679
2004-09-23,37.3147
2004-09-24,37.1697
2004-09-27,37.5162
2004-09-28,37.2745
2004-09-29,37.5404
2004-09-30,37.6774
2004-10-01,38.1287
2004-10-04,38.306
2004-10-05,38.024
2004-10-06,38.2093
2004-10-07,37.7822
2004-10-08,37.4518
2004-10-11,37.3873
2004-10-12,37.3309
2004-10-13,37.218
2004-10-14,37.2745
2004-10-15,37.5243
2004-10-18,37.5485
2004-10-19,37.758
2004-10-20,38.1852
2004-10-21,39.6117
2004-10-22,39.0717
2004-10-25,39.3054
2004-10-26,39.7003
2004-10-27,40.0227
2004-10-28,40.611
2004-10-29,40.8609
2004-11-01,40.7319
2004-11-02,40.8286
2004-11-03,41.5781
2004-11-04,42.0295
2004-11-05,42.0214
2004-11-08,41.6749
2004-11-09,41.2477
2004-11-10,41.2477
2004-11-11,41.5056
2004-11-12,41.8441
2004-11-15,41.9086
2004-11-16,41.9086
2004-11-17,41.828
2004-11-18,41.8683
2004-11-19,41.6749
2004-11-22,42.2658
2004-11-23,42.5167
2004-11-24,42.2901
2004-11-26,42.0715
2004-11-29,42.4115
2004-11-30,41.942
2004-12-01,43.1399
2004-12-02,43.3584
2004-12-03,44.2002
2004-12-06,44.1273
2004-12-07,44.0221
2004-12-08,44.2407
2004-12-09,44.4673
2004-12-10,44.872
2004-12-13,45.1876
2004-12-14,45.7866
2004-12-15,45.7461
2004-12-16,45.5195
2004-12-17,44.5077
2004-12-20,44.5077
2004-12-21,44.5077
2004-12-22,44.4997
2004-12-23,44.2649
2004-12-27,44.4025
2004-12-28,45.0257
2004-12-29,45.0015
2004-12-30,44.7506
2004-12-31,44.961
2005-01-03,43.9897
2005-01-04,44.4349
2005-01-05,43.4313
2005-01-06,43.3099
2005-01-07,43.6984
2005-01-10,43.7631
2005-01-11,44.2568
2005-01-12,44.2568
2005-01-13,43.8845
2005-01-14,44.354
2005-01-18,45.1391
2005-01-19,45.3252
2005-01-20,45.479
2005-01-21,45.2605
2005-01-24,44.7263
2005-01-25,45.5438
2005-01-26,46.0132
2005-01-27,47.0654
2005-01-28,46.8792
2005-01-31,47.3163
2005-02-01,47.899
2005-02-02,48.2956
2005-02-03,48.4656
2005-02-04,48.7165
2005-02-07,49.0403
2005-02-08,49.3236
2005-02-09,48.8055
2005-02-10,49.3721
2005-02-11,49.534
2005-02-14,49.9144
2005-02-15,50.4162
2005-02-16,50.1248
2005-02-17,49.8658
2005-02-18,49.9063
2005-02-22,50.0682
2005-02-23,49.8976
2005-02-24,50.4743
2005-02-25,50.8479
2005-02-28,51.181
2005-03-01,51.7902
2005-03-02,51.6521
2005-03-03,52.0826
2005-03-04,52.3344
2005-03-07,52.1882
2005-03-08,51.782
2005-03-09,51.7414
2005-03-10,51.6521
2005-03-11,50.7505
2005-03-14,50.6936
2005-03-15,50.3443
2005-03-16,50.3362
2005-03-17,50.7261
2005-03-18,50.2225
2005-03-21,49.7595
2005-03-22,49.8001
2005-03-23,49.1665
2005-03-24,48.8091
2005-03-28,48.8985
2005-03-29,48.3868
2005-03-30,49.4508
2005-03-31,49.1259
2005-04-01,48.7604
2005-04-04,48.6304
2005-04-05,48.866
2005-04-06,48.6954
2005-04-07,49.2803
2005-04-08,49.0934
2005-04-11,49.2072
2005-04-12,49.727
2005-04-13,49.9544
2005-04-14,50.5393
2005-04-15,49.8488
2005-04-18,49.4833
2005-04-19,50.2144
2005-04-20,48.6873
2005-04-21,49.2234
2005-04-22,51.3678
2005-04-25,51.7739
2005-04-26,51.4977
2005-04-27,51.6196
2005-04-28,51.6277
2005-04-29,51.8633
2005-05-02,51.8389
2005-05-03,51.9851
2005-05-04,52.2775
2005-05-05,52.5293
2005-05-06,52.4725
2005-05-09,53.1223
2005-05-10,53.106
2005-05-11,53.5203
2005-05-12,53.8777
2005-05-13,53.8046
2005-05-16,54.162
2005-05-17,52.6593
2005-05-18,52.9355
2005-05-19,52.9598
2005-05-20,52.7892
2005-05-23,52.936
2005-05-24,52.5937
2005-05-25,52.4388
2005-05-26,52.7322
2005-05-27,52.6507
2005-05-31,52.3736
2005-06-01,52.8301
2005-06-02,52.7974
2005-06-03,52.6344
2005-06-06,52.8708
2005-06-07,52.7241
2005-06-08,52.5122
2005-06-09,52.2269
2005-06-10,52.2025
2005-06-13,52.1536
2005-06-14,52.4144
2005-06-15,52.6752
2005-06-16,52.7241
2005-06-17,52.936
2005-06-20,53.1561
2005-06-21,52.667
2005-06-22,51.8194
2005-06-23,50.8006
2005-06-24,50.1242
2005-06-27,50.7028
2005-06-28,51.1429
2005-06-29,50.5072
2005-06-30,50.4991
2005-07-01,50.6865
2005-07-05,50.5887
2005-07-06,49.9123
2005-07-07,49.5373
2005-07-08,50.1242
2005-07-11,49.9041
2005-07-12,49.79
2005-07-13,49.5536
2005-07-14,49.6025
2005-07-15,49.4151
2005-07-18,49.5129
2005-07-19,49.9612
2005-07-20,49.7818
2005-07-21,50.8658
2005-07-22,51.3467
2005-07-25,51.1674
2005-07-26,52.0232
2005-07-27,52.0069
2005-07-28,52.5448
2005-07-29,52.1373
2005-08-01,51.1429
2005-08-02,51.5749
2005-08-03,51.3223
2005-08-04,50.9555
2005-08-05,50.3524
2005-08-08,50.3524
2005-08-09,50.711
2005-08-10,50.3687
2005-08-11,50.3279
2005-08-12,50.1894
2005-08-15,50.059
2005-08-16,49.358
2005-08-17,49.1787
2005-08-18,49.4069
2005-08-19,49.4966
2005-08-22,49.5455
2005-08-23,49.1403
2005-08-24,48.0438
2005-08-25,47.6428
2005-08-26,47.6346
2005-08-29,47.7655
2005-08-30,47.52
2005-08-31,48.3793
2005-09-01,47.8146
2005-09-02,47.921
2005-09-06,48.3793
2005-09-07,48.1583
2005-09-08,47.7819
2005-09-09,48.4284
2005-09-12,48.4856
2005-09-13,47.651
2005-09-14,47.1354
2005-09-15,47.2991
2005-09-16,47.5773
2005-09-19,47.2582
2005-09-20,46.6117
2005-09-21,45.4333
2005-09-22,45.4088
2005-09-23,45.4169
2005-09-26,45.8425
2005-09-27,46.1371
2005-09-28,46.0389
2005-09-29,46.1943
2005-09-30,45.9898
2005-10-03,47.4055
2005-10-04,46.9227
2005-10-05,46.0552
2005-10-06,46.4808
2005-10-07,46.0961
2005-10-10,45.777
2005-10-11,45.5315
2005-10-12,45.6624
2005-10-13,45.6379
2005-10-14,45.7197
2005-10-17,47.9128
2005-10-18,47.5446
2005-10-19,48.6084
2005-10-20,48.0274
2005-10-21,48.1174
2005-10-24,48.011
2005-10-25,47.0781
2005-10-26,46.448
2005-10-27,45.7361
2005-10-28,46.5626
2005-10-31,46.4726
2005-11-01,46.3171
2005-11-02,46.5462
2005-11-03,46.088
2005-11-04,45.5806
2005-11-07,45.597
2005-11-08,45.0323
2005-11-09,45.0651
2005-11-10,45.1305
2005-11-11,45.0241
2005-11-14,44.394
2005-11-15,44.5168
2005-11-16,44.3122
2005-11-17,43.4857
2005-11-18,44.1895
2005-11-21,44.4841
2005-11-22,44.9814
2005-11-23,45.376
2005-11-25,44.9485
2005-11-28,45.4664
2005-11-29,45.3267
2005-11-30,44.6197
2005-12-01,45.228
2005-12-02,45.4335
2005-12-05,45.5568
2005-12-06,45.7295
2005-12-07,45.2609
2005-12-08,45.3842
2005-12-09,45.7541
2005-12-12,46.1405
2005-12-13,48.2613
2005-12-14,47.5215
2005-12-15,47.4886
2005-12-16,47.5215
2005-12-19,47.3982
2005-12-20,46.6501
2005-12-21,46.683
2005-12-22,46.494
2005-12-23,46.0994
2005-12-27,46.0912
2005-12-28,46.0172
2005-12-29,45.5979
2005-12-30,45.3678
2006-01-03,45.1294
2006-01-04,45.0307
2006-01-05,45.0554
2006-01-06,44.7595
2006-01-09,44.7513
2006-01-10,44.5375
2006-01-11,44.3402
2006-01-12,44.5951
2006-01-13,44.7841
2006-01-17,45.2362
2006-01-18,45.2938
2006-01-19,45.3185
2006-01-20,44.7184
2006-01-23,44.0196
2006-01-24,44.5129
2006-01-25,42.9592
2006-01-26,42.5236
2006-01-27,42.4742
2006-01-30,42.4249
2006-01-31,42.1125
2006-02-01,42.7537
2006-02-02,42.3509
2006-02-03,42.3345
2006-02-06,41.9564
2006-02-07,42.0303
2006-02-08,41.7755
2006-02-09,41.7591
2006-02-10,42.4249
2006-02-13,42.4002
2006-02-14,42.8359
2006-02-15,42.9921
2006-02-16,43.584
2006-02-17,44.1594
2006-02-21,43.4771
2006-02-22,43.7868
2006-02-23,43.2169
2006-02-24,43.3573
2006-02-27,42.9361
2006-02-28,42.2176
2006-03-01,42.4076
2006-03-02,42.3167
2006-03-03,42.3002
2006-03-06,42.4571
2006-03-07,42.7297
2006-03-08,43.4316
2006-03-09,43.0683
2006-03-10,43.2499
2006-03-13,43.1839
2006-03-14,43.8859
2006-03-15,43.5885
2006-03-16,43.3656
2006-03-17,44.4474
2006-03-20,44.8851
2006-03-21,44.3814
2006-03-22,44.6126
2006-03-23,44.3566
2006-03-24,44.0675
2006-03-27,43.8115
2006-03-28,43.3656
2006-03-29,43.6794
2006-03-30,43.4647
2006-03-31,43.1096
2006-04-03,42.9774
2006-04-04,42.9774
2006-04-05,42.9526
2006-04-06,42.8948
2006-04-07,41.7386
2006-04-10,41.4991
2006-04-11,41.4083
2006-04-12,42.4902
2006-04-13,41.9534
2006-04-17,41.334
2006-04-18,41.7469
2006-04-19,41.8708
2006-04-20,41.1027
2006-04-21,42.2672
2006-04-24,43.3325
2006-04-25,43.2004
2006-04-26,44.241
2006-04-27,44.2492
2006-04-28,44.018
2006-05-01,43.8776
2006-05-02,43.9519
2006-05-03,43.7124
2006-05-04,43.795
2006-05-05,44.4144
2006-05-08,44.3483
2006-05-09,44.7117
2006-05-10,44.9512
2006-05-11,44.6539
2006-05-12,44.4887
2006-05-15,45.1081
2006-05-16,45.1659
2006-05-17,45.4054
2006-05-18,45.5376
2006-05-19,46.157
2006-05-22,46.4047
2006-05-23,46.4669
2006-05-24,46.7489
2006-05-25,47.0061
2006-05-26,47.1471
2006-05-30,46.8236
2006-05-31,47.23
2006-06-01,47.2881
2006-06-02,46.724
2006-06-05,46.3508
2006-06-06,46.4006
2006-06-07,46.0522
2006-06-08,45.9195
2006-06-09,45.9526
2006-06-12,45.596
2006-06-13,44.8411
2006-06-14,44.8246
2006-06-15,45.2144
2006-06-16,45.4301
2006-06-19,44.866
2006-06-20,45.5047
2006-06-21,45.5877
2006-06-22,45.5379
2006-06-23,45.3139
2006-06-26,45.5296
2006-06-27,45.8614
2006-06-28,45.9609
2006-06-29,46.3342
2006-06-30,45.7121
2006-07-03,45.8116
2006-07-05,45.8697
2006-07-06,46.2844
2006-07-07,46.0688
2006-07-10,46.525
2006-07-11,46.7406
2006-07-12,47.0724
2006-07-13,46.7821
2006-07-14,46.1185
2006-07-17,46.1019
2006-07-18,46.5747
2006-07-19,46.7075
2006-07-20,46.5333
2006-07-21,46.5582
2006-07-24,46.2595
2006-07-25,46.7572
2006-07-26,46.5913
2006-07-27,45.8863
2006-07-28,46.4752
2006-07-31,45.6789
2006-08-01,45.6706
2006-08-02,44.4098
2006-08-03,44.0863
2006-08-04,44.0117
2006-08-07,43.3398
2006-08-08,43.5057
2006-08-09,43.5886
2006-08-10,43.796
2006-08-11,43.5721
2006-08-14,43.8292
2006-08-15,43.5721
2006-08-16,43.4808
2006-08-17,43.9951
2006-08-18,44.6753
2006-08-21,44.7333
2006-08-22,44.4513
2006-08-23,44.5844
2006-08-24,44.7178
2006-08-25,44.9512
2006-08-28,44.7261
2006-08-29,44.6761
2006-08-30,44.5344
2006-08-31,45.0179
2006-09-01,45.2763
2006-09-05,43.2422
2006-09-06,43.2255
2006-09-07,42.9838
2006-09-08,42.792
2006-09-11,42.2335
2006-09-12,42.5586
2006-09-13,42.3502
2006-09-14,42.5919
2006-09-15,43.2589
2006-09-18,42.2168
2006-09-19,42.8754
2006-09-20,43.2422
2006-09-21,43.0838
2006-09-22,43.0838
2006-09-25,43.3589
2006-09-26,43.9758
2006-09-27,44.1175
2006-09-28,44.4343
2006-09-29,44.5594
2006-10-02,44.2426
2006-10-03,43.7341
2006-10-04,43.9758
2006-10-05,44.2843
2006-10-06,44.3176
2006-10-09,44.6261
2006-10-10,44.0008
2006-10-11,44.326
2006-10-12,44.4427
2006-10-13,44.426
2006-10-16,44.0175
2006-10-17,43.8008
2006-10-18,43.9508
2006-10-19,42.0251
2006-10-20,42.5252
2006-10-23,42.5919
2006-10-24,42.9504
2006-10-25,42.9921
2006-10-26,43.6924
2006-10-27,43.6924
2006-10-30,43.4923
2006-10-31,44.1092
2006-11-01,43.7841
2006-11-02,44.1842
2006-11-03,44.2926
2006-11-06,44.2259
2006-11-07,44.501
2006-11-08,44.3343
2006-11-09,44.0092
2006-11-10,44.1092
2006-11-13,44.0175
2006-11-14,43.9175
2006-11-15,43.9842
2006-11-16,44.1426
2006-11-17,43.9508
2006-11-20,43.6491
2006-11-21,43.7496
2006-11-22,44.4116
2006-11-24,44.5038
2006-11-27,44.244
2006-11-28,44.3529
2006-11-29,44.3948
2006-11-30,44.3529
2006-12-01,42.5849
2006-12-04,43.3558
2006-12-05,43.0625
2006-12-06,42.8195
2006-12-07,41.395
2006-12-08,41.638
2006-12-11,41.9229
2006-12-12,42.0234
2006-12-13,41.7553
2006-12-14,42.4508
2006-12-15,42.7692
2006-12-18,42.4005
2006-12-19,42.3754
2006-12-20,42.1072
2006-12-21,41.9145
2006-12-22,41.7637
2006-12-26,42.2078
2006-12-27,42.1994
2006-12-28,42.015
2006-12-29,41.772
2007-01-03,41.705
2007-01-04,42.2748
2007-01-05,41.9145
2007-01-08,42.367
2007-01-09,42.2161
2007-01-10,42.0988
2007-01-11,42.3335
2007-01-12,42.3418
2007-01-16,42.367
2007-01-17,42.5681
2007-01-18,43.6826
2007-01-19,43.8669
2007-01-22,43.8502
2007-01-23,43.8585
2007-01-24,42.7273
2007-01-25,42.0569
2007-01-26,42.2497
2007-01-29,42.9871
2007-01-30,42.8027
2007-01-31,42.8195
2007-02-01,43.2887
2007-02-02,43.4647
2007-02-05,43.1211
2007-02-06,42.9033
2007-02-07,42.8865
2007-02-08,42.6016
2007-02-09,42.5262
2007-02-12,42.4592
2007-02-13,42.5765
2007-02-14,42.9871
2007-02-15,43.6239
2007-02-16,43.8585
2007-02-20,44.8725
2007-02-21,45.184
2007-02-22,44.7713
2007-02-23,44.7292
2007-02-26,45.125
2007-02-27,44.1312
2007-02-28,44.5692
2007-03-01,44.6534
2007-03-02,44.7039
2007-03-05,45.0661
2007-03-06,45.8746
2007-03-07,45.563
2007-03-08,45.8325
2007-03-09,46.0178
2007-03-12,45.9167
2007-03-13,44.9819
2007-03-14,44.9987
2007-03-15,45.2514
2007-03-16,44.9987
2007-03-19,45.0913
2007-03-20,45.125
2007-03-21,45.1924
2007-03-22,45.6304
2007-03-23,45.7062
2007-03-26,46.0093
2007-03-27,45.8577
2007-03-28,46.4641
2007-03-29,45.9841
2007-03-30,46.0178
2007-04-02,46.7589
2007-04-03,46.9021
2007-04-04,46.8768
2007-04-05,47.3232
2007-04-09,46.5989
2007-04-10,46.6747
2007-04-11,46.582
2007-04-12,46.2452
2007-04-13,46.641
2007-04-16,45.8577
2007-04-17,45.8999
2007-04-18,45.8999
2007-04-19,45.4788
2007-04-20,45.8999
2007-04-23,46.0767
2007-04-24,46.0515
2007-04-25,46.422
2007-04-26,46.1357
2007-04-27,45.9504
2007-04-30,46.3378
2007-05-01,46.2957
2007-05-02,46.5315
2007-05-03,46.5062
2007-05-04,46.8094
2007-05-07,47.0452
2007-05-08,46.5989
2007-05-09,46.321
2007-05-10,44.5355
2007-05-11,44.207
2007-05-14,44.0975
2007-05-15,43.8786
2007-05-16,44.2323
2007-05-17,43.6512
2007-05-18,43.5585
2007-05-21,43.828
2007-05-22,44.0049
2007-05-23,44.0047
2007-05-24,43.9962
2007-05-25,44.3179
2007-05-29,44.1063
2007-05-30,44.6396
2007-05-31,44.6481
2007-06-01,44.8597
2007-06-04,44.2841
2007-06-05,43.8015
2007-06-06,43.1073
2007-06-07,42.7687
2007-06-08,43.3275
2007-06-11,43.429
2007-06-12,42.8788
2007-06-13,43.319
2007-06-14,43.0904
2007-06-15,43.2428
2007-06-18,43.3359
2007-06-19,43.1158
2007-06-20,42.811
2007-06-21,42.7349
2007-06-22,42.464
2007-06-25,42.4724
2007-06-26,42.2862
2007-06-27,43.3698
2007-06-28,43.1751
2007-06-29,42.828
2007-07-02,43.0481
2007-07-03,42.8449
2007-07-05,42.6841
2007-07-06,43.0312
2007-07-09,42.938
2007-07-10,42.464
2007-07-11,42.811
2007-07-12,42.9634
2007-07-13,43.2936
2007-07-16,42.811
2007-07-17,42.4216
2007-07-18,42.3285
2007-07-19,41.0756
2007-07-20,40.4745
2007-07-23,40.0089
2007-07-24,40.1867
2007-07-25,40.1782
2007-07-26,39.1793
2007-07-27,38.8576
2007-07-30,39.1031
2007-07-31,39.0438
2007-08-01,39.2724
2007-08-02,39.4502
2007-08-03,38.1972
2007-08-06,39.4078
2007-08-07,39.8227
2007-08-08,40.9909
2007-08-09,40.3729
2007-08-10,39.8734
2007-08-13,39.4502
2007-08-14,39.2893
2007-08-15,39.5179
2007-08-16,37.2914
2007-08-17,39.1369
2007-08-20,38.629
2007-08-21,38.5189
2007-08-22,39.7188
2007-08-23,39.7699
2007-08-24,39.7358
2007-08-27,39.7699
2007-08-28,38.7473
2007-08-29,39.4205
2007-08-30,39.3438
2007-08-31,39.5909
2007-09-04,39.5654
2007-09-05,38.9859
2007-09-06,39.0711
2007-09-07,38.5683
2007-09-10,38.5087
2007-09-11,38.7814
2007-09-12,38.8836
2007-09-13,38.7473
2007-09-14,38.5939
2007-09-17,38.6706
2007-09-18,39.0882
2007-09-19,39.4375
2007-09-20,39.0711
2007-09-21,39.6932
2007-09-24,39.3608
2007-09-25,39.3523
2007-09-26,39.216
2007-09-27,39.4375
2007-09-28,39.4972
2007-10-01,40.3579
2007-10-02,39.0285
2007-10-03,37.9463
2007-10-04,37.9633
2007-10-05,38.6706
2007-10-08,37.9548
2007-10-09,39.2841
2007-10-10,38.6621
2007-10-11,38.3638
2007-10-12,38.5172
2007-10-15,38.6195
2007-10-16,37.9037
2007-10-17,37.7673
2007-10-18,36.6254
2007-10-19,35.5943
2007-10-22,35.85
2007-10-23,36.0545
2007-10-24,35.8329
2007-10-25,35.7392
2007-10-26,35.5517
2007-10-29,35.5176
2007-10-30,36.2335
2007-10-31,36.7021
2007-11-01,35.8585
2007-11-02,35.5006
2007-11-05,35.3557
2007-11-06,35.3813
2007-11-07,34.7678
2007-11-08,34.9467
2007-11-09,34.9978
2007-11-12,35.2024
2007-11-13,35.7562
2007-11-14,34.2735
2007-11-15,33.7537
2007-11-16,34.0008
2007-11-19,33.4409
2007-11-20,33.4066
2007-11-21,32.9086
2007-11-23,33.2263
2007-11-26,33.0374
2007-11-27,33.5354
2007-11-28,34.454
2007-11-29,34.2995
2007-11-30,34.205
2007-12-03,33.8788
2007-12-04,34.1621
2007-12-05,34.6515
2007-12-06,34.7717
2007-12-07,34.6171
2007-12-10,34.5399
2007-12-11,33.6641
2007-12-12,33.1662
2007-12-13,33.1833
2007-12-14,32.9945
2007-12-17,32.8313
2007-12-18,33.3722
2007-12-19,33.3894
2007-12-20,33.6384
2007-12-21,33.8273
2007-12-24,33.9475
2007-12-26,34.0762
2007-12-27,33.7242
2007-12-28,33.8358
2007-12-31,33.8015
2008-01-02,33.3121
2008-01-03,33.4237
2008-01-04,33.0717
2008-01-07,33.149
2008-01-08,32.5308
2008-01-09,32.445
2008-01-10,32.548
2008-01-11,32.2132
2008-01-14,32.0415
2008-01-15,31.2087
2008-01-16,31.8354
2008-01-17,32.0157
2008-01-18,31.5607
2008-01-22,30.8309
2008-01-23,31.2773
2008-01-24,30.6763
2008-01-25,29.2855
2008-01-28,30.6763
2008-01-29,31.5092
2008-01-30,30.994
2008-01-31,31.1056
2008-02-01,30.891
2008-02-04,30.539
2008-02-05,30.1526
2008-02-06,30.0668
2008-02-07,29.9552
2008-02-08,29.5774
2008-02-11,29.835
2008-02-12,30.9167
2008-02-13,30.7708
2008-02-14,30.642
2008-02-15,30.9425
2008-02-19,31.8612
2008-02-20,31.7839
2008-02-21,31.695
2008-02-22,31.7383
2008-02-25,32.7856
2008-02-26,32.5606
2008-02-27,32.249
2008-02-28,32.0759
2008-02-29,32.1105
2008-03-03,32.0153
2008-03-04,31.998
2008-03-05,32.197
2008-03-06,30.8382
2008-03-07,30.3362
2008-03-10,30.5785
2008-03-11,31.444
2008-03-12,31.946
2008-03-13,31.8249
2008-03-14,31.5219
2008-03-17,31.0719
2008-03-18,31.5392
2008-03-19,32.0153
2008-03-20,32.8548
2008-03-24,33.227
2008-03-25,33.4001
2008-03-26,32.9847
2008-03-27,33.0539
2008-03-28,32.6817
2008-03-31,32.5779
2008-04-01,33.9194
2008-04-02,33.7896
2008-04-03,33.755
2008-04-04,33.7463
2008-04-07,33.9021
2008-04-08,33.6684
2008-04-09,33.2962
2008-04-10,33.1578
2008-04-11,31.1498
2008-04-14,31.2796
2008-04-15,31.1151
2008-04-16,31.1584
2008-04-17,30.9161
2008-04-18,30.7863
2008-04-21,30.9161
2008-04-22,30.6737
2008-04-23,30.4314
2008-04-24,30.0592
2008-04-25,30.0765
2008-04-28,31.4267
2008-04-29,32.3528
2008-04-30,32.3009
2008-05-01,33.1404
2008-05-02,33.0106
2008-05-05,33.0193
2008-05-06,33.1145
2008-05-07,32.8894
2008-05-08,32.4567
2008-05-09,31.972
2008-05-12,32.197
2008-05-13,32.2663
2008-05-14,32.2403
2008-05-15,32.3182
2008-05-16,32.4221
2008-05-19,32.5952
2008-05-20,32.1711
2008-05-21,31.7676
2008-05-22,32.0992
2008-05-23,31.8636
2008-05-27,34.7865
2008-05-28,33.9314
2008-05-29,35.118
2008-05-30,34.2019
2008-06-02,33.9401
2008-06-03,33.5213
2008-06-04,33.6958
2008-06-05,33.6435
2008-06-06,32.7361
2008-06-09,32.4831
2008-06-10,32.8321
2008-06-11,32.3173
2008-06-12,32.4394
2008-06-13,33.373
2008-06-16,31.3401
2008-06-17,30.7642
2008-06-18,30.1186
2008-06-19,29.9441
2008-06-20,29.4293
2008-06-23,29.1676
2008-06-24,29.0716
2008-06-25,29.2025
2008-06-26,28.775
2008-06-27,28.3474
2008-06-30,28.6179
2008-07-01,28.4609
2008-07-02,28.5743
2008-07-03,28.679
2008-07-07,29.1763
2008-07-08,29.4555
2008-07-09,29.3682
2008-07-10,29.3682
2008-07-11,29.2636
2008-07-14,29.6387
2008-07-15,29.2025
2008-07-16,29.63
2008-07-17,30.3803
2008-07-18,30.5374
2008-07-21,30.0052
2008-07-22,30.4414
2008-07-23,32.1428
2008-07-24,31.6629
2008-07-25,31.6804
2008-07-28,31.4535
2008-07-29,32.0381
2008-07-30,32.2126
2008-07-31,32.0643
2008-08-01,31.8461
2008-08-04,32.2126
2008-08-05,32.7448
2008-08-06,35.0482
2008-08-07,35.371
2008-08-08,35.3274
2008-08-11,36.0516
2008-08-12,35.6764
2008-08-13,35.563
2008-08-14,35.9731
2008-08-15,36.2435
2008-08-18,32.9106
2008-08-19,32.9804
2008-08-20,33.0415
2008-08-21,32.8373
2008-08-22,32.8989
2008-08-25,32.2129
2008-08-26,31.7996
2008-08-27,32.0282
2008-08-28,32.0986
2008-08-29,31.7556
2008-09-02,32.3009
2008-09-03,32.4152
2008-09-04,32.081
2008-09-05,33.1715
2008-09-08,34.1564
2008-09-09,33.9893
2008-09-10,33.9102
2008-09-11,35.6338
2008-09-12,36.0911
2008-09-15,34.7896
2008-09-16,35.2733
2008-09-17,35.5019
2008-09-18,37.4982
2008-09-19,35.7657
2008-09-22,37.5422
2008-09-23,36.5572
2008-09-24,35.458
2008-09-25,36.1439
2008-09-26,36.1439
2008-09-29,34.4642
2008-09-30,34.5082
2008-10-01,35.1765
2008-10-02,34.4466
2008-10-03,34.218
2008-10-06,32.7582
2008-10-07,32.9252
2008-10-08,32.8373
2008-10-09,31.0081
2008-10-10,30.9378
2008-10-13,31.228
2008-10-14,30.3574
2008-10-15,29.2669
2008-10-16,30.9466
2008-10-17,30.9554
2008-10-20,31.2807
2008-10-21,31.5182
2008-10-22,30.5332
2008-10-23,31.1136
2008-10-24,29.5483
2008-10-27,29.1174
2008-10-28,31.4214
2008-10-29,31.6941
2008-10-30,32.2569
2008-10-31,32.5559
2008-11-03,33.1099
2008-11-04,33.62
2008-11-05,32.1426
2008-11-06,31.0697
2008-11-07,31.9755
2008-11-10,31.8963
2008-11-11,31.3335
2008-11-12,30.6827
2008-11-13,32.125
2008-11-14,31.6853
2008-11-17,30.243
2008-11-18,30.3486
2008-11-19,29.7506
2008-11-20,28.836
2008-11-21,30.7332
2008-11-24,32.0378
2008-11-25,30.9285
2008-11-26,30.9285
2008-11-28,31.9491
2008-12-01,30.4493
2008-12-02,31.1681
2008-12-03,31.3633
2008-12-04,30.5291
2008-12-05,30.6889
2008-12-08,31.4077
2008-12-09,31.035
2008-12-10,31.6385
2008-12-11,31.3101
2008-12-12,31.5763
2008-12-15,31.3633
2008-12-16,32.4993
2008-12-17,32.0645
2008-12-18,31.461
2008-12-19,31.2036
2008-12-22,31.1326
2008-12-23,30.9462
2008-12-24,31.1681
2008-12-26,30.9107
2008-12-29,30.4493
2008-12-30,31.3278
2008-12-31,30.964
2009-01-02,31.7805
2009-01-05,31.4698
2009-01-06,31.9668
2009-01-07,31.4698
2009-01-08,31.0971
2009-01-09,30.5646
2009-01-12,30.9019
2009-01-13,30.9196
2009-01-14,30.254
2009-01-15,30.5025
2009-01-16,31.0261
2009-01-20,30.0676
2009-01-21,29.9966
2009-01-22,31.0616
2009-01-23,31.0527
2009-01-26,31.0794
2009-01-27,33.3868
2009-01-28,33.1472
2009-01-29,33.5998
2009-01-30,33.0407
2009-02-02,32.4461
2009-02-03,32.8188
2009-02-04,32.3129
2009-02-05,32.3662
2009-02-06,33.227
2009-02-09,32.5881
2009-02-10,31.8337
2009-02-11,31.8515
2009-02-12,32.3839
2009-02-13,32.7922
2009-02-17,30.9462
2009-02-18,30.893
2009-02-19,31.0527
2009-02-20,30.751
2009-02-23,30.2032
2009-02-24,30.5344
2009-02-25,30.5702
2009-02-26,29.8989
2009-02-27,30.2569
2009-03-02,30.0152
2009-03-03,29.6214
2009-03-04,29.8989
2009-03-05,28.1891
2009-03-06,28.6635
2009-03-09,27.652
2009-03-10,27.4819
2009-03-11,27.6878
2009-03-12,28.7799
2009-03-13,29.684
2009-03-16,29.8183
2009-03-17,31.349
2009-03-18,31.5012
2009-03-19,31.2774
2009-03-20,31.3132
2009-03-23,32.3606
2009-03-24,31.6624
2009-03-25,31.2864
2009-03-26,31.358
2009-03-27,31.1879
2009-03-30,31.1074
2009-03-31,31.0805
2009-04-01,31.5907
2009-04-02,31.8324
2009-04-03,32.3248
2009-04-06,32.2711
2009-04-07,31.5639
2009-04-08,32.3785
2009-04-09,32.656
2009-04-13,32.3158
2009-04-14,31.8862
2009-04-15,32.1637
2009-04-16,32.289
2009-04-17,32.0652
2009-04-20,32.101
2009-04-21,31.8862
2009-04-22,32.28
2009-04-23,33.4706
2009-04-24,32.3427
2009-04-27,32.1368
2009-04-28,32.1905
2009-04-29,32.3606
2009-04-30,32.3606
2009-05-01,31.9757
2009-05-04,32.3964
2009-05-05,32.092
2009-05-06,31.6087
2009-05-07,31.4565
2009-05-08,31.5102
2009-05-11,31.6713
2009-05-12,31.9041
2009-05-13,31.5639
2009-05-14,31.4923
2009-05-15,31.5818
2009-05-18,31.7608
2009-05-19,31.9936
2009-05-20,31.7029
2009-05-21,31.4411
2009-05-22,31.4772
2009-05-26,31.8022
2009-05-27,31.3779
2009-05-28,31.5133
2009-05-29,31.739
2009-06-01,31.9647
2009-06-02,32.2445
2009-06-03,32.1543
2009-06-04,31.721
2009-06-05,31.5133
2009-06-08,31.8293
2009-06-09,31.8925
2009-06-10,31.6217
2009-06-11,31.7841
2009-06-12,31.8564
2009-06-15,31.1071
2009-06-16,30.5565
2009-06-17,30.7731
2009-06-18,31.1793
2009-06-19,31.4231
2009-06-22,31.3779
2009-06-23,31.3779
2009-06-24,31.8834
2009-06-25,32.6959
2009-06-26,32.4883
2009-06-29,32.5244
2009-06-30,32.4883
2009-07-01,33.2194
2009-07-02,32.8854
2009-07-06,33.5083
2009-07-07,33.1021
2009-07-08,33.4541
2009-07-09,33.2826
2009-07-10,33.1201
2009-07-13,33.2556
2009-07-14,33.8333
2009-07-15,34.2395
2009-07-16,34.4652
2009-07-17,34.4291
2009-07-20,34.5915
2009-07-21,34.8172
2009-07-22,35.1151
2009-07-23,37.6878
2009-07-24,37.0198
2009-07-27,36.8664
2009-07-28,37.1462
2009-07-29,36.5594
2009-07-30,36.2886
2009-07-31,36.0991
2009-08-03,35.9456
2009-08-04,35.6206
2009-08-05,35.1603
2009-08-06,35.1422
2009-08-07,35.3408
2009-08-10,35.1151
2009-08-11,35.0519
2009-08-12,34.6999
2009-08-13,34.9617
2009-08-14,35.1693
2009-08-17,34.6908
2009-08-18,35.1873
2009-08-19,35.404
2009-08-20,35.5304
2009-08-21,36.056
2009-08-24,35.765
2009-08-25,35.6467
2009-08-26,35.6831
2009-08-27,35.4648
2009-08-28,35.4557
2009-08-31,35.6922
2009-09-01,35.0009
2009-09-02,34.9827
2009-09-03,35.1464
2009-09-04,35.1101
2009-09-08,35.6012
2009-09-09,36.8383
2009-09-10,36.8201
2009-09-11,36.62
2009-09-14,36.1561
2009-09-15,35.9742
2009-09-16,35.8286
2009-09-17,35.4102
2009-09-18,36.0469
2009-09-21,35.8195
2009-09-22,35.6922
2009-09-23,35.7104
2009-09-24,35.5194
2009-09-25,35.5103
2009-09-28,35.6558
2009-09-29,35.5194
2009-09-30,35.3375
2009-10-01,36.247
2009-10-02,35.9833
2009-10-05,35.7104
2009-10-06,35.8741
2009-10-07,35.7832
2009-10-08,36.0378
2009-10-09,36.3107
2009-10-12,36.1106
2009-10-13,35.8559
2009-10-14,36.0015
2009-10-15,36.1288
2009-10-16,36.0015
2009-10-19,36.0015
2009-10-20,37.1748
2009-10-21,37.1202
2009-10-22,35.7286
2009-10-23,34.6826
2009-10-26,34.5461
2009-10-27,34.7826
2009-10-28,34.6553
2009-10-29,34.9554
2009-10-30,34.4188
2009-11-02,34.4552
2009-11-03,33.9822
2009-11-04,33.873
2009-11-05,33.9549
2009-11-06,34.2005
2009-11-09,34.4188
2009-11-10,34.6098
2009-11-11,34.6371
2009-11-12,34.3824
2009-11-13,34.728
2009-11-16,35.2101
2009-11-17,34.7826
2009-11-18,34.255
2009-11-19,33.7912
2009-11-20,33.7912
2009-11-23,33.3581
2009-11-24,33.5965
2009-11-25,32.918
2009-11-27,32.6429
2009-11-30,32.4504
2009-12-01,32.918
2009-12-02,33.0372
2009-12-03,32.8997
2009-12-04,32.973
2009-12-07,32.9455
2009-12-08,32.6246
2009-12-09,32.3587
2009-12-10,32.6246
2009-12-11,33.0189
2009-12-14,33.1197
2009-12-15,33.0464
2009-12-16,33.0372
2009-12-17,32.7071
2009-12-18,32.3862
2009-12-21,32.6338
2009-12-22,33.1656
2009-12-23,33.3215
2009-12-24,33.4498
2009-12-28,33.5324
2009-12-29,33.3857
2009-12-30,33.459
2009-12-31,32.8263
2010-01-04,33.2206
2010-01-05,34.0642
2010-01-06,33.7799
2010-01-07,33.4773
2010-01-08,33.3398
2010-01-11,33.1839
2010-01-12,34.6143
2010-01-13,33.6057
2010-01-14,33.9083
2010-01-15,33.2848
2010-01-19,34.2476
2010-01-20,33.9725
2010-01-21,33.2023
2010-01-22,33.2756
2010-01-25,33.4498
2010-01-26,33.4773
2010-01-27,34.165
2010-01-28,34.0458
2010-01-29,33.4315
2010-02-01,33.7157
2010-02-02,34.0734
2010-02-03,34.0917
2010-02-04,33.8625
2010-02-05,34.2384
2010-02-08,33.8808
2010-02-09,34.0642
2010-02-10,34.1284
2010-02-11,34.3118
2010-02-12,34.4493
2010-02-16,35.1645
2010-02-17,35.2104
2010-02-18,35.568
2010-02-19,36.6224
2010-02-22,36.4299
2010-02-23,36.3189
2010-02-24,36.6239
2010-02-25,36.6516
2010-02-26,36.7903
2010-03-01,36.8735
2010-03-02,37.1508
2010-03-03,37.6962
2010-03-04,37.9827
2010-03-05,38.297
2010-03-08,38.0659
2010-03-09,38.3895
2010-03-10,38.3617
2010-03-11,38.5189
2010-03-12,39.4063
2010-03-15,39.6928
2010-03-16,40.2382
2010-03-17,39.85
2010-03-18,39.7021
2010-03-19,39.2399
2010-03-22,39.6004
2010-03-23,39.8962
2010-03-24,39.4618
2010-03-25,39.4248
2010-03-26,39.2676
2010-03-29,39.6559
2010-03-30,39.7668
2010-03-31,39.5727
2010-04-01,39.7668
2010-04-05,39.9702
2010-04-06,40.0534
2010-04-07,40.0534
2010-04-08,40.1735
2010-04-09,40.7651
2010-04-12,40.9408
2010-04-13,40.608
2010-04-14,40.7744
2010-04-15,40.9315
2010-04-16,40.5895
2010-04-19,40.9592
2010-04-20,41.4954
2010-04-21,41.3937
2010-04-22,44.5089
2010-04-23,45.008
2010-04-26,44.2223
2010-04-27,43.5105
2010-04-28,43.3626
2010-04-29,43.6215
2010-04-30,43.492
2010-05-03,43.9265
2010-05-04,43.492
2010-05-05,43.4273
2010-05-06,42.9097
2010-05-07,42.9651
2010-05-10,44.2131
2010-05-11,44.2223
2010-05-12,44.361
2010-05-13,43.9635
2010-05-14,43.6492
2010-05-17,44.4164
2010-05-18,44.2593
2010-05-19,44.1391
2010-05-20,43.1778
2010-05-21,43.3365
2010-05-24,43.4389
2010-05-25,42.9084
2010-05-26,42.7408
2010-05-27,43.9787
2010-05-28,43.6157
2010-06-01,44.6954
2010-06-02,45.2725
2010-06-03,45.9799
2010-06-04,44.9188
2010-06-07,45.2167
2010-06-08,46.9572
2010-06-09,47.6646
2010-06-10,48.1579
2010-06-11,47.2737
2010-06-14,47.3016
2010-06-15,46.5849
2010-06-16,46.4732
2010-06-17,47.0037
2010-06-18,46.7152
2010-06-21,45.9334
2010-06-22,45.7472
2010-06-23,45.9054
2010-06-24,45.8868
2010-06-25,45.0491
2010-06-28,45.5797
2010-06-29,44.8351
2010-06-30,44.5837
2010-07-01,44.3417
2010-07-02,44.8444
2010-07-06,45.9147
2010-07-07,46.5291
2010-07-08,46.8827
2010-07-09,47.2644
2010-07-12,47.2085
2010-07-13,47.6553
2010-07-14,47.7856
2010-07-15,48.0183
2010-07-16,47.2364
2010-07-19,47.0503
2010-07-20,46.5011
2010-07-21,46.2871
2010-07-22,44.4255
2010-07-23,43.9508
2010-07-26,44.2952
2010-07-27,43.7368
2010-07-28,43.2155
2010-07-29,43.1131
2010-07-30,43.774
2010-08-02,43.2621
2010-08-03,43.0201
2010-08-04,42.9921
2010-08-05,42.9363
2010-08-06,42.9642
2010-08-09,43.0852
2010-08-10,43.1224
2010-08-11,42.8804
2010-08-12,42.8618
2010-08-13,43.1969
2010-08-16,43.0852
2010-08-17,43.6157
2010-08-18,44.3138
2010-08-19,43.9043
2010-08-20,44.4255
2010-08-23,44.5098
2010-08-24,43.8632
2010-08-25,43.4603
2010-08-26,43.5915
2010-08-27,44.1256
2010-08-30,42.9637
2010-08-31,43.5165
2010-09-01,44.1537
2010-09-02,43.985
2010-09-03,44.1912
2010-09-07,43.5259
2010-09-08,43.4697
2010-09-09,43.4322
2010-09-10,43.0105
2010-09-13,42.87
2010-09-14,42.617
2010-09-15,42.8137
2010-09-16,44.2849
2010-09-17,44.388
2010-09-20,45.1189
2010-09-21,44.9689
2010-09-22,44.7722
2010-09-23,44.5566
2010-09-24,45.0252
2010-09-27,44.4442
2010-09-28,44.6691
2010-09-29,44.7347
2010-09-30,44.6222
2010-10-01,44.7441
2010-10-04,44.6222
2010-10-05,45.0439
2010-10-06,45.072
2010-10-07,44.8471
2010-10-08,45.7092
2010-10-11,46.1121
2010-10-12,46.7493
2010-10-13,47.5552
2010-10-14,47.6208
2010-10-15,48.3985
2010-10-18,48.0893
2010-10-19,47.7426
2010-10-20,47.8644
2010-10-21,46.2059
2010-10-22,46.7681
2010-10-25,46.4776
2010-10-26,46.2527
2010-10-27,45.8123
2010-10-28,46.2714
2010-10-29,46.3652
2010-11-01,46.0184
2010-11-02,45.8029
2010-11-03,46.0466
2010-11-04,45.8029
2010-11-05,45.4
2010-11-08,45.3719
2010-11-09,45.1376
2010-11-10,44.8565
2010-11-11,44.9689
2010-11-12,44.5754
2010-11-15,44.0413
2010-11-16,43.4978
2010-11-17,43.3572
2010-11-18,43.5821
2010-11-19,43.5821
2010-11-22,43.9595
2010-11-23,44.0821
2010-11-24,44.4784
2010-11-26,44.5445
2010-11-29,44.0444
2010-11-30,44.1765
2010-12-01,44.5539
2010-12-02,44.6011
2010-12-03,44.1293
2010-12-06,43.8274
2010-12-07,43.365
2010-12-08,43.3462
2010-12-09,44.3463
2010-12-10,44.7237
2010-12-13,44.4501
2010-12-14,44.8653
2010-12-15,45.0068
2010-12-16,45.3559
2010-12-17,45.5918
2010-12-20,44.9124
2010-12-21,44.8841
2010-12-22,45.3182
2010-12-23,45.2521
2010-12-27,45.054
2010-12-28,44.7332
2010-12-29,44.686
2010-12-30,44.6011
2010-12-31,44.4879
2011-01-03,44.1576
2011-01-04,43.7425
2011-01-05,43.9972
2011-01-06,45.2144
2011-01-07,45.422
2011-01-10,45.5541
2011-01-11,45.6201
2011-01-12,46.007
2011-01-13,46.9694
2011-01-14,46.7618
2011-01-18,46.9411
2011-01-19,46.3938
2011-01-20,46.3749
2011-01-21,46.5919
2011-01-24,46.0258
2011-01-25,46.7712
2011-01-26,45.8277
2011-01-27,45.1295
2011-01-28,44.3841
2011-01-31,44.0255
2011-02-01,44.4312
2011-02-02,45.8277
2011-02-03,47.6015
2011-02-04,47.6298
2011-02-07,46.9505
2011-02-08,47.4128
2011-02-09,47.5921
2011-02-10,46.8939
2011-02-11,47.1392
2011-02-14,46.9505
2011-02-15,46.875
2011-02-16,46.875
2011-02-17,47.243
2011-02-18,47.4789
2011-02-22,48.4602
2011-02-23,47.999
2011-02-24,49.7089
2011-02-25,49.4049
2011-02-28,49.6899
2011-03-01,49.6234
2011-03-02,50.0793
2011-03-03,50.3643
2011-03-04,50.2693
2011-03-07,50.6588
2011-03-08,51.0293
2011-03-09,51.2192
2011-03-10,50.9628
2011-03-11,51.0578
2011-03-14,50.3738
2011-03-15,50.8773
2011-03-16,50.2503
2011-03-17,50.3643
2011-03-18,51.1623
2011-03-21,51.8082
2011-03-22,51.4947
2011-03-23,51.3902
2011-03-24,51.6182
2011-03-25,51.6657
2011-03-28,51.4852
2011-03-29,52.0267
2011-03-30,51.9792
2011-03-31,51.6277
2011-04-01,51.5422
2011-04-04,51.9697
2011-04-05,52.5396
2011-04-06,52.9101
2011-04-07,52.8816
2011-04-08,52.9101
2011-04-11,53.309
2011-04-12,53.5085
2011-04-13,53.6795
2011-04-14,53.898
2011-04-15,54.4109
2011-04-18,53.708
2011-04-19,53.6605
2011-04-20,53.784
2011-04-21,53.8885
2011-04-25,53.784
2011-04-26,54.4299
2011-04-27,54.7814
2011-04-28,54.6959
2011-04-29,54.8194
2011-05-02,54.7149
2011-05-03,54.3255
2011-05-04,53.8695
2011-05-05,53.4135
2011-05-06,53.2616
2011-05-09,53.0811
2011-05-10,53.8315
2011-05-11,53.423
2011-05-12,54.7244
2011-05-13,54.4489
2011-05-16,54.2305
2011-05-17,54.202
2011-05-18,52.7106
2011-05-19,52.3306
2011-05-20,53.366
2011-05-23,52.7211
2011-05-24,52.4535
2011-05-25,51.7175
2011-05-26,52.0903
2011-05-27,52.5969
2011-05-31,53.2563
2011-06-01,52.7976
2011-06-02,52.4535
2011-06-03,52.0712
2011-06-06,51.8036
2011-06-07,51.7653
2011-06-08,52.2145
2011-06-09,52.0998
2011-06-10,51.5359
2011-06-13,52.291
2011-06-14,52.7115
2011-06-15,52.2623
2011-06-16,53.4188
2011-06-17,53.2086
2011-06-20,53.7056
2011-06-21,53.7247
2011-06-22,53.4475
2011-06-23,53.2659
2011-06-24,53.4475
2011-06-27,53.7247
2011-06-28,54.0114
2011-06-29,54.4606
2011-06-30,54.3842
2011-07-01,54.8621
2011-07-05,54.8812
2011-07-06,55.1584
2011-07-07,55.5216
2011-07-08,55.2157
2011-07-11,54.4989
2011-07-12,54.5849
2011-07-13,54.9194
2011-07-14,54.5275
2011-07-15,54.279
2011-07-18,53.8394
2011-07-19,54.4033
2011-07-20,54.1452
2011-07-21,54.9099
2011-07-22,56.2862
2011-07-25,55.7605
2011-07-26,55.9039
2011-07-27,54.9385
2011-07-28,54.3459
2011-07-29,54.021
2011-08-01,53.9827
2011-08-02,53.5144
2011-08-03,54.5371
2011-08-04,52.6542
2011-08-05,53.7247
2011-08-08,52.2623
2011-08-09,53.7247
2011-08-10,52.2528
2011-08-11,53.4093
2011-08-12,53.3519
2011-08-15,54.2504
2011-08-16,54.0974
2011-08-17,54.2504
2011-08-18,53.0461
2011-08-19,52.6638
2011-08-22,53.7151
2011-08-23,55.3064
2011-08-24,55.0179
2011-08-25,54.1908
2011-08-26,55.0756
2011-08-29,55.7007
2011-08-30,55.9603
2011-08-31,56.2969
2011-09-01,55.8449
2011-09-02,55.0275
2011-09-06,54.6813
2011-09-07,55.4506
2011-09-08,55.6718
2011-09-09,54.4024
2011-09-12,54.489
2011-09-13,55.2102
2011-09-14,55.7199
2011-09-15,56.672
2011-09-16,57.1047
2011-09-19,56.8066
2011-09-20,57.047
2011-09-21,56.0277
2011-09-22,55.5949
2011-09-23,56.7682
2011-09-26,57.701
2011-09-27,57.6048
2011-09-28,56.4989
2011-09-29,56.6335
2011-09-30,57.047
2011-10-03,56.1815
2011-10-04,55.7776
2011-10-05,56.4219
2011-10-06,56.6335
2011-10-07,56.7105
2011-10-10,57.5567
2011-10-11,57.1624
2011-10-12,57.1336
2011-10-13,57.3355
2011-10-14,57.7106
2011-10-17,57.3836
2011-10-18,58.1722
2011-10-19,57.4029
2011-10-20,57.2875
2011-10-21,57.9606
2011-10-24,58.153
2011-10-25,57.5663
2011-10-26,57.5567
2011-10-27,55.2102
2011-10-28,55.2775
2011-10-31,55.066
2011-11-01,55.0371
2011-11-02,55.4603
2011-11-03,56.2296
2011-11-04,55.3833
2011-11-07,55.3545
2011-11-08,55.2102
2011-11-09,54.3832
2011-11-10,54.7582
2011-11-11,54.7679
2011-11-14,53.8927
2011-11-15,54.5563
2011-11-16,54.0274
2011-11-17,54.0081
2011-11-18,54.2005
2011-11-21,54.2005
2011-11-22,54.5445
2011-11-23,53.664
2011-11-25,52.019
2011-11-28,53.7801
2011-11-29,54.3993
2011-11-30,55.8217
2011-12-01,55.8991
2011-12-02,56.0249
2011-12-05,56.5281
2011-12-06,56.7023
2011-12-07,56.3346
2011-12-08,56.7313
2011-12-09,57.4086
2011-12-12,57.1764
2011-12-13,56.8668
2011-12-14,56.9732
2011-12-15,57.3602
2011-12-16,57.4183
2011-12-19,57.6796
2011-12-20,57.6312
2011-12-21,58.6568
2011-12-22,59.0729
2011-12-23,59.0342
2011-12-27,59.5374
2011-12-28,59.5858
2011-12-29,59.9922
2011-12-30,59.8083
2012-01-03,58.831
2012-01-04,58.9665
2012-01-05,58.7826
2012-01-06,58.6956
2012-01-09,58.9955
2012-01-10,58.9955
2012-01-11,59.0923
2012-01-12,59.6632
2012-01-13,59.489
2012-01-17,59.46
2012-01-18,59.9341
2012-01-19,59.6051
2012-01-20,59.5471
2012-01-23,59.789
2012-01-24,59.3632
2012-01-25,59.6245
2012-01-26,59.5084
2012-01-27,59.2955
2012-01-30,59.6922
2012-01-31,59.1213
2012-02-01,59.3052
2012-02-02,59.6148
2012-02-03,59.2181
2012-02-06,59.0342
2012-02-07,58.502
2012-02-08,58.3569
2012-02-09,57.8731
2012-02-10,57.5731
2012-02-13,57.9021
2012-02-14,58.6665
2012-02-15,58.473
2012-02-16,58.5504
2012-02-17,58.8891
2012-02-21,58.7343
2012-02-22,58.637
2012-02-23,59.1433
2012-02-24,59.4939
2012-02-27,58.7928
2012-02-28,58.043
2012-02-29,59.1238
2012-03-01,59.5036
2012-03-02,59.6886
2012-03-05,59.3186
2012-03-06,58.2183
2012-03-07,58.0722
2012-03-08,58.0138
2012-03-09,57.9651
2012-03-12,58.9681
2012-03-13,59.2017
2012-03-14,58.7149
2012-03-15,58.7441
2012-03-16,58.5104
2012-03-19,58.7344
2012-03-20,58.6175
2012-03-21,58.5688
2012-03-22,58.8512
2012-03-23,58.9875
2012-03-26,59.6204
2012-03-27,59.7081
2012-03-28,59.2894
2012-03-29,59.562
2012-03-30,59.7276
2012-04-02,60.2241
2012-04-03,59.8249
2012-04-04,59.7081
2012-04-05,59.1044
2012-04-09,58.2475
2012-04-10,58.5104
2012-04-11,59.1823
2012-04-12,60.0489
2012-04-13,60.0878
2012-04-16,60.0781
2012-04-17,60.8181
2012-04-18,60.7207
2012-04-19,61.3147
2012-04-20,61.4802
2012-04-23,60.6428
2012-04-24,64.2261
2012-04-25,64.7714
2012-04-26,64.8103
2012-04-27,65.0148
2012-04-30,65.2096
2012-05-01,64.9466
2012-05-02,65.2388
2012-05-03,65.6088
2012-05-04,65.1901
2012-05-07,65.3264
2012-05-08,65.9496
2012-05-09,66.2222
2012-05-10,66.8649
2012-05-11,66.6701
2012-05-14,67.1667
2012-05-15,66.7772
2012-05-16,66.7188
2012-05-17,66.5728
2012-05-18,65.638
2012-05-21,65.8814
2012-05-22,66.0664
2012-05-23,65.8213
2012-05-24,66.6047
2012-05-25,66.2913
2012-05-29,66.3207
2012-05-30,66.1934
2012-05-31,65.5275
2012-06-01,64.5484
2012-06-04,64.6365
2012-06-05,64.5679
2012-06-06,65.3317
2012-06-07,65.2925
2012-06-08,66.1542
2012-06-11,65.8899
2012-06-12,66.1542
2012-06-13,67.3586
2012-06-14,67.4566
2012-06-15,67.9853
2012-06-18,68.2791
2012-06-19,68.7687
2012-06-20,69.131
2012-06-21,68.1322
2012-06-22,68.0441
2012-06-25,67.0453
2012-06-26,68.612
2012-06-27,68.0441
2012-06-28,68.4847
2012-06-29,70.4529
2012-07-02,70.5998
2012-07-03,71.0012
2012-07-05,70.7173
2012-07-06,70.776
2012-07-09,70.9621
2012-07-10,70.7271
2012-07-11,70.4823
2012-07-12,70.4627
2012-07-13,71.0208
2012-07-16,70.2668
2012-07-17,70.1004
2012-07-18,70.1983
2012-07-19,70.1102
2012-07-20,69.7577
2012-07-23,69.3856
2012-07-24,68.9645
2012-07-25,68.9254
2012-07-26,69.9927
2012-07-27,70.6683
2012-07-30,70.6683
2012-07-31,70.2668
2012-08-01,69.885
2012-08-02,70.1493
2012-08-03,70.6977
2012-08-06,70.1591
2012-08-07,70.1102
2012-08-08,70.306
2012-08-09,70.2081
2012-08-10,70.6977
2012-08-13,70.8642
2012-08-14,71.2558
2012-08-15,71.0796
2012-08-16,70.6879
2012-08-17,70.3941
2012-08-20,70.825
2012-08-21,70.9621
2012-08-22,71.4051
2012-08-23,71.4937
2012-08-24,71.474
2012-08-27,71.6807
2012-08-28,71.3559
2012-08-29,71.1491
2012-08-30,70.4699
2012-08-31,70.7948
2012-09-04,71.3755
2012-09-05,71.0802
2012-09-06,71.976
2012-09-07,71.1688
2012-09-10,70.8243
2012-09-11,70.0467
2012-09-12,69.8203
2012-09-13,70.8735
2012-09-14,68.8753
2012-09-17,69.2296
2012-09-18,69.9088
2012-09-19,70.1746
2012-09-20,70.6865
2012-09-21,70.4601
2012-09-24,70.6767
2012-09-25,69.8399
2012-09-26,69.5643
2012-09-27,69.7317
2012-09-28,69.7809
2012-10-01,70.2337
2012-10-02,70.2829
2012-10-03,70.5487
2012-10-04,70.1648
2012-10-05,70.3026
2012-10-08,70.5684
2012-10-09,70.1943
2012-10-10,69.5348
2012-10-11,69.3084
2012-10-12,68.452
2012-10-15,69.21
2012-10-16,69.6037
2012-10-17,69.8203
2012-10-18,70.1943
2012-10-19,69.3182
2012-10-22,69.4856
2012-10-23,69.1115
2012-10-24,69.0229
2012-10-25,68.7867
2012-10-26,68.1764
2012-10-31,67.7236
2012-11-01,68.5603
2012-11-02,68.4126
2012-11-05,68.0287
2012-11-06,68.3733
2012-11-07,68.5997
2012-11-08,68.9146
2012-11-09,69.2198
2012-11-12,69.9876
2012-11-13,70.6668
2012-11-14,70.401
2012-11-15,70.5388
2012-11-16,70.6963
2012-11-19,71.4149
2012-11-20,71.6225
2012-11-21,71.2265
2012-11-23,71.6819
2012-11-26,71.9493
2012-11-27,71.5235
2012-11-28,71.8503
2012-11-29,71.8305
2012-11-30,72.4938
2012-12-03,71.979
2012-12-04,71.6819
2012-12-05,71.5235
2012-12-06,71.276
2012-12-07,71.5235
2012-12-10,72.0879
2012-12-11,72.5631
2012-12-12,72.6126
2012-12-13,72.9987
2012-12-14,73.2166
2012-12-17,73.8898
2012-12-18,73.3552
2012-12-19,72.9492
2012-12-20,73.2265
2012-12-21,72.6324
2012-12-24,72.2859
2012-12-26,71.4245
2012-12-27,71.3948
2012-12-28,70.8008
2012-12-31,71.4542
2013-01-02,73.5137
2013-01-03,72.7018
2013-01-04,73.7513
2013-01-07,73.7117
2013-01-08,72.9196
2013-01-09,73.682
2013-01-10,75.1176
2013-01-11,75.3157
2013-01-14,75.7117
2013-01-15,75.4642
2013-01-16,75.6721
2013-01-17,77.2958
2013-01-18,77.5037
2013-01-22,77.9195
2013-01-23,77.9988
2013-01-24,77.3453
2013-01-25,77.0185
2013-01-28,76.4838
2013-01-29,77.068
2013-01-30,77.365
2013-01-31,78.7115
2013-02-01,79.3353
2013-02-04,78.86
2013-02-05,79.2016
2013-02-06,79.5135
2013-02-07,79.5135
2013-02-08,79.3848
2013-02-11,79.5729
2013-02-12,79.959
2013-02-13,80.5531
2013-02-14,80.0679
2013-02-15,80.0976
2013-02-19,80.8997
2013-02-20,80.0482
2013-02-21,79.9187
2013-02-22,80.7945
2013-02-25,80.277
2013-02-26,81.2324
2013-02-27,82.1879
2013-02-28,83.0637
2013-03-01,83.0339
2013-03-04,84.1087
2013-03-05,84.7556
2013-03-06,84.0888
2013-03-07,84.1585
2013-03-08,83.8898
2013-03-11,83.83
2013-03-12,83.8997
2013-03-13,83.9395
2013-03-14,84.0689
2013-03-15,83.5315
2013-03-18,83.8201
2013-03-19,85.0243
2013-03-20,85.522
2013-03-21,84.8452
2013-03-22,85.4722
2013-03-25,85.1438
2013-03-26,86.4575
2013-03-27,86.5172
2013-03-28,87.1542
2013-04-01,86.5869
2013-04-02,85.9698
2013-04-03,85.4423
2013-04-04,85.3229
2013-04-05,85.0542
2013-04-08,84.8054
2013-04-09,85.2533
2013-04-10,86.2983
2013-04-11,86.2087
2013-04-12,86.1291
2013-04-15,86.1589
2013-04-16,88.7665
2013-04-17,88.6172
2013-04-18,89.0949
2013-04-19,89.9309
2013-04-22,89.9508
2013-04-23,90.7868
2013-04-24,88.8959
2013-04-25,88.3883
2013-04-26,87.194
2013-04-29,87.6518
2013-04-30,88.667
2013-05-01,87.5921
2013-05-02,88.866
2013-05-03,89.1347
2013-05-06,88.1594
2013-05-07,88.8163
2013-05-08,88.4182
2013-05-09,87.3035
2013-05-10,87.4229
2013-05-13,88.1992
2013-05-14,89.3636
2013-05-15,89.8812
2013-05-16,89.4831
2013-05-17,89.5925
2013-05-20,88.3485
2013-05-21,88.0101
2013-05-22,89.12
2013-05-23,89.21
2013-05-24,89.15
2013-05-28,90.16
2013-05-29,89.62
2013-05-30,90.52
2013-05-31,89.18
2013-06-03,88.42
2013-06-04,88.91
2013-06-05,87.86
2013-06-06,87.7
2013-06-07,89.42
2013-06-10,87.98
2013-06-11,87.94
2013-06-12,87.71
2013-06-13,87.85
2013-06-14,89.12
2013-06-17,89.7
2013-06-18,89.62
2013-06-19,88.13
2013-06-20,85.36
2013-06-21,86.49
2013-06-24,86.39
2013-06-25,86.4
2013-06-26,88.0
2013-06-27,88.74
2013-06-28,89.38
2013-07-01,90.03
2013-07-02,89.82
2013-07-03,89.61
2013-07-05,89.99
2013-07-08,90.61
2013-07-09,90.84
2013-07-10,90.7
2013-07-11,91.93
2013-07-12,91.61
2013-07-15,92.09
2013-07-16,91.88
2013-07-17,91.52
2013-07-18,92.23
2013-07-19,92.64
2013-07-22,92.81
2013-07-23,93.59
2013-07-24,92.86
2013-07-25,93.93
2013-07-26,94.47
2013-07-29,94.96
2013-07-30,94.59
2013-07-31,94.84
2013-08-01,96.97
2013-08-02,97.18
2013-08-05,97.39
2013-08-06,97.66
2013-08-07,97.02
2013-08-08,97.42
2013-08-09,97.55
