date,close_price
1998-01-02,40.5804
1998-01-05,40.3315
1998-01-06,39.9547
1998-01-07,40.6982
1998-01-08,40.5692
1998-01-09,39.5915
1998-01-12,40.06
1998-01-13,40.3587
1998-01-14,40.1483
1998-01-15,40.06
1998-01-16,40.2297
1998-01-20,41.7982
1998-01-21,42.355
1998-01-22,42.0155
1998-01-23,41.7167
1998-01-26,41.7167
1998-01-27,42.6469
1998-01-28,44.5616
1998-01-29,44.7314
1998-01-30,45.8314
1998-02-02,46.2999
1998-02-03,45.7499
1998-02-04,45.2814
1998-02-05,44.1746
1998-02-06,45.5801
1998-02-09,44.6431
1998-02-10,44.7721
1998-02-11,44.8536
1998-02-12,44.9826
1998-02-13,44.6839
1998-02-17,45.2814
1998-02-18,45.4104
1998-02-19,45.4511
1998-02-20,46.4289
1998-02-23,46.2116
1998-02-24,45.6616
1998-02-25,46.9788
1998-02-26,47.1078
1998-02-27,47.9973
1998-03-02,48.975
1998-03-03,49.1448
1998-03-04,48.846
1998-03-05,48.1263
1998-03-06,49.9052
1998-03-09,50.6725
1998-03-10,50.754
1998-03-11,50.883
1998-03-12,50.1633
1998-03-13,49.9935
1998-03-16,50.204
1998-03-17,50.2447
1998-03-18,50.333
1998-03-19,50.0343
1998-03-20,50.2447
1998-03-23,49.9052
1998-03-24,50.3737
1998-03-25,49.6948
1998-03-26,49.396
1998-03-27,50.5842
1998-03-30,50.9237
1998-03-31,51.3922
1998-04-01,52.7502
1998-04-02,52.7094
1998-04-03,52.4922
1998-04-06,51.2225
1998-04-07,50.8422
1998-04-08,50.7841
1998-04-09,50.6541
1998-04-13,50.5721
1998-04-14,50.9551
1998-04-15,51.1261
1998-04-16,50.531
1998-04-17,50.8251
1998-04-20,50.4011
1998-04-21,50.0181
1998-04-22,49.6761
1998-04-23,48.9921
1998-04-24,48.3082
1998-04-27,46.8513
1998-04-28,47.4532
1998-04-29,48.3082
1998-04-30,48.6501
1998-05-01,49.1631
1998-05-04,48.6501
1998-05-05,48.7322
1998-05-06,48.2603
1998-05-07,48.3492
1998-05-08,48.5202
1998-05-11,48.6912
1998-05-12,48.5202
1998-05-13,48.7733
1998-05-14,48.6023
1998-05-15,48.4792
1998-05-18,47.8362
1998-05-19,47.2822
1998-05-20,48.5612
1998-05-21,49.2862
1998-05-22,49.6761
1998-05-26,50.1001
1998-05-27,50.2711
1998-05-28,50.3122
1998-05-29,49.2862
1998-06-01,49.5461
1998-06-02,49.6761
1998-06-03,49.6761
1998-06-04,50.1891
1998-06-05,51.386
1998-06-08,52.152
1998-06-09,52.706
1998-06-10,52.1931
1998-06-11,51.94
1998-06-12,51.427
1998-06-15,51.044
1998-06-16,51.4681
1998-06-17,52.7539
1998-06-18,53.1369
1998-06-19,53.219
1998-06-22,52.282
1998-06-23,50.5721
1998-06-24,50.0181
1998-06-25,49.2452
1998-06-26,49.3751
1998-06-29,50.1412
1998-06-30,49.4162
1998-07-01,48.7733
1998-07-02,49.6282
1998-07-06,49.7582
1998-07-07,49.6282
1998-07-08,49.2316
1998-07-09,45.2277
1998-07-10,45.7446
1998-07-13,45.5241
1998-07-14,47.2469
1998-07-15,47.0333
1998-07-16,46.7783
1998-07-17,46.2132
1998-07-20,45.5723
1998-07-21,44.7522
1998-07-22,44.7109
1998-07-23,41.9544
1998-07-24,41.8234
1998-07-27,41.5202
1998-07-28,41.0447
1998-07-29,41.1756
1998-07-30,41.4789
1998-07-31,40.4865
1998-08-03,40.1006
1998-08-04,39.3219
1998-08-05,37.5163
1998-08-06,39.1496
1998-08-07,39.4115
1998-08-10,39.6664
1998-08-11,39.4115
1998-08-12,39.3701
1998-08-13,39.3219
1998-08-14,38.5087
1998-08-17,39.2392
1998-08-18,40.4038
1998-08-19,39.2805
1998-08-20,39.3219
1998-08-21,39.3219
1998-08-24,39.7147
1998-08-25,40.0592
1998-08-26,39.3219
1998-08-27,38.7637
1998-08-28,36.6963
1998-08-31,34.2843
1998-09-01,36.8272
1998-09-02,36.6963
1998-09-03,36.0071
1998-09-04,35.9658
1998-09-08,37.1304
1998-09-09,36.3931
1998-09-10,35.4076
1998-09-11,34.8425
1998-09-14,35.7522
1998-09-15,35.8349
1998-09-16,35.5316
1998-09-17,34.3739
1998-09-18,34.1534
1998-09-21,32.9474
1998-09-22,32.8234
1998-09-23,33.5538
1998-09-24,32.4306
1998-09-25,32.6511
1998-09-28,32.4306
1998-09-29,31.8724
1998-09-30,31.0523
1998-10-01,30.3218
1998-10-02,30.7973
1998-10-05,29.9772
1998-10-06,30.4941
1998-10-07,31.3569
1998-10-08,31.7895
1998-10-09,32.6198
1998-10-12,32.9687
1998-10-13,32.1872
1998-10-14,32.1872
1998-10-15,33.4083
1998-10-16,34.106
1998-10-19,34.1479
1998-10-20,34.7131
1998-10-21,34.0572
1998-10-22,35.6271
1998-10-23,34.7131
1998-10-26,34.1479
1998-10-27,34.0153
1998-10-28,32.4872
1998-10-29,30.8336
1998-10-30,33.1013
1998-11-02,35.0201
1998-11-03,34.0153
1998-11-04,34.7549
1998-11-05,34.8875
1998-11-06,33.8827
1998-11-09,33.0594
1998-11-10,33.3176
1998-11-11,34.7131
1998-11-12,33.8409
1998-11-13,35.4527
1998-11-16,35.976
1998-11-17,35.0201
1998-11-18,35.5434
1998-11-19,35.8923
1998-11-20,37.0715
1998-11-23,38.3344
1998-11-24,36.6319
1998-11-25,37.2878
1998-11-27,37.6366
1998-11-30,38.2437
1998-12-01,38.2925
1998-12-02,37.5041
1998-12-03,37.0715
1998-12-04,38.1181
1998-12-07,38.2018
1998-12-08,38.4181
1998-12-09,37.8529
1998-12-10,37.9855
1998-12-11,38.1181
1998-12-14,37.9855
1998-12-15,38.467
1998-12-16,38.6833
1998-12-17,36.9807
1998-12-18,36.7226
1998-12-21,34.8456
1998-12-22,34.3642
1998-12-23,34.106
1998-12-24,33.9734
1998-12-28,33.185
1998-12-29,33.9734
1998-12-30,32.7524
1998-12-31,32.4872
1999-01-04,32.5361
1999-01-05,32.0128
1999-01-06,32.6579
1999-01-07,30.4548
1999-01-08,30.0099
1999-01-11,29.6992
1999-01-12,29.0849
1999-01-13,28.9931
1999-01-14,28.1599
1999-01-15,28.866
1999-01-19,28.3788
1999-01-20,28.0257
1999-01-21,27.1855
1999-01-22,28.287
1999-01-25,28.2023
1999-01-26,28.2446
1999-01-27,27.6727
1999-01-28,27.2773
1999-01-29,27.5385
1999-02-01,27.6727
1999-02-02,28.7319
1999-02-03,28.6401
1999-02-04,28.3788
1999-02-05,28.4212
1999-02-08,27.8069
1999-02-09,27.0089
1999-02-10,27.0089
1999-02-11,27.2278
1999-02-12,26.9666
1999-02-16,27.2773
1999-02-17,26.9242
1999-02-18,26.7477
1999-02-19,27.1431
1999-02-22,27.8916
1999-02-23,27.362
1999-02-24,27.2278
1999-02-25,27.0513
1999-02-26,25.4625
1999-03-01,25.5967
1999-03-02,25.2013
1999-03-03,25.5967
1999-03-04,27.0513
1999-03-05,26.9666
1999-03-08,26.3028
1999-03-09,26.2605
1999-03-10,26.6559
1999-03-11,27.8492
1999-03-12,28.6401
1999-03-15,27.8916
1999-03-16,27.8916
1999-03-17,27.4962
1999-03-18,28.4212
1999-03-19,27.5809
1999-03-22,27.5385
1999-03-23,27.0513
1999-03-24,27.5422
1999-03-25,28.8698
1999-03-26,28.8698
1999-03-29,29.1311
1999-03-30,28.778
1999-03-31,28.6015
1999-04-01,28.5167
1999-04-05,29.1311
1999-04-06,28.6015
1999-04-07,28.5465
1999-04-08,29.2122
1999-04-09,30.243
1999-04-12,31.0018
1999-04-13,30.1571
1999-04-14,30.1571
1999-04-15,30.1571
1999-04-16,30.422
1999-04-19,31.4098
1999-04-20,31.2738
1999-04-21,31.4527
1999-04-22,31.5386
1999-04-23,31.8965
1999-04-26,31.8536
1999-04-27,34.4949
1999-04-28,33.5071
1999-04-29,33.5572
1999-04-30,32.6124
1999-05-03,35.4326
1999-05-04,33.6002
1999-05-05,33.7362
1999-05-06,33.2423
1999-05-07,33.2423
1999-05-10,32.5694
1999-05-11,32.7913
1999-05-12,32.7913
1999-05-13,32.9273
1999-05-14,32.3046
1999-05-17,32.7054
1999-05-18,35.9695
1999-05-19,35.1177
1999-05-20,37.7161
1999-05-21,37.802
1999-05-24,37.6731
1999-05-25,38.2959
1999-05-26,37.7161
1999-05-27,36.1914
1999-05-28,36.9573
1999-06-01,37.0432
1999-06-02,35.7906
1999-06-03,35.7476
1999-06-04,37.623
1999-06-07,37.8521
1999-06-08,36.4634
1999-06-09,35.9695
1999-06-10,35.3467
1999-06-11,35.0747
1999-06-14,36.1485
1999-06-15,36.0626
1999-06-16,35.9695
1999-06-17,35.9695
1999-06-18,35.9695
1999-06-21,36.4205
1999-06-22,35.7906
1999-06-23,35.1177
1999-06-24,35.3467
1999-06-25,35.1678
1999-06-28,35.0747
1999-06-29,34.4949
1999-06-30,34.7598
1999-07-01,35.1678
1999-07-02,35.5257
1999-07-06,34.9387
1999-07-07,35.29
1999-07-08,34.2042
1999-07-09,32.8939
1999-07-12,33.1183
1999-07-13,32.5754
1999-07-14,32.6188
1999-07-15,33.4368
1999-07-16,33.6178
1999-07-19,33.7047
1999-07-20,33.6178
1999-07-21,33.4803
1999-07-22,33.7047
1999-07-23,33.6178
1999-07-26,33.6613
1999-07-27,33.7554
1999-07-28,33.4803
1999-07-29,32.9808
1999-07-30,31.6705
1999-08-02,32.17
1999-08-03,31.8949
1999-08-04,31.0842
1999-08-05,31.2217
1999-08-06,31.4896
1999-08-09,30.3168
1999-08-10,30.0852
1999-08-11,30.9466
1999-08-12,30.9466
1999-08-13,31.0407
1999-08-16,31.0842
1999-08-17,30.8091
1999-08-18,30.3168
1999-08-19,30.0852
1999-08-20,30.1359
1999-08-23,30.2662
1999-08-24,30.0418
1999-08-25,30.0418
1999-08-26,28.8184
1999-08-27,28.8691
1999-08-30,28.0076
1999-08-31,26.5164
1999-09-01,27.6457
1999-09-02,26.3788
1999-09-03,26.3788
1999-09-07,26.0603
1999-09-08,26.2413
1999-09-09,26.0169
1999-09-10,26.1544
1999-09-13,26.4223
1999-09-14,26.5164
1999-09-15,27.0086
1999-09-16,27.1896
1999-09-17,26.7842
1999-09-20,26.7408
1999-09-21,25.9735
1999-09-22,27.5081
1999-09-23,26.4657
1999-09-24,24.8876
1999-09-27,25.3364
1999-09-28,25.7418
1999-09-29,24.8876
1999-09-30,24.931
1999-10-01,25.9735
1999-10-04,25.9735
1999-10-05,25.5174
1999-10-06,25.6468
1999-10-07,24.9997
1999-10-08,24.86
1999-10-11,24.7718
1999-10-12,24.1762
1999-10-13,23.0733
1999-10-14,22.9777
1999-10-15,22.1542
1999-10-18,22.8895
1999-10-19,22.2424
1999-10-20,21.2351
1999-10-21,21.1395
1999-10-22,20.9998
1999-10-25,20.6321
1999-10-26,19.8086
1999-10-27,19.6248
1999-10-28,19.441
1999-10-29,18.7057
1999-11-01,19.9483
1999-11-02,19.9483
1999-11-03,19.4851
1999-11-04,19.6248
1999-11-05,19.2571
1999-11-08,19.213
1999-11-09,18.8454
1999-11-10,18.3822
1999-11-11,17.9704
1999-11-12,17.5586
1999-11-15,17.2792
1999-11-16,17.463
1999-11-17,16.4998
1999-11-18,16.5439
1999-11-19,16.4557
1999-11-22,16.0366
1999-11-23,16.1763
1999-11-24,15.9042
1999-11-26,15.9484
1999-11-29,16.2719
1999-11-30,16.4998
1999-12-01,16.5439
1999-12-02,15.441
1999-12-03,15.3969
1999-12-06,14.6175
1999-12-07,14.4337
1999-12-08,14.066
1999-12-09,14.0146
1999-12-10,14.0146
1999-12-13,13.7425
1999-12-14,13.8822
1999-12-15,13.9263
1999-12-16,13.9704
1999-12-17,13.6469
1999-12-20,13.2793
1999-12-21,13.191
1999-12-22,13.3307
1999-12-23,13.7425
1999-12-27,13.4631
1999-12-28,13.5587
1999-12-29,14.0146
1999-12-30,14.566
1999-12-31,14.6616
2000-01-03,14.4778
2000-01-04,14.8013
2000-01-05,14.7057
2000-01-06,15.2027
2000-01-07,15.6652
2000-01-10,15.9487
2000-01-11,16.3664
2000-01-12,16.7841
2000-01-13,15.8965
2000-01-14,15.9934
2000-01-18,15.8069
2000-01-19,15.9934
2000-01-20,15.3892
2000-01-21,15.71
2000-01-24,15.0162
2000-01-25,14.591
2000-01-26,14.5015
2000-01-27,14.5015
2000-01-28,13.7108
2000-01-31,14.5463
2000-02-01,13.9868
2000-02-02,13.7555
2000-02-03,13.569
2000-02-04,13.3378
2000-02-07,13.0543
2000-02-08,13.7555
2000-02-09,13.4721
2000-02-10,13.3826
2000-02-11,13.0991
2000-02-14,12.7261
2000-02-15,12.3531
2000-02-16,12.0324
2000-02-17,11.6072
2000-02-18,12.2636
2000-02-22,12.6814
2000-02-23,12.6366
2000-02-24,12.0324
2000-02-25,11.9354
2000-02-28,11.9354
2000-02-29,11.8459
2000-03-01,11.5177
2000-03-02,11.0029
2000-03-03,11.0999
2000-03-06,10.7717
2000-03-07,10.4435
2000-03-08,10.354
2000-03-09,10.5404
2000-03-10,10.3987
2000-03-13,10.4435
2000-03-14,10.3987
2000-03-15,10.7269
2000-03-16,11.4729
2000-03-17,11.4207
2000-03-20,11.3759
2000-03-21,11.6594
2000-03-22,11.4207
2000-03-23,11.5177
2000-03-24,11.1894
2000-03-27,10.8612
2000-03-28,10.9582
2000-03-29,11.0477
2000-03-30,11.0477
2000-03-31,11.0477
2000-04-03,10.9582
2000-04-04,10.4435
2000-04-05,10.9582
2000-04-06,10.7503
2000-04-07,10.6058
2000-04-10,11.2677
2000-04-11,11.3666
2000-04-12,11.6025
2000-04-13,11.0775
2000-04-14,10.271
2000-04-17,10.0808
2000-04-18,10.0352
2000-04-19,9.89062
2000-04-20,10.0808
2000-04-24,10.6058
2000-04-25,10.9862
2000-04-26,10.8873
2000-04-27,10.6971
2000-04-28,10.5069
2000-05-01,11.1764
2000-05-02,12.5991
2000-05-03,12.1274
2000-05-04,13.0784
2000-05-05,13.0328
2000-05-08,14.2653
2000-05-09,13.7936
2000-05-10,13.6491
2000-05-11,13.6491
2000-05-12,14.311
2000-05-15,14.174
2000-05-16,13.8849
2000-05-17,13.7404
2000-05-18,13.7936
2000-05-19,13.7404
2000-05-22,13.6947
2000-05-23,13.6947
2000-05-24,13.6947
2000-05-25,13.5501
2000-05-26,13.5501
2000-05-30,13.3143
2000-05-31,13.7936
2000-06-01,13.6947
2000-06-02,13.9838
2000-06-05,14.174
2000-06-06,14.2653
2000-06-07,13.8849
2000-06-08,13.4132
2000-06-09,13.4132
2000-06-12,13.3143
2000-06-13,13.3599
2000-06-14,13.6034
2000-06-15,13.9838
2000-06-16,13.6491
2000-06-19,13.6947
2000-06-20,13.6491
2000-06-21,13.6491
2000-06-22,12.9339
2000-06-23,13.0328
2000-06-26,13.0328
2000-06-27,13.6034
2000-06-28,14.311
2000-06-29,13.7936
2000-06-30,13.9306
2000-07-03,14.0295
2000-07-05,14.2653
2000-07-06,14.1015
2000-07-07,14.1015
2000-07-10,14.2947
2000-07-11,13.9547
2000-07-12,13.9083
2000-07-13,13.6688
2000-07-14,14.2483
2000-07-17,13.7152
2000-07-18,13.7615
2000-07-19,12.9888
2000-07-20,12.8961
2000-07-21,12.4093
2000-07-24,11.9766
2000-07-25,11.7834
2000-07-26,11.5903
2000-07-27,13.182
2000-07-28,12.8498
2000-07-31,12.5098
2000-08-01,13.3752
2000-08-02,13.5683
2000-08-03,13.4293
2000-08-04,13.3288
2000-08-07,13.4756
2000-08-08,13.862
2000-08-09,13.7152
2000-08-10,13.5683
2000-08-11,13.7615
2000-08-14,13.862
2000-08-15,12.4634
2000-08-16,12.023
2000-08-17,12.0771
2000-08-18,12.023
2000-08-21,11.6907
2000-08-22,11.9303
2000-08-23,11.7834
2000-08-24,11.8839
2000-08-25,11.7371
2000-08-28,11.6366
2000-08-29,11.7834
2000-08-30,11.7834
2000-08-31,10.8176
2000-09-01,11.3507
2000-09-05,11.2039
2000-09-06,11.1576
2000-09-07,10.6708
2000-09-08,10.7249
2000-09-11,11.0108
2000-09-12,11.3044
2000-09-13,10.7712
2000-09-14,10.5317
2000-09-15,10.5317
2000-09-18,10.2381
2000-09-19,10.1917
2000-09-20,9.80537
2000-09-21,9.65856
2000-09-22,9.41903
2000-09-25,9.31858
2000-09-26,8.93224
2000-09-27,9.03269
2000-09-28,9.27222
2000-09-29,9.1795
2000-10-02,8.93224
2000-10-03,8.88588
2000-10-04,8.73907
2000-10-05,7.86007
2000-10-06,7.2272
2000-10-09,7.27408
2000-10-10,7.37565
2000-10-11,6.88342
2000-10-12,6.88342
2000-10-13,8.15697
2000-10-16,7.91476
2000-10-17,7.76631
2000-10-18,7.71943
2000-10-19,7.86007
2000-10-20,7.76631
2000-10-23,7.71943
2000-10-24,7.81319
2000-10-25,7.86007
2000-10-26,7.96164
2000-10-27,8.30542
2000-10-30,8.74296
2000-10-31,9.13362
2000-11-01,8.78984
2000-11-02,9.28207
2000-11-03,8.78984
2000-11-06,8.93829
2000-11-07,8.74296
2000-11-08,9.03205
2000-11-09,8.44606
2000-11-10,8.25073
2000-11-13,8.30542
2000-11-14,8.69608
2000-11-15,8.69608
2000-11-16,8.59451
2000-11-17,8.54763
2000-11-20,8.30542
2000-11-21,8.0554
2000-11-22,7.96164
2000-11-24,7.86007
2000-11-27,8.11009
2000-11-28,7.86007
2000-11-29,7.46941
2000-11-30,7.5241
2000-12-01,7.66474
2000-12-04,7.96164
2000-12-05,7.71943
2000-12-06,7.57098
2000-12-07,7.42253
2000-12-08,7.46941
2000-12-11,7.13344
2000-12-12,7.61786
2000-12-13,7.18032
2000-12-14,7.07875
2000-12-15,7.32877
2000-12-18,7.2272
2000-12-19,6.93811
2000-12-20,6.78966
2000-12-21,7.03187
2000-12-22,7.13344
2000-12-26,7.42253
2000-12-27,7.96164
2000-12-28,8.39918
2000-12-29,8.50075
2001-01-02,8.25073
2001-01-03,9.1805
2001-01-04,9.81337
2001-01-05,9.13362
2001-01-08,9.32712
2001-01-09,9.32712
2001-01-10,9.32712
2001-01-11,9.32712
2001-01-12,9.77729
2001-01-16,10.1722
2001-01-17,10.1722
2001-01-18,9.57985
2001-01-19,9.18497
2001-01-22,9.62724
2001-01-23,9.87206
2001-01-24,10.1722
2001-01-25,9.77729
2001-01-26,10.0695
2001-01-29,11.0409
2001-01-30,11.0093
2001-01-31,11.0962
2001-02-01,11.9649
2001-02-02,11.7754
2001-02-05,11.649
2001-02-06,12.1308
2001-02-07,12.2335
2001-02-08,11.6806
2001-02-09,11.0567
2001-02-12,11.341
2001-02-13,11.2778
2001-02-14,11.4595
2001-02-15,11.2147
2001-02-16,11.1594
2001-02-20,11.728
2001-02-21,10.6065
2001-02-22,10.5276
2001-02-23,10.9461
2001-02-26,11.957
2001-02-27,12.3203
2001-02-28,12.7547
2001-03-01,12.1071
2001-03-02,11.7675
2001-03-05,11.886
2001-03-06,12.4704
2001-03-07,13.3707
2001-03-08,14.2395
2001-03-09,14.0341
2001-03-12,13.4181
2001-03-13,13.3628
2001-03-14,13.3865
2001-03-15,13.426
2001-03-16,12.9679
2001-03-19,13.2681
2001-03-20,12.9442
2001-03-21,12.6362
2001-03-22,11.9333
2001-03-23,12.2019
2001-03-26,12.6362
2001-03-27,12.5573
2001-03-28,12.8258
2001-03-29,12.6046
2001-03-30,12.6204
2001-04-02,12.5336
2001-04-03,12.3203
2001-04-04,11.6885
2001-04-05,12.5968
2001-04-06,12.2821
2001-04-09,12.306
2001-04-10,12.7995
2001-04-11,12.9825
2001-04-12,14.0492
2001-04-16,13.882
2001-04-17,14.081
2001-04-18,14.7656
2001-04-19,15.1874
2001-04-20,15.0919
2001-04-23,15.1636
2001-04-24,14.5984
2001-04-25,15.1158
2001-04-26,15.6969
2001-04-27,16.3655
2001-04-30,16.1267
2001-05-01,16.1187
2001-05-02,16.1585
2001-05-03,16.1983
2001-05-04,16.4769
2001-05-07,16.27
2001-05-08,15.8959
2001-05-09,16.3496
2001-05-10,17.058
2001-05-11,16.8431
2001-05-14,16.8192
2001-05-15,16.063
2001-05-16,16.27
2001-05-17,16.6122
2001-05-18,16.7476
2001-05-21,17.9017
2001-05-22,17.5356
2001-05-23,17.0182
2001-05-24,16.8272
2001-05-25,16.6918
2001-05-29,17.0739
2001-05-30,16.6998
2001-05-31,16.6441
2001-06-01,16.6441
2001-06-04,16.4531
2001-06-05,18.0928
2001-06-06,18.2759
2001-06-07,18.1326
2001-06-08,18.7853
2001-06-11,18.0132
2001-06-12,18.7375
2001-06-13,18.3555
2001-06-14,18.045
2001-06-15,17.9336
2001-06-18,18.5943
2001-06-19,19.1037
2001-06-20,20.0987
2001-06-21,20.8469
2001-06-22,20.5365
2001-06-25,20.1703
2001-06-26,20.3056
2001-06-27,19.6052
2001-06-28,20.7355
2001-06-29,21.0141
2001-07-02,20.7753
2001-07-03,20.9345
2001-07-05,19.8917
2001-07-06,19.3837
2001-07-09,19.6797
2001-07-10,19.3117
2001-07-11,19.6957
2001-07-12,21.3117
2001-07-13,21.9037
2001-07-16,23.0397
2001-07-17,23.2077
2001-07-18,22.8637
2001-07-19,22.9357
2001-07-20,22.7197
2001-07-23,22.3597
2001-07-24,21.6717
2001-07-25,21.6717
2001-07-26,21.8317
2001-07-27,21.7117
2001-07-30,22.4317
2001-07-31,22.7357
2001-08-01,22.1597
2001-08-02,22.2877
2001-08-03,22.0957
2001-08-06,21.9197
2001-08-07,22.0317
2001-08-08,21.7837
2001-08-09,21.3437
2001-08-10,21.3917
2001-08-13,21.1197
2001-08-14,21.1917
2001-08-15,20.5997
2001-08-16,20.7917
2001-08-17,20.7597
2001-08-20,21.5277
2001-08-21,21.0637
2001-08-22,20.1197
2001-08-23,19.9517
2001-08-24,20.3357
2001-08-27,19.9917
2001-08-28,19.6477
2001-08-29,19.6157
2001-08-30,19.0797
2001-08-31,19.1837
2001-09-04,19.4397
2001-09-05,19.3917
2001-09-06,19.6637
2001-09-07,19.3757
2001-09-10,18.4317
2001-09-17,16.4158
2001-09-18,16.4718
2001-09-19,16.3438
2001-09-20,16.0158
2001-09-21,15.0878
2001-09-24,16.9278
2001-09-25,16.7758
2001-09-26,16.6398
2001-09-27,16.4478
2001-09-28,17.2798
2001-10-01,18.3997
2001-10-02,18.7357
2001-10-03,19.1997
2001-10-04,18.6237
2001-10-05,18.6675
2001-10-08,18.402
2001-10-09,18.0321
2001-10-10,17.8551
2001-10-11,18.8927
2001-10-12,18.4503
2001-10-15,18.4905
2001-10-16,18.9409
2001-10-17,18.1849
2001-10-18,18.0482
2001-10-19,18.8766
2001-10-22,19.3028
2001-10-23,19.4878
2001-10-24,19.142
2001-10-25,19.3109
2001-10-26,19.1902
2001-10-29,18.7238
2001-10-30,17.1071
2001-10-31,17.4852
2001-11-01,18.2331
2001-11-02,18.1849
2001-11-05,18.8605
2001-11-06,19.1339
2001-11-07,18.8605
2001-11-08,18.8524
2001-11-09,19.0455
2001-11-12,19.0616
2001-11-13,20.268
2001-11-14,20.5977
2001-11-15,21.0321
2001-11-16,20.8551
2001-11-19,22.2465
2001-11-20,21.9811
2001-11-21,21.3216
2001-11-23,21.9329
2001-11-26,22.0052
2001-11-27,21.7961
2001-11-28,21.6111
2001-11-29,21.1447
2001-11-30,20.3967
2001-12-03,19.8739
2001-12-04,19.4315
2001-12-05,20.7827
2001-12-06,19.7854
2001-12-07,19.1661
2001-12-10,19.0213
2001-12-11,18.6675
2001-12-12,18.6433
2001-12-13,18.5709
2001-12-14,19.5441
2001-12-17,19.7935
2001-12-18,19.713
2001-12-19,19.9945
2001-12-20,20.1232
2001-12-21,20.5012
2001-12-24,20.7586
2001-12-26,20.9918
2001-12-27,21.0321
2001-12-28,21.5468
2001-12-31,21.5951
2002-01-02,21.1205
2002-01-03,20.9034
2002-01-04,21.3859
2002-01-07,21.6594
2002-01-08,22.2937
2002-01-09,21.4452
2002-01-10,21.0736
2002-01-11,20.5322
2002-01-14,20.1201
2002-01-15,20.209
2002-01-16,20.2574
2002-01-17,20.7665
2002-01-18,20.2655
2002-01-22,20.3221
2002-01-23,20.7746
2002-01-24,19.1585
2002-01-25,19.005
2002-01-28,19.6029
2002-01-29,19.4171
2002-01-30,19.6272
2002-01-31,20.0878
2002-02-01,19.0454
2002-02-04,19.2312
2002-02-05,19.5544
2002-02-06,18.6898
2002-02-07,17.7364
2002-02-08,16.9849
2002-02-11,19.005
2002-02-12,19.0615
2002-02-13,18.6898
2002-02-14,18.2454
2002-02-15,17.502
2002-02-19,17.5586
2002-02-20,18.9888
2002-02-21,16.791
2002-02-22,16.3223
2002-02-25,16.0395
2002-02-26,16.7667
2002-02-27,15.9425
2002-02-28,15.7971
2002-03-01,16.1122
2002-03-04,15.8375
2002-03-05,15.2961
2002-03-06,15.5062
2002-03-07,17.2354
2002-03-08,16.8879
2002-03-11,17.502
2002-03-12,17.9222
2002-03-13,17.7768
2002-03-14,17.6879
2002-03-15,17.898
2002-03-18,17.599
2002-03-19,18.0515
2002-03-20,18.0192
2002-03-21,17.502
2002-03-22,16.9364
2002-03-25,16.7344
2002-03-26,16.5243
2002-03-27,16.5243
2002-03-28,16.7506
2002-04-01,16.1526
2002-04-02,15.5062
2002-04-03,15.4577
2002-04-04,16.2011
2002-04-05,16.0799
2002-04-08,17.1328
2002-04-09,17.1572
2002-04-10,17.515
2002-04-11,17.3605
2002-04-12,17.6045
2002-04-15,17.6207
2002-04-16,17.4744
2002-04-17,17.5963
2002-04-18,18.0354
2002-04-19,17.0597
2002-04-22,17.3199
2002-04-23,17.946
2002-04-24,17.637
2002-04-25,17.7671
2002-04-26,17.4988
2002-04-29,17.6045
2002-04-30,17.6858
2002-05-01,17.8077
2002-05-02,17.824
2002-05-03,17.5231
2002-05-06,17.2873
2002-05-07,17.9135
2002-05-08,18.3444
2002-05-09,18.011
2002-05-10,18.4745
2002-05-13,18.8242
2002-05-14,20.3041
2002-05-15,20.2065
2002-05-16,20.239
2002-05-17,20.3203
2002-05-20,20.1415
2002-05-21,19.4503
2002-05-22,19.3771
2002-05-23,20.1496
2002-05-24,19.9219
2002-05-28,19.0193
2002-05-29,19.3202
2002-05-30,19.2389
2002-05-31,19.8081
2002-06-03,19.2877
2002-06-04,18.9868
2002-06-05,19.6292
2002-06-06,18.3525
2002-06-07,19.0031
2002-06-10,19.1819
2002-06-11,19.0031
2002-06-12,19.1088
2002-06-13,18.4826
2002-06-14,18.1981
2002-06-17,19.0112
2002-06-18,18.8567
2002-06-19,18.7103
2002-06-20,18.5477
2002-06-21,17.9704
2002-06-24,17.7671
2002-06-25,17.6532
2002-06-26,17.0841
2002-06-27,17.8647
2002-06-28,17.7102
2002-07-01,16.9621
2002-07-02,15.7098
2002-07-03,15.9782
2002-07-05,17.0353
2002-07-08,16.2459
2002-07-09,15.6487
2002-07-10,15.6242
2002-07-11,15.2725
2002-07-12,15.1579
2002-07-15,14.7735
2002-07-16,14.2499
2002-07-17,13.8409
2002-07-18,13.4074
2002-07-19,13.0474
2002-07-22,12.6875
2002-07-23,12.4339
2002-07-24,13.6119
2002-07-25,14.4626
2002-07-26,14.3563
2002-07-29,15.2316
2002-07-30,15.1007
2002-07-31,14.3154
2002-08-01,13.5055
2002-08-02,13.1047
2002-08-05,12.982
2002-08-06,13.71
2002-08-07,13.4401
2002-08-08,13.9145
2002-08-09,13.5791
2002-08-12,13.5873
2002-08-13,13.1047
2002-08-14,13.162
2002-08-15,13.8246
2002-08-16,13.6446
2002-08-19,14.1681
2002-08-20,13.8818
2002-08-21,13.9636
2002-08-22,14.3563
2002-08-23,13.9391
2002-08-26,14.5608
2002-08-27,14.4054
2002-08-28,14.1272
2002-08-29,14.1436
2002-08-30,14.2008
2002-09-03,13.8818
2002-09-04,13.8164
2002-09-05,13.9064
2002-09-06,14.2745
2002-09-09,14.6508
2002-09-10,14.8471
2002-09-11,15.1334
2002-09-12,14.8307
2002-09-13,14.978
2002-09-16,15.3624
2002-09-17,15.0679
2002-09-18,15.3134
2002-09-19,14.9452
2002-09-20,14.8798
2002-09-23,14.8962
2002-09-24,15.1334
2002-09-25,15.3379
2002-09-26,15.4524
2002-09-27,14.4135
2002-09-30,12.9329
2002-10-01,13.4483
2002-10-02,12.5648
2002-10-03,12.3603
2002-10-04,12.5484
2002-10-07,11.9186
2002-10-08,12.822
2002-10-09,12.2031
2002-10-10,12.4589
2002-10-11,13.5315
2002-10-14,13.6883
2002-10-15,14.4391
2002-10-16,13.251
2002-10-17,13.449
2002-10-18,14.0926
2002-10-21,14.8517
2002-10-22,14.3566
2002-10-23,15.0662
2002-10-24,15.3467
2002-10-25,15.5778
2002-10-28,16.0068
2002-10-29,16.3451
2002-10-30,15.7593
2002-10-31,15.7263
2002-11-01,16.6751
2002-11-04,16.3369
2002-11-05,16.3286
2002-11-06,16.3369
2002-11-07,16.5844
2002-11-08,16.0481
2002-11-11,15.2807
2002-11-12,17.2527
2002-11-13,17.4177
2002-11-14,18.9029
2002-11-15,19.0102
2002-11-18,18.6801
2002-11-19,18.3583
2002-11-20,18.9277
2002-11-21,19.2824
2002-11-22,18.8947
2002-11-25,19.1834
2002-11-26,19.4227
2002-11-27,19.7775
2002-11-29,19.5795
2002-12-02,20.2561
2002-12-03,19.6207
2002-12-04,19.3897
2002-12-05,19.1092
2002-12-06,18.9937
2002-12-09,19.0844
2002-12-10,19.1009
2002-12-11,19.3815
2002-12-12,19.8105
2002-12-13,19.5052
2002-12-16,20.4623
2002-12-17,20.1818
2002-12-18,19.4475
2002-12-19,19.2082
2002-12-20,19.6372
2002-12-23,18.4409
2002-12-24,18.3583
2002-12-26,18.3501
2002-12-27,18.1768
2002-12-30,18.8369
2002-12-31,18.9442
2003-01-02,19.3897
2003-01-03,19.3732
2003-01-06,19.3567
2003-01-07,19.4392
2003-01-08,19.8164
2003-01-09,20.3639
2003-01-10,19.5924
2003-01-13,19.7832
2003-01-14,19.3104
2003-01-15,18.7547
2003-01-16,18.6136
2003-01-17,18.0745
2003-01-21,17.0459
2003-01-22,16.7971
2003-01-23,16.3823
2003-01-24,16.0339
2003-01-27,15.4284
2003-01-28,15.8763
2003-01-29,16.4238
2003-01-30,15.9842
2003-01-31,16.0754
2003-02-03,16.2164
2003-02-04,16.0671
2003-02-05,15.9012
2003-02-06,15.669
2003-02-07,15.3704
2003-02-10,15.2625
2003-02-11,15.0137
2003-02-12,15.1215
2003-02-13,14.6985
2003-02-14,15.4699
2003-02-18,15.9178
2003-02-19,15.304
2003-02-20,16.3326
2003-02-21,16.8634
2003-02-24,15.9593
2003-02-25,16.6892
2003-02-26,16.6892
2003-02-27,16.374
2003-02-28,16.4653
2003-03-03,15.727
2003-03-04,15.5197
2003-03-05,15.5445
2003-03-06,15.5943
2003-03-07,15.7519
2003-03-10,15.4948
2003-03-11,15.4865
2003-03-12,15.8432
2003-03-13,16.6726
2003-03-14,16.374
2003-03-17,17.1786
2003-03-18,17.0044
2003-03-19,16.9049
2003-03-20,17.0708
2003-03-21,17.751
2003-03-24,16.7971
2003-03-25,16.9961
2003-03-26,17.1206
2003-03-27,16.8385
2003-03-28,16.5068
2003-03-31,16.3326
2003-04-01,16.2164
2003-04-02,16.8054
2003-04-03,16.7307
2003-04-04,16.8717
2003-04-07,16.4985
2003-04-08,16.7366
2003-04-09,15.7516
2003-04-10,15.0921
2003-04-11,14.9502
2003-04-14,14.7248
2003-04-15,13.9485
2003-04-16,14.0571
2003-04-17,14.2073
2003-04-21,13.9986
2003-04-22,14.5829
2003-04-23,14.5245
2003-04-24,14.3158
2003-04-25,14.0988
2003-04-28,14.007
2003-04-29,14.416
2003-04-30,14.2824
2003-05-01,14.1739
2003-05-02,14.391
2003-05-05,14.608
2003-05-06,14.7582
2003-05-07,14.6497
2003-05-08,14.441
2003-05-09,14.2741
2003-05-12,14.9335
2003-05-13,15.6681
2003-05-14,14.391
2003-05-15,14.3075
2003-05-16,14.2741
2003-05-19,13.9569
2003-05-20,14.0904
2003-05-21,13.8818
2003-05-22,14.1405
2003-05-23,13.9235
2003-05-27,14.2908
2003-05-28,14.2908
2003-05-29,13.8734
2003-05-30,14.4744
2003-06-02,14.3743
2003-06-03,14.3993
2003-06-04,14.9252
2003-06-05,15.5095
2003-06-06,15.3926
2003-06-09,15.3092
2003-06-10,15.0838
2003-06-11,15.4427
2003-06-12,15.3008
2003-06-13,15.1088
2003-06-16,15.426
2003-06-17,14.9001
2003-06-18,14.5412
2003-06-19,14.3993
2003-06-20,14.5662
2003-06-23,14.249
2003-06-24,14.249
2003-06-25,14.007
2003-06-26,14.2324
2003-06-27,14.1906
2003-06-30,14.1823
2003-07-01,13.8734
2003-07-02,13.7816
2003-07-03,13.6146
2003-07-07,13.623
2003-07-08,14.2242
2003-07-09,14.0392
2003-07-10,13.8541
2003-07-11,13.9466
2003-07-14,14.2074
2003-07-15,14.4009
2003-07-16,14.6869
2003-07-17,14.3252
2003-07-18,14.2999
2003-07-21,14.1654
2003-07-22,14.2411
2003-07-23,14.4598
2003-07-24,14.9981
2003-07-25,15.1748
2003-07-28,15.2757
2003-07-29,15.1243
2003-07-30,14.9224
2003-07-31,15.6458
2003-08-01,15.6795
2003-08-04,15.3093
2003-08-05,15.0065
2003-08-06,15.2673
2003-08-07,15.0822
2003-08-08,15.2421
2003-08-11,15.2
2003-08-12,14.9476
2003-08-13,15.0822
2003-08-14,15.1495
2003-08-15,15.0402
2003-08-18,15.343
2003-08-19,15.3935
2003-08-20,15.6374
2003-08-21,16.9244
2003-08-22,16.7141
2003-08-25,17.1263
2003-08-26,17.0085
2003-08-27,16.9665
2003-08-28,17.3786
2003-08-29,17.8245
2003-09-02,18.4553
2003-09-03,18.9348
2003-09-04,18.5142
2003-09-05,18.0852
2003-09-08,18.1189
2003-09-09,17.4375
2003-09-10,16.9496
2003-09-11,17.3786
2003-09-12,18.0432
2003-09-15,18.2114
2003-09-16,18.3292
2003-09-17,18.2198
2003-09-18,19.1787
2003-09-19,19.0778
2003-09-22,19.1283
2003-09-23,19.2208
2003-09-24,19.3049
2003-09-25,18.8255
2003-09-26,18.4722
2003-09-29,17.9927
2003-09-30,17.9927
2003-10-01,18.3292
2003-10-02,18.1946
2003-10-03,18.1777
2003-10-06,18.3376
2003-10-07,18.5058
2003-10-08,18.5862
2003-10-09,19.2037
2003-10-10,19.2883
2003-10-13,19.669
2003-10-14,20.7265
2003-10-15,20.7096
2003-10-16,21.0987
2003-10-17,21.1156
2003-10-20,21.0733
2003-10-21,20.8703
2003-10-22,20.4219
2003-10-23,20.5657
2003-10-24,20.6673
2003-10-27,20.9126
2003-10-28,20.8703
2003-10-29,20.718
2003-10-30,20.2866
2003-10-31,20.0497
2003-11-03,20.2358
2003-11-04,19.8805
2003-11-05,19.576
2003-11-06,19.7536
2003-11-07,19.6267
2003-11-10,19.4575
2003-11-11,19.9651
2003-11-12,20.312
2003-11-13,20.2697
2003-11-14,19.9059
2003-11-17,19.779
2003-11-18,19.6944
2003-11-19,19.7536
2003-11-20,19.9059
2003-11-21,20.6673
2003-11-24,20.9972
2003-11-25,21.1072
2003-11-26,21.2002
2003-11-28,21.048
2003-12-01,21.7586
2003-12-02,21.3779
2003-12-03,21.4202
2003-12-04,20.938
2003-12-05,20.5827
2003-12-08,20.3458
2003-12-09,20.2104
2003-12-10,20.2274
2003-12-11,20.4304
2003-12-12,20.3543
2003-12-15,19.4406
2003-12-16,19.6944
2003-12-17,20.4473
2003-12-18,20.718
2003-12-19,20.8534
2003-12-22,20.9464
2003-12-23,22.1731
2003-12-24,20.8365
2003-12-26,21.7501
2003-12-29,22.0124
2003-12-30,21.9193
2003-12-31,22.2746
2004-01-02,21.6063
2004-01-05,22.3254
2004-01-06,22.4015
2004-01-07,22.4823
2004-01-08,22.3548
2004-01-09,22.2868
2004-01-12,22.0913
2004-01-13,22.0743
2004-01-14,22.2698
2004-01-15,22.4738
2004-01-16,22.5078
2004-01-20,22.4313
2004-01-21,23.1793
2004-01-22,23.1793
2004-01-23,22.5248
2004-01-26,22.7458
2004-01-27,22.1338
2004-01-28,21.7258
2004-01-29,22.1678
2004-01-30,22.2528
2004-02-02,22.6608
2004-02-03,22.9158
2004-02-04,22.8988
2004-02-05,23.1878
2004-02-06,23.9698
2004-02-09,23.7998
2004-02-10,24.0548
2004-02-11,24.0293
2004-02-12,24.1143
2004-02-13,23.9953
2004-02-17,24.2758
2004-02-18,23.9783
2004-02-19,23.9443
2004-02-20,24.1398
2004-02-23,24.2248
2004-02-24,24.6243
2004-02-25,25.2958
2004-02-26,26.3073
2004-02-27,26.2648
2004-03-01,26.6558
2004-03-02,27.1743
2004-03-03,28.0668
2004-03-04,27.4973
2004-03-05,28.1178
2004-03-08,28.0498
2004-03-09,27.4803
2004-03-10,27.5568
2004-03-11,27.1403
2004-03-12,27.1828
2004-03-15,27.5313
2004-03-16,27.6248
2004-03-17,27.9648
2004-03-18,28.8658
2004-03-19,28.5343
2004-03-22,28.8828
2004-03-23,28.5853
2004-03-24,28.2963
2004-03-25,28.8998
2004-03-26,29.1463
2004-03-29,29.2823
2004-03-30,29.5968
2004-03-31,29.5203
2004-04-01,29.1378
2004-04-02,29.5543
2004-04-05,29.6648
2004-04-06,29.6946
2004-04-07,29.4984
2004-04-08,29.524
2004-04-12,29.7288
2004-04-13,29.3619
2004-04-14,29.1231
2004-04-15,29.4558
2004-04-16,29.8567
2004-04-19,30.1212
2004-04-20,30.6074
2004-04-21,30.8292
2004-04-22,30.7524
2004-04-23,30.923
2004-04-26,30.7012
2004-04-27,30.7951
2004-04-28,30.7098
2004-04-29,29.8738
2004-04-30,28.8586
2004-05-03,28.6624
2004-05-04,29.0804
2004-05-05,28.9781
2004-05-06,29.0378
2004-05-07,28.1677
2004-05-10,27.8947
2004-05-11,27.9629
2004-05-12,27.6303
2004-05-13,27.3061
2004-05-14,27.3402
2004-05-17,26.9563
2004-05-18,28.7222
2004-05-19,28.7989
2004-05-20,29.0207
2004-05-21,29.7799
2004-05-24,29.5581
2004-05-25,30.215
2004-05-26,29.9591
2004-05-27,30.2662
2004-05-28,30.4709
2004-06-01,30.4538
2004-06-02,30.7439
2004-06-03,30.633
2004-06-04,31.0083
2004-06-07,31.5372
2004-06-08,31.5884
2004-06-09,31.3325
2004-06-10,31.1363
2004-06-14,30.65
2004-06-15,31.2898
2004-06-16,31.3837
2004-06-17,31.5116
2004-06-18,32.3817
2004-06-21,32.2111
2004-06-22,32.723
2004-06-23,33.1751
2004-06-24,32.7827
2004-06-25,33.0386
2004-06-28,33.2092
2004-06-29,32.1685
2004-06-30,32.1855
2004-07-01,31.9637
2004-07-02,31.3751
2004-07-06,31.2216
2004-07-07,31.0289
2004-07-08,32.5867
2004-07-09,32.8692
2004-07-12,33.4342
2004-07-13,34.0333
2004-07-14,33.6396
2004-07-15,33.4256
2004-07-16,32.7408
2004-07-19,32.4755
2004-07-20,33.3828
2004-07-21,32.7408
2004-07-22,32.8692
2004-07-23,32.4669
2004-07-26,31.8335
2004-07-27,33.3058
2004-07-28,33.1517
2004-07-29,33.8279
2004-07-30,34.2302
2004-08-02,34.4442
2004-08-03,33.9477
2004-08-04,33.5797
2004-08-05,32.7323
2004-08-06,32.116
2004-08-09,31.9619
2004-08-10,33.3571
2004-08-11,32.9634
2004-08-12,32.3642
2004-08-13,32.2872
2004-08-16,33.126
2004-08-17,32.9462
2004-08-18,33.1945
2004-08-19,33.5283
2004-08-20,33.9392
2004-08-23,34.059
2004-08-24,33.7252
2004-08-25,34.0076
2004-08-26,33.768
2004-08-27,33.7337
2004-08-30,33.34
2004-08-31,32.8007
2004-09-01,32.3813
2004-09-02,32.7751
2004-09-03,33.3742
2004-09-07,33.5454
2004-09-08,33.0233
2004-09-09,32.2101
2004-09-10,32.5268
2004-09-13,32.3556
2004-09-14,32.1673
2004-09-15,31.9876
2004-09-16,32.2957
2004-09-17,31.3113
2004-09-20,31.3028
2004-09-21,31.3627
2004-09-22,30.9176
2004-09-23,31.4055
2004-09-24,31.7736
2004-09-27,31.1402
2004-09-28,30.9347
2004-09-29,30.6523
2004-09-30,30.1815
2004-10-01,30.2927
2004-10-04,31.2771
2004-10-05,30.9176
2004-10-06,30.9564
2004-10-07,31.3429
2004-10-08,31.403
2004-10-11,31.3085
2004-10-12,31.2398
2004-10-13,31.7208
2004-10-14,31.549
2004-10-15,31.4202
2004-10-18,32.5454
2004-10-19,32.8289
2004-10-20,32.889
2004-10-21,32.9663
2004-10-22,32.7773
2004-10-25,32.4338
2004-10-26,32.1245
2004-10-27,32.0902
2004-10-28,30.3208
2004-10-29,29.7195
2004-11-01,29.8741
2004-11-02,29.436
2004-11-03,29.7195
2004-11-04,32.1847
2004-11-05,33.5762
2004-11-08,33.3271
2004-11-09,33.3013
2004-11-10,33.5847
2004-11-11,34.0915
2004-11-12,34.2891
2004-11-15,34.6498
2004-11-16,34.3406
2004-11-17,34.8732
2004-11-18,34.7357
2004-11-19,34.2118
2004-11-22,34.2719
2004-11-23,34.4265
2004-11-24,34.4866
2004-11-26,34.8989
2004-11-29,34.332
2004-11-30,33.1639
2004-12-01,33.6363
2004-12-02,33.4559
2004-12-03,33.3528
2004-12-06,33.9627
2004-12-07,34.0314
2004-12-08,34.186
2004-12-09,34.04
2004-12-10,33.8424
2004-12-13,33.3872
2004-12-14,34.7186
2004-12-15,34.3578
2004-12-16,34.3406
2004-12-17,34.2891
2004-12-20,34.1173
2004-12-21,34.6069
2004-12-22,35.0965
2004-12-23,34.3578
2004-12-27,34.6584
2004-12-28,35.4143
2004-12-29,35.526
2004-12-30,35.4572
2004-12-31,35.6376
2005-01-03,35.5861
2005-01-04,34.813
2005-01-05,35.0707
2005-01-06,35.1354
2005-01-07,35.1268
2005-01-10,35.1527
2005-01-11,35.1699
2005-01-12,35.6782
2005-01-13,35.9281
2005-01-14,36.6518
2005-01-18,37.1343
2005-01-19,36.7121
2005-01-20,36.2383
2005-01-21,35.9798
2005-01-24,35.5576
2005-01-25,35.6438
2005-01-26,35.6093
2005-01-27,35.6265
2005-01-28,35.9022
2005-01-31,36.8069
2005-02-01,36.3158
2005-02-02,36.3847
2005-02-03,37.7891
2005-02-04,37.4703
2005-02-07,37.8753
2005-02-08,38.151
2005-02-09,37.6426
2005-02-10,38.0217
2005-02-11,37.5306
2005-02-14,38.2285
2005-02-15,38.1596
2005-02-16,38.3578
2005-02-17,37.7977
2005-02-18,37.6082
2005-02-22,37.2894
2005-02-23,38.0131
2005-02-24,38.1079
2005-02-25,38.7369
2005-02-28,38.3664
2005-03-01,39.0643
2005-03-02,38.8747
2005-03-03,38.9178
2005-03-04,40.4083
2005-03-07,40.4083
2005-03-08,40.8047
2005-03-09,41.2355
2005-03-10,40.9253
2005-03-11,41.4336
2005-03-14,42.0453
2005-03-15,41.4336
2005-03-16,40.348
2005-03-17,40.012
2005-03-18,39.34
2005-03-21,39.9345
2005-03-22,39.9
2005-03-23,39.6846
2005-03-24,39.7191
2005-03-28,40.8305
2005-03-29,40.2533
2005-03-30,41.2096
2005-03-31,44.7938
2005-04-01,43.0793
2005-04-04,42.2004
2005-04-05,42.7691
2005-04-06,43.1707
2005-04-07,42.7474
2005-04-08,41.9182
2005-04-11,42.7993
2005-04-12,42.6697
2005-04-13,41.4691
2005-04-14,40.3721
2005-04-15,39.2838
2005-04-18,40.113
2005-04-19,39.301
2005-04-20,38.7396
2005-04-21,40.1993
2005-04-22,39.9834
2005-04-25,40.5967
2005-04-26,41.1149
2005-04-27,41.2445
2005-04-28,41.0458
2005-04-29,40.899
2005-05-02,40.8558
2005-05-03,41.2445
2005-05-04,41.1668
2005-05-05,41.5295
2005-05-06,41.6591
2005-05-09,42.3156
2005-05-10,41.7627
2005-05-11,42.0823
2005-05-12,41.2359
2005-05-13,41.1236
2005-05-16,41.2877
2005-05-17,42.5574
2005-05-18,43.8703
2005-05-19,44.1294
2005-05-20,43.8099
2005-05-23,43.8617
2005-05-24,44.0517
2005-05-25,44.1726
2005-05-26,44.6218
2005-05-27,44.3627
2005-05-31,43.0325
2005-06-01,43.1361
2005-06-02,43.7839
2005-06-03,43.6544
2005-06-06,44.7859
2005-06-07,45.1314
2005-06-08,44.3799
2005-06-09,44.9068
2005-06-10,45.0969
2005-06-13,44.9846
2005-06-14,46.2197
2005-06-15,45.8483
2005-06-16,45.6929
2005-06-17,45.546
2005-06-20,45.4769
2005-06-21,45.4424
2005-06-22,45.9347
2005-06-23,45.14
2005-06-24,44.9673
2005-06-27,44.57
2005-06-28,45.3733
2005-06-29,45.2437
2005-06-30,45.3473
2005-07-01,45.8138
2005-07-05,46.6775
2005-07-06,46.197
2005-07-07,47.5736
2005-07-08,47.9199
2005-07-11,48.2835
2005-07-12,48.0844
2005-07-13,47.6255
2005-07-14,47.1493
2005-07-15,47.7987
2005-07-18,48.7164
2005-07-19,49.2618
2005-07-20,49.8332
2005-07-21,49.0454
2005-07-22,49.7986
2005-07-25,49.2964
2005-07-26,49.106
2005-07-27,49.9977
2005-07-28,49.6947
2005-07-29,48.6471
2005-08-01,49.357
2005-08-02,49.1925
2005-08-03,48.8722
2005-08-04,46.6385
2005-08-05,44.9936
2005-08-08,44.8724
2005-08-09,44.5261
2005-08-10,45.0369
2005-08-11,44.933
2005-08-12,45.4438
2005-08-15,44.9157
2005-08-16,43.1062
2005-08-17,43.8508
2005-08-18,44.0759
2005-08-19,43.5131
2005-08-22,43.5997
2005-08-23,43.669
2005-08-24,43.1062
2005-08-25,43.972
2005-08-26,43.8854
2005-08-29,43.7123
2005-08-30,42.1712
2005-08-31,42.1106
2005-09-01,40.6648
2005-09-02,40.9765
2005-09-06,41.5738
2005-09-07,42.8638
2005-09-08,42.5089
2005-09-09,42.9764
2005-09-12,43.2967
2005-09-13,42.3011
2005-09-14,41.9894
2005-09-15,42.4483
2005-09-16,42.4916
2005-09-19,41.9028
2005-09-20,40.9072
2005-09-21,39.3835
2005-09-22,40.4743
2005-09-23,40.8899
2005-09-26,41.5046
2005-09-27,41.2449
2005-09-28,40.9245
2005-09-29,40.7254
2005-09-30,41.0111
2005-10-03,40.483
2005-10-04,39.0458
2005-10-05,39.0155
2005-10-06,38.6595
2005-10-07,39.8836
2005-10-10,40.7258
2005-10-11,41.5939
2005-10-12,42.0454
2005-10-13,43.1306
2005-10-14,43.4518
2005-10-17,44.3026
2005-10-18,43.5299
2005-10-19,45.1795
2005-10-20,43.7991
2005-10-21,43.4605
2005-10-24,44.3287
2005-10-25,43.2695
2005-10-26,43.1306
2005-10-27,41.4724
2005-10-28,42.601
2005-10-31,44.4068
2005-11-01,43.3824
2005-11-02,44.5891
2005-11-03,46.2299
2005-11-04,46.3689
2005-11-07,46.3862
2005-11-08,45.9174
2005-11-09,45.9
2005-11-10,46.8898
2005-11-11,47.4801
2005-11-14,46.7161
2005-11-15,45.301
2005-11-16,46.4991
2005-11-17,47.0547
2005-11-18,47.211
2005-11-21,46.7856
2005-11-22,46.7248
2005-11-23,46.8637
2005-11-25,46.9679
2005-11-28,45.9608
2005-11-29,45.4226
2005-11-30,45.5094
2005-12-01,47.6364
2005-12-02,46.7769
2005-12-05,46.829
2005-12-06,47.2544
2005-12-07,47.0894
2005-12-08,47.2283
2005-12-09,47.1502
2005-12-12,47.5148
2005-12-13,47.2978
2005-12-14,47.4107
2005-12-15,47.0287
2005-12-16,46.256
2005-12-19,45.848
2005-12-20,47.3672
2005-12-21,47.8708
2005-12-22,47.4714
2005-12-23,48.409
2005-12-27,48.0878
2005-12-28,48.9126
2005-12-29,48.1573
2005-12-30,48.2354
2006-01-03,49.0515
2006-01-04,49.7547
2006-01-05,48.0097
2006-01-06,48.7186
2006-01-09,48.7882
2006-01-10,48.7969
2006-01-11,49.4582
2006-01-12,49.4669
2006-01-13,49.406
2006-01-17,48.4576
2006-01-18,48.4054
2006-01-19,48.6316
2006-01-20,47.7093
2006-01-23,47.8833
2006-01-24,48.6925
2006-01-25,49.3712
2006-01-26,49.3016
2006-01-27,48.8927
2006-01-30,48.8927
2006-01-31,48.5446
2006-02-01,48.7447
2006-02-02,48.7882
2006-02-03,48.7447
2006-02-06,48.3967
2006-02-07,47.5962
2006-02-08,48.7534
2006-02-09,48.0312
2006-02-10,48.0834
2006-02-13,48.2053
2006-02-14,48.7012
2006-02-15,49.2059
2006-02-16,50.224
2006-02-17,49.815
2006-02-21,49.2233
2006-02-22,50.2414
2006-02-23,49.8846
2006-02-24,50.4589
2006-02-27,51.3029
2006-02-28,51.0419
2006-03-01,52.3297
2006-03-02,52.4341
2006-03-03,52.4341
2006-03-06,52.0512
2006-03-07,51.9729
2006-03-08,52.4254
2006-03-09,52.9562
2006-03-10,53.8089
2006-03-13,53.3738
2006-03-14,53.7393
2006-03-15,54.0177
2006-03-16,54.4006
2006-03-17,54.6094
2006-03-20,54.2266
2006-03-21,53.7132
2006-03-22,53.5392
2006-03-23,53.3999
2006-03-24,52.9736
2006-03-27,53.0519
2006-03-28,52.8605
2006-03-29,53.4608
2006-03-30,53.3042
2006-03-31,52.582
2006-04-03,51.7554
2006-04-04,51.5292
2006-04-05,51.8685
2006-04-06,52.7762
2006-04-07,52.3398
2006-04-10,51.0568
2006-04-11,50.7513
2006-04-12,51.7027
2006-04-13,51.9034
2006-04-17,52.0605
2006-04-18,52.9245
2006-04-19,54.4519
2006-04-20,55.1152
2006-04-21,55.0279
2006-04-24,55.2897
2006-04-25,56.3632
2006-04-26,56.6861
2006-04-27,56.7298
2006-04-28,57.1138
2006-05-01,57.9342
2006-05-02,57.2273
2006-05-03,57.3931
2006-05-04,57.6462
2006-05-05,58.1175
2006-05-08,58.615
2006-05-09,58.9641
2006-05-10,58.3444
2006-05-11,57.5851
2006-05-12,56.2847
2006-05-15,56.3196
2006-05-16,55.281
2006-05-17,54.9581
2006-05-18,54.8097
2006-05-19,55.377
2006-05-22,54.225
2006-05-23,54.1988
2006-05-24,54.8621
2006-05-25,53.2038
2006-05-26,53.4307
2006-05-30,52.2874
2006-05-31,53.0816
2006-06-01,56.5465
2006-06-02,56.4941
2006-06-05,55.7261
2006-06-06,56.9742
2006-06-07,57.3145
2006-06-08,56.7472
2006-06-09,56.2061
2006-06-12,55.1675
2006-06-13,54.1726
2006-06-14,55.7436
2006-06-15,57.3407
2006-06-16,57.1749
2006-06-19,57.428
2006-06-20,57.5415
2006-06-21,58.8506
2006-06-22,59.095
2006-06-23,58.9903
2006-06-26,59.479
2006-06-27,58.0389
2006-06-28,58.4491
2006-06-29,59.0863
2006-06-30,58.9379
2006-07-03,59.3568
2006-07-05,59.0077
2006-07-06,59.2091
2006-07-07,60.0142
2006-07-10,60.0317
2006-07-11,60.3818
2006-07-12,59.6029
2006-07-13,56.7589
2006-07-14,56.7064
2006-07-17,57.4414
2006-07-18,55.4637
2006-07-19,56.1813
2006-07-20,55.5425
2006-07-21,54.3348
2006-07-24,55.9275
2006-07-25,55.735
2006-07-26,54.2998
2006-07-27,53.7835
2006-07-28,54.8861
2006-07-31,55.1224
2006-08-01,55.4637
2006-08-02,56.155
2006-08-03,56.2338
2006-08-04,56.085
2006-08-07,56.6801
2006-08-08,56.0325
2006-08-09,56.085
2006-08-10,57.3539
2006-08-11,57.0301
2006-08-14,58.0628
2006-08-15,59.3929
2006-08-16,59.5067
2006-08-17,60.1455
2006-08-18,59.5679
2006-08-21,59.1479
2006-08-22,58.7628
2006-08-23,57.9927
2006-08-24,56.9251
2006-08-25,57.0651
2006-08-28,56.3038
2006-08-29,56.0588
2006-08-30,55.3062
2006-08-31,55.1137
2006-09-01,55.9888
2006-09-05,56.8814
2006-09-06,56.4176
2006-09-07,55.84
2006-09-08,56.0938
2006-09-11,57.0039
2006-09-12,57.774
2006-09-13,56.9776
2006-09-14,57.1964
2006-09-15,56.6013
2006-09-18,58.4565
2006-09-19,59.0516
2006-09-20,60.2855
2006-09-21,59.0516
2006-09-22,58.3165
2006-09-25,60.3293
2006-09-26,59.8655
2006-09-27,60.4955
2006-09-28,60.5918
2006-09-29,59.8217
2006-10-02,60.443
2006-10-03,61.1431
2006-10-04,63.0858
2006-10-05,61.7612
2006-10-06,62.4016
2006-10-09,62.7701
2006-10-10,63.1649
2006-10-11,62.6648
2006-10-12,64.0246
2006-10-13,64.9107
2006-10-16,64.0948
2006-10-17,63.6649
2006-10-18,64.6124
2006-10-19,65.2353
2006-10-20,65.6652
2006-10-23,67.2531
2006-10-24,67.2969
2006-10-25,66.4196
2006-10-26,67.4899
2006-10-27,66.9548
2006-10-30,67.6478
2006-10-31,65.9985
2006-11-01,65.8845
2006-11-02,67.4373
2006-11-03,66.8056
2006-11-06,67.1916
2006-11-07,67.6391
2006-11-08,68.6743
2006-11-09,69.8762
2006-11-10,71.0079
2006-11-13,69.1041
2006-11-14,71.1745
2006-11-15,70.6833
2006-11-16,71.5518
2006-11-17,70.1832
2006-11-20,70.8938
2006-11-21,70.7359
2006-11-22,71.3061
2006-11-24,70.9114
2006-11-27,69.5252
2006-11-28,68.5339
2006-11-29,69.7796
2006-11-30,67.9198
2006-12-01,66.9109
2006-12-04,67.9987
2006-12-05,68.876
2006-12-06,68.5427
2006-12-07,68.2093
2006-12-08,67.5075
2006-12-11,68.3058
2006-12-12,67.6566
2006-12-13,69.1655
2006-12-14,70.7271
2006-12-15,69.7446
2006-12-18,70.1218
2006-12-19,70.1832
2006-12-20,70.0077
2006-12-21,68.8146
2006-12-22,69.7884
2006-12-26,68.2619
2006-12-27,68.7795
2006-12-28,68.0602
2006-12-29,67.8233
2007-01-03,68.4374
2007-01-04,67.4987
2007-01-05,67.1127
2007-01-08,67.007
2007-01-09,68.1326
2007-01-10,67.8864
2007-01-11,69.0559
2007-01-12,69.2757
2007-01-16,70.2167
2007-01-17,70.0144
2007-01-18,73.5494
2007-01-19,72.714
2007-01-22,72.3095
2007-01-23,72.0281
2007-01-24,72.6349
2007-01-25,71.9842
2007-01-26,71.3158
2007-01-29,71.7379
2007-01-30,71.2895
2007-01-31,71.3598
2007-02-01,74.5255
2007-02-02,73.5142
2007-02-05,73.3736
2007-02-06,74.5255
2007-02-07,74.1914
2007-02-08,73.4351
2007-02-09,72.8547
2007-02-12,72.5997
2007-02-13,73.2944
2007-02-14,74.2705
2007-02-15,75.4928
2007-02-16,74.9212
2007-02-20,75.8445
2007-02-21,75.8357
2007-02-22,73.2856
2007-02-23,73.8396
2007-02-26,73.013
2007-02-27,70.6915
2007-02-28,71.3071
2007-03-01,70.243
2007-03-02,69.3725
2007-03-05,68.115
2007-03-06,68.2821
2007-03-07,68.3436
2007-03-08,71.1136
2007-03-09,70.63
2007-03-12,71.6324
2007-03-13,70.4893
2007-03-14,68.9768
2007-03-15,70.0496
2007-03-16,69.9089
2007-03-19,70.5596
2007-03-20,70.1903
2007-03-21,71.6148
2007-03-22,71.694
2007-03-23,72.2831
2007-03-26,72.8635
2007-03-27,71.9402
2007-03-28,70.7882
2007-03-29,71.5181
2007-03-30,72.1512
2007-04-02,72.9866
2007-04-03,73.5406
2007-04-04,73.4351
2007-04-05,74.0521
2007-04-09,72.8798
2007-04-10,73.2764
2007-04-11,73.5144
2007-04-12,73.867
2007-04-13,71.6457
2007-04-16,72.298
2007-04-17,72.1393
2007-04-18,71.2402
2007-04-19,71.1785
2007-04-20,73.2676
2007-04-23,73.153
2007-04-24,71.8396
2007-04-25,72.677
2007-04-26,72.4655
2007-04-27,72.3333
2007-04-30,69.7329
2007-05-01,70.4469
2007-05-02,70.2706
2007-05-03,69.777
2007-05-04,70.4822
2007-05-07,70.1737
2007-05-08,69.1247
2007-05-09,68.8338
2007-05-10,67.6791
2007-05-11,67.3882
2007-05-14,66.9211
2007-05-15,66.877
2007-05-16,66.7095
2007-05-17,70.2971
2007-05-18,70.1208
2007-05-21,69.4068
2007-05-22,69.3363
2007-05-23,69.4685
2007-05-24,69.4685
2007-05-25,69.9533
2007-05-29,70.2177
2007-05-30,71.0199
2007-05-31,71.0023
2007-06-01,72.2804
2007-06-04,72.3862
2007-06-05,72.1482
2007-06-06,71.6281
2007-06-07,68.6664
2007-06-08,68.9837
2007-06-11,68.0934
2007-06-12,67.6527
2007-06-13,67.7144
2007-06-14,67.0973
2007-06-15,66.6654
2007-06-18,66.1189
2007-06-19,66.4803
2007-06-20,65.3785
2007-06-21,64.8937
2007-06-22,64.3031
2007-06-25,63.3864
2007-06-26,61.6939
2007-06-27,63.2013
2007-06-28,64.1709
2007-06-29,63.7213
2007-07-02,63.8183
2007-07-03,63.0514
2007-07-05,62.9633
2007-07-06,64.086
2007-07-09,64.1302
2007-07-10,62.9457
2007-07-11,62.8131
2007-07-12,66.5611
2007-07-13,67.0561
2007-07-16,65.7567
2007-07-17,65.9158
2007-07-18,66.5257
2007-07-19,67.719
2007-07-20,66.2959
2007-07-23,65.4473
2007-07-24,63.7855
2007-07-25,62.3535
2007-07-26,61.5579
2007-07-27,60.8243
2007-07-30,61.0364
2007-07-31,60.1613
2007-08-01,60.5856
2007-08-02,60.8861
2007-08-03,58.1724
2007-08-06,61.4519
2007-08-07,61.0718
2007-08-08,61.5137
2007-08-09,57.863
2007-08-10,56.9349
2007-08-13,57.3238
2007-08-14,55.1847
2007-08-15,55.3438
2007-08-16,56.9968
2007-08-17,59.6398
2007-08-20,58.1547
2007-08-21,58.5879
2007-08-22,57.6067
2007-08-23,57.0233
2007-08-24,58.3315
2007-08-27,58.7647
2007-08-28,55.662
2007-08-29,58.4818
2007-08-30,58.3846
2007-08-31,60.9127
2007-09-04,59.3923
2007-09-05,57.9779
2007-09-06,58.4022
2007-09-07,57.6597
2007-09-10,56.1128
2007-09-11,56.6697
2007-09-12,55.4234
2007-09-13,56.7404
2007-09-14,56.6078
2007-09-17,56.1128
2007-09-18,59.9933
2007-09-19,60.3734
2007-09-20,58.7381
2007-09-21,58.6851
2007-09-24,58.2962
2007-09-25,56.1747
2007-09-26,56.9703
2007-09-27,56.325
2007-09-28,55.9802
2007-10-01,56.5725
2007-10-02,58.2697
2007-10-03,60.0817
2007-10-04,58.4995
2007-10-05,60.9639
2007-10-08,59.8645
2007-10-09,59.2971
2007-10-10,60.2901
2007-10-11,56.0343
2007-10-12,55.1388
2007-10-15,54.3143
2007-10-16,53.4365
2007-10-17,52.5144
2007-10-18,50.5373
2007-10-19,49.1098
2007-10-22,49.6507
2007-10-23,49.0744
2007-10-24,48.4626
2007-10-25,49.1098
2007-10-26,49.6507
2007-10-29,50.1028
2007-10-30,50.3245
2007-10-31,49.8191
2007-11-01,47.842
2007-11-02,47.2036
2007-11-05,46.051
2007-11-06,45.9357
2007-11-07,45.4924
2007-11-08,44.4905
2007-11-09,41.6179
2007-11-12,41.0593
2007-11-13,42.5666
2007-11-14,41.5026
2007-11-15,39.5875
2007-11-16,38.1955
2007-11-19,36.5021
2007-11-20,36.7947
2007-11-21,35.4648
2007-11-23,36.5996
2007-11-26,36.2095
2007-11-27,35.9879
2007-11-28,38.5768
2007-11-29,39.4811
2007-11-30,39.162
2007-12-03,38.7364
2007-12-04,39.6762
2007-12-05,40.6249
2007-12-06,39.7117
2007-12-07,42.5488
2007-12-10,42.4602
2007-12-11,40.5096
2007-12-12,39.357
2007-12-13,38.5502
2007-12-14,37.7434
2007-12-17,38.9314
2007-12-18,40.0042
2007-12-19,39.0733
2007-12-20,38.6477
2007-12-21,38.9137
2007-12-24,40.6515
2007-12-26,39.357
2007-12-27,38.3285
2007-12-28,38.7718
2007-12-31,38.958
2008-01-02,36.9897
2008-01-03,35.3406
2008-01-04,33.3457
2008-01-07,31.8917
2008-01-08,30.7417
2008-01-09,32.0791
2008-01-10,33.47
2008-01-11,33.7731
2008-01-14,34.2367
2008-01-15,32.9083
2008-01-16,34.95
2008-01-17,34.7182
2008-01-18,36.5637
2008-01-22,38.6411
2008-01-23,39.3722
2008-01-24,38.9353
2008-01-25,37.8209
2008-01-28,39.6664
2008-01-29,40.1033
2008-01-30,39.9428
2008-01-31,42.3412
2008-02-01,43.3487
2008-02-04,41.6457
2008-02-05,40.558
2008-02-06,38.9621
2008-02-07,42.3947
2008-02-08,42.4928
2008-02-11,44.5434
2008-02-12,42.8316
2008-02-13,42.6711
2008-02-14,40.9325
2008-02-15,41.4496
2008-02-19,41.298
2008-02-20,42.7781
2008-02-21,42.7781
2008-02-22,43.3308
2008-02-25,43.7766
2008-02-26,45.0248
2008-02-27,44.1957
2008-02-28,42.4303
2008-02-29,41.2267
2008-03-03,41.8597
2008-03-04,42.1005
2008-03-05,42.9385
2008-03-06,38.0973
2008-03-07,36.5637
2008-03-10,35.9664
2008-03-11,36.1982
2008-03-12,35.4849
2008-03-13,35.3423
2008-03-14,34.5666
2008-03-17,33.6037
2008-03-18,35.4849
2008-03-19,34.8608
2008-03-20,37.5801
2008-03-24,38.9264
2008-03-25,38.9532
2008-03-26,37.0184
2008-03-27,36.1536
2008-03-28,33.256
2008-03-31,33.5234
2008-04-01,35.6722
2008-04-02,36.5013
2008-04-03,35.8059
2008-04-04,35.7613
2008-04-07,35.8951
2008-04-08,36.1997
2008-04-09,34.9363
2008-04-10,35.8054
2008-04-11,34.5241
2008-04-14,34.7033
2008-04-15,35.4381
2008-04-16,34.2553
2008-04-17,34.6944
2008-04-18,36.119
2008-04-21,36.8986
2008-04-22,35.8144
2008-04-23,36.3879
2008-04-24,37.5437
2008-04-25,38.7175
2008-04-28,38.9505
2008-04-29,39.1656
2008-04-30,38.0814
2008-05-01,39.2731
2008-05-02,40.5275
2008-05-05,38.7982
2008-05-06,39.3358
2008-05-07,39.4075
2008-05-08,38.619
2008-05-09,38.386
2008-05-12,39.7121
2008-05-13,39.4075
2008-05-14,39.5688
2008-05-15,41.4236
2008-05-16,40.2946
2008-05-19,39.3896
2008-05-20,37.9022
2008-05-21,36.3341
2008-05-22,36.2355
2008-05-23,35.8592
2008-05-27,36.3162
2008-05-28,37.0151
2008-05-29,37.1495
2008-05-30,36.0115
2008-06-02,35.7338
2008-06-03,35.4649
2008-06-04,35.232
2008-06-05,36.3968
2008-06-06,34.5868
2008-06-09,34.103
2008-06-10,34.1747
2008-06-11,33.6012
2008-06-12,34.2732
2008-06-13,35.3395
2008-06-16,35.1334
2008-06-17,34.7033
2008-06-18,32.9113
2008-06-19,33.4758
2008-06-20,33.0188
2008-06-23,33.4668
2008-06-24,33.1173
2008-06-25,33.8162
2008-06-26,32.302
2008-06-27,33.0188
2008-06-30,32.5528
2008-07-01,32.3109
2008-07-02,32.2482
2008-07-03,32.9561
2008-07-07,33.4578
2008-07-08,34.0706
2008-07-09,32.0347
2008-07-10,28.7285
2008-07-11,27.7736
2008-07-14,26.4944
2008-07-15,25.5395
2008-07-16,26.9808
2008-07-17,28.7646
2008-07-18,28.5213
2008-07-21,27.7196
2008-07-22,28.3502
2008-07-23,29.1429
2008-07-24,27.8367
2008-07-25,27.8367
2008-07-28,27.3592
2008-07-29,28.206
2008-07-30,28.197
2008-07-31,27.7376
2008-08-01,27.1971
2008-08-04,26.6025
2008-08-05,28.3502
2008-08-06,28.4583
2008-08-07,30.1879
2008-08-08,32.1248
2008-08-11,33.8815
2008-08-12,32.5662
2008-08-13,32.0707
2008-08-14,33.0797
2008-08-15,36.0525
2008-08-18,34.9084
2008-08-19,33.6923
2008-08-20,32.7284
2008-08-21,33.1247
2008-08-22,34.494
2008-08-25,33.1518
2008-08-26,33.6652
2008-08-27,33.9715
2008-08-28,35.1156
2008-08-29,35.0886
2008-09-02,36.575
2008-09-03,37.557
2008-09-04,35.6111
2008-09-05,36.5931
2008-09-08,38.8812
2008-09-09,36.8633
2008-09-10,37.7371
2008-09-11,38.8272
2008-09-12,37.3588
2008-09-15,36.4579
2008-09-16,36.1967
2008-09-17,33.4671
2008-09-18,35.1246
2008-09-19,34.404
2008-09-22,32.6473
2008-09-23,32.2959
2008-09-24,32.2779
2008-09-25,32.2779
2008-09-26,31.9176
2008-09-29,29.9357
2008-09-30,29.9717
2008-10-01,30.0168
2008-10-02,29.7735
2008-10-03,28.4763
2008-10-06,28.0349
2008-10-07,26.089
2008-10-08,24.8202
2008-10-09,21.6814
2008-10-10,20.8105
2008-10-13,21.382
2008-10-14,20.5474
2008-10-15,19.4044
2008-10-16,19.1867
2008-10-17,19.1322
2008-10-20,19.8943
2008-10-21,19.6221
2008-10-22,18.3521
2008-10-23,17.6445
2008-10-24,17.1727
2008-10-27,17.0185
2008-10-28,18.4246
2008-10-29,19.2048
2008-10-30,19.4497
2008-10-31,21.636
2008-11-03,20.5021
2008-11-04,21.0464
2008-11-05,20.1936
2008-11-06,19.8217
2008-11-07,20.3206
2008-11-10,18.1797
2008-11-11,17.6808
2008-11-12,16.8099
2008-11-13,17.3905
2008-11-14,15.7576
2008-11-17,15.1951
2008-11-18,14.932
2008-11-19,13.9069
2008-11-20,13.0633
2008-11-21,13.7346
2008-11-24,15.9027
2008-11-25,15.3312
2008-11-26,17.1092
2008-11-28,17.2272
2008-12-01,15.0409
2008-12-02,15.6941
2008-12-03,16.7736
2008-12-04,18.0346
2008-12-05,18.724
2008-12-08,19.9396
2008-12-09,19.477
2008-12-10,20.2753
2008-12-11,18.597
2008-12-12,18.5789
2008-12-15,17.7352
2008-12-16,18.3611
2008-12-17,19.4951
2008-12-18,18.7966
2008-12-19,18.1071
2008-12-22,17.0367
2008-12-23,16.4289
2008-12-24,16.7101
2008-12-26,16.8915
2008-12-29,16.1295
2008-12-30,16.9278
2008-12-31,17.9076
2009-01-02,18.6514
2009-01-05,19.5586
2009-01-06,20.3569
2009-01-07,19.7157
2009-01-08,20.1001
2009-01-09,19.2123
2009-01-12,18.9011
2009-01-13,18.5899
2009-01-14,17.1986
2009-01-15,17.6197
2009-01-16,17.6563
2009-01-20,15.9904
2009-01-21,16.4115
2009-01-22,16.3931
2009-01-23,16.6128
2009-01-26,16.4572
2009-01-27,16.4481
2009-01-28,17.3085
2009-01-29,16.4115
2009-01-30,15.3039
2009-02-02,15.0934
2009-02-03,15.1849
2009-02-04,14.0866
2009-02-05,13.8211
2009-02-06,14.471
2009-02-09,14.7639
2009-02-10,14.0866
2009-02-11,14.4619
2009-02-12,14.4527
2009-02-13,14.4985
2009-02-17,14.1323
2009-02-18,13.6289
2009-02-19,13.6472
2009-02-20,13.8669
2009-02-23,13.2628
2009-02-24,14.0408
2009-02-25,14.3703
2009-02-26,14.1323
2009-02-27,14.0591
2009-03-02,13.5099
2009-03-03,13.0523
2009-03-04,14.0683
2009-03-05,13.1438
2009-03-06,12.9974
2009-03-09,12.9699
2009-03-10,14.3337
2009-03-11,14.5259
2009-03-12,15.1941
2009-03-13,15.0293
2009-03-16,14.7273
2009-03-17,15.1849
2009-03-18,16.4206
2009-03-19,16.2009
2009-03-20,15.8257
2009-03-23,17.1895
2009-03-24,17.6471
2009-03-25,17.4366
2009-03-26,18.416
2009-03-27,19.6425
2009-03-30,18.6814
2009-03-31,18.3702
2009-04-01,18.7913
2009-04-02,20.0727
2009-04-03,21.0795
2009-04-06,20.1825
2009-04-07,19.5175
2009-04-08,20.9308
2009-04-09,23.5725
2009-04-13,24.487
2009-04-14,23.6741
2009-04-15,23.24
2009-04-16,24.1822
2009-04-17,24.7641
2009-04-20,23.5448
2009-04-21,24.0436
2009-04-22,24.7918
2009-04-23,24.6255
2009-04-24,25.9834
2009-04-27,25.4014
2009-04-28,25.0135
2009-04-29,26.1958
2009-04-30,28.3388
2009-05-01,28.6344
2009-05-04,30.1123
2009-05-05,29.7705
2009-05-06,29.5119
2009-05-07,27.7384
2009-05-08,28.2279
2009-05-11,26.6761
2009-05-12,25.7802
2009-05-13,24.5147
2009-05-14,24.6071
2009-05-15,24.4685
2009-05-18,25.0966
2009-05-19,25.3645
2009-05-20,24.4778
2009-05-21,23.1384
2009-05-22,23.1938
2009-05-26,24.6717
2009-05-27,23.8589
2009-05-28,23.6741
2009-05-29,24.0344
2009-06-01,27.7199
2009-06-02,28.505
2009-06-03,27.7199
2009-06-04,27.1749
2009-06-05,26.7685
2009-06-08,26.8332
2009-06-09,26.7593
2009-06-10,26.5283
2009-06-11,25.8079
2009-06-12,26.9255
2009-06-15,25.9834
2009-06-16,24.3854
2009-06-17,24.9396
2009-06-18,23.9328
2009-06-19,24.5794
2009-06-22,23.9328
2009-06-23,23.8127
2009-06-24,24.5886
2009-06-25,26.0203
2009-06-26,26.2328
2009-06-29,26.6392
2009-06-30,26.4914
2009-07-01,26.4452
2009-07-02,25.1798
2009-07-06,25.1613
2009-07-07,24.5147
2009-07-08,25.622
2009-07-09,24.7099
2009-07-10,24.4773
2009-07-13,24.7937
2009-07-14,25.2683
2009-07-15,26.5713
2009-07-16,26.5806
2009-07-17,26.7202
2009-07-20,27.8371
2009-07-21,27.3159
2009-07-22,27.2228
2009-07-23,27.3252
2009-07-24,27.4089
2009-07-27,27.1204
2009-07-28,27.1576
2009-07-29,27.0553
2009-07-30,27.381
2009-07-31,28.107
2009-08-03,29.1679
2009-08-04,28.8701
2009-08-05,28.6933
2009-08-06,29.2796
2009-08-07,32.0624
2009-08-10,30.9177
2009-08-11,30.6571
2009-08-12,30.9177
2009-08-13,31.02
2009-08-14,28.9911
2009-08-17,28.0511
2009-08-18,28.7957
2009-08-19,28.6654
2009-08-20,28.5537
2009-08-21,29.0377
2009-08-24,28.6188
2009-08-25,28.9818
2009-08-26,28.3582
2009-08-27,29.0749
2009-08-28,28.9353
2009-08-31,27.9394
2009-09-01,27.7812
2009-09-02,27.6881
2009-09-03,28.0046
2009-09-04,28.3676
2009-09-08,28.3862
2009-09-09,29.1679
2009-09-10,29.2238
2009-09-11,29.4099
2009-09-14,29.9218
2009-09-15,30.4058
2009-09-16,30.7501
2009-09-17,31.2434
2009-09-18,31.7087
2009-09-21,31.0573
2009-09-22,31.4947
2009-09-23,30.9456
2009-09-24,30.6664
2009-09-25,29.9683
2009-09-28,30.5361
2009-09-29,31.4109
2009-09-30,31.3923
2009-10-01,30.3872
2009-10-02,30.6384
2009-10-05,32.0624
2009-10-06,32.4626
2009-10-07,32.6593
2009-10-08,32.912
2009-10-09,33.146
2009-10-12,33.3052
2009-10-13,33.3894
2009-10-14,34.5033
2009-10-15,34.2038
2009-10-16,33.483
2009-10-19,34.1944
2009-10-20,33.6515
2009-10-21,32.8933
2009-10-22,34.4004
2009-10-23,33.7357
2009-10-26,33.0992
2009-10-27,31.7139
2009-10-28,31.0118
2009-10-29,32.107
2009-10-30,31.0212
2009-11-02,31.0867
2009-11-03,30.6935
2009-11-04,30.0289
2009-11-05,28.3627
2009-11-06,28.578
2009-11-09,29.2614
2009-11-10,29.1303
2009-11-11,27.9509
2009-11-12,27.5109
2009-11-13,29.2333
2009-11-16,29.1584
2009-11-17,27.979
2009-11-18,27.2769
2009-11-19,27.5203
2009-11-20,27.5764
2009-11-23,27.2956
2009-11-24,27.3705
2009-11-25,28.6904
2009-11-27,27.6794
2009-11-30,26.8931
2009-12-01,26.9586
2009-12-02,27.2769
2009-12-03,26.5093
2009-12-04,26.0881
2009-12-07,26.397
2009-12-08,26.1068
2009-12-09,25.6294
2009-12-10,26.3408
2009-12-11,26.7808
2009-12-14,27.0148
2009-12-15,25.8915
2009-12-16,25.7324
2009-12-17,25.3205
2009-12-18,25.3018
2009-12-21,25.929
2009-12-22,25.723
2009-12-23,25.5545
2009-12-24,25.358
2009-12-28,25.6107
2009-12-29,25.3205
2009-12-30,25.1427
2009-12-31,24.8993
2010-01-04,25.4329
2010-01-05,25.4141
2010-01-06,26.0363
2010-01-07,25.2725
2010-01-08,25.0744
2010-01-11,24.801
2010-01-12,23.8674
2010-01-13,24.3955
2010-01-14,24.5463
2010-01-15,24.4143
2010-01-19,24.6406
2010-01-20,24.32
2010-01-21,24.0088
2010-01-22,23.8108
2010-01-25,23.6976
2010-01-26,23.7165
2010-01-27,23.5751
2010-01-28,23.4336
2010-01-29,23.4147
2010-02-01,23.7542
2010-02-02,24.3295
2010-02-03,24.5463
2010-02-04,23.7165
2010-02-05,23.0375
2010-02-08,22.9149
2010-02-09,23.3204
2010-02-10,23.1318
2010-02-11,23.3582
2010-02-12,23.4525
2010-02-16,24.2352
2010-02-17,24.4143
2010-02-18,24.5275
2010-02-19,26.0834
2010-02-22,26.3569
2010-02-23,25.9797
2010-02-24,26.6209
2010-02-25,26.3569
2010-02-26,26.0269
2010-03-01,26.3192
2010-03-02,27.2622
2010-03-03,27.1773
2010-03-04,27.8091
2010-03-05,28.3938
2010-03-08,28.8747
2010-03-09,28.3844
2010-03-10,28.6107
2010-03-11,28.507
2010-03-12,28.7899
2010-03-15,28.9407
2010-03-16,28.9973
2010-03-17,29.1105
2010-03-18,29.3557
2010-03-19,29.582
2010-03-22,30.0818
2010-03-23,31.6754
2010-03-24,30.8927
2010-03-25,30.9588
2010-03-26,31.2039
2010-03-29,31.0059
2010-03-30,30.8267
2010-03-31,30.3175
2010-04-01,31.0719
2010-04-05,31.7509
2010-04-06,31.4868
2010-04-07,31.0882
2010-04-08,29.3426
2010-04-09,29.8834
2010-04-12,29.3711
2010-04-13,29.3521
2010-04-14,29.8265
2010-04-15,29.836
2010-04-16,29.4944
2010-04-19,29.8454
2010-04-20,28.8588
2010-04-21,29.0201
2010-04-22,30.0257
2010-04-23,30.3672
2010-04-26,30.6898
2010-04-27,29.5798
2010-04-28,29.096
2010-04-29,29.5134
2010-04-30,27.7109
2010-05-03,28.5268
2010-05-04,27.2271
2010-05-05,27.1891
2010-05-06,26.7053
2010-05-07,26.2594
2010-05-10,28.0619
2010-05-11,27.6066
2010-05-12,28.0999
2010-05-13,26.7433
2010-05-14,26.1646
2010-05-17,26.1741
2010-05-18,25.3013
2010-05-19,25.1495
2010-05-20,24.6846
2010-05-21,25.8705
2010-05-24,25.6523
2010-05-25,25.7092
2010-05-26,25.0641
2010-05-27,26.3448
2010-05-28,26.0982
2010-06-01,25.1969
2010-06-02,25.7471
2010-06-03,25.6523
2010-06-04,24.1723
2010-06-07,23.4703
2010-06-08,23.8688
2010-06-09,24.049
2010-06-10,24.9408
2010-06-11,24.6467
2010-06-14,25.7566
2010-06-15,26.1456
2010-06-16,25.823
2010-06-17,25.1779
2010-06-18,24.808
2010-06-21,24.087
2010-06-22,23.3849
2010-06-23,23.3565
2010-06-24,21.9999
2010-06-25,22.0378
2010-06-28,21.8101
2010-06-29,20.5958
2010-06-30,20.4061
2010-07-01,20.3587
2010-07-02,20.093
2010-07-06,19.7515
2010-07-07,20.8434
2010-07-08,22.2419
2010-07-09,22.376
2010-07-12,21.5905
2010-07-13,22.1653
2010-07-14,22.0216
2010-07-15,21.8013
2010-07-16,20.8242
2010-07-19,21.0062
2010-07-20,22.9124
2010-07-21,22.6155
2010-07-22,23.6021
2010-07-23,23.9948
2010-07-26,24.6653
2010-07-27,24.3205
2010-07-28,23.832
2010-07-29,23.5829
2010-07-30,23.6117
2010-08-02,24.3588
2010-08-03,22.3856
2010-08-04,22.9699
2010-08-05,21.1787
2010-08-06,20.8913
2010-08-09,20.6327
2010-08-10,20.1346
2010-08-11,19.943
2010-08-12,19.9526
2010-08-13,18.9851
2010-08-16,18.7265
2010-08-17,19.2725
2010-08-18,19.8185
2010-08-19,19.7802
2010-08-20,20.307
2010-08-23,20.0675
2010-08-24,19.7131
2010-08-25,20.2112
2010-08-26,19.4545
2010-08-27,19.3491
2010-08-30,18.7073
2010-08-31,19.1384
2010-09-01,19.8759
2010-09-02,20.4794
2010-09-03,20.6614
2010-09-07,19.8855
2010-09-08,20.0484
2010-09-09,19.8472
2010-09-10,20.2112
2010-09-13,21.4469
2010-09-14,23.0082
2010-09-15,23.4009
2010-09-16,23.3914
2010-09-17,23.3722
2010-09-20,23.8128
2010-09-21,23.7841
2010-09-22,23.5734
2010-09-23,23.5829
2010-09-24,24.4354
2010-09-27,24.5887
2010-09-28,24.991
2010-09-29,25.8531
2010-09-30,26.0351
2010-10-01,26.3225
2010-10-04,26.3991
2010-10-05,27.7976
2010-10-06,27.9423
2010-10-07,30.4114
2010-10-08,31.347
2010-10-11,31.9933
2010-10-12,32.5816
2010-10-13,32.2344
2010-10-14,31.9643
2010-10-15,32.6781
2010-10-18,32.0801
2010-10-19,31.5689
2010-10-20,31.7714
2010-10-21,31.2602
2010-10-22,31.3856
2010-10-25,31.4628
2010-10-26,31.5785
2010-10-27,31.1252
2010-10-28,30.5272
2010-10-29,30.1221
2010-11-01,29.9871
2010-11-02,30.2764
2010-11-03,30.1414
2010-11-04,31.1927
2010-11-05,31.4242
2010-11-08,31.9547
2010-11-09,31.0094
2010-11-10,31.5014
2010-11-11,31.1155
2010-11-12,30.0546
2010-11-15,30.0739
2010-11-16,29.7556
2010-11-17,30.479
2010-11-18,30.016
2010-11-19,30.9709
2010-11-22,30.913
2010-11-23,31.2602
2010-11-24,31.646
2010-11-26,31.3856
2010-11-29,31.6075
2010-11-30,32.0704
2010-12-01,32.5141
2010-12-02,33.2279
2010-12-03,32.5527
2010-12-06,33.1989
2010-12-07,32.6974
2010-12-08,32.8228
2010-12-09,32.9192
2010-12-10,32.7456
2010-12-13,31.6171
2010-12-14,31.3084
2010-12-15,31.212
2010-12-16,31.7135
2010-12-17,32.5045
2010-12-20,32.4659
2010-12-21,32.543
2010-12-22,31.5882
2010-12-23,31.2892
2010-12-27,31.3181
2010-12-28,31.3953
2010-12-29,31.4821
2010-12-30,31.2409
2010-12-31,31.1927
2011-01-03,31.8872
2011-01-04,31.1541
2011-01-05,31.5303
2011-01-06,31.1325
2011-01-07,29.803
2011-01-10,29.968
2011-01-11,29.6186
2011-01-12,29.7156
2011-01-13,29.7448
2011-01-14,29.4924
2011-01-18,28.7355
2011-01-19,28.2017
2011-01-20,29.211
2011-01-21,29.4536
2011-01-24,31.5498
2011-01-25,31.1907
2011-01-26,31.3848
2011-01-27,31.938
2011-01-28,31.3654
2011-01-31,31.1325
2011-02-01,30.8511
2011-02-02,30.0553
2011-02-03,30.0068
2011-02-04,30.6279
2011-02-07,32.3844
2011-02-08,33.9469
2011-02-09,34.7329
2011-02-10,34.927
2011-02-11,35.2182
2011-02-14,34.927
2011-02-15,34.8882
2011-02-16,35.6937
2011-02-17,35.8587
2011-02-18,35.9266
2011-02-22,35.0532
2011-02-23,34.6941
2011-02-24,35.4608
2011-02-25,33.122
2011-02-28,33.9178
2011-03-01,33.1996
2011-03-02,33.2481
2011-03-03,32.9279
2011-03-04,33.0443
2011-03-07,33.3743
2011-03-08,34.238
2011-03-09,35.8587
2011-03-10,35.7131
2011-03-11,36.6059
2011-03-14,35.7422
2011-03-15,35.519
2011-03-16,35.0823
2011-03-17,34.8882
2011-03-18,35.0823
2011-03-21,35.1308
2011-03-22,34.8009
2011-03-23,34.995
2011-03-24,35.5287
2011-03-25,35.946
2011-03-28,34.9076
2011-03-29,35.0823
2011-03-30,35.5772
2011-03-31,34.927
2011-04-01,34.927
2011-04-04,34.8106
2011-04-05,35.849
2011-04-06,36.0734
2011-04-07,36.61
2011-04-08,36.3075
2011-04-11,37.0881
2011-04-12,36.854
2011-04-13,36.4539
2011-04-14,36.249
2011-04-15,36.3466
2011-04-18,35.9368
2011-04-19,36.1417
2011-04-20,36.6491
2011-04-21,36.5027
2011-04-25,36.932
2011-04-26,37.898
2011-04-27,37.8004
2011-04-28,37.9663
2011-04-29,37.4784
2011-05-02,37.5077
2011-05-03,37.6833
2011-05-04,38.4737
2011-05-05,36.5905
2011-05-06,36.3563
2011-05-09,36.0051
2011-05-10,36.4734
2011-05-11,36.7271
2011-05-12,37.537
2011-05-13,37.4199
2011-05-16,36.3075
2011-05-17,35.8197
2011-05-18,36.7661
2011-05-19,37.0394
2011-05-20,35.2342
2011-05-23,35.1269
2011-05-24,35.2733
2011-05-25,35.0098
2011-05-26,35.0879
2011-05-27,35.1366
2011-05-31,34.5805
2011-06-01,33.1852
2011-06-02,32.2582
2011-06-03,31.4971
2011-06-06,30.6872
2011-06-07,30.8629
2011-06-08,29.9945
2011-06-09,29.9652
2011-06-10,29.1846
2011-06-13,29.3993
2011-06-14,34.5219
2011-06-15,33.2827
2011-06-16,33.4389
2011-06-17,33.3608
2011-06-20,34.3365
2011-06-21,35.0098
2011-06-22,34.0536
2011-06-23,34.1511
2011-06-24,33.4096
2011-06-27,33.4876
2011-06-28,34.3561
2011-06-29,34.0633
2011-06-30,33.7218
2011-07-01,34.1902
2011-07-05,33.5462
2011-07-06,33.5267
2011-07-07,33.1243
2011-07-08,32.3587
2011-07-11,31.2104
2011-07-12,31.5343
2011-07-13,31.5049
2011-07-14,31.2497
2011-07-15,31.0043
2011-07-18,30.7491
2011-07-19,31.0632
2011-07-20,30.7688
2011-07-21,31.0927
2011-07-22,30.8473
2011-07-25,30.6706
2011-07-26,30.916
2011-07-27,30.3664
2011-07-28,30.3958
2011-07-29,30.229
2011-08-01,29.8953
2011-08-02,29.8168
2011-08-03,29.8855
2011-08-04,28.1973
2011-08-05,27.9029
2011-08-08,25.145
2011-08-09,26.1265
2011-08-10,24.7917
2011-08-11,26.3424
2011-08-12,26.0676
2011-08-15,26.5681
2011-08-16,25.9694
2011-08-17,25.3119
2011-08-18,23.4078
2011-08-19,23.9182
2011-08-22,24.5659
2011-08-23,25.4983
2011-08-24,26.205
2011-08-25,25.675
2011-08-26,26.1952
2011-08-29,26.9509
2011-08-30,26.4896
2011-08-31,26.0774
2011-09-01,25.783
2011-09-02,24.7132
2011-09-06,25.4591
2011-09-07,26.1854
2011-09-08,25.6161
2011-09-09,24.8996
2011-09-12,25.3609
2011-09-13,25.7633
2011-09-14,26.5485
2011-09-15,26.7055
2011-09-16,27.4907
2011-09-19,26.9116
2011-09-20,26.5681
2011-09-21,25.8713
2011-09-22,24.9683
2011-09-23,25.0861
2011-09-26,26.6565
2011-09-27,26.9803
2011-09-28,27.0098
2011-09-29,27.0589
2011-09-30,26.3326
2011-10-03,25.6259
2011-10-04,27.4514
2011-10-05,27.3429
2011-10-06,28.1337
2011-10-07,28.5786
2011-10-10,29.6067
2011-10-11,29.5968
2011-10-12,29.9032
2011-10-13,29.3397
2011-10-14,29.7055
2011-10-17,29.577
2011-10-18,31.129
2011-10-19,31.0796
2011-10-20,31.5541
2011-10-21,32.5129
2011-10-24,33.6102
2011-10-25,32.5624
2011-10-26,32.2856
2011-10-27,33.0072
2011-10-28,32.681
2011-10-31,31.7419
2011-11-01,31.3761
2011-11-02,32.2164
2011-11-03,33.1456
2011-11-04,33.2543
2011-11-07,33.0665
2011-11-08,33.4125
2011-11-09,32.3647
2011-11-10,32.4932
2011-11-11,33.4817
2011-11-14,32.6217
2011-11-15,31.9297
2011-11-16,31.6925
2011-11-17,31.2476
2011-11-18,31.1784
2011-11-21,30.8621
2011-11-22,30.2887
2011-11-23,29.5869
2011-11-25,29.4089
2011-11-28,29.7055
2011-11-29,29.923
2011-11-30,31.6925
2011-12-01,31.821
2011-12-02,32.6415
2011-12-05,33.1456
2011-12-06,32.8886
2011-12-07,33.116
2011-12-08,32.7897
2011-12-09,33.2247
2011-12-12,32.8194
2011-12-13,31.5442
2011-12-14,32.0088
2011-12-15,32.1867
2011-12-16,32.2757
2011-12-19,31.8803
2011-12-20,33.027
2011-12-21,34.1935
2011-12-22,34.8162
2011-12-23,35.2413
2011-12-27,34.8953
2011-12-28,34.9447
2011-12-29,35.1227
2011-12-30,34.7569
2012-01-03,34.5691
2012-01-04,34.4999
2012-01-05,33.5311
2012-01-06,34.754
2012-01-09,34.386
2012-01-10,34.217
2012-01-11,34.3562
2012-01-12,34.0678
2012-01-13,33.5508
2012-01-17,33.1232
2012-01-18,33.6999
2012-01-19,35.3108
2012-01-20,34.9031
2012-01-23,34.7739
2012-01-24,34.4557
2012-01-25,34.1573
2012-01-26,40.4717
2012-01-27,41.2672
2012-01-30,41.6153
2012-01-31,41.4263
2012-02-01,41.0584
2012-02-02,41.1877
2012-02-03,40.8098
2012-02-06,41.0286
2012-02-07,41.9434
2012-02-08,42.0926
2012-02-09,42.8881
2012-02-10,42.2218
2012-02-13,41.7246
2012-02-14,42.1224
2012-02-15,42.013
2012-02-16,41.7843
2012-02-17,42.4804
2012-02-21,41.128
2012-02-22,41.3567
2012-02-23,41.665
2012-02-24,41.486
2012-02-27,41.0087
2012-02-28,41.1479
2012-02-29,39.3878
2012-03-01,38.7812
2012-03-02,38.7216
2012-03-05,38.463
2012-03-06,38.2443
2012-03-07,38.6321
2012-03-08,38.4133
2012-03-09,37.4488
2012-03-12,37.2996
2012-03-13,37.399
2012-03-14,36.4146
2012-03-15,36.7825
2012-03-16,36.0367
2012-03-19,36.0268
2012-03-20,36.7129
2012-03-21,36.6632
2012-03-22,36.4146
2012-03-23,35.8577
2012-03-26,35.7782
2012-03-27,36.4345
2012-03-28,35.9671
2012-03-29,35.4998
2012-03-30,35.1816
2012-04-02,35.5296
2012-04-03,35.0324
2012-04-04,35.4699
2012-04-05,35.0
2012-04-09,33.89
2012-04-10,33.23
2012-04-11,34.4
2012-04-12,34.48
2012-04-13,34.03
2012-04-16,33.92
2012-04-17,34.54
2012-04-18,33.89
2012-04-19,34.23
2012-04-20,33.53
2012-04-23,32.81
2012-04-24,33.81
2012-04-25,35.63
2012-04-26,36.29
2012-04-27,36.77
2012-04-30,36.08
2012-05-01,35.67
2012-05-02,35.27
2012-05-03,35.05
2012-05-04,33.66
2012-05-07,33.57
2012-05-08,33.25
2012-05-09,33.75
2012-05-10,33.8
2012-05-11,34.34
2012-05-14,33.55
2012-05-15,33.28
2012-05-16,26.87
2012-05-17,25.94
2012-05-18,26.25
2012-05-21,26.65
2012-05-22,26.45
2012-05-23,27.26
2012-05-24,27.2
2012-05-25,28.04
2012-05-29,27.99
2012-05-30,27.07
2012-05-31,26.22
2012-06-01,25.89
2012-06-04,25.28
2012-06-05,24.33
2012-06-06,24.86
2012-06-07,24.63
2012-06-08,25.19
2012-06-11,23.97
2012-06-12,24.17
2012-06-13,23.61
2012-06-14,24.32
2012-06-15,24.89
2012-06-18,24.3
2012-06-19,22.23
2012-06-20,23.51
2012-06-21,22.71
2012-06-22,22.6
2012-06-25,21.67
2012-06-26,21.99
2012-06-27,21.84
2012-06-28,22.4
2012-06-29,23.29
2012-07-02,22.69
2012-07-03,21.9
2012-07-05,22.51
2012-07-06,22.14
2012-07-09,22.04
2012-07-10,20.73
2012-07-11,20.33
2012-07-12,20.04
2012-07-13,20.03
2012-07-16,19.56
2012-07-17,19.24
2012-07-18,19.75
2012-07-19,20.66
2012-07-20,20.61
2012-07-23,20.85
2012-07-24,21.03
2012-07-25,21.96
2012-07-26,22.25
2012-07-27,23.0
2012-07-30,22.23
2012-07-31,22.5
2012-08-01,21.03
2012-08-02,20.42
2012-08-03,20.91
2012-08-06,21.21
2012-08-07,21.28
2012-08-08,21.37
2012-08-09,22.09
2012-08-10,23.43
2012-08-13,22.67
2012-08-14,22.95
2012-08-15,23.7
2012-08-16,24.27
2012-08-17,24.08
2012-08-20,24.63
2012-08-21,24.37
2012-08-22,24.4
2012-08-23,24.55
2012-08-24,24.76
2012-08-27,24.65
2012-08-28,25.31
2012-08-29,26.22
2012-08-30,26.0
2012-08-31,26.1
2012-09-04,25.97
2012-09-05,26.44
2012-09-06,27.96
2012-09-07,28.51
2012-09-10,28.67
2012-09-11,29.5
2012-09-12,29.05
2012-09-13,28.63
2012-09-14,28.78
2012-09-17,28.88
2012-09-18,29.04
2012-09-19,29.05
2012-09-20,25.82
2012-09-21,25.87
2012-09-24,24.66
2012-09-25,24.67
2012-09-26,24.56
2012-09-27,24.43
2012-09-28,24.29
2012-10-01,24.56
2012-10-02,23.54
2012-10-03,23.94
2012-10-04,23.75
2012-10-05,23.95
2012-10-08,23.91
2012-10-09,24.3
2012-10-10,24.16
2012-10-11,26.16
2012-10-12,26.03
2012-10-15,25.89
2012-10-16,26.12
2012-10-17,26.58
2012-10-18,26.81
2012-10-19,26.01
2012-10-22,26.25
2012-10-23,25.64
2012-10-24,24.72
2012-10-25,25.14
2012-10-26,25.45
2012-10-31,24.01
2012-11-01,24.26
2012-11-02,23.67
2012-11-05,23.33
2012-11-06,23.56
2012-11-07,22.82
2012-11-08,21.61
2012-11-09,20.64
2012-11-12,17.91
2012-11-13,17.41
2012-11-14,16.92
2012-11-15,16.52
2012-11-16,16.29
2012-11-19,16.75
2012-11-20,17.24
2012-11-21,17.25
2012-11-23,17.34
2012-11-26,17.2
2012-11-27,17.54
2012-11-28,18.32
2012-11-29,18.11
2012-11-30,17.95
2012-12-03,17.34
2012-12-04,17.77
2012-12-05,17.51
2012-12-06,18.1
2012-12-07,18.16
2012-12-10,18.51
2012-12-11,19.22
2012-12-12,19.4
2012-12-13,20.74
2012-12-14,20.97
2012-12-17,20.65
2012-12-18,20.21
2012-12-19,20.88
2012-12-20,20.09
2012-12-21,19.58
2012-12-24,19.99
2012-12-26,20.75
2012-12-27,19.53
2012-12-28,18.98
2012-12-31,19.7
2013-01-02,20.81
2013-01-03,20.13
2013-01-04,20.58
2013-01-07,19.93
2013-01-08,18.93
2013-01-09,18.77
2013-01-10,19.16
2013-01-11,18.21
2013-01-14,18.09
2013-01-15,18.68
2013-01-16,18.76
2013-01-17,18.18
2013-01-18,18.85
2013-01-22,18.74
2013-01-23,18.35
2013-01-24,19.14
2013-01-25,19.31
2013-01-28,19.24
2013-01-29,20.9899
2013-01-30,20.62
2013-01-31,20.33
2013-02-01,19.87
2013-02-04,19.37
2013-02-05,19.755
2013-02-06,19.35
2013-02-07,19.5
2013-02-08,19.26
2013-02-11,19.5
2013-02-12,19.26
2013-02-13,19.64
2013-02-14,19.87
2013-02-15,19.79
2013-02-19,19.58
2013-02-20,20.17
2013-02-21,21.55
2013-02-22,22.43
2013-02-25,21.53
2013-02-26,21.04
2013-02-27,21.14
2013-02-28,17.545
2013-03-01,17.6501
2013-03-04,16.73
2013-03-05,14.94
2013-03-06,14.43
2013-03-07,14.8
2013-03-08,15.11
2013-03-11,15.02
2013-03-12,15.66
2013-03-13,15.64
2013-03-14,15.35
2013-03-15,15.47
2013-03-18,16.46
2013-03-19,16.28
2013-03-20,16.16
2013-03-21,15.52
2013-03-22,15.42
2013-03-25,15.2
2013-03-26,14.99
2013-03-27,14.9
2013-03-28,15.12
2013-04-01,14.79
2013-04-02,14.52
2013-04-03,14.44
2013-04-04,15.11
2013-04-05,15.44
2013-04-08,15.84
2013-04-09,13.92
2013-04-10,14.11
2013-04-11,14.84
2013-04-12,14.6
2013-04-15,14.43
2013-04-16,15.22
2013-04-17,14.79
2013-04-18,15.17
2013-04-19,15.25
2013-04-22,15.53
2013-04-23,15.43
2013-04-24,15.2
2013-04-25,15.23
2013-04-26,16.99
2013-04-29,17.17
2013-04-30,16.42
2013-05-01,16.17
2013-05-02,16.81
2013-05-03,17.27
2013-05-06,16.9
2013-05-07,16.37
2013-05-08,17.61
2013-05-09,17.35
2013-05-10,17.7
2013-05-13,18.22
2013-05-14,18.63
2013-05-15,18.98
2013-05-16,18.85
2013-05-17,18.01
2013-05-20,18.8
2013-05-21,18.97
2013-05-22,18.72
2013-05-23,19.38
2013-05-24,18.97
2013-05-28,18.75
2013-05-29,17.92
2013-05-30,17.76
2013-05-31,17.6
2013-06-03,17.75
2013-06-04,17.95
2013-06-05,18.16
2013-06-06,18.13
2013-06-07,18.75
2013-06-10,18.66
2013-06-11,18.14
2013-06-12,17.81
2013-06-13,18.16
2013-06-14,17.39
2013-06-17,17.59
2013-06-18,17.52
2013-06-19,17.13
2013-06-20,16.3
2013-06-21,15.9
2013-06-24,15.42
2013-06-25,15.99
2013-06-26,16.17
2013-06-27,16.98
2013-06-28,17.1
2013-07-01,16.72
2013-07-02,16.53
2013-07-03,16.6
2013-07-05,16.74
2013-07-08,16.95
2013-07-09,17.06
2013-07-10,17.06
2013-07-11,17.55
2013-07-12,17.54
2013-07-15,17.61
2013-07-16,17.1
2013-07-17,16.57
2013-07-18,16.48
2013-07-19,16.36
2013-07-22,16.13
2013-07-23,16.12
2013-07-24,15.92
2013-07-25,16.1
2013-07-26,16.5
2013-07-29,16.51
2013-07-30,16.27
2013-07-31,14.59
2013-08-01,14.55
2013-08-02,14.27
2013-08-05,13.82
2013-08-06,13.26
2013-08-07,12.8
2013-08-08,13.63
2013-08-09,12.86
