date,close_price
1998-01-02,23.5573
1998-01-05,23.4479
1998-01-06,23.3808
1998-01-07,23.3385
1998-01-08,23.5361
1998-01-09,22.6961
1998-01-12,23.2926
1998-01-13,22.9855
1998-01-14,22.8303
1998-01-15,22.4773
1998-01-16,22.9185
1998-01-20,23.2714
1998-01-21,23.0067
1998-01-22,23.0949
1998-01-23,22.5197
1998-01-26,22.2797
1998-01-27,22.3221
1998-01-28,22.6538
1998-01-29,22.8514
1998-01-30,22.8514
1998-02-02,23.5784
1998-02-03,23.8678
1998-02-04,23.6667
1998-02-05,23.8431
1998-02-06,23.7796
1998-02-09,23.7549
1998-02-10,23.9984
1998-02-11,24.2843
1998-02-12,24.5278
1998-02-13,24.1961
1998-02-17,24.1537
1998-02-18,24.3725
1998-02-19,24.2419
1998-02-20,24.549
1998-02-23,24.4184
1998-02-24,24.0866
1998-02-25,24.2208
1998-02-26,24.309
1998-02-27,24.2419
1998-03-02,23.9984
1998-03-03,24.0655
1998-03-04,24.2419
1998-03-05,24.4607
1998-03-06,24.8807
1998-03-09,25.6324
1998-03-10,25.6536
1998-03-11,25.6183
1998-03-12,25.3318
1998-03-13,24.9322
1998-03-16,25.4202
1998-03-17,25.5723
1998-03-18,26.4564
1998-03-19,26.5236
1998-03-20,27.3865
1998-03-23,26.7889
1998-03-24,26.8985
1998-03-25,26.9232
1998-03-26,27.0329
1998-03-27,26.612
1998-03-30,27.6942
1998-03-31,27.3865
1998-04-01,28.5359
1998-04-02,28.7127
1998-04-03,28.4687
1998-04-06,28.161
1998-04-07,27.8498
1998-04-08,27.6305
1998-04-09,27.7826
1998-04-13,27.4537
1998-04-14,27.4961
1998-04-15,27.1001
1998-04-16,26.4352
1998-04-17,27.1425
1998-04-20,26.6332
1998-04-21,26.4352
1998-04-22,26.7464
1998-04-23,26.4812
1998-04-24,26.0144
1998-04-27,25.6855
1998-04-28,25.6607
1998-04-29,26.0816
1998-04-30,26.8348
1998-05-01,26.9445
1998-05-04,26.9445
1998-05-05,26.8985
1998-05-06,26.8773
1998-05-07,26.7889
1998-05-08,27.0116
1998-05-11,27.3653
1998-05-12,27.4749
1998-05-13,27.3405
1998-05-14,27.4749
1998-05-15,27.1885
1998-05-18,27.3865
1998-05-19,27.6058
1998-05-20,28.2247
1998-05-21,28.115
1998-05-22,27.8498
1998-05-26,27.3865
1998-05-27,27.6058
1998-05-28,27.917
1998-05-29,27.7189
1998-06-01,28.0938
1998-06-02,28.1822
1998-06-03,28.0938
1998-06-04,28.3378
1998-06-05,28.9992
1998-06-08,28.6667
1998-06-09,28.8011
1998-06-10,28.7127
1998-06-11,28.2343
1998-06-12,28.5886
1998-06-15,28.1883
1998-06-16,27.9686
1998-06-17,28.454
1998-06-18,28.8331
1998-06-19,28.4115
1998-06-22,28.7197
1998-06-23,29.2299
1998-06-24,29.85
1998-06-25,30.0059
1998-06-26,30.4275
1998-06-29,30.47
1998-06-30,30.2255
1998-07-01,30.3602
1998-07-02,30.2255
1998-07-06,30.6932
1998-07-07,30.4027
1998-07-08,30.8916
1998-07-09,30.7145
1998-07-10,30.8916
1998-07-13,30.7357
1998-07-14,31.1113
1998-07-15,31.09
1998-07-16,30.9129
1998-07-17,30.4913
1998-07-20,29.9598
1998-07-21,29.896
1998-07-22,29.7189
1998-07-23,29.4531
1998-07-24,29.5169
1998-07-27,30.0944
1998-07-28,29.6055
1998-07-29,29.0315
1998-07-30,29.3646
1998-07-31,28.5886
1998-08-03,29.0528
1998-08-04,27.9226
1998-08-05,28.4328
1998-08-06,28.8756
1998-08-07,28.5001
1998-08-10,28.4115
1998-08-11,28.167
1998-08-12,28.1458
1998-08-13,27.9226
1998-08-14,27.2388
1998-08-17,28.0111
1998-08-18,27.9899
1998-08-19,27.8588
1998-08-20,28.1245
1998-08-21,28.1245
1998-08-24,28.2131
1998-08-25,28.4115
1998-08-26,28.0111
1998-08-27,26.5302
1998-08-28,25.7082
1998-08-31,23.097
1998-09-01,24.1138
1998-09-02,22.7427
1998-09-03,21.9667
1998-09-04,21.8782
1998-09-08,22.4769
1998-09-09,22.2785
1998-09-10,21.5451
1998-09-11,22.1773
1998-09-14,22.465
1998-09-15,21.712
1998-09-16,22.1773
1998-09-17,21.577
1998-09-18,21.7759
1998-09-21,21.0443
1998-09-22,20.0462
1998-09-23,20.579
1998-09-24,20.0888
1998-09-25,19.9574
1998-09-28,20.3339
1998-09-29,20.824
1998-09-30,20.4689
1998-10-01,20.0462
1998-10-02,20.9342
1998-10-05,21.9109
1998-10-06,22.3087
1998-10-07,22.4437
1998-10-08,22.9089
1998-10-09,22.6639
1998-10-12,22.3087
1998-10-13,22.71
1998-10-14,22.8876
1998-10-15,23.9745
1998-10-16,24.4646
1998-10-19,24.3296
1998-10-20,23.8182
1998-10-21,23.7756
1998-10-22,24.6173
1998-10-23,24.9086
1998-10-26,24.7949
1998-10-27,24.1307
1998-10-28,24.0206
1998-10-29,24.0846
1998-10-30,23.9318
1998-11-02,25.2389
1998-11-03,25.9279
1998-11-04,25.484
1998-11-05,25.8392
1998-11-06,25.7717
1998-11-09,25.3277
1998-11-10,25.6189
1998-11-11,25.3277
1998-11-12,25.0613
1998-11-13,24.7736
1998-11-16,24.8411
1998-11-17,24.9512
1998-11-18,25.175
1998-11-19,25.3526
1998-11-20,25.8605
1998-11-23,26.7058
1998-11-24,26.038
1998-11-25,26.0167
1998-11-27,25.5149
1998-11-30,24.9347
1998-12-01,24.9134
1998-12-02,24.7141
1998-12-03,24.3119
1998-12-04,24.5575
1998-12-07,24.4258
1998-12-08,24.3582
1998-12-09,23.8457
1998-12-10,23.536
1998-12-11,22.3544
1998-12-14,22.5573
1998-12-15,23.4008
1998-12-16,23.0235
1998-12-17,23.0912
1998-12-18,23.2905
1998-12-21,23.4221
1998-12-22,23.9809
1998-12-23,25.0024
1998-12-24,24.7141
1998-12-28,24.4899
1998-12-29,24.7141
1998-12-30,24.2016
1998-12-31,23.5787
1999-01-04,23.8243
1999-01-05,24.3795
1999-01-06,25.0024
1999-01-07,24.7141
1999-01-08,24.1802
1999-01-11,23.5787
1999-01-12,23.3118
1999-01-13,23.2015
1999-01-14,22.6676
1999-01-15,23.0912
1999-01-19,22.7566
1999-01-20,22.4683
1999-01-21,21.9345
1999-01-22,21.6213
1999-01-25,22.3331
1999-01-26,22.2655
1999-01-27,22.778
1999-01-28,23.2228
1999-01-29,23.2015
1999-02-01,22.778
1999-02-02,23.2228
1999-02-03,22.9346
1999-02-04,22.6463
1999-02-05,22.0661
1999-02-08,21.8668
1999-02-09,21.9985
1999-02-10,22.6
1999-02-11,22.8883
1999-02-12,22.778
1999-02-16,23.0662
1999-02-17,22.8669
1999-02-18,22.9346
1999-02-19,23.3581
1999-02-22,22.9132
1999-02-23,22.3331
1999-02-24,22.3793
1999-02-25,22.8242
1999-02-26,22.6214
1999-03-01,22.6676
1999-03-02,22.1551
1999-03-03,21.8882
1999-03-04,22.4007
1999-03-05,22.7352
1999-03-08,22.689
1999-03-09,22.4434
1999-03-10,22.3793
1999-03-11,23.6603
1999-03-12,24.7308
1999-03-15,24.5095
1999-03-16,24.5523
1999-03-17,23.8637
1999-03-18,24.3525
1999-03-19,24.1313
1999-03-22,24.1313
1999-03-23,23.5069
1999-03-24,23.4177
1999-03-25,23.5069
1999-03-26,23.3035
1999-03-29,23.9279
1999-03-30,22.5899
1999-03-31,21.9226
1999-04-01,21.6764
1999-04-05,21.5658
1999-04-06,21.3196
1999-04-07,21.0306
1999-04-08,21.6764
1999-04-09,21.655
1999-04-12,22.0796
1999-04-13,22.5471
1999-04-14,22.5685
1999-04-15,22.8825
1999-04-16,23.4177
1999-04-19,23.0359
1999-04-20,23.2821
1999-04-21,24.1313
1999-04-22,23.7495
1999-04-23,23.7281
1999-04-26,23.9529
1999-04-27,24.7308
1999-04-28,24.2205
1999-04-29,24.1955
1999-04-30,24.1527
1999-05-03,24.5773
1999-05-04,24.5309
1999-05-05,25.2017
1999-05-06,24.7093
1999-05-07,24.1955
1999-05-10,23.9065
1999-05-11,23.8851
1999-05-12,23.7067
1999-05-13,23.5069
1999-05-14,23.3713
1999-05-17,23.9279
1999-05-18,24.5309
1999-05-19,24.4203
1999-05-20,24.2633
1999-05-21,24.3097
1999-05-24,23.8173
1999-05-25,24.1313
1999-05-26,24.4417
1999-05-27,24.2419
1999-05-28,24.4631
1999-06-01,24.6665
1999-06-02,24.4881
1999-06-03,24.5309
1999-06-04,24.9092
1999-06-07,24.1527
1999-06-08,24.1527
1999-06-09,23.8851
1999-06-10,23.6389
1999-06-11,23.0274
1999-06-14,23.1383
1999-06-15,22.7341
1999-06-16,22.9129
1999-06-17,23.1383
1999-06-18,22.6447
1999-06-21,22.0438
1999-06-22,22.4444
1999-06-23,22.0867
1999-06-24,22.4014
1999-06-25,22.0867
1999-06-28,21.8184
1999-06-29,21.8399
1999-06-30,21.9293
1999-07-01,23.1812
1999-07-02,23.1597
1999-07-06,22.7341
1999-07-07,22.5803
1999-07-08,22.5338
1999-07-09,22.802
1999-07-12,22.5553
1999-07-13,22.3335
1999-07-14,22.0652
1999-07-15,22.7591
1999-07-16,23.2062
1999-07-19,22.6232
1999-07-20,22.4909
1999-07-21,22.4014
1999-07-22,22.5123
1999-07-23,22.1761
1999-07-26,22.5553
1999-07-27,22.3764
1999-07-28,21.9543
1999-07-29,22.0187
1999-07-30,21.6181
1999-08-02,21.5072
1999-08-03,21.7505
1999-08-04,21.6181
1999-08-05,21.8184
1999-08-06,21.214
1999-08-09,21.3284
1999-08-10,21.4178
1999-08-11,21.214
1999-08-12,21.5287
1999-08-13,21.3713
1999-08-16,21.214
1999-08-17,21.5072
1999-08-18,20.9242
1999-08-19,20.7454
1999-08-20,21.0351
1999-08-23,21.0137
1999-08-24,21.171
1999-08-25,21.9293
1999-08-26,22.0438
1999-08-27,22.1082
1999-08-30,21.6396
1999-08-31,21.4178
1999-09-01,21.5072
1999-09-02,21.239
1999-09-03,20.5666
1999-09-07,19.4935
1999-09-08,19.7403
1999-09-09,19.6938
1999-09-10,19.6724
1999-09-13,19.7978
1999-09-14,19.5503
1999-09-15,19.4391
1999-09-16,19.4391
1999-09-17,19.3494
1999-09-20,19.4175
1999-09-21,19.2812
1999-09-22,18.8328
1999-09-23,18.2732
1999-09-24,18.3414
1999-09-27,18.2947
1999-09-28,18.1369
1999-09-29,17.5343
1999-09-30,17.2401
1999-10-01,17.5773
1999-10-04,17.1074
1999-10-05,17.1074
1999-10-06,18.5853
1999-10-07,18.675
1999-10-08,19.0122
1999-10-11,18.8328
1999-10-12,18.1154
1999-10-13,17.7782
1999-10-14,18.2051
1999-10-15,17.9145
1999-10-18,18.2517
1999-10-19,18.8795
1999-10-20,18.901
1999-10-21,19.4606
1999-10-22,19.7978
1999-10-25,20.1996
1999-10-26,19.9987
1999-10-27,20.4471
1999-10-28,21.0748
1999-10-29,21.1645
1999-11-01,21.1645
1999-11-02,20.5583
1999-11-03,20.4255
1999-11-04,20.3359
1999-11-05,20.7843
1999-11-08,21.0964
1999-11-09,20.8058
1999-11-10,20.8273
1999-11-11,20.3789
1999-11-12,20.6049
1999-11-15,20.8524
1999-11-16,21.2327
1999-11-17,21.5232
1999-11-18,21.6811
1999-11-19,21.4802
1999-11-22,23.4531
1999-11-23,23.9661
1999-11-24,24.3499
1999-11-26,23.8764
1999-11-29,24.1389
1999-11-30,24.2288
1999-12-01,24.4302
1999-12-02,24.3835
1999-12-03,24.5417
1999-12-06,22.9919
1999-12-07,21.5535
1999-12-08,21.5967
1999-12-09,22.2511
1999-12-10,22.7006
1999-12-13,22.1145
1999-12-14,21.9814
1999-12-15,21.4636
1999-12-16,20.9674
1999-12-17,21.4421
1999-12-20,21.5319
1999-12-21,20.9242
1999-12-22,21.0573
1999-12-23,21.3054
1999-12-27,21.1472
1999-12-28,21.3737
1999-12-29,21.1472
1999-12-30,21.0573
1999-12-31,20.9458
2000-01-03,20.2267
2000-01-04,20.0469
2000-01-05,20.4963
2000-01-06,20.4748
2000-01-07,21.7549
2000-01-10,21.1472
2000-01-11,21.8448
2000-01-12,22.0246
2000-01-13,21.7765
2000-01-14,21.9347
2000-01-18,23.3514
2000-01-19,23.4198
2000-01-20,23.6895
2000-01-21,24.0239
2000-01-24,23.3514
2000-01-25,23.6643
2000-01-26,22.7437
2000-01-27,21.3737
2000-01-28,20.6078
2000-01-31,20.6546
2000-02-01,20.9027
2000-02-02,20.3633
2000-02-03,19.9354
2000-02-04,20.295
2000-02-07,20.4748
2000-02-08,20.5179
2000-02-09,20.5647
2000-02-10,20.3633
2000-02-11,19.8886
2000-02-14,19.4643
2000-02-15,20.0253
2000-02-16,19.396
2000-02-17,18.72
2000-02-18,18.4755
2000-02-22,18.6085
2000-02-23,18.2957
2000-02-24,17.9577
2000-02-25,17.5981
2000-02-28,17.7563
2000-02-29,17.4614
2000-03-01,18.4503
2000-03-02,17.821
2000-03-03,17.9361
2000-03-06,17.5513
2000-03-07,16.8106
2000-03-08,17.0803
2000-03-09,16.6991
2000-03-10,16.1382
2000-03-13,15.8125
2000-03-14,15.5201
2000-03-15,17.1913
2000-03-16,17.8446
2000-03-17,17.6641
2000-03-20,17.5739
2000-03-21,17.7327
2000-03-22,16.9855
2000-03-23,17.166
2000-03-24,16.8953
2000-03-27,16.5344
2000-03-28,16.2889
2000-03-29,16.8953
2000-03-30,17.5955
2000-03-31,17.0541
2000-04-03,18.0034
2000-04-04,18.5448
2000-04-05,17.1227
2000-04-06,16.4911
2000-04-07,16.6715
2000-04-10,16.242
2000-04-11,17.1227
2000-04-12,17.415
2000-04-13,17.0325
2000-04-14,16.8736
2000-04-17,17.3465
2000-04-18,17.1913
2000-04-19,17.7074
2000-04-20,17.776
2000-04-24,17.9131
2000-04-25,18.1586
2000-04-26,17.8446
2000-04-27,17.3934
2000-04-28,17.0758
2000-05-01,16.7834
2000-05-02,16.6932
2000-05-03,17.5053
2000-05-04,17.4836
2000-05-05,16.9639
2000-05-08,17.462
2000-05-09,18.2488
2000-05-10,19.0609
2000-05-11,19.3099
2000-05-12,18.8804
2000-05-15,18.7685
2000-05-16,17.7074
2000-05-17,17.3465
2000-05-18,17.8662
2000-05-19,18.025
2000-05-22,18.2055
2000-05-23,18.025
2000-05-24,18.949
2000-05-25,18.9959
2000-05-26,19.7178
2000-05-30,19.4218
2000-05-31,19.2414
2000-06-01,19.2197
2000-06-02,18.9959
2000-06-05,18.7902
2000-06-06,18.7
2000-06-07,19.1764
2000-06-08,19.0609
2000-06-09,18.8588
2000-06-12,19.0176
2000-06-13,19.3942
2000-06-14,19.148
2000-06-15,20.2778
2000-06-16,20.0533
2000-06-19,19.7346
2000-06-20,19.1697
2000-06-21,19.3291
2000-06-22,20.256
2000-06-23,20.9585
2000-06-26,21.4112
2000-06-27,20.9585
2000-06-28,21.7262
2000-06-29,21.3206
2000-06-30,20.7304
2000-07-03,21.0708
2000-07-05,21.3424
2000-07-06,21.2301
2000-07-07,21.2953
2000-07-10,20.868
2000-07-11,20.2995
2000-07-12,20.4371
2000-07-13,20.9585
2000-07-14,20.9585
2000-07-17,20.5493
2000-07-18,21.0708
2000-07-19,21.9072
2000-07-20,21.8855
2000-07-21,21.9978
2000-07-24,21.4546
2000-07-25,21.3858
2000-07-26,21.4329
2000-07-27,21.9072
2000-07-28,22.7002
2000-07-31,22.2005
2000-08-01,22.8813
2000-08-02,22.8125
2000-08-03,22.722
2000-08-04,22.4721
2000-08-07,22.2005
2000-08-08,22.0666
2000-08-09,21.6827
2000-08-10,22.11
2000-08-11,22.4975
2000-08-14,22.8342
2000-08-15,22.4069
2000-08-16,21.9978
2000-08-17,21.5922
2000-08-18,21.7045
2000-08-21,21.6357
2000-08-22,21.3424
2000-08-23,21.2736
2000-08-24,20.9802
2000-08-25,20.2778
2000-08-28,20.6399
2000-08-29,20.3683
2000-08-30,19.6224
2000-08-31,19.0321
2000-09-01,19.6224
2000-09-05,20.3683
2000-09-06,19.6912
2000-09-07,19.5318
2000-09-08,19.7129
2000-09-11,19.1227
2000-09-12,19.463
2000-09-13,19.118
2000-09-14,18.5477
2000-09-15,18.5041
2000-09-18,19.2996
2000-09-19,19.1616
2000-09-20,18.1191
2000-09-21,18.0283
2000-09-22,19.1398
2000-09-25,19.5939
2000-09-26,20.0007
2000-09-27,20.117
2000-09-28,20.1605
2000-09-29,20.0479
2000-10-02,20.6836
2000-10-03,20.433
2000-10-04,20.7054
2000-10-05,21.4319
2000-10-06,21.2285
2000-10-09,21.0251
2000-10-10,21.1159
2000-10-11,21.2285
2000-10-12,20.6364
2000-10-13,20.7744
2000-10-16,21.3193
2000-10-17,21.0469
2000-10-18,21.0687
2000-10-19,20.7744
2000-10-20,19.9099
2000-10-23,20.0915
2000-10-24,20.3204
2000-10-25,21.0251
2000-10-26,21.3193
2000-10-27,21.3411
2000-10-30,21.7516
2000-10-31,21.9332
2000-11-01,22.1149
2000-11-02,22.0894
2000-11-03,21.57
2000-11-06,21.9768
2000-11-07,21.8424
2000-11-08,21.8424
2000-11-09,22.5907
2000-11-10,22.4781
2000-11-13,22.1802
2000-11-14,22.0458
2000-11-15,22.2711
2000-11-16,22.5217
2000-11-17,22.3183
2000-11-20,20.433
2000-11-21,20.1605
2000-11-22,21.6354
2000-11-24,21.4319
2000-11-27,21.6354
2000-11-28,21.9986
2000-11-29,22.6071
2000-11-30,22.6763
2000-12-01,22.6071
2000-12-04,22.8147
2000-12-05,22.3339
2000-12-06,22.1517
2000-12-07,22.7455
2000-12-08,22.1991
2000-12-11,21.2665
2000-12-12,21.15
2000-12-13,21.0844
2000-12-14,20.742
2000-12-15,19.671
2000-12-18,19.9661
2000-12-19,20.6728
2000-12-20,20.4214
2000-12-21,21.5835
2000-12-22,21.4232
2000-12-26,21.8348
2000-12-27,22.108
2000-12-28,22.1991
2000-12-29,22.1517
2001-01-02,22.1299
2001-01-03,21.5616
2001-01-04,20.946
2001-01-05,20.9933
2001-01-08,21.3103
2001-01-09,21.6053
2001-01-10,21.5397
2001-01-11,20.946
2001-01-12,20.6509
2001-01-16,20.742
2001-01-17,21.0844
2001-01-18,20.8112
2001-01-19,20.3996
2001-01-22,20.3085
2001-01-23,20.7201
2001-01-24,21.1281
2001-01-25,21.3321
2001-01-26,21.0844
2001-01-29,20.8076
2001-01-30,21.0953
2001-01-31,21.1172
2001-02-01,20.9278
2001-02-02,21.0079
2001-02-05,21.5652
2001-02-06,21.6417
2001-02-07,21.8421
2001-02-08,22.0789
2001-02-09,21.9295
2001-02-12,22.1554
2001-02-13,21.8494
2001-02-14,21.6818
2001-02-15,21.241
2001-02-16,21.6126
2001-02-20,21.2957
2001-02-21,19.9989
2001-02-22,19.2994
2001-02-23,18.9424
2001-02-26,19.1209
2001-02-27,18.9424
2001-02-28,19.2703
2001-03-01,19.1647
2001-03-02,19.1829
2001-03-05,18.2685
2001-03-06,18.141
2001-03-07,18.3632
2001-03-08,18.662
2001-03-09,18.7567
2001-03-12,18.2503
2001-03-13,17.8116
2001-03-14,17.3692
2001-03-15,17.457
2001-03-16,17.7641
2001-03-19,17.68
2001-03-20,17.3619
2001-03-21,16.8172
2001-03-22,16.6966
2001-03-23,16.6198
2001-03-26,16.3712
2001-03-27,17.0475
2001-03-28,16.766
2001-03-29,16.2725
2001-03-30,16.4955
2001-04-02,16.7148
2001-04-03,16.3127
2001-04-04,16.5284
2001-04-05,16.5576
2001-04-06,16.4333
2001-04-09,16.097
2001-04-10,15.9581
2001-04-11,16.1335
2001-04-12,16.2944
2001-04-16,16.6344
2001-04-17,16.532
2001-04-18,17.106
2001-04-19,17.3363
2001-04-20,17.1572
2001-04-23,17.3473
2001-04-24,17.2961
2001-04-25,17.6325
2001-04-26,17.212
2001-04-27,17.1682
2001-04-30,16.8903
2001-05-01,17.4095
2001-05-02,17.3912
2001-05-03,17.0951
2001-05-04,17.1426
2001-05-07,17.0768
2001-05-08,17.0292
2001-05-09,16.7258
2001-05-10,16.671
2001-05-11,16.543
2001-05-14,16.7989
2001-05-15,16.7441
2001-05-16,17.6288
2001-05-17,17.6069
2001-05-18,17.5594
2001-05-21,17.6544
2001-05-22,17.4387
2001-05-23,17.8043
2001-05-24,17.9213
2001-05-25,17.6215
2001-05-29,17.6727
2001-05-30,17.5045
2001-05-31,17.3583
2001-06-01,17.4826
2001-06-04,17.3875
2001-06-05,17.3839
2001-06-06,17.0914
2001-06-07,16.8611
2001-06-08,16.8355
2001-06-11,16.7806
2001-06-12,16.7843
2001-06-13,16.821
2001-06-14,16.5237
2001-06-15,16.2411
2001-06-18,16.0576
2001-06-19,16.0502
2001-06-20,16.1126
2001-06-21,15.9989
2001-06-22,15.7273
2001-06-25,15.9805
2001-06-26,16.131
2001-06-27,16.2411
2001-06-28,16.6155
2001-06-29,16.5127
2001-07-02,16.6999
2001-07-03,16.8614
2001-07-05,16.5971
2001-07-06,16.3659
2001-07-09,16.5935
2001-07-10,16.3806
2001-07-11,16.7146
2001-07-12,16.6962
2001-07-13,16.8871
2001-07-16,17.177
2001-07-17,17.2982
2001-07-18,16.9752
2001-07-19,16.9715
2001-07-20,16.9201
2001-07-23,16.3182
2001-07-24,16.2044
2001-07-25,16.5017
2001-07-26,16.4907
2001-07-27,16.4136
2001-07-30,16.2301
2001-07-31,16.3329
2001-08-01,16.1493
2001-08-02,16.1163
2001-08-03,16.3953
2001-08-06,16.3769
2001-08-07,16.4577
2001-08-08,16.6999
2001-08-09,16.6926
2001-08-10,16.7586
2001-08-13,16.766
2001-08-14,16.8834
2001-08-15,17.456
2001-08-16,17.5
2001-08-17,17.4119
2001-08-20,17.7973
2001-08-21,17.7276
2001-08-22,17.6982
2001-08-23,18.157
2001-08-24,18.0652
2001-08-27,17.801
2001-08-28,17.5844
2001-08-29,17.5074
2001-08-30,17.9111
2001-08-31,17.8634
2001-09-04,18.113
2001-09-05,18.502
2001-09-06,18.168
2001-09-07,18.2781
2001-09-10,18.3515
2001-09-17,18.4511
2001-09-18,18.2079
2001-09-19,18.219
2001-09-20,17.8654
2001-09-21,17.3165
2001-09-24,17.6996
2001-09-25,17.6812
2001-09-26,17.2686
2001-09-27,17.2907
2001-09-28,17.2539
2001-10-01,16.9813
2001-10-02,16.985
2001-10-03,16.8598
2001-10-04,16.6387
2001-10-05,16.7603
2001-10-08,16.9887
2001-10-09,16.9887
2001-10-10,16.9997
2001-10-11,16.9445
2001-10-12,16.5282
2001-10-15,16.3919
2001-10-16,16.4325
2001-10-17,16.3183
2001-10-18,16.9445
2001-10-19,17.8543
2001-10-22,18.0127
2001-10-23,17.9943
2001-10-24,17.9575
2001-10-25,18.1858
2001-10-26,18.1527
2001-10-29,17.9059
2001-10-30,17.7438
2001-10-31,17.637
2001-11-01,17.9133
2001-11-02,17.9796
2001-11-05,18.1822
2001-11-06,18.3295
2001-11-07,18.1601
2001-11-08,18.0827
2001-11-09,18.1232
2001-11-12,18.1785
2001-11-13,18.2853
2001-11-14,18.3995
2001-11-15,18.4142
2001-11-16,18.3921
2001-11-19,18.219
2001-11-20,18.0164
2001-11-21,17.9575
2001-11-23,18.1048
2001-11-26,17.7917
2001-11-27,17.6775
2001-11-28,17.3078
2001-11-29,17.3928
2001-11-30,17.3484
2001-12-03,17.2079
2001-12-04,17.2079
2001-12-05,17.4261
2001-12-06,17.1747
2001-12-07,17.2301
2001-12-10,16.8715
2001-12-11,16.8678
2001-12-12,16.9787
2001-12-13,17.0637
2001-12-14,17.134
2001-12-17,17.0785
2001-12-18,17.171
2001-12-19,17.537
2001-12-20,17.659
2001-12-21,17.9918
2001-12-24,17.8846
2001-12-26,17.9474
2001-12-27,17.7182
2001-12-28,17.4741
2001-12-31,17.4741
2002-01-02,17.5592
2002-01-03,17.2782
2002-01-04,17.1784
2002-01-07,16.7125
2002-01-08,16.5461
2002-01-09,16.4832
2002-01-10,16.5239
2002-01-11,16.779
2002-01-14,16.4204
2002-01-15,16.3686
2002-01-16,16.2725
2002-01-17,16.6533
2002-01-18,16.7901
2002-01-22,16.9713
2002-01-23,16.5609
2002-01-24,16.3279
2002-01-25,16.6792
2002-01-28,16.7125
2002-01-29,16.3279
2002-01-30,16.2281
2002-01-31,16.1763
2002-02-01,16.5165
2002-02-04,16.4906
2002-02-05,16.9158
2002-02-06,17.1931
2002-02-07,16.9602
2002-02-08,16.9417
2002-02-11,17.0711
2002-02-12,17.0452
2002-02-13,17.1155
2002-02-14,17.3299
2002-02-15,17.3226
2002-02-19,17.1118
2002-02-20,17.341
2002-02-21,17.0083
2002-02-22,17.4298
2002-02-25,17.5222
2002-02-26,17.3558
2002-02-27,17.5407
2002-02-28,17.5259
2002-03-01,17.9031
2002-03-04,17.733
2002-03-05,17.6147
2002-03-06,17.5999
2002-03-07,17.3226
2002-03-08,17.6368
2002-03-11,17.5999
2002-03-12,17.7256
2002-03-13,17.7625
2002-03-14,17.7922
2002-03-15,18.0632
2002-03-18,18.0744
2002-03-19,18.2674
2002-03-20,18.3417
2002-03-21,18.7204
2002-03-22,19.0026
2002-03-25,19.14
2002-03-26,19.4741
2002-03-27,19.4147
2002-03-28,19.411
2002-04-01,19.4073
2002-04-02,19.3999
2002-04-03,19.2031
2002-04-04,19.3108
2002-04-05,19.3442
2002-04-08,19.6226
2002-04-09,19.8009
2002-04-10,20.1424
2002-04-11,19.7303
2002-04-12,19.812
2002-04-15,19.4333
2002-04-16,19.9902
2002-04-17,20.0125
2002-04-18,19.9642
2002-04-19,20.3912
2002-04-22,20.5694
2002-04-23,20.265
2002-04-24,20.4061
2002-04-25,20.4209
2002-04-26,20.2464
2002-04-29,20.2872
2002-04-30,20.6325
2002-05-01,21.3863
2002-05-02,21.4122
2002-05-03,21.0707
2002-05-06,20.9816
2002-05-07,21.0744
2002-05-08,21.0707
2002-05-09,20.963
2002-05-10,20.9667
2002-05-13,21.1189
2002-05-14,21.0335
2002-05-15,21.0447
2002-05-16,21.1746
2002-05-17,21.1561
2002-05-20,20.8627
2002-05-21,20.5731
2002-05-22,20.8627
2002-05-23,21.0113
2002-05-24,20.833
2002-05-28,20.3244
2002-05-29,20.109
2002-05-30,20.2167
2002-05-31,20.5991
2002-06-03,20.0608
2002-06-04,19.9345
2002-06-05,20.5731
2002-06-06,20.1276
2002-06-07,20.0311
2002-06-10,19.9568
2002-06-11,20.0013
2002-06-12,20.3403
2002-06-13,20.2844
2002-06-14,20.3888
2002-06-17,20.5714
2002-06-18,20.5751
2002-06-19,20.549
2002-06-20,20.7689
2002-06-21,20.754
2002-06-24,21.0931
2002-06-25,20.6645
2002-06-26,20.7018
2002-06-27,20.8881
2002-06-28,20.8024
2002-07-01,20.9999
2002-07-02,21.1229
2002-07-03,21.0968
2002-07-05,20.9552
2002-07-08,21.3838
2002-07-09,20.9962
2002-07-10,20.3552
2002-07-11,19.7999
2002-07-12,18.9875
2002-07-15,19.4571
2002-07-16,18.7788
2002-07-17,18.6335
2002-07-18,17.8695
2002-07-19,16.7329
2002-07-22,17.1055
2002-07-23,16.677
2002-07-24,17.5527
2002-07-25,17.7987
2002-07-26,17.6981
2002-07-29,18.4173
2002-07-30,17.9403
2002-07-31,18.5925
2002-08-01,18.5627
2002-08-02,18.5589
2002-08-05,18.0148
2002-08-06,17.8285
2002-08-07,18.2161
2002-08-08,18.8459
2002-08-09,19.0397
2002-08-12,18.9577
2002-08-13,18.7304
2002-08-14,19.3639
2002-08-15,19.1739
2002-08-16,19.4012
2002-08-19,19.3006
2002-08-20,19.2372
2002-08-21,19.662
2002-08-22,19.5242
2002-08-23,19.5614
2002-08-26,19.7515
2002-08-27,19.5652
2002-08-28,19.0993
2002-08-29,18.7825
2002-08-30,18.9763
2002-09-03,18.585
2002-09-04,18.8124
2002-09-05,18.4248
2002-09-06,18.5664
2002-09-09,18.7714
2002-09-10,19.0136
2002-09-11,19.1072
2002-09-12,18.5011
2002-09-13,18.5236
2002-09-16,18.9463
2002-09-17,18.3365
2002-09-18,18.4375
2002-09-19,17.8464
2002-09-20,17.7416
2002-09-23,17.6219
2002-09-24,17.6443
2002-09-25,18.0933
2002-09-26,18.0746
2002-09-27,18.1644
2002-09-30,17.91
2002-10-01,18.6882
2002-10-02,18.6957
2002-10-03,18.9052
2002-10-04,19.0286
2002-10-07,18.7555
2002-10-08,19.4963
2002-10-09,19.3167
2002-10-10,19.197
2002-10-11,19.2307
2002-10-14,19.6048
2002-10-15,19.5936
2002-10-16,17.5658
2002-10-17,17.1879
2002-10-18,17.3562
2002-10-21,17.9549
2002-10-22,17.8875
2002-10-23,17.9212
2002-10-24,17.5396
2002-10-25,17.5845
2002-10-28,17.1654
2002-10-29,17.3525
2002-10-30,17.5022
2002-10-31,17.3862
2002-11-01,17.5022
2002-11-04,17.0981
2002-11-05,17.375
2002-11-06,16.8923
2002-11-07,16.7314
2002-11-08,16.6566
2002-11-11,16.6529
2002-11-12,16.578
2002-11-13,16.9222
2002-11-14,16.8923
2002-11-15,17.2103
2002-11-18,17.1654
2002-11-19,17.3488
2002-11-20,17.2103
2002-11-21,17.0981
2002-11-22,16.9971
2002-11-25,16.8998
2002-11-26,16.8661
2002-11-27,17.3546
2002-11-29,17.1592
2002-12-02,16.9863
2002-12-03,16.8586
2002-12-04,17.1742
2002-12-05,16.945
2002-12-06,17.0502
2002-12-09,16.9337
2002-12-10,17.4636
2002-12-11,17.5876
2002-12-12,17.2682
2002-12-13,17.2494
2002-12-16,17.1818
2002-12-17,16.9187
2002-12-18,16.7383
2002-12-19,16.5466
2002-12-20,16.5842
2002-12-23,16.697
2002-12-24,16.6406
2002-12-26,16.5842
2002-12-27,16.3324
2002-12-30,16.355
2002-12-31,16.4865
2003-01-02,16.8548
2003-01-03,16.7984
2003-01-06,16.8698
2003-01-07,16.6782
2003-01-08,16.5429
2003-01-09,16.7346
2003-01-10,16.9901
2003-01-13,17.1893
2003-01-14,17.193
2003-01-15,16.9149
2003-01-16,17.1517
2003-01-17,16.945
2003-01-21,16.7684
2003-01-22,16.7533
2003-01-23,16.5016
2003-01-24,16.0957
2003-01-27,15.641
2003-01-28,15.4455
2003-01-29,15.2389
2003-01-30,14.7541
2003-01-31,15.2125
2003-02-03,15.1036
2003-02-04,15.1637
2003-02-05,15.0547
2003-02-06,15.0246
2003-02-07,14.8781
2003-02-10,15.0472
2003-02-11,14.6113
2003-02-12,14.942
2003-02-13,15.0096
2003-02-14,15.2915
2003-02-18,15.4343
2003-02-19,15.2689
2003-02-20,15.0848
2003-02-21,15.2614
2003-02-24,14.972
2003-02-25,15.175
2003-02-26,14.9044
2003-02-27,15.1036
2003-02-28,15.096
2003-03-03,14.7465
2003-03-04,14.4309
2003-03-05,14.0927
2003-03-06,14.1302
2003-03-07,14.1866
2003-03-10,13.9498
2003-03-11,14.1828
2003-03-12,14.3909
2003-03-13,14.8937
2003-03-14,15.06
2003-03-17,15.4834
2003-03-18,15.438
2003-03-19,15.7971
2003-03-20,15.7102
2003-03-21,15.9748
2003-03-24,15.4796
2003-03-25,15.4947
2003-03-26,15.4191
2003-03-27,15.4267
2003-03-28,15.3738
2003-03-31,15.283
2003-04-01,15.2717
2003-04-02,15.6497
2003-04-03,15.5741
2003-04-04,15.8236
2003-04-07,15.7934
2003-04-08,15.8576
2003-04-09,15.7404
2003-04-10,15.6535
2003-04-11,15.6875
2003-04-14,16.0277
2003-04-15,16.0731
2003-04-16,15.0676
2003-04-17,15.3133
2003-04-21,15.1507
2003-04-22,15.2755
2003-04-23,15.1016
2003-04-24,15.0525
2003-04-25,14.8786
2003-04-28,15.2339
2003-04-29,15.4305
2003-04-30,15.2226
2003-05-01,15.2793
2003-05-02,15.5174
2003-05-05,15.3133
2003-05-06,15.4947
2003-05-07,16.3604
2003-05-08,16.1865
2003-05-09,16.6288
2003-05-12,16.7611
2003-05-13,16.7119
2003-05-14,16.727
2003-05-15,16.8745
2003-05-16,16.7308
2003-05-19,16.6855
2003-05-20,16.848
2003-05-21,16.6817
2003-05-22,16.8405
2003-05-23,16.7006
2003-05-27,16.9047
2003-05-28,16.7081
2003-05-29,16.8707
2003-05-30,17.2449
2003-06-02,17.2978
2003-06-03,17.4226
2003-06-04,17.5889
2003-06-05,17.6948
2003-06-06,17.7288
2003-06-09,17.6683
2003-06-10,17.6154
2003-06-11,17.7559
2003-06-12,18.0028
2003-06-13,17.9686
2003-06-16,18.3028
2003-06-17,17.9268
2003-06-18,17.8395
2003-06-19,17.5242
2003-06-20,17.6609
2003-06-23,17.7027
2003-06-24,17.9192
2003-06-25,17.7255
2003-06-26,17.8129
2003-06-27,17.6799
2003-06-30,17.6382
2003-07-01,17.6609
2003-07-02,17.604
2003-07-03,17.5622
2003-07-07,17.0912
2003-07-08,16.795
2003-07-09,16.6659
2003-07-10,16.7152
2003-07-11,16.6811
2003-07-14,16.776
2003-07-15,16.6849
2003-07-16,16.2937
2003-07-17,17.0039
2003-07-18,17.0115
2003-07-21,17.0874
2003-07-22,17.1026
2003-07-23,17.1558
2003-07-24,16.9431
2003-07-25,17.076
2003-07-28,16.9469
2003-07-29,17.0229
2003-07-30,17.2204
2003-07-31,17.1064
2003-08-01,16.9925
2003-08-04,17.0609
2003-08-05,16.852
2003-08-06,16.7494
2003-08-07,17.0153
2003-08-08,17.0305
2003-08-11,16.9279
2003-08-12,16.9583
2003-08-13,16.8975
2003-08-14,17.0912
2003-08-15,17.0874
2003-08-18,17.0495
2003-08-19,16.8444
2003-08-20,16.6697
2003-08-21,16.5671
2003-08-22,16.4076
2003-08-25,16.7152
2003-08-26,16.8216
2003-08-27,16.6886
2003-08-28,16.6659
2003-08-29,16.5215
2003-09-02,16.6317
2003-09-03,16.5785
2003-09-04,16.9051
2003-09-05,16.7532
2003-09-08,16.7988
2003-09-09,16.8596
2003-09-10,17.0495
2003-09-11,16.9654
2003-09-12,16.786
2003-09-15,16.5952
2003-09-16,16.3814
2003-09-17,16.4234
2003-09-18,16.6333
2003-09-19,16.5074
2003-09-22,16.4959
2003-09-23,16.5952
2003-09-24,16.3852
2003-09-25,16.4425
2003-09-26,16.4387
2003-09-29,16.4539
2003-09-30,16.4234
2003-10-01,16.7364
2003-10-02,16.8967
2003-10-03,16.8089
2003-10-06,16.9463
2003-10-07,17.0493
2003-10-08,16.8776
2003-10-09,16.7402
2003-10-10,16.7516
2003-10-13,16.8623
2003-10-14,16.9921
2003-10-15,17.2974
2003-10-16,17.1753
2003-10-17,17.202
2003-10-20,17.4158
2003-10-21,17.4616
2003-10-22,17.3089
2003-10-23,17.37
2003-10-24,17.3127
2003-10-27,17.2516
2003-10-28,17.3203
2003-10-29,17.5112
2003-10-30,17.5303
2003-10-31,17.6867
2003-11-03,17.8203
2003-11-04,17.9119
2003-11-05,17.9196
2003-11-06,17.9386
2003-11-07,17.7822
2003-11-10,17.7669
2003-11-11,17.7745
2003-11-12,17.973
2003-11-13,17.9081
2003-11-14,17.8089
2003-11-17,17.8203
2003-11-18,17.7287
2003-11-19,17.8699
2003-11-20,17.6906
2003-11-21,17.7173
2003-11-24,17.7364
2003-11-25,17.786
2003-11-26,17.9087
2003-11-28,17.832
2003-12-01,18.02
2003-12-02,18.0085
2003-12-03,18.1695
2003-12-04,18.0736
2003-12-05,17.9548
2003-12-08,18.3152
2003-12-09,18.3229
2003-12-10,18.4763
2003-12-11,18.5492
2003-12-12,18.9403
2003-12-15,19.0899
2003-12-16,19.4158
2003-12-17,19.2394
2003-12-18,19.1666
2003-12-19,19.2049
2003-12-22,19.2203
2003-12-23,19.2203
2003-12-24,19.1359
2003-12-26,19.1704
2003-12-29,19.2241
2003-12-30,19.3737
2003-12-31,19.412
2004-01-02,19.2893
2004-01-05,19.3506
2004-01-06,19.2433
2004-01-07,19.1512
2004-01-08,19.2126
2004-01-09,19.0477
2004-01-12,19.1742
2004-01-13,19.0745
2004-01-14,19.0822
2004-01-15,19.063
2004-01-16,19.1206
2004-01-20,19.1627
2004-01-21,19.0899
2004-01-22,18.925
2004-01-23,19.1973
2004-01-26,19.2471
2004-01-27,19.1934
2004-01-28,18.9326
2004-01-29,19.0132
2004-01-30,18.8828
2004-02-02,19.0247
2004-02-03,19.1206
2004-02-04,19.0822
2004-02-05,19.32
2004-02-06,19.5386
2004-02-09,20.0869
2004-02-10,20.0179
2004-02-11,19.8453
2004-02-12,19.7802
2004-02-13,19.6114
2004-02-17,19.6191
2004-02-18,19.6498
2004-02-19,19.5654
2004-02-20,19.5232
2004-02-23,19.297
2004-02-24,19.0822
2004-02-25,19.04
2004-02-26,19.1129
2004-02-27,19.1781
2004-03-01,19.04
2004-03-02,18.902
2004-03-03,18.8406
2004-03-04,18.7026
2004-03-05,19.2394
2004-03-08,19.1359
2004-03-09,19.2701
2004-03-10,19.1359
2004-03-11,18.5847
2004-03-12,18.6618
2004-03-15,18.4075
2004-03-16,18.5732
2004-03-17,18.8276
2004-03-18,18.9201
2004-03-19,18.7929
2004-03-22,18.6117
2004-03-23,18.5693
2004-03-24,18.685
2004-03-25,18.7929
2004-03-26,18.8044
2004-03-29,19.0203
2004-03-30,19.3479
2004-03-31,19.3749
2004-04-01,19.4943
2004-04-02,19.6061
2004-04-05,19.4982
2004-04-06,19.61
2004-04-07,19.687
2004-04-08,19.7526
2004-04-12,19.6022
2004-04-13,19.6138
2004-04-14,19.7333
2004-04-15,19.7217
2004-04-16,20.0224
2004-04-19,20.427
2004-04-20,20.1572
2004-04-21,20.0879
2004-04-22,19.8643
2004-04-23,19.6755
2004-04-26,19.5213
2004-04-27,19.5175
2004-04-28,19.3594
2004-04-29,19.4404
2004-04-30,19.4866
2004-05-03,19.502
2004-05-04,19.4057
2004-05-05,19.6793
2004-05-06,19.7063
2004-05-07,19.556
2004-05-10,19.2592
2004-05-11,19.2978
2004-05-12,19.2515
2004-05-13,19.1359
2004-05-14,19.2746
2004-05-17,19.2053
2004-05-18,19.3286
2004-05-19,19.055
2004-05-20,19.132
2004-05-21,19.0357
2004-05-24,19.2168
2004-05-25,19.4211
2004-05-26,19.3671
2004-05-27,19.7641
2004-05-28,19.7872
2004-06-01,19.6986
2004-06-02,20.0108
2004-06-03,19.953
2004-06-04,20.1148
2004-06-07,20.2921
2004-06-08,20.2767
2004-06-09,19.9453
2004-06-10,19.8797
2004-06-14,19.8913
2004-06-15,19.837
2004-06-16,19.8177
2004-06-17,19.7828
2004-06-18,19.8874
2004-06-21,19.8254
2004-06-22,19.7673
2004-06-23,19.8797
2004-06-24,19.7828
2004-06-25,19.5776
2004-06-28,19.5311
2004-06-29,19.5543
2004-06-30,19.5621
2004-07-01,19.4885
2004-07-02,19.5582
2004-07-06,19.6047
2004-07-07,19.5311
2004-07-08,19.5698
2004-07-09,19.748
2004-07-12,19.6744
2004-07-13,19.6163
2004-07-14,19.8099
2004-07-15,19.6976
2004-07-16,19.5892
2004-07-19,19.4924
2004-07-20,19.3994
2004-07-21,19.0741
2004-07-22,18.9773
2004-07-23,17.4939
2004-07-26,17.2073
2004-07-27,16.9479
2004-07-28,16.9479
2004-07-29,16.6729
2004-07-30,16.9788
2004-08-02,17.0989
2004-08-03,17.0834
2004-08-04,17.0912
2004-08-05,16.9517
2004-08-06,16.8278
2004-08-09,16.731
2004-08-10,16.8123
2004-08-11,17.2112
2004-08-12,16.9788
2004-08-13,17.1841
2004-08-16,17.2693
2004-08-17,17.188
2004-08-18,17.2499
2004-08-19,17.0408
2004-08-20,17.1144
2004-08-23,17.1802
2004-08-24,17.0602
2004-08-25,17.1725
2004-08-26,17.2267
2004-08-27,17.3197
2004-08-30,17.188
2004-08-31,17.308
2004-09-01,17.3003
2004-09-02,17.583
2004-09-03,17.6179
2004-09-07,17.676
2004-09-08,16.8162
2004-09-09,16.8549
2004-09-10,16.6535
2004-09-13,16.6653
2004-09-14,16.7276
2004-09-15,16.0498
2004-09-16,15.5862
2004-09-17,15.7148
2004-09-20,15.7654
2004-09-21,15.8628
2004-09-22,15.742
2004-09-23,15.6096
2004-09-24,15.5512
2004-09-27,15.446
2004-09-28,15.555
2004-09-29,15.5862
2004-09-30,15.5862
2004-10-01,15.6953
2004-10-04,15.8589
2004-10-05,15.8316
2004-10-06,15.929
2004-10-07,15.6446
2004-10-08,15.5823
2004-10-11,15.5823
2004-10-12,15.4966
2004-10-13,15.3369
2004-10-14,15.2629
2004-10-15,15.2746
2004-10-18,15.2707
2004-10-19,15.333
2004-10-20,15.3603
2004-10-21,15.3291
2004-10-22,15.1499
2004-10-25,15.0525
2004-10-26,15.2979
2004-10-27,15.7381
2004-10-28,15.7615
2004-10-29,15.8161
2004-11-01,15.8005
2004-11-02,15.8394
2004-11-03,15.9095
2004-11-04,16.1355
2004-11-05,16.1238
2004-11-08,16.081
2004-11-09,16.0654
2004-11-10,16.0537
2004-11-11,15.9407
2004-11-12,15.8784
2004-11-15,15.8005
2004-11-16,15.6641
2004-11-17,15.6875
2004-11-18,15.7226
2004-11-19,15.481
2004-11-22,15.52
2004-11-23,15.4693
2004-11-24,15.5005
2004-11-26,15.5317
2004-11-29,15.567
2004-11-30,15.4141
2004-12-01,15.5787
2004-12-02,15.8375
2004-12-03,15.9668
2004-12-06,15.8414
2004-12-07,15.7551
2004-12-08,15.8336
2004-12-09,15.9864
2004-12-10,15.8845
2004-12-13,16.006
2004-12-14,16.1746
2004-12-15,16.2726
2004-12-16,16.1315
2004-12-17,16.1158
2004-12-20,16.0413
2004-12-21,16.0884
2004-12-22,16.2922
2004-12-23,16.2844
2004-12-27,16.3432
2004-12-28,16.3785
2004-12-29,16.2726
2004-12-30,16.3353
2004-12-31,16.3353
2005-01-03,16.2726
2005-01-04,16.0766
2005-01-05,15.9786
2005-01-06,16.1158
2005-01-07,16.1354
2005-01-10,16.2177
2005-01-11,16.1472
2005-01-12,16.1432
2005-01-13,15.9786
2005-01-14,16.0609
2005-01-18,16.1589
2005-01-19,16.1276
2005-01-20,16.1864
2005-01-21,16.0374
2005-01-24,16.0648
2005-01-25,16.1628
2005-01-26,16.3353
2005-01-27,16.3745
2005-01-28,16.2726
2005-01-31,16.2648
2005-02-01,16.2256
2005-02-02,16.4294
2005-02-03,16.3549
2005-02-04,16.645
2005-02-07,16.6529
2005-02-08,16.7234
2005-02-09,16.7783
2005-02-10,16.6529
2005-02-11,16.7626
2005-02-14,16.8175
2005-02-15,16.696
2005-02-16,16.9743
2005-02-17,16.8606
2005-02-18,16.8567
2005-02-22,16.7783
2005-02-23,16.6921
2005-02-24,16.7391
2005-02-25,16.8528
2005-02-28,16.7666
2005-03-01,16.9626
2005-03-02,16.8606
2005-03-03,16.9351
2005-03-04,17.1037
2005-03-07,17.139
2005-03-08,17.0253
2005-03-09,16.939
2005-03-10,16.892
2005-03-11,16.7855
2005-03-14,16.7105
2005-03-15,16.6592
2005-03-16,16.5567
2005-03-17,16.5567
2005-03-18,16.3554
2005-03-21,16.4067
2005-03-22,16.3278
2005-03-23,16.2528
2005-03-24,16.2607
2005-03-28,16.2331
2005-03-29,16.3199
2005-03-30,16.5488
2005-03-31,16.4383
2005-04-01,16.3357
2005-04-04,16.3594
2005-04-05,16.533
2005-04-06,16.4541
2005-04-07,16.6158
2005-04-08,16.6119
2005-04-11,16.529
2005-04-12,16.7145
2005-04-13,16.604
2005-04-14,16.6158
2005-04-15,16.2844
2005-04-18,16.1739
2005-04-19,16.7303
2005-04-20,16.5211
2005-04-21,16.5567
2005-04-22,16.6158
2005-04-25,16.8329
2005-04-26,16.971
2005-04-27,16.9039
2005-04-28,16.8329
2005-04-29,17.1367
2005-05-02,17.2038
2005-05-03,17.2551
2005-05-04,17.3379
2005-05-05,17.4208
2005-05-06,17.4247
2005-05-09,17.5786
2005-05-10,17.4405
2005-05-11,17.4721
2005-05-12,17.4445
2005-05-13,17.3813
2005-05-16,17.4524
2005-05-17,17.5036
2005-05-18,17.7088
2005-05-19,17.843
2005-05-20,17.768
2005-05-23,17.7522
2005-05-24,17.7601
2005-05-25,17.7246
2005-05-26,17.7207
2005-05-27,17.7365
2005-05-31,17.6299
2005-06-01,17.5983
2005-06-02,17.6733
2005-06-03,17.4563
2005-06-06,17.3616
2005-06-07,17.4129
2005-06-08,17.3261
2005-06-09,17.2235
2005-06-10,17.3379
2005-06-13,17.326
2005-06-14,17.3736
2005-06-15,17.3339
2005-06-16,17.3895
2005-06-17,17.4888
2005-06-20,17.4531
2005-06-21,17.3419
2005-06-22,17.2386
2005-06-23,17.0996
2005-06-24,16.774
2005-06-27,16.8137
2005-06-28,17.0123
2005-06-29,16.9567
2005-06-30,16.5635
2005-07-01,16.77
2005-07-05,16.8653
2005-07-06,16.6668
2005-07-07,16.5913
2005-07-08,16.9606
2005-07-11,16.9964
2005-07-12,17.0242
2005-07-13,17.048
2005-07-14,17.1433
2005-07-15,17.0996
2005-07-18,17.056
2005-07-19,17.2148
2005-07-20,17.1632
2005-07-21,17.4054
2005-07-22,17.4848
2005-07-25,17.33
2005-07-26,17.3458
2005-07-27,17.469
2005-07-28,17.6397
2005-07-29,17.3856
2005-08-01,17.4253
2005-08-02,17.5881
2005-08-03,17.739
2005-08-04,17.6159
2005-08-05,17.5007
2005-08-08,17.3379
2005-08-09,17.5007
2005-08-10,17.4451
2005-08-11,17.5007
2005-08-12,17.3061
2005-08-15,17.2982
2005-08-16,17.183
2005-08-17,17.183
2005-08-18,17.3061
2005-08-19,17.6397
2005-08-22,17.5881
2005-08-23,17.5563
2005-08-24,17.4173
2005-08-25,17.3816
2005-08-26,17.3141
2005-08-29,17.4769
2005-08-30,17.2347
2005-08-31,17.4729
2005-09-01,17.4412
2005-09-02,17.4332
2005-09-06,17.6715
2005-09-07,17.739
2005-09-08,17.5722
2005-09-09,17.5007
2005-09-12,17.5682
2005-09-13,17.4523
2005-09-14,17.3884
2005-09-15,17.4363
2005-09-16,17.3084
2005-09-19,17.3284
2005-09-20,17.1566
2005-09-21,16.8728
2005-09-22,16.8728
2005-09-23,16.9288
2005-09-26,16.9288
2005-09-27,16.9208
2005-09-28,17.1406
2005-09-29,17.2245
2005-09-30,17.2525
2005-10-03,17.2725
2005-10-04,17.2045
2005-10-05,17.0607
2005-10-06,17.0727
2005-10-07,16.8728
2005-10-10,16.7969
2005-10-11,16.653
2005-10-12,16.677
2005-10-13,16.669
2005-10-14,16.8089
2005-10-17,16.8369
2005-10-18,16.701
2005-10-19,16.709
2005-10-20,16.8409
2005-10-21,16.7689
2005-10-24,16.9528
2005-10-25,16.9807
2005-10-26,16.9328
2005-10-27,16.8608
2005-10-28,17.1246
2005-10-31,17.0926
2005-11-01,17.0447
2005-11-02,17.0167
2005-11-03,17.0167
2005-11-04,16.9008
2005-11-07,16.9408
2005-11-08,16.8369
2005-11-09,16.8489
2005-11-10,17.0047
2005-11-11,17.0806
2005-11-14,17.0287
2005-11-15,16.9528
2005-11-16,16.8449
2005-11-17,16.7449
2005-11-18,16.8688
2005-11-21,16.8528
2005-11-22,16.9048
2005-11-23,17.0447
2005-11-25,17.1046
2005-11-28,17.1006
2005-11-29,17.342
2005-11-30,17.1731
2005-12-01,17.2294
2005-12-02,17.2294
2005-12-05,17.169
2005-12-06,17.1007
2005-12-07,16.9599
2005-12-08,16.8553
2005-12-09,16.6944
2005-12-12,16.5616
2005-12-13,16.4731
2005-12-14,16.5334
2005-12-15,16.5495
2005-12-16,16.5737
2005-12-19,16.6582
2005-12-20,16.5777
2005-12-21,16.5857
2005-12-22,16.6059
2005-12-23,16.5737
2005-12-27,16.4812
2005-12-28,16.4007
2005-12-29,16.3243
2005-12-30,16.2277
2006-01-03,16.4369
2006-01-04,16.4289
2006-01-05,16.5053
2006-01-06,16.6541
2006-01-09,16.7386
2006-01-10,16.7547
2006-01-11,16.7547
2006-01-12,16.6622
2006-01-13,16.6219
2006-01-17,16.5093
2006-01-18,16.4248
2006-01-19,16.4852
2006-01-20,16.1352
2006-01-23,16.2881
2006-01-24,16.457
2006-01-25,16.5536
2006-01-26,16.6823
2006-01-27,16.8714
2006-01-30,16.7788
2006-01-31,16.6461
2006-02-01,16.6944
2006-02-02,16.5817
2006-02-03,16.4449
2006-02-06,16.4852
2006-02-07,16.5013
2006-02-08,16.5697
2006-02-09,16.4892
2006-02-10,16.5656
2006-02-13,16.4007
2006-02-14,16.634
2006-02-15,16.634
2006-02-16,16.7225
2006-02-17,16.7989
2006-02-21,16.8392
2006-02-22,16.9357
2006-02-23,16.9076
2006-02-24,16.992
2006-02-27,17.0926
2006-02-28,16.8874
2006-03-01,16.9961
2006-03-02,16.8673
2006-03-03,16.803
2006-03-06,16.8633
2006-03-07,16.8392
2006-03-08,16.984
2006-03-09,17.0644
2006-03-10,17.2093
2006-03-13,17.2174
2006-03-14,17.3349
2006-03-15,17.3228
2006-03-16,17.2822
2006-03-17,17.3471
2006-03-20,17.3876
2006-03-21,17.3228
2006-03-22,17.3349
2006-03-23,17.1931
2006-03-24,17.2458
2006-03-27,17.1769
2006-03-28,17.0999
2006-03-29,17.0918
2006-03-30,17.0634
2006-03-31,16.95
2006-04-03,16.9743
2006-04-04,17.0432
2006-04-05,16.9905
2006-04-06,16.8851
2006-04-07,16.7514
2006-04-10,16.796
2006-04-11,16.7149
2006-04-12,16.6785
2006-04-13,16.7109
2006-04-17,16.6217
2006-04-18,16.7149
2006-04-19,16.8932
2006-04-20,16.954
2006-04-21,16.9662
2006-04-24,16.8365
2006-04-25,16.7595
2006-04-26,16.9135
2006-04-27,17.0229
2006-04-28,17.0107
2006-05-01,17.0026
2006-05-02,17.1323
2006-05-03,16.9824
2006-05-04,17.0432
2006-05-05,17.3106
2006-05-08,17.5659
2006-05-09,17.6955
2006-05-10,17.6631
2006-05-11,17.5902
2006-05-12,17.4889
2006-05-15,17.8009
2006-05-16,17.7685
2006-05-17,17.6429
2006-05-18,17.6388
2006-05-19,17.6874
2006-05-22,17.6712
2006-05-23,17.6834
2006-05-24,17.8495
2006-05-25,17.967
2006-05-26,18.0278
2006-05-30,17.7037
2006-05-31,17.8333
2006-06-01,17.7887
2006-06-02,17.7887
2006-06-05,17.6023
2006-06-06,17.6348
2006-06-07,17.5821
2006-06-08,17.5861
2006-06-09,17.6429
2006-06-12,17.5456
2006-06-13,17.5129
2006-06-14,17.468
2006-06-15,17.5701
2006-06-16,17.6517
2006-06-19,17.5211
2006-06-20,17.4721
2006-06-21,17.5538
2006-06-22,17.5007
2006-06-23,17.4476
2006-06-26,17.4721
2006-06-27,17.3538
2006-06-28,17.3211
2006-06-29,17.5823
2006-06-30,17.6191
2006-07-03,17.7007
2006-07-05,17.566
2006-07-06,17.6884
2006-07-07,17.6354
2006-07-10,17.8109
2006-07-11,17.8639
2006-07-12,17.7823
2006-07-13,17.6027
2006-07-14,17.4191
2006-07-17,17.4232
2006-07-18,17.7537
2006-07-19,17.8762
2006-07-20,17.8843
2006-07-21,17.9047
2006-07-24,17.9701
2006-07-25,18.068
2006-07-26,18.1292
2006-07-27,18.0721
2006-07-28,18.166
2006-07-31,18.17
2006-08-01,18.1007
2006-08-02,18.0884
2006-08-03,17.9619
2006-08-04,17.8966
2006-08-07,17.7946
2006-08-08,17.8966
2006-08-09,17.8476
2006-08-10,17.917
2006-08-11,17.8558
2006-08-14,17.9537
2006-08-15,18.0762
2006-08-16,18.0966
2006-08-17,18.0394
2006-08-18,18.0762
2006-08-21,18.0435
2006-08-22,18.1211
2006-08-23,18.0762
2006-08-24,18.166
2006-08-25,18.166
2006-08-28,18.2517
2006-08-29,18.419
2006-08-30,18.3455
2006-08-31,18.3006
2006-09-01,18.3863
2006-09-05,18.3578
2006-09-06,18.2517
2006-09-07,18.166
2006-09-08,18.1904
2006-09-11,18.1823
2006-09-12,18.2843
2006-09-13,18.3542
2006-09-14,18.3255
2006-09-15,18.3214
2006-09-18,18.272
2006-09-19,18.2474
2006-09-20,18.272
2006-09-21,18.1652
2006-09-22,18.083
2006-09-25,18.2474
2006-09-26,18.3584
2006-09-27,18.3707
2006-09-28,18.4693
2006-09-29,18.3666
2006-10-02,18.2926
2006-10-03,18.3131
2006-10-04,18.4077
2006-10-05,18.4036
2006-10-06,18.3912
2006-10-09,18.2515
2006-10-10,18.1118
2006-10-11,18.1323
2006-10-12,18.0953
2006-10-13,18.1035
2006-10-16,18.1899
2006-10-17,17.9967
2006-10-18,18.0789
2006-10-19,18.4364
2006-10-20,19.1967
2006-10-23,19.4351
2006-10-24,19.3447
2006-10-25,19.3776
2006-10-26,19.3735
2006-10-27,19.2584
2006-10-30,19.2173
2006-10-31,19.1926
2006-11-01,19.1762
2006-11-02,19.1885
2006-11-03,19.1104
2006-11-06,19.2337
2006-11-07,19.2666
2006-11-08,19.2666
2006-11-09,19.1803
2006-11-10,19.094
2006-11-13,19.0611
2006-11-14,19.1351
2006-11-15,19.1721
2006-11-16,19.3652
2006-11-17,19.4269
2006-11-20,19.3324
2006-11-21,19.3118
2006-11-22,19.3694
2006-11-24,19.2296
2006-11-27,19.1392
2006-11-28,19.1885
2006-11-29,19.2961
2006-11-30,19.3706
2006-12-01,19.2589
2006-12-04,19.3789
2006-12-05,19.8422
2006-12-06,20.0284
2006-12-07,20.1608
2006-12-08,20.2311
2006-12-11,20.1815
2006-12-12,20.2311
2006-12-13,20.2146
2006-12-14,20.2684
2006-12-15,20.2436
2006-12-18,20.2394
2006-12-19,20.1608
2006-12-20,20.1691
2006-12-21,20.136
2006-12-22,20.0201
2006-12-26,20.1029
2006-12-27,20.1484
2006-12-28,20.0946
2006-12-29,19.9581
2007-01-03,20.1112
2007-01-04,20.1029
2007-01-05,19.9539
2007-01-08,20.0863
2007-01-09,20.0987
2007-01-10,20.1318
2007-01-11,20.1525
2007-01-12,20.0781
2007-01-16,20.0781
2007-01-17,20.1112
2007-01-18,19.9995
2007-01-19,19.9705
2007-01-22,19.8836
2007-01-23,19.9084
2007-01-24,19.9126
2007-01-25,19.8381
2007-01-26,19.7802
2007-01-29,19.7471
2007-01-30,19.776
2007-01-31,19.805
2007-02-01,19.896
2007-02-02,19.9539
2007-02-05,19.8216
2007-02-06,19.8753
2007-02-07,19.8588
2007-02-08,19.8009
2007-02-09,19.7595
2007-02-12,19.8298
2007-02-13,19.9374
2007-02-14,19.7967
2007-02-15,19.7967
2007-02-16,19.8133
2007-02-20,19.7554
2007-02-21,19.685
2007-02-22,19.5775
2007-02-23,19.5485
2007-02-26,19.7429
2007-02-27,19.2341
2007-02-28,19.3044
2007-03-01,19.2423
2007-03-02,18.9651
2007-03-05,19.1389
2007-03-06,19.4202
2007-03-07,19.3416
2007-03-08,19.4906
2007-03-09,19.6685
2007-03-12,19.8216
2007-03-13,19.5673
2007-03-14,19.5839
2007-03-15,19.6214
2007-03-16,19.6673
2007-03-19,19.7173
2007-03-20,19.8423
2007-03-21,20.1006
2007-03-22,20.1006
2007-03-23,20.0048
2007-03-26,20.0714
2007-03-27,20.0131
2007-03-28,19.9673
2007-03-29,20.0464
2007-03-30,20.0006
2007-04-02,20.2131
2007-04-03,20.409
2007-04-04,20.609
2007-04-05,20.6256
2007-04-09,20.684
2007-04-10,20.8631
2007-04-11,20.6798
2007-04-12,20.6965
2007-04-13,20.7881
2007-04-16,20.934
2007-04-17,21.5007
2007-04-18,21.534
2007-04-19,21.5715
2007-04-20,21.7132
2007-04-23,21.5173
2007-04-24,21.5298
2007-04-25,21.584
2007-04-26,21.709
2007-04-27,21.7048
2007-04-30,21.759
2007-05-01,21.9215
2007-05-02,21.9798
2007-05-03,22.0465
2007-05-04,22.1798
2007-05-07,22.3424
2007-05-08,22.1173
2007-05-09,22.1215
2007-05-10,21.884
2007-05-11,21.9548
2007-05-14,21.9173
2007-05-15,21.859
2007-05-16,21.984
2007-05-17,21.7465
2007-05-18,21.9298
2007-05-21,21.6298
2007-05-22,21.4423
2007-05-23,21.3923
2007-05-24,21.334
2007-05-25,21.6215
2007-05-29,21.7465
2007-05-30,22.0923
2007-05-31,22.0882
2007-06-01,22.0048
2007-06-04,21.9382
2007-06-05,21.8048
2007-06-06,21.6798
2007-06-07,21.3965
2007-06-08,21.5465
2007-06-11,21.5257
2007-06-12,21.3173
2007-06-13,21.5523
2007-06-14,21.5439
2007-06-15,21.6362
2007-06-18,21.7159
2007-06-19,21.5439
2007-06-20,21.6068
2007-06-21,21.8417
2007-06-22,21.6529
2007-06-25,21.7117
2007-06-26,21.7998
2007-06-27,21.9969
2007-06-28,22.0808
2007-06-29,21.9466
2007-07-02,22.0472
2007-07-03,22.1899
2007-07-05,22.0808
2007-07-06,22.0598
2007-07-09,22.106
2007-07-10,21.8543
2007-07-11,21.8501
2007-07-12,22.0766
2007-07-13,22.2863
2007-07-16,22.6051
2007-07-17,22.2696
2007-07-18,22.4164
2007-07-19,22.5296
2007-07-20,22.3199
2007-07-23,22.4919
2007-07-24,22.3325
2007-07-25,22.6764
2007-07-26,22.2989
2007-07-27,21.9424
2007-07-30,21.9717
2007-07-31,21.8375
2007-08-01,22.3451
2007-08-02,22.5087
2007-08-03,22.3367
2007-08-06,22.731
2007-08-07,22.8526
2007-08-08,23.4063
2007-08-09,23.5867
2007-08-10,23.0875
2007-08-13,22.8484
2007-08-14,22.71
2007-08-15,22.5464
2007-08-16,22.4583
2007-08-17,22.8862
2007-08-20,22.8904
2007-08-21,22.6471
2007-08-22,22.6555
2007-08-23,22.6303
2007-08-24,22.6513
2007-08-27,22.6471
2007-08-28,22.3451
2007-08-29,22.4541
2007-08-30,22.4038
2007-08-31,22.5548
2007-09-04,22.8233
2007-09-05,22.5045
2007-09-06,22.9072
2007-09-07,22.8988
2007-09-10,22.8778
2007-09-11,23.3434
2007-09-12,23.5586
2007-09-13,23.5628
2007-09-14,23.8119
2007-09-17,23.3476
2007-09-18,23.8034
2007-09-19,23.8836
2007-09-20,23.7401
2007-09-21,23.8752
2007-09-24,23.9385
2007-09-25,24.0693
2007-09-26,24.1959
2007-09-27,24.179
2007-09-28,24.2719
2007-10-01,24.4449
2007-10-02,24.428
2007-10-03,24.2972
2007-10-04,24.4069
2007-10-05,24.4998
2007-10-08,24.3858
2007-10-09,24.4154
2007-10-10,24.3985
2007-10-11,24.1411
2007-10-12,24.4069
2007-10-15,24.3183
2007-10-16,24.3858
2007-10-17,24.8543
2007-10-18,25.0653
2007-10-19,24.7826
2007-10-22,25.002
2007-10-23,25.2131
2007-10-24,25.403
2007-10-25,25.8799
2007-10-26,25.977
2007-10-29,26.0825
2007-10-30,26.0192
2007-10-31,26.0909
2007-11-01,25.7322
2007-11-02,25.5085
2007-11-05,25.4789
2007-11-06,25.7575
2007-11-07,25.3101
2007-11-08,25.9559
2007-11-09,25.6942
2007-11-12,25.2764
2007-11-13,25.7997
2007-11-14,25.9094
2007-11-15,26.1795
2007-11-16,26.4539
2007-11-19,26.2808
2007-11-20,26.4961
2007-11-21,26.2513
2007-11-23,26.2808
2007-11-26,26.0234
2007-11-27,26.572
2007-11-28,26.7799
2007-11-29,26.6272
2007-11-30,26.3089
2007-12-03,26.3811
2007-12-04,26.6102
2007-12-05,26.729
2007-12-06,26.763
2007-12-07,26.8139
2007-12-10,26.8563
2007-12-11,26.7672
2007-12-12,27.0685
2007-12-13,27.1958
2007-12-14,27.0473
2007-12-17,26.5041
2007-12-18,26.4023
2007-12-19,26.6738
2007-12-20,26.4362
2007-12-21,26.7884
2007-12-24,26.8224
2007-12-26,26.729
2007-12-27,26.415
2007-12-28,26.4023
2007-12-31,26.0289
2008-01-02,25.927
2008-01-03,26.1774
2008-01-04,26.2453
2008-01-07,26.8393
2008-01-08,27.0218
2008-01-09,27.6838
2008-01-10,27.828
2008-01-11,27.0303
2008-01-14,27.2679
2008-01-15,26.9921
2008-01-16,26.555
2008-01-17,26.2919
2008-01-18,25.753
2008-01-22,24.9425
2008-01-23,24.9086
2008-01-24,25.3881
2008-01-25,24.8068
2008-01-28,25.1887
2008-01-29,24.8619
2008-01-30,24.4843
2008-01-31,25.0359
2008-02-01,25.1377
2008-02-04,24.8534
2008-02-05,24.4079
2008-02-06,24.4715
2008-02-07,24.8025
2008-02-08,25.1165
2008-02-11,25.2269
2008-02-12,25.4518
2008-02-13,25.2269
2008-02-14,24.8068
2008-02-15,24.9086
2008-02-19,24.6455
2008-02-20,24.7134
2008-02-21,24.5819
2008-02-22,24.7177
2008-02-25,24.9383
2008-02-26,25.2353
2008-02-27,25.4602
2008-02-28,25.2438
2008-02-29,24.7855
2008-03-03,25.0571
2008-03-04,25.1632
2008-03-05,25.316
2008-03-06,25.0529
2008-03-07,24.9807
2008-03-10,24.9213
2008-03-11,25.2311
2008-03-12,25.2439
2008-03-13,25.1414
2008-03-14,24.5648
2008-03-17,24.646
2008-03-18,25.3507
2008-03-19,25.6069
2008-03-20,26.0852
2008-03-24,26.1407
2008-03-25,26.2091
2008-03-26,26.1236
2008-03-27,26.1792
2008-03-28,26.0211
2008-03-31,26.0126
2008-04-01,26.2475
2008-04-02,25.829
2008-04-03,25.8546
2008-04-04,25.7393
2008-04-07,25.7564
2008-04-08,25.8418
2008-04-09,25.9443
2008-04-10,26.1834
2008-04-11,25.7521
2008-04-14,26.051
2008-04-15,26.0468
2008-04-16,26.1279
2008-04-17,25.9058
2008-04-18,25.6752
2008-04-21,25.7734
2008-04-22,25.5855
2008-04-23,25.7606
2008-04-24,25.7521
2008-04-25,25.3507
2008-04-28,25.1884
2008-04-29,25.0901
2008-04-30,25.12
2008-05-01,25.2097
2008-05-02,25.0901
2008-05-05,24.9065
2008-05-06,24.8851
2008-05-07,24.3556
2008-05-08,24.0524
2008-05-09,23.984
2008-05-12,24.0865
2008-05-13,24.1463
2008-05-14,24.1549
2008-05-15,24.3214
2008-05-16,24.347
2008-05-19,24.5734
2008-05-20,24.3641
2008-05-21,24.1848
2008-05-22,24.898
2008-05-23,25.0731
2008-05-27,24.9962
2008-05-28,24.5478
2008-05-29,24.7357
2008-05-30,24.4538
2008-06-02,24.3428
2008-06-03,24.1122
2008-06-04,24.1848
2008-06-05,24.4154
2008-06-06,23.826
2008-06-09,23.8559
2008-06-10,24.7827
2008-06-11,24.5678
2008-06-12,24.5635
2008-06-13,23.7854
2008-06-16,23.3168
2008-06-17,23.2137
2008-06-18,22.8526
2008-06-19,22.9256
2008-06-20,23.0718
2008-06-23,22.9084
2008-06-24,22.9557
2008-06-25,23.2781
2008-06-26,22.8697
2008-06-27,22.3109
2008-06-30,22.3023
2008-07-01,21.8982
2008-07-02,22.096
2008-07-03,22.1303
2008-07-07,22.0487
2008-07-08,22.1475
2008-07-09,21.881
2008-07-10,21.5285
2008-07-11,21.6317
2008-07-14,21.8853
2008-07-15,22.2507
2008-07-16,22.5086
2008-07-17,21.6532
2008-07-18,21.5199
2008-07-21,21.3394
2008-07-22,22.0745
2008-07-23,22.5645
2008-07-24,22.2722
2008-07-25,22.3883
2008-07-28,21.9928
2008-07-29,22.1905
2008-07-30,22.0358
2008-07-31,22.1003
2008-08-01,22.8526
2008-08-04,23.1836
2008-08-05,23.5748
2008-08-06,23.794
2008-08-07,23.2137
2008-08-08,23.8026
2008-08-11,23.8026
2008-08-12,23.5619
2008-08-13,23.751
2008-08-14,23.6435
2008-08-15,23.6478
2008-08-18,23.3641
2008-08-19,23.3512
2008-08-20,23.3727
2008-08-21,23.0159
2008-08-22,23.3641
2008-08-25,23.0503
2008-08-26,23.0073
2008-08-27,23.1148
2008-08-28,22.8397
2008-08-29,22.3926
2008-09-02,22.3539
2008-09-03,22.2163
2008-09-04,22.2335
2008-09-05,22.3152
2008-09-08,22.917
2008-09-09,23.2137
2008-09-10,23.1019
2008-09-11,23.5086
2008-09-12,23.5996
2008-09-15,23.7424
2008-09-16,23.6688
2008-09-17,22.8506
2008-09-18,23.2229
2008-09-19,22.7683
2008-09-22,22.3094
2008-09-23,21.9501
2008-09-24,21.7076
2008-09-25,22.2444
2008-09-26,22.7337
2008-09-29,22.2012
2008-09-30,22.8722
2008-10-01,23.4307
2008-10-02,23.2445
2008-10-03,22.7293
2008-10-06,22.028
2008-10-07,21.3439
2008-10-08,20.4001
2008-10-09,19.2875
2008-10-10,18.4865
2008-10-13,20.4737
2008-10-14,18.7982
2008-10-15,19.2009
2008-10-16,19.8633
2008-10-17,19.1359
2008-10-20,20.1663
2008-10-21,19.9326
2008-10-22,19.6295
2008-10-23,18.5168
2008-10-24,18.0926
2008-10-27,17.8415
2008-10-28,19.5039
2008-10-29,18.9801
2008-10-30,19.3827
2008-10-31,18.9325
2008-11-03,19.6944
2008-11-04,19.9975
2008-11-05,19.3264
2008-11-06,19.2702
2008-11-07,20.0062
2008-11-10,19.8806
2008-11-11,19.2442
2008-11-12,18.9411
2008-11-13,20.0062
2008-11-14,19.5646
2008-11-17,19.0017
2008-11-18,18.7246
2008-11-19,18.2831
2008-11-20,17.8458
2008-11-21,19.0667
2008-11-24,19.5213
2008-11-25,19.5342
2008-11-26,19.792
2008-11-28,20.3858
2008-12-01,19.351
2008-12-02,19.1589
2008-12-03,20.185
2008-12-04,19.5344
2008-12-05,20.0671
2008-12-08,20.0365
2008-12-09,19.5694
2008-12-10,19.8008
2008-12-11,19.2812
2008-12-12,19.4034
2008-12-15,19.6174
2008-12-16,20.3247
2008-12-17,19.8881
2008-12-18,19.6785
2008-12-19,19.3903
2008-12-22,19.5388
2008-12-23,19.2113
2008-12-24,19.255
2008-12-26,19.4558
2008-12-29,19.3467
2008-12-30,19.6043
2008-12-31,19.8051
2009-01-02,20.006
2009-01-05,19.8226
2009-01-06,19.5257
2009-01-07,19.6261
2009-01-08,19.7353
2009-01-09,19.4777
2009-01-12,19.1153
2009-01-13,19.2419
2009-01-14,18.5957
2009-01-15,18.9013
2009-01-16,19.1633
2009-01-20,18.7485
2009-01-21,18.9101
2009-01-22,18.8446
2009-01-23,18.4472
2009-01-26,18.7834
2009-01-27,18.9363
2009-01-28,19.1589
2009-01-29,19.041
2009-01-30,18.6568
2009-02-02,18.4429
2009-02-03,18.9275
2009-02-04,18.5477
2009-02-05,18.6612
2009-02-06,18.9886
2009-02-09,18.456
2009-02-10,17.753
2009-02-11,17.9888
2009-02-12,19.3991
2009-02-13,19.1982
2009-02-17,18.6175
2009-02-18,18.6743
2009-02-19,18.9101
2009-02-20,18.7267
2009-02-23,18.3948
2009-02-24,18.7965
2009-02-25,18.4734
2009-02-26,17.9189
2009-02-27,17.8753
2009-03-02,17.347
2009-03-03,16.9889
2009-03-04,17.3557
2009-03-05,16.5392
2009-03-06,17.0719
2009-03-09,16.9584
2009-03-10,17.0762
2009-03-11,17.4775
2009-03-12,17.9982
2009-03-13,18.1835
2009-03-16,18.2144
2009-03-17,18.2674
2009-03-18,18.3468
2009-03-19,18.6159
2009-03-20,18.8189
2009-03-23,19.4631
2009-03-24,19.4102
2009-03-25,19.7676
2009-03-26,19.7544
2009-03-27,19.8691
2009-03-30,19.3572
2009-03-31,19.4102
2009-04-01,19.7852
2009-04-02,19.9441
2009-04-03,19.8249
2009-04-06,19.8602
2009-04-07,19.7058
2009-04-08,19.847
2009-04-09,19.8073
2009-04-13,19.7367
2009-04-14,19.5161
2009-04-15,19.8779
2009-04-16,19.9
2009-04-17,19.8779
2009-04-20,19.5867
2009-04-21,18.9734
2009-04-22,18.8983
2009-04-23,18.916
2009-04-24,18.8542
2009-04-27,18.6512
2009-04-28,18.6601
2009-04-29,18.8189
2009-04-30,18.9998
2009-05-01,18.7307
2009-05-04,19.0087
2009-05-05,19.0395
2009-05-06,18.916
2009-05-07,18.8675
2009-05-08,18.8895
2009-05-11,18.8366
2009-05-12,19.5867
2009-05-13,19.269
2009-05-14,19.7985
2009-05-15,19.847
2009-05-18,20.3236
2009-05-19,20.5883
2009-05-20,20.7339
2009-05-21,20.6059
2009-05-22,20.8751
2009-05-26,20.8177
2009-05-27,20.5574
2009-05-28,20.6898
2009-05-29,21.6252
2009-06-01,21.6164
2009-06-02,21.9032
2009-06-03,21.6473
2009-06-04,21.9341
2009-06-05,21.8414
2009-06-08,21.7708
2009-06-09,21.6605
2009-06-10,21.3472
2009-06-11,21.6186
2009-06-12,21.7565
2009-06-15,21.405
2009-06-16,21.2937
2009-06-17,21.3293
2009-06-18,22.0502
2009-06-19,21.7165
2009-06-22,21.3916
2009-06-23,21.2759
2009-06-24,21.1291
2009-06-25,21.2982
2009-06-26,21.4094
2009-06-29,21.4628
2009-06-30,21.3293
2009-07-01,21.85
2009-07-02,21.7521
2009-07-06,21.8188
2009-07-07,21.6319
2009-07-08,21.6052
2009-07-09,21.6586
2009-07-10,21.4984
2009-07-13,21.8099
2009-07-14,21.9167
2009-07-15,22.5041
2009-07-16,22.5887
2009-07-17,22.4418
2009-07-20,22.6955
2009-07-21,22.384
2009-07-22,21.85
2009-07-23,21.8678
2009-07-24,21.9924
2009-07-27,22.0413
2009-07-28,21.9746
2009-07-29,21.9301
2009-07-30,22.0769
2009-07-31,22.1704
2009-08-03,22.0636
2009-08-04,22.0146
2009-08-05,21.8856
2009-08-06,21.9968
2009-08-07,21.9523
2009-08-10,21.9924
2009-08-11,21.8144
2009-08-12,21.5785
2009-08-13,21.4094
2009-08-14,21.5429
2009-08-17,21.672
2009-08-18,21.6097
2009-08-19,21.9701
2009-08-20,21.9879
2009-08-21,22.1837
2009-08-24,21.8188
2009-08-25,21.6942
2009-08-26,21.8678
2009-08-27,21.9879
2009-08-28,21.8411
2009-08-31,21.672
2009-09-01,21.6319
2009-09-02,22.1392
2009-09-03,22.117
2009-09-04,22.2505
2009-09-08,22.4507
2009-09-09,22.513
2009-09-10,22.4863
2009-09-11,23.1232
2009-09-14,23.4149
2009-09-15,23.5315
2009-09-16,23.6347
2009-09-17,23.9667
2009-09-18,24.209
2009-09-21,23.7783
2009-09-22,23.711
2009-09-23,23.6212
2009-09-24,23.4821
2009-09-25,23.7558
2009-09-28,23.8411
2009-09-29,23.9218
2009-09-30,24.0744
2009-10-01,23.8366
2009-10-02,24.1731
2009-10-05,24.1417
2009-10-06,24.3705
2009-10-07,24.5993
2009-10-08,24.4781
2009-10-09,24.5051
2009-10-12,24.5589
2009-10-13,24.6038
2009-10-14,24.6127
2009-10-15,24.6262
2009-10-16,24.6621
2009-10-19,24.5679
2009-10-20,24.2448
2009-10-21,24.2807
2009-10-22,24.2628
2009-10-23,23.8635
2009-10-26,23.8814
2009-10-27,23.9801
2009-10-28,24.0116
2009-10-29,24.2269
2009-10-30,23.9173
2009-11-02,24.1013
2009-11-03,23.8231
2009-11-04,23.9622
2009-11-05,24.3929
2009-11-06,24.4378
2009-11-09,24.8774
2009-11-10,25.03
2009-11-11,25.178
2009-11-12,25.1152
2009-11-13,25.344
2009-11-16,25.4562
2009-11-17,25.51
2009-11-18,25.3844
2009-11-19,25.51
2009-11-20,25.7972
2009-11-23,26.1247
2009-11-24,26.1022
2009-11-25,26.0663
2009-11-27,25.8359
2009-11-30,25.8494
2009-12-01,26.2335
2009-12-02,26.1883
2009-12-03,25.8314
2009-12-04,25.9353
2009-12-07,26.1612
2009-12-08,26.0708
2009-12-09,26.116
2009-12-10,26.4413
2009-12-11,26.7125
2009-12-14,26.6763
2009-12-15,26.6808
2009-12-16,26.3826
2009-12-17,25.7636
2009-12-18,25.6823
2009-12-21,25.8449
2009-12-22,25.872
2009-12-23,25.8811
2009-12-24,25.9534
2009-12-28,25.9489
2009-12-29,26.107
2009-12-30,26.0437
2009-12-31,25.7681
2010-01-04,25.7681
2010-01-05,25.4518
2010-01-06,25.4428
2010-01-07,25.3841
2010-01-08,24.9051
2010-01-11,25.4428
2010-01-12,25.7049
2010-01-13,25.7681
2010-01-14,25.8088
2010-01-15,25.4518
2010-01-19,25.488
2010-01-20,25.0723
2010-01-21,24.5617
2010-01-22,24.4985
2010-01-25,24.5617
2010-01-26,24.4714
2010-01-27,24.6385
2010-01-28,24.4939
2010-01-29,24.5165
2010-02-01,24.5662
2010-02-02,24.8825
2010-02-03,24.7831
2010-02-04,24.1505
2010-02-05,23.9924
2010-02-08,23.8072
2010-02-09,24.3945
2010-02-10,24.3177
2010-02-11,24.4939
2010-02-12,24.3719
2010-02-16,24.765
2010-02-17,24.991
2010-02-18,25.2485
2010-02-19,25.1762
2010-02-22,25.009
2010-02-23,24.7605
2010-02-24,24.9232
2010-02-25,23.9834
2010-02-26,23.8659
2010-03-01,24.0783
2010-03-02,24.0647
2010-03-03,24.3765
2010-03-04,24.6205
2010-03-05,24.6973
2010-03-08,24.5979
2010-03-09,24.4668
2010-03-10,24.4985
2010-03-11,24.3938
2010-03-12,24.2981
2010-03-15,24.4393
2010-03-16,24.4803
2010-03-17,24.535
2010-03-18,24.576
2010-03-19,24.8994
2010-03-22,24.8402
2010-03-23,25.1818
2010-03-24,24.8903
2010-03-25,24.9541
2010-03-26,24.8948
2010-03-29,24.9541
2010-03-30,24.9723
2010-03-31,25.0634
2010-04-01,25.1909
2010-04-05,24.9814
2010-04-06,24.7217
2010-04-07,24.5076
2010-04-08,24.4803
2010-04-09,24.8675
2010-04-12,24.9723
2010-04-13,25.0679
2010-04-14,25.0315
2010-04-15,24.7126
2010-04-16,25.0406
2010-04-19,25.1727
2010-04-20,24.7992
2010-04-21,24.6807
2010-04-22,24.7491
2010-04-23,24.5578
2010-04-26,24.4849
2010-04-27,24.0886
2010-04-28,24.3118
2010-04-29,24.453
2010-04-30,24.33
2010-05-03,24.4712
2010-05-04,24.2161
2010-05-05,24.4393
2010-05-06,23.838
2010-05-07,24.0293
2010-05-10,24.6079
2010-05-11,24.4439
2010-05-12,24.5987
2010-05-13,24.3755
2010-05-14,24.2935
2010-05-17,24.3254
2010-05-18,24.1979
2010-05-19,24.1705
2010-05-20,23.51
2010-05-21,23.4918
2010-05-24,23.4326
2010-05-25,23.0545
2010-05-26,22.804
2010-05-27,23.3096
2010-05-28,23.4098
2010-06-01,23.3734
2010-06-02,23.8471
2010-06-03,24.0066
2010-06-04,23.3141
2010-06-07,23.1319
2010-06-08,23.4918
2010-06-09,23.428
2010-06-10,23.8745
2010-06-11,23.7273
2010-06-14,23.64
2010-06-15,23.9616
2010-06-16,24.081
2010-06-17,24.0672
2010-06-18,24.0443
2010-06-21,24.1132
2010-06-22,24.1132
2010-06-23,23.9662
2010-06-24,23.7503
2010-06-25,23.3598
2010-06-28,23.47
2010-06-29,23.1025
2010-06-30,23.052
2010-07-01,22.9785
2010-07-02,23.0152
2010-07-06,23.1485
2010-07-07,23.663
2010-07-08,24.0856
2010-07-09,24.0718
2010-07-12,24.104
2010-07-13,24.2372
2010-07-14,24.2418
2010-07-15,24.2877
2010-07-16,24.0305
2010-07-19,24.0029
2010-07-20,24.4853
2010-07-21,24.7931
2010-07-22,24.9309
2010-07-23,25.1606
2010-07-26,25.2249
2010-07-27,25.28
2010-07-28,25.2111
2010-07-29,25.2616
2010-07-30,25.3306
2010-08-02,25.9186
2010-08-03,25.9048
2010-08-04,26.0059
2010-08-05,25.868
2010-08-06,26.0794
2010-08-09,26.2355
2010-08-10,26.162
2010-08-11,25.7532
2010-08-12,25.5878
2010-08-13,25.6062
2010-08-16,25.6889
2010-08-17,25.7716
2010-08-18,25.6751
2010-08-19,25.3949
2010-08-20,25.4178
2010-08-23,25.5419
2010-08-24,25.5786
2010-08-25,25.4684
2010-08-26,25.3443
2010-08-27,25.8175
2010-08-30,25.5235
2010-08-31,25.6567
2010-09-01,26.3228
2010-09-02,26.355
2010-09-03,26.4469
2010-09-07,26.4652
2010-09-08,26.5341
2010-09-09,26.7868
2010-09-10,26.8879
2010-09-13,26.8787
2010-09-14,26.6611
2010-09-15,26.587
2010-09-16,26.6102
2010-09-17,26.6426
2010-09-20,26.8324
2010-09-21,26.9018
2010-09-22,26.9342
2010-09-23,26.7907
2010-09-24,27.1286
2010-09-27,27.1286
2010-09-28,27.3739
2010-09-29,27.1888
2010-09-30,27.1008
2010-10-01,27.3508
2010-10-04,27.2536
2010-10-05,27.6146
2010-10-06,27.6794
2010-10-07,27.4989
2010-10-08,27.4943
2010-10-11,27.5637
2010-10-12,27.6007
2010-10-13,27.7396
2010-10-14,27.7211
2010-10-15,27.735
2010-10-18,27.7627
2010-10-19,27.897
2010-10-20,28.2997
2010-10-21,28.4478
2010-10-22,28.4987
2010-10-25,28.2349
2010-10-26,28.3321
2010-10-27,28.3228
2010-10-28,28.3459
2010-10-29,28.3876
2010-11-01,28.5542
2010-11-02,28.6005
2010-11-03,28.6699
2010-11-04,28.9292
2010-11-05,28.9754
2010-11-08,28.8875
2010-11-09,28.9708
2010-11-10,28.9384
2010-11-11,29.0634
2010-11-12,29.1282
2010-11-15,29.1513
2010-11-16,28.7301
2010-11-17,28.9569
2010-11-18,29.5355
2010-11-19,29.7623
2010-11-22,29.7577
2010-11-23,29.4429
2010-11-24,29.8919
2010-11-26,29.6651
2010-11-29,29.539
2010-11-30,29.4737
2010-12-01,30.1309
2010-12-02,30.2427
2010-12-03,30.061
2010-12-06,29.8326
2010-12-07,29.8978
2010-12-08,30.0004
2010-12-09,30.1961
2010-12-10,30.1309
2010-12-13,30.2194
2010-12-14,29.772
2010-12-15,30.1728
2010-12-16,30.4198
2010-12-17,30.6389
2010-12-20,30.4245
2010-12-21,30.5084
2010-12-22,30.5457
2010-12-23,30.5363
2010-12-27,30.3313
2010-12-28,30.4711
2010-12-29,30.5084
2010-12-30,30.5224
2010-12-31,30.6529
2011-01-03,30.3732
2011-01-04,29.772
2011-01-05,29.5949
2011-01-06,29.4085
2011-01-07,29.3153
2011-01-10,29.4178
2011-01-11,29.2267
2011-01-12,29.3852
2011-01-13,29.5017
2011-01-14,29.4318
2011-01-18,29.6042
2011-01-19,29.5343
2011-01-20,29.3199
2011-01-21,29.25
2011-01-24,29.4551
2011-01-25,29.3432
2011-01-26,29.3665
2011-01-27,29.2174
2011-01-28,28.9937
2011-01-31,29.2826
2011-02-01,29.3852
2011-02-02,29.292
2011-02-03,29.1568
2011-02-04,29.1521
2011-02-07,29.1195
2011-02-08,29.3106
2011-02-09,29.4318
2011-02-10,29.5902
2011-02-11,29.5996
2011-02-14,29.4178
2011-02-15,29.4411
2011-02-16,29.5529
2011-02-17,30.0703
2011-02-18,30.0237
2011-02-22,29.7068
2011-02-23,29.7813
2011-02-24,29.7906
2011-02-25,29.991
2011-02-28,29.786
2011-03-01,30.2567
2011-03-02,30.033
2011-03-03,30.5503
2011-03-04,30.3732
2011-03-07,30.3872
2011-03-08,30.6016
2011-03-09,30.5829
2011-03-10,30.4291
2011-03-11,30.4339
2011-03-14,29.9973
2011-03-15,29.617
2011-03-16,28.9176
2011-03-17,29.2649
2011-03-18,29.4292
2011-03-21,29.8189
2011-03-22,29.833
2011-03-23,30.1804
2011-03-24,30.3728
2011-03-25,30.5982
2011-03-28,30.5512
2011-03-29,30.8423
2011-03-30,31.0394
2011-03-31,31.1521
2011-04-01,31.5652
2011-04-04,31.7765
2011-04-05,31.6685
2011-04-06,31.7765
2011-04-07,31.6356
2011-04-08,31.5934
2011-04-11,31.645
2011-04-12,31.4244
2011-04-13,31.5746
2011-04-14,32.0816
2011-04-15,31.9267
2011-04-18,31.6075
2011-04-19,31.476
2011-04-20,31.8563
2011-04-21,31.8563
2011-04-25,31.7952
2011-04-26,31.4478
2011-04-27,31.4385
2011-04-28,31.6262
2011-04-29,31.6638
2011-05-02,31.7765
2011-05-03,31.8516
2011-05-04,31.6779
2011-05-05,31.2929
2011-05-06,31.4385
2011-05-09,31.415
2011-05-10,31.6168
2011-05-11,31.5934
2011-05-12,32.0628
2011-05-13,32.0112
2011-05-16,31.8703
2011-05-17,31.9079
2011-05-18,32.0487
2011-05-19,32.1285
2011-05-20,32.091
2011-05-23,31.692
2011-05-24,31.6779
2011-05-25,31.4244
2011-05-26,31.2882
2011-05-27,31.2225
2011-05-31,31.3633
2011-06-01,31.368
2011-06-02,30.9831
2011-06-03,30.7672
2011-06-06,30.7202
2011-06-07,30.6075
2011-06-08,30.7249
2011-06-09,30.9362
2011-06-10,30.6686
2011-06-13,30.7913
2011-06-14,31.0183
2011-06-15,30.7109
2011-06-16,30.9426
2011-06-17,31.0561
2011-06-20,31.1223
2011-06-21,31.3209
2011-06-22,31.3965
2011-06-23,30.7346
2011-06-24,30.7062
2011-06-27,30.8386
2011-06-28,31.2169
2011-06-29,31.5526
2011-06-30,31.8316
2011-07-01,32.1862
2011-07-05,32.3139
2011-07-06,32.399
2011-07-07,32.5172
2011-07-08,32.451
2011-07-11,32.1909
2011-07-12,32.1011
2011-07-13,32.2004
2011-07-14,31.9971
2011-07-15,31.9119
2011-07-18,31.7559
2011-07-19,32.7347
2011-07-20,32.5645
2011-07-21,32.7914
2011-07-22,32.9664
2011-07-25,32.7631
2011-07-26,32.711
2011-07-27,32.5172
2011-07-28,32.5361
2011-07-29,32.2098
2011-08-01,32.0254
2011-08-02,31.737
2011-08-03,32.3706
2011-08-04,31.1601
2011-08-05,31.5999
2011-08-08,30.8812
2011-08-09,31.4817
2011-08-10,30.1766
2011-08-11,31.4486
2011-08-12,31.7134
2011-08-15,32.2477
2011-08-16,32.224
2011-08-17,32.7583
2011-08-18,32.0491
2011-08-19,31.7039
2011-08-22,31.8032
2011-08-23,32.6165
2011-08-24,32.9238
2011-08-25,32.1436
2011-08-26,32.3848
2011-08-29,32.9758
2011-08-30,33.042
2011-08-31,33.2264
2011-09-01,33.2832
2011-09-02,32.9758
2011-09-06,32.8765
2011-09-07,33.4392
2011-09-08,33.6756
2011-09-09,32.8151
2011-09-12,32.7914
2011-09-13,32.9199
2011-09-14,33.2626
2011-09-15,33.7815
2011-09-16,33.8958
2011-09-19,33.5578
2011-09-20,33.6911
2011-09-21,33.0484
2011-09-22,32.3343
2011-09-23,32.0629
2011-09-26,32.7628
2011-09-27,33.1103
2011-09-28,32.4057
2011-09-29,32.8246
2011-09-30,32.1915
2011-10-03,31.206
2011-10-04,31.1203
2011-10-05,31.2203
2011-10-06,31.1489
2011-10-07,31.3536
2011-10-10,31.8249
2011-10-11,31.7773
2011-10-12,32.1582
2011-10-13,32.0868
2011-10-14,32.2867
2011-10-17,31.8202
2011-10-18,31.7535
2011-10-19,31.882
2011-10-20,31.9487
2011-10-21,32.4438
2011-10-24,32.3153
2011-10-25,31.8297
2011-10-26,32.1058
2011-10-27,32.5866
2011-10-28,32.8056
2011-10-31,32.5628
2011-11-01,31.8916
2011-11-02,32.2629
2011-11-03,32.7056
2011-11-04,32.1915
2011-11-07,32.4866
2011-11-08,32.6913
2011-11-09,31.9392
2011-11-10,32.082
2011-11-11,32.4343
2011-11-14,32.2629
2011-11-15,32.4057
2011-11-16,31.882
2011-11-17,31.6107
2011-11-18,32.0677
2011-11-21,31.425
2011-11-22,31.4107
2011-11-23,30.9013
2011-11-25,30.8204
2011-11-28,30.9966
2011-11-29,31.7636
2011-11-30,32.2048
2011-12-01,32.0081
2011-12-02,31.8835
2011-12-05,31.778
2011-12-06,31.9986
2011-12-07,31.989
2011-12-08,31.9458
2011-12-09,32.4301
2011-12-12,32.0705
2011-12-13,31.8691
2011-12-14,31.7636
2011-12-15,32.0705
2011-12-16,32.3582
2011-12-19,32.3102
2011-12-20,32.7898
2011-12-21,33.346
2011-12-22,33.1542
2011-12-23,33.533
2011-12-27,33.5282
2011-12-28,33.2981
2011-12-29,33.6385
2011-12-30,33.5666
2012-01-03,33.6337
2012-01-04,33.4227
2012-01-05,33.2741
2012-01-06,33.0391
2012-01-09,33.0535
2012-01-10,33.2645
2012-01-11,32.6315
2012-01-12,32.4062
2012-01-13,32.0897
2012-01-17,32.3102
2012-01-18,32.4014
2012-01-19,32.3678
2012-01-20,32.6507
2012-01-23,32.8665
2012-01-24,32.5308
2012-01-25,32.8329
2012-01-26,32.5932
2012-01-27,32.3678
2012-01-30,32.3342
2012-01-31,32.3822
2012-02-01,32.5356
2012-02-02,32.5548
2012-02-03,32.6267
2012-02-06,32.6028
2012-02-07,32.9001
2012-02-08,32.7466
2012-02-09,32.5932
2012-02-10,32.5404
2012-02-13,32.8042
2012-02-14,33.0103
2012-02-15,32.761
2012-02-16,33.0391
2012-02-17,33.1158
2012-02-21,32.996
2012-02-22,33.1926
2012-02-23,33.1734
2012-02-24,33.0871
2012-02-27,33.0487
2012-02-28,33.0439
2012-02-29,33.4851
2012-03-01,33.3796
2012-03-02,33.1638
2012-03-05,33.1926
2012-03-06,32.996
2012-03-07,32.9864
2012-03-08,33.2213
2012-03-09,33.3268
2012-03-12,33.6433
2012-03-13,33.938
2012-03-14,33.9187
2012-03-15,33.9525
2012-03-16,33.9042
2012-03-19,33.9911
2012-03-20,34.0926
2012-03-21,34.3727
2012-03-22,34.5032
2012-03-23,34.5804
2012-03-26,34.7157
2012-03-27,34.7157
2012-03-28,35.0925
2012-03-29,35.6431
2012-03-30,35.7252
2012-04-02,35.7977
2012-04-03,35.6286
2012-04-04,35.5127
2012-04-05,35.5079
2012-04-09,35.2132
2012-04-10,34.8123
2012-04-11,34.8558
2012-04-12,34.8509
2012-04-13,34.764
2012-04-16,35.0345
2012-04-17,35.7059
2012-04-18,35.817
2012-04-19,35.6431
2012-04-20,35.8315
2012-04-23,35.5948
2012-04-24,35.7929
2012-04-25,36.1793
2012-04-26,36.5705
2012-04-27,37.0053
2012-04-30,36.87
2012-05-01,37.1309
2012-05-02,37.2613
2012-05-03,37.4352
2012-05-04,37.213
2012-05-07,37.3482
2012-05-08,37.2661
2012-05-09,37.1115
2012-05-10,37.3869
2012-05-11,37.4158
2012-05-14,37.1115
2012-05-15,37.0004
2012-05-16,36.8748
2012-05-17,36.3339
2012-05-18,35.7445
2012-05-21,36.015
2012-05-22,35.8025
2012-05-23,35.9957
2012-05-24,36.5077
2012-05-25,36.3242
2012-05-29,36.4401
2012-05-30,36.2566
2012-05-31,36.1551
2012-06-01,35.2953
2012-06-04,35.6045
2012-06-05,35.4016
2012-06-06,35.9812
2012-06-07,35.9088
2012-06-08,36.3339
2012-06-11,36.0585
2012-06-12,36.3387
2012-06-13,36.2804
2012-06-14,36.8251
2012-06-15,37.0488
2012-06-18,36.9467
2012-06-19,36.8494
2012-06-20,36.6841
2012-06-21,36.295
2012-06-22,36.5139
2012-06-25,36.3436
2012-06-26,36.5576
2012-06-27,37.1364
2012-06-28,37.2239
2012-06-29,37.9729
2012-07-02,38.3862
2012-07-03,38.4495
2012-07-05,38.1674
2012-07-06,38.0069
2012-07-09,37.9631
2012-07-10,37.9242
2012-07-11,37.7005
2012-07-12,37.2677
2012-07-13,37.5741
2012-07-16,37.1461
2012-07-17,37.7978
2012-07-18,37.6519
2012-07-19,37.7102
2012-07-20,37.4817
2012-07-23,37.3844
2012-07-24,37.2969
2012-07-25,37.4622
2012-07-26,38.323
2012-07-27,38.8872
2012-07-30,39.4416
2012-07-31,39.3784
2012-08-01,39.3638
2012-08-02,38.7607
2012-08-03,39.3151
2012-08-06,39.2422
2012-08-07,38.7899
2012-08-08,38.6732
2012-08-09,38.5273
2012-08-10,38.3619
2012-08-13,38.1966
2012-08-14,38.2647
2012-08-15,38.2452
2012-08-16,38.4008
2012-08-17,38.4008
2012-08-20,38.3717
2012-08-21,38.1868
2012-08-22,37.7394
2012-08-23,37.0391
2012-08-24,37.4087
2012-08-27,37.0877
2012-08-28,36.9321
2012-08-29,36.4458
2012-08-30,36.1151
2012-08-31,36.4847
2012-09-04,36.261
2012-09-05,36.4944
2012-09-06,37.0586
2012-09-07,36.8348
2012-09-10,36.6014
2012-09-11,36.7473
2012-09-12,36.7621
2012-09-13,37.5063
2012-09-14,37.3496
2012-09-17,37.4867
2012-09-18,37.8393
2012-09-19,37.7511
2012-09-20,37.8197
2012-09-21,37.1244
2012-09-24,37.3202
2012-09-25,36.8991
2012-09-26,37.0069
2012-09-27,37.4573
2012-09-28,37.1929
2012-10-01,37.5455
2012-10-02,37.5651
2012-10-03,37.4377
2012-10-04,37.5161
2012-10-05,37.7315
2012-10-08,37.7805
2012-10-09,37.7217
2012-10-10,37.2909
2012-10-11,37.3398
2012-10-12,37.4377
2012-10-15,37.3986
2012-10-16,37.1048
2012-10-17,36.9285
2012-10-18,37.1048
2012-10-19,36.6543
2012-10-22,36.4487
2012-10-23,35.8807
2012-10-24,36.1059
2012-10-25,36.341
2012-10-26,36.2626
2012-10-31,36.4487
2012-11-01,36.5858
2012-11-02,36.3116
2012-11-05,36.0276
2012-11-06,36.625
2012-11-07,35.9884
2012-11-08,35.6457
2012-11-09,35.4792
2012-11-12,35.3029
2012-11-13,35.4204
2012-11-14,35.2442
2012-11-15,35.724
2012-11-16,35.8415
2012-11-19,36.4585
2012-11-20,36.4487
2012-11-21,36.6152
2012-11-23,37.0754
2012-11-26,36.5466
2012-11-27,36.6347
2012-11-28,37.0439
2012-11-29,37.4284
2012-11-30,37.4284
2012-12-03,36.827
2012-12-04,36.6889
2012-12-05,36.6988
2012-12-06,36.8171
2012-12-07,37.1721
2012-12-10,37.0833
2012-12-11,37.3002
2012-12-12,37.0735
2012-12-13,37.0636
2012-12-14,37.0636
2012-12-17,37.0439
2012-12-18,36.7678
2012-12-19,36.2945
2012-12-20,36.541
2012-12-21,36.3438
2012-12-24,36.1762
2012-12-26,35.91
2012-12-27,35.9198
2012-12-28,35.5156
2012-12-31,35.6931
2013-01-02,37.044
2013-01-03,36.9946
2013-01-04,37.1228
2013-01-07,36.7777
2013-01-08,36.4819
2013-01-09,36.472
2013-01-10,36.3932
2013-01-11,36.3636
2013-01-14,36.4425
2013-01-15,36.8369
2013-01-16,36.7481
2013-01-17,37.0242
2013-01-18,37.1622
2013-01-22,36.5904
2013-01-23,36.6101
2013-01-24,36.6002
2013-01-25,36.4622
2013-01-28,36.5558
2013-01-29,36.9551
2013-01-30,36.965
2013-01-31,36.717
2013-02-01,36.9749
2013-02-04,36.8368
2013-02-05,37.5862
2013-02-06,37.7538
2013-02-07,38.3454
2013-02-08,38.1778
2013-02-11,38.0299
2013-02-12,37.0044
2013-02-13,36.6988
2013-02-14,36.3241
2013-02-15,36.8467
2013-02-19,37.1228
2013-02-20,37.2214
2013-02-21,37.182
2013-02-22,37.9708
2013-02-25,37.2411
2013-02-26,37.5911
2013-02-27,37.9116
2013-02-28,38.2271
2013-03-01,38.1581
2013-03-04,38.2666
2013-03-05,38.099
2013-03-06,38.4539
2013-03-07,38.5821
2013-03-08,38.6412
2013-03-11,38.7398
2013-03-12,38.3849
2013-03-13,38.2953
2013-03-14,38.7124
2013-03-15,38.5138
2013-03-18,38.484
2013-03-19,39.0799
2013-03-20,39.5765
2013-03-21,39.7652
2013-03-22,39.7552
2013-03-25,39.8843
2013-03-26,40.371
2013-03-27,39.9241
2013-03-28,40.1823
2013-04-01,40.1326
2013-04-02,40.4107
2013-04-03,39.9141
2013-04-04,40.2716
2013-04-05,39.8347
2013-04-08,40.5795
2013-04-09,40.4405
2013-04-10,40.7881
2013-04-11,40.9271
2013-04-12,40.7583
2013-04-15,39.9241
2013-04-16,42.1189
2013-04-17,42.2579
2013-04-18,41.8011
2013-04-19,42.3771
2013-04-22,42.4069
2013-04-23,42.4367
2013-04-24,41.8408
2013-04-25,42.0096
2013-04-26,41.8805
2013-04-29,41.8905
2013-04-30,42.0096
2013-05-01,41.8805
2013-05-02,41.662
2013-05-03,41.9401
2013-05-06,41.7911
2013-05-07,42.387
2013-05-08,42.1685
2013-05-09,41.7911
2013-05-10,41.8309
2013-05-13,41.9103
2013-05-14,42.2083
2013-05-15,42.6353
2013-05-16,42.7942
2013-05-17,42.6452
2013-05-20,42.0891
2013-05-21,42.0494
2013-05-22,41.9302
2013-05-23,41.6422
2013-05-24,41.9401
2013-05-28,42.2381
2013-05-29,41.1456
2013-05-30,40.4802
2013-05-31,39.7949
2013-06-03,40.51
2013-06-04,41.1257
2013-06-05,40.3511
2013-06-06,40.4802
2013-06-07,41.1555
2013-06-10,40.8477
2013-06-11,40.5001
2013-06-12,40.39
2013-06-13,40.41
2013-06-14,40.34
2013-06-17,40.69
2013-06-18,40.95
2013-06-19,40.46
2013-06-20,39.19
2013-06-21,39.76
2013-06-24,39.57
2013-06-25,39.74
2013-06-26,40.39
2013-06-27,40.24
2013-06-28,40.19
2013-07-01,40.46
2013-07-02,40.36
2013-07-03,40.56
2013-07-05,40.48
2013-07-08,40.49
2013-07-09,40.86
2013-07-10,40.67
2013-07-11,41.05
2013-07-12,41.0
2013-07-15,41.05
2013-07-16,40.18
2013-07-17,40.97
2013-07-18,40.79
2013-07-19,41.09
2013-07-22,40.81
2013-07-23,41.01
2013-07-24,40.84
2013-07-25,40.81
2013-07-26,40.62
2013-07-29,40.31
2013-07-30,40.39
2013-07-31,40.09
2013-08-01,40.59
2013-08-02,40.22
2013-08-05,40.25
2013-08-06,40.35
2013-08-07,40.14
2013-08-08,40.23
2013-08-09,40.16
