date,close_price
1998-01-02,4.525
1998-01-05,4.375
1998-01-06,4.225
1998-01-07,4.075
1998-01-08,4.375
1998-01-09,4.225
1998-01-12,3.9
1998-01-13,3.9
1998-01-14,4.375
1998-01-15,3.9
1998-01-16,4.225
1998-01-20,5.15
1998-01-21,5.475
1998-01-22,5.475
1998-01-23,5.325
1998-01-26,5.15
1998-01-27,4.85
1998-01-28,5.15
1998-01-29,5.0
1998-01-30,5.15
1998-02-02,5.0
1998-02-03,5.325
1998-02-04,5.325
1998-02-05,5.475
1998-02-06,5.325
1998-02-09,5.325
1998-02-10,5.325
1998-02-11,5.325
1998-02-12,5.15
1998-02-13,5.15
1998-02-17,5.15
1998-02-18,5.0
1998-02-19,5.0
1998-02-20,5.15
1998-02-23,5.0
1998-02-24,4.85
1998-02-25,5.0
1998-02-26,4.85
1998-02-27,4.85
1998-03-02,4.85
1998-03-03,4.85
1998-03-04,4.85
1998-03-05,4.85
1998-03-06,4.7
1998-03-09,4.85
1998-03-10,4.85
1998-03-11,4.85
1998-03-12,4.85
1998-03-13,4.85
1998-03-16,5.0
1998-03-17,5.0
1998-03-18,4.7
1998-03-19,4.7
1998-03-20,4.85
1998-03-23,4.85
1998-03-24,4.85
1998-03-25,4.85
1998-03-26,5.0
1998-03-27,4.7
1998-03-30,4.7
1998-03-31,4.85
1998-04-01,4.7
1998-04-02,5.0
1998-04-03,4.85
1998-04-06,4.85
1998-04-07,4.85
1998-04-08,4.85
1998-04-09,4.85
1998-04-13,4.85
1998-04-14,4.85
1998-04-15,4.85
1998-04-16,4.85
1998-04-17,4.85
1998-04-20,5.325
1998-04-21,5.0
1998-04-22,4.85
1998-04-23,5.325
1998-04-24,5.475
1998-04-27,6.1
1998-04-28,5.95
1998-04-29,6.575
1998-04-30,6.25
1998-05-01,6.25
1998-05-04,6.4
1998-05-05,6.25
1998-05-06,6.1
1998-05-07,6.1
1998-05-08,6.25
1998-05-11,6.25
1998-05-12,6.1
1998-05-13,6.1
1998-05-14,6.1
1998-05-15,5.95
1998-05-18,5.95
1998-05-19,5.775
1998-05-20,5.95
1998-05-21,5.325
1998-05-22,5.475
1998-05-26,5.625
1998-05-27,5.475
1998-05-28,5.475
1998-05-29,5.325
1998-06-01,5.325
1998-06-02,5.325
1998-06-03,5.0
1998-06-04,5.15
1998-06-05,5.325
1998-06-08,5.325
1998-06-09,5.325
1998-06-10,5.15
1998-06-11,5.325
1998-06-12,5.325
1998-06-15,5.15
1998-06-16,5.0
1998-06-17,5.325
1998-06-18,5.15
1998-06-19,5.15
1998-06-22,5.15
1998-06-23,5.625
1998-06-24,6.1
1998-06-25,5.95
1998-06-26,5.775
1998-06-29,5.775
1998-06-30,5.95
1998-07-01,5.625
1998-07-02,5.625
1998-07-06,5.775
1998-07-07,5.475
1998-07-08,5.625
1998-07-09,5.475
1998-07-10,5.475
1998-07-13,5.625
1998-07-14,5.475
1998-07-15,5.625
1998-07-16,5.475
1998-07-17,5.475
1998-07-20,5.625
1998-07-21,5.475
1998-07-22,5.625
1998-07-23,5.625
1998-07-24,5.95
1998-07-27,5.775
1998-07-28,5.475
1998-07-29,5.775
1998-07-30,5.475
1998-07-31,5.325
1998-08-03,5.325
1998-08-04,5.325
1998-08-05,5.15
1998-08-06,5.325
1998-08-07,5.325
1998-08-10,5.0
1998-08-11,4.85
1998-08-12,4.85
1998-08-13,4.85
1998-08-14,4.85
1998-08-17,4.7
1998-08-18,4.85
1998-08-19,4.85
1998-08-20,4.85
1998-08-21,4.85
1998-08-24,4.7
1998-08-25,4.7
1998-08-26,4.525
1998-08-27,4.375
1998-08-28,3.75
1998-08-31,3.125
1998-09-01,3.6
1998-09-02,3.6
1998-09-03,3.45
1998-09-04,3.45
1998-09-08,3.6
1998-09-09,3.6
1998-09-10,3.6
1998-09-11,3.45
1998-09-14,3.45
1998-09-15,3.6
1998-09-16,3.75
1998-09-17,3.6
1998-09-18,3.6
1998-09-21,3.6
1998-09-22,3.75
1998-09-23,4.075
1998-09-24,3.9
1998-09-25,3.75
1998-09-28,4.075
1998-09-29,3.9
1998-09-30,4.075
1998-10-01,3.75
1998-10-02,3.9
1998-10-05,3.6
1998-10-06,4.075
1998-10-07,3.75
1998-10-08,3.9
1998-10-09,3.75
1998-10-12,3.9
1998-10-13,3.9
1998-10-14,3.75
1998-10-15,3.75
1998-10-16,4.075
1998-10-19,4.375
1998-10-20,4.075
1998-10-21,4.225
1998-10-22,4.375
1998-10-23,4.375
1998-10-26,4.225
1998-10-27,4.375
1998-10-28,4.525
1998-10-29,4.225
1998-10-30,4.075
1998-11-02,4.075
1998-11-03,3.9
1998-11-04,4.225
1998-11-05,4.225
1998-11-06,4.225
1998-11-09,4.225
1998-11-10,3.9
1998-11-11,4.075
1998-11-12,3.9
1998-11-13,3.9
1998-11-16,3.9
1998-11-17,3.75
1998-11-18,3.75
1998-11-19,3.75
1998-11-20,3.6
1998-11-23,3.45
1998-11-24,3.275
1998-11-25,3.6
1998-11-27,3.6
1998-11-30,3.45
1998-12-01,3.275
1998-12-02,3.45
1998-12-03,3.275
1998-12-04,3.275
1998-12-07,3.45
1998-12-08,3.125
1998-12-09,3.125
1998-12-10,3.125
1998-12-11,3.45
1998-12-14,3.125
1998-12-15,3.275
1998-12-16,3.125
1998-12-17,3.125
1998-12-18,3.275
1998-12-21,3.275
1998-12-22,3.45
1998-12-23,3.275
1998-12-24,3.275
1998-12-28,3.125
1998-12-29,3.125
1998-12-30,3.45
1998-12-31,3.275
1999-01-04,3.275
1999-01-05,3.6
1999-01-06,3.75
1999-01-07,3.6
1999-01-08,3.75
1999-01-11,3.6
1999-01-12,3.6
1999-01-13,3.45
1999-01-14,3.6
1999-01-15,3.75
1999-01-19,3.9
1999-01-20,3.9
1999-01-21,4.225
1999-01-22,4.075
1999-01-25,3.9
1999-01-26,4.075
1999-01-27,4.225
1999-01-28,4.225
1999-01-29,4.225
1999-02-01,4.375
1999-02-02,4.375
1999-02-03,4.525
1999-02-04,4.225
1999-02-05,4.375
1999-02-08,4.225
1999-02-09,4.525
1999-02-10,5.325
1999-02-11,5.325
1999-02-12,4.85
1999-02-16,5.15
1999-02-17,4.85
1999-02-18,4.7
1999-02-19,4.525
1999-02-22,4.7
1999-02-23,4.85
1999-02-24,4.525
1999-02-25,4.525
1999-02-26,4.525
1999-03-01,4.375
1999-03-02,4.225
1999-03-03,4.225
1999-03-04,4.375
1999-03-05,4.525
1999-03-08,4.375
1999-03-09,4.375
1999-03-10,4.375
1999-03-11,4.225
1999-03-12,4.075
1999-03-15,4.075
1999-03-16,4.225
1999-03-17,4.225
1999-03-18,4.225
1999-03-19,4.375
1999-03-22,4.375
1999-03-23,4.075
1999-03-24,4.225
1999-03-25,4.375
1999-03-26,4.375
1999-03-29,4.225
1999-03-30,4.225
1999-03-31,4.375
1999-04-01,4.375
1999-04-05,4.375
1999-04-06,4.375
1999-04-07,4.225
1999-04-08,4.225
1999-04-09,4.375
1999-04-12,4.525
1999-04-13,4.85
1999-04-14,4.7
1999-04-15,5.15
1999-04-16,5.0
1999-04-19,5.0
1999-04-20,4.85
1999-04-21,5.15
1999-04-22,5.15
1999-04-23,5.325
1999-04-26,5.15
1999-04-27,5.15
1999-04-28,5.15
1999-04-29,5.0
1999-04-30,5.325
1999-05-03,5.95
1999-05-04,6.25
1999-05-05,6.25
1999-05-06,6.4
1999-05-07,6.25
1999-05-10,6.4
1999-05-11,6.4
1999-05-12,6.4
1999-05-13,6.4
1999-05-14,6.1
1999-05-17,6.1
1999-05-18,6.1
1999-05-19,6.1
1999-05-20,6.1
1999-05-21,6.25
1999-05-24,6.1
1999-05-25,6.25
1999-05-26,6.25
1999-05-27,6.25
1999-05-28,6.25
1999-06-01,6.25
1999-06-02,6.4
1999-06-03,6.4
1999-06-04,6.725
1999-06-07,7.025
1999-06-08,7.2
1999-06-09,7.2
1999-06-10,7.2
1999-06-11,7.025
1999-06-14,6.875
1999-06-15,6.875
1999-06-16,6.725
1999-06-17,6.875
1999-06-18,6.575
1999-06-21,6.575
1999-06-22,6.725
1999-06-23,6.725
1999-06-24,6.875
1999-06-25,6.875
1999-06-28,7.025
1999-06-29,7.025
1999-06-30,7.2
1999-07-01,6.875
1999-07-02,7.025
1999-07-06,7.35
1999-07-07,7.2
1999-07-08,7.2
1999-07-09,7.5
1999-07-12,7.2
1999-07-13,7.2
1999-07-14,7.35
1999-07-15,7.5
1999-07-16,7.825
1999-07-19,7.975
1999-07-20,7.5
1999-07-21,7.35
1999-07-22,7.35
1999-07-23,7.35
1999-07-26,7.65
1999-07-27,7.975
1999-07-28,8.125
1999-07-29,7.975
1999-07-30,8.125
1999-08-02,7.975
1999-08-03,7.825
1999-08-04,7.35
1999-08-05,7.2
1999-08-06,7.2
1999-08-09,6.875
1999-08-10,6.725
1999-08-11,6.725
1999-08-12,6.725
1999-08-13,7.025
1999-08-16,7.025
1999-08-17,6.875
1999-08-18,6.725
1999-08-19,6.875
1999-08-20,6.875
1999-08-23,6.725
1999-08-24,6.725
1999-08-25,7.025
1999-08-26,6.875
1999-08-27,7.025
1999-08-30,6.875
1999-08-31,7.025
1999-09-01,7.025
1999-09-02,7.025
1999-09-03,7.2
1999-09-07,7.025
1999-09-08,7.025
1999-09-09,6.875
1999-09-10,6.725
1999-09-13,6.575
1999-09-14,6.575
1999-09-15,6.4
1999-09-16,6.4
1999-09-17,6.725
1999-09-20,6.25
1999-09-21,6.4
1999-09-22,6.4
1999-09-23,6.25
1999-09-24,6.1
1999-09-27,6.1
1999-09-28,5.95
1999-09-29,5.95
1999-09-30,6.875
1999-10-01,6.575
1999-10-04,6.4
1999-10-05,6.725
1999-10-06,6.4
1999-10-07,6.725
1999-10-08,6.725
1999-10-11,6.575
1999-10-12,6.4
1999-10-13,6.4
1999-10-14,6.25
1999-10-15,6.25
1999-10-18,6.4
1999-10-19,6.25
1999-10-20,6.4
1999-10-21,6.575
1999-10-22,6.875
1999-10-25,6.875
1999-10-26,7.025
1999-10-27,7.025
1999-10-28,7.2
1999-10-29,7.5
1999-11-01,7.35
1999-11-02,7.35
1999-11-03,7.35
1999-11-04,7.35
1999-11-05,7.5
1999-11-08,7.5
1999-11-09,7.975
1999-11-10,7.65
1999-11-11,7.65
1999-11-12,7.5
1999-11-15,7.825
1999-11-16,8.45
1999-11-17,8.6
1999-11-18,8.6
1999-11-19,8.6
1999-11-22,8.9
1999-11-23,8.9
1999-11-24,9.225
1999-11-26,9.225
1999-11-29,9.075
1999-11-30,9.225
1999-12-01,9.225
1999-12-02,9.075
1999-12-03,9.225
1999-12-06,9.075
1999-12-07,8.9
1999-12-08,8.9
1999-12-09,9.075
1999-12-10,8.9
1999-12-13,8.9
1999-12-14,8.9
1999-12-15,8.75
1999-12-16,8.125
1999-12-17,7.975
1999-12-20,8.45
1999-12-21,8.75
1999-12-22,8.6
1999-12-23,8.45
1999-12-27,8.45
1999-12-28,8.75
1999-12-29,9.225
1999-12-30,9.225
1999-12-31,9.225
2000-01-03,8.9
2000-01-04,8.6
2000-01-05,8.75
2000-01-06,8.6
2000-01-07,8.75
2000-01-10,8.75
2000-01-11,8.6
2000-01-12,8.45
2000-01-13,8.9
2000-01-14,8.75
2000-01-18,8.6
2000-01-19,8.75
2000-01-20,8.6
2000-01-21,8.6
2000-01-24,8.275
2000-01-25,8.125
2000-01-26,8.275
2000-01-27,8.125
2000-01-28,8.275
2000-01-31,8.275
2000-02-01,8.45
2000-02-02,8.275
2000-02-03,8.45
2000-02-04,8.45
2000-02-07,9.525
2000-02-08,10.325
2000-02-09,10.0
2000-02-10,9.85
2000-02-11,9.7
2000-02-14,9.7
2000-02-15,9.85
2000-02-16,9.7
2000-02-17,9.85
2000-02-18,9.85
2000-02-22,9.7
2000-02-23,9.375
2000-02-24,9.225
2000-02-25,9.375
2000-02-28,9.075
2000-02-29,10.0
2000-03-01,10.0
2000-03-02,10.475
2000-03-03,10.625
2000-03-06,11.1
2000-03-07,10.625
2000-03-08,10.625
2000-03-09,10.95
2000-03-10,10.325
2000-03-13,10.325
2000-03-14,10.325
2000-03-15,10.325
2000-03-16,10.625
2000-03-17,10.475
2000-03-20,10.325
2000-03-21,10.325
2000-03-22,10.15
2000-03-23,9.7
2000-03-24,9.7
2000-03-27,9.7
2000-03-28,9.375
2000-03-29,9.525
2000-03-30,9.525
2000-03-31,10.775
2000-04-03,10.325
2000-04-04,10.325
2000-04-05,10.325
2000-04-06,10.775
2000-04-07,11.25
2000-04-10,11.25
2000-04-11,11.1
2000-04-12,11.1
2000-04-13,10.95
2000-04-14,10.475
2000-04-17,10.325
2000-04-18,10.95
2000-04-19,12.2
2000-04-20,12.025
2000-04-24,12.025
2000-04-25,13.75
2000-04-26,14.375
2000-04-27,14.375
2000-04-28,14.7
2000-05-01,15.475
2000-05-02,15.15
2000-05-03,15.95
2000-05-04,15.5625
2000-05-05,15.7025
2000-05-08,15.985
2000-05-09,16.25
2000-05-10,16.4375
2000-05-11,17.47
2000-05-12,17.265
2000-05-15,18.4075
2000-05-16,18.4225
2000-05-17,18.1875
2000-05-18,17.7825
2000-05-19,17.2025
2000-05-22,16.5325
2000-05-23,16.6575
2000-05-24,16.1725
2000-05-25,16.11
2000-05-26,17.11
2000-05-30,17.72
2000-05-31,17.97
2000-06-01,17.7825
2000-06-02,17.6725
2000-06-05,16.7025
2000-06-06,16.5325
2000-06-07,16.47
2000-06-08,16.3125
2000-06-09,16.3125
2000-06-12,15.6725
2000-06-13,15.5775
2000-06-14,15.9375
2000-06-15,16.25
2000-06-16,16.97
2000-06-19,17.6875
2000-06-20,18.5
2000-06-21,18.72
2000-06-22,18.5
2000-06-23,18.595
2000-06-26,19.0
2000-06-27,18.625
2000-06-28,18.75
2000-06-29,19.625
2000-06-30,19.3275
2000-07-03,19.5
2000-07-05,20.3125
2000-07-06,20.4525
2000-07-07,20.22
2000-07-10,20.22
2000-07-11,21.5
2000-07-12,22.9075
2000-07-13,22.25
2000-07-14,22.5325
2000-07-17,23.485
2000-07-18,24.985
2000-07-19,24.72
2000-07-20,25.1875
2000-07-21,24.22
2000-07-24,24.515
2000-07-25,23.4075
2000-07-26,23.985
2000-07-27,24.4375
2000-07-28,25.3125
2000-07-31,24.595
2000-08-01,25.875
2000-08-02,25.5325
2000-08-03,25.515
2000-08-04,26.7975
2000-08-07,26.875
2000-08-08,26.3125
2000-08-09,26.875
2000-08-10,26.8125
2000-08-11,26.515
2000-08-14,27.0625
2000-08-15,26.6575
2000-08-16,26.5625
2000-08-17,26.9375
2000-08-18,27.39
2000-08-21,28.14
2000-08-22,28.0775
2000-08-23,28.3125
2000-08-24,28.61
2000-08-25,28.5
2000-08-28,28.75
2000-08-29,28.72
2000-08-30,28.8275
2000-08-31,29.72
2000-09-01,30.595
2000-09-05,30.985
2000-09-06,31.0
2000-09-07,31.1875
2000-09-08,31.4375
2000-09-11,31.7025
2000-09-12,31.9075
2000-09-13,32.5625
2000-09-14,32.22
2000-09-15,32.235
2000-09-18,29.125
2000-09-19,29.6725
2000-09-20,29.095
2000-09-21,27.8275
2000-09-22,27.97
2000-09-25,28.0625
2000-09-26,27.595
2000-09-27,30.375
2000-09-28,29.9375
2000-09-29,29.5
2000-10-02,31.5
2000-10-03,31.3275
2000-10-04,30.765
2000-10-05,30.5
2000-10-06,30.375
2000-10-09,28.125
2000-10-10,28.4075
2000-10-11,29.0
2000-10-12,28.985
2000-10-13,30.4075
2000-10-16,30.4075
2000-10-17,31.095
2000-10-18,29.9375
2000-10-19,31.3125
2000-10-20,29.5625
2000-10-23,28.22
2000-10-24,32.9375
2000-10-25,32.1875
2000-10-26,33.22
2000-10-27,32.235
2000-10-30,33.095
2000-10-31,33.5625
2000-11-01,33.0
2000-11-02,33.5
2000-11-03,33.1875
2000-11-06,33.345
2000-11-07,34.6875
2000-11-08,35.8125
2000-11-09,35.2825
2000-11-10,36.7025
2000-11-13,34.25
2000-11-14,36.5
2000-11-15,36.9375
2000-11-16,38.0
2000-11-17,37.1875
2000-11-20,35.125
2000-11-21,33.25
2000-11-22,34.0475
2000-11-24,34.765
2000-11-27,34.14
2000-11-28,33.515
2000-11-29,34.61
2000-11-30,35.5
2000-12-01,35.595
2000-12-04,37.625
2000-12-05,35.235
2000-12-06,34.8125
2000-12-07,35.4525
2000-12-08,37.1875
2000-12-11,38.515
2000-12-12,37.6875
2000-12-13,38.6725
2000-12-14,39.1725
2000-12-15,39.015
2000-12-18,40.9225
2000-12-19,40.86
2000-12-20,40.1575
2000-12-21,40.9375
2000-12-22,41.4075
2000-12-26,42.4375
2000-12-27,43.97
2000-12-28,45.0475
2000-12-29,42.765
2001-01-02,37.345
2001-01-03,38.25
2001-01-04,34.7025
2001-01-05,33.0775
2001-01-08,34.0
2001-01-09,35.6725
2001-01-10,36.845
2001-01-11,36.985
2001-01-12,33.75
2001-01-16,33.97
2001-01-17,32.515
2001-01-18,31.875
2001-01-19,30.3125
2001-01-22,31.4375
2001-01-23,33.36
2001-01-24,34.86
2001-01-25,34.375
2001-01-26,35.595
2001-01-29,35.075
2001-01-30,35.4375
2001-01-31,34.0525
2001-02-01,33.915
2001-02-02,33.125
2001-02-05,33.275
2001-02-06,33.785
2001-02-07,34.25
2001-02-08,33.2125
2001-02-09,33.625
2001-02-12,34.85
2001-02-13,34.9875
2001-02-14,35.725
2001-02-15,35.2825
2001-02-16,36.46
2001-02-20,36.625
2001-02-21,36.8725
2001-02-22,36.8125
2001-02-23,36.7925
2001-02-26,38.65
2001-02-27,40.0625
2001-02-28,40.075
2001-03-01,38.4875
2001-03-02,39.5275
2001-03-05,38.8125
2001-03-06,38.0
2001-03-07,36.35
2001-03-08,35.53
2001-03-09,35.575
2001-03-12,34.2525
2001-03-13,34.34
2001-03-14,33.725
2001-03-15,31.8125
2001-03-16,31.1125
2001-03-19,31.75
2001-03-20,30.8625
2001-03-21,28.15
2001-03-22,27.95
2001-03-23,29.63
2001-03-26,28.965
2001-03-27,29.4125
2001-03-28,28.7625
2001-03-29,29.7
2001-03-30,30.0
2001-04-02,29.9625
2001-04-03,28.575
2001-04-04,28.75
2001-04-05,30.02
2001-04-06,29.5825
2001-04-09,29.9775
2001-04-10,31.6
2001-04-11,32.685
2001-04-12,32.93
2001-04-16,33.4925
2001-04-17,34.5375
2001-04-18,33.375
2001-04-19,33.515
2001-04-20,34.3025
2001-04-23,33.225
2001-04-24,36.4275
2001-04-25,36.425
2001-04-26,36.05
2001-04-27,36.0
2001-04-30,35.45
2001-05-01,35.5
2001-05-02,35.725
2001-05-03,35.075
2001-05-04,34.8775
2001-05-07,34.4
2001-05-08,33.385
2001-05-09,32.94
2001-05-10,31.8275
2001-05-11,31.125
2001-05-14,31.3875
2001-05-15,31.3275
2001-05-16,33.5
2001-05-17,34.75
2001-05-18,35.275
2001-05-21,34.0
2001-05-22,35.0
2001-05-23,34.25
2001-05-24,34.3425
2001-05-25,33.5225
2001-05-29,33.6875
2001-05-30,35.2775
2001-05-31,35.0625
2001-06-01,37.0375
2001-06-04,38.7
2001-06-05,39.8875
2001-06-06,40.175
2001-06-07,40.6025
2001-06-08,40.9875
2001-06-11,40.4
2001-06-12,39.46
2001-06-13,39.09
2001-06-14,38.335
2001-06-15,39.77
2001-06-18,39.525
2001-06-19,39.025
2001-06-20,38.6
2001-06-21,39.5
2001-06-22,39.55
2001-06-25,38.005
2001-06-26,37.375
2001-06-27,37.75
2001-06-28,39.0
2001-06-29,38.75
2001-07-02,38.695
2001-07-03,39.55
2001-07-05,39.1
2001-07-06,38.945
2001-07-09,39.555
2001-07-10,40.54
2001-07-11,39.225
2001-07-12,40.58
2001-07-13,42.0
2001-07-16,42.275
2001-07-17,43.275
2001-07-18,42.45
2001-07-19,42.505
2001-07-20,42.975
2001-07-23,42.55
2001-07-24,42.805
2001-07-25,43.75
2001-07-26,44.495
2001-07-27,45.4
2001-07-30,44.875
2001-07-31,44.975
2001-08-01,43.15
2001-08-02,42.35
2001-08-03,41.625
2001-08-06,39.8
2001-08-07,40.99
2001-08-08,40.63
2001-08-09,40.9
2001-08-10,41.05
2001-08-13,42.02
2001-08-14,41.6
2001-08-15,40.74
2001-08-16,40.285
2001-08-17,40.8
2001-08-20,40.15
2001-08-21,41.095
2001-08-22,41.425
2001-08-23,42.125
2001-08-24,42.38
2001-08-27,42.905
2001-08-28,41.49
2001-08-29,40.095
2001-08-30,40.0
2001-08-31,38.95
2001-09-04,40.065
2001-09-05,37.455
2001-09-06,37.6
2001-09-07,37.6
2001-09-10,37.05
2001-09-17,35.625
2001-09-18,33.625
2001-09-19,34.95
2001-09-20,35.2
2001-09-21,34.25
2001-09-24,36.085
2001-09-25,37.18
2001-09-26,38.51
2001-09-27,40.05
2001-09-28,40.63
2001-10-01,39.515
2001-10-02,40.295
2001-10-03,40.5
2001-10-04,40.805
2001-10-05,40.175
2001-10-08,39.865
2001-10-09,40.22
2001-10-10,41.075
2001-10-11,40.765
2001-10-12,41.21
2001-10-15,41.2
2001-10-16,41.89
2001-10-17,41.85
2001-10-18,41.275
2001-10-19,42.435
2001-10-22,43.625
2001-10-23,43.3
2001-10-24,42.77
2001-10-25,42.525
2001-10-26,43.625
2001-10-29,43.815
2001-10-30,43.475
2001-10-31,43.1
2001-11-01,42.545
2001-11-02,43.085
2001-11-05,43.75
2001-11-06,44.34
2001-11-07,42.42
2001-11-08,40.375
2001-11-09,39.85
2001-11-12,40.055
2001-11-13,39.995
2001-11-14,39.4
2001-11-15,39.615
2001-11-16,39.445
2001-11-19,40.05
2001-11-20,41.05
2001-11-21,40.875
2001-11-23,40.9
2001-11-26,40.51
2001-11-27,38.725
2001-11-28,37.98
2001-11-29,38.7
2001-11-30,38.35
2001-12-03,38.5
2001-12-04,38.77
2001-12-05,39.12
2001-12-06,38.9
2001-12-07,38.14
2001-12-10,37.075
2001-12-11,38.125
2001-12-12,38.06
2001-12-13,38.91
2001-12-14,39.02
2001-12-17,38.85
2001-12-18,39.37
2001-12-19,39.35
2001-12-20,39.225
2001-12-21,39.595
2001-12-24,40.1
2001-12-26,40.26
2001-12-27,39.825
2001-12-28,40.4
2001-12-31,40.35
2002-01-02,39.405
2002-01-03,38.825
2002-01-04,39.335
2002-01-07,38.92
2002-01-08,38.625
2002-01-09,38.35
2002-01-10,38.755
2002-01-11,39.355
2002-01-14,39.25
2002-01-15,39.775
2002-01-16,39.615
2002-01-17,39.565
2002-01-18,40.155
2002-01-22,40.61
2002-01-23,40.075
2002-01-24,40.255
2002-01-25,40.395
2002-01-28,40.2
2002-01-29,40.5
2002-01-30,40.215
2002-01-31,40.675
2002-02-01,40.86
2002-02-04,41.11
2002-02-05,41.45
2002-02-06,41.255
2002-02-07,41.665
2002-02-08,43.48
2002-02-11,43.245
2002-02-12,43.16
2002-02-13,43.545
2002-02-14,44.045
2002-02-15,43.5
2002-02-19,41.95
2002-02-20,42.24
2002-02-21,41.815
2002-02-22,41.485
2002-02-25,40.88
2002-02-26,41.32
2002-02-27,40.95
2002-02-28,40.68
2002-03-01,40.75
2002-03-04,41.8
2002-03-05,42.45
2002-03-06,43.435
2002-03-07,43.0
2002-03-08,43.0
2002-03-11,42.75
2002-03-12,43.2
2002-03-13,43.975
2002-03-14,45.41
2002-03-15,45.02
2002-03-18,45.905
2002-03-19,45.88
2002-03-20,46.12
2002-03-21,45.71
2002-03-22,45.95
2002-03-25,45.5
2002-03-26,46.89
2002-03-27,48.025
2002-03-28,47.935
2002-04-01,48.01
2002-04-02,47.735
2002-04-03,46.61
2002-04-04,46.31
2002-04-05,48.06
2002-04-08,48.24
2002-04-09,48.57
2002-04-10,48.34
2002-04-11,48.01
2002-04-12,47.305
2002-04-15,47.79
2002-04-16,48.02
2002-04-17,48.355
2002-04-18,49.36
2002-04-19,50.36
2002-04-22,49.67
2002-04-23,47.27
2002-04-24,47.54
2002-04-25,47.91
2002-04-26,48.915
2002-04-29,48.825
2002-04-30,49.615
2002-05-01,51.205
2002-05-02,51.245
2002-05-03,51.31
2002-05-06,51.61
2002-05-07,50.585
2002-05-08,50.375
2002-05-09,51.02
2002-05-10,51.975
2002-05-13,49.74
2002-05-14,48.01
2002-05-15,48.77
2002-05-16,48.11
2002-05-17,48.81
2002-05-20,48.41
2002-05-21,48.26
2002-05-22,46.59
2002-05-23,46.71
2002-05-24,46.92
2002-05-28,47.61
2002-05-29,48.17
2002-05-30,49.12
2002-05-31,49.14
2002-06-03,48.64
2002-06-04,47.18
2002-06-05,48.4
2002-06-06,48.01
2002-06-07,48.77
2002-06-10,50.29
2002-06-11,49.52
2002-06-12,47.75
2002-06-13,47.6
2002-06-14,47.54
2002-06-17,47.7
2002-06-18,47.8
2002-06-19,48.84
2002-06-20,48.51
2002-06-21,45.87
2002-06-24,44.8
2002-06-25,45.0
2002-06-26,45.6
2002-06-27,46.05
2002-06-28,45.65
2002-07-01,42.95
2002-07-02,40.15
2002-07-03,42.11
2002-07-05,43.75
2002-07-08,43.01
2002-07-09,40.76
2002-07-10,39.15
2002-07-11,38.99
2002-07-12,39.2
2002-07-15,38.57
2002-07-16,38.4
2002-07-17,39.69
2002-07-18,37.71
2002-07-19,37.7
2002-07-22,34.65
2002-07-23,32.51
2002-07-24,36.81
2002-07-25,28.15
2002-07-26,28.65
2002-07-29,30.88
2002-07-30,32.96
2002-07-31,34.21
2002-08-01,32.85
2002-08-02,32.25
2002-08-05,31.6
2002-08-06,32.49
2002-08-07,33.29
2002-08-08,34.15
2002-08-09,34.26
2002-08-12,33.64
2002-08-13,32.8
2002-08-14,32.75
2002-08-15,33.68
2002-08-16,34.56
2002-08-19,34.48
2002-08-20,33.89
2002-08-21,32.5
2002-08-22,32.78
2002-08-23,31.69
2002-08-26,32.4
2002-08-27,31.66
2002-08-28,31.64
2002-08-29,31.8
2002-08-30,31.31
2002-09-03,30.45
2002-09-04,29.9
2002-09-05,29.89
2002-09-06,30.38
2002-09-09,31.25
2002-09-10,32.17
2002-09-11,32.55
2002-09-12,32.51
2002-09-13,33.29
2002-09-16,33.11
2002-09-17,32.95
2002-09-18,33.95
2002-09-19,33.1
2002-09-20,32.76
2002-09-23,30.82
2002-09-24,32.07
2002-09-25,33.2
2002-09-26,33.17
2002-09-27,34.11
2002-09-30,33.75
2002-10-01,33.57
2002-10-02,33.27
2002-10-03,33.19
2002-10-04,21.85
2002-10-07,20.68
2002-10-08,19.13
2002-10-09,20.48
2002-10-10,20.41
2002-10-11,21.09
2002-10-14,21.8
2002-10-15,22.73
2002-10-16,21.41
2002-10-17,21.53
2002-10-18,22.7
2002-10-21,22.17
2002-10-22,21.85
2002-10-23,22.5
2002-10-24,22.6
2002-10-25,21.3
2002-10-28,20.58
2002-10-29,19.67
2002-10-30,20.95
2002-10-31,23.96
2002-11-01,23.3
2002-11-04,23.3
2002-11-05,22.81
2002-11-06,23.78
2002-11-07,25.12
2002-11-08,23.75
2002-11-11,22.69
2002-11-12,23.61
2002-11-13,23.05
2002-11-14,23.28
2002-11-15,23.99
2002-11-18,23.7
2002-11-19,23.04
2002-11-20,23.81
2002-11-21,23.5
2002-11-22,23.12
2002-11-25,22.91
2002-11-26,22.9
2002-11-27,23.6
2002-11-29,24.0
2002-12-02,24.14
2002-12-03,23.84
2002-12-04,24.13
2002-12-05,24.23
2002-12-06,24.34
2002-12-09,23.97
2002-12-10,23.87
2002-12-11,24.08
2002-12-12,23.7
2002-12-13,23.03
2002-12-16,23.04
2002-12-17,23.36
2002-12-18,23.01
2002-12-19,22.75
2002-12-20,22.75
2002-12-23,23.6
2002-12-24,23.56
2002-12-26,23.14
2002-12-27,22.92
2002-12-30,22.5
2002-12-31,23.16
2003-01-02,23.99
2003-01-03,23.93
2003-01-06,24.2
2003-01-07,24.28
2003-01-08,24.95
2003-01-09,26.64
2003-01-10,26.97
2003-01-13,27.1
2003-01-14,26.9
2003-01-15,26.74
2003-01-16,26.53
2003-01-17,26.99
2003-01-21,26.41
2003-01-22,26.49
2003-01-23,26.95
2003-01-24,25.81
2003-01-27,24.86
2003-01-28,25.55
2003-01-29,26.47
2003-01-30,26.08
2003-01-31,26.73
2003-02-03,26.2
2003-02-04,25.96
2003-02-05,25.51
2003-02-06,25.0
2003-02-07,25.01
2003-02-10,24.98
2003-02-11,25.01
2003-02-12,24.8
2003-02-13,24.6
2003-02-14,24.05
2003-02-18,24.45
2003-02-19,26.8
2003-02-20,27.0
2003-02-21,28.05
2003-02-24,27.95
2003-02-25,27.75
2003-02-26,27.9
2003-02-27,27.58
2003-02-28,27.74
2003-03-03,27.3
2003-03-04,26.6
2003-03-05,26.77
2003-03-06,27.16
2003-03-07,27.34
2003-03-10,26.73
2003-03-11,26.7
2003-03-12,26.73
2003-03-13,27.32
2003-03-14,27.11
2003-03-17,28.15
2003-03-18,28.12
2003-03-19,27.4
2003-03-20,27.64
2003-03-21,28.75
2003-03-24,28.17
2003-03-25,28.9
2003-03-26,29.03
2003-03-27,29.09
2003-03-28,29.97
2003-03-31,29.85
2003-04-01,29.5
2003-04-02,29.42
2003-04-03,29.87
2003-04-04,29.2
2003-04-07,29.1
2003-04-08,28.71
2003-04-09,28.65
2003-04-10,28.64
2003-04-11,28.59
2003-04-14,28.97
2003-04-15,27.45
2003-04-16,26.61
2003-04-17,26.96
2003-04-21,27.26
2003-04-22,26.6
2003-04-23,27.65
2003-04-24,27.35
2003-04-25,27.26
2003-04-28,27.2
2003-04-29,28.8
2003-04-30,29.45
2003-05-01,29.64
2003-05-02,30.02
2003-05-05,30.47
2003-05-06,30.69
2003-05-07,30.34
2003-05-08,30.04
2003-05-09,30.07
2003-05-12,30.37
2003-05-13,30.3
2003-05-14,30.59
2003-05-15,30.83
2003-05-16,31.41
2003-05-19,31.04
2003-05-20,31.13
2003-05-21,31.28
2003-05-22,31.38
2003-05-23,31.47
2003-05-27,31.5
2003-05-28,32.3
2003-05-29,32.15
2003-05-30,32.23
2003-06-02,32.05
2003-06-03,31.53
2003-06-04,30.94
2003-06-05,30.72
2003-06-06,28.36
2003-06-09,28.83
2003-06-10,29.15
2003-06-11,29.36
2003-06-12,28.85
2003-06-13,28.33
2003-06-16,29.24
2003-06-17,30.07
2003-06-18,30.19
2003-06-19,29.82
2003-06-20,30.37
2003-06-23,29.65
2003-06-24,29.92
2003-06-25,29.85
2003-06-26,30.26
2003-06-27,30.5
2003-06-30,30.18
2003-07-01,29.68
2003-07-02,30.42
2003-07-03,30.4
2003-07-07,31.21
2003-07-08,32.24
2003-07-09,31.88
2003-07-10,31.61
2003-07-11,31.47
2003-07-14,31.55
2003-07-15,31.34
2003-07-16,31.04
2003-07-17,30.38
2003-07-18,30.35
2003-07-21,30.15
2003-07-22,30.68
2003-07-23,31.7
2003-07-24,31.38
2003-07-25,31.17
2003-07-28,31.59
2003-07-29,32.18
2003-07-30,32.14
2003-07-31,31.77
2003-08-01,31.55
2003-08-04,31.38
2003-08-05,30.86
2003-08-06,30.52
2003-08-07,30.94
2003-08-08,31.4
2003-08-11,31.5
2003-08-12,31.15
2003-08-13,31.25
2003-08-14,31.07
2003-08-15,31.36
2003-08-18,31.34
2003-08-19,31.5
2003-08-20,31.13
2003-08-21,30.99
2003-08-22,30.65
2003-08-25,30.5
2003-08-26,30.1
2003-08-27,30.11
2003-08-28,30.11
2003-08-29,30.3
2003-09-02,30.73
2003-09-03,30.66
2003-09-04,31.17
2003-09-05,30.6
2003-09-08,30.65
2003-09-09,30.61
2003-09-10,30.51
2003-09-11,30.43
2003-09-12,30.36
2003-09-15,30.25
2003-09-16,30.19
2003-09-17,30.09
2003-09-18,30.19
2003-09-19,30.85
2003-09-22,29.81
2003-09-23,29.15
2003-09-24,28.97
2003-09-25,28.75
2003-09-26,28.4
2003-09-29,28.75
2003-09-30,28.71
2003-10-01,28.7
2003-10-02,28.64
2003-10-03,28.8
2003-10-06,28.38
2003-10-07,28.53
2003-10-08,28.46
2003-10-09,28.54
2003-10-10,28.7
2003-10-13,28.6
2003-10-14,29.23
2003-10-15,29.02
2003-10-16,29.72
2003-10-17,29.65
2003-10-20,29.69
2003-10-21,30.43
2003-10-22,30.47
2003-10-23,32.91
2003-10-24,33.93
2003-10-27,33.82
2003-10-28,34.64
2003-10-29,34.68
2003-10-30,35.95
2003-10-31,35.49
2003-11-03,35.55
2003-11-04,34.52
2003-11-05,34.51
2003-11-06,34.87
2003-11-07,34.55
2003-11-10,34.8
2003-11-11,34.81
2003-11-12,35.39
2003-11-13,36.24
2003-11-14,35.67
2003-11-17,36.05
2003-11-18,36.0
2003-11-19,35.95
2003-11-20,35.8
2003-11-21,35.8
2003-11-24,35.85
2003-11-25,35.95
2003-11-26,36.08
2003-11-28,36.12
2003-12-01,36.29
2003-12-02,36.81
2003-12-03,36.14
2003-12-04,36.02
2003-12-05,36.15
2003-12-08,36.24
2003-12-09,35.77
2003-12-10,35.26
2003-12-11,35.65
2003-12-12,35.76
2003-12-15,35.76
2003-12-16,35.26
2003-12-17,34.97
2003-12-18,35.8
2003-12-19,35.7
2003-12-22,35.8
2003-12-23,35.6
2003-12-24,35.77
2003-12-26,35.69
2003-12-29,36.35
2003-12-30,37.15
2003-12-31,36.91
2004-01-02,37.44
2004-01-05,36.96
2004-01-06,37.23
2004-01-07,38.02
2004-01-08,37.96
2004-01-09,38.13
2004-01-12,38.65
2004-01-13,39.18
2004-01-14,40.29
2004-01-15,40.5
2004-01-16,40.71
2004-01-20,40.95
2004-01-21,40.76
2004-01-22,40.8
2004-01-23,40.73
2004-01-26,40.79
2004-01-27,41.61
2004-01-28,41.31
2004-01-29,41.36
2004-01-30,42.7
2004-02-02,42.18
2004-02-03,41.7
2004-02-04,41.58
2004-02-05,40.9
2004-02-06,41.03
2004-02-09,41.65
2004-02-10,42.52
2004-02-11,43.69
2004-02-12,39.88
2004-02-13,39.09
2004-02-17,39.5
2004-02-18,39.27
2004-02-19,37.94
2004-02-20,38.12
2004-02-23,38.17
2004-02-24,38.53
2004-02-25,38.79
2004-02-26,38.87
2004-02-27,39.2
2004-03-01,39.2
2004-03-02,38.74
2004-03-03,38.93
2004-03-04,39.23
2004-03-05,38.73
2004-03-08,38.4
2004-03-09,38.1
2004-03-10,38.2
2004-03-11,38.11
2004-03-12,38.11
2004-03-15,37.91
2004-03-16,37.69
2004-03-17,37.84
2004-03-18,38.64
2004-03-19,38.55
2004-03-22,38.04
2004-03-23,38.49
2004-03-24,38.31
2004-03-25,38.79
2004-03-26,38.95
2004-03-29,38.96
2004-03-30,39.2
2004-03-31,39.19
2004-04-01,39.15
2004-04-02,39.22
2004-04-05,39.48
2004-04-06,39.54
2004-04-07,39.32
2004-04-08,39.37
2004-04-12,39.79
2004-04-13,39.64
2004-04-14,39.48
2004-04-15,39.22
2004-04-16,39.13
2004-04-19,39.65
2004-04-20,39.79
2004-04-21,40.6
2004-04-22,41.21
2004-04-23,40.4
2004-04-26,40.45
2004-04-27,40.15
2004-04-28,39.94
2004-04-29,39.97
2004-04-30,39.69
2004-05-03,39.95
2004-05-04,40.12
2004-05-05,40.2
2004-05-06,39.9
2004-05-07,39.4
2004-05-10,38.6
2004-05-11,38.72
2004-05-12,38.67
2004-05-13,39.26
2004-05-14,39.04
2004-05-17,39.19
2004-05-18,39.7
2004-05-19,39.33
2004-05-20,39.49
2004-05-21,39.92
2004-05-24,40.02
2004-05-25,40.75
2004-05-26,41.0
2004-05-27,40.86
2004-05-28,41.28
2004-06-01,41.56
2004-06-02,41.47
2004-06-03,41.38
2004-06-04,41.59
2004-06-07,41.85
2004-06-08,41.9
2004-06-09,41.82
2004-06-10,41.96
2004-06-14,41.6
2004-06-15,41.66
2004-06-16,41.99
2004-06-17,41.96
2004-06-18,42.3
2004-06-21,42.27
2004-06-22,41.87
2004-06-23,40.84
2004-06-24,40.68
2004-06-25,40.67
2004-06-28,40.16
2004-06-29,39.78
2004-06-30,39.75
2004-07-01,39.75
2004-07-02,39.41
2004-07-06,38.95
2004-07-07,38.91
2004-07-08,38.28
2004-07-09,38.28
2004-07-12,38.45
2004-07-13,38.4
2004-07-14,38.4
2004-07-15,38.48
2004-07-16,38.46
2004-07-19,38.29
2004-07-20,38.0
2004-07-21,36.8
2004-07-22,39.95
2004-07-23,39.76
2004-07-26,39.81
2004-07-27,39.29
2004-07-28,39.14
2004-07-29,39.11
2004-07-30,39.16
2004-08-02,39.33
2004-08-03,39.38
2004-08-04,39.3
2004-08-05,39.22
2004-08-06,38.72
2004-08-09,38.35
2004-08-10,39.43
2004-08-11,40.0
2004-08-12,39.35
2004-08-13,38.64
2004-08-16,39.18
2004-08-17,39.77
2004-08-18,39.7
2004-08-19,39.99
2004-08-20,40.02
2004-08-23,39.92
2004-08-24,40.5
2004-08-25,40.61
2004-08-26,41.01
2004-08-27,41.3
2004-08-30,41.04
2004-08-31,41.55
2004-09-01,41.98
2004-09-02,42.08
2004-09-03,41.77
2004-09-07,41.51
2004-09-08,41.84
2004-09-09,41.69
2004-09-10,41.78
2004-09-13,41.98
2004-09-14,41.8
2004-09-15,41.95
2004-09-16,42.02
2004-09-17,42.42
2004-09-20,42.99
2004-09-21,43.01
2004-09-22,43.44
2004-09-23,43.76
2004-09-24,43.69
2004-09-27,43.39
2004-09-28,43.58
2004-09-29,43.45
2004-09-30,43.64
2004-10-01,43.68
2004-10-04,43.56
2004-10-05,43.6
2004-10-06,43.84
2004-10-07,43.55
2004-10-08,43.07
2004-10-11,42.92
2004-10-12,42.4
2004-10-13,41.85
2004-10-14,41.64
2004-10-15,41.4
2004-10-18,41.78
2004-10-19,41.12
2004-10-20,41.3
2004-10-21,42.66
2004-10-22,43.0
2004-10-25,43.01
2004-10-26,44.59
2004-10-27,44.85
2004-10-28,44.91
2004-10-29,45.65
2004-11-01,45.76
2004-11-02,45.83
2004-11-03,46.38
2004-11-04,47.17
2004-11-05,47.3
2004-11-08,47.05
2004-11-09,47.04
2004-11-10,47.21
2004-11-11,47.24
2004-11-12,47.26
2004-11-15,47.35
2004-11-16,46.95
2004-11-17,47.0
2004-11-18,47.22
2004-11-19,47.04
2004-11-22,47.89
2004-11-23,47.39
2004-11-24,47.47
2004-11-26,47.89
2004-11-29,47.76
2004-11-30,47.97
2004-12-01,47.93
2004-12-02,47.87
2004-12-03,47.98
2004-12-06,47.99
2004-12-07,47.55
2004-12-08,48.27
2004-12-09,49.34
2004-12-10,49.19
2004-12-13,48.76
2004-12-14,48.92
2004-12-15,48.57
2004-12-16,49.03
2004-12-17,49.31
2004-12-20,49.13
2004-12-21,49.03
2004-12-22,49.5
2004-12-23,49.73
2004-12-27,49.72
2004-12-28,49.99
2004-12-29,49.97
2004-12-30,49.91
2004-12-31,49.86
2005-01-03,48.74
2005-01-04,48.53
2005-01-05,47.92
2005-01-06,48.19
2005-01-07,47.85
2005-01-10,48.07
2005-01-11,48.23
2005-01-12,48.75
2005-01-13,48.15
2005-01-14,48.33
2005-01-18,48.34
2005-01-19,48.32
2005-01-20,48.34
2005-01-21,47.26
2005-01-24,46.93
2005-01-25,46.9
2005-01-26,47.54
2005-01-27,48.32
2005-01-28,47.43
2005-01-31,47.85
2005-02-01,48.85
2005-02-02,48.99
2005-02-03,49.44
2005-02-04,49.72
2005-02-07,49.36
2005-02-08,49.26
2005-02-09,48.65
2005-02-10,48.85
2005-02-11,49.32
2005-02-14,49.02
2005-02-15,49.53
2005-02-16,50.07
2005-02-17,49.8
2005-02-18,49.41
2005-02-22,47.92
2005-02-23,47.58
2005-02-24,47.55
2005-02-25,48.07
2005-02-28,47.89
2005-03-01,47.9
2005-03-02,47.9
2005-03-03,47.67
2005-03-04,47.56
2005-03-07,47.41
2005-03-08,46.85
2005-03-09,45.95
2005-03-10,46.25
2005-03-11,46.08
2005-03-14,46.64
2005-03-15,45.71
2005-03-16,44.93
2005-03-17,45.68
2005-03-18,45.4
2005-03-21,45.21
2005-03-22,45.76
2005-03-23,45.42
2005-03-24,45.96
2005-03-28,46.26
2005-03-29,46.4
2005-03-30,47.77
2005-03-31,48.15
2005-04-01,48.03
2005-04-04,48.51
2005-04-05,49.01
2005-04-06,49.42
2005-04-07,49.66
2005-04-08,49.53
2005-04-11,49.33
2005-04-12,49.76
2005-04-13,49.7
2005-04-14,48.58
2005-04-15,47.92
2005-04-18,47.63
2005-04-19,49.06
2005-04-20,48.39
2005-04-21,49.2
2005-04-22,48.8
2005-04-25,49.27
2005-04-26,48.6
2005-04-27,49.3
2005-04-28,48.82
2005-04-29,49.5
2005-05-02,49.17
2005-05-03,49.02
2005-05-04,50.79
2005-05-05,51.08
2005-05-06,50.81
2005-05-09,50.75
2005-05-10,50.64
2005-05-11,50.48
2005-05-12,49.54
2005-05-13,48.71
2005-05-16,49.81
2005-05-17,49.91
2005-05-18,49.69
2005-05-19,49.73
2005-05-20,49.99
2005-05-23,50.09
2005-05-24,49.8
2005-05-25,49.31
2005-05-26,48.98
2005-05-27,48.67
2005-05-31,48.45
2005-06-01,48.44
2005-06-02,48.34
2005-06-03,48.71
2005-06-06,48.82
2005-06-07,49.67
2005-06-08,48.87
2005-06-09,49.2
2005-06-10,48.85
2005-06-13,49.11
2005-06-14,49.5
2005-06-15,49.29
2005-06-16,49.37
2005-06-17,50.06
2005-06-20,50.16
2005-06-21,50.46
2005-06-22,50.3
2005-06-23,49.75
2005-06-24,49.16
2005-06-27,49.07
2005-06-28,50.25
2005-06-29,50.31
2005-06-30,49.81
2005-07-01,49.66
2005-07-05,49.94
2005-07-06,50.09
2005-07-07,50.03
2005-07-08,49.89
2005-07-11,50.14
2005-07-12,49.98
2005-07-13,49.54
2005-07-14,49.92
2005-07-15,50.07
2005-07-18,50.84
2005-07-19,51.4
2005-07-20,51.31
2005-07-21,50.83
2005-07-22,51.72
2005-07-25,50.98
2005-07-26,51.1
2005-07-27,50.91
2005-07-28,51.71
2005-07-29,50.7
2005-08-01,50.9
2005-08-02,50.81
2005-08-03,50.93
2005-08-04,50.28
2005-08-05,49.28
2005-08-08,49.82
2005-08-09,50.02
2005-08-10,49.99
2005-08-11,49.8
2005-08-12,49.65
2005-08-15,49.6
2005-08-16,49.16
2005-08-17,49.49
2005-08-18,49.2
2005-08-19,49.5
2005-08-22,49.32
2005-08-23,49.3
2005-08-24,49.49
2005-08-25,49.27
2005-08-26,49.08
2005-08-29,49.61
2005-08-30,49.67
2005-08-31,49.35
2005-09-01,48.97
2005-09-02,48.74
2005-09-06,48.95
2005-09-07,48.38
2005-09-08,47.8
2005-09-09,48.75
2005-09-12,48.88
2005-09-13,48.56
2005-09-14,48.65
2005-09-15,48.39
2005-09-16,48.02
2005-09-19,47.72
2005-09-20,47.63
2005-09-21,47.7
2005-09-22,47.82
2005-09-23,48.08
2005-09-26,48.2
2005-09-27,48.09
2005-09-28,48.08
2005-09-29,48.72
2005-09-30,48.71
2005-10-03,48.67
2005-10-04,48.39
2005-10-05,47.89
2005-10-06,48.14
2005-10-07,48.5
2005-10-10,48.56
2005-10-11,48.28
2005-10-12,47.97
2005-10-13,47.77
2005-10-14,48.23
2005-10-17,48.47
2005-10-18,49.41
2005-10-19,49.83
2005-10-20,49.74
2005-10-21,49.33
2005-10-24,49.15
2005-10-25,48.72
2005-10-26,49.02
2005-10-27,48.26
2005-10-28,47.99
2005-10-31,48.22
2005-11-01,48.19
2005-11-02,47.84
2005-11-03,48.21
2005-11-04,48.07
2005-11-07,48.32
2005-11-08,48.53
2005-11-09,48.82
2005-11-10,49.84
2005-11-11,48.96
2005-11-14,49.55
2005-11-15,50.55
2005-11-16,50.19
2005-11-17,50.4
2005-11-18,50.74
2005-11-21,51.34
2005-11-22,51.24
2005-11-23,51.22
2005-11-25,51.35
2005-11-28,51.68
2005-11-29,52.01
2005-11-30,51.87
2005-12-01,52.38
2005-12-02,51.45
2005-12-05,51.48
2005-12-06,51.34
2005-12-07,52.07
2005-12-08,54.34
2005-12-09,54.64
2005-12-12,54.34
2005-12-13,54.45
2005-12-14,54.52
2005-12-15,54.44
2005-12-16,54.45
2005-12-19,54.01
2005-12-20,54.4
2005-12-21,54.19
2005-12-22,53.94
2005-12-23,54.46
2005-12-27,54.22
2005-12-28,54.32
2005-12-29,53.9
2005-12-30,53.89
2006-01-03,53.62
2006-01-04,54.73
2006-01-05,54.89
2006-01-06,54.98
2006-01-09,54.97
2006-01-10,55.33
2006-01-11,57.06
2006-01-12,57.2
2006-01-13,56.93
2006-01-17,56.85
2006-01-18,56.94
2006-01-19,57.39
2006-01-20,56.7
2006-01-23,56.43
2006-01-24,57.02
2006-01-25,56.77
2006-01-26,57.24
2006-01-27,58.17
2006-01-30,58.14
2006-01-31,58.6
2006-02-01,57.72
2006-02-02,57.02
2006-02-03,56.9
2006-02-06,55.47
2006-02-07,55.96
2006-02-08,56.21
2006-02-09,56.52
2006-02-10,56.4
2006-02-13,56.56
2006-02-14,57.31
2006-02-15,57.68
2006-02-16,58.18
2006-02-17,58.8
2006-02-21,57.79
2006-02-22,58.57
2006-02-23,58.28
2006-02-24,58.29
2006-02-27,58.17
2006-02-28,58.1
2006-03-01,58.0
2006-03-02,58.66
2006-03-03,58.38
2006-03-06,57.2
2006-03-07,56.86
2006-03-08,57.4
2006-03-09,57.02
2006-03-10,57.32
2006-03-13,56.89
2006-03-14,57.21
2006-03-15,57.72
2006-03-16,57.62
2006-03-17,58.15
2006-03-20,58.38
2006-03-21,58.42
2006-03-22,58.9
2006-03-23,58.98
2006-03-24,59.34
2006-03-27,59.36
2006-03-28,59.38
2006-03-29,59.18
2006-03-30,58.83
2006-03-31,58.48
2006-04-03,58.06
2006-04-04,57.91
2006-04-05,58.28
2006-04-06,57.71
2006-04-07,57.43
2006-04-10,57.16
2006-04-11,56.9
2006-04-12,56.89
2006-04-13,56.78
2006-04-17,56.38
2006-04-18,56.59
2006-04-19,56.79
2006-04-20,58.85
2006-04-21,58.46
2006-04-24,58.62
2006-04-25,58.7
2006-04-26,58.2
2006-04-27,57.4
2006-04-28,57.06
2006-05-01,56.67
2006-05-02,57.21
2006-05-03,56.79
2006-05-04,57.29
2006-05-05,57.75
2006-05-08,57.89
2006-05-09,58.48
2006-05-10,58.41
2006-05-11,58.47
2006-05-12,58.58
2006-05-15,58.9
2006-05-16,59.4
2006-05-17,59.8
2006-05-18,59.61
2006-05-19,59.3
2006-05-22,59.63
2006-05-23,58.71
2006-05-24,58.51
2006-05-25,59.16
2006-05-26,59.0
2006-05-30,58.91
2006-05-31,59.4
2006-06-01,59.89
2006-06-02,59.94
2006-06-05,59.29
2006-06-06,59.76
2006-06-07,60.18
2006-06-08,61.27
2006-06-09,60.88
2006-06-12,60.17
2006-06-13,60.45
2006-06-14,61.54
2006-06-15,61.44
2006-06-16,61.35
2006-06-19,61.35
2006-06-20,61.74
2006-06-21,62.74
2006-06-22,61.84
2006-06-23,61.35
2006-06-26,61.37
2006-06-27,61.3
2006-06-28,61.06
2006-06-29,61.81
2006-06-30,62.27
2006-07-03,62.19
2006-07-05,62.01
2006-07-06,62.45
2006-07-07,62.06
2006-07-10,62.35
2006-07-11,62.88
2006-07-12,63.0
2006-07-13,62.16
2006-07-14,62.26
2006-07-17,62.05
2006-07-18,62.01
2006-07-19,62.64
2006-07-20,62.56
2006-07-21,62.18
2006-07-24,63.15
2006-07-25,64.4
2006-07-26,64.15
2006-07-27,63.42
2006-07-28,64.05
2006-07-31,64.39
2006-08-01,64.03
2006-08-02,64.75
2006-08-03,65.5
2006-08-04,65.73
2006-08-07,66.13
2006-08-08,65.85
2006-08-09,65.39
2006-08-10,66.49
2006-08-11,66.41
2006-08-14,66.85
2006-08-15,67.48
2006-08-16,67.6
2006-08-17,67.83
2006-08-18,68.13
2006-08-21,68.81
2006-08-22,68.87
2006-08-23,68.25
2006-08-24,68.1
2006-08-25,68.44
2006-08-28,68.53
2006-08-29,68.5
2006-08-30,68.34
2006-08-31,68.41
2006-09-01,68.1
2006-09-05,67.91
2006-09-06,67.72
2006-09-07,66.87
2006-09-08,67.02
2006-09-11,67.26
2006-09-12,67.85
2006-09-13,67.96
2006-09-14,67.29
2006-09-15,66.84
2006-09-18,66.46
2006-09-19,67.55
2006-09-20,67.66
2006-09-21,66.96
2006-09-22,66.81
2006-09-25,66.3
2006-09-26,67.02
2006-09-27,66.69
2006-09-28,66.82
2006-09-29,65.54
2006-10-02,65.22
2006-10-03,66.63
2006-10-04,67.73
2006-10-05,67.74
2006-10-06,66.67
2006-10-09,65.82
2006-10-10,65.47
2006-10-11,66.88
2006-10-12,66.63
2006-10-13,66.11
2006-10-16,66.68
2006-10-17,66.43
2006-10-18,66.7
2006-10-19,66.82
2006-10-20,68.03
2006-10-23,68.32
2006-10-24,68.81
2006-10-25,68.69
2006-10-26,68.3
2006-10-27,68.15
2006-10-30,68.04
2006-10-31,68.44
2006-11-01,67.33
2006-11-02,67.66
2006-11-03,67.0
2006-11-06,67.48
2006-11-07,68.41
2006-11-08,68.2
2006-11-09,67.56
2006-11-10,67.86
2006-11-13,67.99
2006-11-14,68.29
2006-11-15,69.11
2006-11-16,69.87
2006-11-17,69.62
2006-11-20,68.88
2006-11-21,68.69
2006-11-22,69.22
2006-11-24,69.2
2006-11-27,69.57
2006-11-28,69.2
2006-11-29,69.98
2006-11-30,70.76
2006-12-01,70.8
2006-12-04,71.47
2006-12-05,71.64
2006-12-06,72.2
2006-12-07,72.49
2006-12-08,72.05
2006-12-11,72.35
2006-12-12,71.99
2006-12-13,71.94
2006-12-14,71.97
2006-12-15,71.95
2006-12-18,72.49
2006-12-19,73.0
2006-12-20,73.49
2006-12-21,73.5
2006-12-22,74.0
2006-12-26,73.47
2006-12-27,73.89
2006-12-28,73.88
2006-12-29,73.42
2007-01-03,73.15
2007-01-04,73.75
2007-01-05,73.51
2007-01-08,74.7
2007-01-09,73.45
2007-01-10,73.39
2007-01-11,73.24
2007-01-12,72.97
2007-01-16,72.69
2007-01-17,72.87
2007-01-18,73.04
2007-01-19,73.1
2007-01-22,73.2
2007-01-23,72.9
2007-01-24,73.02
2007-01-25,72.03
2007-01-26,71.4
2007-01-29,72.2
2007-01-30,72.95
2007-01-31,73.44
2007-02-01,73.4
2007-02-02,73.52
2007-02-05,72.8
2007-02-06,73.31
2007-02-07,73.57
2007-02-08,74.09
2007-02-09,73.8
2007-02-12,73.89
2007-02-13,74.28
2007-02-14,74.38
2007-02-15,80.0
2007-02-16,80.41
2007-02-20,80.27
2007-02-21,80.01
2007-02-22,80.3
2007-02-23,80.43
2007-02-26,80.06
2007-02-27,79.01
2007-02-28,79.77
2007-03-01,70.2
2007-03-02,68.3
2007-03-05,66.84
2007-03-06,67.0
2007-03-07,67.49
2007-03-08,68.4
2007-03-09,68.69
2007-03-12,69.56
2007-03-13,70.35
2007-03-14,70.22
2007-03-15,71.42
2007-03-16,70.81
2007-03-19,71.25
2007-03-20,71.18
2007-03-21,71.73
2007-03-22,71.68
2007-03-23,71.79
2007-03-26,72.58
2007-03-27,72.2
2007-03-28,71.97
2007-03-29,72.86
2007-03-30,72.58
2007-04-02,72.26
2007-04-03,72.77
2007-04-04,72.72
2007-04-05,73.19
2007-04-09,73.64
2007-04-10,73.4
2007-04-11,72.44
2007-04-12,72.38
2007-04-13,73.05
2007-04-16,73.05
2007-04-17,73.2
2007-04-18,73.68
2007-04-19,73.58
2007-04-20,74.04
2007-04-23,73.56
2007-04-24,72.56
2007-04-25,72.48
2007-04-26,78.95
2007-04-27,78.83
2007-04-30,79.0
2007-05-01,78.57
2007-05-02,78.91
2007-05-03,77.88
2007-05-04,78.2
2007-05-07,78.98
2007-05-08,78.88
2007-05-09,78.88
2007-05-10,77.77
2007-05-11,78.32
2007-05-14,77.81
2007-05-15,77.59
2007-05-16,78.18
2007-05-17,78.22
2007-05-18,78.38
2007-05-21,78.81
2007-05-22,78.38
2007-05-23,78.84
2007-05-24,78.55
2007-05-25,78.67
2007-05-29,78.57
2007-05-30,78.7
2007-05-31,78.69
2007-06-01,79.74
2007-06-04,79.37
2007-06-05,79.37
2007-06-06,79.04
2007-06-07,78.05
2007-06-08,78.31
2007-06-11,78.71
2007-06-12,77.91
2007-06-13,78.89
2007-06-14,79.15
2007-06-15,79.76
2007-06-18,79.61
2007-06-19,79.96
2007-06-20,79.3
2007-06-21,79.47
2007-06-22,78.73
2007-06-25,78.29
2007-06-26,78.23
2007-06-27,78.28
2007-06-28,78.33
2007-06-29,78.37
2007-07-02,79.0
2007-07-03,79.63
2007-07-05,81.08
2007-07-06,81.38
2007-07-09,80.45
2007-07-10,79.21
2007-07-11,80.2
2007-07-12,80.86
2007-07-13,81.02
2007-07-16,81.3
2007-07-17,81.25
2007-07-18,81.07
2007-07-19,80.68
2007-07-20,79.77
2007-07-23,78.7
2007-07-24,78.51
2007-07-25,78.41
2007-07-26,76.58
2007-07-27,74.2
2007-07-30,74.5
2007-07-31,73.79
2007-08-01,73.33
2007-08-02,77.21
2007-08-03,76.83
2007-08-06,78.81
2007-08-07,78.14
2007-08-08,76.6
2007-08-09,74.69
2007-08-10,76.24
2007-08-13,76.66
2007-08-14,75.36
2007-08-15,75.06
2007-08-16,74.0
2007-08-17,75.17
2007-08-20,75.21
2007-08-21,75.24
2007-08-22,75.91
2007-08-23,75.3
2007-08-24,75.85
2007-08-27,75.76
2007-08-28,73.86
2007-08-29,75.02
2007-08-30,77.7
2007-08-31,77.47
2007-09-04,78.1
2007-09-05,78.94
2007-09-06,78.81
2007-09-07,77.86
2007-09-10,77.5
2007-09-11,78.09
2007-09-12,79.11
2007-09-13,79.39
2007-09-14,79.54
2007-09-17,78.62
2007-09-18,79.47
2007-09-19,78.33
2007-09-20,78.07
2007-09-21,77.72
2007-09-24,76.95
2007-09-25,76.48
2007-09-26,77.09
2007-09-27,76.95
2007-09-28,78.21
2007-10-01,78.09
2007-10-02,77.65
2007-10-03,77.56
2007-10-04,76.87
2007-10-05,77.49
2007-10-08,77.78
2007-10-09,78.13
2007-10-10,78.89
2007-10-11,77.31
2007-10-12,77.84
2007-10-15,77.24
2007-10-16,76.53
2007-10-17,76.21
2007-10-18,76.32
2007-10-19,76.51
2007-10-22,75.59
2007-10-23,77.39
2007-10-24,75.7
2007-10-25,69.55
2007-10-26,69.54
2007-10-29,68.05
2007-10-30,68.8
2007-10-31,68.64
2007-11-01,68.2
2007-11-02,68.39
2007-11-05,68.35
2007-11-06,69.23
2007-11-07,68.53
2007-11-08,68.97
2007-11-09,69.33
2007-11-12,68.75
2007-11-13,68.94
2007-11-14,70.02
2007-11-15,69.69
2007-11-16,69.75
2007-11-19,71.17
2007-11-20,70.0
2007-11-21,68.56
2007-11-23,69.42
2007-11-26,70.59
2007-11-27,71.65
2007-11-28,72.51
2007-11-29,73.43
2007-11-30,72.66
2007-12-03,71.84
2007-12-04,71.76
2007-12-05,72.52
2007-12-06,73.14
2007-12-07,73.06
2007-12-10,73.55
2007-12-11,73.81
2007-12-12,74.18
2007-12-13,74.89
2007-12-14,74.6
2007-12-17,74.63
2007-12-18,74.95
2007-12-19,74.74
2007-12-20,75.59
2007-12-21,76.79
2007-12-24,76.66
2007-12-26,76.75
2007-12-27,76.19
2007-12-28,75.65
2007-12-31,75.4
2008-01-02,75.03
2008-01-03,75.03
2008-01-04,73.4
2008-01-07,74.9
2008-01-08,76.08
2008-01-09,77.97
2008-01-10,77.95
2008-01-11,78.65
2008-01-14,77.9
2008-01-15,76.19
2008-01-16,76.35
2008-01-17,74.67
2008-01-18,74.94
2008-01-22,74.05
2008-01-23,73.34
2008-01-24,72.95
2008-01-25,73.54
2008-01-28,74.39
2008-01-29,74.86
2008-01-30,73.81
2008-01-31,73.8
2008-02-01,74.12
2008-02-04,73.99
2008-02-05,72.75
2008-02-06,73.26
2008-02-07,77.89
2008-02-08,79.01
2008-02-11,79.33
2008-02-12,79.42
2008-02-13,80.49
2008-02-14,79.31
2008-02-15,79.76
2008-02-19,80.39
2008-02-20,80.18
2008-02-21,79.61
2008-02-22,79.39
2008-02-25,79.19
2008-02-26,79.35
2008-02-27,78.77
2008-02-28,78.88
2008-02-29,77.4
2008-03-03,76.88
2008-03-04,78.84
2008-03-05,79.31
2008-03-06,78.53
2008-03-07,77.61
2008-03-10,77.27
2008-03-11,77.55
2008-03-12,76.69
2008-03-13,76.33
2008-03-14,75.11
2008-03-17,73.87
2008-03-18,75.08
2008-03-19,75.35
2008-03-20,74.49
2008-03-24,74.98
2008-03-25,74.61
2008-03-26,73.59
2008-03-27,74.27
2008-03-28,72.92
2008-03-31,73.63
2008-04-01,74.58
2008-04-02,75.36
2008-04-03,74.79
2008-04-04,73.91
2008-04-07,73.01
2008-04-08,73.05
2008-04-09,75.05
2008-04-10,74.65
2008-04-11,74.15
2008-04-14,73.88
2008-04-15,73.55
2008-04-16,73.92
2008-04-17,73.6
2008-04-18,74.75
2008-04-21,76.33
2008-04-22,74.82
2008-04-23,77.08
2008-04-24,74.16
2008-04-25,74.93
2008-04-28,75.42
2008-04-29,75.03
2008-04-30,75.54
2008-05-01,76.05
2008-05-02,76.09
2008-05-05,75.84
2008-05-06,76.38
2008-05-07,75.66
2008-05-08,76.74
2008-05-09,77.07
2008-05-12,77.71
2008-05-13,77.2
2008-05-14,77.14
2008-05-15,76.2
2008-05-16,76.0
2008-05-19,76.05
2008-05-20,76.05
2008-05-21,75.78
2008-05-22,76.27
2008-05-23,75.45
2008-05-27,75.41
2008-05-28,74.37
2008-05-29,73.75
2008-05-30,73.72
2008-06-02,74.9
2008-06-03,74.98
2008-06-04,74.32
2008-06-05,75.28
2008-06-06,73.95
2008-06-09,74.24
2008-06-10,74.45
2008-06-11,74.05
2008-06-12,73.98
2008-06-13,73.67
2008-06-16,73.54
2008-06-17,72.21
2008-06-18,70.59
2008-06-19,71.45
2008-06-20,69.94
2008-06-23,69.81
2008-06-24,69.04
2008-06-25,70.21
2008-06-26,70.36
2008-06-27,69.29
2008-06-30,69.73
2008-07-01,68.86
2008-07-02,67.51
2008-07-03,67.72
2008-07-07,67.8
2008-07-08,68.41
2008-07-09,68.55
2008-07-10,68.91
2008-07-11,67.49
2008-07-14,67.7
2008-07-15,67.71
2008-07-16,67.73
2008-07-17,69.05
2008-07-18,70.02
2008-07-21,70.31
2008-07-22,71.85
2008-07-23,71.46
2008-07-24,66.97
2008-07-25,67.88
2008-07-28,66.93
2008-07-29,67.28
2008-07-30,67.48
2008-07-31,67.53
2008-08-01,67.85
2008-08-04,68.91
2008-08-05,70.35
2008-08-06,70.24
2008-08-07,70.26
2008-08-08,71.64
2008-08-11,72.36
2008-08-12,72.43
2008-08-13,72.23
2008-08-14,72.35
2008-08-15,73.14
2008-08-18,73.29
2008-08-19,73.24
2008-08-20,72.5
2008-08-21,72.44
2008-08-22,72.38
2008-08-25,72.04
2008-08-26,72.23
2008-08-27,73.08
2008-08-28,73.51
2008-08-29,73.09
2008-09-02,73.79
2008-09-03,74.29
2008-09-04,73.08
2008-09-05,73.03
2008-09-08,75.38
2008-09-09,74.47
2008-09-10,73.99
2008-09-11,74.36
2008-09-12,74.09
2008-09-15,74.62
2008-09-16,72.99
2008-09-17,71.32
2008-09-18,73.07
2008-09-19,73.38
2008-09-22,71.41
2008-09-23,69.93
2008-09-24,70.24
2008-09-25,70.48
2008-09-26,69.74
2008-09-29,68.45
2008-09-30,69.5
2008-10-01,69.3
2008-10-02,67.55
2008-10-03,66.37
2008-10-06,63.08
2008-10-07,62.04
2008-10-08,60.82
2008-10-09,56.25
2008-10-10,55.7
2008-10-13,59.29
2008-10-14,60.0
2008-10-15,58.03
2008-10-16,59.59
2008-10-17,59.81
2008-10-20,61.27
2008-10-21,61.49
2008-10-22,58.47
2008-10-23,59.87
2008-10-24,60.46
2008-10-27,57.98
2008-10-28,59.96
2008-10-29,59.89
2008-10-30,61.06
2008-10-31,61.24
2008-11-03,61.35
2008-11-04,63.21
2008-11-05,62.01
2008-11-06,62.06
2008-11-07,63.61
2008-11-10,63.46
2008-11-11,62.67
2008-11-12,62.74
2008-11-13,64.4
2008-11-14,64.62
2008-11-17,63.44
2008-11-18,63.51
2008-11-19,60.42
2008-11-20,58.9
2008-11-21,59.57
2008-11-24,61.45
2008-11-25,61.45
2008-11-26,62.48
2008-11-28,63.36
2008-12-01,59.7
2008-12-02,59.19
2008-12-03,61.08
2008-12-04,61.53
2008-12-05,63.55
2008-12-08,63.05
2008-12-09,61.82
2008-12-10,62.73
2008-12-11,62.57
2008-12-12,62.17
2008-12-15,61.33
2008-12-16,63.55
2008-12-17,63.62
2008-12-18,63.76
2008-12-19,63.11
2008-12-22,63.39
2008-12-23,62.31
2008-12-24,62.01
2008-12-26,62.82
2008-12-29,63.43
2008-12-30,64.13
2008-12-31,64.53
2009-01-02,64.87
2009-01-05,65.64
2009-01-06,61.45
2009-01-07,60.47
2009-01-08,60.74
2009-01-09,60.78
2009-01-12,60.6
2009-01-13,61.5
2009-01-14,59.91
2009-01-15,59.85
2009-01-16,60.83
2009-01-20,58.6
2009-01-21,58.48
2009-01-22,58.15
2009-01-23,57.62
2009-01-26,59.39
2009-01-27,60.35
2009-01-28,60.91
2009-01-29,60.17
2009-01-30,59.11
2009-02-02,59.82
2009-02-03,60.37
2009-02-04,59.28
2009-02-05,60.18
2009-02-06,61.69
2009-02-09,61.54
2009-02-10,60.11
2009-02-11,59.79
2009-02-12,62.49
2009-02-13,63.03
2009-02-17,62.28
2009-02-18,61.97
2009-02-19,62.51
2009-02-20,62.14
2009-02-23,60.61
2009-02-24,61.21
2009-02-25,59.6
2009-02-26,57.19
2009-02-27,55.08
2009-03-02,54.39
2009-03-03,55.08
2009-03-04,55.96
2009-03-05,54.68
2009-03-06,54.88
2009-03-09,53.52
2009-03-10,55.0
2009-03-11,53.6
2009-03-12,55.7
2009-03-13,57.11
2009-03-16,57.47
2009-03-17,58.06
2009-03-18,57.72
2009-03-19,56.67
2009-03-20,56.73
2009-03-23,57.85
2009-03-24,57.62
2009-03-25,58.75
2009-03-26,59.4
2009-03-27,58.1
2009-03-30,57.98
2009-03-31,58.42
2009-04-01,58.58
2009-04-02,59.56
2009-04-03,59.08
2009-04-06,59.9
2009-04-07,59.08
2009-04-08,58.98
2009-04-09,59.57
2009-04-13,59.55
2009-04-14,59.82
2009-04-15,60.88
2009-04-16,61.66
2009-04-17,62.38
2009-04-20,61.78
2009-04-21,63.31
2009-04-22,62.8
2009-04-23,61.51
2009-04-24,61.04
2009-04-27,62.34
2009-04-28,62.99
2009-04-29,63.45
2009-04-30,64.17
2009-05-01,63.0
2009-05-04,63.85
2009-05-05,64.63
2009-05-06,64.2
2009-05-07,64.83
2009-05-08,65.22
2009-05-11,64.8
2009-05-12,64.42
2009-05-13,64.02
2009-05-14,63.25
2009-05-15,61.68
2009-05-18,62.06
2009-05-19,61.94
2009-05-20,61.43
2009-05-21,60.19
2009-05-22,59.83
2009-05-26,60.95
2009-05-27,60.6
2009-05-28,61.12
2009-05-29,60.94
2009-06-01,61.83
2009-06-02,61.77
2009-06-03,61.38
2009-06-04,61.6
2009-06-05,61.24
2009-06-08,60.78
2009-06-09,60.5
2009-06-10,60.19
2009-06-11,61.0
2009-06-12,62.36
2009-06-15,62.15
2009-06-16,62.45
2009-06-17,64.88
2009-06-18,66.78
2009-06-19,66.71
2009-06-22,65.78
2009-06-23,65.4
2009-06-24,66.1
2009-06-25,67.37
2009-06-26,66.95
2009-06-29,67.27
2009-06-30,67.75
2009-07-01,67.63
2009-07-02,66.71
2009-07-06,67.34
2009-07-07,67.77
2009-07-08,67.6
2009-07-09,67.3
2009-07-10,66.26
2009-07-13,66.89
2009-07-14,66.75
2009-07-15,67.21
2009-07-16,67.33
2009-07-17,66.92
2009-07-20,66.8
2009-07-21,67.82
2009-07-22,67.76
2009-07-23,68.22
2009-07-24,68.55
2009-07-27,68.23
2009-07-28,66.04
2009-07-29,67.94
2009-07-30,67.38
2009-07-31,67.18
2009-08-03,67.55
2009-08-04,67.79
2009-08-05,66.8
2009-08-06,66.69
2009-08-07,67.3
2009-08-10,67.65
2009-08-11,68.19
2009-08-12,68.55
2009-08-13,68.73
2009-08-14,68.28
2009-08-17,69.01
2009-08-18,68.41
2009-08-19,68.85
2009-08-20,69.41
2009-08-21,69.8
2009-08-24,69.83
2009-08-25,70.46
2009-08-26,70.78
2009-08-27,70.72
2009-08-28,70.5
2009-08-31,69.74
2009-09-01,68.76
2009-09-02,68.82
2009-09-03,69.08
2009-09-04,69.48
2009-09-08,68.39
2009-09-09,68.45
2009-09-10,68.75
2009-09-11,69.24
2009-09-14,69.38
2009-09-15,68.51
2009-09-16,65.22
2009-09-17,63.81
2009-09-18,63.45
2009-09-21,64.24
2009-09-22,66.68
2009-09-23,66.62
2009-09-24,66.16
2009-09-25,65.89
2009-09-28,66.69
2009-09-29,65.9
2009-09-30,65.77
2009-10-01,64.86
2009-10-02,64.38
2009-10-05,65.25
2009-10-06,65.84
2009-10-07,66.18
2009-10-08,66.45
2009-10-09,67.52
2009-10-12,67.1
2009-10-13,66.4
2009-10-14,67.95
2009-10-15,68.25
2009-10-16,67.55
2009-10-19,69.86
2009-10-20,70.23
2009-10-21,68.94
2009-10-22,71.07
2009-10-23,70.81
2009-10-26,70.64
2009-10-27,71.2
2009-10-28,70.03
2009-10-29,69.82
2009-10-30,68.84
2009-11-02,69.95
2009-11-03,70.05
2009-11-04,70.28
2009-11-05,71.41
2009-11-06,71.72
2009-11-09,73.19
2009-11-10,73.19
2009-11-11,73.16
2009-11-12,72.56
2009-11-13,72.79
2009-11-16,73.97
2009-11-17,74.16
2009-11-18,74.08
2009-11-19,73.44
2009-11-20,73.61
2009-11-23,74.41
2009-11-24,74.53
2009-11-25,74.29
2009-11-27,73.29
2009-11-30,73.02
2009-12-01,73.76
2009-12-02,73.59
2009-12-03,72.58
2009-12-04,73.06
2009-12-07,73.57
2009-12-08,73.4
2009-12-09,73.02
2009-12-10,73.43
2009-12-11,73.81
2009-12-14,74.73
2009-12-15,76.0
2009-12-16,75.76
2009-12-17,74.84
2009-12-18,74.38
2009-12-21,75.46
2009-12-22,75.96
2009-12-23,76.51
2009-12-24,76.09
2009-12-28,76.11
2009-12-29,75.76
2009-12-30,75.3
2009-12-31,74.9
2010-01-04,76.33
2010-01-05,75.41
2010-01-06,74.21
2010-01-07,74.13
2010-01-08,73.97
2010-01-11,74.92
2010-01-12,73.79
2010-01-13,75.36
2010-01-14,76.98
2010-01-15,75.74
2010-01-19,76.52
2010-01-20,75.84
2010-01-21,74.62
2010-01-22,72.43
2010-01-25,73.01
2010-01-26,73.25
2010-01-27,72.19
2010-01-28,71.03
2010-01-29,71.14
2010-02-01,71.55
2010-02-02,72.5
2010-02-03,71.74
2010-02-04,70.51
2010-02-05,70.6
2010-02-08,70.1
2010-02-09,70.08
2010-02-10,71.02
2010-02-11,71.48
2010-02-12,71.77
2010-02-16,72.42
2010-02-17,73.12
2010-02-18,73.11
2010-02-19,73.94
2010-02-22,73.91
2010-02-23,73.42
2010-02-24,73.46
2010-02-25,73.13
2010-02-26,73.34
2010-03-01,74.21
2010-03-02,74.57
2010-03-03,73.24
2010-03-04,72.52
2010-03-05,72.4
2010-03-08,71.97
2010-03-09,71.92
2010-03-10,72.44
2010-03-11,73.76
2010-03-12,73.71
2010-03-15,74.59
2010-03-16,75.04
2010-03-17,75.63
2010-03-18,76.2
2010-03-19,75.46
2010-03-22,76.3
2010-03-23,74.38
2010-03-24,74.02
2010-03-25,74.91
2010-03-26,75.6
2010-03-29,75.75
2010-03-30,75.9
2010-03-31,75.71
2010-04-01,77.18
2010-04-05,76.9
2010-04-06,77.21
2010-04-07,76.51
2010-04-08,76.12
2010-04-09,76.23
2010-04-12,76.62
2010-04-13,76.46
2010-04-14,76.28
2010-04-15,77.72
2010-04-16,77.02
2010-04-19,79.41
2010-04-20,80.16
2010-04-21,80.98
2010-04-22,80.7
2010-04-23,79.94
2010-04-26,78.9
2010-04-27,77.42
2010-04-28,78.13
2010-04-29,78.8
2010-04-30,78.57
2010-05-03,78.51
2010-05-04,77.88
2010-05-05,77.69
2010-05-06,76.33
2010-05-07,75.2
2010-05-10,76.82
2010-05-11,76.98
2010-05-12,77.08
2010-05-13,77.75
2010-05-14,77.47
2010-05-17,77.51
2010-05-18,76.89
2010-05-19,77.7
2010-05-20,76.05
2010-05-21,76.0
2010-05-24,75.41
2010-05-25,75.48
2010-05-26,74.96
2010-05-27,76.31
2010-05-28,75.69
2010-06-01,75.07
2010-06-02,76.59
2010-06-03,76.9
2010-06-04,74.91
2010-06-07,75.0
2010-06-08,75.45
2010-06-09,75.64
2010-06-10,77.53
2010-06-11,78.21
2010-06-14,78.76
2010-06-15,79.54
2010-06-16,80.38
2010-06-17,80.4
2010-06-18,80.27
2010-06-21,80.16
2010-06-22,78.89
2010-06-23,78.31
2010-06-24,77.0
2010-06-25,77.22
2010-06-28,78.06
2010-06-29,76.54
2010-06-30,75.41
2010-07-01,75.47
2010-07-02,74.52
2010-07-06,74.12
2010-07-07,74.93
2010-07-08,75.56
2010-07-09,74.32
2010-07-12,74.85
2010-07-13,75.9
2010-07-14,76.21
2010-07-15,76.57
2010-07-16,74.99
2010-07-19,75.2
2010-07-20,76.79
2010-07-21,75.92
2010-07-22,72.25
2010-07-23,72.91
2010-07-26,74.33
2010-07-27,74.54
2010-07-28,73.65
2010-07-29,73.18
2010-07-30,73.04
2010-08-02,74.82
2010-08-03,74.97
2010-08-04,75.64
2010-08-05,75.74
2010-08-06,75.43
2010-08-09,75.4
2010-08-10,76.52
2010-08-11,74.91
2010-08-12,75.48
2010-08-13,75.09
2010-08-16,74.83
2010-08-17,76.05
2010-08-18,75.99
2010-08-19,74.9
2010-08-20,75.91
2010-08-23,75.61
2010-08-24,75.6
2010-08-25,76.21
2010-08-26,75.1
2010-08-27,75.21
2010-08-30,73.96
2010-08-31,72.58
2010-09-01,73.97
2010-09-02,74.56
2010-09-03,75.07
2010-09-07,74.68
2010-09-08,74.37
2010-09-09,75.84
2010-09-10,76.64
2010-09-13,73.0
2010-09-14,74.87
2010-09-15,75.38
2010-09-16,74.55
2010-09-17,75.0
2010-09-20,76.55
2010-09-21,76.34
2010-09-22,76.28
2010-09-23,75.95
2010-09-24,76.78
2010-09-27,76.23
2010-09-28,78.14
2010-09-29,78.05
2010-09-30,78.4
2010-10-01,78.01
2010-10-04,77.91
2010-10-05,79.3
2010-10-06,79.11
2010-10-07,78.58
2010-10-08,79.33
2010-10-11,79.88
2010-10-12,79.52
2010-10-13,80.44
2010-10-14,78.91
2010-10-15,79.09
2010-10-18,79.95
2010-10-19,78.89
2010-10-20,78.29
2010-10-21,78.2
2010-10-22,79.15
2010-10-25,78.77
2010-10-26,79.29
2010-10-27,79.62
2010-10-28,80.11
2010-10-29,81.39
2010-11-01,81.93
2010-11-02,82.63
2010-11-03,81.87
2010-11-04,82.77
2010-11-05,83.06
2010-11-08,82.95
2010-11-09,82.95
2010-11-10,82.87
2010-11-11,83.48
2010-11-12,82.22
2010-11-15,82.7
2010-11-16,80.88
2010-11-17,81.43
2010-11-18,82.06
2010-11-19,82.97
2010-11-22,82.07
2010-11-23,81.1
2010-11-24,81.33
2010-11-26,81.08
2010-11-29,81.19
2010-11-30,82.13
2010-12-01,85.5
2010-12-02,83.94
2010-12-03,83.68
2010-12-06,83.07
2010-12-07,82.67
2010-12-08,83.34
2010-12-09,83.63
2010-12-10,84.58
2010-12-13,83.87
2010-12-14,85.47
2010-12-15,86.66
2010-12-16,88.45
2010-12-17,88.86
2010-12-20,88.18
2010-12-21,88.49
2010-12-22,88.82
2010-12-23,88.14
2010-12-27,88.18
2010-12-28,88.14
2010-12-29,88.09
2010-12-30,88.64
2010-12-31,87.93
2011-01-03,89.56
2011-01-04,90.12
2011-01-05,90.44
2011-01-06,89.79
2011-01-07,89.6
2011-01-10,89.19
2011-01-11,90.83
2011-01-12,91.15
2011-01-13,91.75
2011-01-14,91.08
2011-01-18,90.69
2011-01-19,89.79
2011-01-20,90.04
2011-01-21,89.75
2011-01-24,89.67
2011-01-25,91.0
2011-01-26,92.59
2011-01-27,92.32
2011-01-28,90.53
2011-01-31,89.87
2011-02-01,88.79
2011-02-02,89.3
2011-02-03,89.96
2011-02-04,90.33
2011-02-07,90.26
2011-02-08,90.71
2011-02-09,90.8
2011-02-10,87.55
2011-02-11,87.78
2011-02-14,87.76
2011-02-15,87.69
2011-02-16,88.35
2011-02-17,87.94
2011-02-18,88.95
2011-02-22,87.62
2011-02-23,88.69
2011-02-24,88.39
2011-02-25,89.65
2011-02-28,90.19
2011-03-01,89.06
2011-03-02,89.39
2011-03-03,91.25
2011-03-04,92.31
2011-03-07,91.06
2011-03-08,92.2
2011-03-09,91.86
2011-03-10,89.97
2011-03-11,90.15
2011-03-14,89.57
2011-03-15,88.46
2011-03-16,87.01
2011-03-17,87.33
2011-03-18,86.97
2011-03-21,86.7
2011-03-22,87.42
2011-03-23,87.09
2011-03-24,88.37
2011-03-25,88.85
2011-03-28,89.6
2011-03-29,90.75
2011-03-30,91.54
2011-03-31,92.12
2011-04-01,92.84
2011-04-04,93.58
2011-04-05,93.6
2011-04-06,94.0
2011-04-07,93.9
2011-04-08,92.76
2011-04-11,93.44
2011-04-12,93.67
2011-04-13,94.22
2011-04-14,94.96
2011-04-15,95.66
2011-04-18,94.58
2011-04-19,96.23
2011-04-20,96.69
2011-04-21,96.49
2011-04-25,95.26
2011-04-26,95.02
2011-04-27,95.75
2011-04-28,95.79
2011-04-29,96.41
2011-05-02,98.26
2011-05-03,96.25
2011-05-04,95.88
2011-05-05,96.39
2011-05-06,97.64
2011-05-09,98.51
2011-05-10,98.89
2011-05-11,98.48
2011-05-12,99.99
2011-05-13,99.7
2011-05-16,99.38
2011-05-17,100.01
2011-05-18,100.05
2011-05-19,100.71
2011-05-20,100.64
2011-05-23,98.99
2011-05-24,98.56
2011-05-25,98.96
2011-05-26,98.85
2011-05-27,99.96
2011-05-31,100.87
2011-06-01,99.09
2011-06-02,98.33
2011-06-03,97.07
2011-06-06,96.2
2011-06-07,96.12
2011-06-08,96.06
2011-06-09,96.38
2011-06-10,95.54
2011-06-13,95.38
2011-06-14,96.35
2011-06-15,95.83
2011-06-16,96.42
2011-06-17,96.53
2011-06-20,97.13
2011-06-21,97.1
2011-06-22,96.47
2011-06-23,95.38
2011-06-24,94.5
2011-06-27,95.2
2011-06-28,95.77
2011-06-29,95.18
2011-06-30,96.81
2011-07-01,98.44
2011-07-05,98.12
2011-07-06,99.06
2011-07-07,99.1
2011-07-08,98.25
2011-07-11,97.06
2011-07-12,96.7
2011-07-13,95.02
2011-07-14,95.22
2011-07-15,95.75
2011-07-18,94.97
2011-07-19,96.95
2011-07-20,96.61
2011-07-21,94.46
2011-07-22,93.05
2011-07-25,92.04
2011-07-26,91.74
2011-07-27,90.2
2011-07-28,90.3
2011-07-29,90.84
2011-08-01,88.74
2011-08-02,87.65
2011-08-03,88.21
2011-08-04,85.53
2011-08-05,86.05
2011-08-08,81.12
2011-08-09,83.96
2011-08-10,79.75
2011-08-11,82.84
2011-08-12,83.0
2011-08-15,84.82
2011-08-16,84.13
2011-08-17,83.37
2011-08-18,79.93
2011-08-19,79.04
2011-08-22,77.21
2011-08-23,79.39
2011-08-24,80.39
2011-08-25,79.25
2011-08-26,80.56
2011-08-29,82.93
2011-08-30,83.29
2011-08-31,83.38
2011-09-01,82.43
2011-09-02,81.17
2011-09-06,82.83
2011-09-07,86.01
2011-09-08,85.71
2011-09-09,81.19
2011-09-12,82.03
2011-09-13,81.95
2011-09-14,83.15
2011-09-15,82.25
2011-09-16,83.35
2011-09-19,82.05
2011-09-20,82.6
2011-09-21,80.32
2011-09-22,78.96
2011-09-23,79.67
2011-09-26,82.35
2011-09-27,83.36
2011-09-28,80.76
2011-09-29,80.41
2011-09-30,79.08
2011-10-03,76.0
2011-10-04,77.76
2011-10-05,76.01
2011-10-06,78.12
2011-10-07,78.27
2011-10-10,80.34
2011-10-11,79.05
2011-10-12,80.48
2011-10-13,78.74
2011-10-14,80.41
2011-10-17,80.11
2011-10-18,82.51
2011-10-19,81.96
2011-10-20,81.24
2011-10-21,82.23
2011-10-24,82.99
2011-10-25,84.02
2011-10-26,83.31
2011-10-27,85.46
2011-10-28,86.96
2011-10-31,83.93
2011-11-01,81.15
2011-11-02,81.76
2011-11-03,82.64
2011-11-04,81.71
2011-11-07,82.94
2011-11-08,84.31
2011-11-09,80.72
2011-11-10,81.96
2011-11-11,83.8
2011-11-14,84.07
2011-11-15,83.79
2011-11-16,82.56
2011-11-17,80.4
2011-11-18,81.0
2011-11-21,79.44
2011-11-22,80.3
2011-11-23,80.62
2011-11-25,80.7
2011-11-28,82.77
2011-11-29,83.41
2011-11-30,85.71
2011-12-01,86.06
2011-12-02,86.28
2011-12-05,86.33
2011-12-06,85.64
2011-12-07,85.1
2011-12-08,82.84
2011-12-09,83.45
2011-12-12,82.33
2011-12-13,81.66
2011-12-14,81.37
2011-12-15,81.44
2011-12-16,81.65
2011-12-19,81.56
2011-12-20,84.2
2011-12-21,84.68
2011-12-22,86.78
2011-12-23,87.29
2011-12-27,87.64
2011-12-28,85.8
2011-12-29,86.55
2011-12-30,86.08
2012-01-03,86.44
2012-01-04,86.51
2012-01-05,86.9
2012-01-06,87.39
2012-01-09,87.13
2012-01-10,87.66
2012-01-11,87.34
2012-01-12,87.66
2012-01-13,86.91
2012-01-17,88.53
2012-01-18,88.47
2012-01-19,88.79
2012-01-20,88.61
2012-01-23,88.91
2012-01-24,91.16
2012-01-25,91.84
2012-01-26,91.12
2012-01-27,91.31
2012-01-30,90.82
2012-01-31,91.44
2012-02-01,92.5
2012-02-02,92.4
2012-02-03,93.14
2012-02-06,90.95
2012-02-07,92.03
2012-02-08,91.98
2012-02-09,92.14
2012-02-10,89.97
2012-02-13,88.85
2012-02-14,89.24
2012-02-15,87.35
2012-02-16,88.1
2012-02-17,87.96
2012-02-21,87.71
2012-02-22,88.0
2012-02-23,88.0
2012-02-24,89.06
2012-02-27,89.91
2012-02-28,90.81
2012-02-29,89.9
2012-03-01,89.04
2012-03-02,89.35
2012-03-05,89.45
2012-03-06,88.89
2012-03-07,88.98
2012-03-08,88.67
2012-03-09,88.78
2012-03-12,88.32
2012-03-13,88.92
2012-03-14,90.19
2012-03-15,90.62
2012-03-16,90.28
2012-03-19,90.15
2012-03-20,89.57
2012-03-21,91.22
2012-03-22,90.13
2012-03-23,89.53
2012-03-26,91.92
2012-03-27,91.59
2012-03-28,91.14
2012-03-29,91.36
2012-03-30,91.57
2012-04-02,93.01
2012-04-03,94.21
2012-04-04,93.23
2012-04-05,93.25
2012-04-09,89.99
2012-04-10,89.22
2012-04-11,89.54
2012-04-12,89.57
2012-04-13,88.49
2012-04-16,88.2
2012-04-17,91.51
2012-04-18,90.66
2012-04-19,88.85
2012-04-20,87.59
2012-04-23,87.01
2012-04-24,87.36
2012-04-25,87.19
2012-04-26,87.5
2012-04-27,87.5
2012-04-30,87.83
2012-05-01,88.64
2012-05-02,88.45
2012-05-03,87.12
2012-05-04,86.75
2012-05-07,87.05
2012-05-08,87.12
2012-05-09,85.97
2012-05-10,85.8
2012-05-11,86.62
2012-05-14,85.31
2012-05-15,86.75
2012-05-16,86.73
2012-05-17,85.54
2012-05-18,84.16
2012-05-21,85.43
2012-05-22,85.05
2012-05-23,84.52
2012-05-24,84.84
2012-05-25,85.67
2012-05-29,86.23
2012-05-30,85.39
2012-05-31,83.31
2012-06-01,82.43
2012-06-04,83.98
2012-06-05,84.58
2012-06-06,84.91
2012-06-07,85.08
2012-06-08,85.72
2012-06-11,85.17
2012-06-12,85.61
2012-06-13,85.71
2012-06-14,87.07
2012-06-15,87.54
2012-06-18,87.9
2012-06-19,88.39
2012-06-20,89.15
2012-06-21,87.56
2012-06-22,89.23
2012-06-25,88.18
2012-06-26,89.2
2012-06-27,89.34
2012-06-28,92.07
2012-06-29,92.55
2012-07-02,92.16
2012-07-03,92.85
2012-07-05,91.96
2012-07-06,91.99
2012-07-09,92.25
2012-07-10,92.96
2012-07-11,93.19
2012-07-12,93.72
2012-07-13,95.25
2012-07-16,94.61
2012-07-17,92.6
2012-07-18,93.53
2012-07-19,88.1
2012-07-20,85.27
2012-07-23,84.35
2012-07-24,84.4
2012-07-25,84.26
2012-07-26,84.99
2012-07-27,85.29
2012-07-30,85.1
2012-07-31,84.15
2012-08-01,87.88
2012-08-02,86.25
2012-08-03,87.42
2012-08-06,87.73
2012-08-07,87.97
2012-08-08,88.95
2012-08-09,88.43
2012-08-10,88.51
2012-08-13,88.45
2012-08-14,88.55
2012-08-15,88.44
2012-08-16,89.07
2012-08-17,89.0
2012-08-20,89.01
2012-08-21,88.54
2012-08-22,88.12
2012-08-23,87.45
2012-08-24,88.9
2012-08-27,88.54
2012-08-28,88.28
2012-08-29,88.32
2012-08-30,87.47
2012-08-31,88.07
2012-09-04,88.31
2012-09-05,88.81
2012-09-06,89.49
2012-09-07,88.77
2012-09-10,88.94
2012-09-11,88.99
2012-09-12,88.89
2012-09-13,90.47
2012-09-14,90.9
2012-09-17,91.29
2012-09-18,91.25
2012-09-19,91.25
2012-09-20,90.68
2012-09-21,91.53
2012-09-24,91.45
2012-09-25,91.17
2012-09-26,90.36
2012-09-27,91.57
2012-09-28,92.46
2012-10-01,93.08
2012-10-02,92.65
2012-10-03,92.52
2012-10-04,93.61
2012-10-05,93.44
2012-10-08,94.05
2012-10-09,92.82
2012-10-10,92.43
2012-10-11,93.36
2012-10-12,92.72
2012-10-15,93.55
2012-10-16,93.0
2012-10-17,90.2
2012-10-18,88.93
2012-10-19,86.62
2012-10-22,86.43
2012-10-23,85.24
2012-10-24,85.23
2012-10-25,85.59
2012-10-26,84.89
2012-10-31,84.81
2012-11-01,85.28
2012-11-02,85.31
2012-11-05,86.35
2012-11-06,86.48
2012-11-07,85.19
2012-11-08,84.33
2012-11-09,84.39
2012-11-12,84.35
2012-11-13,83.86
2012-11-14,82.43
2012-11-15,83.14
2012-11-16,82.59
2012-11-19,83.56
2012-11-20,82.56
2012-11-21,82.86
2012-11-23,82.91
2012-11-26,82.83
2012-11-27,82.87
2012-11-28,83.46
2012-11-29,84.28
2012-11-30,84.61
2012-12-03,84.38
2012-12-04,84.36
2012-12-05,84.3
2012-12-06,84.66
2012-12-07,84.98
2012-12-10,84.78
2012-12-11,85.42
2012-12-12,87.12
2012-12-13,87.36
2012-12-14,87.02
2012-12-17,87.16
2012-12-18,88.11
2012-12-19,87.89
2012-12-20,87.29
2012-12-21,86.68
2012-12-24,86.48
2012-12-26,86.62
2012-12-27,86.73
2012-12-28,85.92
2012-12-31,86.48
2013-01-02,87.51
2013-01-03,87.59
2013-01-04,87.87
2013-01-07,87.64
2013-01-08,86.69
2013-01-09,87.1
2013-01-10,87.28
2013-01-11,86.26
2013-01-14,86.71
2013-01-15,86.96
2013-01-16,87.46
2013-01-17,88.3
2013-01-18,88.55
2013-01-22,90.22
2013-01-23,87.27
2013-01-24,88.02
2013-01-25,88.57
2013-01-28,90.32
2013-01-29,90.2
2013-01-30,89.735
2013-01-31,89.5599
2013-02-01,90.47
2013-02-04,89.82
2013-02-05,89.97
2013-02-06,91.03
2013-02-07,91.59
2013-02-08,90.24
2013-02-11,90.0201
2013-02-12,89.395
2013-02-13,89.69
2013-02-14,89.18
2013-02-15,89.82
2013-02-19,90.28
2013-02-20,89.62
2013-02-21,89.14
2013-02-22,88.93
2013-02-25,88.4
2013-02-26,88.54
2013-02-27,89.01
2013-02-28,88.67
2013-03-01,88.995
2013-03-04,89.44
2013-03-05,90.15
2013-03-06,89.2
2013-03-07,89.59
2013-03-08,89.41
2013-03-11,89.93
2013-03-12,89.79
2013-03-13,89.21
2013-03-14,89.73
2013-03-15,89.2
2013-03-18,88.32
2013-03-19,88.29
2013-03-20,88.2
2013-03-21,87.83
2013-03-22,88.25
2013-03-25,88.73
2013-03-26,89.07
2013-03-27,89.14
2013-03-28,90.22
2013-04-01,90.68
2013-04-02,92.69
2013-04-03,92.81
2013-04-04,93.74
2013-04-05,93.06
2013-04-08,92.84
2013-04-09,93.2
2013-04-10,93.33
2013-04-11,95.01
2013-04-12,94.33
2013-04-15,93.57
2013-04-16,94.49
2013-04-17,93.99
2013-04-18,93.16
2013-04-19,93.89
2013-04-22,93.74
2013-04-23,93.53
2013-04-24,93.76
2013-04-25,93.75
2013-04-26,93.68
2013-04-29,93.59
2013-04-30,93.33
2013-05-01,92.54
2013-05-02,92.84
2013-05-03,92.76
2013-05-06,93.49
2013-05-07,93.21
2013-05-08,94.14
2013-05-09,93.27
2013-05-10,94.27
2013-05-13,94.99
2013-05-14,95.23
2013-05-15,96.41
2013-05-16,97.72
2013-05-17,99.08
2013-05-20,99.69
2013-05-21,100.65
2013-05-22,99.79
2013-05-23,100.79
2013-05-24,100.28
2013-05-28,101.03
2013-05-29,100.16
2013-05-30,100.08
2013-05-31,99.5
2013-06-03,99.98
2013-06-04,99.82
2013-06-05,98.68
2013-06-06,98.56
2013-06-07,99.86
2013-06-10,100.8
2013-06-11,100.5
2013-06-12,99.86
2013-06-13,100.13
2013-06-14,100.1
2013-06-17,100.41
2013-06-18,100.73
2013-06-19,100.11
2013-06-20,99.1
2013-06-21,99.45
2013-06-24,99.15
2013-06-25,99.26
2013-06-26,99.42
2013-06-27,100.79
2013-06-28,100.26
2013-07-01,100.29
2013-07-02,99.2
2013-07-03,98.6
2013-07-05,99.89
2013-07-08,100.08
2013-07-09,95.88
2013-07-10,96.89
2013-07-11,96.71
2013-07-12,96.68
2013-07-15,97.34
2013-07-16,97.28
2013-07-17,98.57
2013-07-18,97.4
2013-07-19,96.81
2013-07-22,97.4
2013-07-23,98.21
2013-07-24,97.78
2013-07-25,98.04
2013-07-26,98.31
2013-07-29,97.97
2013-07-30,97.45
2013-07-31,96.75
2013-08-01,97.37
2013-08-02,97.4
2013-08-05,97.96
2013-08-06,97.44
2013-08-07,96.89
2013-08-08,97.9
2013-08-09,97.77
