date,close_price
2002-02-01,5.367
2002-02-04,5.42048
2002-02-05,5.43892
2002-02-06,5.40204
2002-02-07,5.45921
2002-02-08,5.42233
2002-02-11,5.45921
2002-02-12,5.49241
2002-02-13,5.48688
2002-02-14,5.47028
2002-02-15,5.367
2002-02-19,5.38544
2002-02-20,5.3504
2002-02-21,5.36884
2002-02-22,5.36146
2002-02-25,5.43155
2002-02-26,5.44077
2002-02-27,5.43155
2002-02-28,5.46106
2002-03-01,5.50163
2002-03-04,5.44077
2002-03-05,5.43708
2002-03-06,5.40573
2002-03-07,5.40204
2002-03-08,5.36884
2002-03-11,5.29507
2002-03-12,5.24527
2002-03-13,5.17887
2002-03-14,5.21761
2002-03-15,5.38544
2002-03-18,5.25634
2002-03-19,5.19363
2002-03-20,5.15859
2002-03-21,5.16412
2002-03-22,5.21023
2002-03-25,5.36331
2002-03-26,5.45552
2002-03-27,5.49979
2002-03-28,5.52376
2002-04-01,5.48134
2002-04-02,5.4961
2002-04-03,5.592
2002-04-04,5.54405
2002-04-05,5.49425
2002-04-08,5.56249
2002-04-09,5.61414
2002-04-10,5.60307
2002-04-11,5.63442
2002-04-12,5.72664
2002-04-15,5.65287
2002-04-16,5.7875
2002-04-17,5.84283
2002-04-18,5.74508
2002-04-19,5.79488
2002-04-22,5.88156
2002-04-23,5.80963
2002-04-24,5.9037
2002-04-25,5.99222
2002-04-26,5.99407
2002-04-29,6.0494
2002-04-30,6.05677
2002-05-01,6.19879
2002-05-02,6.26887
2002-05-03,6.22276
2002-05-06,6.17112
2002-05-07,6.13424
2002-05-08,6.14161
2002-05-09,6.10657
2002-05-10,6.03833
2002-05-13,6.05862
2002-05-14,5.99407
2002-05-15,5.68053
2002-05-16,5.81148
2002-05-17,5.66209
2002-05-20,5.87972
2002-05-21,5.89447
2002-05-22,6.0494
2002-05-23,6.09538
2002-05-24,6.07482
2002-05-28,6.07482
2002-05-29,6.04864
2002-05-30,5.99255
2002-05-31,6.03929
2002-06-03,6.14961
2002-06-04,6.11408
2002-06-05,6.00937
2002-06-06,6.00003
2002-06-07,5.86166
2002-06-10,5.79622
2002-06-11,5.81118
2002-06-12,5.79622
2002-06-13,5.84297
2002-06-14,5.79809
2002-06-17,5.78313
2002-06-18,5.74574
2002-06-19,5.75135
2002-06-20,5.77005
2002-06-21,5.66534
2002-06-24,5.43536
2002-06-25,4.90809
2002-06-26,5.04458
2002-06-27,4.98288
2002-06-28,5.05767
2002-07-01,5.05767
2002-07-02,5.03711
2002-07-03,5.03524
2002-07-05,5.04458
2002-07-08,5.0745
2002-07-09,5.02963
2002-07-10,4.90061
2002-07-11,4.80152
2002-07-12,4.84265
2002-07-15,4.8146
2002-07-16,4.86135
2002-07-17,4.74168
2002-07-18,4.39391
2002-07-19,4.04614
2002-07-22,4.04614
2002-07-23,4.29668
2002-07-24,4.32099
2002-07-25,4.3696
2002-07-26,4.59023
2002-07-29,4.66876
2002-07-30,4.59958
2002-07-31,4.63137
2002-08-01,4.4874
2002-08-02,4.40513
2002-08-05,4.59584
2002-08-06,4.73981
2002-08-07,4.87257
2002-08-08,5.00719
2002-08-09,5.02028
2002-08-12,5.04084
2002-08-13,4.9941
2002-08-14,5.12311
2002-08-15,5.06328
2002-08-16,5.04084
2002-08-19,4.91744
2002-08-20,4.88005
2002-08-21,4.71738
2002-08-22,4.73981
2002-08-23,4.5921
2002-08-26,4.56406
2002-08-27,4.84265
2002-08-28,4.86509
2002-08-29,4.8504
2002-08-30,4.92649
2002-09-03,4.80475
2002-09-04,4.79334
2002-09-05,4.8504
2002-09-06,4.61264
2002-09-09,4.46807
2002-09-10,4.57459
2002-09-11,4.56128
2002-09-12,4.35965
2002-09-13,4.31781
2002-09-16,4.42813
2002-09-17,4.31781
2002-09-18,4.39199
2002-09-19,4.15042
2002-09-20,3.98494
2002-09-23,3.94309
2002-09-24,3.93929
2002-09-25,3.99445
2002-09-26,3.96592
2002-09-27,3.42381
2002-09-30,3.55886
2002-10-01,3.62163
2002-10-02,3.70152
2002-10-03,3.72054
2002-10-04,3.47327
2002-10-07,3.5056
2002-10-08,3.36104
2002-10-09,3.51892
2002-10-10,3.42381
2002-10-11,3.54174
2002-10-14,3.4999
2002-10-15,3.6863
2002-10-16,3.74337
2002-10-17,3.89744
2002-10-18,3.78521
2002-10-21,3.90885
2002-10-22,3.9507
2002-10-23,3.93168
2002-10-24,3.92217
2002-10-25,3.97352
2002-10-28,3.90315
2002-10-29,3.88032
2002-10-30,3.80043
2002-10-31,3.80233
2002-11-01,3.84989
2002-11-04,3.83467
2002-11-05,3.74147
2002-11-06,3.9545
2002-11-07,3.89744
2002-11-08,3.8632
2002-11-11,3.83657
2002-11-12,3.32871
2002-11-13,3.46946
2002-11-14,3.67109
2002-11-15,3.55886
2002-11-18,3.61212
2002-11-19,3.66158
2002-11-20,3.5912
2002-11-21,3.52462
2002-11-22,3.49229
2002-11-25,3.61402
2002-11-26,3.60451
2002-11-27,3.64055
2002-11-29,3.60744
2002-12-02,3.61523
2002-12-03,3.63665
2002-12-04,3.7769
2002-12-05,3.84313
2002-12-06,3.83923
2002-12-09,3.83144
2002-12-10,3.89767
2002-12-11,3.87624
2002-12-12,3.88598
2002-12-13,3.93857
2002-12-16,3.95026
2002-12-17,3.93857
2002-12-18,3.88987
2002-12-19,3.89572
2002-12-20,3.93273
2002-12-23,3.92883
2002-12-24,3.94441
2002-12-26,3.96195
2002-12-27,3.93857
2002-12-30,3.99506
2002-12-31,3.94441
2003-01-02,4.06323
2003-01-03,3.97948
2003-01-06,3.92104
2003-01-07,4.10998
2003-01-08,4.13141
2003-01-09,4.26386
2003-01-10,4.24828
2003-01-13,4.2327
2003-01-14,4.32035
2003-01-15,4.2736
2003-01-16,4.40995
2003-01-17,4.43917
2003-01-21,4.39047
2003-01-22,4.31451
2003-01-23,4.11388
2003-01-24,4.1392
2003-01-27,3.98922
2003-01-28,3.89572
2003-01-29,3.91715
2003-01-30,3.89572
2003-01-31,3.97753
2003-02-03,4.02038
2003-02-04,3.97363
2003-02-05,3.98337
2003-02-06,3.93857
2003-02-07,3.90741
2003-02-10,3.9152
2003-02-11,3.80612
2003-02-12,3.76716
2003-02-13,3.87624
2003-02-14,3.94831
2003-02-18,3.95221
2003-02-19,3.94052
2003-02-20,3.93273
2003-02-21,4.0457
2003-02-24,4.05155
2003-02-25,4.13725
2003-02-26,4.10024
2003-02-27,4.21864
2003-02-28,4.25844
2003-03-03,4.20869
2003-03-04,4.08134
2003-03-05,4.10721
2003-03-06,3.9898
2003-03-07,3.88633
2003-03-10,3.80076
2003-03-11,3.81469
2003-03-12,3.87041
2003-03-13,3.9102
2003-03-14,3.8127
2003-03-17,3.67738
2003-03-18,3.48436
2003-03-19,3.80673
2003-03-20,3.73907
2003-03-21,3.88036
2003-03-24,3.74504
2003-03-25,3.79081
2003-03-26,3.80275
2003-03-27,3.84852
2003-03-28,3.79081
2003-03-31,3.68534
2003-04-01,3.45849
2003-04-02,3.63361
2003-04-03,3.73907
2003-04-04,3.57192
2003-04-07,3.60177
2003-04-08,3.73111
2003-04-09,3.71718
2003-04-10,3.73708
2003-04-11,3.75101
2003-04-14,3.75698
2003-04-15,3.77688
2003-04-16,3.70325
2003-04-17,3.77091
2003-04-21,3.79678
2003-04-22,3.86842
2003-04-23,3.88633
2003-04-24,3.91419
2003-04-25,3.64156
2003-04-28,3.68136
2003-04-29,3.63958
2003-04-30,3.6535
2003-05-01,3.62167
2003-05-02,3.61172
2003-05-05,3.59779
2003-05-06,3.49033
2003-05-07,3.51421
2003-05-08,3.58187
2003-05-09,3.7729
2003-05-12,3.81867
2003-05-13,3.8923
2003-05-14,3.97985
2003-05-15,3.99975
2003-05-16,3.98383
2003-05-19,4.02761
2003-05-20,4.149
2003-05-21,4.40769
2003-05-22,4.67235
2003-05-23,4.70618
2003-05-27,4.7997
2003-05-28,4.86935
2003-05-29,4.92305
2003-05-30,5.09742
2003-06-02,5.14
2003-06-03,5.12581
2003-06-04,5.15825
2003-06-05,5.16839
2003-06-06,5.08323
2003-06-09,5.06092
2003-06-10,5.05281
2003-06-11,5.0812
2003-06-12,5.00821
2003-06-13,5.03254
2003-06-16,5.19069
2003-06-17,5.07106
2003-06-18,5.07917
2003-06-19,5.07309
2003-06-20,5.11161
2003-06-23,5.27585
2003-06-24,5.35087
2003-06-25,5.3164
2003-06-26,5.45631
2003-06-27,5.4482
2003-06-30,5.47456
2003-07-01,5.50092
2003-07-02,5.56985
2003-07-03,5.53741
2003-07-07,5.69151
2003-07-08,5.67935
2003-07-09,5.4482
2003-07-10,5.41576
2003-07-11,5.34884
2003-07-14,5.2941
2003-07-15,5.16028
2003-07-16,5.06701
2003-07-17,5.17244
2003-07-18,5.24341
2003-07-21,5.13594
2003-07-22,5.14203
2003-07-23,5.11972
2003-07-24,5.15419
2003-07-25,5.11364
2003-07-28,5.06903
2003-07-29,5.03456
2003-07-30,4.98793
2003-07-31,5.10148
2003-08-01,5.08728
2003-08-04,5.07512
2003-08-05,5.04876
2003-08-06,5.0812
2003-08-07,4.42222
2003-08-08,4.31882
2003-08-11,4.33098
2003-08-12,4.38167
2003-08-13,4.31679
2003-08-14,4.27826
2003-08-15,4.25596
2003-08-18,4.23771
2003-08-19,4.38776
2003-08-20,4.54996
2003-08-21,4.69798
2003-08-22,4.60471
2003-08-25,4.64729
2003-08-26,4.69393
2003-08-27,4.67365
2003-08-28,4.66844
2003-08-29,4.69946
2003-09-02,4.80495
2003-09-03,4.75738
2003-09-04,4.91044
2003-09-05,4.8608
2003-09-08,4.93733
2003-09-09,4.84839
2003-09-10,4.85459
2003-09-11,4.75531
2003-09-12,4.77186
2003-09-15,4.74497
2003-09-16,4.65603
2003-09-17,4.93113
2003-09-18,4.91665
2003-09-19,4.92078
2003-09-22,4.96422
2003-09-23,4.93526
2003-09-24,4.93319
2003-09-25,4.93526
2003-09-26,4.7822
2003-09-29,4.81736
2003-09-30,4.74704
2003-10-01,4.87321
2003-10-02,4.93319
2003-10-03,4.95595
2003-10-06,4.93319
2003-10-07,4.92285
2003-10-08,4.81116
2003-10-09,4.86907
2003-10-10,4.85253
2003-10-13,4.82564
2003-10-14,4.89183
2003-10-15,4.84632
2003-10-16,4.88769
2003-10-17,4.98284
2003-10-20,5.00559
2003-10-21,4.88976
2003-10-22,4.91665
2003-10-23,5.00559
2003-10-24,5.06144
2003-10-27,5.10694
2003-10-28,5.19175
2003-10-29,5.26207
2003-10-30,5.18968
2003-10-31,5.18141
2003-11-03,5.12142
2003-11-04,5.04489
2003-11-05,5.11108
2003-11-06,5.05523
2003-11-07,5.05523
2003-11-10,5.10487
2003-11-11,5.11935
2003-11-12,4.92492
2003-11-13,4.8608
2003-11-14,4.8277
2003-11-17,4.86907
2003-11-18,4.86494
2003-11-19,4.89389
2003-11-20,4.91872
2003-11-21,4.72015
2003-11-24,4.76772
2003-11-25,4.8215
2003-11-26,4.88361
2003-11-28,4.87306
2003-12-01,4.8372
2003-12-02,4.83087
2003-12-03,4.7718
2003-12-04,4.78446
2003-12-05,4.79711
2003-12-08,4.87517
2003-12-09,4.89415
2003-12-10,4.90048
2003-12-11,4.93635
2003-12-12,4.94689
2003-12-15,4.94689
2003-12-16,4.94689
2003-12-17,4.93635
2003-12-18,5.02495
2003-12-19,5.07136
2003-12-22,5.05237
2003-12-23,5.06714
2003-12-24,5.11566
2003-12-26,5.1473
2003-12-29,5.27598
2003-12-30,5.31817
2003-12-31,5.31817
2004-01-02,5.32028
2004-01-05,5.32239
2004-01-06,5.29497
2004-01-07,5.26333
2004-01-08,5.22957
2004-01-09,5.28442
2004-01-12,5.30552
2004-01-13,5.29708
2004-01-14,5.37513
2004-01-15,5.38568
2004-01-16,5.40256
2004-01-20,5.33716
2004-01-21,5.33083
2004-01-22,5.35825
2004-01-23,5.39623
2004-01-26,5.37935
2004-01-27,5.46162
2004-01-28,5.48483
2004-01-29,5.48272
2004-01-30,5.51014
2004-02-02,5.5882
2004-02-03,5.52913
2004-02-04,5.59031
2004-02-05,5.60929
2004-02-06,5.59241
2004-02-09,5.63672
2004-02-10,5.65781
2004-02-11,5.67469
2004-02-12,5.68102
2004-02-13,5.79915
2004-02-17,5.97002
2004-02-18,6.09238
2004-02-19,6.15988
2004-02-20,6.1198
2004-02-23,6.07761
2004-02-24,6.0523
2004-02-25,6.18098
2004-02-26,6.13929
2004-02-27,6.11144
2004-03-01,6.26572
2004-03-02,6.25929
2004-03-03,6.24858
2004-03-04,6.28501
2004-03-05,6.35787
2004-03-08,6.27429
2004-03-09,6.26787
2004-03-10,6.31929
2004-03-11,6.19072
2004-03-12,6.09001
2004-03-15,6.07715
2004-03-16,5.91429
2004-03-17,6.08572
2004-03-18,6.09644
2004-03-19,6.07715
2004-03-22,5.86286
2004-03-23,5.91858
2004-03-24,5.91644
2004-03-25,5.91215
2004-03-26,5.86072
2004-03-29,5.76644
2004-03-30,5.81786
2004-03-31,5.86501
2004-04-01,5.91644
2004-04-02,5.86072
2004-04-05,5.67644
2004-04-06,5.78358
2004-04-07,5.82429
2004-04-08,5.79001
2004-04-12,5.81358
2004-04-13,5.71286
2004-04-14,5.70001
2004-04-15,5.64001
2004-04-16,5.69358
2004-04-19,5.73858
2004-04-20,5.70001
2004-04-21,5.73215
2004-04-22,5.78786
2004-04-23,5.74286
2004-04-26,5.74072
2004-04-27,5.80715
2004-04-28,5.78786
2004-04-29,5.61429
2004-04-30,5.61858
2004-05-03,5.35715
2004-05-04,5.38715
2004-05-05,5.37858
2004-05-06,5.39144
2004-05-07,5.37001
2004-05-10,5.31001
2004-05-11,5.18572
2004-05-12,5.04858
2004-05-13,5.14286
2004-05-14,5.20715
2004-05-17,5.03786
2004-05-18,5.05929
2004-05-19,5.02715
2004-05-20,4.91786
2004-05-21,5.00358
2004-05-24,4.85572
2004-05-25,4.97572
2004-05-26,5.06786
2004-05-27,4.99026
2004-05-28,4.9553
2004-06-01,5.04051
2004-06-02,4.95093
2004-06-03,4.95967
2004-06-04,4.98589
2004-06-07,5.03396
2004-06-08,4.9553
2004-06-09,4.99463
2004-06-10,4.97934
2004-06-14,4.96841
2004-06-15,5.02522
2004-06-16,5.17379
2004-06-17,5.16723
2004-06-18,5.26118
2004-06-21,5.20438
2004-06-22,5.21967
2004-06-23,5.29833
2004-06-24,5.28085
2004-06-25,5.31799
2004-06-28,5.37698
2004-06-29,5.25463
2004-06-30,5.35513
2004-07-01,5.27429
2004-07-02,5.29396
2004-07-06,5.35295
2004-07-07,5.26118
2004-07-08,5.21749
2004-07-09,5.26774
2004-07-12,5.30488
2004-07-13,5.27211
2004-07-14,5.36387
2004-07-15,5.38135
2004-07-16,5.259
2004-07-19,5.22841
2004-07-20,5.24152
2004-07-21,5.24371
2004-07-22,5.21749
2004-07-23,5.14976
2004-07-26,5.0427
2004-07-27,5.01648
2004-07-28,5.13665
2004-07-29,5.17597
2004-07-30,5.19345
2004-08-02,5.23278
2004-08-03,5.28959
2004-08-04,5.30925
2004-08-05,5.29177
2004-08-06,5.29396
2004-08-09,5.31581
2004-08-10,5.32892
2004-08-11,5.31799
2004-08-12,5.30488
2004-08-13,5.26555
2004-08-16,5.30051
2004-08-17,5.31581
2004-08-18,5.30707
2004-08-19,5.3027
2004-08-20,5.30925
2004-08-23,5.3748
2004-08-24,5.36387
2004-08-25,5.43816
2004-08-26,5.45127
2004-08-27,5.44908
2004-08-30,5.47452
2004-08-31,5.49455
2004-09-01,5.45004
2004-09-02,5.42778
2004-09-03,5.43668
2004-09-07,5.5079
2004-09-08,5.5079
2004-09-09,5.52125
2004-09-10,5.51902
2004-09-13,5.47897
2004-09-14,5.49677
2004-09-15,5.49009
2004-09-16,5.47674
2004-09-17,5.46339
2004-09-20,5.35434
2004-09-21,5.22972
2004-09-22,5.16963
2004-09-23,5.26755
2004-09-24,5.23862
2004-09-27,5.16963
2004-09-28,5.28758
2004-09-29,5.31651
2004-09-30,5.40775
2004-10-01,5.51235
2004-10-04,5.50567
2004-10-05,5.47897
2004-10-06,5.44559
2004-10-07,5.38328
2004-10-08,5.39218
2004-10-11,5.46339
2004-10-12,5.69483
2004-10-13,5.67926
2004-10-14,5.60137
2004-10-15,5.69261
2004-10-18,5.62807
2004-10-19,5.65032
2004-10-20,5.61917
2004-10-21,5.72599
2004-10-22,5.77272
2004-10-25,5.76159
2004-10-26,5.77272
2004-10-27,5.87509
2004-10-28,5.96411
2004-10-29,6.02642
2004-11-01,6.15327
2004-11-02,6.1733
2004-11-03,6.22226
2004-11-04,6.32685
2004-11-05,6.38694
2004-11-08,6.35801
2004-11-09,6.27567
2004-11-10,6.32017
2004-11-11,6.3402
2004-11-12,6.3402
2004-11-15,6.45147
2004-11-16,6.40474
2004-11-17,6.55162
2004-11-18,6.58722
2004-11-19,6.46483
2004-11-22,6.51156
2004-11-23,6.56497
2004-11-24,6.54494
2004-11-26,6.6028
2004-11-29,6.54055
2004-11-30,6.64225
2004-12-01,6.62417
2004-12-02,6.64451
2004-12-03,6.65581
2004-12-06,6.59479
2004-12-07,6.43432
2004-12-08,6.3733
2004-12-09,6.31454
2004-12-10,6.42528
2004-12-13,6.49535
2004-12-14,6.53151
2004-12-15,6.48631
2004-12-16,6.51569
2004-12-17,6.42755
2004-12-20,6.43658
2004-12-21,6.49761
2004-12-22,6.63095
2004-12-23,6.65581
2004-12-27,6.70327
2004-12-28,6.71231
2004-12-29,6.67163
2004-12-30,6.61965
2004-12-31,6.55411
2005-01-03,6.54507
2005-01-04,6.57897
2005-01-05,6.50665
2005-01-06,6.48857
2005-01-07,6.61739
2005-01-10,6.73717
2005-01-11,6.72813
2005-01-12,6.76203
2005-01-13,6.89311
2005-01-14,7.1033
2005-01-18,7.07618
2005-01-19,7.2954
2005-01-20,7.03776
2005-01-21,6.95413
2005-01-24,7.00611
2005-01-25,7.20952
2005-01-26,7.03776
2005-01-27,7.11234
2005-01-28,7.06036
2005-01-31,7.092
2005-02-01,7.07392
2005-02-02,7.07392
2005-02-03,7.22082
2005-02-04,7.5666
2005-02-07,7.4084
2005-02-08,7.4875
2005-02-09,7.38128
2005-02-10,7.52366
2005-02-11,7.5779
2005-02-14,7.67509
2005-02-15,7.57112
2005-02-16,7.50784
2005-02-17,7.39032
2005-02-18,7.2841
2005-02-22,7.16432
2005-02-23,7.42422
2005-02-24,7.29766
2005-02-25,7.3378
2005-02-28,7.47993
2005-03-01,7.46159
2005-03-02,7.51202
2005-03-03,7.51202
2005-03-04,7.53036
2005-03-07,7.53724
2005-03-08,7.52578
2005-03-09,7.52807
2005-03-10,7.52119
2005-03-11,7.50285
2005-03-14,7.51661
2005-03-15,7.63123
2005-03-16,7.51202
2005-03-17,7.54641
2005-03-18,7.39511
2005-03-21,7.28279
2005-03-22,7.38824
2005-03-23,7.22089
2005-03-24,7.42721
2005-03-28,7.52119
2005-03-29,7.48452
2005-03-30,7.47076
2005-03-31,7.58538
2005-04-01,7.38136
2005-04-04,7.30342
2005-04-05,7.37219
2005-04-06,7.3699
2005-04-07,7.25299
2005-04-08,7.39741
2005-04-11,7.40658
2005-04-12,7.31259
2005-04-13,7.45471
2005-04-14,7.38824
2005-04-15,7.16588
2005-04-18,7.02146
2005-04-19,7.07648
2005-04-20,6.87246
2005-04-21,6.96874
2005-04-22,7.18422
2005-04-25,7.33322
2005-04-26,7.10169
2005-04-27,7.3378
2005-04-28,7.22089
2005-04-29,7.22089
2005-05-02,7.27133
2005-05-03,7.16588
2005-05-04,7.10169
2005-05-05,7.15212
2005-05-06,7.19339
2005-05-09,7.19568
2005-05-10,7.15212
2005-05-11,7.09023
2005-05-12,7.05585
2005-05-13,6.98249
2005-05-16,7.08335
2005-05-17,7.03292
2005-05-18,7.01229
2005-05-19,6.98708
2005-05-20,7.04438
2005-05-23,7.0696
2005-05-24,7.08106
2005-05-25,7.00541
2005-05-26,7.00541
2005-05-27,6.97404
2005-05-31,6.95775
2005-06-01,7.02756
2005-06-02,7.11366
2005-06-03,7.18812
2005-06-06,7.27655
2005-06-07,7.36032
2005-06-08,7.3929
2005-06-09,7.57673
2005-06-10,7.53485
2005-06-13,7.53252
2005-06-14,7.40919
2005-06-15,7.49296
2005-06-16,7.54415
2005-06-17,7.72566
2005-06-20,7.76987
2005-06-21,7.76056
2005-06-22,7.77918
2005-06-23,7.76987
2005-06-24,7.63258
2005-06-27,7.68145
2005-06-28,7.70006
2005-06-29,7.68145
2005-06-30,7.74428
2005-07-01,7.8583
2005-07-05,7.85364
2005-07-06,7.82107
2005-07-07,7.88855
2005-07-08,8.07471
2005-07-11,8.10263
2005-07-12,8.14219
2005-07-13,8.23295
2005-07-14,8.33999
2005-07-15,8.29112
2005-07-18,8.44005
2005-07-19,8.63319
2005-07-20,8.80772
2005-07-21,8.74954
2005-07-22,8.83099
2005-07-25,8.89847
2005-07-26,8.96828
2005-07-27,8.9613
2005-07-28,8.96828
2005-07-29,9.04042
2005-08-01,8.91476
2005-08-02,8.97759
2005-08-03,9.0823
2005-08-04,9.07067
2005-08-05,8.96363
2005-08-08,8.89149
2005-08-09,9.00784
2005-08-10,9.02878
2005-08-11,9.03344
2005-08-12,8.98922
2005-08-15,9.07765
2005-08-16,9.05438
2005-08-17,9.09627
2005-08-18,9.17538
2005-08-19,9.11255
2005-08-22,9.13582
2005-08-23,9.28475
2005-08-24,9.24519
2005-08-25,9.17771
2005-08-26,9.09859
2005-08-29,8.9962
2005-08-30,8.95031
2005-08-31,9.08453
2005-09-01,9.14576
2005-09-02,9.0916
2005-09-06,9.19756
2005-09-07,9.12927
2005-09-08,9.17166
2005-09-09,9.14811
2005-09-12,9.21875
2005-09-13,9.2164
2005-09-14,9.17872
2005-09-15,9.10572
2005-09-16,9.03037
2005-09-19,8.99505
2005-09-20,8.98799
2005-09-21,8.95738
2005-09-22,8.88909
2005-09-23,8.80197
2005-09-26,8.90322
2005-09-27,8.97621
2005-09-28,9.18343
2005-09-29,9.28704
2005-09-30,9.33884
2005-10-03,9.53664
2005-10-04,9.63083
2005-10-05,9.65438
2005-10-06,9.41184
2005-10-07,9.393
2005-10-10,9.40007
2005-10-11,9.42832
2005-10-12,9.3153
2005-10-13,9.21875
2005-10-14,9.34355
2005-10-17,9.83098
2005-10-18,9.64731
2005-10-19,9.60493
2005-10-20,9.44481
2005-10-21,9.40948
2005-10-24,9.75092
2005-10-25,9.70382
2005-10-26,9.32001
2005-10-27,9.18814
2005-10-28,9.50838
2005-10-31,9.70147
2005-11-01,9.7415
2005-11-02,10.0853
2005-11-03,9.9652
2005-11-04,9.80979
2005-11-07,9.95343
2005-11-08,9.64731
2005-11-09,9.64025
2005-11-10,9.58373
2005-11-11,9.50603
2005-11-14,9.46129
2005-11-15,9.54606
2005-11-16,9.50132
2005-11-17,9.75798
2005-11-18,9.79095
2005-11-21,9.67321
2005-11-22,9.60964
2005-11-23,9.58138
2005-11-25,9.48719
2005-11-28,9.48484
2005-11-29,9.52181
2005-11-30,9.57897
2005-12-01,9.67423
2005-12-02,9.72187
2005-12-05,9.82428
2005-12-06,9.78379
2005-12-07,9.82428
2005-12-08,9.7171
2005-12-09,9.81475
2005-12-12,9.90763
2005-12-13,10.2339
2005-12-14,10.2292
2005-12-15,10.3625
2005-12-16,10.3339
2005-12-19,10.3768
2005-12-20,10.3744
2005-12-21,10.3935
2005-12-22,10.4006
2005-12-23,10.4387
2005-12-27,10.4411
2005-12-28,10.3959
2005-12-29,10.4125
2005-12-30,10.4697
2006-01-03,10.4626
2006-01-04,10.696
2006-01-05,10.7412
2006-01-06,10.7007
2006-01-09,11.1199
2006-01-10,11.1509
2006-01-11,11.0889
2006-01-12,11.0723
2006-01-13,11.1509
2006-01-17,10.9794
2006-01-18,10.7936
2006-01-19,11.1127
2006-01-20,11.1437
2006-01-23,11.1794
2006-01-24,11.008
2006-01-25,11.0842
2006-01-26,11.1175
2006-01-27,11.1937
2006-01-30,10.8174
2006-01-31,10.977
2006-02-01,11.1485
2006-02-02,11.0699
2006-02-03,11.0865
2006-02-06,11.0056
2006-02-07,10.9151
2006-02-08,10.8269
2006-02-09,10.9317
2006-02-10,10.7031
2006-02-13,10.6602
2006-02-14,10.6507
2006-02-15,10.6912
2006-02-16,11.1628
2006-02-17,11.2318
2006-02-21,11.1437
2006-02-22,11.5676
2006-02-23,11.5748
2006-02-24,11.2628
2006-02-27,11.4874
2006-02-28,11.4129
2006-03-01,11.5307
2006-03-02,11.4971
2006-03-03,11.7327
2006-03-06,11.5548
2006-03-07,11.4297
2006-03-08,11.4754
2006-03-09,11.4153
2006-03-10,11.7111
2006-03-13,11.7207
2006-03-14,11.9997
2006-03-15,11.8987
2006-03-16,11.9997
2006-03-17,12.0237
2006-03-20,11.9275
2006-03-21,11.8361
2006-03-22,11.9516
2006-03-23,11.9251
2006-03-24,11.7712
2006-03-27,11.7063
2006-03-28,11.562
2006-03-29,11.586
2006-03-30,11.449
2006-03-31,11.372
2006-04-03,11.4995
2006-04-04,11.3263
2006-04-05,11.4081
2006-04-06,11.3143
2006-04-07,11.3408
2006-04-10,11.473
2006-04-11,11.3095
2006-04-12,11.3816
2006-04-13,11.3335
2006-04-17,11.3167
2006-04-18,11.4658
2006-04-19,11.2999
2006-04-20,11.4345
2006-04-21,11.5187
2006-04-24,11.776
2006-04-25,11.7712
2006-04-26,12.0069
2006-04-27,12.2834
2006-04-28,12.3243
2006-05-01,12.2978
2006-05-02,12.2305
2006-05-03,12.6201
2006-05-04,12.7139
2006-05-05,12.6489
2006-05-08,12.7283
2006-05-09,12.7163
2006-05-10,12.6489
2006-05-11,12.0141
2006-05-12,11.9083
2006-05-15,12.0333
2006-05-16,11.966
2006-05-17,11.6245
2006-05-18,11.5379
2006-05-19,11.5596
2006-05-22,11.473
2006-05-23,11.4345
2006-05-24,11.3696
2006-05-25,11.4105
2006-05-26,11.4634
2006-05-30,11.3868
2006-05-31,11.28
2006-06-01,11.3067
2006-06-02,11.5786
2006-06-05,11.5106
2006-06-06,11.5762
2006-06-07,11.6611
2006-06-08,11.7752
2006-06-09,11.9209
2006-06-12,11.8384
2006-06-13,11.4451
2006-06-14,11.496
2006-06-15,11.8238
2006-06-16,12.0666
2006-06-19,11.9598
2006-06-20,11.9695
2006-06-21,12.0617
2006-06-22,12.3385
2006-06-23,12.2584
2006-06-26,12.1564
2006-06-27,12.1734
2006-06-28,12.3676
2006-06-29,12.6032
2006-06-30,12.4648
2006-07-03,12.6104
2006-07-05,12.4114
2006-07-06,13.1082
2006-07-07,13.2441
2006-07-10,13.4311
2006-07-11,13.4262
2006-07-12,13.249
2006-07-13,13.079
2006-07-14,13.3946
2006-07-17,13.3922
2006-07-18,13.317
2006-07-19,13.4335
2006-07-20,13.72
2006-07-21,13.8244
2006-07-24,13.8487
2006-07-25,13.9142
2006-07-26,14.2056
2006-07-27,14.0866
2006-07-28,13.9798
2006-07-31,13.9264
2006-08-01,14.1643
2006-08-02,14.3148
2006-08-03,14.4702
2006-08-04,14.4483
2006-08-07,14.6936
2006-08-08,14.7882
2006-08-09,14.5673
2006-08-10,14.4823
2006-08-11,14.3609
2006-08-14,14.4362
2006-08-15,14.713
2006-08-16,13.9531
2006-08-17,13.9191
2006-08-18,14.3318
2006-08-21,14.3707
2006-08-22,14.2517
2006-08-23,14.2031
2006-08-24,14.2954
2006-08-25,14.3124
2006-08-28,14.4459
2006-08-29,14.4653
2006-08-30,14.2269
2006-08-31,14.0141
2006-09-01,14.1706
2006-09-05,13.9651
2006-09-06,13.9798
2006-09-07,13.9431
2006-09-08,13.97
2006-09-11,14.0239
2006-09-12,14.0018
2006-09-13,14.1168
2006-09-14,14.0336
2006-09-15,14.0018
2006-09-18,13.8428
2006-09-19,13.7131
2006-09-20,13.6324
2006-09-21,13.6764
2006-09-22,13.6789
2006-09-25,13.5199
2006-09-26,13.1015
2006-09-27,13.4587
2006-09-28,13.603
2006-09-29,13.5419
2006-10-02,13.6079
2006-10-03,13.488
2006-10-04,13.5199
2006-10-05,14.0165
2006-10-06,14.1535
2006-10-09,14.1217
2006-10-10,14.0067
2006-10-11,13.9505
2006-10-12,13.9969
2006-10-13,13.9382
2006-10-16,14.041
2006-10-17,13.9847
2006-10-18,13.855
2006-10-19,13.8722
2006-10-20,13.8208
2006-10-23,14.0067
2006-10-24,14.1168
2006-10-25,14.1217
2006-10-26,14.178
2006-10-27,13.9725
2006-10-30,13.9798
2006-10-31,14.1315
2006-11-01,14.315
2006-11-02,14.4153
2006-11-03,14.5058
2006-11-06,14.6502
2006-11-07,14.5425
2006-11-08,15.0685
2006-11-09,15.0221
2006-11-10,15.049
2006-11-13,14.9805
2006-11-14,14.9707
2006-11-15,15.2153
2006-11-16,15.4135
2006-11-17,15.3744
2006-11-20,15.4013
2006-11-21,15.3695
2006-11-22,15.4257
2006-11-24,15.4306
2006-11-27,15.1468
2006-11-28,15.1909
2006-11-29,15.355
2006-11-30,15.355
2006-12-01,15.3033
2006-12-04,15.4733
2006-12-05,15.4093
2006-12-06,15.4043
2006-12-07,15.4783
2006-12-08,15.4881
2006-12-11,15.599
2006-12-12,15.5128
2006-12-13,15.4635
2006-12-14,15.4142
2006-12-15,15.4413
2006-12-18,15.3575
2006-12-19,15.4832
2006-12-20,15.4659
2006-12-21,15.6508
2006-12-22,15.7001
2006-12-26,15.8332
2006-12-27,15.843
2006-12-28,15.9515
2006-12-29,15.9293
2007-01-03,15.9219
2007-01-04,15.8307
2007-01-05,15.917
2007-01-08,16.1142
2007-01-09,16.2522
2007-01-10,16.5381
2007-01-11,16.6145
2007-01-12,16.6367
2007-01-16,16.8166
2007-01-17,16.7673
2007-01-18,16.9152
2007-01-19,16.8511
2007-01-22,16.8067
2007-01-23,16.962
2007-01-24,16.9201
2007-01-25,16.8585
2007-01-26,16.8363
2007-01-29,16.9448
2007-01-30,16.7599
2007-01-31,16.8733
2007-02-01,16.8634
2007-02-02,16.7673
2007-02-05,16.617
2007-02-06,16.7599
2007-02-07,16.6983
2007-02-08,16.8018
2007-02-09,16.7698
2007-02-12,16.8166
2007-02-13,17.4106
2007-02-14,17.7113
2007-02-15,17.9085
2007-02-16,17.9651
2007-02-20,17.8641
2007-02-21,18.2067
2007-02-22,17.9602
2007-02-23,17.9651
2007-02-26,17.874
2007-02-27,17.5528
2007-02-28,17.8603
2007-03-01,17.7661
2007-03-02,17.6297
2007-03-05,17.1435
2007-03-06,17.7016
2007-03-07,17.528
2007-03-08,17.8802
2007-03-09,18.0786
2007-03-12,18.2497
2007-03-13,17.6569
2007-03-14,17.5453
2007-03-15,17.8008
2007-03-16,17.9918
2007-03-19,18.4357
2007-03-20,18.587
2007-03-21,18.4829
2007-03-22,18.6267
2007-03-23,18.4159
2007-03-26,18.2671
2007-03-27,18.1778
2007-03-28,18.3241
2007-03-29,18.8475
2007-03-30,18.7383
2007-04-02,18.9417
2007-04-03,19.1277
2007-04-04,19.4427
2007-04-05,19.4998
2007-04-09,19.1848
2007-04-10,19.3634
2007-04-11,19.47
2007-04-12,19.1749
2007-04-13,18.9492
2007-04-16,19.0186
2007-04-17,18.7607
2007-04-18,18.8227
2007-04-19,18.7259
2007-04-20,18.6317
2007-04-23,18.7011
2007-04-24,18.6366
2007-04-25,19.1277
2007-04-26,18.9665
2007-04-27,18.912
2007-04-30,18.974
2007-05-01,18.9318
2007-05-02,19.2741
2007-05-03,19.4576
2007-05-04,19.0682
2007-05-07,19.0236
2007-05-08,18.9616
2007-05-09,19.2766
2007-05-10,18.9516
2007-05-11,19.1501
2007-05-14,19.1773
2007-05-15,19.0682
2007-05-16,19.3956
2007-05-17,19.3832
2007-05-18,19.3758
2007-05-21,19.3782
2007-05-22,19.6039
2007-05-23,19.4527
2007-05-24,19.0905
2007-05-25,19.3162
2007-05-29,19.4626
2007-05-30,19.3664
2007-05-31,19.4013
2007-06-01,19.6359
2007-06-04,19.6882
2007-06-05,19.3539
2007-06-06,19.4363
2007-06-07,19.5386
2007-06-08,19.2192
2007-06-11,19.6184
2007-06-12,19.6109
2007-06-13,19.7257
2007-06-14,19.8454
2007-06-15,19.6758
2007-06-18,19.4787
2007-06-19,19.3589
2007-06-20,19.1145
2007-06-21,19.1219
2007-06-22,18.9373
2007-06-25,19.1269
2007-06-26,19.0271
2007-06-27,19.4887
2007-06-28,19.314
2007-06-29,19.2716
2007-07-02,19.778
2007-07-03,19.8579
2007-07-05,20.0674
2007-07-06,20.1073
2007-07-09,19.8953
2007-07-10,19.6408
2007-07-11,19.7182
2007-07-12,19.8579
2007-07-13,20.0076
2007-07-16,19.7381
2007-07-17,19.5884
2007-07-18,19.5286
2007-07-19,19.7107
2007-07-20,19.586
2007-07-23,19.5485
2007-07-24,19.344
2007-07-25,19.1095
2007-07-26,18.7727
2007-07-27,18.7228
2007-07-30,18.5482
2007-07-31,18.9099
2007-08-01,18.5531
2007-08-02,18.4109
2007-08-03,18.5606
2007-08-06,18.8575
2007-08-07,19.1294
2007-08-08,18.6704
2007-08-09,18.0367
2007-08-10,18.5057
2007-08-13,19.0745
2007-08-14,18.8625
2007-08-15,18.4808
2007-08-16,17.912
2007-08-17,18.2189
2007-08-20,18.1989
2007-08-21,18.1266
2007-08-22,18.3511
2007-08-23,18.4234
2007-08-24,18.3511
2007-08-27,18.5881
2007-08-28,18.5956
2007-08-29,18.7527
2007-08-30,18.7917
2007-08-31,19.1004
2007-09-04,19.4819
2007-09-05,19.6902
2007-09-06,19.4969
2007-09-07,19.4593
2007-09-10,19.4016
2007-09-11,19.3438
2007-09-12,19.7253
2007-09-13,19.8182
2007-09-14,19.8157
2007-09-17,19.7655
2007-09-18,19.9663
2007-09-19,19.8785
2007-09-20,19.8659
2007-09-21,19.8383
2007-09-24,19.4442
2007-09-25,19.8383
2007-09-26,20.5034
2007-09-27,20.3679
2007-09-28,20.5988
2007-10-01,21.0857
2007-10-02,21.4296
2007-10-03,21.4622
2007-10-04,21.1359
2007-10-05,21.1108
2007-10-08,21.0656
2007-10-09,20.9452
2007-10-10,20.8824
2007-10-11,20.9627
2007-10-12,21.1409
2007-10-15,21.2112
2007-10-16,21.0556
2007-10-17,21.0255
2007-10-18,21.0104
2007-10-19,20.777
2007-10-22,20.9201
2007-10-23,20.9251
2007-10-24,20.9527
2007-10-25,20.5812
2007-10-26,20.8021
2007-10-29,21.2162
2007-10-30,21.5124
2007-10-31,21.5526
2007-11-01,21.3493
2007-11-02,21.535
2007-11-05,21.5852
2007-11-06,21.6906
2007-11-07,21.5726
2007-11-08,21.7207
2007-11-09,21.4873
2007-11-12,21.4597
2007-11-13,21.668
2007-11-14,21.4572
2007-11-15,21.3292
2007-11-16,21.9039
2007-11-19,21.914
2007-11-20,21.7433
2007-11-21,21.4421
2007-11-23,21.5902
2007-11-26,21.3593
2007-11-27,21.8337
2007-11-28,21.9491
2007-11-29,22.0664
2007-11-30,22.4525
2007-12-03,22.2784
2007-12-04,22.4272
2007-12-05,22.3314
2007-12-06,22.021
2007-12-07,22.3919
2007-12-10,22.4979
2007-12-11,22.0892
2007-12-12,22.1144
2007-12-13,22.0261
2007-12-14,22.0765
2007-12-17,22.3743
2007-12-18,21.693
2007-12-19,21.5341
2007-12-20,21.6224
2007-12-21,22.1245
2007-12-24,21.9403
2007-12-26,21.6754
2007-12-27,21.6224
2007-12-28,21.5593
2007-12-31,21.524
2008-01-02,21.0295
2008-01-03,21.1682
2008-01-04,20.9563
2008-01-07,21.1935
2008-01-08,21.7107
2008-01-09,22.2607
2008-01-10,22.2809
2008-01-11,22.021
2008-01-14,21.7334
2008-01-15,21.6501
2008-01-16,21.8949
2008-01-17,21.582
2008-01-18,21.4079
2008-01-22,20.7469
2008-01-23,20.7343
2008-01-24,20.7595
2008-01-25,20.4971
2008-01-28,20.5022
2008-01-29,21.3701
2008-01-30,21.0471
2008-01-31,20.6889
2008-02-01,21.2616
2008-02-04,21.2389
2008-02-05,20.5779
2008-02-06,20.7065
2008-02-07,20.7797
2008-02-08,20.3356
2008-02-11,19.44
2008-02-12,19.4879
2008-02-13,19.4122
2008-02-14,19.4728
2008-02-15,19.3693
2008-02-19,19.2205
2008-02-20,19.2306
2008-02-21,18.9253
2008-02-22,18.7991
2008-02-25,19.0817
2008-02-26,19.223
2008-02-27,19.112
2008-02-28,19.3288
2008-02-29,19.075
2008-03-03,18.8491
2008-03-04,19.0115
2008-03-05,19.2171
2008-03-06,18.9277
2008-03-07,18.8719
2008-03-10,19.0039
2008-03-11,19.1232
2008-03-12,18.8846
2008-03-13,18.8821
2008-03-14,18.6308
2008-03-17,18.3059
2008-03-18,18.6942
2008-03-19,18.5013
2008-03-20,18.3363
2008-03-24,18.3795
2008-03-25,18.6688
2008-03-26,18.5724
2008-03-27,18.646
2008-03-28,18.6003
2008-03-31,18.3922
2008-04-01,18.5039
2008-04-02,18.4353
2008-04-03,18.5851
2008-04-04,18.3643
2008-04-07,18.1409
2008-04-08,18.0927
2008-04-09,17.7881
2008-04-10,17.5317
2008-04-11,17.5393
2008-04-14,17.0774
2008-04-15,17.2322
2008-04-16,17.2144
2008-04-17,17.5774
2008-04-18,17.8896
2008-04-21,17.7627
2008-04-22,18.08
2008-04-23,18.5775
2008-04-24,18.5115
2008-04-25,18.3262
2008-04-28,17.1941
2008-04-29,16.8134
2008-04-30,16.7093
2008-05-01,16.3717
2008-05-02,16.6052
2008-05-05,17.0368
2008-05-06,17.1484
2008-05-07,17.1231
2008-05-08,17.1459
2008-05-09,17.5876
2008-05-12,18.4937
2008-05-13,18.745
2008-05-14,18.7399
2008-05-15,18.6155
2008-05-16,18.6054
2008-05-19,18.4023
2008-05-20,18.179
2008-05-21,17.8687
2008-05-22,17.9095
2008-05-23,17.7154
2008-05-27,17.6899
2008-05-28,18.0219
2008-05-29,18.3872
2008-05-30,18.4996
2008-06-02,18.492
2008-06-03,18.4664
2008-06-04,18.824
2008-06-05,18.75
2008-06-06,18.5277
2008-06-09,18.3796
2008-06-10,19.6134
2008-06-11,19.7462
2008-06-12,19.151
2008-06-13,18.5967
2008-06-16,18.0475
2008-06-17,18.2774
2008-06-18,18.3285
2008-06-19,18.1931
2008-06-20,18.1113
2008-06-23,17.9172
2008-06-24,17.5775
2008-06-25,18.2135
2008-06-26,17.6464
2008-06-27,17.3833
2008-06-30,17.6592
2008-07-01,17.368
2008-07-02,17.4216
2008-07-03,17.2607
2008-07-07,17.4344
2008-07-08,17.5161
2008-07-09,17.2019
2008-07-10,18.0475
2008-07-11,17.9964
2008-07-14,18.1548
2008-07-15,17.7946
2008-07-16,17.391
2008-07-17,17.6056
2008-07-18,17.5085
2008-07-21,17.2505
2008-07-22,17.7307
2008-07-23,17.7639
2008-07-24,17.0104
2008-07-25,16.8647
2008-07-28,17.6107
2008-07-29,17.8942
2008-07-30,17.534
2008-07-31,17.1355
2008-08-01,17.2352
2008-08-04,17.2811
2008-08-05,17.8278
2008-08-06,17.4472
2008-08-07,17.1917
2008-08-08,17.4702
2008-08-11,17.649
2008-08-12,17.7052
2008-08-13,17.8329
2008-08-14,17.8917
2008-08-15,18.4741
2008-08-18,18.5533
2008-08-19,18.3949
2008-08-20,18.3336
2008-08-21,18.331
2008-08-22,18.4
2008-08-25,18.3974
2008-08-26,18.3617
2008-08-27,18.5073
2008-08-28,19.001
2008-08-29,18.7113
2008-09-02,19.0062
2008-09-03,18.4215
2008-09-04,18.0075
2008-09-05,19.2235
2008-09-08,19.547
2008-09-09,18.9105
2008-09-10,18.9234
2008-09-11,19.4021
2008-09-12,19.9273
2008-09-15,19.2003
2008-09-16,18.7656
2008-09-17,17.9842
2008-09-18,18.2637
2008-09-19,18.6725
2008-09-22,17.9506
2008-09-23,18.0049
2008-09-24,17.7747
2008-09-25,18.6466
2008-09-26,19.2468
2008-09-29,17.71
2008-09-30,18.5224
2008-10-01,18.0722
2008-10-02,17.5056
2008-10-03,17.2184
2008-10-06,16.776
2008-10-07,16.1085
2008-10-08,16.2068
2008-10-09,15.785
2008-10-10,15.4642
2008-10-13,16.6311
2008-10-14,15.4953
2008-10-15,14.6363
2008-10-16,14.4112
2008-10-17,14.9416
2008-10-20,15.265
2008-10-21,15.9843
2008-10-22,15.6764
2008-10-23,16.0567
2008-10-24,14.908
2008-10-27,15.7825
2008-10-28,17.4073
2008-10-29,16.5612
2008-10-30,16.8898
2008-10-31,17.0347
2008-11-03,16.0852
2008-11-04,16.1395
2008-11-05,15.6246
2008-11-06,15.4849
2008-11-07,15.7876
2008-11-10,15.8006
2008-11-11,15.3737
2008-11-12,14.4629
2008-11-13,15.7566
2008-11-14,15.8213
2008-11-17,15.8161
2008-11-18,16.0981
2008-11-19,15.7928
2008-11-20,14.6466
2008-11-21,15.4151
2008-11-24,15.2676
2008-11-25,15.1227
2008-11-26,15.5082
2008-11-28,15.8781
2008-12-01,15.7783
2008-12-02,16.154
2008-12-03,15.9622
2008-12-04,15.6784
2008-12-05,16.1199
2008-12-08,16.2276
2008-12-09,16.2591
2008-12-10,16.0384
2008-12-11,15.4209
2008-12-12,15.3973
2008-12-15,15.195
2008-12-16,14.5171
2008-12-17,14.5223
2008-12-18,14.8508
2008-12-19,15.0741
2008-12-22,15.0005
2008-12-23,14.6222
2008-12-24,14.5565
2008-12-26,14.6379
2008-12-29,14.4803
2008-12-30,14.5828
2008-12-31,14.8718
2009-01-02,14.5565
2009-01-05,14.68
2009-01-06,14.2911
2009-01-07,14.1361
2009-01-08,14.5302
2009-01-09,14.8008
2009-01-12,15.2055
2009-01-13,15.1582
2009-01-14,14.9926
2009-01-15,15.4525
2009-01-16,15.7704
2009-01-20,15.9937
2009-01-21,16.3169
2009-01-22,16.38
2009-01-23,16.0594
2009-01-26,15.9675
2009-01-27,16.1461
2009-01-28,16.1041
2009-01-29,16.1934
2009-01-30,15.5812
2009-02-02,15.7678
2009-02-03,16.1514
2009-02-04,15.9517
2009-02-05,16.0358
2009-02-06,16.3169
2009-02-09,16.8608
2009-02-10,16.803
2009-02-11,16.9791
2009-02-12,16.9423
2009-02-13,16.8267
2009-02-17,16.5481
2009-02-18,16.5114
2009-02-19,16.6559
2009-02-20,16.6296
2009-02-23,16.2302
2009-02-24,16.1356
2009-02-25,15.8124
2009-02-26,15.5829
2009-02-27,15.6096
2009-03-02,14.8518
2009-03-03,14.9345
2009-03-04,15.1987
2009-03-05,15.2814
2009-03-06,15.3668
2009-03-09,15.2707
2009-03-10,15.2974
2009-03-11,15.3134
2009-03-12,16.0045
2009-03-13,16.5835
2009-03-16,16.4768
2009-03-17,16.8183
2009-03-18,16.4101
2009-03-19,16.1539
2009-03-20,16.6689
2009-03-23,16.861
2009-03-24,17.0371
2009-03-25,17.3173
2009-03-26,17.1999
2009-03-27,16.837
2009-03-30,16.8584
2009-03-31,16.4501
2009-04-01,16.306
2009-04-02,16.4715
2009-04-03,16.7089
2009-04-06,16.1779
2009-04-07,16.4768
2009-04-08,16.9171
2009-04-09,16.853
2009-04-13,16.797
2009-04-14,16.4128
2009-04-15,16.5622
2009-04-16,16.869
2009-04-17,17.344
2009-04-20,17.5975
2009-04-21,17.0265
2009-04-22,16.6769
2009-04-23,16.8023
2009-04-24,16.6316
2009-04-27,16.6236
2009-04-28,16.8584
2009-04-29,16.9544
2009-04-30,16.845
2009-05-01,16.5649
2009-05-04,16.6476
2009-05-05,16.805
2009-05-06,17.1465
2009-05-07,17.0398
2009-05-08,17.5388
2009-05-11,17.4587
2009-05-12,18.1872
2009-05-13,18.2832
2009-05-14,18.1712
2009-05-15,18.494
2009-05-18,17.9871
2009-05-19,18.0164
2009-05-20,18.0484
2009-05-21,18.0271
2009-05-22,18.0698
2009-05-26,18.0591
2009-05-27,17.9123
2009-05-28,18.3993
2009-05-29,18.4398
2009-06-01,18.6887
2009-06-02,18.7374
2009-06-03,18.705
2009-06-04,18.6319
2009-06-05,18.6644
2009-06-08,18.2856
2009-06-09,18.1179
2009-06-10,17.8257
2009-06-11,18.0286
2009-06-12,18.2964
2009-06-15,17.8609
2009-06-16,17.9123
2009-06-17,18.0043
2009-06-18,18.402
2009-06-19,18.6914
2009-06-22,18.7428
2009-06-23,18.4101
2009-06-24,18.2748
2009-06-25,18.3884
2009-06-26,18.3127
2009-06-29,18.4993
2009-06-30,18.3397
2009-07-01,18.7537
2009-07-02,18.4777
2009-07-06,18.8267
2009-07-07,18.4642
2009-07-08,18.2315
2009-07-09,18.0503
2009-07-10,18.1395
2009-07-13,18.2261
2009-07-14,18.3262
2009-07-15,18.3614
2009-07-16,18.5183
2009-07-17,18.9376
2009-07-20,18.6833
2009-07-21,18.9106
2009-07-22,18.9214
2009-07-23,19.4976
2009-07-24,19.4435
2009-07-27,19.5734
2009-07-28,19.4814
2009-07-29,19.7195
2009-07-30,19.7601
2009-07-31,19.9521
2009-08-03,19.8629
2009-08-04,19.7492
2009-08-05,19.4192
2009-08-06,19.7357
2009-08-07,19.7086
2009-08-10,19.8899
2009-08-11,20.0198
2009-08-12,19.8358
2009-08-13,19.5896
2009-08-14,19.5896
2009-08-17,19.6383
2009-08-18,19.8196
2009-08-19,19.7817
2009-08-20,19.9088
2009-08-21,20.2308
2009-08-24,21.0965
2009-08-25,20.8909
2009-08-26,20.6285
2009-08-27,20.1956
2009-08-28,19.7924
2009-08-31,19.9295
2009-09-01,19.9213
2009-09-02,20.0584
2009-09-03,20.0803
2009-09-04,20.349
2009-09-08,20.2448
2009-09-09,20.1516
2009-09-10,20.434
2009-09-11,20.4916
2009-09-14,20.4395
2009-09-15,20.0364
2009-09-16,19.9213
2009-09-17,20.1105
2009-09-18,20.264
2009-09-21,20.4615
2009-09-22,20.2256
2009-09-23,20.3573
2009-09-24,20.0968
2009-09-25,19.9624
2009-09-28,20.2339
2009-09-29,20.4861
2009-09-30,20.3682
2009-10-01,20.4066
2009-10-02,20.4669
2009-10-05,20.5821
2009-10-06,21.1442
2009-10-07,20.9139
2009-10-08,21.0592
2009-10-09,21.3225
2009-10-12,21.3883
2009-10-13,21.4514
2009-10-14,21.7804
2009-10-15,21.9641
2009-10-16,22.0903
2009-10-19,22.1204
2009-10-20,22.3096
2009-10-21,22.2548
2009-10-22,22.1232
2009-10-23,21.8627
2009-10-26,20.3627
2009-10-27,21.561
2009-10-28,21.3554
2009-10-29,21.3883
2009-10-30,21.2923
2009-11-02,21.3993
2009-11-03,21.5035
2009-11-04,21.328
2009-11-05,21.4705
2009-11-06,21.2594
2009-11-09,21.6186
2009-11-10,21.8517
2009-11-11,21.7914
2009-11-12,21.742
2009-11-13,21.7365
2009-11-16,21.8736
2009-11-17,21.7667
2009-11-18,21.7036
2009-11-19,21.7064
2009-11-20,21.8051
2009-11-23,22.0711
2009-11-24,21.9915
2009-11-25,22.0574
2009-11-27,21.9101
2009-11-30,21.6213
2009-12-01,21.7518
2009-12-02,21.8407
2009-12-03,21.6685
2009-12-04,21.7824
2009-12-07,21.9434
2009-12-08,21.6102
2009-12-09,21.8435
2009-12-10,21.9656
2009-12-11,21.8018
2009-12-14,21.8462
2009-12-15,22.1045
2009-12-16,22.0684
2009-12-17,21.824
2009-12-18,21.5019
2009-12-21,21.7768
2009-12-22,21.824
2009-12-23,21.8018
2009-12-24,21.9101
2009-12-28,22.0711
2009-12-29,22.371
2009-12-30,22.3821
2009-12-31,22.2933
2010-01-04,22.6126
2010-01-05,22.0461
2010-01-06,21.899
2010-01-07,21.6491
2010-01-08,21.6324
2010-01-11,21.7602
2010-01-12,21.5908
2010-01-13,21.563
2010-01-14,21.5047
2010-01-15,21.5297
2010-01-19,21.4048
2010-01-20,21.1188
2010-01-21,20.9966
2010-01-22,20.6523
2010-01-25,21.3548
2010-01-26,21.3464
2010-01-27,21.1799
2010-01-28,21.2937
2010-01-29,21.0382
2010-02-01,21.302
2010-02-02,21.5852
2010-02-03,21.1271
2010-02-04,20.6412
2010-02-05,20.7689
2010-02-08,20.6218
2010-02-09,20.8217
2010-02-10,20.6301
2010-02-11,21.0632
2010-02-12,20.9105
2010-02-16,20.991
2010-02-17,20.9633
2010-02-18,21.1188
2010-02-19,21.2076
2010-02-22,21.3159
2010-02-23,21.1271
2010-02-24,21.0077
2010-02-25,20.968
2010-02-26,20.5263
2010-03-01,20.4728
2010-03-02,20.8273
2010-03-03,20.9061
2010-03-04,21.0187
2010-03-05,21.2241
2010-03-08,21.3113
2010-03-09,21.1481
2010-03-10,21.2916
2010-03-11,21.421
2010-03-12,21.3901
2010-03-15,21.4914
2010-03-16,21.6602
2010-03-17,21.6377
2010-03-18,21.6377
2010-03-19,21.6658
2010-03-22,21.7981
2010-03-23,21.8149
2010-03-24,21.7615
2010-03-25,21.4942
2010-03-26,21.3676
2010-03-29,21.0581
2010-03-30,21.0974
2010-03-31,21.1593
2010-04-01,21.3
2010-04-05,21.6602
2010-04-06,21.9191
2010-04-07,21.7418
2010-04-08,21.5842
2010-04-09,21.6518
2010-04-12,21.7981
2010-04-13,21.7643
2010-04-14,21.874
2010-04-15,21.905
2010-04-16,21.7953
2010-04-19,21.9753
2010-04-20,22.2651
2010-04-21,22.3974
2010-04-22,22.327
2010-04-23,22.3918
2010-04-26,22.1582
2010-04-27,21.8093
2010-04-28,21.9022
2010-04-29,22.0851
2010-04-30,22.0654
2010-05-03,21.9303
2010-05-04,21.7362
2010-05-05,21.7502
2010-05-06,21.407
2010-05-07,21.4604
2010-05-10,22.3749
2010-05-11,22.7097
2010-05-12,22.5634
2010-05-13,22.4115
2010-05-14,22.192
2010-05-17,22.5325
2010-05-18,22.3861
2010-05-19,22.1048
2010-05-20,21.2691
2010-05-21,21.0046
2010-05-24,20.7964
2010-05-25,20.5882
2010-05-26,20.5431
2010-05-27,20.8056
2010-05-28,20.4119
2010-06-01,20.3663
2010-06-02,20.6829
2010-06-03,20.8512
2010-06-04,20.3976
2010-06-07,20.2607
2010-06-08,20.5232
2010-06-09,20.6458
2010-06-10,21.0852
2010-06-11,21.0481
2010-06-14,20.9739
2010-06-15,21.2849
2010-06-16,21.399
2010-06-17,21.3077
2010-06-18,21.4018
2010-06-21,21.5102
2010-06-22,21.1593
2010-06-23,21.1137
2010-06-24,20.76
2010-06-25,20.5089
2010-06-28,20.9967
2010-06-29,20.6858
2010-06-30,20.5374
2010-07-01,20.5089
2010-07-02,20.5118
2010-07-06,20.6915
2010-07-07,20.6801
2010-07-08,21.1593
2010-07-09,21.2021
2010-07-12,21.2877
2010-07-13,21.282
2010-07-14,21.3191
2010-07-15,21.3105
2010-07-16,20.9711
2010-07-19,21.1137
2010-07-20,21.3933
2010-07-21,21.2392
2010-07-22,21.6472
2010-07-23,21.7584
2010-07-26,22.0209
2010-07-27,22.0837
2010-07-28,21.8668
2010-07-29,21.6015
2010-07-30,21.7499
2010-08-02,21.7699
2010-08-03,21.6158
2010-08-04,21.3648
2010-08-05,21.6244
2010-08-06,21.7756
2010-08-09,21.7128
2010-08-10,21.7271
2010-08-11,21.5958
2010-08-12,21.5017
2010-08-13,21.5045
2010-08-16,21.2421
2010-08-17,21.6301
2010-08-18,21.7413
2010-08-19,21.4732
2010-08-20,21.3476
2010-08-23,21.2706
2010-08-24,21.5188
2010-08-25,22.2834
2010-08-26,22.2434
2010-08-27,22.0209
2010-08-30,22.0426
2010-08-31,22.031
2010-09-01,22.6274
2010-09-02,23.0819
2010-09-03,23.3395
2010-09-07,23.3193
2010-09-08,23.3511
2010-09-09,23.2122
2010-09-10,23.6725
2010-09-13,23.5654
2010-09-14,23.5306
2010-09-15,23.4901
2010-09-16,23.3453
2010-09-17,23.3627
2010-09-20,23.7159
2010-09-21,24.017
2010-09-22,23.7333
2010-09-23,23.1948
2010-09-24,23.5538
2010-09-27,23.493
2010-09-28,23.383
2010-09-29,23.3482
2010-09-30,23.2353
2010-10-01,23.1716
2010-10-04,22.7779
2010-10-05,22.9777
2010-10-06,22.8561
2010-10-07,22.8821
2010-10-08,23.1514
2010-10-11,23.1514
2010-10-12,23.5914
2010-10-13,23.7535
2010-10-14,23.7217
2010-10-15,24.0286
2010-10-18,24.1501
2010-10-19,23.9909
2010-10-20,24.0865
2010-10-21,24.0894
2010-10-22,24.3123
2010-10-25,24.6597
2010-10-26,25.0563
2010-10-27,24.6684
2010-10-28,24.9926
2010-10-29,24.6857
2010-11-01,24.7436
2010-11-02,25.3516
2010-11-03,25.5282
2010-11-04,25.7453
2010-11-05,25.7685
2010-11-08,25.8003
2010-11-09,25.6787
2010-11-10,25.4732
2010-11-11,25.5803
2010-11-12,25.4124
2010-11-15,25.5484
2010-11-16,25.12
2010-11-17,25.12
2010-11-18,25.1721
2010-11-19,24.9057
2010-11-22,24.6886
2010-11-23,24.2804
2010-11-24,24.3152
2010-11-26,24.1878
2010-11-29,23.9605
2010-11-30,23.4059
2010-12-01,24.0955
2010-12-02,23.981
2010-12-03,24.0045
2010-12-06,24.0514
2010-12-07,24.0104
2010-12-08,24.1806
2010-12-09,23.6758
2010-12-10,24.0896
2010-12-13,24.0573
2010-12-14,24.1835
2010-12-15,24.1395
2010-12-16,24.2422
2010-12-17,24.1952
2010-12-20,24.116
2010-12-21,24.0779
2010-12-22,24.1952
2010-12-23,24.2393
2010-12-27,24.1542
2010-12-28,24.0368
2010-12-29,24.1952
2010-12-30,24.1013
2010-12-31,24.072
2011-01-03,24.0133
2011-01-04,23.6993
2011-01-05,23.7903
2011-01-06,23.7639
2011-01-07,22.6781
2011-01-10,22.8454
2011-01-11,22.5754
2011-01-12,22.546
2011-01-13,22.5842
2011-01-14,22.5842
2011-01-18,22.4521
2011-01-19,21.9767
2011-01-20,21.7948
2011-01-21,21.7654
2011-01-24,21.7654
2011-01-25,21.8183
2011-01-26,22.0736
2011-01-27,22.0736
2011-01-28,21.9063
2011-01-31,22.0824
2011-02-01,21.8652
2011-02-02,21.874
2011-02-03,21.9533
2011-02-04,22.0237
2011-02-07,22.4052
2011-02-08,22.4198
2011-02-09,22.3964
2011-02-10,22.4228
2011-02-11,22.9569
2011-02-14,22.8307
2011-02-15,22.728
2011-02-16,22.8571
2011-02-17,23.2444
2011-02-18,23.3178
2011-02-22,23.1916
2011-02-23,23.4704
2011-02-24,23.0156
2011-02-25,23.0273
2011-02-28,22.902
2011-03-01,23.2601
2011-03-02,23.0512
2011-03-03,23.0244
2011-03-04,23.1885
2011-03-07,23.1407
2011-03-08,23.46
2011-03-09,23.6808
2011-03-10,23.648
2011-03-11,23.6898
2011-03-14,23.5197
2011-03-15,23.3854
2011-03-16,23.3854
2011-03-17,23.4899
2011-03-18,26.0292
2011-03-21,26.5932
2011-03-22,27.2288
2011-03-23,28.1896
2011-03-24,27.9688
2011-03-25,28.2762
2011-03-28,28.6402
2011-03-29,28.7685
2011-03-30,28.5716
2011-03-31,28.3358
2011-04-01,28.2672
2011-04-04,28.3478
2011-04-05,28.6581
2011-04-06,28.5417
2011-04-07,28.494
2011-04-08,28.7387
2011-04-11,28.8521
2011-04-12,29.0878
2011-04-13,29.431
2011-04-14,29.9591
2011-04-15,29.4966
2011-04-18,29.1863
2011-04-19,29.5623
2011-04-20,29.604
2011-04-21,29.5861
2011-04-25,29.7294
2011-04-26,30.9498
2011-04-27,31.093
2011-04-28,31.287
2011-04-29,31.7883
2011-05-02,31.9882
2011-05-03,32.1016
2011-05-04,31.8271
2011-05-05,31.9882
2011-05-06,32.4209
2011-05-09,32.5313
2011-05-10,32.6029
2011-05-11,32.5164
2011-05-12,33.0983
2011-05-13,33.2654
2011-05-16,33.3191
2011-05-17,33.4295
2011-05-18,33.6891
2011-05-19,34.6857
2011-05-20,34.7424
2011-05-23,34.6857
2011-05-24,33.9517
2011-05-25,33.9875
2011-05-26,34.271
2011-05-27,34.7022
2011-05-31,34.7837
2011-06-01,34.7897
2011-06-02,33.5855
2011-06-03,32.5171
2011-06-06,30.1147
2011-06-07,29.339
2011-06-08,29.9939
2011-06-09,30.6971
2011-06-10,30.1448
2011-06-13,30.6609
2011-06-14,34.2525
2011-06-15,33.1147
2011-06-16,33.1358
2011-06-17,33.6157
2011-06-20,33.5342
2011-06-21,33.7575
2011-06-22,33.1539
2011-06-23,33.0392
2011-06-24,33.3652
2011-06-27,33.5613
2011-06-28,32.9305
2011-06-29,32.9185
2011-06-30,32.8491
2011-07-01,33.2957
2011-07-05,32.9004
2011-07-06,33.1086
2011-07-07,33.4195
2011-07-08,33.4859
2011-07-11,33.0754
2011-07-12,32.9064
2011-07-13,32.9849
2011-07-14,33.1026
2011-07-15,33.1177
2011-07-18,33.0965
2011-07-19,33.3621
2011-07-20,33.1177
2011-07-21,34.1891
2011-07-22,33.8601
2011-07-25,32.3692
2011-07-26,32.0644
2011-07-27,31.675
2011-07-28,31.8863
2011-07-29,32.0644
2011-08-01,31.6448
2011-08-02,31.5935
2011-08-03,32.2937
2011-08-04,31.2163
2011-08-05,31.7837
2011-08-08,30.2384
2011-08-09,30.5945
2011-08-10,30.0603
2011-08-11,30.4044
2011-08-12,30.6489
2011-08-15,31.9285
2011-08-16,31.7565
2011-08-17,32.671
2011-08-18,32.4748
2011-08-19,32.7857
2011-08-22,32.7947
2011-08-23,33.5462
2011-08-24,33.6036
2011-08-25,32.9215
2011-08-26,33.1961
2011-08-29,34.0261
2011-08-30,33.9679
2011-08-31,33.9557
2011-09-01,34.0626
2011-09-02,33.5862
2011-09-06,33.1771
2011-09-07,33.7023
2011-09-08,33.4214
2011-09-09,32.9054
2011-09-12,33.3176
2011-09-13,33.4977
2011-09-14,33.6107
2011-09-15,34.1633
2011-09-16,34.1419
2011-09-19,34.0045
2011-09-20,34.1633
2011-09-21,33.2321
2011-09-22,32.6092
2011-09-23,32.3191
2011-09-26,33.5007
2011-09-27,33.6534
2011-09-28,33.1435
2011-09-29,33.5862
2011-09-30,33.8488
2011-10-03,34.5114
2011-10-04,34.2305
2011-10-05,34.1755
2011-10-06,35.1037
2011-10-07,35.3572
2011-10-10,36.1357
2011-10-11,35.8884
2011-10-12,35.4274
2011-10-13,35.5648
2011-10-14,35.8732
2011-10-17,35.5495
2011-10-18,34.032
2011-10-19,34.8106
2011-10-20,34.9083
2011-10-21,35.3175
2011-10-24,35.0213
2011-10-25,34.6396
2011-10-26,34.2
2011-10-27,34.5419
2011-10-28,35.0213
2011-10-31,33.7664
2011-11-01,32.997
2011-11-02,33.1893
2011-11-03,33.5893
2011-11-04,33.3084
2011-11-07,33.6626
2011-11-08,33.5191
2011-11-09,32.7252
2011-11-10,32.9145
2011-11-11,33.4275
2011-11-14,33.0458
2011-11-15,33.3114
2011-11-16,33.5985
2011-11-17,33.4061
2011-11-18,33.4153
2011-11-21,33.1618
2011-11-22,32.9817
2011-11-23,33.2412
2011-11-25,33.1863
2011-11-28,33.3603
2011-11-29,33.5364
2011-11-30,34.485
2011-12-01,34.6735
2011-12-02,34.0123
2011-12-05,34.2409
2011-12-06,34.2347
2011-12-07,33.8485
2011-12-08,33.6723
2011-12-09,33.7867
2011-12-12,33.6816
2011-12-13,33.9443
2011-12-14,33.4839
2011-12-15,33.8763
2011-12-16,33.4128
2011-12-19,33.6353
2011-12-20,34.3058
2011-12-21,34.7353
2011-12-22,34.6519
2011-12-23,35.1092
2011-12-27,35.2514
2011-12-28,35.3163
2011-12-29,35.5264
2011-12-30,35.2205
2012-01-03,35.032
2012-01-04,34.8064
2012-01-05,35.2575
2012-01-06,35.239
2012-01-09,35.3472
2012-01-10,35.1896
2012-01-11,34.6643
2012-01-12,34.6488
2012-01-13,34.9485
2012-01-17,35.2328
2012-01-18,34.8775
2012-01-19,34.105
2012-01-20,33.9319
2012-01-23,34.0802
2012-01-24,34.6426
2012-01-25,35.3719
2012-01-26,34.38
2012-01-27,33.2459
2012-01-30,33.8578
2012-01-31,33.181
2012-02-01,33.2181
2012-02-02,33.8856
2012-02-03,34.4943
2012-02-06,34.6612
2012-02-07,34.93
2012-02-08,35.0505
2012-02-09,38.4249
2012-02-10,37.8594
2012-02-13,37.7667
2012-02-14,37.8965
2012-02-15,38.2518
2012-02-16,38.9533
2012-02-17,39.2592
2012-02-21,39.8648
2012-02-22,39.8525
2012-02-23,39.837
2012-02-24,40.1429
2012-02-27,40.3994
2012-02-28,40.5595
2012-02-29,41.0036
2012-03-01,40.6064
2012-03-02,40.2968
2012-03-05,40.153
2012-03-06,40.0498
2012-03-07,40.0279
2012-03-08,40.7503
2012-03-09,40.3093
2012-03-12,40.6283
2012-03-13,40.9973
2012-03-14,40.7034
2012-03-15,40.7722
2012-03-16,40.8754
2012-03-19,41.2631
2012-03-20,40.8066
2012-03-21,40.9504
2012-03-22,40.4813
2012-03-23,41.038
2012-03-26,41.0661
2012-03-27,41.21
2012-03-28,40.7628
2012-03-29,41.0661
2012-03-30,40.5032
2012-04-02,41.235
2012-04-03,41.7166
2012-04-04,42.4452
2012-04-05,42.6954
2012-04-09,42.6735
2012-04-10,42.0481
2012-04-11,42.6016
2012-04-12,42.5578
2012-04-13,43.1082
2012-04-16,42.07
2012-04-17,41.9668
2012-04-18,42.8173
2012-04-19,42.6078
2012-04-20,43.1144
2012-04-23,42.858
2012-04-24,42.1294
2012-04-25,40.5251
2012-04-26,42.1231
2012-04-27,42.4483
2012-04-30,42.2857
2012-05-01,41.7666
2012-05-02,41.9011
2012-05-03,41.9105
2012-05-04,41.5884
2012-05-07,40.8535
2012-05-08,40.9191
2012-05-09,39.8653
2012-05-10,39.9966
2012-05-11,40.2968
2012-05-14,40.2624
2012-05-15,39.5901
2012-05-16,39.8903
2012-05-17,39.2524
2012-05-18,39.0897
2012-05-21,39.4713
2012-05-22,39.1679
2012-05-23,39.2993
2012-05-24,40.0873
2012-05-25,39.0585
2012-05-29,38.9897
2012-05-30,39.2743
2012-05-31,39.1445
2012-06-01,38.0172
2012-06-04,38.1027
2012-06-05,38.0489
2012-06-06,38.3244
2012-06-07,38.793
2012-06-08,38.9798
2012-06-11,38.9735
2012-06-12,38.9513
2012-06-13,39.002
2012-06-14,39.6068
2012-06-15,40.2781
2012-06-18,40.6201
2012-06-19,40.5124
2012-06-20,40.5283
2012-06-21,40.7721
2012-06-22,40.6581
2012-06-25,40.7657
2012-06-26,40.6232
2012-06-27,41.2281
2012-06-28,41.684
2012-06-29,41.7759
2012-07-02,42.9
2012-07-03,43.2831
2012-07-05,42.8841
2012-07-06,43.1121
2012-07-09,43.0045
2012-07-10,43.071
2012-07-11,43.6473
2012-07-12,43.4573
2012-07-13,43.9069
2012-07-16,44.0304
2012-07-17,43.9323
2012-07-18,44.2109
2012-07-19,43.7708
2012-07-20,43.6251
2012-07-23,43.1755
2012-07-24,42.8398
2012-07-25,40.7657
2012-07-26,40.2243
2012-07-27,40.3478
2012-07-30,40.3953
2012-07-31,40.7626
2012-08-01,40.1958
2012-08-02,39.724
2012-08-03,40.0659
2012-08-06,39.8918
2012-08-07,38.831
2012-08-08,38.9893
2012-08-09,39.0622
2012-08-10,39.2141
2012-08-13,39.4801
2012-08-14,39.5055
2012-08-15,39.5656
2012-08-16,40.8291
2012-08-17,41.6049
2012-08-20,41.1742
2012-08-21,40.4839
2012-08-22,40.5916
2012-08-23,40.5536
2012-08-24,40.6328
2012-08-27,40.5726
2012-08-28,41.1014
2012-08-29,40.579
2012-08-30,40.5438
2012-08-31,40.3515
2012-09-04,40.563
2012-09-05,39.9926
2012-09-06,39.765
2012-09-07,39.5888
2012-09-10,39.5888
2012-09-11,38.7779
2012-09-12,37.057
2012-09-13,37.3358
2012-09-14,36.9384
2012-09-17,37.4864
2012-09-18,38.1786
2012-09-19,38.0473
2012-09-20,38.7203
2012-09-21,39.1401
2012-09-24,38.1242
2012-09-25,37.8518
2012-09-26,38.0184
2012-09-27,38.012
2012-09-28,37.3198
2012-10-01,36.9352
2012-10-02,37.3358
2012-10-03,37.7877
2012-10-04,37.5313
2012-10-05,37.8838
2012-10-08,37.2493
2012-10-09,37.2044
2012-10-10,36.807
2012-10-11,36.4769
2012-10-12,36.4577
2012-10-15,37.0281
2012-10-16,37.6434
2012-10-17,38.0312
2012-10-18,37.8582
2012-10-19,37.6274
2012-10-22,37.6659
2012-10-23,37.182
2012-10-24,35.7622
2012-10-25,36.8839
2012-10-26,36.6948
2012-10-31,37.1884
2012-11-01,37.3134
2012-11-02,36.9929
2012-11-05,36.9448
2012-11-06,37.1563
2012-11-07,36.0378
2012-11-08,36.15
2012-11-09,36.0987
2012-11-12,36.0795
2012-11-13,36.5795
2012-11-14,36.0987
2012-11-15,36.2654
2012-11-16,36.9737
2012-11-19,38.1498
2012-11-20,38.3549
2012-11-21,38.8869
2012-11-23,38.8901
2012-11-26,39.0471
2012-11-27,38.9446
2012-11-28,39.1066
2012-11-29,39.1033
2012-11-30,39.3858
2012-12-03,39.2884
2012-12-04,39.0676
2012-12-05,38.9118
2012-12-06,38.8436
2012-12-07,39.415
2012-12-10,39.0546
2012-12-11,38.928
2012-12-12,38.8339
2012-12-13,38.8177
2012-12-14,38.73
2012-12-17,38.5645
2012-12-18,37.7205
2012-12-19,38.0159
2012-12-20,38.3665
2012-12-21,37.9672
2012-12-24,37.9445
2012-12-26,37.6361
2012-12-27,37.2108
2012-12-28,37.4997
2012-12-31,37.8536
2013-01-02,39.126
2013-01-03,38.5514
2013-01-04,38.2754
2013-01-07,37.5223
2013-01-08,36.9868
2013-01-09,37.3276
2013-01-10,37.6587
2013-01-11,37.9963
2013-01-14,37.9476
2013-01-15,38.0938
2013-01-16,37.7853
2013-01-17,38.467
2013-01-18,38.4572
2013-01-22,38.613
2013-01-23,38.2235
2013-01-24,38.5839
2013-01-25,38.5741
2013-01-28,38.6619
2013-01-29,38.6814
2013-01-30,38.1117
2013-01-31,38.0936
2013-02-01,38.4696
2013-02-04,38.1828
2013-02-05,38.6911
2013-02-06,38.6814
2013-02-07,38.9735
2013-02-08,39.1586
2013-02-11,39.0027
2013-02-12,38.6327
2013-02-13,40.5512
2013-02-14,39.7039
2013-02-15,40.3223
2013-02-19,41.301
2013-02-20,41.184
2013-02-21,41.6417
2013-02-22,40.0447
2013-02-25,39.7575
2013-02-26,38.9979
2013-02-27,38.3412
2013-02-28,38.0993
2013-03-01,37.729
2013-03-04,37.7288
2013-03-05,37.9954
2013-03-06,37.8078
2013-03-07,37.7584
2013-03-08,38.025
2013-03-11,37.9362
2013-03-12,38.6175
2013-03-13,38.2818
2013-03-14,39.0914
2013-03-15,38.8545
2013-03-18,38.7458
2013-03-19,38.8643
2013-03-20,39.5851
2013-03-21,39.595
2013-03-22,39.5456
2013-03-25,39.5456
2013-03-26,39.8517
2013-03-27,39.911
2013-03-28,39.832
2013-04-01,39.7925
2013-04-02,40.7009
2013-04-03,40.2171
2013-04-04,40.5528
2013-04-05,40.0492
2013-04-08,40.612
2013-04-09,40.7207
2013-04-10,41.2242
2013-04-11,40.8391
2013-04-12,40.9873
2013-04-15,40.3059
2013-04-16,40.8688
2013-04-17,40.6022
2013-04-18,40.3356
2013-04-19,40.7108
2013-04-22,40.9478
2013-04-23,41.2045
2013-04-24,42.5671
2013-04-25,42.024
2013-04-26,42.4091
2013-04-29,42.4091
2013-04-30,42.3301
2013-05-01,42.1623
2013-05-02,42.4881
2013-05-03,42.1623
2013-05-06,42.0339
2013-05-07,42.6165
2013-05-08,42.656
2013-05-09,42.2215
2013-05-10,42.5079
2013-05-13,42.7646
2013-05-14,42.9423
2013-05-15,43.5249
2013-05-16,43.6335
2013-05-17,43.7026
2013-05-20,43.5446
2013-05-21,43.3965
2013-05-22,43.0114
2013-05-23,43.0114
2013-05-24,43.3274
2013-05-28,43.1497
2013-05-29,42.56
2013-05-30,42.9
2013-05-31,42.5
2013-06-03,43.2
2013-06-04,43.18
2013-06-05,42.33
2013-06-06,43.13
2013-06-07,43.63
2013-06-10,43.22
2013-06-11,42.9
2013-06-12,42.94
2013-06-13,44.06
2013-06-14,43.89
2013-06-17,44.56
2013-06-18,44.895
2013-06-19,43.79
2013-06-20,42.9
2013-06-21,43.72
2013-06-24,43.41
2013-06-25,43.54
2013-06-26,43.74
2013-06-27,43.56
2013-06-28,43.68
2013-07-01,43.96
2013-07-02,44.4
2013-07-03,44.3
2013-07-05,44.24
2013-07-08,45.61
2013-07-09,45.81
2013-07-10,45.73
2013-07-11,46.41
2013-07-12,46.16
2013-07-15,46.25
2013-07-16,46.2
2013-07-17,46.25
2013-07-18,46.53
2013-07-19,46.48
2013-07-22,46.14
2013-07-23,44.11
2013-07-24,44.4
2013-07-25,44.51
2013-07-26,43.93
2013-07-29,43.34
2013-07-30,43.24
2013-07-31,42.51
2013-08-01,43.15
2013-08-02,43.29
2013-08-05,43.16
2013-08-06,43.09
2013-08-07,43.06
2013-08-08,43.59
2013-08-09,43.47
