date,close_price
1998-01-02,5.82299
1998-01-05,5.84538
1998-01-06,5.92116
1998-01-07,5.9315
1998-01-08,5.96422
1998-01-09,5.9315
1998-01-12,5.88844
1998-01-13,6.02794
1998-01-14,5.97455
1998-01-15,5.99522
1998-01-16,6.01761
1998-01-20,6.03828
1998-01-21,6.09339
1998-01-22,6.03828
1998-01-23,5.98489
1998-01-26,5.94183
1998-01-27,6.00728
1998-01-28,5.99522
1998-01-29,5.96422
1998-01-30,5.99522
1998-02-02,5.99522
1998-02-03,5.97455
1998-02-04,5.96422
1998-02-05,5.96422
1998-02-06,6.00728
1998-02-09,5.98489
1998-02-10,5.94183
1998-02-11,5.94183
1998-02-12,5.98489
1998-02-13,6.16745
1998-02-17,6.24323
1998-02-18,6.30867
1998-02-19,6.45851
1998-02-20,6.42579
1998-02-23,6.4809
1998-02-24,6.67379
1998-02-25,6.66346
1998-02-26,6.53429
1998-02-27,6.50157
1998-03-02,6.53429
1998-03-03,6.61007
1998-03-04,6.61007
1998-03-05,6.59801
1998-03-06,6.70652
1998-03-09,6.68413
1998-03-10,6.66346
1998-03-11,6.70652
1998-03-12,6.70652
1998-03-13,6.70652
1998-03-16,6.80296
1998-03-17,6.74957
1998-03-18,6.72718
1998-03-19,6.88908
1998-03-20,6.87874
1998-03-23,6.8133
1998-03-24,6.93213
1998-03-25,6.98553
1998-03-26,6.88908
1998-03-27,6.87874
1998-03-30,6.82535
1998-03-31,6.79263
1998-04-01,6.75991
1998-04-02,6.72718
1998-04-03,6.72718
1998-04-06,6.74957
1998-04-07,6.70652
1998-04-08,6.57735
1998-04-09,6.61007
1998-04-13,6.71685
1998-04-14,6.69618
1998-04-15,6.70652
1998-04-16,6.69618
1998-04-17,6.7823
1998-04-20,6.73924
1998-04-21,6.71685
1998-04-22,6.70652
1998-04-23,6.57735
1998-04-24,6.53429
1998-04-27,6.3724
1998-04-28,6.41545
1998-04-29,6.43784
1998-04-30,6.49123
1998-05-01,6.46884
1998-05-04,6.50157
1998-05-05,6.42579
1998-05-06,6.30867
1998-05-07,6.30867
1998-05-08,6.29662
1998-05-11,6.36206
1998-05-12,6.28628
1998-05-13,6.22256
1998-05-14,6.2105
1998-05-15,6.11406
1998-05-18,6.1795
1998-05-19,6.10372
1998-05-20,6.06067
1998-05-21,5.87811
1998-05-22,5.92116
1998-05-26,5.87811
1998-05-27,5.86605
1998-05-28,5.88844
1998-05-29,5.88844
1998-06-01,5.94183
1998-06-02,5.98489
1998-06-03,5.94183
1998-06-04,5.9315
1998-06-05,5.89877
1998-06-08,5.96422
1998-06-09,5.86605
1998-06-10,5.85572
1998-06-11,5.79199
1998-06-12,5.80233
1998-06-15,5.72655
1998-06-16,5.68349
1998-06-17,5.73688
1998-06-18,5.71621
1998-06-19,5.68349
1998-06-22,5.69382
1998-06-23,5.75927
1998-06-24,5.75927
1998-06-25,5.74894
1998-06-26,5.71621
1998-06-29,5.71621
1998-06-30,5.68349
1998-07-01,5.68349
1998-07-02,5.90911
1998-07-06,5.92116
1998-07-07,5.82299
1998-07-08,5.83505
1998-07-09,5.84538
1998-07-10,5.72655
1998-07-13,5.7696
1998-07-14,5.64043
1998-07-15,5.55432
1998-07-16,5.71621
1998-07-17,5.73688
1998-07-20,5.68349
1998-07-21,5.60771
1998-07-22,5.55432
1998-07-23,5.6301
1998-07-24,5.61977
1998-07-27,5.56465
1998-07-28,5.47854
1998-07-29,5.55432
1998-07-30,5.67316
1998-07-31,5.72655
1998-08-03,5.61977
1998-08-04,5.49059
1998-08-05,5.47854
1998-08-06,5.60771
1998-08-07,5.59738
1998-08-10,5.50093
1998-08-11,5.40448
1998-08-12,5.49059
1998-08-13,5.45787
1998-08-14,5.40448
1998-08-17,5.40448
1998-08-18,5.5216
1998-08-19,5.39243
1998-08-20,5.28565
1998-08-21,5.25292
1998-08-24,5.17714
1998-08-25,5.16681
1998-08-26,5.13409
1998-08-27,4.8878
1998-08-28,4.83269
1998-08-31,4.7793
1998-09-01,4.99458
1998-09-02,4.97391
1998-09-03,4.97391
1998-09-04,4.90847
1998-09-08,5.09103
1998-09-09,5.00492
1998-09-10,5.04797
1998-09-11,5.13409
1998-09-14,5.16681
1998-09-15,5.2202
1998-09-16,5.28565
1998-09-17,5.12375
1998-09-18,5.20987
1998-09-21,5.16681
1998-09-22,5.25292
1998-09-23,5.27531
1998-09-24,5.19953
1998-09-25,5.16681
1998-09-28,5.1892
1998-09-29,5.25292
1998-09-30,5.16681
1998-10-01,5.13409
1998-10-02,5.12375
1998-10-05,5.09103
1998-10-06,4.97391
1998-10-07,4.75863
1998-10-08,4.6174
1998-10-09,4.80169
1998-10-12,4.96186
1998-10-13,4.8878
1998-10-14,5.0807
1998-10-15,5.19953
1998-10-16,5.15648
1998-10-19,5.25292
1998-10-20,5.30631
1998-10-21,5.28565
1998-10-22,5.19953
1998-10-23,5.26326
1998-10-26,5.30631
1998-10-27,5.2202
1998-10-28,5.23225
1998-10-29,5.25292
1998-10-30,5.27531
1998-11-02,5.28565
1998-11-03,5.23225
1998-11-04,5.20987
1998-11-05,5.23225
1998-11-06,5.40448
1998-11-09,5.38209
1998-11-10,5.44754
1998-11-11,5.5216
1998-11-12,5.46821
1998-11-13,5.45787
1998-11-16,5.46821
1998-11-17,5.40448
1998-11-18,5.39243
1998-11-19,5.38209
1998-11-20,5.36142
1998-11-23,5.36142
1998-11-24,5.40448
1998-11-25,5.33904
1998-11-27,5.3287
1998-11-30,5.31837
1998-12-01,5.28565
1998-12-02,5.30631
1998-12-03,5.19953
1998-12-04,5.24259
1998-12-07,5.19953
1998-12-08,5.14614
1998-12-09,5.13409
1998-12-10,5.12375
1998-12-11,5.07036
1998-12-14,4.93086
1998-12-15,4.98425
1998-12-16,5.11342
1998-12-17,5.1892
1998-12-18,5.16681
1998-12-21,5.15648
1998-12-22,5.1892
1998-12-23,5.23225
1998-12-24,5.29598
1998-12-28,5.31837
1998-12-29,5.29598
1998-12-30,5.3287
1998-12-31,5.40448
1999-01-04,5.33904
1999-01-05,5.66282
1999-01-06,5.58704
1999-01-07,5.49059
1999-01-08,5.49059
1999-01-11,5.57671
1999-01-12,5.51126
1999-01-13,5.40448
1999-01-14,5.41482
1999-01-15,5.41482
1999-01-19,5.49059
1999-01-20,5.38209
1999-01-21,5.38209
1999-01-22,5.40448
1999-01-25,5.42515
1999-01-26,5.39243
1999-01-27,5.39243
1999-01-28,5.39243
1999-01-29,5.29598
1999-02-01,5.31837
1999-02-02,5.19953
1999-02-03,5.33904
1999-02-04,5.29598
1999-02-05,5.17714
1999-02-08,5.2202
1999-02-09,5.16681
1999-02-10,5.1892
1999-02-11,5.17714
1999-02-12,5.1892
1999-02-16,5.20987
1999-02-17,5.19953
1999-02-18,5.1892
1999-02-19,5.17714
1999-02-22,5.19953
1999-02-23,5.1892
1999-02-24,5.19953
1999-02-25,5.1892
1999-02-26,5.13409
1999-03-01,5.12375
1999-03-02,5.16681
1999-03-03,5.15648
1999-03-04,5.19953
1999-03-05,5.19953
1999-03-08,5.2202
1999-03-09,5.31837
1999-03-10,5.40448
1999-03-11,5.38209
1999-03-12,5.28565
1999-03-15,5.31837
1999-03-16,5.27531
1999-03-17,5.15648
1999-03-18,5.3287
1999-03-19,5.34937
1999-03-22,5.30631
1999-03-23,5.25292
1999-03-24,5.23225
1999-03-25,5.24259
1999-03-26,5.23225
1999-03-29,5.16681
1999-03-30,5.15648
1999-03-31,5.19953
1999-04-01,5.2202
1999-04-05,5.28565
1999-04-06,5.23225
1999-04-07,5.27531
1999-04-08,5.15648
1999-04-09,5.0807
1999-04-12,5.17714
1999-04-13,5.1892
1999-04-14,5.15648
1999-04-15,5.27531
1999-04-16,5.24259
1999-04-19,5.31837
1999-04-20,5.37176
1999-04-21,5.41482
1999-04-22,5.42515
1999-04-23,5.44754
1999-04-26,5.33904
1999-04-27,5.40448
1999-04-28,5.41482
1999-04-29,5.40448
1999-04-30,5.29598
1999-05-03,5.33904
1999-05-04,5.29598
1999-05-05,5.31837
1999-05-06,5.44754
1999-05-07,5.47854
1999-05-10,5.53365
1999-05-11,5.64043
1999-05-12,5.61977
1999-05-13,5.56465
1999-05-14,5.51126
1999-05-17,5.46821
1999-05-18,5.47854
1999-05-19,5.50093
1999-05-20,5.54399
1999-05-21,5.5216
1999-05-24,5.71125
1999-05-25,5.67823
1999-05-26,5.64244
1999-05-27,5.65896
1999-05-28,5.74704
1999-06-01,5.67823
1999-06-02,5.67823
1999-06-03,5.74704
1999-06-04,5.72777
1999-06-07,5.72777
1999-06-08,5.72777
1999-06-09,5.72777
1999-06-10,5.69474
1999-06-11,5.71125
1999-06-14,5.69474
1999-06-15,5.74704
1999-06-16,5.84888
1999-06-17,5.88466
1999-06-18,6.00301
1999-06-21,6.07182
1999-06-22,6.17641
1999-06-23,6.05531
1999-06-24,6.00301
1999-06-25,6.00301
1999-06-28,6.02228
1999-06-29,6.14063
1999-06-30,6.88103
1999-07-01,6.58927
1999-07-02,6.60579
1999-07-06,6.46817
1999-07-07,6.36633
1999-07-08,6.57276
1999-07-09,6.58927
1999-07-12,6.52046
1999-07-13,6.36633
1999-07-14,6.26174
1999-07-15,6.29752
1999-07-16,6.24522
1999-07-19,6.27825
1999-07-20,6.20944
1999-07-21,6.31403
1999-07-22,6.20944
1999-07-23,6.14063
1999-07-26,5.96998
1999-07-27,5.95347
1999-07-28,5.9342
1999-07-29,5.95347
1999-07-30,5.95347
1999-08-02,5.95347
1999-08-03,5.96998
1999-08-04,5.91769
1999-08-05,5.90117
1999-08-06,5.88466
1999-08-09,5.91769
1999-08-10,5.90117
1999-08-11,5.91769
1999-08-12,5.91769
1999-08-13,5.91769
1999-08-16,5.95347
1999-08-17,5.9342
1999-08-18,5.90117
1999-08-19,5.9342
1999-08-20,5.88466
1999-08-23,5.91769
1999-08-24,5.88466
1999-08-25,5.84888
1999-08-26,5.86539
1999-08-27,5.81585
1999-08-30,5.83236
1999-08-31,5.81585
1999-09-01,5.84888
1999-09-02,5.81585
1999-09-03,5.91769
1999-09-07,5.81585
1999-09-08,5.79658
1999-09-09,5.78007
1999-09-10,5.79658
1999-09-13,5.79658
1999-09-14,5.78007
1999-09-15,5.79658
1999-09-16,5.78007
1999-09-17,5.76355
1999-09-20,5.76355
1999-09-21,5.79658
1999-09-22,5.81585
1999-09-23,5.81585
1999-09-24,5.81585
1999-09-27,5.74704
1999-09-28,5.76355
1999-09-29,5.74704
1999-09-30,5.78007
1999-10-01,5.79658
1999-10-04,5.95347
1999-10-05,5.91769
1999-10-06,5.88466
1999-10-07,5.78007
1999-10-08,5.78007
1999-10-11,5.91769
1999-10-12,6.05531
1999-10-13,5.90117
1999-10-14,5.91769
1999-10-15,5.78007
1999-10-18,5.74704
1999-10-19,5.79658
1999-10-20,5.86539
1999-10-21,5.91769
1999-10-22,6.45165
1999-10-25,6.20944
1999-10-26,6.38284
1999-10-27,6.38284
1999-10-28,6.43514
1999-10-29,6.45165
1999-11-01,6.39936
1999-11-02,6.39936
1999-11-03,6.36633
1999-11-04,6.26174
1999-11-05,6.24522
1999-11-08,6.19293
1999-11-09,6.09109
1999-11-10,6.09109
1999-11-11,5.96998
1999-11-12,6.02228
1999-11-15,6.07182
1999-11-16,6.14063
1999-11-17,6.14063
1999-11-18,6.14063
1999-11-19,6.00301
1999-11-22,5.79658
1999-11-23,5.84888
1999-11-24,5.83236
1999-11-26,5.81585
1999-11-29,5.79658
1999-11-30,5.96998
1999-12-01,5.96998
1999-12-02,5.90117
1999-12-03,6.03879
1999-12-06,5.9342
1999-12-07,5.91769
1999-12-08,5.95347
1999-12-09,5.9342
1999-12-10,5.95347
1999-12-13,5.88466
1999-12-14,6.14063
1999-12-15,6.23967
1999-12-16,6.48262
1999-12-17,6.4441
1999-12-20,6.37003
1999-12-21,6.46188
1999-12-22,6.51818
1999-12-23,6.64854
1999-12-27,6.61002
1999-12-28,6.74039
1999-12-29,6.81446
1999-12-30,6.81446
1999-12-31,6.85297
2000-01-03,6.4441
2000-01-04,6.31374
2000-01-05,6.31374
2000-01-06,6.38781
2000-01-07,6.55669
2000-01-10,6.51818
2000-01-11,6.48262
2000-01-12,6.51818
2000-01-13,6.46188
2000-01-14,6.42633
2000-01-18,6.46188
2000-01-19,6.53595
2000-01-20,6.31374
2000-01-21,6.27819
2000-01-24,6.23967
2000-01-25,6.26041
2000-01-26,6.31374
2000-01-27,6.31374
2000-01-28,6.33448
2000-01-31,6.31374
2000-02-01,6.4441
2000-02-02,6.29596
2000-02-03,6.42633
2000-02-04,6.74039
2000-02-07,6.63076
2000-02-08,6.48262
2000-02-09,6.42633
2000-02-10,6.38781
2000-02-11,6.38781
2000-02-14,6.37003
2000-02-15,6.37003
2000-02-16,6.38781
2000-02-17,6.37003
2000-02-18,6.37003
2000-02-22,6.40855
2000-02-23,6.38781
2000-02-24,6.35226
2000-02-25,6.31374
2000-02-28,6.26041
2000-02-29,6.33448
2000-03-01,6.35226
2000-03-02,6.31374
2000-03-03,6.35226
2000-03-06,6.33448
2000-03-07,6.29596
2000-03-08,6.27819
2000-03-09,6.27819
2000-03-10,6.27819
2000-03-13,6.22189
2000-03-14,6.35226
2000-03-15,6.35226
2000-03-16,6.72261
2000-03-17,6.4441
2000-03-20,6.37003
2000-03-21,6.37003
2000-03-22,6.40855
2000-03-23,6.4441
2000-03-24,6.59225
2000-03-27,6.61002
2000-03-28,6.64854
2000-03-29,6.66632
2000-03-30,6.72261
2000-03-31,6.81446
2000-04-03,6.92704
2000-04-04,6.72261
2000-04-05,6.70483
2000-04-06,6.70483
2000-04-07,6.70483
2000-04-10,6.75816
2000-04-11,7.09296
2000-04-12,7.20258
2000-04-13,7.20258
2000-04-14,6.79668
2000-04-17,6.9626
2000-04-18,7.00111
2000-04-19,6.72261
2000-04-20,7.00111
2000-04-24,6.79668
2000-04-25,7.11074
2000-04-26,6.94482
2000-04-27,6.85297
2000-04-28,6.92704
2000-05-01,7.00111
2000-05-02,6.81446
2000-05-03,6.81446
2000-05-04,7.07518
2000-05-05,7.11074
2000-05-08,6.98037
2000-05-09,7.00111
2000-05-10,6.98037
2000-05-11,7.07518
2000-05-12,6.83223
2000-05-15,6.81446
2000-05-16,6.75816
2000-05-17,6.7789
2000-05-18,6.72261
2000-05-19,6.68409
2000-05-22,6.70483
2000-05-23,6.74039
2000-05-24,6.85297
2000-05-25,6.85297
2000-05-26,7.68552
2000-05-30,7.647
2000-05-31,7.72107
2000-06-01,7.72107
2000-06-02,7.83366
2000-06-05,7.74181
2000-06-06,7.77737
2000-06-07,7.83366
2000-06-08,7.74181
2000-06-09,7.83366
2000-06-12,7.62923
2000-06-13,7.79514
2000-06-14,7.75959
2000-06-15,7.68552
2000-06-16,7.61145
2000-06-19,7.57293
2000-06-20,7.40702
2000-06-21,7.2411
2000-06-22,6.94482
2000-06-23,6.94482
2000-06-26,7.11074
2000-06-27,7.37146
2000-06-28,7.03667
2000-06-29,7.07518
2000-06-30,6.83223
2000-07-03,7.03667
2000-07-05,7.12851
2000-07-06,7.18481
2000-07-07,7.20258
2000-07-10,7.14925
2000-07-11,7.07518
2000-07-12,7.29739
2000-07-13,7.16703
2000-07-14,7.25888
2000-07-17,7.40702
2000-07-18,7.48109
2000-07-19,7.42479
2000-07-20,7.44553
2000-07-21,7.42479
2000-07-24,7.40702
2000-07-25,7.35072
2000-07-26,7.62923
2000-07-27,7.61145
2000-07-28,7.40702
2000-07-31,7.90773
2000-08-01,8.26031
2000-08-02,7.96402
2000-08-03,8.14772
2000-08-04,7.90773
2000-08-07,7.90773
2000-08-08,7.92551
2000-08-09,7.5196
2000-08-10,7.92551
2000-08-11,7.94328
2000-08-14,8.11216
2000-08-15,8.01735
2000-08-16,8.05587
2000-08-17,7.9818
2000-08-18,7.92551
2000-08-21,7.81588
2000-08-22,7.77737
2000-08-23,7.68552
2000-08-24,7.62923
2000-08-25,7.55516
2000-08-28,7.55516
2000-08-29,7.40702
2000-08-30,7.40702
2000-08-31,7.81588
2000-09-01,7.647
2000-09-05,7.38924
2000-09-06,7.33295
2000-09-07,7.44553
2000-09-08,7.57293
2000-09-11,7.61145
2000-09-12,7.5196
2000-09-13,7.33295
2000-09-14,7.25888
2000-09-15,7.27665
2000-09-18,7.27665
2000-09-19,7.25888
2000-09-20,7.18481
2000-09-21,7.16703
2000-09-22,7.20258
2000-09-25,7.2411
2000-09-26,7.2411
2000-09-27,7.44553
2000-09-28,7.85144
2000-09-29,7.94328
2000-10-02,7.49886
2000-10-03,7.49886
2000-10-04,7.31517
2000-10-05,7.31517
2000-10-06,7.12851
2000-10-09,7.05444
2000-10-10,6.98037
2000-10-11,7.01889
2000-10-12,6.88853
2000-10-13,7.07518
2000-10-16,7.00111
2000-10-17,6.87075
2000-10-18,6.9063
2000-10-19,7.07518
2000-10-20,6.87075
2000-10-23,6.9626
2000-10-24,7.01889
2000-10-25,7.01889
2000-10-26,7.05444
2000-10-27,7.14925
2000-10-30,7.27665
2000-10-31,7.38924
2000-11-01,7.20258
2000-11-02,7.35072
2000-11-03,7.2411
2000-11-06,7.2411
2000-11-07,7.33295
2000-11-08,7.35072
2000-11-09,7.44553
2000-11-10,7.35072
2000-11-13,7.38924
2000-11-14,7.81588
2000-11-15,7.75959
2000-11-16,7.81588
2000-11-17,8.01735
2000-11-20,7.74181
2000-11-21,8.01735
2000-11-22,7.96402
2000-11-24,8.23957
2000-11-27,8.05587
2000-11-28,8.07365
2000-11-29,8.29586
2000-11-30,8.18624
2000-12-01,8.18624
2000-12-04,8.26031
2000-12-05,8.96249
2000-12-06,8.85196
2000-12-07,9.11187
2000-12-08,9.8229
2000-12-11,9.69145
2000-12-12,9.52415
2000-12-13,9.44946
2000-12-14,9.48531
2000-12-15,9.16863
2000-12-18,9.56
2000-12-19,9.59883
2000-12-20,9.7273
2000-12-21,9.9902
2000-12-22,10.5309
2000-12-26,10.6803
2000-12-27,10.9432
2000-12-28,11.0717
2000-12-29,10.6056
2001-01-02,10.3248
2001-01-03,10.5489
2001-01-04,10.4562
2001-01-05,10.3816
2001-01-08,10.4383
2001-01-09,10.2143
2001-01-10,10.1963
2001-01-11,9.95136
2001-01-12,9.78406
2001-01-16,10.047
2001-01-17,9.87667
2001-01-18,10.0081
2001-01-19,9.8229
2001-01-22,10.1216
2001-01-23,10.2889
2001-01-24,10.026
2001-01-25,10.1575
2001-01-26,10.1754
2001-01-29,10.1396
2001-01-30,10.0977
2001-01-31,9.92447
2001-02-01,9.9663
2001-02-02,9.9424
2001-02-05,10.0021
2001-02-06,9.97825
2001-02-07,10.0948
2001-02-08,9.87966
2001-02-09,9.93941
2001-02-12,10.0977
2001-02-13,10.0021
2001-02-14,9.9185
2001-02-15,9.8468
2001-02-16,9.83484
2001-02-20,9.64663
2001-02-21,9.47635
2001-02-22,9.42556
2001-02-23,9.45543
2001-02-26,9.54805
2001-02-27,10.2322
2001-02-28,10.1844
2001-03-01,10.3517
2001-03-02,10.5728
2001-03-05,10.4174
2001-03-06,10.3367
2001-03-07,10.516
2001-03-08,10.3726
2001-03-09,10.1784
2001-03-12,9.93642
2001-03-13,10.0081
2001-03-14,9.76613
2001-03-15,9.81991
2001-03-16,9.74522
2001-03-19,9.76912
2001-03-20,9.59286
2001-03-21,9.45543
2001-03-22,9.31203
2001-03-23,9.48531
2001-03-26,9.68248
2001-03-27,9.7273
2001-03-28,9.52415
2001-03-29,9.50025
2001-03-30,9.63468
2001-04-02,9.62273
2001-04-03,9.45245
2001-04-04,9.2493
2001-04-05,9.27618
2001-04-06,9.19552
2001-04-09,9.21942
2001-04-10,9.49726
2001-04-11,9.28216
2001-04-12,9.30606
2001-04-16,9.49726
2001-04-17,9.3688
2001-04-18,9.53908
2001-04-19,9.64066
2001-04-20,9.37477
2001-04-23,9.38075
2001-04-24,9.42556
2001-04-25,9.62273
2001-04-26,9.93642
2001-04-27,9.91551
2001-04-30,9.57792
2001-05-01,9.92447
2001-05-02,9.86472
2001-05-03,9.94538
2001-05-04,10.1635
2001-05-07,10.0679
2001-05-08,10.1515
2001-05-09,10.1037
2001-05-10,10.286
2001-05-11,10.3367
2001-05-14,10.0649
2001-05-15,10.0529
2001-05-16,10.0679
2001-05-17,10.0679
2001-05-18,10.1485
2001-05-21,10.2411
2001-05-22,10.3636
2001-05-23,10.1306
2001-05-24,10.1545
2001-05-25,10.0828
2001-05-29,9.96331
2001-05-30,9.98422
2001-05-31,9.94538
2001-06-01,9.79601
2001-06-04,9.85277
2001-06-05,10.0051
2001-06-06,9.90356
2001-06-07,9.82588
2001-06-08,9.799
2001-06-11,9.87368
2001-06-12,9.82588
2001-06-13,9.8946
2001-06-14,9.73925
2001-06-15,9.83484
2001-06-18,9.74522
2001-06-19,9.66456
2001-06-20,10.0021
2001-06-21,9.96331
2001-06-22,9.67352
2001-06-25,9.50921
2001-06-26,9.85277
2001-06-27,9.94538
2001-06-28,9.98721
2001-06-29,9.73925
2001-07-02,9.84082
2001-07-03,9.90356
2001-07-05,10.029
2001-07-06,10.0141
2001-07-09,9.78406
2001-07-10,9.82887
2001-07-11,9.71236
2001-07-12,9.75119
2001-07-13,9.71833
2001-07-16,9.66456
2001-07-17,9.70638
2001-07-18,9.64663
2001-07-19,9.61377
2001-07-20,9.72431
2001-07-23,9.64663
2001-07-24,9.33892
2001-07-25,9.52415
2001-07-26,9.54805
2001-07-27,9.62273
2001-07-30,9.65261
2001-07-31,9.74522
2001-08-01,9.85875
2001-08-02,9.75717
2001-08-03,9.82887
2001-08-06,9.76912
2001-08-07,9.74821
2001-08-08,9.75717
2001-08-09,9.63468
2001-08-10,9.62871
2001-08-13,9.67651
2001-08-14,9.71236
2001-08-15,9.74821
2001-08-16,9.7751
2001-08-17,9.71535
2001-08-20,9.81393
2001-08-21,9.75418
2001-08-22,9.70937
2001-08-23,9.82887
2001-08-24,9.77211
2001-08-27,9.7034
2001-08-28,9.6078
2001-08-29,9.66456
2001-08-30,9.6795
2001-08-31,9.76912
2001-09-04,9.84082
2001-09-05,9.76315
2001-09-06,9.63468
2001-09-07,9.63468
2001-09-10,9.55701
2001-09-17,9.11486
2001-09-18,9.18656
2001-09-19,8.99237
2001-09-20,8.90275
2001-09-21,8.71155
2001-09-24,8.81312
2001-09-25,8.92366
2001-09-26,8.70557
2001-09-27,8.89378
2001-09-28,9.27618
2001-10-01,9.0581
2001-10-02,9.25826
2001-10-03,9.54207
2001-10-04,9.44647
2001-10-05,9.1059
2001-10-08,8.93262
2001-10-09,8.99237
2001-10-10,9.1776
2001-10-11,9.30008
2001-10-12,8.99237
2001-10-15,9.18955
2001-10-16,9.24631
2001-10-17,9.09693
2001-10-18,8.94457
2001-10-19,8.93262
2001-10-22,8.9625
2001-10-23,8.95055
2001-10-24,8.87885
2001-10-25,8.9625
2001-10-26,8.94457
2001-10-29,8.82208
2001-10-30,8.73545
2001-10-31,8.65478
2001-11-01,8.66076
2001-11-02,8.66375
2001-11-05,8.604
2001-11-06,8.58308
2001-11-07,8.61296
2001-11-08,8.61296
2001-11-09,8.51437
2001-11-12,8.51437
2001-11-13,8.59205
2001-11-14,8.58906
2001-11-15,8.58607
2001-11-16,8.29628
2001-11-19,8.35902
2001-11-20,8.33213
2001-11-21,8.09911
2001-11-23,8.09313
2001-11-26,8.126
2001-11-27,8.10807
2001-11-28,7.87206
2001-11-29,7.99156
2001-11-30,8.06625
2001-12-03,7.94973
2001-12-04,8.00948
2001-12-05,8.28394
2001-12-06,8.29299
2001-12-07,8.12713
2001-12-10,8.11205
2001-12-11,8.29299
2001-12-12,8.23569
2001-12-13,8.13316
2001-12-14,8.12713
2001-12-17,8.32013
2001-12-18,8.2176
2001-12-19,8.50408
2001-12-20,8.67597
2001-12-21,8.80564
2001-12-24,8.70613
2001-12-26,8.73327
2001-12-27,8.86596
2001-12-28,8.89611
2001-12-31,8.71517
2002-01-02,8.66391
2002-01-03,8.74533
2002-01-04,8.77549
2002-01-07,8.74533
2002-01-08,8.51614
2002-01-09,8.59455
2002-01-10,8.62772
2002-01-11,8.62471
2002-01-14,8.63074
2002-01-15,8.73025
2002-01-16,8.74533
2002-01-17,8.77247
2002-01-18,8.75438
2002-01-22,8.77549
2002-01-23,8.81771
2002-01-24,8.82977
2002-01-25,8.8358
2002-01-28,8.73327
2002-01-29,8.71517
2002-01-30,8.85088
2002-01-31,8.69407
2002-02-01,8.82977
2002-02-04,8.76041
2002-02-05,8.82374
2002-02-06,8.78453
2002-02-07,8.85691
2002-02-08,8.91722
2002-02-11,8.99563
2002-02-12,9.05594
2002-02-13,9.1253
2002-02-14,9.1645
2002-02-15,9.10721
2002-02-19,9.02277
2002-02-20,9.19466
2002-02-21,9.02579
2002-02-22,9.25497
2002-02-25,9.3183
2002-02-26,9.35449
2002-02-27,9.47511
2002-02-28,9.5294
2002-03-01,9.64399
2002-03-04,9.69526
2002-03-05,9.81287
2002-03-06,10.0059
2002-03-07,9.98174
2002-03-08,10.0722
2002-03-11,9.99682
2002-03-12,10.0209
2002-03-13,10.0722
2002-03-14,10.2562
2002-03-15,10.2531
2002-03-18,10.3406
2002-03-19,10.3225
2002-03-20,10.4039
2002-03-21,10.5426
2002-03-22,10.606
2002-03-25,10.5698
2002-03-26,10.6241
2002-03-27,10.7236
2002-03-28,10.7507
2002-04-01,10.7598
2002-04-02,10.6572
2002-04-03,10.7055
2002-04-04,10.796
2002-04-05,10.8864
2002-04-08,11.0915
2002-04-09,11.2905
2002-04-10,11.3569
2002-04-11,11.2181
2002-04-12,11.3358
2002-04-15,11.3237
2002-04-16,11.3056
2002-04-17,11.3659
2002-04-18,11.1578
2002-04-19,11.2181
2002-04-22,11.1578
2002-04-23,11.1337
2002-04-24,11.0704
2002-04-25,11.0553
2002-04-26,10.998
2002-04-29,10.9106
2002-04-30,10.992
2002-05-01,11.0221
2002-05-02,11.0282
2002-05-03,10.9467
2002-05-06,10.9437
2002-05-07,10.8382
2002-05-08,10.9136
2002-05-09,10.7055
2002-05-10,10.5034
2002-05-13,10.5849
2002-05-14,10.612
2002-05-15,10.6663
2002-05-16,10.5879
2002-05-17,10.609
2002-05-20,10.5426
2002-05-21,10.5004
2002-05-22,10.3346
2002-05-23,10.416
2002-05-24,10.2954
2002-05-28,10.2652
2002-05-29,10.3135
2002-05-30,10.223
2002-05-31,10.3557
2002-06-03,10.0993
2002-06-04,9.87016
2002-06-05,9.89429
2002-06-06,9.83096
2002-06-07,9.9546
2002-06-10,9.9546
2002-06-11,9.93952
2002-06-12,9.8581
2002-06-13,9.75858
2002-06-14,9.73747
2002-06-17,9.75557
2002-06-18,9.94555
2002-06-19,9.69827
2002-06-20,9.60177
2002-06-21,9.65002
2002-06-24,9.54146
2002-06-25,9.48416
2002-06-26,9.4721
2002-06-27,9.54749
2002-06-28,9.61986
2002-07-01,9.74049
2002-07-02,9.53241
2002-07-03,9.51432
2002-07-05,9.71938
2002-07-08,9.60479
2002-07-09,9.39369
2002-07-10,9.08308
2002-07-11,9.28815
2002-07-12,9.12228
2002-07-15,9.1826
2002-07-16,9.06197
2002-07-17,9.1253
2002-07-18,8.98658
2002-07-19,8.95039
2002-07-22,8.90214
2002-07-23,8.41964
2002-07-24,8.96246
2002-07-25,9.02277
2002-07-26,9.10721
2002-07-29,9.79779
2002-07-30,10.0813
2002-07-31,10.1808
2002-08-01,10.0481
2002-08-02,9.93349
2002-08-05,9.71033
2002-08-06,9.96063
2002-08-07,10.1446
2002-08-08,10.5517
2002-08-09,10.3858
2002-08-12,10.419
2002-08-13,10.229
2002-08-14,10.5547
2002-08-15,10.6995
2002-08-16,10.7688
2002-08-19,10.8533
2002-08-20,10.8774
2002-08-21,10.7658
2002-08-22,10.8533
2002-08-23,10.6452
2002-08-26,10.6482
2002-08-27,10.5125
2002-08-28,10.4039
2002-08-29,10.5065
2002-08-30,10.4703
2002-09-03,10.2562
2002-09-04,10.5215
2002-09-05,10.2441
2002-09-06,10.2682
2002-09-09,10.4854
2002-09-10,10.3738
2002-09-11,10.2863
2002-09-12,10.1084
2002-09-13,10.2773
2002-09-16,10.3708
2002-09-17,10.1627
2002-09-18,10.2019
2002-09-19,10.1024
2002-09-20,10.1114
2002-09-23,10.0632
2002-09-24,9.92444
2002-09-25,10.0541
2002-09-26,10.413
2002-09-27,10.3135
2002-09-30,10.2562
2002-10-01,10.4854
2002-10-02,10.3496
2002-10-03,10.3858
2002-10-04,10.1566
2002-10-07,9.93651
2002-10-08,10.3074
2002-10-09,10.0028
2002-10-10,10.4823
2002-10-11,10.6964
2002-10-14,10.7688
2002-10-15,11.2905
2002-10-16,11.3689
2002-10-17,11.5559
2002-10-18,11.4413
2002-10-21,11.5348
2002-10-22,11.4202
2002-10-23,11.4805
2002-10-24,11.2151
2002-10-25,11.4413
2002-10-28,11.2935
2002-10-29,11.188
2002-10-30,11.2513
2002-10-31,11.2996
2002-11-01,11.3056
2002-11-04,11.4835
2002-11-05,11.3448
2002-11-06,11.3931
2002-11-07,11.3297
2002-11-08,11.1609
2002-11-11,11.0644
2002-11-12,11.0221
2002-11-13,11.0071
2002-11-14,11.1428
2002-11-15,11.4473
2002-11-18,11.6434
2002-11-19,11.5348
2002-11-20,11.5559
2002-11-21,11.6192
2002-11-22,11.6675
2002-11-25,11.77
2002-11-26,11.7187
2002-11-27,11.8937
2002-11-29,11.9268
2002-12-02,11.9871
2002-12-03,11.8816
2002-12-04,11.9389
2002-12-05,11.9721
2002-12-06,11.9479
2002-12-09,11.8364
2002-12-10,11.957
2002-12-11,12.0414
2002-12-12,11.9564
2002-12-13,11.8958
2002-12-16,11.8836
2002-12-17,11.8958
2002-12-18,11.7319
2002-12-19,11.5195
2002-12-20,11.571
2002-12-23,11.5437
2002-12-24,11.5225
2002-12-26,11.5619
2002-12-27,11.3647
2002-12-30,11.3313
2002-12-31,11.3252
2003-01-02,11.5316
2003-01-03,11.48
2003-01-06,11.6742
2003-01-07,11.5407
2003-01-08,11.4861
2003-01-09,11.5498
2003-01-10,11.5164
2003-01-13,11.1735
2003-01-14,11.1583
2003-01-15,11.0127
2003-01-16,11.0643
2003-01-17,10.9307
2003-01-21,10.864
2003-01-22,10.8063
2003-01-23,10.7911
2003-01-24,10.6273
2003-01-27,10.424
2003-01-28,10.4482
2003-01-29,10.4998
2003-01-30,10.4725
2003-01-31,10.6394
2003-02-03,10.5878
2003-02-04,10.3997
2003-02-05,10.3208
2003-02-06,10.3299
2003-02-07,10.2631
2003-02-10,10.2844
2003-02-11,10.2206
2003-02-12,10.0082
2003-02-13,10.1205
2003-02-14,10.2267
2003-02-18,10.3177
2003-02-19,10.3177
2003-02-20,10.2844
2003-02-21,10.3481
2003-02-24,10.1266
2003-02-25,10.1599
2003-02-26,10.0628
2003-02-27,10.1721
2003-02-28,10.2024
2003-03-03,10.1782
2003-03-04,10.1205
2003-03-05,10.1994
2003-03-06,9.99001
2003-03-07,10.0568
2003-03-10,10.0325
2003-03-11,9.99001
2003-03-12,10.0446
2003-03-13,10.2874
2003-03-14,10.3177
2003-03-17,10.4847
2003-03-18,10.6182
2003-03-19,10.7456
2003-03-20,10.9307
2003-03-21,11.2221
2003-03-24,10.9277
2003-03-25,10.9884
2003-03-26,10.9277
2003-03-27,10.9125
2003-03-28,11.0157
2003-03-31,10.8792
2003-04-01,11.0491
2003-04-02,11.1826
2003-04-03,10.9763
2003-04-04,11.0582
2003-04-07,11.0279
2003-04-08,10.9732
2003-04-09,10.9429
2003-04-10,11.0309
2003-04-11,11.0461
2003-04-14,11.1371
2003-04-15,11.1341
2003-04-16,11.0127
2003-04-17,11.043
2003-04-21,11.0703
2003-04-22,11.4588
2003-04-23,11.4982
2003-04-24,11.2888
2003-04-25,11.1826
2003-04-28,11.4436
2003-04-29,11.389
2003-04-30,11.5377
2003-05-01,11.5498
2003-05-02,11.7592
2003-05-05,11.7471
2003-05-06,11.8472
2003-05-07,11.8745
2003-05-08,11.6712
2003-05-09,11.653
2003-05-12,11.6591
2003-05-13,11.6894
2003-05-14,11.7167
2003-05-15,11.3859
2003-05-16,11.6075
2003-05-19,11.5195
2003-05-20,11.5498
2003-05-21,11.483
2003-05-22,11.4618
2003-05-23,11.4284
2003-05-27,11.5134
2003-05-28,11.4891
2003-05-29,11.392
2003-05-30,11.568
2003-06-02,11.7015
2003-06-03,11.6226
2003-06-04,11.6591
2003-06-05,11.7106
2003-06-06,11.6348
2003-06-09,11.5316
2003-06-10,11.7319
2003-06-11,11.744
2003-06-12,11.7592
2003-06-13,11.6226
2003-06-16,11.8988
2003-06-17,11.8502
2003-06-18,11.5528
2003-06-19,11.4436
2003-06-20,11.5013
2003-06-23,11.4497
2003-06-24,11.5528
2003-06-25,11.4891
2003-06-26,11.5195
2003-06-27,11.4648
2003-06-30,11.2463
2003-07-01,11.3343
2003-07-02,11.3768
2003-07-03,11.2828
2003-07-07,11.3617
2003-07-08,11.392
2003-07-09,11.307
2003-07-10,11.3192
2003-07-11,11.389
2003-07-14,11.3283
2003-07-15,11.3374
2003-07-16,11.3829
2003-07-17,11.2312
2003-07-18,11.3859
2003-07-21,11.2797
2003-07-22,11.2737
2003-07-23,11.1765
2003-07-24,11.0885
2003-07-25,11.2494
2003-07-28,11.1826
2003-07-29,11.1341
2003-07-30,11.6894
2003-07-31,11.7713
2003-08-01,11.5528
2003-08-04,11.5468
2003-08-05,11.5832
2003-08-06,11.5832
2003-08-07,11.2251
2003-08-08,11.4436
2003-08-11,11.3799
2003-08-12,11.5073
2003-08-13,11.4739
2003-08-14,11.4375
2003-08-15,11.3829
2003-08-18,11.5073
2003-08-19,11.6075
2003-08-20,11.5619
2003-08-21,11.5589
2003-08-22,11.4102
2003-08-25,11.3981
2003-08-26,11.3647
2003-08-27,11.4588
2003-08-28,11.5195
2003-08-29,11.5589
2003-09-02,11.6135
2003-09-03,11.565
2003-09-04,11.5468
2003-09-05,11.477
2003-09-08,11.5255
2003-09-09,11.4527
2003-09-10,11.3647
2003-09-11,11.4406
2003-09-12,11.3981
2003-09-15,11.304
2003-09-16,11.5559
2003-09-17,11.4679
2003-09-18,11.5771
2003-09-19,11.5862
2003-09-22,11.5619
2003-09-23,11.565
2003-09-24,11.5407
2003-09-25,11.483
2003-09-26,11.3374
2003-09-29,11.4254
2003-09-30,11.5164
2003-10-01,11.6044
2003-10-02,11.6014
2003-10-03,11.656
2003-10-06,11.7167
2003-10-07,11.744
2003-10-08,11.7289
2003-10-09,11.6864
2003-10-10,11.7228
2003-10-13,11.9231
2003-10-14,11.9625
2003-10-15,12.09
2003-10-16,12.3206
2003-10-17,12.3509
2003-10-20,12.2903
2003-10-21,12.2781
2003-10-22,12.1658
2003-10-23,12.3327
2003-10-24,12.357
2003-10-27,12.4814
2003-10-28,12.5179
2003-10-29,12.6362
2003-10-30,12.6969
2003-10-31,12.7879
2003-11-03,13.1703
2003-11-04,13.14
2003-11-05,13.4222
2003-11-06,13.3554
2003-11-07,12.6939
2003-11-10,12.5573
2003-11-11,12.5816
2003-11-12,12.7606
2003-11-13,12.7303
2003-11-14,12.709
2003-11-17,12.615
2003-11-18,12.527
2003-11-19,12.6028
2003-11-20,12.4845
2003-11-21,12.527
2003-11-24,12.6544
2003-11-25,12.6878
2003-11-26,12.8759
2003-11-28,12.8972
2003-12-01,12.8365
2003-12-02,12.7728
2003-12-03,12.7455
2003-12-04,12.8001
2003-12-05,12.7515
2003-12-08,12.7546
2003-12-09,12.6696
2003-12-10,12.7363
2003-12-11,12.7394
2003-12-12,12.7758
2003-12-15,12.6757
2003-12-16,12.9184
2003-12-17,12.931
2003-12-18,13.0225
2003-12-19,13.2362
2003-12-22,13.2057
2003-12-23,13.3858
2003-12-24,13.4652
2003-12-26,13.4926
2003-12-29,13.5354
2003-12-30,13.8895
2003-12-31,14.0787
2004-01-02,14.1154
2004-01-05,14.1459
2004-01-06,14.1337
2004-01-07,14.1642
2004-01-08,14.1734
2004-01-09,14.2405
2004-01-12,14.3779
2004-01-13,14.1581
2004-01-14,14.3901
2004-01-15,14.4023
2004-01-16,14.5214
2004-01-20,14.7045
2004-01-21,14.7351
2004-01-22,14.8327
2004-01-23,15.1655
2004-01-26,15.3425
2004-01-27,15.135
2004-01-28,14.7076
2004-01-29,14.7137
2004-01-30,15.0373
2004-02-02,14.7076
2004-02-03,14.6374
2004-02-04,14.4206
2004-02-05,14.5031
2004-02-06,14.671
2004-02-09,14.8358
2004-02-10,15.1777
2004-02-11,15.4585
2004-02-12,15.3731
2004-02-13,15.3242
2004-02-17,15.6783
2004-02-18,15.483
2004-02-19,15.5196
2004-02-20,15.3364
2004-02-23,15.251
2004-02-24,15.4616
2004-02-25,15.657
2004-02-26,15.7546
2004-02-27,15.8859
2004-03-01,16.1698
2004-03-02,16.1362
2004-03-03,16.1973
2004-03-04,16.2522
2004-03-05,16.2461
2004-03-08,16.005
2004-03-09,16.0172
2004-03-10,15.6844
2004-03-11,15.3151
2004-03-12,15.6905
2004-03-15,15.4799
2004-03-16,15.5257
2004-03-17,15.8767
2004-03-18,15.7607
2004-03-19,15.5593
2004-03-22,15.1899
2004-03-23,15.1746
2004-03-24,15.3792
2004-03-25,15.6142
2004-03-26,15.483
2004-03-29,15.7852
2004-03-30,16.1057
2004-03-31,16.237
2004-04-01,16.5147
2004-04-02,16.6704
2004-04-05,16.762
2004-04-06,16.6552
2004-04-07,16.8108
2004-04-08,16.8658
2004-04-12,17.0093
2004-04-13,17.0886
2004-04-14,16.5147
2004-04-15,16.5453
2004-04-16,16.6765
2004-04-19,16.7132
2004-04-20,16.4232
2004-04-21,16.179
2004-04-22,15.4127
2004-04-23,15.4891
2004-04-26,15.5532
2004-04-27,15.5806
2004-04-28,15.2571
2004-04-29,14.9793
2004-04-30,15.08
2004-05-03,15.1624
2004-05-04,15.1533
2004-05-05,15.1533
2004-05-06,14.9457
2004-05-07,14.2497
2004-05-10,14.1764
2004-05-11,14.2711
2004-05-12,14.1642
2004-05-13,14.1642
2004-05-14,14.1245
2004-05-17,13.9444
2004-05-18,14.1886
2004-05-19,14.0085
2004-05-20,14.149
2004-05-21,14.2558
2004-05-24,14.4939
2004-05-25,14.7351
2004-05-26,14.8816
2004-05-27,15.0586
2004-05-28,15.1807
2004-06-01,15.1716
2004-06-02,15.1258
2004-06-03,14.9793
2004-06-04,15.08
2004-06-07,15.4097
2004-06-08,15.7363
2004-06-09,15.5074
2004-06-10,15.5745
2004-06-14,15.0678
2004-06-15,15.2387
2004-06-16,15.2723
2004-06-17,15.5806
2004-06-18,15.5196
2004-06-21,15.5196
2004-06-22,15.5074
2004-06-23,15.309
2004-06-24,15.2571
2004-06-25,15.2021
2004-06-28,15.196
2004-06-29,15.2021
2004-06-30,15.1441
2004-07-01,15.4066
2004-07-02,15.2632
2004-07-06,15.1502
2004-07-07,15.0006
2004-07-08,14.8236
2004-07-09,14.9274
2004-07-12,15.2662
2004-07-13,15.5379
2004-07-14,15.5654
2004-07-15,15.7607
2004-07-16,15.6631
2004-07-19,15.5867
2004-07-20,15.8126
2004-07-21,15.66
2004-07-22,15.5593
2004-07-23,15.5684
2004-07-26,15.5165
2004-07-27,15.5013
2004-07-28,15.5318
2004-07-29,15.6295
2004-07-30,15.7211
2004-08-02,15.5928
2004-08-03,15.4921
2004-08-04,15.3975
2004-08-05,15.2357
2004-08-06,15.1563
2004-08-09,15.1166
2004-08-10,15.2906
2004-08-11,15.5104
2004-08-12,15.3578
2004-08-13,15.3731
2004-08-16,15.483
2004-08-17,15.6234
2004-08-18,15.6325
2004-08-19,15.5043
2004-08-20,15.6203
2004-08-23,15.6051
2004-08-24,15.8371
2004-08-25,16.0721
2004-08-26,16.1637
2004-08-27,16.2888
2004-08-30,16.1942
2004-08-31,16.4781
2004-09-01,16.4751
2004-09-02,16.5453
2004-09-03,16.6094
2004-09-07,16.7284
2004-09-08,16.7345
2004-09-09,16.469
2004-09-10,16.5453
2004-09-13,16.6063
2004-09-14,16.6246
2004-09-15,16.588
2004-09-16,16.411
2004-09-17,16.4018
2004-09-20,16.6185
2004-09-21,16.7559
2004-09-22,16.8108
2004-09-23,16.7712
2004-09-24,17.1711
2004-09-27,17.2046
2004-09-28,16.9513
2004-09-29,17.0764
2004-09-30,17.226
2004-10-01,17.5832
2004-10-04,17.7938
2004-10-05,17.9953
2004-10-06,18.0411
2004-10-07,17.8945
2004-10-08,17.6961
2004-10-11,17.8396
2004-10-12,18.0289
2004-10-13,17.6931
2004-10-14,17.4305
2004-10-15,17.5954
2004-10-18,17.8335
2004-10-19,17.3573
2004-10-20,17.4366
2004-10-21,17.3817
2004-10-22,17.3328
2004-10-25,17.4794
2004-10-26,17.5221
2004-10-27,17.7327
2004-10-28,17.8671
2004-10-29,17.9861
2004-11-01,17.9708
2004-11-02,17.919
2004-11-03,18.1021
2004-11-04,18.5264
2004-11-05,18.2486
2004-11-08,18.1967
2004-11-09,18.3555
2004-11-10,17.9678
2004-11-11,17.919
2004-11-12,18.2273
2004-11-15,18.3494
2004-11-16,18.093
2004-11-17,18.4684
2004-11-18,18.8775
2004-11-19,18.7981
2004-11-22,18.8714
2004-11-23,18.8866
2004-11-24,18.9355
2004-11-26,19.0301
2004-11-29,18.9172
2004-11-30,19.0942
2004-12-01,19.5796
2004-12-02,19.6467
2004-12-03,19.7566
2004-12-06,19.9184
2004-12-07,19.7719
2004-12-08,19.9367
2004-12-09,19.9215
2004-12-10,19.9642
2004-12-13,20.3183
2004-12-14,20.7243
2004-12-15,20.8953
2004-12-16,20.9411
2004-12-17,21.1639
2004-12-20,20.9136
2004-12-21,21.219
2004-12-22,21.572
2004-12-23,21.4093
2004-12-27,21.3786
2004-12-28,21.4246
2004-12-29,21.3326
2004-12-30,21.4338
2004-12-31,21.3172
2005-01-03,20.9673
2005-01-04,20.3273
2005-01-05,19.8623
2005-01-06,19.5446
2005-01-07,19.6275
2005-01-10,20.2076
2005-01-11,19.8255
2005-01-12,19.7702
2005-01-13,19.8853
2005-01-14,19.8531
2005-01-18,19.7058
2005-01-19,19.5953
2005-01-20,19.2177
2005-01-21,19.1901
2005-01-24,19.0888
2005-01-25,19.0796
2005-01-26,19.3651
2005-01-27,18.3337
2005-01-28,17.7444
2005-01-31,16.667
2005-02-01,16.9939
2005-02-02,16.4184
2005-02-03,16.0869
2005-02-04,16.7913
2005-02-07,17.0446
2005-02-08,17.086
2005-02-09,16.5611
2005-02-10,16.6716
2005-02-11,16.598
2005-02-14,16.1237
2005-02-15,16.0961
2005-02-16,15.5528
2005-02-17,15.4561
2005-02-18,15.47
2005-02-22,15.12
2005-02-23,15.272
2005-02-24,15.1753
2005-02-25,15.3364
2005-02-28,15.4607
2005-03-01,15.5206
2005-03-02,15.6495
2005-03-03,15.7508
2005-03-04,15.6956
2005-03-07,15.6541
2005-03-08,15.7094
2005-03-09,15.8245
2005-03-10,15.8337
2005-03-11,16.1099
2005-03-14,16.2757
2005-03-15,16.225
2005-03-16,16.0777
2005-03-17,15.9902
2005-03-18,15.6541
2005-03-21,15.5666
2005-03-22,15.5528
2005-03-23,15.5298
2005-03-24,15.6679
2005-03-28,15.4331
2005-03-29,15.318
2005-03-30,15.7232
2005-03-31,15.8061
2005-04-01,15.7554
2005-04-04,15.6495
2005-04-05,15.8337
2005-04-06,15.9396
2005-04-07,16.1882
2005-04-08,16.004
2005-04-11,15.8567
2005-04-12,15.9258
2005-04-13,15.76
2005-04-14,15.4009
2005-04-15,15.516
2005-04-18,15.5298
2005-04-19,15.562
2005-04-20,15.5022
2005-04-21,15.3871
2005-04-22,15.2628
2005-04-25,15.5574
2005-04-26,15.562
2005-04-27,15.6035
2005-04-28,15.8521
2005-04-29,15.9488
2005-05-02,16.0409
2005-05-03,15.8107
2005-05-04,16.0455
2005-05-05,15.8291
2005-05-06,16.1099
2005-05-09,16.0639
2005-05-10,15.8935
2005-05-11,16.1606
2005-05-12,16.3033
2005-05-13,16.1974
2005-05-16,16.5151
2005-05-17,16.598
2005-05-18,16.8926
2005-05-19,17.0031
2005-05-20,17.0308
2005-05-23,17.3116
2005-05-24,17.4958
2005-05-25,17.6661
2005-05-26,17.9286
2005-05-27,18.0483
2005-05-31,18.366
2005-06-01,18.0529
2005-06-02,17.795
2005-06-03,17.8917
2005-06-06,17.3577
2005-06-07,17.3945
2005-06-08,17.2241
2005-06-09,17.261
2005-06-10,17.3531
2005-06-13,17.3761
2005-06-14,17.3392
2005-06-15,17.4037
2005-06-16,18.0437
2005-06-17,17.9654
2005-06-20,17.7766
2005-06-21,17.6938
2005-06-22,17.7628
2005-06-23,17.6845
2005-06-24,17.7122
2005-06-27,17.5648
2005-06-28,17.8963
2005-06-29,17.7812
2005-06-30,17.7536
2005-07-01,18.0943
2005-07-05,18.1864
2005-07-06,18.1035
2005-07-07,18.237
2005-07-08,18.5639
2005-07-11,18.5133
2005-07-12,18.3706
2005-07-13,18.2278
2005-07-14,17.993
2005-07-15,17.9884
2005-07-18,17.9838
2005-07-19,18.1081
2005-07-20,18.1956
2005-07-21,18.0713
2005-07-22,18.3798
2005-07-25,18.3614
2005-07-26,18.2647
2005-07-27,18.2463
2005-07-28,18.2555
2005-07-29,18.145
2005-08-01,18.214
2005-08-02,18.2877
2005-08-03,17.8181
2005-08-04,17.7904
2005-08-05,17.482
2005-08-08,17.6477
2005-08-09,18.016
2005-08-10,18.1956
2005-08-11,18.6054
2005-08-12,18.5317
2005-08-15,18.7849
2005-08-16,18.3061
2005-08-17,18.4258
2005-08-18,18.4028
2005-08-19,18.4074
2005-08-22,18.4719
2005-08-23,18.4442
2005-08-24,18.3337
2005-08-25,18.3752
2005-08-26,18.3982
2005-08-29,18.3936
2005-08-30,18.5363
2005-08-31,18.6975
2005-09-01,18.7895
2005-09-02,18.7941
2005-09-06,19.5446
2005-09-07,19.3697
2005-09-08,19.8117
2005-09-09,20.2629
2005-09-12,20.2859
2005-09-13,20.0373
2005-09-14,20.2767
2005-09-15,20.5621
2005-09-16,20.4424
2005-09-19,20.3596
2005-09-20,20.1616
2005-09-21,19.5999
2005-09-22,19.7794
2005-09-23,20.0695
2005-09-26,19.9406
2005-09-27,19.6781
2005-09-28,19.5676
2005-09-29,19.7979
2005-09-30,19.8439
2005-10-03,19.9636
2005-10-04,19.5492
2005-10-05,19.2269
2005-10-06,19.2131
2005-10-07,19.2822
2005-10-10,19.1533
2005-10-11,19.1441
2005-10-12,18.8218
2005-10-13,18.8218
2005-10-14,18.8126
2005-10-17,18.8586
2005-10-18,18.6698
2005-10-19,18.8126
2005-10-20,18.5824
2005-10-21,18.9185
2005-10-24,19.1855
2005-10-25,19.1947
2005-10-26,19.098
2005-10-27,18.7343
2005-10-28,19.1164
2005-10-31,19.7933
2005-11-01,19.7933
2005-11-02,20.2122
2005-11-03,20.3043
2005-11-04,20.3365
2005-11-07,20.3273
2005-11-08,20.2905
2005-11-09,20.9121
2005-11-10,20.7693
2005-11-11,20.9489
2005-11-14,21.2482
2005-11-15,21.2528
2005-11-16,21.1837
2005-11-17,21.4461
2005-11-18,21.4277
2005-11-21,21.7915
2005-11-22,21.7592
2005-11-23,22.4913
2005-11-25,22.3347
2005-11-28,22.2795
2005-11-29,22.2104
2005-11-30,21.8191
2005-12-01,21.9848
2005-12-02,21.8375
2005-12-05,21.9848
2005-12-06,21.7546
2005-12-07,21.5889
2005-12-08,21.5658
2005-12-09,21.6487
2005-12-12,21.5705
2005-12-13,21.6073
2005-12-14,21.6349
2005-12-15,21.552
2005-12-16,21.5336
2005-12-19,21.3626
2005-12-20,21.5524
2005-12-21,21.5894
2005-12-22,21.7561
2005-12-23,22.1681
2005-12-27,22.1125
2005-12-28,22.1634
2005-12-29,22.0292
2005-12-30,21.9598
2006-01-03,21.9829
2006-01-04,22.1912
2006-01-05,22.1218
2006-01-06,22.6726
2006-01-09,22.543
2006-01-10,22.4273
2006-01-11,22.5986
2006-01-12,22.7004
2006-01-13,22.6356
2006-01-17,22.6263
2006-01-18,22.4458
2006-01-19,22.6634
2006-01-20,22.2884
2006-01-23,22.5615
2006-01-24,23.0985
2006-01-25,23.0707
2006-01-26,23.2836
2006-01-27,23.978
2006-01-30,23.9317
2006-01-31,24.2881
2006-02-01,24.2835
2006-02-02,24.5011
2006-02-03,24.9639
2006-02-06,24.8991
2006-02-07,24.7556
2006-02-08,24.5659
2006-02-09,24.8204
2006-02-10,24.4594
2006-02-13,24.2789
2006-02-14,24.2465
2006-02-15,24.0659
2006-02-16,24.2742
2006-02-17,24.3483
2006-02-21,24.2233
2006-02-22,24.3113
2006-02-23,24.3159
2006-02-24,24.4779
2006-02-27,24.9501
2006-02-28,25.0102
2006-03-01,24.9732
2006-03-02,25.3204
2006-03-03,25.4731
2006-03-06,25.2047
2006-03-07,25.0195
2006-03-08,25.1815
2006-03-09,25.1861
2006-03-10,25.2972
2006-03-13,25.575
2006-03-14,25.9129
2006-03-15,26.311
2006-03-16,26.5332
2006-03-17,26.7646
2006-03-20,26.9544
2006-03-21,26.8572
2006-03-22,26.8572
2006-03-23,26.8155
2006-03-24,27.2275
2006-03-27,27.408
2006-03-28,27.2738
2006-03-29,27.1673
2006-03-30,27.0748
2006-03-31,27.6117
2006-04-03,27.7691
2006-04-04,28.3014
2006-04-05,28.4542
2006-04-06,28.0376
2006-04-07,27.9126
2006-04-10,27.7691
2006-04-11,27.6811
2006-04-12,28.0005
2006-04-13,27.5839
2006-04-17,27.5886
2006-04-18,28.2783
2006-04-19,28.4588
2006-04-20,28.4449
2006-04-21,28.1116
2006-04-24,28.4588
2006-04-25,27.9404
2006-04-26,28.0237
2006-04-27,28.2042
2006-04-28,28.0515
2006-05-01,28.2366
2006-05-02,28.3431
2006-05-03,28.3523
2006-05-04,28.1857
2006-05-05,28.7412
2006-05-08,28.9495
2006-05-09,29.0235
2006-05-10,28.3662
2006-05-11,28.5792
2006-05-12,28.2644
2006-05-15,28.2551
2006-05-16,28.4912
2006-05-17,28.0329
2006-05-18,28.0792
2006-05-19,28.3292
2006-05-22,27.5747
2006-05-23,28.9402
2006-05-24,29.0513
2006-05-25,29.8336
2006-05-26,29.6947
2006-05-30,29.6253
2006-05-31,29.6438
2006-06-01,29.3476
2006-06-02,29.3476
2006-06-05,28.7551
2006-06-06,28.7643
2006-06-07,28.7736
2006-06-08,28.3616
2006-06-09,28.3246
2006-06-12,27.7922
2006-06-13,26.2138
2006-06-14,26.7785
2006-06-15,26.8572
2006-06-16,26.5332
2006-06-19,25.8203
2006-06-20,25.8573
2006-06-21,26.2925
2006-06-22,25.8759
2006-06-23,26.0703
2006-06-26,26.2925
2006-06-27,26.1628
2006-06-28,26.1351
2006-06-29,26.6813
2006-06-30,26.9961
2006-07-03,27.0331
2006-07-05,26.8202
2006-07-06,26.9035
2006-07-07,26.885
2006-07-10,26.7554
2006-07-11,26.8202
2006-07-12,26.598
2006-07-13,25.6537
2006-07-14,25.0149
2006-07-17,24.7927
2006-07-18,24.7834
2006-07-19,25.2648
2006-07-20,24.5335
2006-07-21,24.1539
2006-07-24,24.552
2006-07-25,25.2556
2006-07-26,25.3852
2006-07-27,25.2833
2006-07-28,25.5518
2006-07-31,25.4778
2006-08-01,25.3667
2006-08-02,25.6814
2006-08-03,25.7833
2006-08-04,25.811
2006-08-07,25.9221
2006-08-08,25.6444
2006-08-09,25.5611
2006-08-10,25.3111
2006-08-11,24.9686
2006-08-14,24.4779
2006-08-15,24.3761
2006-08-16,24.0428
2006-08-17,23.8669
2006-08-18,24.2927
2006-08-21,23.8854
2006-08-22,23.5243
2006-08-23,23.8484
2006-08-24,23.4225
2006-08-25,23.6077
2006-08-28,23.654
2006-08-29,23.7373
2006-08-30,23.7188
2006-08-31,23.7836
2006-09-01,24.052
2006-09-05,24.3298
2006-09-06,24.0983
2006-09-07,24.0798
2006-09-08,24.2279
2006-09-11,24.4224
2006-09-12,24.8112
2006-09-13,25.487
2006-09-14,25.3852
2006-09-15,25.4963
2006-09-18,25.7555
2006-09-19,25.7
2006-09-20,25.3574
2006-09-21,24.9038
2006-09-22,24.8667
2006-09-25,24.7464
2006-09-26,24.7094
2006-09-27,24.6631
2006-09-28,24.2557
2006-09-29,24.2094
2006-10-02,24.2557
2006-10-03,23.9965
2006-10-04,24.2279
2006-10-05,24.7927
2006-10-06,24.6816
2006-10-09,24.5612
2006-10-10,24.7001
2006-10-11,24.4224
2006-10-12,24.3946
2006-10-13,24.7742
2006-10-16,24.876
2006-10-17,24.6908
2006-10-18,24.5983
2006-10-19,24.4409
2006-10-20,24.1446
2006-10-23,24.2927
2006-10-24,24.1909
2006-10-25,24.4501
2006-10-26,24.8667
2006-10-27,24.8482
2006-10-30,24.7464
2006-10-31,24.4316
2006-11-01,23.8576
2006-11-02,23.8761
2006-11-03,24.0335
2006-11-06,23.978
2006-11-07,24.4687
2006-11-08,24.5335
2006-11-09,24.2557
2006-11-10,24.2002
2006-11-13,23.9502
2006-11-14,24.1724
2006-11-15,24.3113
2006-11-16,24.5335
2006-11-17,24.7001
2006-11-20,24.552
2006-11-21,24.913
2006-11-22,25.0056
2006-11-24,25.1537
2006-11-27,24.8204
2006-11-28,24.9038
2006-11-29,25.1445
2006-11-30,25.5055
2006-12-01,25.45
2006-12-04,25.4778
2006-12-05,25.8944
2006-12-06,25.6722
2006-12-07,25.5055
2006-12-08,25.5518
2006-12-11,25.3019
2006-12-12,25.7277
2006-12-13,25.5426
2006-12-14,25.7388
2006-12-15,26.0003
2006-12-18,25.963
2006-12-19,26.374
2006-12-20,27.028
2006-12-21,26.9907
2006-12-22,26.701
2006-12-26,26.7384
2006-12-27,26.8879
2006-12-28,26.673
2006-12-29,26.3554
2007-01-03,26.7384
2007-01-04,26.6263
2007-01-05,25.636
2007-01-08,25.608
2007-01-09,25.4678
2007-01-10,25.4118
2007-01-11,25.7294
2007-01-12,25.9256
2007-01-16,25.9069
2007-01-17,25.7388
2007-01-18,25.3837
2007-01-19,25.2716
2007-01-22,25.0848
2007-01-23,25.2249
2007-01-24,25.4398
2007-01-25,24.8699
2007-01-26,24.954
2007-01-29,25.0941
2007-01-30,25.4305
2007-01-31,25.5612
2007-02-01,25.7574
2007-02-02,26.1031
2007-02-05,26.0564
2007-02-06,25.991
2007-02-07,26.0564
2007-02-08,25.9723
2007-02-09,25.9817
2007-02-12,25.9069
2007-02-13,26.0844
2007-02-14,26.5516
2007-02-15,26.4581
2007-02-16,26.617
2007-02-20,26.7664
2007-02-21,26.7851
2007-02-22,26.7758
2007-02-23,26.8225
2007-02-26,26.9066
2007-02-27,26.2713
2007-02-28,26.4675
2007-03-01,26.8225
2007-03-02,27.0934
2007-03-05,26.9066
2007-03-06,27.1121
2007-03-07,27.3457
2007-03-08,27.3737
2007-03-09,27.8408
2007-03-12,27.7661
2007-03-13,27.1028
2007-03-14,27.0747
2007-03-15,27.355
2007-03-16,27.2242
2007-03-19,26.8692
2007-03-20,27.1962
2007-03-21,27.3457
2007-03-22,27.4858
2007-03-23,28.2986
2007-03-26,28.0464
2007-03-27,27.9062
2007-03-28,27.5792
2007-03-29,27.6073
2007-03-30,27.4952
2007-04-02,27.4204
2007-04-03,27.7661
2007-04-04,27.8595
2007-04-05,27.7381
2007-04-09,27.7007
2007-04-10,27.7287
2007-04-11,27.5886
2007-04-12,28.4855
2007-04-13,28.5322
2007-04-16,28.7751
2007-04-17,28.7377
2007-04-18,28.7003
2007-04-19,28.6536
2007-04-20,28.5509
2007-04-23,28.4855
2007-04-24,28.6069
2007-04-25,28.9806
2007-04-26,29.0367
2007-04-27,28.8592
2007-04-30,28.1865
2007-05-01,28.2893
2007-05-02,28.6256
2007-05-03,29.1862
2007-05-04,30.4941
2007-05-07,30.9145
2007-05-08,31.1481
2007-05-09,31.1761
2007-05-10,30.5221
2007-05-11,30.4941
2007-05-14,31.0734
2007-05-15,31.2789
2007-05-16,31.4938
2007-05-17,32.428
2007-05-18,31.9796
2007-05-21,32.073
2007-05-22,32.2132
2007-05-23,32.0917
2007-05-24,31.6526
2007-05-25,32.4561
2007-05-29,32.6523
2007-05-30,33.0727
2007-05-31,33.4464
2007-06-01,33.3062
2007-06-04,34.0163
2007-06-05,33.9696
2007-06-06,33.1567
2007-06-07,32.5588
2007-06-08,33.2035
2007-06-11,33.5491
2007-06-12,33.2035
2007-06-13,33.7173
2007-06-14,33.7453
2007-06-15,34.063
2007-06-18,34.4741
2007-06-19,34.4273
2007-06-20,34.3246
2007-06-21,34.3246
2007-06-22,33.4651
2007-06-25,33.1941
2007-06-26,32.9699
2007-06-27,32.9792
2007-06-28,33.1381
2007-06-29,32.8671
2007-07-02,33.7734
2007-07-03,34.3059
2007-07-05,34.4273
2007-07-06,34.6048
2007-07-09,34.2872
2007-07-10,33.4183
2007-07-11,33.6239
2007-07-12,34.8664
2007-07-13,35.81
2007-07-16,36.436
2007-07-17,36.5761
2007-07-18,36.2585
2007-07-19,36.9311
2007-07-20,36.0249
2007-07-23,36.7163
2007-07-24,35.6419
2007-07-25,36.3519
2007-07-26,34.5675
2007-07-27,34.3433
2007-07-30,36.0249
2007-07-31,35.0626
2007-08-01,34.9972
2007-08-02,35.8848
2007-08-03,36.8564
2007-08-06,38.5287
2007-08-07,41.4623
2007-08-08,41.3782
2007-08-09,43.91
2007-08-10,41.9948
2007-08-13,39.463
2007-08-14,39.5751
2007-08-15,38.7436
2007-08-16,38.4633
2007-08-17,40.2384
2007-08-20,41.1073
2007-08-21,41.3969
2007-08-22,41.8547
2007-08-23,40.8644
2007-08-24,41.537
2007-08-27,41.2567
2007-08-28,40.9017
2007-08-29,41.481
2007-08-30,41.4249
2007-08-31,41.4716
2007-09-04,41.7426
2007-09-05,41.5931
2007-09-06,41.6305
2007-09-07,41.2941
2007-09-10,41.2661
2007-09-11,41.8827
2007-09-12,42.2564
2007-09-13,42.5647
2007-09-14,42.6955
2007-09-17,42.6768
2007-09-18,44.3772
2007-09-19,44.7882
2007-09-20,42.8263
2007-09-21,42.7235
2007-09-24,43.3401
2007-09-25,44.5173
2007-09-26,45.8253
2007-09-27,44.5266
2007-09-28,45.0311
2007-10-01,45.8439
2007-10-02,46.3484
2007-10-03,45.8907
2007-10-04,46.5073
2007-10-05,47.591
2007-10-08,47.3668
2007-10-09,48.1142
2007-10-10,47.5723
2007-10-11,47.7685
2007-10-12,48.217
2007-10-15,47.4415
2007-10-16,46.3391
2007-10-17,46.8716
2007-10-18,46.9931
2007-10-19,46.2737
2007-10-22,46.1429
2007-10-23,47.4696
2007-10-24,46.526
2007-10-25,46.4138
2007-10-26,46.4886
2007-10-29,46.6007
2007-10-30,46.4045
2007-10-31,47.2827
2007-11-01,45.218
2007-11-02,45.8346
2007-11-05,45.928
2007-11-06,46.3858
2007-11-07,44.4519
2007-11-08,44.5827
2007-11-09,42.3405
2007-11-12,41.0606
2007-11-13,42.1723
2007-11-14,41.9107
2007-11-15,41.7706
2007-11-16,42.4993
2007-11-19,40.8924
2007-11-20,40.7429
2007-11-21,40.3879
2007-11-23,41.6398
2007-11-26,40.0983
2007-11-27,40.9671
2007-11-28,43.3121
2007-11-29,43.2934
2007-11-30,43.7886
2007-12-03,43.3308
2007-12-04,43.5644
2007-12-05,44.863
2007-12-06,46.1803
2007-12-07,45.7318
2007-12-10,46.9183
2007-12-11,44.8163
2007-12-12,45.7785
2007-12-13,46.0221
2007-12-14,45.2991
2007-12-17,44.3976
2007-12-18,44.3601
2007-12-19,44.5948
2007-12-20,44.6605
2007-12-21,45.5714
2007-12-24,45.6465
2007-12-26,45.6184
2007-12-27,44.9235
2007-12-28,45.2803
2007-12-31,44.1722
2008-01-02,42.9045
2008-01-03,43.6558
2008-01-04,42.2472
2008-01-07,42.0688
2008-01-08,41.7871
2008-01-09,42.3036
2008-01-10,43.0078
2008-01-11,42.3036
2008-01-14,42.651
2008-01-15,41.5429
2008-01-16,41.5148
2008-01-17,39.5616
2008-01-18,39.9372
2008-01-22,39.2893
2008-01-23,40.5006
2008-01-24,39.7776
2008-01-25,38.9982
2008-01-28,39.956
2008-01-29,40.9138
2008-01-30,40.9232
2008-01-31,41.4584
2008-02-01,43.1769
2008-02-04,43.205
2008-02-05,42.3317
2008-02-06,42.7167
2008-02-07,42.9045
2008-02-08,43.252
2008-02-11,44.1347
2008-02-12,44.0596
2008-02-13,43.853
2008-02-14,42.8482
2008-02-15,43.2332
2008-02-19,43.252
2008-02-20,44.3413
2008-02-21,43.1675
2008-02-22,43.421
2008-02-25,44.0877
2008-02-26,43.7121
2008-02-27,44.5948
2008-02-28,43.7403
2008-02-29,42.4914
2008-03-03,42.6698
2008-03-04,41.4584
2008-03-05,43.2802
2008-03-06,42.9797
2008-03-07,43.205
2008-03-10,40.942
2008-03-11,43.2426
2008-03-12,43.9093
2008-03-13,43.5525
2008-03-14,42.4162
2008-03-17,40.8387
2008-03-18,43.1111
2008-03-19,41.3364
2008-03-20,42.5195
2008-03-24,42.6416
2008-03-25,43.1956
2008-03-26,42.3036
2008-03-27,42.3693
2008-03-28,41.3739
2008-03-31,42.5008
2008-04-01,45.7686
2008-04-02,46.7828
2008-04-03,47.1959
2008-04-04,49.074
2008-04-07,49.9004
2008-04-08,48.689
2008-04-09,48.4167
2008-04-10,48.2007
2008-04-11,47.5152
2008-04-14,47.9002
2008-04-15,48.0317
2008-04-16,50.6704
2008-04-17,49.5341
2008-04-18,50.1445
2008-04-21,50.2009
2008-04-22,49.6093
2008-04-23,49.3088
2008-04-24,48.6796
2008-04-25,48.9425
2008-04-28,49.8628
2008-04-29,48.8299
2008-04-30,47.966
2008-05-01,48.4636
2008-05-02,49.0834
2008-05-05,48.5857
2008-05-06,50.6328
2008-05-07,49.459
2008-05-08,49.9567
2008-05-09,49.5247
2008-05-12,49.891
2008-05-13,50.3793
2008-05-14,50.3887
2008-05-15,51.9662
2008-05-16,52.9053
2008-05-19,52.0883
2008-05-20,51.7784
2008-05-21,50.1163
2008-05-22,50.0694
2008-05-23,49.628
2008-05-27,49.2618
2008-05-28,50.0976
2008-05-29,50.7079
2008-05-30,50.8582
2008-06-02,49.1022
2008-06-03,48.2477
2008-06-04,47.9002
2008-06-05,48.7735
2008-06-06,47.3368
2008-06-09,47.6091
2008-06-10,47.6279
2008-06-11,45.7592
2008-06-12,46.0597
2008-06-13,47.0457
2008-06-16,47.7124
2008-06-17,48.1444
2008-06-18,47.5997
2008-06-19,47.0175
2008-06-20,45.346
2008-06-23,45.562
2008-06-24,45.1488
2008-06-25,46.0503
2008-06-26,43.6464
2008-06-27,43.7966
2008-06-30,44.022
2008-07-01,43.3177
2008-07-02,42.651
2008-07-03,41.834
2008-07-07,40.8574
2008-07-08,42.2472
2008-07-09,41.0546
2008-07-10,40.9607
2008-07-11,40.7823
2008-07-14,40.1438
2008-07-15,39.9748
2008-07-16,40.1813
2008-07-17,42.7449
2008-07-18,41.5429
2008-07-21,41.1767
2008-07-22,41.7683
2008-07-23,42.5853
2008-07-24,41.0828
2008-07-25,40.9701
2008-07-28,39.6837
2008-07-29,41.1767
2008-07-30,42.6698
2008-07-31,42.0688
2008-08-01,41.4584
2008-08-04,41.2237
2008-08-05,40.9044
2008-08-06,42.1533
2008-08-07,40.726
2008-08-08,42.1439
2008-08-11,43.1863
2008-08-12,41.9279
2008-08-13,41.0265
2008-08-14,40.0968
2008-08-15,41.0734
2008-08-18,40.078
2008-08-19,39.5334
2008-08-20,40.2565
2008-08-21,40.3785
2008-08-22,41.2518
2008-08-25,40.2565
2008-08-26,40.7823
2008-08-27,41.1298
2008-08-28,43.5619
2008-08-29,43.4304
2008-09-02,43.1956
2008-09-03,42.5665
2008-09-04,40.4161
2008-09-05,42.5759
2008-09-08,43.2614
2008-09-09,41.5429
2008-09-10,39.4395
2008-09-11,40.0029
2008-09-12,39.8902
2008-09-15,38.3502
2008-09-16,37.2328
2008-09-17,35.2608
2008-09-18,36.5661
2008-09-19,41.111
2008-09-22,38.1812
2008-09-23,38.6601
2008-09-24,40.1156
2008-09-25,40.7635
2008-09-26,41.0922
2008-09-29,37.9746
2008-09-30,40.9983
2008-10-01,38.9512
2008-10-02,36.6318
2008-10-03,36.0026
2008-10-06,36.8102
2008-10-07,33.8522
2008-10-08,33.2606
2008-10-09,31.1196
2008-10-10,30.0304
2008-10-13,33.4391
2008-10-14,33.8053
2008-10-15,30.1994
2008-10-16,29.0444
2008-10-17,29.3355
2008-10-20,29.8989
2008-10-21,28.5091
2008-10-22,26.124
2008-10-23,20.7996
2008-10-24,21.1846
2008-10-27,21.6354
2008-10-28,23.9924
2008-10-29,24.9126
2008-10-30,24.5652
2008-10-31,24.9971
2008-11-03,25.7953
2008-11-04,26.3306
2008-11-05,26.0113
2008-11-06,22.1143
2008-11-07,22.2645
2008-11-10,21.5697
2008-11-11,18.7525
2008-11-12,17.1937
2008-11-13,19.1094
2008-11-14,18.715
2008-11-17,16.4707
2008-11-18,16.4237
2008-11-19,13.4282
2008-11-20,12.6394
2008-11-21,13.5878
2008-11-24,15.5504
2008-11-25,15.1091
2008-11-26,18.1703
2008-11-28,18.3581
2008-12-01,15.7758
2008-12-02,17.1092
2008-12-03,16.3298
2008-12-04,16.0199
2008-12-05,17.3346
2008-12-08,19.0061
2008-12-09,18.067
2008-12-10,19.0061
2008-12-11,17.6633
2008-12-12,18.114
2008-12-15,17.8605
2008-12-16,19.0718
2008-12-17,19.9545
2008-12-18,18.7713
2008-12-19,19.7198
2008-12-22,18.715
2008-12-23,17.7008
2008-12-24,17.9825
2008-12-26,17.7196
2008-12-29,17.297
2008-12-30,17.7759
2008-12-31,18.7244
2009-01-02,20.208
2009-01-05,19.6165
2009-01-06,21.2786
2009-01-07,19.701
2009-01-08,19.4005
2009-01-09,19.0906
2009-01-12,18.283
2009-01-13,18.5929
2009-01-14,16.9214
2009-01-15,17.297
2009-01-16,17.4755
2009-01-20,15.9448
2009-01-21,17.56
2009-01-22,16.8651
2009-01-23,16.6961
2009-01-26,16.3392
2009-01-27,16.5458
2009-01-28,17.682
2009-01-29,15.9824
2009-01-30,14.9119
2009-02-02,14.4518
2009-02-03,14.0855
2009-02-04,14.0761
2009-02-05,14.8555
2009-02-06,15.2406
2009-02-09,15.926
2009-02-10,15.0997
2009-02-11,15.2124
2009-02-12,15.1842
2009-02-13,14.7241
2009-02-17,13.4282
2009-02-18,14.5457
2009-02-19,13.616
2009-02-20,13.4752
2009-02-23,13.1277
2009-02-24,14.9964
2009-02-25,15.0621
2009-02-26,14.1794
2009-02-27,13.832
2009-03-02,11.1557
2009-03-03,10.9398
2009-03-04,11.3999
2009-03-05,10.6393
2009-03-06,10.2167
2009-03-09,10.3106
2009-03-10,11.8694
2009-03-11,11.9164
2009-03-12,12.5173
2009-03-13,12.9869
2009-03-16,12.3953
2009-03-17,12.6958
2009-03-18,12.8836
2009-03-19,12.2262
2009-03-20,11.522
2009-03-23,13.616
2009-03-24,12.8648
2009-03-25,13.3343
2009-03-26,15.0809
2009-03-27,14.3954
2009-03-30,13.0056
2009-03-31,14.0292
2009-04-01,14.3297
2009-04-02,15.2687
2009-04-03,15.7946
2009-04-06,15.8791
2009-04-07,15.3251
2009-04-08,15.5317
2009-04-09,17.7947
2009-04-13,18.3206
2009-04-14,16.9872
2009-04-15,17.344
2009-04-16,17.5787
2009-04-17,17.2501
2009-04-20,16.1139
2009-04-21,17.0717
2009-04-22,17.3909
2009-04-23,18.4802
2009-04-24,19.4568
2009-04-27,18.8652
2009-04-28,18.7713
2009-04-29,19.1939
2009-04-30,19.9357
2009-05-01,20.3489
2009-05-04,22.6871
2009-05-05,22.0861
2009-05-06,23.0909
2009-05-07,21.4757
2009-05-08,23.5698
2009-05-11,22.9688
2009-05-12,21.2786
2009-05-13,19.1282
2009-05-14,19.6634
2009-05-15,18.6399
2009-05-18,19.6728
2009-05-19,19.6258
2009-05-20,19.2878
2009-05-21,18.3581
2009-05-22,18.283
2009-05-26,18.7995
2009-05-27,18.0107
2009-05-28,18.9028
2009-05-29,19.5601
2009-06-01,20.4146
2009-06-02,20.5085
2009-06-03,20.0484
2009-06-04,20.6588
2009-06-05,20.809
2009-06-08,20.3771
2009-06-09,21.1001
2009-06-10,21.5321
2009-06-11,22.828
2009-06-12,22.2551
2009-06-15,21.6636
2009-06-16,21.4851
2009-06-17,20.7809
2009-06-18,20.6964
2009-06-19,20.6212
2009-06-22,19.5883
2009-06-23,19.3911
2009-06-24,19.3723
2009-06-25,19.7104
2009-06-26,20.0578
2009-06-29,19.8888
2009-06-30,19.8137
2009-07-01,20.0766
2009-07-02,18.9122
2009-07-06,18.3488
2009-07-07,17.8135
2009-07-08,17.1937
2009-07-09,17.5787
2009-07-10,17.5036
2009-07-13,18.2173
2009-07-14,18.283
2009-07-15,19.1845
2009-07-16,19.2502
2009-07-17,19.0061
2009-07-20,19.485
2009-07-21,19.5601
2009-07-22,20.039
2009-07-23,21.9171
2009-07-24,22.3491
2009-07-27,22.5838
2009-07-28,22.6589
2009-07-29,21.8044
2009-07-30,22.4242
2009-07-31,22.997
2009-08-03,23.5135
2009-08-04,23.767
2009-08-05,24.2553
2009-08-06,24.1426
2009-08-07,24.2647
2009-08-10,24.0581
2009-08-11,23.1754
2009-08-12,24.1238
2009-08-13,24.6873
2009-08-14,24.2553
2009-08-17,22.8749
2009-08-18,23.1754
2009-08-19,23.5604
2009-08-20,23.4853
2009-08-21,23.9736
2009-08-24,23.7858
2009-08-25,24.0299
2009-08-26,24.0487
2009-08-27,23.9924
2009-08-28,23.2317
2009-08-31,23.3256
2009-09-01,22.1988
2009-09-02,22.0298
2009-09-03,22.0392
2009-09-04,22.4993
2009-09-08,23.382
2009-09-09,23.2693
2009-09-10,23.5604
2009-09-11,23.767
2009-09-14,24.2177
2009-09-15,23.9736
2009-09-16,24.0675
2009-09-17,24.2365
2009-09-18,23.9172
2009-09-21,23.8985
2009-09-22,23.9642
2009-09-23,23.7107
2009-09-24,23.0627
2009-09-25,22.6589
2009-09-28,23.4759
2009-09-29,23.2787
2009-09-30,23.1848
2009-10-01,21.7481
2009-10-02,21.6166
2009-10-05,22.2927
2009-10-06,22.5932
2009-10-07,22.3491
2009-10-08,22.8092
2009-10-09,22.9406
2009-10-12,23.4102
2009-10-13,23.9079
2009-10-14,24.4243
2009-10-15,24.4619
2009-10-16,23.3726
2009-10-19,23.4289
2009-10-20,22.6308
2009-10-21,22.6965
2009-10-22,23.0815
2009-10-23,22.7716
2009-10-26,22.612
2009-10-27,22.0016
2009-10-28,21.4006
2009-10-29,22.1519
2009-10-30,21.1377
2009-11-02,21.3912
2009-11-03,21.241
2009-11-04,21.1659
2009-11-05,21.457
2009-11-06,21.3818
2009-11-09,21.8701
2009-11-10,21.5697
2009-11-11,21.5978
2009-11-12,21.2973
2009-11-13,21.1095
2009-11-16,21.5509
2009-11-17,21.5978
2009-11-18,21.3067
2009-11-19,20.8842
2009-11-20,20.5837
2009-11-23,20.7057
2009-11-24,20.6588
2009-11-25,20.7527
2009-11-27,20.0578
2009-11-30,20.2456
2009-12-01,21.1753
2009-12-02,21.4194
2009-12-03,21.4476
2009-12-04,21.9828
2009-12-07,21.795
2009-12-08,21.5884
2009-12-09,21.2692
2009-12-10,20.9874
2009-12-11,21.1283
2009-12-14,21.4664
2009-12-15,21.0814
2009-12-16,21.7387
2009-12-17,21.5227
2009-12-18,21.6636
2009-12-21,22.2551
2009-12-22,22.6026
2009-12-23,22.6495
2009-12-24,23.0158
2009-12-28,22.8186
2009-12-29,22.781
2009-12-30,22.5275
2009-12-31,22.3866
2010-01-04,23.2505
2010-01-05,23.5698
2010-01-06,24.3398
2010-01-07,24.1426
2010-01-08,24.1332
2010-01-11,24.2741
2010-01-12,23.8233
2010-01-13,24.0769
2010-01-14,23.8985
2010-01-15,23.3256
2010-01-19,23.4008
2010-01-20,23.2975
2010-01-21,23.0345
2010-01-22,22.1237
2010-01-25,22.4336
2010-01-26,21.7011
2010-01-27,21.6636
2010-01-28,21.4664
2010-01-29,20.9968
2010-02-01,21.6542
2010-02-02,22.0486
2010-02-03,21.8795
2010-02-04,20.4616
2010-02-05,20.6212
2010-02-08,20.424
2010-02-09,20.6306
2010-02-10,20.4522
2010-02-11,20.7621
2010-02-12,20.4428
2010-02-16,21.0814
2010-02-17,21.4851
2010-02-18,21.6636
2010-02-19,21.7199
2010-02-22,21.9359
2010-02-23,21.2316
2010-02-24,21.6166
2010-02-25,21.9171
2010-02-26,22.2927
2010-03-01,22.7434
2010-03-02,23.0064
2010-03-03,23.0158
2010-03-04,22.9876
2010-03-05,23.3914
2010-03-08,23.4665
2010-03-09,23.6074
2010-03-10,23.4853
2010-03-11,23.7576
2010-03-12,23.72
2010-03-15,23.5041
2010-03-16,23.7764
2010-03-17,24.0111
2010-03-18,24.0018
2010-03-19,23.8233
2010-03-22,24.0111
2010-03-23,24.2365
2010-03-24,23.9924
2010-03-25,23.7107
2010-03-26,23.6167
2010-03-29,23.4665
2010-03-30,23.4947
2010-03-31,23.2787
2010-04-01,23.7858
2010-04-05,24.0018
2010-04-06,24.321
2010-04-07,24.0487
2010-04-08,23.936
2010-04-09,24.0299
2010-04-12,25.2601
2010-04-13,25.3446
2010-04-14,26.0301
2010-04-15,26.34
2010-04-16,25.1755
2010-04-19,25.3258
2010-04-20,25.3258
2010-04-21,25.0347
2010-04-22,24.8751
2010-04-23,24.9596
2010-04-26,24.6685
2010-04-27,23.8891
2010-04-28,23.598
2010-04-29,24.321
2010-04-30,23.7576
2010-05-03,24.321
2010-05-04,23.335
2010-05-05,23.213
2010-05-06,22.18
2010-05-07,21.4945
2010-05-10,22.6495
2010-05-11,22.2833
2010-05-12,22.9031
2010-05-13,22.6871
2010-05-14,21.8889
2010-05-17,21.8044
2010-05-18,21.1753
2010-05-19,20.9029
2010-05-20,19.7573
2010-05-21,20.8278
2010-05-24,20.0015
2010-05-25,20.1423
2010-05-26,19.8043
2010-05-27,20.8278
2010-05-28,20.6306
2010-06-01,19.4756
2010-06-02,20.1893
2010-06-03,19.7761
2010-06-04,19.1188
2010-06-07,18.7056
2010-06-08,18.9028
2010-06-09,19.0343
2010-06-10,19.5977
2010-06-11,19.8418
2010-06-14,19.9639
2010-06-15,20.4804
2010-06-16,20.2362
2010-06-17,20.3865
2010-06-18,20.302
2010-06-21,20.1048
2010-06-22,19.7761
2010-06-23,19.8982
2010-06-24,19.5038
2010-06-25,19.7198
2010-06-28,19.3535
2010-06-29,18.5647
2010-06-30,18.3206
2010-07-01,18.2267
2010-07-02,17.7478
2010-07-06,17.8699
2010-07-07,18.3957
2010-07-08,18.9404
2010-07-09,19.1563
2010-07-12,19.1657
2010-07-13,19.7479
2010-07-14,19.6165
2010-07-15,19.5226
2010-07-16,18.6305
2010-07-19,18.6774
2010-07-20,19.1845
2010-07-21,18.7056
2010-07-22,20.0202
2010-07-23,20.1987
2010-07-26,20.64
2010-07-27,20.7151
2010-07-28,20.6024
2010-07-29,20.6682
2010-07-30,20.7527
2010-08-02,21.5227
2010-08-03,21.3725
2010-08-04,21.2504
2010-08-05,21.2128
2010-08-06,20.2644
2010-08-09,20.7339
2010-08-10,20.5649
2010-08-11,19.9169
2010-08-12,19.7761
2010-08-13,19.5695
2010-08-16,19.438
2010-08-17,19.654
2010-08-18,19.8324
2010-08-19,19.2878
2010-08-20,19.1563
2010-08-23,19.053
2010-08-24,18.884
2010-08-25,18.9873
2010-08-26,18.9028
2010-08-27,19.9263
2010-08-30,19.6634
2010-08-31,20.0484
2010-09-01,20.8842
2010-09-02,21.2973
2010-09-03,21.6729
2010-09-07,21.3161
2010-09-08,21.579
2010-09-09,21.8608
2010-09-10,21.7199
2010-09-13,22.5181
2010-09-14,22.1519
2010-09-15,22.2833
2010-09-16,22.1143
2010-09-17,22.1612
2010-09-20,22.5744
2010-09-21,22.4148
2010-09-22,21.8983
2010-09-23,21.3818
2010-09-24,22.2082
2010-09-27,22.2082
2010-09-28,22.3209
2010-09-29,22.1612
2010-09-30,22.2082
2010-10-01,22.3584
2010-10-04,22.0016
2010-10-05,22.5556
2010-10-06,22.6965
2010-10-07,22.612
2010-10-08,23.0439
2010-10-11,23.0627
2010-10-12,23.2693
2010-10-13,23.7858
2010-10-14,23.5228
2010-10-15,23.5135
2010-10-18,23.7576
2010-10-19,23.1848
2010-10-20,23.5698
2010-10-21,23.4853
2010-10-22,23.5604
2010-10-25,23.7013
2010-10-26,23.7013
2010-10-27,23.6543
2010-10-28,23.4571
2010-10-29,23.8891
2010-11-01,24.105
2010-11-02,24.2741
2010-11-03,24.6309
2010-11-04,25.354
2010-11-05,25.6169
2010-11-08,25.5699
2010-11-09,24.9408
2010-11-10,25.6545
2010-11-11,25.476
2010-11-12,25.0347
2010-11-15,25.0723
2010-11-16,24.6027
2010-11-17,24.5276
2010-11-18,25.0629
2010-11-19,25.354
2010-11-22,25.2131
2010-11-23,24.5558
2010-11-24,25.1943
2010-11-26,24.9314
2010-11-29,24.6403
2010-11-30,24.3774
2010-12-01,25.2131
2010-12-02,25.7578
2010-12-03,25.5042
2010-12-06,25.861
2010-12-07,25.7671
2010-12-08,26.0489
2010-12-09,26.7343
2010-12-10,26.6968
2010-12-13,26.5559
2010-12-14,26.4714
2010-12-15,26.5376
2010-12-16,26.8407
2010-12-17,27.0587
2010-12-20,27.4661
2010-12-21,27.9208
2010-12-22,27.9682
2010-12-23,27.7882
2010-12-27,27.864
2010-12-28,27.7408
2010-12-29,27.9777
2010-12-30,27.665
2010-12-31,27.665
2011-01-03,28.4988
2011-01-04,28.1861
2011-01-05,28.603
2011-01-06,28.8777
2011-01-07,28.6409
2011-01-10,28.6124
2011-01-11,28.9819
2011-01-12,29.503
2011-01-13,29.7683
2011-01-14,30.1662
2011-01-18,30.0146
2011-01-19,29.5504
2011-01-20,29.3609
2011-01-21,30.2231
2011-01-24,30.3368
2011-01-25,29.7683
2011-01-26,30.0052
2011-01-27,30.6778
2011-01-28,30.0715
2011-01-31,30.801
2011-02-01,31.8906
2011-02-02,31.5305
2011-02-03,31.54
2011-02-04,31.559
2011-02-07,32.1085
2011-02-08,31.9853
2011-02-09,31.7484
2011-02-10,31.9474
2011-02-11,32.4495
2011-02-14,32.4116
2011-02-15,32.1369
2011-02-16,32.3643
2011-02-17,32.3737
2011-02-18,32.2316
2011-02-22,30.3462
2011-02-23,30.0336
2011-02-24,30.422
2011-02-25,31.2558
2011-02-28,31.3789
2011-03-01,30.5831
2011-03-02,30.6968
2011-03-03,30.9715
2011-03-04,30.6684
2011-03-07,30.5357
2011-03-08,31.8148
2011-03-09,31.7958
2011-03-10,31.5211
2011-03-11,31.9095
2011-03-14,32.4495
2011-03-15,32.2601
2011-03-16,31.8811
2011-03-17,32.3264
2011-03-18,32.6864
2011-03-21,33.6528
2011-03-22,33.2359
2011-03-23,33.7854
2011-03-24,34.6097
2011-03-25,34.7139
2011-03-28,34.7802
2011-03-29,35.6329
2011-03-30,35.4529
2011-03-31,35.5761
2011-04-01,36.0877
2011-04-04,36.9498
2011-04-05,36.2203
2011-04-06,35.6329
2011-04-07,35.415
2011-04-08,34.8465
2011-04-11,35.1403
2011-04-12,34.5149
2011-04-13,34.1076
2011-04-14,33.4728
2011-04-15,33.8896
2011-04-18,33.1506
2011-04-19,34.0412
2011-04-20,34.9223
2011-04-21,35.3203
2011-04-25,35.3297
2011-04-26,35.5571
2011-04-27,36.1351
2011-04-28,36.4382
2011-04-29,36.6846
2011-05-02,36.0308
2011-05-03,35.8792
2011-05-04,34.8181
2011-05-05,34.1739
2011-05-06,34.3918
2011-05-09,34.9413
2011-05-10,35.3961
2011-05-11,34.6476
2011-05-12,34.7518
2011-05-13,33.9086
2011-05-16,33.937
2011-05-17,34.2212
2011-05-18,35.1403
2011-05-19,35.0645
2011-05-20,34.6381
2011-05-23,34.1455
2011-05-24,33.7096
2011-05-25,33.4443
2011-05-26,33.577
2011-05-27,33.8612
2011-05-31,33.6054
2011-06-01,32.6675
2011-06-02,33.0938
2011-06-03,32.1179
2011-06-06,31.3126
2011-06-07,31.54
2011-06-08,31.36
2011-06-09,31.7958
2011-06-10,31.4832
2011-06-13,31.5779
2011-06-14,31.919
2011-06-15,30.8673
2011-06-16,31.1989
2011-06-17,31.1421
2011-06-20,31.161
2011-06-21,31.6158
2011-06-22,31.0
2011-06-23,31.0947
2011-06-24,30.4505
2011-06-27,31.0663
2011-06-28,31.6063
2011-06-29,31.9285
2011-06-30,32.3643
2011-07-01,33.0938
2011-07-05,32.8854
2011-07-06,33.6528
2011-07-07,33.9749
2011-07-08,33.4917
2011-07-11,32.5253
2011-07-12,32.08
2011-07-13,32.658
2011-07-14,32.1748
2011-07-15,32.1843
2011-07-18,31.1705
2011-07-19,31.5305
2011-07-20,31.8527
2011-07-21,32.7338
2011-07-22,33.0749
2011-07-25,32.6106
2011-07-26,32.1653
2011-07-27,31.3316
2011-07-28,31.5211
2011-07-29,31.9474
2011-08-01,31.8242
2011-08-02,30.4884
2011-08-03,30.8579
2011-08-04,28.4988
2011-08-05,27.8829
2011-08-08,24.4343
2011-08-09,26.1112
2011-08-10,25.0217
2011-08-11,26.8407
2011-08-12,26.765
2011-08-15,27.9303
2011-08-16,27.485
2011-08-17,27.4092
2011-08-18,25.5901
2011-08-19,24.6332
2011-08-22,24.7943
2011-08-23,25.827
2011-08-24,26.4902
2011-08-25,25.6849
2011-08-26,26.5281
2011-08-29,27.845
2011-08-30,27.9587
2011-08-31,27.9777
2011-09-01,27.2008
2011-09-02,25.9975
2011-09-06,25.8838
2011-09-07,27.3713
2011-09-08,26.4807
2011-09-09,25.5522
2011-09-12,25.9975
2011-09-13,26.2533
2011-09-14,27.0776
2011-09-15,27.0397
2011-09-16,26.9639
2011-09-19,25.9028
2011-09-20,26.1586
2011-09-21,23.9416
2011-09-22,22.3878
2011-09-23,22.2457
2011-09-26,22.5394
2011-09-27,22.492
2011-09-28,21.8288
2011-09-29,22.5678
2011-09-30,21.5541
2011-10-03,20.1424
2011-10-04,21.2414
2011-10-05,21.9425
2011-10-06,22.5205
2011-10-07,21.772
2011-10-10,22.5584
2011-10-11,22.8142
2011-10-12,23.4489
2011-10-13,23.4489
2011-10-14,24.0932
2011-10-17,22.8805
2011-10-18,23.9511
2011-10-19,23.79
2011-10-20,24.3585
2011-10-21,24.5764
2011-10-24,25.3628
2011-10-25,24.1311
2011-10-26,24.9743
2011-10-27,27.0966
2011-10-28,26.8692
2011-10-31,25.467
2011-11-01,23.6384
2011-11-02,24.548
2011-11-03,24.6048
2011-11-04,23.8469
2011-11-07,24.368
2011-11-08,24.908
2011-11-09,21.8952
2011-11-10,22.3404
2011-11-11,22.8047
2011-11-14,22.2836
2011-11-15,22.7289
2011-11-16,21.7815
2011-11-17,20.5782
2011-11-18,21.1183
2011-11-21,20.4077
2011-11-22,20.1045
2011-11-23,19.375
2011-11-25,19.4603
2011-11-28,20.6066
2011-11-29,20.5972
2011-11-30,22.1889
2011-12-01,22.1225
2011-12-02,22.5489
2011-12-05,22.6815
2011-12-06,22.5868
2011-12-07,22.3878
2011-12-08,21.2793
2011-12-09,22.0846
2011-12-12,21.5825
2011-12-13,21.1088
2011-12-14,21.0992
2011-12-15,21.1663
2011-12-16,21.1088
2011-12-19,20.4189
2011-12-20,21.9232
2011-12-21,21.5687
2011-12-22,21.9807
2011-12-23,22.5652
2011-12-27,21.9903
2011-12-28,21.54
2011-12-29,21.7029
2011-12-30,21.7891
2012-01-03,22.9868
2012-01-04,22.9868
2012-01-05,23.0443
2012-01-06,22.8623
2012-01-09,23.0922
2012-01-10,24.1654
2012-01-11,24.3091
2012-01-12,24.817
2012-01-13,24.3858
2012-01-17,24.0696
2012-01-18,25.6506
2012-01-19,26.0722
2012-01-20,26.2159
2012-01-23,26.2734
2012-01-24,26.465
2012-01-25,26.925
2012-01-26,27.1933
2012-01-27,27.1166
2012-01-30,26.8675
2012-01-31,26.6375
2012-02-01,27.2316
2012-02-02,27.3274
2012-02-03,28.3527
2012-02-06,28.3048
2012-02-07,28.1227
2012-02-08,28.2185
2012-02-09,28.1802
2012-02-10,27.9694
2012-02-13,28.4581
2012-02-14,27.4424
2012-02-15,27.2124
2012-02-16,27.8736
2012-02-17,28.1227
2012-02-21,27.7682
2012-02-22,27.3082
2012-02-23,28.0844
2012-02-24,27.5765
2012-02-27,27.9119
2012-02-28,27.7394
2012-02-29,27.3561
2012-03-01,27.1837
2012-03-02,26.992
2012-03-05,26.6758
2012-03-06,25.4973
2012-03-07,25.526
2012-03-08,25.641
2012-03-09,25.8326
2012-03-12,25.641
2012-03-13,26.3405
2012-03-14,25.9764
2012-03-15,26.1009
2012-03-16,26.7717
2012-03-19,27.2699
2012-03-20,27.1166
2012-03-21,26.6567
2012-03-22,25.5835
2012-03-23,25.7847
2012-03-26,26.2447
2012-03-27,25.8614
2012-03-28,25.6697
2012-03-29,25.2673
2012-03-30,25.0278
2012-04-02,24.9032
2012-04-03,24.5678
2012-04-04,23.7917
2012-04-05,23.8204
2012-04-09,23.3318
2012-04-10,22.8814
2012-04-11,22.8718
2012-04-12,23.7917
2012-04-13,23.1497
2012-04-16,22.9485
2012-04-17,23.303
2012-04-18,23.1306
2012-04-19,23.303
2012-04-20,23.3701
2012-04-23,23.0347
2012-04-24,23.4276
2012-04-25,23.7342
2012-04-26,23.9738
2012-04-27,24.0217
2012-04-30,23.8204
2012-05-01,24.4433
2012-05-02,24.2516
2012-05-03,23.8588
2012-05-04,23.6001
2012-05-07,23.4851
2012-05-08,22.9006
2012-05-09,22.7185
2012-05-10,22.3736
2012-05-11,22.3257
2012-05-14,21.3579
2012-05-15,21.0705
2012-05-16,20.6105
2012-05-17,20.5914
2012-05-18,20.074
2012-05-21,20.2177
2012-05-22,20.256
2012-05-23,20.3614
2012-05-24,20.0644
2012-05-25,20.1602
2012-05-29,20.553
2012-05-30,19.959
2012-05-31,19.4895
2012-06-01,19.1733
2012-06-04,19.0104
2012-06-05,19.1637
2012-06-06,19.7482
2012-06-07,19.6428
2012-06-08,19.8727
2012-06-11,19.432
2012-06-12,19.9686
2012-06-13,19.7098
2012-06-14,19.844
2012-06-15,20.5243
2012-06-18,20.1985
2012-06-19,20.7926
2012-06-20,20.6105
2012-06-21,19.8823
2012-06-22,20.3039
2012-06-25,19.499
2012-06-26,19.4511
2012-06-27,19.8536
2012-06-28,19.7961
2012-06-29,20.3902
2012-07-02,20.6584
2012-07-03,21.2238
2012-07-05,20.5051
2012-07-06,20.4285
2012-07-09,20.4285
2012-07-10,20.074
2012-07-11,20.7543
2012-07-12,20.5243
2012-07-13,21.3675
2012-07-16,21.2046
2012-07-17,21.195
2012-07-18,21.0226
2012-07-19,21.0417
2012-07-20,20.5818
2012-07-23,20.4381
2012-07-24,20.2752
2012-07-25,20.1027
2012-07-26,20.6776
2012-07-27,21.3962
2012-07-30,21.2908
2012-07-31,20.7926
2012-08-01,20.8309
2012-08-02,19.6907
2012-08-03,20.2368
2012-08-06,20.7447
2012-08-07,21.2908
2012-08-08,21.2525
2012-08-09,21.2717
2012-08-10,21.2621
2012-08-13,20.9172
2012-08-14,20.8501
2012-08-15,21.0226
2012-08-16,21.2621
2012-08-17,21.5783
2012-08-20,21.2813
2012-08-21,21.3388
2012-08-22,21.2717
2012-08-23,20.8597
2012-08-24,21.013
2012-08-27,20.9172
2012-08-28,20.9172
2012-08-29,21.0992
2012-08-30,20.4093
2012-08-31,20.5243
2012-09-04,20.2177
2012-09-05,20.0548
2012-09-06,20.601
2012-09-07,21.1088
2012-09-10,20.9459
2012-09-11,21.1471
2012-09-12,21.31
2012-09-13,21.9041
2012-09-14,22.8335
2012-09-17,22.4119
2012-09-18,22.3928
2012-09-19,22.9293
2012-09-20,22.7377
2012-09-21,22.594
2012-09-24,22.9102
2012-09-25,22.067
2012-09-26,22.0766
2012-09-27,22.182
2012-09-28,21.8083
2012-10-01,21.9328
2012-10-02,21.9903
2012-10-03,21.9424
2012-10-04,22.182
2012-10-05,21.9807
2012-10-08,21.8753
2012-10-09,21.4633
2012-10-10,21.2142
2012-10-11,21.3483
2012-10-12,21.2142
2012-10-15,21.3579
2012-10-16,21.4921
2012-10-17,22.0382
2012-10-18,22.1149
2012-10-19,21.6933
2012-10-22,21.7412
2012-10-23,21.3196
2012-10-24,21.2429
2012-10-25,21.8658
2012-10-26,21.5783
2012-10-31,21.7795
2012-11-01,22.0478
2012-11-02,21.6933
2012-11-05,21.7987
2012-11-06,22.0957
2012-11-07,20.8597
2012-11-08,20.5722
2012-11-09,20.8884
2012-11-12,20.2752
2012-11-13,19.8919
2012-11-14,19.7961
2012-11-15,19.6524
2012-11-16,19.6428
2012-11-19,19.9686
2012-11-20,20.074
2012-11-21,20.141
2012-11-23,20.141
2012-11-26,20.0165
2012-11-27,20.0165
2012-11-28,20.3902
2012-11-29,20.7255
2012-11-30,21.2334
2012-12-03,21.54
2012-12-04,22.0382
2012-12-05,22.1724
2012-12-06,22.1053
2012-12-07,22.1915
2012-12-10,22.2586
2012-12-11,22.3928
2012-12-12,22.7952
2012-12-13,22.4851
2012-12-14,22.5045
2012-12-17,22.9015
2012-12-18,23.4922
2012-12-19,23.2404
2012-12-20,23.4051
2012-12-21,23.0564
2012-12-24,23.192
2012-12-26,23.1146
2012-12-27,22.979
2012-12-28,22.7659
2012-12-31,22.9983
2013-01-02,24.0879
2013-01-03,23.9386
2013-01-04,23.8789
2013-01-07,23.6698
2013-01-08,23.7793
2013-01-09,23.7395
2013-01-10,24.0282
2013-01-11,24.068
2013-01-14,23.8689
2013-01-15,23.9884
2013-01-16,23.7395
2013-01-17,23.859
2013-01-18,23.9685
2013-01-22,24.3069
2013-01-23,24.2671
2013-01-24,24.6752
2013-01-25,24.9439
2013-01-28,24.2374
2013-01-29,24.5279
2013-01-30,24.4795
2013-01-31,24.6441
2013-02-01,24.4989
2013-02-04,24.6344
2013-02-05,24.9346
2013-02-06,25.4381
2013-02-07,25.8351
2013-02-08,25.8836
2013-02-11,25.7383
2013-02-12,26.0094
2013-02-13,26.1934
2013-02-14,26.697
2013-02-15,26.174
2013-02-19,27.0342
2013-02-20,27.2034
2013-02-21,27.1636
2013-02-22,28.0196
2013-02-25,25.8545
2013-02-26,26.4201
2013-02-27,26.6042
2013-02-28,26.8381
2013-03-01,26.2707
2013-03-04,25.7601
2013-03-05,25.9493
2013-03-06,26.2579
2013-03-07,26.2279
2013-03-08,26.5265
2013-03-11,26.5265
2013-03-12,26.7854
2013-03-13,26.4967
2013-03-14,27.0784
2013-03-15,27.1582
2013-03-18,26.5496
2013-03-19,26.4797
2013-03-20,26.6294
2013-03-21,26.5197
2013-03-22,26.7392
2013-03-25,26.9487
2013-03-26,27.2979
2013-03-27,27.1283
2013-03-28,27.3877
2013-04-01,27.3677
2013-04-02,27.2879
2013-04-03,27.3777
2013-04-04,27.8865
2013-04-05,27.4276
2013-04-08,27.8466
2013-04-09,28.3754
2013-04-10,29.0339
2013-04-11,29.1337
2013-04-12,28.9242
2013-04-15,28.4852
2013-04-16,29.5228
2013-04-17,28.8144
2013-04-18,28.5351
2013-04-19,29.004
2013-04-22,29.1138
2013-04-23,29.8621
2013-04-24,30.1913
2013-04-25,30.1614
2013-04-26,29.9419
2013-04-29,30.0616
2013-04-30,30.6902
2013-05-01,30.4607
2013-05-02,30.8598
2013-05-03,31.1591
2013-05-06,31.7877
2013-05-07,31.8974
2013-05-08,32.087
2013-05-09,31.7577
2013-05-10,31.5881
2013-05-13,31.5981
2013-05-14,31.7777
2013-05-15,31.7079
2013-05-16,31.638
2013-05-17,31.9274
2013-05-20,31.7577
2013-05-21,31.4983
2013-05-22,31.2489
2013-05-23,30.4906
2013-05-24,30.5804
2013-05-28,31.0493
2013-05-29,30.9296
2013-05-30,31.4484
2013-05-31,31.3686
2013-06-03,30.6403
2013-06-04,29.8122
2013-06-05,29.1636
2013-06-06,29.2734
2013-06-07,29.453
2013-06-10,29.1736
2013-06-11,28.3056
2013-06-12,27.677
2013-06-13,28.14
2013-06-14,27.76
2013-06-17,27.72
2013-06-18,27.34
2013-06-19,26.48
2013-06-20,25.46
2013-06-21,25.76
2013-06-24,24.94
2013-06-25,24.99
2013-06-26,25.02
2013-06-27,25.81
2013-06-28,26.27
2013-07-01,26.46
2013-07-02,26.11
2013-07-03,25.75
2013-07-05,26.08
2013-07-08,25.65
2013-07-09,26.11
2013-07-10,26.05
2013-07-11,26.79
2013-07-12,26.77
2013-07-15,26.78
2013-07-16,26.95
2013-07-17,27.35
2013-07-18,27.96
2013-07-19,27.68
2013-07-22,27.68
2013-07-23,27.74
2013-07-24,27.21
2013-07-25,27.2
2013-07-26,27.0
2013-07-29,26.43
2013-07-30,26.7
2013-07-31,26.81
2013-08-01,27.41
2013-08-02,27.07
2013-08-05,27.04
2013-08-06,26.76
2013-08-07,26.76
2013-08-08,26.91
2013-08-09,27.17
