date,close_price
2000-04-05,12.3872
2000-04-06,12.5929
2000-04-07,12.6998
2000-04-10,12.5929
2000-04-11,12.4941
2000-04-12,13.2673
2000-04-13,14.0898
2000-04-14,13.111
2000-04-17,13.2673
2000-04-18,13.2097
2000-04-19,13.0041
2000-04-20,12.7491
2000-04-24,13.1604
2000-04-25,13.1604
2000-04-26,13.1604
2000-04-27,12.9548
2000-04-28,13.5716
2000-05-01,14.7067
2000-05-02,14.5998
2000-05-03,14.3448
2000-05-04,14.2379
2000-05-05,14.4436
2000-05-08,14.8548
2000-05-09,14.0898
2000-05-10,14.3941
2000-05-11,14.8054
2000-05-12,15.2167
2000-05-15,15.4717
2000-05-16,15.6279
2000-05-17,15.7843
2000-05-18,15.5293
2000-05-19,14.9617
2000-05-22,15.0111
2000-05-23,15.5786
2000-05-24,15.9405
2000-05-25,15.8336
2000-05-26,16.2448
2000-05-30,16.3518
2000-05-31,16.763
2000-06-01,16.4505
2000-06-02,17.1167
2000-06-05,16.8618
2000-06-06,16.8123
2000-06-07,17.018
2000-06-08,16.8123
2000-06-09,17.273
2000-06-12,16.8123
2000-06-13,17.0673
2000-06-14,16.3518
2000-06-15,16.4011
2000-06-16,16.4505
2000-06-19,16.4505
2000-06-20,15.4717
2000-06-21,15.2661
2000-06-22,15.7348
2000-06-23,15.8336
2000-06-26,16.2942
2000-06-27,16.6068
2000-06-28,16.1462
2000-06-29,17.635
2000-06-30,17.38
2000-07-03,17.5855
2000-07-05,17.273
2000-07-06,17.9968
2000-07-07,17.9393
2000-07-10,17.635
2000-07-11,17.0673
2000-07-12,16.763
2000-07-13,16.3518
2000-07-14,17.1167
2000-07-17,16.6561
2000-07-18,16.6561
2000-07-19,16.8618
2000-07-20,17.0673
2000-07-21,17.0673
2000-07-24,16.8618
2000-07-25,17.273
2000-07-26,17.1167
2000-07-27,16.8123
2000-07-28,16.7054
2000-07-31,17.1167
2000-08-01,17.38
2000-08-02,17.2236
2000-08-03,16.6561
2000-08-04,16.5574
2000-08-07,18.3011
2000-08-08,19.1731
2000-08-09,18.7124
2000-08-10,19.6419
2000-08-11,19.6912
2000-08-14,19.6912
2000-08-15,19.6912
2000-08-16,19.3293
2000-08-17,19.6912
2000-08-18,19.535
2000-08-21,19.535
2000-08-22,19.6912
2000-08-23,20.3575
2000-08-24,19.8968
2000-08-25,19.4362
2000-08-28,19.3786
2000-08-29,19.7406
2000-08-30,20.4644
2000-08-31,20.1518
2000-09-01,20.4644
2000-09-05,19.9462
2000-09-06,20.1518
2000-09-07,20.2587
2000-09-08,20.6124
2000-09-11,20.1518
2000-09-12,20.3575
2000-09-13,21.0813
2000-09-14,20.4644
2000-09-15,20.1518
2000-09-18,19.8475
2000-09-19,20.5137
2000-09-20,19.8968
2000-09-21,19.7406
2000-09-22,20.4068
2000-09-25,20.2587
2000-09-26,20.8181
2000-09-27,21.7475
2000-09-28,22.3151
2000-09-29,21.6406
2000-10-02,21.6406
2000-10-03,21.0813
2000-10-04,20.4644
2000-10-05,21.6406
2000-10-06,21.3856
2000-10-09,21.435
2000-10-10,21.1307
2000-10-11,20.8181
2000-10-12,19.8475
2000-10-13,20.5137
2000-10-16,20.9743
2000-10-17,21.18
2000-10-18,21.0238
2000-10-19,20.4644
2000-10-20,19.9462
2000-10-23,19.535
2000-10-24,20.1518
2000-10-25,20.4644
2000-10-26,19.9956
2000-10-27,20.4068
2000-10-30,21.9038
2000-10-31,22.57
2000-11-01,23.3925
2000-11-02,22.932
2000-11-03,21.9061
2000-11-06,21.5913
2000-11-07,22.4198
2000-11-08,23.1489
2000-11-09,24.5491
2000-11-10,24.5988
2000-11-13,23.5632
2000-11-14,23.4058
2000-11-15,24.6983
2000-11-16,25.27
2000-11-17,24.806
2000-11-20,23.9775
2000-11-21,23.2483
2000-11-22,22.1133
2000-11-24,23.1489
2000-11-27,23.7206
2000-11-28,23.3063
2000-11-29,22.9915
2000-11-30,24.5988
2000-12-01,24.6485
2000-12-04,26.3553
2000-12-05,26.3553
2000-12-06,27.3909
2000-12-07,28.0124
2000-12-08,29.2054
2000-12-11,29.2054
2000-12-12,28.6917
2000-12-13,27.8632
2000-12-14,28.1201
2000-12-15,28.9486
2000-12-18,29.106
2000-12-19,28.0124
2000-12-20,27.6561
2000-12-21,27.1341
2000-12-22,28.0124
2000-12-26,28.0704
2000-12-27,28.2775
2000-12-28,28.9486
2000-12-29,28.9983
2001-01-02,28.1698
2001-01-03,28.9983
2001-01-04,26.9767
2001-01-05,26.0487
2001-01-08,27.1838
2001-01-09,28.0124
2001-01-10,27.6561
2001-01-11,26.9269
2001-01-12,25.6344
2001-01-16,25.5847
2001-01-17,25.7339
2001-01-18,26.2062
2001-01-19,25.6842
2001-01-22,26.8276
2001-01-23,27.2915
2001-01-24,27.8052
2001-01-25,27.4986
2001-01-26,27.2418
2001-01-29,27.4738
2001-01-30,27.6643
2001-01-31,27.2335
2001-02-01,27.6395
2001-02-02,27.6395
2001-02-05,27.7224
2001-02-06,27.0844
2001-02-07,27.8217
2001-02-08,26.8938
2001-02-09,26.6287
2001-02-12,27.3495
2001-02-13,26.7779
2001-02-14,26.9269
2001-02-15,26.0156
2001-02-16,26.5127
2001-02-20,25.9328
2001-02-21,25.3611
2001-02-22,25.0131
2001-02-23,25.0628
2001-02-26,25.6759
2001-02-27,25.6344
2001-02-28,25.3528
2001-03-01,25.6593
2001-03-02,26.3305
2001-03-05,26.3967
2001-03-06,26.1399
2001-03-07,26.405
2001-03-08,26.6369
2001-03-09,26.7779
2001-03-12,25.5267
2001-03-13,26.2559
2001-03-14,23.8201
2001-03-15,23.9443
2001-03-16,23.5466
2001-03-19,23.0246
2001-03-20,22.4612
2001-03-21,22.9501
2001-03-22,21.5416
2001-03-23,22.7843
2001-03-26,22.9501
2001-03-27,23.0827
2001-03-28,23.2483
2001-03-29,23.5714
2001-03-30,24.9137
2001-04-02,25.0214
2001-04-03,24.2342
2001-04-04,24.1017
2001-04-05,24.6485
2001-04-06,24.4414
2001-04-09,24.806
2001-04-10,24.7811
2001-04-11,24.11
2001-04-12,24.5906
2001-04-16,25.0296
2001-04-17,24.8971
2001-04-18,24.8391
2001-04-19,24.6071
2001-04-20,24.0355
2001-04-23,24.0022
2001-04-24,23.646
2001-04-25,23.7455
2001-04-26,23.9443
2001-04-27,24.0686
2001-04-30,23.9526
2001-05-01,24.3171
2001-05-02,24.0603
2001-05-03,23.9029
2001-05-04,24.458
2001-05-07,24.226
2001-05-08,23.7371
2001-05-09,23.9443
2001-05-10,23.9029
2001-05-11,23.9857
2001-05-14,24.3503
2001-05-15,24.806
2001-05-16,25.6096
2001-05-17,25.8831
2001-05-18,25.8416
2001-05-21,25.6842
2001-05-22,25.1954
2001-05-23,25.477
2001-05-24,25.8499
2001-05-25,25.9825
2001-05-29,26.057
2001-05-30,26.057
2001-05-31,26.2641
2001-06-01,26.1813
2001-06-04,26.5541
2001-06-05,26.8441
2001-06-06,26.4879
2001-06-07,26.2228
2001-06-08,26.0736
2001-06-11,25.8085
2001-06-12,25.5765
2001-06-13,25.477
2001-06-14,24.8226
2001-06-15,24.8308
2001-06-18,24.9634
2001-06-19,25.1042
2001-06-20,25.6096
2001-06-21,25.8085
2001-06-22,25.2534
2001-06-25,25.2451
2001-06-26,25.4356
2001-06-27,25.4356
2001-06-28,25.2285
2001-06-29,25.5351
2001-07-02,26.0985
2001-07-03,26.1813
2001-07-05,26.4133
2001-07-06,25.6842
2001-07-09,25.7754
2001-07-10,25.7008
2001-07-11,25.2285
2001-07-12,25.8333
2001-07-13,25.8913
2001-07-16,26.0405
2001-07-17,26.0985
2001-07-18,25.6179
2001-07-19,25.477
2001-07-20,24.8971
2001-07-23,24.6071
2001-07-24,24.0271
2001-07-25,24.2922
2001-07-26,23.9111
2001-07-27,23.9691
2001-07-30,23.878
2001-07-31,24.5574
2001-08-01,24.4663
2001-08-02,24.4083
2001-08-03,24.2177
2001-08-06,24.284
2001-08-07,24.0271
2001-08-08,23.6129
2001-08-09,23.6626
2001-08-10,23.6958
2001-08-13,24.0355
2001-08-14,24.4
2001-08-15,24.2342
2001-08-16,24.3668
2001-08-17,24.1183
2001-08-20,24.284
2001-08-21,24.2757
2001-08-22,24.3254
2001-08-23,24.9219
2001-08-24,25.1457
2001-08-27,24.8971
2001-08-28,25.0131
2001-08-29,25.1042
2001-08-30,25.4025
2001-08-31,25.3611
2001-09-04,24.8971
2001-09-05,24.5822
2001-09-06,24.1348
2001-09-07,23.4471
2001-09-10,23.9029
2001-09-17,22.3287
2001-09-18,22.2044
2001-09-19,22.105
2001-09-20,21.8647
2001-09-21,20.9202
2001-09-24,21.8647
2001-09-25,22.3535
2001-09-26,22.3701
2001-09-27,23.2401
2001-09-28,24.6983
2001-10-01,23.8614
2001-10-02,24.0106
2001-10-03,23.9029
2001-10-04,23.7868
2001-10-05,23.8283
2001-10-08,22.453
2001-10-09,22.3618
2001-10-10,22.3701
2001-10-11,22.6104
2001-10-12,22.2458
2001-10-15,22.2127
2001-10-16,21.8315
2001-10-17,21.9144
2001-10-18,21.3841
2001-10-19,21.2931
2001-10-22,21.5582
2001-10-23,22.453
2001-10-24,22.5358
2001-10-25,22.5689
2001-10-26,22.7181
2001-10-29,22.5441
2001-10-30,22.511
2001-10-31,22.279
2001-11-01,22.6021
2001-11-02,22.602
2001-11-05,23.2447
2001-11-06,23.3532
2001-11-07,23.0359
2001-11-08,23.278
2001-11-09,22.9943
2001-11-12,22.8774
2001-11-13,23.1111
2001-11-14,23.0693
2001-11-15,23.1195
2001-11-16,23.0193
2001-11-19,22.9525
2001-11-20,23.0026
2001-11-21,22.4517
2001-11-23,22.4935
2001-11-26,23.0777
2001-11-27,22.7188
2001-11-28,22.7439
2001-11-29,22.8273
2001-11-30,22.8189
2001-12-03,22.4684
2001-12-04,23.0693
2001-12-05,23.3615
2001-12-06,23.4951
2001-12-07,23.7204
2001-12-10,23.9458
2001-12-11,24.2712
2001-12-12,24.0543
2001-12-13,24.0375
2001-12-14,24.8388
2001-12-17,25.4481
2001-12-18,25.6484
2001-12-19,25.9155
2001-12-20,26.3078
2001-12-21,25.7485
2001-12-24,25.59
2001-12-26,25.7319
2001-12-27,25.7903
2001-12-28,26.2076
2001-12-31,26.4579
2002-01-02,25.9989
2002-01-03,25.9989
2002-01-04,25.8237
2002-01-07,25.2978
2002-01-08,25.2478
2002-01-09,25.3479
2002-01-10,25.5148
2002-01-11,25.3145
2002-01-14,25.373
2002-01-15,25.6234
2002-01-16,25.2478
2002-01-17,25.2478
2002-01-18,25.0975
2002-01-22,25.0892
2002-01-23,25.0057
2002-01-24,25.0725
2002-01-25,25.2811
2002-01-28,25.0808
2002-01-29,24.0459
2002-01-30,24.5717
2002-01-31,25.3312
2002-02-01,25.1226
2002-02-04,24.4215
2002-02-05,23.9374
2002-02-06,24.121
2002-02-07,24.1962
2002-02-08,24.6636
2002-02-11,24.6552
2002-02-12,25.3479
2002-02-13,25.6234
2002-02-14,26.2577
2002-02-15,25.7485
2002-02-19,25.2645
2002-02-20,25.8904
2002-02-21,25.8487
2002-02-22,25.7485
2002-02-25,26.0574
2002-02-26,26.5081
2002-02-27,26.8753
2002-02-28,26.6166
2002-03-01,26.6249
2002-03-04,27.8018
2002-03-05,27.4261
2002-03-06,27.3761
2002-03-07,27.2092
2002-03-08,26.8837
2002-03-11,26.6166
2002-03-12,26.8753
2002-03-13,26.4496
2002-03-14,26.2159
2002-03-15,26.1158
2002-03-18,25.6651
2002-03-19,25.2645
2002-03-20,25.0725
2002-03-21,25.5649
2002-03-22,25.3312
2002-03-25,25.3145
2002-03-26,25.3312
2002-03-27,26.0407
2002-03-28,26.4163
2002-04-01,25.8237
2002-04-02,26.1241
2002-04-03,26.0407
2002-04-04,26.3578
2002-04-05,26.9588
2002-04-08,27.2842
2002-04-09,27.493
2002-04-10,27.8018
2002-04-11,27.3761
2002-04-12,28.0354
2002-04-15,27.785
2002-04-16,28.4278
2002-04-17,28.7115
2002-04-18,28.3276
2002-04-19,28.77
2002-04-22,28.8617
2002-04-23,28.0271
2002-04-24,28.169
2002-04-25,28.0856
2002-04-26,27.9102
2002-04-29,28.1774
2002-04-30,28.5112
2002-05-01,28.5112
2002-05-02,28.4611
2002-05-03,28.4694
2002-05-06,28.4861
2002-05-07,26.6249
2002-05-08,26.6082
2002-05-09,26.5081
2002-05-10,26.4997
2002-05-13,26.9253
2002-05-14,26.8336
2002-05-15,26.4997
2002-05-16,26.867
2002-05-17,27.0589
2002-05-20,26.3996
2002-05-21,26.0574
2002-05-22,25.9155
2002-05-23,26.241
2002-05-24,26.3829
2002-05-28,25.9405
2002-05-29,26.1993
2002-05-30,26.5582
2002-05-31,27.735
2002-06-03,26.7668
2002-06-04,26.483
2002-06-05,26.6583
2002-06-06,26.1408
2002-06-07,25.8571
2002-06-10,26.4163
2002-06-11,25.7402
2002-06-12,25.615
2002-06-13,24.8555
2002-06-14,24.8221
2002-06-17,25.64
2002-06-18,25.3646
2002-06-19,24.772
2002-06-20,23.8873
2002-06-21,24.8137
2002-06-24,24.0959
2002-06-25,24.0793
2002-06-26,23.4032
2002-06-27,24.0793
2002-06-28,24.1711
2002-07-01,24.4548
2002-07-02,23.8956
2002-07-03,24.071
2002-07-05,24.5384
2002-07-08,24.6636
2002-07-09,24.0041
2002-07-10,23.3948
2002-07-11,23.3865
2002-07-12,23.1028
2002-07-15,23.0193
2002-07-16,21.8508
2002-07-17,21.1496
2002-07-18,20.2316
2002-07-19,20.6573
2002-07-22,19.8643
2002-07-23,19.1966
2002-07-24,19.8227
2002-07-25,20.0062
2002-07-26,21.1247
2002-07-29,22.9943
2002-07-30,23.2029
2002-07-31,23.3782
2002-08-01,23.1695
2002-08-02,22.2598
2002-08-05,21.3917
2002-08-06,21.2332
2002-08-07,21.5253
2002-08-08,22.3683
2002-08-09,22.6604
2002-08-12,22.2932
2002-08-13,21.8007
2002-08-14,22.3599
2002-08-15,22.3015
2002-08-16,22.1596
2002-08-19,22.8774
2002-08-20,22.4851
2002-08-21,22.6937
2002-08-22,23.2947
2002-08-23,22.9859
2002-08-26,23.0777
2002-08-27,22.5352
2002-08-28,22.218
2002-08-29,22.6854
2002-08-30,22.5269
2002-09-03,21.5503
2002-09-04,21.2832
2002-09-05,21.1998
2002-09-06,21.0913
2002-09-09,21.2332
2002-09-10,21.1998
2002-09-11,21.0746
2002-09-12,20.4987
2002-09-13,20.7658
2002-09-16,20.3317
2002-09-17,19.3886
2002-09-18,19.3051
2002-09-19,19.6557
2002-09-20,19.614
2002-09-23,19.614
2002-09-24,19.1966
2002-09-25,19.3135
2002-09-26,19.8227
2002-09-27,19.1132
2002-09-30,18.988
2002-10-01,19.8477
2002-10-02,19.4136
2002-10-03,18.7292
2002-10-04,17.4022
2002-10-07,17.2353
2002-10-08,18.1701
2002-10-09,17.5691
2002-10-10,18.3453
2002-10-11,18.8377
2002-10-14,18.604
2002-10-15,20.6155
2002-10-16,20.432
2002-10-17,21.0996
2002-10-18,20.7324
2002-10-21,20.6155
2002-10-22,20.699
2002-10-23,20.4486
2002-10-24,20.4402
2002-10-25,21.1914
2002-10-28,20.916
2002-10-29,20.3234
2002-10-30,20.3735
2002-10-31,20.0062
2002-11-01,20.4486
2002-11-04,20.8576
2002-11-05,20.7741
2002-11-06,22.3393
2002-11-07,22.3982
2002-11-08,22.8443
2002-11-11,22.1204
2002-11-12,22.0952
2002-11-13,22.3141
2002-11-14,22.6339
2002-11-15,22.7265
2002-11-18,21.8427
2002-11-19,21.9605
2002-11-20,22.4824
2002-11-21,22.4066
2002-11-22,22.6423
2002-11-25,22.2635
2002-11-26,21.5397
2002-11-27,22.213
2002-11-29,22.5918
2002-12-02,22.575
2002-12-03,22.1036
2002-12-04,22.4066
2002-12-05,22.1036
2002-12-06,22.4655
2002-12-09,22.1794
2002-12-10,22.5077
2002-12-11,23.7365
2002-12-12,23.9554
2002-12-13,23.7197
2002-12-16,23.8208
2002-12-17,23.3914
2002-12-18,23.1978
2002-12-19,22.878
2002-12-20,23.1473
2002-12-23,23.1895
2002-12-24,23.122
2002-12-26,23.2736
2002-12-27,22.9116
2002-12-30,23.0464
2002-12-31,22.7517
2003-01-02,23.4335
2003-01-03,23.4503
2003-01-06,23.846
2003-01-07,23.5345
2003-01-08,23.3157
2003-01-09,24.4604
2003-01-10,24.3678
2003-01-13,24.4941
2003-01-14,24.6877
2003-01-15,24.1406
2003-01-16,24.2079
2003-01-17,23.9722
2003-01-21,23.9049
2003-01-22,23.4167
2003-01-23,23.5598
2003-01-24,22.8948
2003-01-27,22.5497
2003-01-28,22.3477
2003-01-29,22.3309
2003-01-30,22.1794
2003-01-31,22.474
2003-02-03,22.7854
2003-02-04,21.91
2003-02-05,21.9268
2003-02-06,21.5312
2003-02-07,21.5565
2003-02-10,21.8006
2003-02-11,20.6811
2003-02-12,20.8411
2003-02-13,20.9167
2003-02-14,21.6155
2003-02-18,21.8763
2003-02-19,21.7837
2003-02-20,21.6828
2003-02-21,22.0279
2003-02-24,21.7164
2003-02-25,21.7416
2003-02-26,21.548
2003-02-27,21.9353
2003-02-28,22.0363
2003-03-03,21.9437
2003-03-04,21.4807
2003-03-05,22.0447
2003-03-06,21.7248
2003-03-07,21.9353
2003-03-10,21.1188
2003-03-11,20.4791
2003-03-12,20.2013
2003-03-13,21.1524
2003-03-14,21.4554
2003-03-17,21.9605
2003-03-18,21.9353
2003-03-19,22.9369
2003-03-20,22.8528
2003-03-21,23.3409
2003-03-24,22.5413
2003-03-25,22.5665
2003-03-26,22.5245
2003-03-27,22.4824
2003-03-28,22.6928
2003-03-31,22.213
2003-04-01,22.6759
2003-04-02,23.2736
2003-04-03,23.2063
2003-04-04,23.5345
2003-04-07,23.4588
2003-04-08,23.4252
2003-04-09,22.8948
2003-04-10,23.1726
2003-04-11,23.2146
2003-04-14,23.4167
2003-04-15,23.7786
2003-04-16,23.4083
2003-04-17,23.8123
2003-04-21,23.7365
2003-04-22,24.3763
2003-04-23,24.5278
2003-04-24,23.9049
2003-04-25,23.5682
2003-04-28,24.1406
2003-04-29,23.9891
2003-04-30,24.1826
2003-05-01,24.0732
2003-05-02,24.2416
2003-05-05,23.7955
2003-05-06,23.6524
2003-05-07,23.2231
2003-05-08,22.6339
2003-05-09,22.5329
2003-05-12,23.1978
2003-05-13,22.7181
2003-05-14,22.6339
2003-05-15,22.7602
2003-05-16,22.9369
2003-05-19,22.7265
2003-05-20,22.4066
2003-05-21,22.3561
2003-05-22,22.575
2003-05-23,22.4992
2003-05-27,22.7434
2003-05-28,22.9706
2003-05-29,22.6339
2003-05-30,23.5345
2003-06-02,23.686
2003-06-03,23.5261
2003-06-04,23.9975
2003-06-05,24.2163
2003-06-06,24.4015
2003-06-09,23.7786
2003-06-10,23.8123
2003-06-11,24.0985
2003-06-12,24.2332
2003-06-13,24.0901
2003-06-16,24.6287
2003-06-17,24.4856
2003-06-18,24.351
2003-06-19,23.7618
2003-06-20,23.9049
2003-06-23,23.7534
2003-06-24,24.1153
2003-06-25,23.9639
2003-06-26,23.9891
2003-06-27,23.9049
2003-06-30,23.8376
2003-07-01,23.8376
2003-07-02,24.1826
2003-07-03,24.4183
2003-07-07,24.8644
2003-07-08,24.8476
2003-07-09,24.8981
2003-07-10,24.3174
2003-07-11,24.4773
2003-07-14,24.5278
2003-07-15,24.3174
2003-07-16,23.8964
2003-07-17,23.5514
2003-07-18,23.4588
2003-07-21,23.383
2003-07-22,23.4756
2003-07-23,23.8038
2003-07-24,23.8038
2003-07-25,24.5362
2003-07-28,24.3763
2003-07-29,23.787
2003-07-30,23.3662
2003-07-31,23.3241
2003-08-01,23.0211
2003-08-04,23.0211
2003-08-05,23.5598
2003-08-06,24.0732
2003-08-07,24.41
2003-08-08,24.6287
2003-08-11,23.9133
2003-08-12,24.3931
2003-08-13,24.1995
2003-08-14,24.5026
2003-08-15,24.4773
2003-08-18,24.5867
2003-08-19,24.4604
2003-08-20,24.41
2003-08-21,24.41
2003-08-22,23.9554
2003-08-25,24.1153
2003-08-26,24.0395
2003-08-27,23.6945
2003-08-28,23.745
2003-08-29,23.9722
2003-09-02,24.5867
2003-09-03,24.4941
2003-09-04,24.452
2003-09-05,24.3257
2003-09-08,24.5362
2003-09-09,24.4773
2003-09-10,24.3342
2003-09-11,24.1321
2003-09-12,23.8881
2003-09-15,23.7534
2003-09-16,23.9049
2003-09-17,23.8796
2003-09-18,24.3931
2003-09-19,24.1321
2003-09-22,23.8376
2003-09-23,24.0312
2003-09-24,23.7113
2003-09-25,23.5766
2003-09-26,23.6524
2003-09-29,23.9301
2003-09-30,23.6356
2003-10-01,24.41
2003-10-02,24.3425
2003-10-03,24.7887
2003-10-06,24.915
2003-10-07,25.0328
2003-10-08,24.755
2003-10-09,24.9402
2003-10-10,25.0075
2003-10-13,25.4368
2003-10-14,25.3526
2003-10-15,25.5799
2003-10-16,25.7651
2003-10-17,26.0934
2003-10-20,25.7483
2003-10-21,26.1018
2003-10-22,25.4453
2003-10-23,25.6978
2003-10-24,25.563
2003-10-27,25.6136
2003-10-28,25.9755
2003-10-29,25.9082
2003-10-30,25.8577
2003-10-31,26.4216
2003-11-03,26.4974
2003-11-04,26.0597
2003-11-05,26.3477
2003-11-06,26.4409
2003-11-07,26.2035
2003-11-10,26.0508
2003-11-11,25.9491
2003-11-12,25.9152
2003-11-13,25.771
2003-11-14,25.6099
2003-11-17,25.7116
2003-11-18,25.9491
2003-11-19,26.3307
2003-11-20,26.3647
2003-11-21,26.4833
2003-11-24,27.0091
2003-11-25,27.4076
2003-11-26,27.8911
2003-11-28,27.7214
2003-12-01,28.2981
2003-12-02,28.2133
2003-12-03,27.8995
2003-12-04,27.662
2003-12-05,27.5942
2003-12-08,28.1539
2003-12-09,27.9419
2003-12-10,28.2303
2003-12-11,28.7729
2003-12-12,28.5356
2003-12-15,28.1539
2003-12-16,28.0098
2003-12-17,28.0606
2003-12-18,28.0692
2003-12-19,28.1454
2003-12-22,28.1284
2003-12-23,28.2387
2003-12-24,28.2133
2003-12-26,28.0522
2003-12-29,28.5356
2003-12-30,28.5864
2003-12-31,28.5695
2004-01-02,28.4507
2004-01-05,28.7306
2004-01-06,28.5016
2004-01-07,28.2133
2004-01-08,28.0012
2004-01-09,27.925
2004-01-12,27.6875
2004-01-13,27.9165
2004-01-14,28.2217
2004-01-15,28.0098
2004-01-16,28.1878
2004-01-20,28.1964
2004-01-21,28.7475
2004-01-22,28.8493
2004-01-23,28.7136
2004-01-26,28.7051
2004-01-27,28.4846
2004-01-28,28.3575
2004-01-29,28.3998
2004-01-30,28.4931
2004-02-02,28.951
2004-02-03,29.4684
2004-02-04,29.1121
2004-02-05,29.2309
2004-02-06,29.6379
2004-02-09,29.4514
2004-02-10,30.1382
2004-02-11,30.0026
2004-02-12,29.2309
2004-02-13,29.3496
2004-02-17,29.9093
2004-02-18,29.9941
2004-02-19,29.9178
2004-02-20,29.6125
2004-02-23,29.5362
2004-02-24,29.5192
2004-02-25,29.4768
2004-02-26,29.5446
2004-02-27,29.7737
2004-03-01,29.8499
2004-03-02,29.6973
2004-03-03,29.9941
2004-03-04,30.2401
2004-03-05,30.0449
2004-03-08,29.8076
2004-03-09,29.7312
2004-03-10,29.0613
2004-03-11,28.3575
2004-03-12,29.1376
2004-03-15,28.8323
2004-03-16,29.002
2004-03-17,29.604
2004-03-18,30.1891
2004-03-19,29.7482
2004-03-22,29.4768
2004-03-23,29.4514
2004-03-24,29.2818
2004-03-25,29.7227
2004-03-26,29.9263
2004-03-29,30.3587
2004-03-30,30.4181
2004-03-31,30.2401
2004-04-01,30.4096
2004-04-02,30.7404
2004-04-05,31.0371
2004-04-06,31.0032
2004-04-07,30.486
2004-04-08,30.5029
2004-04-12,30.7404
2004-04-13,30.1043
2004-04-14,30.011
2004-04-15,29.7397
2004-04-16,29.8584
2004-04-19,29.6295
2004-04-20,29.1037
2004-04-21,29.0104
2004-04-22,29.5362
2004-04-23,29.3665
2004-04-26,29.1291
2004-04-27,29.5871
2004-04-28,29.002
2004-04-29,29.0782
2004-04-30,29.4005
2004-05-03,29.5446
2004-05-04,29.3581
2004-05-05,28.934
2004-05-06,29.0443
2004-05-07,28.3575
2004-05-10,28.1709
2004-05-11,28.4846
2004-05-12,28.8748
2004-05-13,28.985
2004-05-14,28.9765
2004-05-17,28.5186
2004-05-18,28.6967
2004-05-19,28.6034
2004-05-20,28.544
2004-05-21,28.8068
2004-05-24,29.1461
2004-05-25,29.5107
2004-05-26,30.1043
2004-05-27,30.028
2004-05-28,30.1298
2004-06-01,30.3163
2004-06-02,30.4096
2004-06-03,30.1721
2004-06-04,30.274
2004-06-07,30.8505
2004-06-08,30.6386
2004-06-09,30.3248
2004-06-10,30.5793
2004-06-14,30.4605
2004-06-15,30.3927
2004-06-16,30.1043
2004-06-17,30.3163
2004-06-18,29.8838
2004-06-21,29.6718
2004-06-22,30.0704
2004-06-23,30.0449
2004-06-24,30.1129
2004-06-25,30.0959
2004-06-28,30.0874
2004-06-29,30.2146
2004-06-30,30.4266
2004-07-01,30.2146
2004-07-02,30.1468
2004-07-06,30.028
2004-07-07,29.8669
2004-07-08,29.6634
2004-07-09,29.4259
2004-07-12,29.7566
2004-07-13,29.6973
2004-07-14,29.4259
2004-07-15,29.1546
2004-07-16,29.0273
2004-07-19,29.1715
2004-07-20,29.0104
2004-07-21,29.3326
2004-07-22,29.0104
2004-07-23,28.8068
2004-07-26,28.8323
2004-07-27,29.0782
2004-07-28,29.1121
2004-07-29,30.1552
2004-07-30,30.3248
2004-08-02,30.6725
2004-08-03,30.4096
2004-08-04,30.6555
2004-08-05,30.2315
2004-08-06,30.2485
2004-08-09,30.3418
2004-08-10,30.6471
2004-08-11,30.6301
2004-08-12,30.4012
2004-08-13,30.2401
2004-08-16,30.5623
2004-08-17,30.5454
2004-08-18,31.2152
2004-08-19,31.071
2004-08-20,31.1474
2004-08-23,30.7065
2004-08-24,30.7488
2004-08-25,30.9354
2004-08-26,31.0032
2004-08-27,31.1219
2004-08-30,30.9524
2004-08-31,31.5121
2004-09-01,31.3763
2004-09-02,31.4611
2004-09-03,31.7833
2004-09-07,32.3431
2004-09-08,32.1819
2004-09-09,32.0802
2004-09-10,32.3516
2004-09-13,32.8264
2004-09-14,32.3939
2004-09-15,32.1989
2004-09-16,32.0972
2004-09-17,31.8597
2004-09-20,31.5968
2004-09-21,31.936
2004-09-22,31.4357
2004-09-23,31.4866
2004-09-24,31.97
2004-09-27,31.6901
2004-09-28,32.1141
2004-09-29,32.3431
2004-09-30,32.818
2004-10-01,33.3861
2004-10-04,33.649
2004-10-05,33.9119
2004-10-06,33.9204
2004-10-07,33.208
2004-10-08,32.6738
2004-10-11,32.8689
2004-10-12,32.7841
2004-10-13,32.3177
2004-10-14,31.5714
2004-10-15,29.7227
2004-10-18,29.3157
2004-10-19,28.8154
2004-10-20,29.2393
2004-10-21,29.2224
2004-10-22,29.2393
2004-10-25,29.7057
2004-10-26,31.1813
2004-10-27,31.758
2004-10-28,32.1226
2004-10-29,32.4703
2004-11-01,32.4872
2004-11-02,32.6399
2004-11-03,32.7602
2004-11-04,33.7902
2004-11-05,33.7301
2004-11-08,34.1334
2004-11-09,33.5584
2004-11-10,33.7386
2004-11-11,34.185
2004-11-12,32.9405
2004-11-15,34.1163
2004-11-16,33.7987
2004-11-17,34.245
2004-11-18,33.9618
2004-11-19,33.3524
2004-11-22,34.0133
2004-11-23,33.8845
2004-11-24,33.8331
2004-11-26,33.7987
2004-11-29,33.301
2004-11-30,33.4383
2004-12-01,34.1764
2004-12-02,34.348
2004-12-03,34.6913
2004-12-06,34.4424
2004-12-07,34.1249
2004-12-08,34.3652
2004-12-09,34.4339
2004-12-10,34.5798
2004-12-13,34.7771
2004-12-14,34.6656
2004-12-15,35.3093
2004-12-16,34.9317
2004-12-17,34.0734
2004-12-20,34.3824
2004-12-21,34.8372
2004-12-22,34.8974
2004-12-23,34.8887
2004-12-27,34.8029
2004-12-28,35.1719
2004-12-29,35.0433
2004-12-30,34.923
2004-12-31,34.8287
2005-01-03,34.4339
2005-01-04,34.288
2005-01-05,34.0819
2005-01-06,34.4339
2005-01-07,34.0563
2005-01-10,34.5884
2005-01-11,34.0391
2005-01-12,34.3996
2005-01-13,34.2708
2005-01-14,34.3996
2005-01-18,35.1719
2005-01-19,35.378
2005-01-20,34.6398
2005-01-21,34.6742
2005-01-24,34.6141
2005-01-25,34.7514
2005-01-26,35.0175
2005-01-27,34.9488
2005-01-28,34.3137
2005-01-31,34.0734
2005-02-01,34.6913
2005-02-02,34.6141
2005-02-03,34.0734
2005-02-04,34.8029
2005-02-07,34.7858
2005-02-08,34.7514
2005-02-09,34.5626
2005-02-10,33.7558
2005-02-11,34.2365
2005-02-14,34.4596
2005-02-15,34.9488
2005-02-16,35.5582
2005-02-17,34.7171
2005-02-18,35.1806
2005-02-22,34.4596
2005-02-23,34.7514
2005-02-24,35.1806
2005-02-25,35.4638
2005-02-28,35.1977
2005-03-01,35.275
2005-03-02,34.8802
2005-03-03,35.2407
2005-03-04,35.1204
2005-03-07,34.8887
2005-03-08,35.0776
2005-03-09,34.9832
2005-03-10,35.1719
2005-03-11,34.7428
2005-03-14,35.1033
2005-03-15,34.5197
2005-03-16,34.0305
2005-03-17,34.0563
2005-03-18,33.9532
2005-03-21,33.7386
2005-03-22,33.0692
2005-03-23,32.9834
2005-03-24,32.9147
2005-03-28,33.1121
2005-03-29,32.9405
2005-03-30,33.4984
2005-03-31,33.5155
2005-04-01,33.3438
2005-04-04,33.9961
2005-04-05,34.1506
2005-04-06,34.2365
2005-04-07,34.1935
2005-04-08,33.876
2005-04-11,34.1163
2005-04-12,34.6398
2005-04-13,33.7473
2005-04-14,33.6443
2005-04-15,33.0091
2005-04-18,33.0521
2005-04-19,33.3524
2005-04-20,32.992
2005-04-21,33.7215
2005-04-22,33.1636
2005-04-25,33.4383
2005-04-26,32.6143
2005-04-27,32.4856
2005-04-28,32.537
2005-04-29,33.3438
2005-05-02,33.3353
2005-05-03,33.2065
2005-05-04,37.3778
2005-05-05,36.9057
2005-05-06,37.3348
2005-05-09,37.4378
2005-05-10,36.6911
2005-05-11,37.2747
2005-05-12,36.4594
2005-05-13,36.1246
2005-05-16,37.086
2005-05-17,37.7553
2005-05-18,36.6053
2005-05-19,36.983
2005-05-20,37.3605
2005-05-23,37.5924
2005-05-24,37.9184
2005-05-25,37.6438
2005-05-26,38.3819
2005-05-27,38.3991
2005-05-31,38.3219
2005-06-01,38.0215
2005-06-02,37.9699
2005-06-03,37.2232
2005-06-06,37.8326
2005-06-07,37.4464
2005-06-08,37.4636
2005-06-09,37.9013
2005-06-10,37.6267
2005-06-13,37.1116
2005-06-14,37.2319
2005-06-15,37.2061
2005-06-16,37.6438
2005-06-17,38.3219
2005-06-20,38.6652
2005-06-21,38.6566
2005-06-22,38.5793
2005-06-23,38.0215
2005-06-24,38.236
2005-06-27,38.5106
2005-06-28,38.8969
2005-06-29,38.9656
2005-06-30,38.5193
2005-07-01,39.0685
2005-07-05,39.9954
2005-07-06,40.0813
2005-07-07,39.5921
2005-07-08,39.5835
2005-07-11,39.2488
2005-07-12,39.2231
2005-07-13,39.1028
2005-07-14,39.5578
2005-07-15,39.841
2005-07-18,39.8153
2005-07-19,39.7895
2005-07-20,39.8753
2005-07-21,39.4548
2005-07-22,39.7723
2005-07-25,39.9697
2005-07-26,40.4847
2005-07-27,41.1198
2005-07-28,41.3516
2005-07-29,42.2699
2005-08-01,41.506
2005-08-02,41.7206
2005-08-03,42.227
2005-08-04,41.9866
2005-08-05,41.1627
2005-08-08,40.8966
2005-08-09,41.197
2005-08-10,41.5575
2005-08-11,41.9008
2005-08-12,41.8751
2005-08-15,42.0982
2005-08-16,41.4545
2005-08-17,41.4545
2005-08-18,41.3601
2005-08-19,41.4117
2005-08-22,42.1497
2005-08-23,42.4502
2005-08-24,42.1755
2005-08-25,42.4415
2005-08-26,41.9695
2005-08-29,42.1755
2005-08-30,41.7549
2005-08-31,42.021
2005-09-01,42.0811
2005-09-02,42.0382
2005-09-06,42.1755
2005-09-07,42.227
2005-09-08,42.0639
2005-09-09,42.8192
2005-09-12,42.8192
2005-09-13,42.2098
2005-09-14,41.9438
2005-09-15,42.2785
2005-09-16,43.0767
2005-09-19,42.6819
2005-09-20,42.0811
2005-09-21,42.0725
2005-09-22,41.5746
2005-09-23,41.6949
2005-09-26,41.6862
2005-09-27,41.4888
2005-09-28,41.5661
2005-09-29,42.2699
2005-09-30,42.7419
2005-10-03,42.3643
2005-10-04,42.1583
2005-10-05,41.6691
2005-10-06,41.403
2005-10-07,41.5146
2005-10-10,41.0169
2005-10-11,40.5361
2005-10-12,40.2101
2005-10-13,40.4246
2005-10-14,40.2959
2005-10-17,40.6392
2005-10-18,40.4761
2005-10-19,41.3944
2005-10-20,40.9053
2005-10-21,41.1284
2005-10-24,42.3901
2005-10-25,41.815
2005-10-26,42.3814
2005-10-27,43.4372
2005-10-28,42.0725
2005-10-31,42.3986
2005-11-01,43.214
2005-11-02,43.5144
2005-11-03,43.254
2005-11-04,43.3493
2005-11-07,43.5922
2005-11-08,43.41
2005-11-09,43.254
2005-11-10,43.7135
2005-11-11,43.6529
2005-11-14,43.965
2005-11-15,43.2193
2005-11-16,43.6181
2005-11-17,43.9391
2005-11-18,44.3032
2005-11-21,44.2165
2005-11-22,44.2772
2005-11-23,44.2685
2005-11-25,44.1558
2005-11-28,44.2252
2005-11-29,45.0663
2005-11-30,44.6327
2005-12-01,44.7541
2005-12-02,45.2397
2005-12-05,44.0431
2005-12-06,44.0431
2005-12-07,43.8956
2005-12-08,43.9911
2005-12-09,44.0084
2005-12-12,43.6355
2005-12-13,43.5401
2005-12-14,43.4274
2005-12-15,43.6529
2005-12-16,43.3146
2005-12-19,42.8724
2005-12-20,42.9244
2005-12-21,42.7857
2005-12-22,42.9158
2005-12-23,43.0111
2005-12-27,42.6209
2005-12-28,42.4302
2005-12-29,42.5602
2005-12-30,42.5082
2006-01-03,43.7743
2006-01-04,44.069
2006-01-05,43.9477
2006-01-06,44.1818
2006-01-09,44.6327
2006-01-10,44.2165
2006-01-11,44.416
2006-01-12,43.8783
2006-01-13,43.9303
2006-01-17,43.4447
2006-01-18,43.0372
2006-01-19,42.647
2006-01-20,41.7624
2006-01-23,42.1093
2006-01-24,42.5775
2006-01-25,42.699
2006-01-26,43.965
2006-01-27,43.8002
2006-01-30,44.017
2006-01-31,43.5401
2006-02-01,43.5055
2006-02-02,43.1586
2006-02-03,42.4388
2006-02-06,42.5862
2006-02-07,42.5689
2006-02-08,42.9244
2006-02-09,42.6729
2006-02-10,43.6355
2006-02-13,43.0978
2006-02-14,44.1558
2006-02-15,44.1125
2006-02-16,44.0517
2006-02-17,43.4967
2006-02-21,43.2799
2006-02-22,45.0663
2006-02-23,44.442
2006-02-24,44.2858
2006-02-27,44.1037
2006-02-28,43.41
2006-03-01,43.1326
2006-03-02,43.3841
2006-03-03,42.8724
2006-03-06,42.4475
2006-03-07,42.9331
2006-03-08,43.0545
2006-03-09,42.6296
2006-03-10,43.0372
2006-03-13,43.0892
2006-03-14,43.9391
2006-03-15,43.7482
2006-03-16,43.8349
2006-03-17,43.9391
2006-03-20,44.1905
2006-03-21,43.4188
2006-03-22,42.9071
2006-03-23,42.4908
2006-03-24,42.6556
2006-03-27,42.6296
2006-03-28,42.2914
2006-03-29,42.4822
2006-03-30,42.3088
2006-03-31,41.9532
2006-04-03,42.0225
2006-04-04,42.3174
2006-04-05,42.8811
2006-04-06,43.1759
2006-04-07,42.7943
2006-04-10,42.4908
2006-04-11,42.7337
2006-04-12,43.3493
2006-04-13,42.725
2006-04-17,42.5775
2006-04-18,43.4621
2006-04-19,43.7743
2006-04-20,43.2887
2006-04-21,43.3146
2006-04-24,43.5314
2006-04-25,43.4621
2006-04-26,44.2338
2006-04-27,44.8842
2006-04-28,45.1963
2006-05-01,44.7282
2006-05-02,44.6067
2006-05-03,44.9536
2006-05-04,44.9016
2006-05-05,45.6646
2006-05-08,45.4825
2006-05-09,45.1963
2006-05-10,46.1502
2006-05-11,45.7947
2006-05-12,45.3352
2006-05-15,45.1357
2006-05-16,45.3872
2006-05-17,44.4593
2006-05-18,44.0517
2006-05-19,44.6848
2006-05-22,44.572
2006-05-23,44.546
2006-05-24,44.6934
2006-05-25,44.7715
2006-05-26,45.2137
2006-05-30,43.6876
2006-05-31,44.5807
2006-06-01,45.2051
2006-06-02,45.5866
2006-06-05,45.0837
2006-06-06,44.8928
2006-06-07,44.1731
2006-06-08,44.7194
2006-06-09,44.442
2006-06-12,44.1645
2006-06-13,43.8002
2006-06-14,43.1412
2006-06-15,44.2252
2006-06-16,43.4447
2006-06-19,43.0198
2006-06-20,43.2713
2006-06-21,43.2193
2006-06-22,42.6296
2006-06-23,42.6036
2006-06-26,43.2279
2006-06-27,42.4302
2006-06-28,42.9331
2006-06-29,44.0258
2006-06-30,44.4333
2006-07-03,44.8149
2006-07-05,44.2772
2006-07-06,44.3986
2006-07-07,44.1905
2006-07-10,45.1443
2006-07-11,45.3438
2006-07-12,44.572
2006-07-13,43.6355
2006-07-14,43.3927
2006-07-17,43.4274
2006-07-18,43.0719
2006-07-19,45.4131
2006-07-20,45.5693
2006-07-21,45.4912
2006-07-24,45.5606
2006-07-25,45.6907
2006-07-26,45.3958
2006-07-27,45.0317
2006-07-28,45.6299
2006-07-31,45.1096
2006-08-01,45.6907
2006-08-02,45.2918
2006-08-03,45.0663
2006-08-04,45.5693
2006-08-07,45.4652
2006-08-08,45.4999
2006-08-09,44.9189
2006-08-10,46.1849
2006-08-11,45.6646
2006-08-14,46.6966
2006-08-15,46.6099
2006-08-16,46.4104
2006-08-17,46.974
2006-08-18,46.8787
2006-08-21,46.9914
2006-08-22,46.7572
2006-08-23,47.0781
2006-08-24,47.3036
2006-08-25,47.0695
2006-08-28,47.5898
2006-08-29,47.2342
2006-08-30,47.5551
2006-08-31,47.7719
2006-09-01,47.7372
2006-09-05,47.581
2006-09-06,47.0868
2006-09-07,47.4076
2006-09-08,47.7632
2006-09-11,48.5003
2006-09-12,48.8558
2006-09-13,48.7084
2006-09-14,48.4049
2006-09-15,48.5263
2006-09-18,48.1621
2006-09-19,48.032
2006-09-20,48.7258
2006-09-21,48.7951
2006-09-22,49.0379
2006-09-25,49.6622
2006-09-26,49.4715
2006-09-27,49.2373
2006-09-28,49.194
2006-09-29,49.1507
2006-10-02,48.7864
2006-10-03,48.7864
2006-10-04,49.6883
2006-10-05,49.5842
2006-10-06,49.723
2006-10-09,49.8531
2006-10-10,49.4107
2006-10-11,49.1333
2006-10-12,48.9599
2006-10-13,49.1072
2006-10-16,49.4888
2006-10-17,49.775
2006-10-18,50.9283
2006-10-19,50.4254
2006-10-20,50.6508
2006-10-23,50.911
2006-10-24,50.9283
2006-10-25,51.1191
2006-10-26,51.8562
2006-10-27,50.8243
2006-10-30,51.1538
2006-10-31,49.5322
2006-11-01,49.9051
2006-11-02,49.9922
2006-11-03,49.9397
2006-11-06,50.2288
2006-11-07,50.5617
2006-11-08,50.2639
2006-11-09,50.3777
2006-11-10,50.772
2006-11-13,50.9384
2006-11-14,51.324
2006-11-15,51.359
2006-11-16,51.7533
2006-11-17,51.6744
2006-11-20,51.946
2006-11-21,51.4116
2006-11-22,51.1225
2006-11-24,50.9034
2006-11-27,50.8508
2006-11-28,51.2626
2006-11-29,51.175
2006-11-30,51.5167
2006-12-01,50.8947
2006-12-04,51.2014
2006-12-05,51.324
2006-12-06,51.0874
2006-12-07,50.3865
2006-12-08,50.7369
2006-12-11,50.9122
2006-12-12,50.8071
2006-12-13,51.1137
2006-12-14,51.4203
2006-12-15,51.4904
2006-12-18,51.3502
2006-12-19,51.8671
2006-12-20,51.762
2006-12-21,51.8496
2006-12-22,51.7445
2006-12-26,52.0161
2006-12-27,52.1563
2006-12-28,52.0775
2006-12-29,51.6657
2007-01-03,52.6469
2007-01-04,53.0062
2007-01-05,52.4017
2007-01-08,52.3491
2007-01-09,51.8059
2007-01-10,52.6031
2007-01-11,53.9612
2007-01-12,54.1276
2007-01-16,54.4605
2007-01-17,53.9436
2007-01-18,53.6457
2007-01-19,53.9173
2007-01-22,53.9874
2007-01-23,54.0925
2007-01-24,54.9511
2007-01-25,53.9874
2007-01-26,53.8034
2007-01-29,53.8998
2007-01-30,54.1976
2007-01-31,54.4255
2007-02-01,55.3454
2007-02-02,55.5207
2007-02-05,55.4156
2007-02-06,55.6083
2007-02-07,56.2654
2007-02-08,55.9061
2007-02-09,55.4681
2007-02-12,55.582
2007-02-13,56.8086
2007-02-14,57.2291
2007-02-15,56.9049
2007-02-16,56.8261
2007-02-20,57.4832
2007-02-21,57.3956
2007-02-22,57.7197
2007-02-23,57.1765
2007-02-26,57.2904
2007-02-27,54.8898
2007-02-28,55.3279
2007-03-01,55.3804
2007-03-02,54.6796
2007-03-05,54.04
2007-03-06,54.4956
2007-03-07,54.1714
2007-03-08,54.4167
2007-03-09,54.8635
2007-03-12,55.1965
2007-03-13,53.2865
2007-03-14,53.9436
2007-03-15,54.3554
2007-03-16,54.1189
2007-03-19,54.7584
2007-03-20,55.1527
2007-03-21,55.8974
2007-03-22,55.5644
2007-03-23,55.7221
2007-03-26,56.2654
2007-03-27,55.8449
2007-03-28,55.4593
2007-03-29,55.5032
2007-03-30,55.3542
2007-04-02,55.4944
2007-04-03,55.8098
2007-04-04,55.5732
2007-04-05,55.9237
2007-04-09,55.9762
2007-04-10,55.7046
2007-04-11,55.5644
2007-04-12,55.6871
2007-04-13,55.4681
2007-04-16,55.9325
2007-04-17,56.1252
2007-04-18,56.2041
2007-04-19,56.2654
2007-04-20,57.0363
2007-04-23,56.6771
2007-04-24,56.5457
2007-04-25,57.4745
2007-04-26,57.6759
2007-04-27,57.4656
2007-04-30,57.5796
2007-05-01,57.6409
2007-05-02,58.4382
2007-05-03,59.6648
2007-05-04,60.0416
2007-05-07,60.2868
2007-05-08,60.5059
2007-05-09,60.392
2007-05-10,59.6297
2007-05-11,60.1817
2007-05-14,59.7962
2007-05-15,60.392
2007-05-16,60.3219
2007-05-17,60.024
2007-05-18,59.9451
2007-05-21,59.9627
2007-05-22,60.3306
2007-05-23,59.3757
2007-05-24,59.0076
2007-05-25,59.3493
2007-05-29,59.4633
2007-05-30,59.9188
2007-05-31,59.6122
2007-06-01,59.9363
2007-06-04,59.656
2007-06-05,59.2004
2007-06-06,58.7273
2007-06-07,57.5883
2007-06-08,57.8687
2007-06-11,58.0351
2007-06-12,57.4131
2007-06-13,57.7373
2007-06-14,58.0351
2007-06-15,58.4907
2007-06-18,58.3506
2007-06-19,58.2191
2007-06-20,57.0013
2007-06-21,56.8086
2007-06-22,55.8536
2007-06-25,56.1077
2007-06-26,56.6771
2007-06-27,56.9751
2007-06-28,56.7297
2007-06-29,56.4669
2007-07-02,57.3956
2007-07-03,57.4745
2007-07-05,56.756
2007-07-06,56.8261
2007-07-09,56.5282
2007-07-10,55.1615
2007-07-11,56.0638
2007-07-12,56.9224
2007-07-13,57.2291
2007-07-16,56.8173
2007-07-17,56.2303
2007-07-18,55.6433
2007-07-19,55.2052
2007-07-20,55.9237
2007-07-23,56.1866
2007-07-24,55.5294
2007-07-25,56.0551
2007-07-26,53.8122
2007-07-27,52.2877
2007-07-30,52.6995
2007-07-31,52.6556
2007-08-01,54.1276
2007-08-02,55.801
2007-08-03,53.4004
2007-08-06,55.4593
2007-08-07,56.4756
2007-08-08,56.8611
2007-08-09,53.2077
2007-08-10,54.3992
2007-08-13,55.0388
2007-08-14,53.7421
2007-08-15,52.2352
2007-08-16,53.5143
2007-08-17,56.5895
2007-08-20,55.8449
2007-08-21,56.0113
2007-08-22,58.3681
2007-08-23,58.4382
2007-08-24,58.4557
2007-08-27,57.9826
2007-08-28,55.4243
2007-08-29,56.0113
2007-08-30,55.5644
2007-08-31,56.1077
2007-09-04,57.308
2007-09-05,56.4931
2007-09-06,56.3354
2007-09-07,55.8098
2007-09-10,55.6696
2007-09-11,56.0901
2007-09-12,56.0463
2007-09-13,56.6334
2007-09-14,56.6771
2007-09-17,56.3968
2007-09-18,60.0591
2007-09-19,61.1893
2007-09-20,59.9538
2007-09-21,60.6898
2007-09-24,59.9627
2007-09-25,60.0766
2007-09-26,61.0228
2007-09-27,61.2681
2007-09-28,61.0578
2007-10-01,61.8989
2007-10-02,61.3995
2007-10-03,60.4796
2007-10-04,61.1279
2007-10-05,62.0654
2007-10-08,61.7237
2007-10-09,61.8989
2007-10-10,61.5309
2007-10-11,61.1718
2007-10-12,61.3557
2007-10-15,60.1904
2007-10-16,59.3318
2007-10-17,59.2881
2007-10-18,59.4282
2007-10-19,57.4481
2007-10-22,59.1216
2007-10-23,59.069
2007-10-24,58.736
2007-10-25,60.1904
2007-10-26,61.0754
2007-10-29,60.7599
2007-10-30,60.1904
2007-10-31,60.278
2007-11-01,57.4745
2007-11-02,56.7131
2007-11-05,57.5549
2007-11-06,57.9448
2007-11-07,55.9421
2007-11-08,57.6878
2007-11-09,56.9878
2007-11-12,57.165
2007-11-13,58.5828
2007-11-14,58.5208
2007-11-15,57.4131
2007-11-16,56.6953
2007-11-19,55.5256
2007-11-20,55.4105
2007-11-21,54.1609
2007-11-23,54.7369
2007-11-26,53.4875
2007-11-27,55.3838
2007-11-28,58.06
2007-11-29,57.422
2007-11-30,58.1486
2007-12-03,57.3777
2007-12-04,56.1548
2007-12-05,56.5536
2007-12-06,56.7397
2007-12-07,57.7765
2007-12-10,57.7765
2007-12-11,55.3484
2007-12-12,55.5168
2007-12-13,55.694
2007-12-14,54.8345
2007-12-17,53.5673
2007-12-18,53.966
2007-12-19,53.9217
2007-12-20,53.6647
2007-12-21,55.0029
2007-12-24,55.7561
2007-12-26,55.7561
2007-12-27,54.1964
2007-12-28,54.4623
2007-12-31,54.5155
2008-01-02,52.5127
2008-01-03,52.9115
2008-01-04,52.2381
2008-01-07,52.8052
2008-01-08,51.0063
2008-01-09,51.9368
2008-01-10,53.2482
2008-01-11,52.7964
2008-01-14,53.2482
2008-01-15,53.0799
2008-01-16,53.8065
2008-01-17,51.6177
2008-01-18,50.7936
2008-01-22,49.2252
2008-01-23,49.0036
2008-01-24,50.0404
2008-01-25,48.3479
2008-01-28,50.3062
2008-01-29,51.7152
2008-01-30,50.9354
2008-01-31,52.1495
2008-02-01,53.3457
2008-02-04,52.6368
2008-02-05,50.2531
2008-02-06,49.9518
2008-02-07,53.328
2008-02-08,51.0506
2008-02-11,49.5176
2008-02-12,51.414
2008-02-13,52.0254
2008-02-14,51.3696
2008-02-15,51.6089
2008-02-19,52.1937
2008-02-20,52.3267
2008-02-21,52.495
2008-02-22,53.1331
2008-02-25,53.0976
2008-02-26,53.5052
2008-02-27,54.4888
2008-02-28,53.4433
2008-02-29,51.6621
2008-03-03,51.1747
2008-03-04,51.0861
2008-03-05,51.1482
2008-03-06,50.1556
2008-03-07,50.0581
2008-03-10,49.9163
2008-03-11,51.9279
2008-03-12,51.0594
2008-03-13,50.8113
2008-03-14,50.2176
2008-03-17,50.2265
2008-03-18,52.7078
2008-03-19,51.8481
2008-03-20,53.3457
2008-03-24,54.4888
2008-03-25,54.2053
2008-03-26,53.3368
2008-03-27,53.5584
2008-03-28,52.5216
2008-03-31,53.3368
2008-04-01,55.8003
2008-04-02,55.1446
2008-04-03,54.8699
2008-04-04,54.7281
2008-04-07,54.542
2008-04-08,54.994
2008-04-09,54.8699
2008-04-10,54.7281
2008-04-11,54.0281
2008-04-14,53.6559
2008-04-15,53.6559
2008-04-16,54.9851
2008-04-17,55.0294
2008-04-18,54.5509
2008-04-21,53.523
2008-04-22,52.8141
2008-04-23,52.6368
2008-04-24,53.4077
2008-04-25,53.9217
2008-04-28,54.3737
2008-04-29,54.3737
2008-04-30,53.8331
2008-05-01,54.9319
2008-05-02,55.056
2008-05-05,54.7192
2008-05-06,55.2421
2008-05-07,54.0723
2008-05-08,53.4698
2008-05-09,53.2305
2008-05-12,54.9585
2008-05-13,54.3648
2008-05-14,54.7547
2008-05-15,55.1712
2008-05-16,54.7369
2008-05-19,54.3028
2008-05-20,53.4964
2008-05-21,52.4596
2008-05-22,52.8938
2008-05-23,52.2115
2008-05-27,52.5039
2008-05-28,52.9913
2008-05-29,53.6559
2008-05-30,53.1242
2008-06-02,52.5482
2008-06-03,52.8495
2008-06-04,52.3532
2008-06-05,52.9736
2008-06-06,50.3772
2008-06-09,50.5632
2008-06-10,51.2722
2008-06-11,49.7391
2008-06-12,51.4051
2008-06-13,52.9913
2008-06-16,52.2735
2008-06-17,50.8645
2008-06-18,50.3683
2008-06-19,51.6355
2008-06-20,50.386
2008-06-23,49.3847
2008-06-24,49.1543
2008-06-25,50.005
2008-06-26,48.5074
2008-06-27,47.6124
2008-06-30,46.6643
2008-07-01,46.425
2008-07-02,46.6731
2008-07-03,46.9743
2008-07-07,46.3452
2008-07-08,47.896
2008-07-09,46.6465
2008-07-10,46.5224
2008-07-11,45.211
2008-07-14,44.2716
2008-07-15,42.9424
2008-07-16,45.1578
2008-07-17,45.9553
2008-07-18,45.787
2008-07-21,45.7958
2008-07-22,47.701
2008-07-23,47.763
2008-07-24,46.7262
2008-07-25,46.1502
2008-07-28,44.6261
2008-07-29,46.6465
2008-07-30,45.8667
2008-07-31,45.0161
2008-08-01,45.0603
2008-08-04,44.9096
2008-08-05,46.6908
2008-08-06,46.5047
2008-08-07,45.211
2008-08-08,47.1516
2008-08-11,47.8605
2008-08-12,46.8415
2008-08-13,45.9021
2008-08-14,47.0364
2008-08-15,47.8516
2008-08-18,47.1782
2008-08-19,45.6097
2008-08-20,45.5388
2008-08-21,45.3261
2008-08-22,46.7617
2008-08-25,45.5565
2008-08-26,45.9642
2008-08-27,46.6465
2008-08-28,48.1618
2008-08-29,48.1353
2008-09-02,48.9594
2008-09-03,48.915
2008-09-04,47.4086
2008-09-05,48.7024
2008-09-08,51.4671
2008-09-09,49.9163
2008-09-10,50.3683
2008-09-11,52.309
2008-09-12,50.0404
2008-09-15,47.7188
2008-09-16,50.067
2008-09-17,46.2566
2008-09-18,51.6355
2008-09-19,53.39
2008-09-22,52.0874
2008-09-23,49.8544
2008-09-24,48.1086
2008-09-25,49.5353
2008-09-26,48.0732
2008-09-29,41.5777
2008-09-30,46.4604
2008-10-01,42.8006
2008-10-02,35.8444
2008-10-03,37.3863
2008-10-06,40.5055
2008-10-07,32.9468
2008-10-08,24.7942
2008-10-09,24.6347
2008-10-10,26.3184
2008-10-13,33.7265
2008-10-14,33.6734
2008-10-15,30.0668
2008-10-16,30.6782
2008-10-17,27.5856
2008-10-20,29.2781
2008-10-21,28.8084
2008-10-22,26.3096
2008-10-23,24.9272
2008-10-24,26.4247
2008-10-27,23.2967
2008-10-28,26.5133
2008-10-29,26.2829
2008-10-30,27.0184
2008-10-31,29.8896
2008-11-03,32.0429
2008-11-04,33.4076
2008-11-05,31.4669
2008-11-06,29.2184
2008-11-07,31.0462
2008-11-10,30.078
2008-11-11,27.6529
2008-11-12,25.3545
2008-11-13,26.1508
2008-11-14,25.4902
2008-11-17,20.5043
2008-11-18,18.6041
2008-11-19,17.2921
2008-11-20,14.8218
2008-11-21,16.7039
2008-11-24,20.6491
2008-11-25,21.6626
2008-11-26,23.8343
2008-11-28,26.0241
2008-12-01,22.4047
2008-12-02,21.2374
2008-12-03,23.762
2008-12-04,22.7484
2008-12-05,27.9425
2008-12-08,27.2638
2008-12-09,28.9378
2008-12-10,28.5668
2008-12-11,27.2819
2008-12-12,27.128
2008-12-15,26.6847
2008-12-16,31.2181
2008-12-17,30.6842
2008-12-18,32.6387
2008-12-19,33.8874
2008-12-22,29.6979
2008-12-23,28.5125
2008-12-24,28.431
2008-12-26,30.0508
2008-12-29,29.8065
2008-12-30,31.4986
2008-12-31,31.761
2009-01-02,32.5483
2009-01-05,32.1682
2009-01-06,32.2496
2009-01-07,29.3178
2009-01-08,29.9422
2009-01-09,28.8292
2009-01-12,26.3227
2009-01-13,26.558
2009-01-14,24.9382
2009-01-15,25.4178
2009-01-16,25.7346
2009-01-20,21.536
2009-01-21,25.5717
2009-01-22,22.9837
2009-01-23,24.142
2009-01-26,24.1601
2009-01-27,25.0649
2009-01-28,30.2589
2009-01-29,27.1099
2009-01-30,25.9879
2009-02-02,26.2775
2009-02-03,25.7798
2009-02-04,26.8838
2009-02-05,27.8882
2009-02-06,28.2501
2009-02-09,28.3586
2009-02-10,24.9111
2009-02-11,25.3093
2009-02-12,25.6079
2009-02-13,24.323
2009-02-17,21.8798
2009-02-18,21.9069
2009-02-19,20.1425
2009-02-20,19.3372
2009-02-23,18.4413
2009-02-24,21.0111
2009-02-25,19.9796
2009-02-26,21.7531
2009-02-27,16.7854
2009-03-02,14.9937
2009-03-03,12.4692
2009-03-04,13.365
2009-03-05,10.8856
2009-03-06,11.0394
2009-03-09,11.3471
2009-03-10,13.5912
2009-03-11,13.736
2009-03-12,15.591
2009-03-13,15.971
2009-03-16,17.3192
2009-03-17,19.2014
2009-03-18,23.0018
2009-03-19,20.2058
2009-03-20,18.758
2009-03-23,22.3051
2009-03-24,20.8211
2009-03-25,22.287
2009-03-26,22.7846
2009-03-27,22.0155
2009-03-30,19.3552
2009-03-31,20.7487
2009-04-01,21.1921
2009-04-02,22.2146
2009-04-03,22.9747
2009-04-06,22.7575
2009-04-07,21.8345
2009-04-08,22.4228
2009-04-09,24.7573
2009-04-13,26.0331
2009-04-14,23.9519
2009-04-15,25.5626
2009-04-16,25.1645
2009-04-17,25.5264
2009-04-20,22.9113
2009-04-21,24.6578
2009-04-22,23.3005
2009-04-23,25.5536
2009-04-24,26.2503
2009-04-27,25.3907
2009-04-28,24.902
2009-04-29,26.8204
2009-04-30,26.8295
2009-05-01,24.7483
2009-05-04,26.0965
2009-05-05,25.0197
2009-05-06,29.363
2009-05-07,28.6392
2009-05-08,32.0868
2009-05-11,29.2184
2009-05-12,29.0283
2009-05-13,25.9699
2009-05-14,27.5805
2009-05-15,26.5761
2009-05-18,28.3767
2009-05-19,28.3677
2009-05-20,27.5624
2009-05-21,27.4176
2009-05-22,27.2819
2009-05-26,27.7705
2009-05-27,26.8204
2009-05-28,28.1054
2009-05-29,28.6573
2009-06-01,28.5939
2009-06-02,28.9197
2009-06-03,27.3723
2009-06-04,28.9016
2009-06-05,28.4582
2009-06-08,29.6436
2009-06-09,29.8879
2009-06-10,29.2003
2009-06-11,28.965
2009-06-12,28.1144
2009-06-15,27.0648
2009-06-16,26.5761
2009-06-17,26.2775
2009-06-18,27.3542
2009-06-19,28.2772
2009-06-22,26.1598
2009-06-23,26.6032
2009-06-24,27.0738
2009-06-25,27.128
2009-06-26,26.92
2009-06-29,27.2366
2009-06-30,27.1552
2009-07-01,26.9019
2009-07-02,25.4721
2009-07-06,26.1236
2009-07-07,24.7302
2009-07-08,24.3773
2009-07-09,24.9744
2009-07-10,24.7211
2009-07-13,26.5942
2009-07-14,26.4041
2009-07-15,28.033
2009-07-16,28.1144
2009-07-17,27.5714
2009-07-20,27.9968
2009-07-21,28.0149
2009-07-22,28.0239
2009-07-23,29.7069
2009-07-24,30.5394
2009-07-27,30.829
2009-07-28,29.716
2009-07-29,29.1007
2009-07-30,30.3946
2009-07-31,30.7566
2009-08-03,32.2768
2009-08-04,33.2993
2009-08-05,33.5074
2009-08-06,32.1682
2009-08-07,33.3717
2009-08-10,32.9102
2009-08-11,31.5166
2009-08-12,32.5664
2009-08-13,33.6794
2009-08-14,32.8921
2009-08-17,31.1548
2009-08-18,32.0234
2009-08-19,32.9554
2009-08-20,33.9055
2009-08-21,35.1633
2009-08-24,35.1
2009-08-25,35.4438
2009-08-26,34.6657
2009-08-27,34.4394
2009-08-28,34.4575
2009-08-31,34.1227
2009-09-01,31.6976
2009-09-02,31.6886
2009-09-03,32.7111
2009-09-04,33.1183
2009-09-08,34.0956
2009-09-09,34.3308
2009-09-10,34.7743
2009-09-11,35.1362
2009-09-14,35.7968
2009-09-15,35.661
2009-09-16,36.9731
2009-09-17,36.2401
2009-09-18,35.5796
2009-09-21,34.5842
2009-09-22,35.1
2009-09-23,34.1589
2009-09-24,33.6251
2009-09-25,33.3174
2009-09-28,35.1904
2009-09-29,34.928
2009-09-30,34.4485
2009-10-01,32.6387
2009-10-02,32.2406
2009-10-05,33.5346
2009-10-06,34.1318
2009-10-07,33.815
2009-10-08,34.4666
2009-10-09,34.6385
2009-10-12,34.4394
2009-10-13,33.5165
2009-10-14,34.6114
2009-10-15,34.729
2009-10-16,33.7426
2009-10-19,34.2403
2009-10-20,33.4984
2009-10-21,33.2721
2009-10-22,34.4485
2009-10-23,33.4984
2009-10-26,32.5845
2009-10-27,31.6162
2009-10-28,31.0371
2009-10-29,33.2993
2009-10-30,30.7475
2009-11-02,30.0327
2009-11-03,30.1775
2009-11-04,30.2047
2009-11-05,31.286
2009-11-06,31.0177
2009-11-09,32.489
2009-11-10,32.1004
2009-11-11,32.8222
2009-11-12,31.758
2009-11-13,31.6284
2009-11-16,32.7018
2009-11-17,32.9609
2009-11-18,32.3224
2009-11-19,31.6192
2009-11-20,31.3415
2009-11-23,31.9246
2009-11-24,31.8505
2009-11-25,32.0078
2009-11-27,30.7957
2009-11-30,31.6747
2009-12-01,31.6377
2009-12-02,32.489
2009-12-03,31.5914
2009-12-04,32.6648
2009-12-07,33.0257
2009-12-08,33.1367
2009-12-09,33.3959
2009-12-10,33.2015
2009-12-11,33.3866
2009-12-14,34.1916
2009-12-15,33.7845
2009-12-16,33.8585
2009-12-17,32.9424
2009-12-18,32.7573
2009-12-21,32.8776
2009-12-22,32.9701
2009-12-23,32.7943
2009-12-24,32.7573
2009-12-28,32.4428
2009-12-29,32.6278
2009-12-30,32.7943
2009-12-31,32.7573
2010-01-04,33.5624
2010-01-05,34.3952
2010-01-06,34.6728
2010-01-07,35.2003
2010-01-08,35.4131
2010-01-11,35.6259
2010-01-12,35.6444
2010-01-13,35.0892
2010-01-14,35.4224
2010-01-15,35.006
2010-01-19,36.4588
2010-01-20,35.7462
2010-01-21,34.5525
2010-01-22,33.4051
2010-01-25,33.7012
2010-01-26,33.0165
2010-01-27,33.6642
2010-01-28,32.9331
2010-01-29,32.6648
2010-02-01,33.2848
2010-02-02,33.6272
2010-02-03,32.2206
2010-02-04,32.2762
2010-02-05,32.1096
2010-02-08,31.1194
2010-02-09,32.5537
2010-02-10,32.3224
2010-02-11,31.9431
2010-02-12,32.0263
2010-02-16,32.3779
2010-02-17,32.2391
2010-02-18,32.2391
2010-02-19,32.3594
2010-02-22,32.6278
2010-02-23,32.2299
2010-02-24,32.9146
2010-02-25,33.1645
2010-02-26,33.7197
2010-03-01,33.8215
2010-03-02,34.0343
2010-03-03,34.0065
2010-03-04,35.3205
2010-03-05,35.9868
2010-03-08,37.8467
2010-03-09,37.7542
2010-03-10,38.6796
2010-03-11,39.1793
2010-03-12,38.9386
2010-03-15,39.096
2010-03-16,39.5031
2010-03-17,39.7623
2010-03-18,39.3644
2010-03-19,38.6611
2010-03-22,38.6148
2010-03-23,38.9942
2010-03-24,38.7628
2010-03-25,38.9201
2010-03-26,39.1237
2010-03-29,39.7992
2010-03-30,39.6419
2010-03-31,40.0769
2010-04-01,40.6598
2010-04-05,41.6222
2010-04-06,41.4649
2010-04-07,40.7801
2010-04-08,42.1034
2010-04-09,41.872
2010-04-12,42.2236
2010-04-13,42.0664
2010-04-14,42.9269
2010-04-15,42.8252
2010-04-16,42.0108
2010-04-19,42.5753
2010-04-20,43.4081
2010-04-21,42.8252
2010-04-22,43.2415
2010-04-23,43.5562
2010-04-26,43.3341
2010-04-27,40.993
2010-04-28,40.6968
2010-04-29,42.1404
2010-04-30,42.1866
2010-05-03,42.3809
2010-05-04,41.1317
2010-05-05,40.6136
2010-05-06,38.9665
2010-05-07,37.6617
2010-05-10,40.8264
2010-05-11,40.0398
2010-05-12,40.521
2010-05-13,39.8825
2010-05-14,38.2076
2010-05-17,38.7258
2010-05-18,37.8652
2010-05-19,37.4674
2010-05-20,35.117
2010-05-21,36.5328
2010-05-24,35.7
2010-05-25,36.2922
2010-05-26,36.283
2010-05-27,38.3372
2010-05-28,37.4951
2010-06-01,36.8659
2010-06-02,38.4575
2010-06-03,38.3002
2010-06-04,35.4316
2010-06-07,35.0152
2010-06-08,36.0515
2010-06-09,36.0423
2010-06-10,37.6802
2010-06-11,38.0226
2010-06-14,38.0041
2010-06-15,38.587
2010-06-16,37.9301
2010-06-17,37.9486
2010-06-18,37.9393
2010-06-21,38.0966
2010-06-22,37.4951
2010-06-23,37.1528
2010-06-24,36.4032
2010-06-25,37.7912
2010-06-28,37.014
2010-06-29,35.3113
2010-06-30,34.9504
2010-07-01,34.571
2010-07-02,34.46
2010-07-06,34.534
2010-07-07,35.6907
2010-07-08,36.5235
2010-07-09,37.0972
2010-07-12,36.5975
2010-07-13,37.8931
2010-07-14,36.9306
2010-07-15,36.1811
2010-07-16,34.9596
2010-07-19,34.5987
2010-07-20,35.0152
2010-07-21,34.0899
2010-07-22,36.3662
2010-07-23,36.5975
2010-07-26,36.8567
2010-07-27,36.6346
2010-07-28,36.3754
2010-07-29,37.236
2010-07-30,38.9294
2010-08-02,39.5123
2010-08-03,38.5408
2010-08-04,38.6241
2010-08-05,38.7073
2010-08-06,38.3002
2010-08-09,39.1608
2010-08-10,39.2163
2010-08-11,37.6062
2010-08-12,36.9121
2010-08-13,36.6161
2010-08-16,35.9313
2010-08-17,36.283
2010-08-18,36.579
2010-08-19,35.0985
2010-08-20,34.534
2010-08-23,34.3582
2010-08-24,33.766
2010-08-25,34.1824
2010-08-26,33.7937
2010-08-27,35.1633
2010-08-30,34.275
2010-08-31,34.8487
2010-09-01,36.5883
2010-09-02,37.125
2010-09-03,38.3557
2010-09-07,37.1435
2010-09-08,37.5599
2010-09-09,37.7635
2010-09-10,37.4489
2010-09-13,38.2261
2010-09-14,37.9486
2010-09-15,37.6339
2010-09-16,37.3471
2010-09-17,37.1805
2010-09-20,38.3834
2010-09-21,38.0596
2010-09-22,36.4495
2010-09-23,35.043
2010-09-24,36.2181
2010-09-27,35.8665
2010-09-28,36.3939
2010-09-29,35.8757
2010-09-30,35.6259
2010-10-01,36.033
2010-10-04,35.9221
2010-10-05,36.8474
2010-10-06,36.4588
2010-10-07,36.505
2010-10-08,36.2645
2010-10-11,35.9498
2010-10-12,36.3014
2010-10-13,36.7456
2010-10-14,36.6438
2010-10-15,36.283
2010-10-18,37.4304
2010-10-19,36.9214
2010-10-20,37.3193
2010-10-21,37.4211
2010-10-22,37.2638
2010-10-25,37.0602
2010-10-26,37.4396
2010-10-27,37.3841
2010-10-28,37.4766
2010-10-29,37.3193
2010-11-01,36.9584
2010-11-02,37.199
2010-11-03,38.2076
2010-11-04,39.7345
2010-11-05,39.6692
2010-11-08,39.1325
2010-11-09,38.1627
2010-11-10,38.5958
2010-11-11,37.7954
2010-11-12,37.3246
2010-11-15,37.3999
2010-11-16,36.6561
2010-11-17,36.4113
2010-11-18,36.9198
2010-11-19,36.5808
2010-11-22,36.4584
2010-11-23,35.6298
2010-11-24,35.9969
2010-11-26,35.3755
2010-11-29,35.8464
2010-11-30,35.9311
2010-12-01,36.9574
2010-12-02,38.0873
2010-12-03,37.8237
2010-12-06,38.3793
2010-12-07,38.7464
2010-12-08,40.2813
2010-12-09,41.4676
2010-12-10,41.4299
2010-12-13,41.317
2010-12-14,41.1851
2010-12-15,41.0628
2010-12-16,40.9969
2010-12-17,41.3829
2010-12-20,41.6653
2010-12-21,41.9384
2010-12-22,42.155
2010-12-23,42.0043
2010-12-27,42.1362
2010-12-28,42.3057
2010-12-29,42.1456
2010-12-30,41.8537
2010-12-31,41.8066
2011-01-03,43.445
2011-01-04,43.1248
2011-01-05,43.7086
2011-01-06,43.6992
2011-01-07,43.3979
2011-01-10,42.8141
2011-01-11,43.1625
2011-01-12,43.8499
2011-01-13,42.9459
2011-01-14,43.8781
2011-01-18,43.9911
2011-01-19,42.8801
2011-01-20,42.8329
2011-01-21,43.4921
2011-01-24,43.3696
2011-01-25,43.6427
2011-01-26,43.9063
2011-01-27,44.3866
2011-01-28,42.8141
2011-01-31,43.106
2011-02-01,44.1982
2011-02-02,43.4356
2011-02-03,43.8216
2011-02-04,44.6219
2011-02-07,45.8272
2011-02-08,45.6106
2011-02-09,44.8103
2011-02-10,44.4148
2011-02-11,45.394
2011-02-14,44.1512
2011-02-15,44.1417
2011-02-16,44.7349
2011-02-17,44.9515
2011-02-18,44.8856
2011-02-22,43.5297
2011-02-23,43.1437
2011-02-24,43.5015
2011-02-25,44.0947
2011-02-28,44.4995
2011-03-01,43.3226
2011-03-02,40.9027
2011-03-03,42.5316
2011-03-04,42.9365
2011-03-07,42.8329
2011-03-08,43.605
2011-03-09,43.5862
2011-03-10,42.9741
2011-03-11,43.1907
2011-03-14,42.108
2011-03-15,40.9404
2011-03-16,39.7916
2011-03-17,40.5072
2011-03-18,41.4206
2011-03-21,41.9855
2011-03-22,41.9667
2011-03-23,41.7784
2011-03-24,42.0796
2011-03-25,42.4469
2011-03-28,42.2115
2011-03-29,41.769
2011-03-30,42.2303
2011-03-31,42.0326
2011-04-01,42.654
2011-04-04,43.0307
2011-04-05,42.3622
2011-04-06,42.8424
2011-04-07,42.3809
2011-04-08,41.9855
2011-04-11,41.9196
2011-04-12,42.1645
2011-04-13,41.6089
2011-04-14,41.5524
2011-04-15,41.3923
2011-04-18,40.8462
2011-04-19,40.752
2011-04-20,41.2887
2011-04-21,41.7878
2011-04-25,41.6748
2011-04-26,42.155
2011-04-27,42.72
2011-04-28,43.7086
2011-04-29,44.0382
2011-05-02,43.6804
2011-05-03,43.7086
2011-05-04,43.3979
2011-05-05,42.1268
2011-05-06,42.1832
2011-05-09,41.9761
2011-05-10,42.607
2011-05-11,42.5598
2011-05-12,42.4374
2011-05-13,41.8254
2011-05-16,41.5618
2011-05-17,41.7218
2011-05-18,42.0985
2011-05-19,42.5411
2011-05-20,41.6748
2011-05-23,40.9497
2011-05-24,40.8839
2011-05-25,40.8745
2011-05-26,40.8839
2011-05-27,41.1851
2011-05-31,41.4864
2011-06-01,40.1117
2011-06-02,40.1871
2011-06-03,39.3773
2011-06-06,39.0007
2011-06-07,38.9912
2011-06-08,38.85
2011-06-09,39.2831
2011-06-10,38.5016
2011-06-13,38.7182
2011-06-14,38.8876
2011-06-15,36.9951
2011-06-16,37.5506
2011-06-17,37.9743
2011-06-20,38.1532
2011-06-21,39.1607
2011-06-22,39.1325
2011-06-23,38.8406
2011-06-24,38.577
2011-06-27,38.9442
2011-06-28,39.5844
2011-06-29,40.9215
2011-06-30,41.317
2011-07-01,41.7878
2011-07-05,41.1381
2011-07-06,40.8462
2011-07-07,41.6748
2011-07-08,40.978
2011-07-11,39.5468
2011-07-12,39.0477
2011-07-13,39.4055
2011-07-14,39.3773
2011-07-15,39.1231
2011-07-18,38.1062
2011-07-19,38.1344
2011-07-20,38.4828
2011-07-21,39.5468
2011-07-22,39.2926
2011-07-25,38.8783
2011-07-26,38.6711
2011-07-27,37.2493
2011-07-28,37.5035
2011-07-29,38.8406
2011-08-01,38.5582
2011-08-02,37.3059
2011-08-03,37.1363
2011-08-04,34.7541
2011-08-05,34.2833
2011-08-08,30.8936
2011-08-09,32.7109
2011-08-10,29.9049
2011-08-11,31.6092
2011-08-12,31.2985
2011-08-15,32.3907
2011-08-16,31.7033
2011-08-17,31.7975
2011-08-18,29.9991
2011-08-19,29.2928
2011-08-22,28.7468
2011-08-23,29.7637
2011-08-24,30.6582
2011-08-25,29.6413
2011-08-26,29.5848
2011-08-29,31.3738
2011-08-30,31.1101
2011-08-31,31.5527
2011-09-01,30.4981
2011-09-02,28.9915
2011-09-06,27.8051
2011-09-07,29.5754
2011-09-08,28.3325
2011-09-09,28.2006
2011-09-12,28.549
2011-09-13,28.7844
2011-09-14,29.3777
2011-09-15,30.5828
2011-09-16,31.0913
2011-09-19,29.6695
2011-09-20,29.3023
2011-09-21,27.3814
2011-09-22,25.4136
2011-09-23,25.2252
2011-09-26,26.9013
2011-09-27,27.5133
2011-09-28,26.5435
2011-09-29,27.5321
2011-09-30,26.3928
2011-10-03,25.084
2011-10-04,25.9314
2011-10-05,27.5321
2011-10-06,28.8315
2011-10-07,27.0895
2011-10-10,28.5679
2011-10-11,28.7279
2011-10-12,29.9049
2011-10-13,29.4717
2011-10-14,30.2815
2011-10-17,28.9633
2011-10-18,30.5169
2011-10-19,29.5377
2011-10-20,30.225
2011-10-21,31.5433
2011-10-24,32.6732
2011-10-25,30.8182
2011-10-26,31.3079
2011-10-27,33.5395
2011-10-28,34.6599
2011-10-31,33.1157
2011-11-01,30.9878
2011-11-02,32.5978
2011-11-03,32.9368
2011-11-04,32.6637
2011-11-07,32.5275
2011-11-08,32.9604
2011-11-09,30.8246
2011-11-10,31.0843
2011-11-11,31.8155
2011-11-14,31.1325
2011-11-15,30.9785
2011-11-16,30.7573
2011-11-17,29.4296
2011-11-18,29.4296
2011-11-21,28.8043
2011-11-22,28.304
2011-11-23,26.8224
2011-11-25,26.8513
2011-11-28,27.9672
2011-11-29,27.8133
2011-11-30,30.3436
2011-12-01,29.9395
2011-12-02,30.584
2011-12-05,31.6327
2011-12-06,31.652
2011-12-07,31.7481
2011-12-08,29.7856
2011-12-09,30.6515
2011-12-12,29.9202
2011-12-13,29.3526
2011-12-14,29.3911
2011-12-15,29.1891
2011-12-16,29.0544
2011-12-19,27.9192
2011-12-20,29.0063
2011-12-21,29.2276
2011-12-22,29.7951
2011-12-23,29.9106
2011-12-27,30.026
2011-12-28,29.6028
2011-12-29,30.2281
2011-12-30,30.0165
2012-01-03,30.7861
2012-01-04,30.9785
2012-01-05,31.7481
2012-01-06,31.6616
2012-01-09,32.0079
2012-01-10,33.2393
2012-01-11,34.4709
2012-01-12,34.567
2012-01-13,33.8839
2012-01-17,33.3548
2012-01-18,34.2303
2012-01-19,34.4131
2012-01-20,34.9326
2012-01-23,35.3656
2012-01-24,35.4906
2012-01-25,34.6343
2012-01-26,33.1625
2012-01-27,34.2015
2012-01-30,34.2688
2012-01-31,34.0187
2012-02-01,34.7113
2012-02-02,34.9904
2012-02-03,36.193
2012-02-06,36.2603
2012-02-07,36.318
2012-02-08,36.2699
2012-02-09,35.8562
2012-02-10,35.4329
2012-02-13,36.193
2012-02-14,35.8947
2012-02-15,36.4046
2012-02-16,37.1935
2012-02-17,37.3859
2012-02-21,37.2223
2012-02-22,36.5007
2012-02-23,36.7605
2012-02-24,36.3084
2012-02-27,36.6643
2012-02-28,36.8568
2012-02-29,37.1453
2012-03-01,37.5109
2012-03-02,37.0107
2012-03-05,37.2031
2012-03-06,36.0294
2012-03-07,36.4719
2012-03-08,36.6162
2012-03-09,36.9337
2012-03-12,36.2314
2012-03-13,37.8958
2012-03-14,35.7118
2012-03-15,36.9144
2012-03-16,36.9049
2012-03-19,37.3089
2012-03-20,37.3281
2012-03-21,37.1935
2012-03-22,35.7696
2012-03-23,36.2795
2012-03-26,36.8279
2012-03-27,36.4046
2012-03-28,36.241
2012-03-29,35.7696
2012-03-30,35.9139
2012-04-02,36.5489
2012-04-03,36.2891
2012-04-04,35.4617
2012-04-05,35.0962
2012-04-09,34.4034
2012-04-10,33.5665
2012-04-11,34.009
2012-04-12,34.9519
2012-04-13,34.3361
2012-04-16,34.1822
2012-04-17,34.9614
2012-04-18,34.4804
2012-04-19,34.0187
2012-04-20,33.6242
2012-04-23,34.0475
2012-04-24,34.2015
2012-04-25,34.6055
2012-04-26,35.048
2012-04-27,34.8846
2012-04-30,34.6247
2012-05-01,34.6825
2012-05-02,34.4131
2012-05-03,33.8454
2012-05-04,33.0181
2012-05-07,33.2393
2012-05-08,33.1432
2012-05-09,32.6525
2012-05-10,33.2683
2012-05-11,33.3741
2012-05-14,32.7968
2012-05-15,31.9983
2012-05-16,30.4397
2012-05-17,29.7182
2012-05-18,29.0352
2012-05-21,29.7086
2012-05-22,29.8626
2012-05-23,29.7663
2012-05-24,29.4489
2012-05-25,29.1313
2012-05-29,29.4584
2012-05-30,28.506
2012-05-31,28.1115
2012-06-01,26.7936
2012-06-04,26.7936
2012-06-05,27.3131
2012-06-06,28.3136
2012-06-07,28.4291
2012-06-08,28.5926
2012-06-11,28.3617
2012-06-12,28.3809
2012-06-13,28.1693
2012-06-14,28.025
2012-06-15,28.8331
2012-06-18,28.304
2012-06-19,29.7086
2012-06-20,29.6413
2012-06-21,28.5349
2012-06-22,28.9294
2012-06-25,28.073
2012-06-26,28.3617
2012-06-27,28.6118
2012-06-28,28.3424
2012-06-29,29.6798
2012-07-02,29.4969
2012-07-03,30.026
2012-07-05,29.5162
2012-07-06,29.3911
2012-07-09,29.141
2012-07-10,28.9389
2012-07-11,29.4584
2012-07-12,28.7561
2012-07-13,29.6798
2012-07-16,29.2276
2012-07-17,29.6605
2012-07-18,29.7856
2012-07-19,29.6124
2012-07-20,28.3906
2012-07-23,28.073
2012-07-24,27.6402
2012-07-25,27.5343
2012-07-26,28.2366
2012-07-27,29.2756
2012-07-30,29.4874
2012-07-31,29.5932
2012-08-01,29.0447
2012-08-02,30.4975
2012-08-03,31.9309
2012-08-06,32.1811
2012-08-07,33.0277
2012-08-08,33.0565
2012-08-09,33.3163
2012-08-10,33.6627
2012-08-13,33.6435
2012-08-14,33.605
2012-08-15,33.4414
2012-08-16,33.2201
2012-08-17,33.4414
2012-08-20,33.6435
2012-08-21,34.0282
2012-08-22,33.5569
2012-08-23,33.1335
2012-08-24,33.3068
2012-08-27,33.0565
2012-08-28,32.9604
2012-08-29,32.8834
2012-08-30,32.7006
2012-08-31,32.8931
2012-09-04,32.7295
2012-09-05,32.7006
2012-09-06,33.6242
2012-09-07,33.9417
2012-09-10,33.653
2012-09-11,34.0282
2012-09-12,33.3356
2012-09-13,34.0764
2012-09-14,34.7979
2012-09-17,34.5189
2012-09-18,33.8263
2012-09-19,33.6723
2012-09-20,33.3356
2012-09-21,33.4992
2012-09-24,34.1148
2012-09-25,33.4126
2012-09-26,32.7006
2012-09-27,33.124
2012-09-28,33.1432
2012-10-01,32.9892
2012-10-02,33.0181
2012-10-03,32.9411
2012-10-04,33.682
2012-10-05,33.7878
2012-10-08,33.8936
2012-10-09,33.7878
2012-10-10,33.3452
2012-10-11,34.0572
2012-10-12,33.7012
2012-10-15,33.6723
2012-10-16,34.9904
2012-10-17,35.7023
2012-10-18,35.7118
2012-10-19,34.5382
2012-10-22,34.7594
2012-10-23,33.7012
2012-10-24,33.5857
2012-10-25,34.3073
2012-10-26,33.8647
2012-10-31,34.163
2012-11-01,34.086
2012-11-02,33.3837
2012-11-05,33.3741
2012-11-06,33.6723
2012-11-07,32.0795
2012-11-08,31.4996
2012-11-09,31.4799
2012-11-12,31.4702
2012-11-13,30.9493
2012-11-14,30.3497
2012-11-15,30.8411
2012-11-16,31.0279
2012-11-19,31.4505
2012-11-20,31.8043
2012-11-21,32.2466
2012-11-23,32.5316
2012-11-26,32.5513
2012-11-27,32.0402
2012-11-28,32.3744
2012-11-29,32.797
2012-11-30,32.7282
2012-12-03,32.8363
2012-12-04,32.7282
2012-12-05,32.7085
2012-12-06,32.3351
2012-12-07,32.3055
2012-12-10,32.4923
2012-12-11,32.6299
2012-12-12,33.0329
2012-12-13,32.227
2012-12-14,31.2442
2012-12-17,31.4308
2012-12-18,32.6102
2012-12-19,32.6004
2012-12-20,33.2098
2012-12-21,32.4136
2012-12-24,32.3351
2012-12-26,32.2367
2012-12-27,32.3252
2012-12-28,31.765
2012-12-31,32.3252
2013-01-02,34.5117
2013-01-03,34.4725
2013-01-04,35.3276
2013-01-07,35.2095
2013-01-08,35.3767
2013-01-09,35.4259
2013-01-10,35.9567
2013-01-11,35.7011
2013-01-14,35.6717
2013-01-15,35.6814
2013-01-16,35.7306
2013-01-17,35.7699
2013-01-18,35.7404
2013-01-22,36.5169
2013-01-23,36.7037
2013-01-24,36.2122
2013-01-25,36.9396
2013-01-28,37.0281
2013-01-29,37.1018
2013-01-30,36.6103
2013-01-31,36.7087
2013-02-01,37.5539
2013-02-04,36.8131
2013-02-05,37.1686
2013-02-06,37.06
2013-02-07,36.4625
2013-02-08,36.418
2013-02-11,36.4278
2013-02-12,36.6846
2013-02-13,37.0106
2013-02-14,36.2895
2013-02-15,35.9537
2013-02-19,36.5168
2013-02-20,35.4106
2013-02-21,34.8377
2013-02-22,35.3019
2013-02-25,34.2351
2013-02-26,34.4129
2013-02-27,35.2228
2013-02-28,35.0401
2013-03-01,34.8771
2013-03-04,35.0254
2013-03-05,35.9934
2013-03-06,36.0526
2013-03-07,36.8032
2013-03-08,38.5418
2013-03-11,39.1245
2013-03-12,38.9961
2013-03-13,39.5097
2013-03-14,39.6282
2013-03-15,39.6974
2013-03-18,38.6207
2013-03-19,38.1861
2013-03-20,38.0774
2013-03-21,37.6034
2013-03-22,37.8996
2013-03-25,37.7516
2013-03-26,38.0578
2013-03-27,37.6627
2013-03-28,37.5638
2013-04-01,37.1687
2013-04-02,37.6923
2013-04-03,36.7243
2013-04-04,36.9614
2013-04-05,36.1316
2013-04-08,35.9439
2013-04-09,36.5366
2013-04-10,37.2083
2013-04-11,36.9119
2013-04-12,36.3094
2013-04-15,35.6081
2013-04-16,36.4774
2013-04-17,35.9637
2013-04-18,35.0846
2013-04-19,35.1735
2013-04-22,35.2821
2013-04-23,37.2576
2013-04-24,37.8305
2013-04-25,38.4331
2013-04-26,38.0874
2013-04-29,38.6405
2013-04-30,38.4725
2013-05-01,37.9688
2013-05-02,39.4998
2013-05-03,39.9542
2013-05-06,40.1913
2013-05-07,40.5737
2013-05-08,41.0212
2013-05-09,40.3152
2013-05-10,40.8919
2013-05-13,41.3395
2013-05-14,42.5229
2013-05-15,42.8212
2013-05-16,42.3637
2013-05-17,42.9902
2013-05-20,43.0499
2013-05-21,42.5925
2013-05-22,41.9859
2013-05-23,42.2643
2013-05-24,41.787
2013-05-28,43.03
2013-05-29,43.7162
2013-05-30,44.0941
2013-05-31,43.935
2013-06-03,44.1239
2013-06-04,43.6864
2013-06-05,42.6919
2013-06-06,43.3383
2013-06-07,44.8996
2013-06-10,45.3073
2013-06-11,44.2433
2013-06-12,44.2333
2013-06-13,44.651
2013-06-14,43.6963
2013-06-17,44.6609
2013-06-18,45.1482
2013-06-19,45.0388
2013-06-20,44.8897
2013-06-21,44.8002
2013-06-24,43.7162
2013-06-25,44.5714
2013-06-26,45.188
2013-06-27,45.8344
2013-06-28,45.6753
2013-07-01,46.2719
2013-07-02,46.2719
2013-07-03,46.0432
2013-07-05,47.2067
2013-07-08,47.7736
2013-07-09,48.5393
2013-07-10,48.3305
2013-07-11,48.3305
2013-07-12,48.7382
2013-07-15,48.2211
2013-07-16,47.8233
2013-07-17,47.5647
2013-07-18,48.5294
2013-07-19,48.3702
2013-07-22,49.0266
2013-07-23,49.0962
2013-07-24,48.778
2013-07-25,48.5791
2013-07-26,48.6487
2013-07-29,48.3106
2013-07-30,47.9924
2013-07-31,48.1415
2013-08-01,51.2144
2013-08-02,50.4586
2013-08-05,50.2498
2013-08-06,49.2653
2013-08-07,49.53
2013-08-08,49.79
2013-08-09,49.79
