date,close_price
2011-07-01,40.1151
2011-07-05,40.3441
2011-07-06,40.0292
2011-07-07,39.8861
2011-07-08,39.5712
2011-07-11,38.2639
2011-07-12,38.5979
2011-07-13,38.0922
2011-07-14,36.7945
2011-07-15,37.3288
2011-07-18,37.3479
2011-07-19,37.8823
2011-07-20,37.7582
2011-07-21,38.2544
2011-07-22,38.722
2011-07-25,39.4472
2011-07-26,41.0693
2011-07-27,40.1819
2011-07-28,40.8594
2011-07-29,41.8995
2011-08-01,42.9587
2011-08-02,40.4491
2011-08-03,39.5521
2011-08-04,36.7563
2011-08-05,35.5635
2011-08-08,30.9738
2011-08-09,34.428
2011-08-10,33.4833
2011-08-11,35.783
2011-08-12,35.7353
2011-08-15,37.4911
2011-08-16,37.3664
2011-08-17,37.4623
2011-08-18,35.1791
2011-08-19,33.5674
2011-08-22,31.1786
2011-08-23,32.7615
2011-08-24,34.2965
2011-08-25,32.9726
2011-08-26,33.3851
2011-08-29,34.4979
2011-08-30,34.5363
2011-08-31,35.4765
2011-09-01,35.486
2011-09-02,33.9895
2011-09-06,33.577
2011-09-07,34.7665
2011-09-08,36.2056
2011-09-09,34.8433
2011-09-12,35.1599
2011-09-13,33.9415
2011-09-14,33.6441
2011-09-15,33.9703
2011-09-16,33.6537
2011-09-19,32.2051
2011-09-20,32.3874
2011-09-21,31.0635
2011-09-22,28.291
2011-09-23,28.291
2011-09-26,28.8858
2011-09-27,28.6172
2011-09-28,27.8305
2011-09-29,26.7273
2011-09-30,26.0173
2011-10-03,26.1229
2011-10-04,27.5811
2011-10-05,30.2001
2011-10-06,31.9749
2011-10-07,30.2864
2011-10-10,31.5336
2011-10-11,31.7254
2011-10-12,32.2435
2011-10-13,32.4258
2011-10-14,34.6418
2011-10-17,33.4427
2011-10-18,34.6322
2011-10-19,34.1526
2011-10-20,35.016
2011-10-21,35.8218
2011-10-24,34.4116
2011-10-25,31.5719
2011-10-26,33.3179
2011-10-27,35.8506
2011-10-28,35.7739
2011-10-31,34.5843
2011-11-01,34.5363
2011-11-02,36.7524
2011-11-03,37.0402
2011-11-04,36.973
2011-11-07,37.3376
2011-11-08,36.5509
2011-11-09,35.582
2011-11-10,36.1768
2011-11-11,36.1672
2011-11-14,35.4521
2011-11-15,35.6646
2011-11-16,31.5409
2011-11-17,30.4013
2011-11-18,31.7147
2011-11-21,31.763
2011-11-22,32.3328
2011-11-23,31.7533
2011-11-25,31.1642
2011-11-28,32.0624
2011-11-29,32.0237
2011-11-30,32.2555
2011-12-01,32.777
2011-12-02,32.2459
2011-12-05,33.1343
2011-12-06,33.4144
2011-12-07,33.2695
2011-12-08,32.7673
2011-12-09,33.6655
2011-12-12,33.3854
2011-12-13,32.835
2011-12-14,31.6085
2011-12-15,31.4153
2011-12-16,30.8455
2011-12-19,30.8359
2011-12-20,31.0773
2011-12-21,31.5312
2011-12-22,32.1493
2011-12-23,32.3521
2011-12-27,32.5163
2011-12-28,31.9948
2011-12-29,32.1493
2011-12-30,32.1783
2012-01-03,32.2555
2012-01-04,32.6032
2012-01-05,30.8359
2012-01-06,30.5558
2012-01-09,29.8991
2012-01-10,30.7103
2012-01-11,31.763
2012-01-12,31.5119
2012-01-13,31.9175
2012-01-17,32.3617
2012-01-18,34.2256
2012-01-19,34.6216
2012-01-20,35.8287
2012-01-23,36.5723
2012-01-24,37.6733
2012-01-25,37.5188
2012-01-26,36.1957
2012-01-27,36.2537
2012-01-30,36.1861
2012-01-31,36.9393
2012-02-01,40.4063
2012-02-02,41.2175
2012-02-03,42.4826
2012-02-06,42.9076
2012-02-07,42.3861
2012-02-08,43.4001
2012-02-09,43.2745
2012-02-10,42.5019
2012-02-13,42.0577
2012-02-14,42.738
2012-02-15,42.3398
2012-02-16,42.8157
2012-02-17,42.2038
2012-02-21,42.5438
2012-02-22,42.2524
2012-02-23,42.4466
2012-02-24,41.5919
2012-02-27,41.4462
2012-02-28,40.4943
2012-02-29,40.3874
2012-03-01,41.4462
2012-03-02,40.9897
2012-03-05,41.5627
2012-03-06,40.7857
2012-03-07,41.3782
2012-03-08,42.4078
2012-03-09,42.6603
2012-03-12,42.5535
2012-03-13,42.7672
2012-03-14,42.6409
2012-03-15,42.6409
2012-03-16,42.8837
2012-03-19,43.2626
2012-03-20,42.5341
2012-03-21,42.4175
2012-03-22,42.1164
2012-03-23,42.7866
2012-03-26,43.8939
2012-03-27,42.7575
2012-03-28,42.3204
2012-03-29,42.0095
2012-03-30,42.1164
2012-04-02,42.1747
2012-04-03,41.1839
2012-04-04,41.3588
2012-04-05,40.9508
2012-04-09,41.2325
2012-04-10,40.6594
2012-04-11,40.3195
2012-04-12,40.5137
2012-04-13,40.4651
2012-04-16,38.8528
2012-04-17,38.8528
2012-04-18,38.7556
2012-04-19,38.6002
2012-04-20,38.7945
2012-04-23,38.8528
2012-04-24,39.0762
2012-04-25,38.9693
2012-04-26,39.4744
2012-04-27,40.1252
2012-04-30,40.436
2012-05-01,39.8824
2012-05-02,40.3097
2012-05-03,39.1927
2012-05-04,38.5905
2012-05-07,38.5419
2012-05-08,37.4346
2012-05-09,37.1335
2012-05-10,37.0461
2012-05-11,36.1331
2012-05-14,35.028
2012-05-15,34.5684
2012-05-16,34.5097
2012-05-17,34.1088
2012-05-18,34.1381
2012-05-21,35.1747
2012-05-22,34.6173
2012-05-23,34.6368
2012-05-24,34.9889
2012-05-25,36.045
2012-05-29,36.3775
2012-05-30,35.781
2012-05-31,35.2823
2012-06-01,34.5293
2012-06-04,33.5318
2012-06-05,34.4413
2012-06-06,35.4778
2012-06-07,36.5046
2012-06-08,36.5046
2012-06-11,37.0229
2012-06-12,38.167
2012-06-13,37.903
2012-06-14,38.4799
2012-06-15,39.2818
2012-06-18,39.0178
2012-06-19,39.9663
2012-06-20,41.8928
2012-06-21,40.3575
2012-06-22,40.778
2012-06-25,40.4748
2012-06-26,41.6288
2012-06-27,41.5407
2012-06-28,43.2325
2012-06-29,43.8779
2012-07-02,45.0514
2012-07-03,44.3766
2012-07-05,43.252
2012-07-06,43.5454
2012-07-09,43.4672
2012-07-10,43.0467
2012-07-11,43.4378
2012-07-12,42.4697
2012-07-13,43.9561
2012-07-16,43.8388
2012-07-17,44.4255
2012-07-18,45.7261
2012-07-19,44.4744
2012-07-20,44.5233
2012-07-23,44.8558
2012-07-24,43.4965
2012-07-25,43.4672
2012-07-26,44.7873
2012-07-27,45.9901
2012-07-30,46.4106
2012-07-31,46.2737
2012-08-01,45.9021
2012-08-02,47.0952
2012-08-03,48.3371
2012-08-06,48.2295
2012-08-07,49.2856
2012-08-08,48.3175
2012-08-09,47.721
2012-08-10,48.4544
2012-08-13,48.4055
2012-08-14,48.346
2012-08-15,48.9074
2012-08-16,48.9566
2012-08-17,48.5331
2012-08-20,48.9271
2012-08-21,48.1786
2012-08-22,48.543
2012-08-23,48.3263
2012-08-24,48.021
2012-08-27,48.8483
2012-08-28,49.1437
2012-08-29,48.9763
2012-08-30,50.0301
2012-08-31,51.0937
2012-09-04,50.0104
2012-09-05,49.518
2012-09-06,50.1581
2012-09-07,51.0937
2012-09-10,51.5566
2012-09-11,52.5021
2012-09-12,52.6892
2012-09-13,53.8021
2012-09-14,54.6884
2012-09-17,52.8664
2012-09-18,51.3301
2012-09-19,52.4824
2012-09-20,52.5119
2012-09-21,52.896
2012-09-24,52.7187
2012-09-25,52.8271
2012-09-26,52.1869
2012-09-27,53.6248
2012-09-28,53.7725
2012-10-01,54.4324
2012-10-02,54.5505
2012-10-03,53.7036
2012-10-04,54.7278
2012-10-05,54.0286
2012-10-08,57.0225
2012-10-09,56.3036
2012-10-10,54.4619
2012-10-11,53.8513
2012-10-12,53.4869
2012-10-15,53.5755
2012-10-16,54.2354
2012-10-17,54.8952
2012-10-18,53.9695
2012-10-19,54.1763
2012-10-22,53.6839
2012-10-23,52.4627
2012-10-24,52.896
2012-10-25,53.0733
2012-10-26,54.7377
2012-10-31,54.1566
2012-11-01,53.1324
2012-11-02,52.1869
2012-11-05,53.9202
2012-11-06,56.0869
2012-11-07,54.6983
2012-11-08,53.4967
2012-11-09,52.2952
2012-11-12,53.0634
2012-11-13,53.0831
2012-11-14,52.246
2012-11-15,53.3392
2012-11-16,53.546
2012-11-19,56.0143
2012-11-20,56.4505
2012-11-21,57.2831
2012-11-23,58.4627
2012-11-26,58.5717
2012-11-27,57.9968
2012-11-28,58.7501
2012-11-29,58.9484
2012-11-30,59.1268
2012-12-03,59.0178
2012-12-04,58.7105
2012-12-05,57.5607
2012-12-06,58.8195
2012-12-07,60.1081
2012-12-10,61.4661
2012-12-11,60.8218
2012-12-12,60.8912
2012-12-13,61.1588
2012-12-14,62.1996
2012-12-17,62.3879
2012-12-18,62.4375
2012-12-19,61.6941
2012-12-20,61.6842
2012-12-21,61.595
2012-12-24,61.8229
2012-12-26,61.1489
2012-12-27,61.4463
2012-12-28,60.6533
2012-12-31,62.3582
2013-01-02,63.3396
2013-01-03,61.5355
2013-01-04,61.9915
2013-01-07,59.6721
2013-01-08,60.9805
2013-01-09,61.823
2013-01-10,62.1997
2013-01-11,61.4365
2013-01-14,62.0411
2013-01-15,63.6568
2013-01-16,64.1425
2013-01-17,64.8265
2013-01-18,64.5489
2013-01-22,66.5017
2013-01-23,67.0171
2013-01-24,68.0083
2013-01-25,67.9984
2013-01-28,68.0379
2013-01-29,71.4874
2013-01-30,72.1763
2013-01-31,73.5987
2013-02-01,75.5515
2013-02-04,76.1214
2013-02-05,75.9975
2013-02-06,77.0879
2013-02-07,78.2873
2013-02-08,80.6662
2013-02-11,80.9537
2013-02-12,80.1607
2013-02-13,80.9537
2013-02-14,82.3909
2013-02-15,82.0823
2013-02-19,83.8541
2013-02-20,79.8227
2013-02-21,80.181
2013-02-22,81.0769
2013-02-25,78.9766
2013-02-26,80.2308
2013-02-27,82.3311
2013-02-28,82.57
2013-03-01,84.5509
2013-03-04,89.4484
2013-03-05,88.5326
2013-03-06,88.1145
2013-03-07,87.8756
2013-03-08,88.5724
2013-03-11,87.4476
2013-03-12,88.5326
2013-03-13,86.3327
2013-03-14,87.149
2013-03-15,87.6964
2013-03-18,88.2937
2013-03-19,87.9055
2013-03-20,90.7026
2013-03-21,88.6919
2013-03-22,90.3443
2013-03-25,89.8565
2013-03-26,90.4239
2013-03-27,89.2294
2013-03-28,89.2593
2013-04-01,89.3489
2013-04-02,85.0486
2013-04-03,80.9873
2013-04-04,82.2913
2013-04-05,81.8633
2013-04-08,82.9085
2013-04-09,84.3817
2013-04-10,83.9338
2013-04-11,81.714
2013-04-12,79.8725
2013-04-15,77.2445
2013-04-16,78.5685
2013-04-17,76.4283
2013-04-18,76.6473
2013-04-19,78.3096
2013-04-22,79.6037
2013-04-23,81.1765
2013-04-24,82.142
2013-04-25,81.2461
2013-04-26,80.9774
2013-04-29,81.9131
2013-04-30,77.8916
2013-05-01,73.2629
2013-05-02,75.5026
2013-05-03,77.7224
2013-05-06,79.972
2013-05-07,81.0172
2013-05-08,78.2798
2013-05-09,77.9911
2013-05-10,77.0056
2013-05-13,75.9804
2013-05-14,77.84
2013-05-15,79.33
2013-05-16,78.56
2013-05-17,82.46
2013-05-20,84.46
2013-05-21,82.91
2013-05-22,82.5
2013-05-23,82.4
2013-05-24,82.0
2013-05-28,83.82
2013-05-29,83.88
2013-05-30,83.58
2013-05-31,82.59
2013-06-03,81.99
2013-06-04,80.64
2013-06-05,79.62
2013-06-06,82.65
2013-06-07,83.63
2013-06-10,82.38
2013-06-11,79.87
2013-06-12,79.28
2013-06-13,80.81
2013-06-14,79.63
2013-06-17,78.96
2013-06-18,78.94
2013-06-19,78.43
2013-06-20,73.96
2013-06-21,72.78
2013-06-24,70.42
2013-06-25,72.17
2013-06-26,72.49
2013-06-27,71.09
2013-06-28,71.0
2013-07-01,70.39
2013-07-02,69.19
2013-07-03,70.7
2013-07-05,68.94
2013-07-08,69.46
2013-07-09,70.12
2013-07-10,68.2
2013-07-11,71.62
2013-07-12,73.2
2013-07-15,73.07
2013-07-16,69.9
2013-07-17,69.78
2013-07-18,68.29
2013-07-19,69.53
2013-07-22,69.8
2013-07-23,71.81
2013-07-24,70.34
2013-07-25,71.95
2013-07-26,71.87
2013-07-29,72.21
2013-07-30,73.04
2013-07-31,73.3
2013-08-01,75.01
2013-08-02,71.93
2013-08-05,71.67
2013-08-06,71.05
2013-08-07,71.71
2013-08-08,72.55
2013-08-09,73.14
