date,close_price
2002-05-23,8.38
2002-05-24,8.475
2002-05-28,8.13
2002-05-29,7.77
2002-05-30,7.5
2002-05-31,7.51
2002-06-03,7.9
2002-06-04,7.825
2002-06-05,8.03
2002-06-06,8.325
2002-06-07,7.85
2002-06-10,8.15
2002-06-11,8.075
2002-06-12,7.665
2002-06-13,7.59
2002-06-14,6.92
2002-06-17,6.53
2002-06-18,6.425
2002-06-19,6.75
2002-06-20,6.7
2002-06-21,6.835
2002-06-24,6.85
2002-06-25,6.69
2002-06-26,6.92
2002-06-27,6.605
2002-06-28,6.995
2002-07-01,7.025
2002-07-02,8.22
2002-07-03,8.44
2002-07-05,8.925
2002-07-08,8.215
2002-07-09,8.125
2002-07-10,8.1
2002-07-11,8.95
2002-07-12,8.455
2002-07-15,7.975
2002-07-16,7.85
2002-07-17,7.71
2002-07-18,8.02
2002-07-19,8.1
2002-07-22,8.175
2002-07-23,7.925
2002-07-24,7.775
2002-07-25,7.26
2002-07-26,6.005
2002-07-29,6.135
2002-07-30,6.5
2002-07-31,6.565
2002-08-01,6.24
2002-08-02,5.5
2002-08-05,5.425
2002-08-06,5.28
2002-08-07,5.5
2002-08-08,5.575
2002-08-09,5.51
2002-08-12,5.31
2002-08-13,5.47
2002-08-14,5.725
2002-08-15,6.2
2002-08-16,6.47
2002-08-19,6.875
2002-08-20,6.5
2002-08-21,6.705
2002-08-22,6.875
2002-08-23,6.875
2002-08-26,6.65
2002-08-27,6.1
2002-08-28,6.05
2002-08-29,6.455
2002-08-30,6.55
2002-09-03,6.48
2002-09-04,6.5
2002-09-05,6.425
2002-09-06,6.4
2002-09-09,6.275
2002-09-10,6.55
2002-09-11,6.75
2002-09-12,6.475
2002-09-13,6.15
2002-09-16,6.01
2002-09-17,5.8
2002-09-18,5.55
2002-09-19,5.07
2002-09-20,4.925
2002-09-23,4.98
2002-09-24,5.07
2002-09-25,5.13
2002-09-26,5.43
2002-09-27,5.09
2002-09-30,4.825
2002-10-01,4.75
2002-10-02,4.035
2002-10-03,3.625
2002-10-04,3.29
2002-10-07,2.9
2002-10-08,2.835
2002-10-09,2.61
2002-10-10,3.52
2002-10-11,3.355
2002-10-14,3.7
2002-10-15,3.85
2002-10-16,3.225
2002-10-17,3.85
2002-10-18,4.675
2002-10-21,4.5
2002-10-22,4.4
2002-10-23,4.1
2002-10-24,4.055
2002-10-25,4.5
2002-10-28,4.8
2002-10-29,4.58
2002-10-30,4.495
2002-10-31,4.5
2002-11-01,4.47
2002-11-04,4.685
2002-11-05,4.56
2002-11-06,4.435
2002-11-07,4.235
2002-11-08,4.255
2002-11-11,4.155
2002-11-12,4.05
2002-11-13,4.49
2002-11-14,4.355
2002-11-15,4.55
2002-11-18,5.46
2002-11-19,4.725
2002-11-20,5.02
2002-11-21,5.5
2002-11-22,5.51
2002-11-25,5.5
2002-11-26,5.245
2002-11-27,5.255
2002-11-29,5.425
2002-12-02,5.33
2002-12-03,5.395
2002-12-04,4.935
2002-12-05,5.5
2002-12-06,5.575
2002-12-09,5.59
2002-12-10,6.095
2002-12-11,6.345
2002-12-12,6.29
2002-12-13,6.25
2002-12-16,6.33
2002-12-17,6.315
2002-12-18,5.5
2002-12-19,5.4
2002-12-20,5.325
2002-12-23,5.125
2002-12-24,4.955
2002-12-26,4.875
2002-12-27,4.83
2002-12-30,5.0
2002-12-31,5.5
2003-01-02,5.74
2003-01-03,5.43
2003-01-06,5.55
2003-01-07,5.46
2003-01-08,5.725
2003-01-09,5.845
2003-01-10,6.22
2003-01-13,6.01
2003-01-14,6.0
2003-01-15,6.075
2003-01-16,6.005
2003-01-17,5.725
2003-01-21,5.705
2003-01-22,5.81
2003-01-23,6.155
2003-01-24,6.145
2003-01-27,6.045
2003-01-28,6.375
2003-01-29,6.025
2003-01-30,6.195
2003-01-31,6.595
2003-02-03,6.35
2003-02-04,6.15
2003-02-05,5.975
2003-02-06,5.825
2003-02-07,6.095
2003-02-10,6.235
2003-02-11,6.525
2003-02-12,6.615
2003-02-13,6.66
2003-02-14,7.08
2003-02-18,7.33
2003-02-19,7.55
2003-02-20,7.65
2003-02-21,7.28
2003-02-24,7.035
2003-02-25,7.23
2003-02-26,7.25
2003-02-27,8.19
2003-02-28,8.55
2003-03-03,7.9
2003-03-04,8.19
2003-03-05,8.075
2003-03-06,8.135
2003-03-07,8.05
2003-03-10,7.865
2003-03-11,7.725
2003-03-12,7.545
2003-03-13,8.13
2003-03-14,8.28
2003-03-17,8.995
2003-03-18,9.5
2003-03-19,9.555
2003-03-20,9.36
2003-03-21,9.31
2003-03-24,9.035
2003-03-25,9.58
2003-03-26,10.325
2003-03-27,10.86
2003-03-28,10.515
2003-03-31,10.16
2003-04-01,9.5
2003-04-02,9.95
2003-04-03,10.0
2003-04-04,9.785
2003-04-07,9.985
2003-04-08,10.095
2003-04-09,10.2
2003-04-10,10.51
2003-04-11,10.375
2003-04-14,10.085
2003-04-15,10.05
2003-04-16,10.27
2003-04-17,10.965
2003-04-21,12.3
2003-04-22,11.475
2003-04-23,10.3
2003-04-24,11.025
2003-04-25,10.56
2003-04-28,11.025
2003-04-29,11.4
2003-04-30,11.4
2003-05-01,11.29
2003-05-02,11.3
2003-05-05,11.695
2003-05-06,11.665
2003-05-07,11.815
2003-05-08,11.425
2003-05-09,11.31
2003-05-12,11.82
2003-05-13,12.61
2003-05-14,12.22
2003-05-15,12.23
2003-05-16,11.9
2003-05-19,10.385
2003-05-20,10.875
2003-05-21,10.6
2003-05-22,11.345
2003-05-23,11.11
2003-05-27,11.325
2003-05-28,11.23
2003-05-29,11.375
2003-05-30,11.4
2003-06-02,11.685
2003-06-03,12.0
2003-06-04,12.17
2003-06-05,12.705
2003-06-06,11.75
2003-06-09,11.525
2003-06-10,11.36
2003-06-11,11.275
2003-06-12,10.95
2003-06-13,9.505
2003-06-16,10.845
2003-06-17,10.7
2003-06-18,10.745
2003-06-19,10.99
2003-06-20,10.825
2003-06-23,10.755
2003-06-24,11.5
2003-06-25,11.55
2003-06-26,12.49
2003-06-27,12.47
2003-06-30,12.775
2003-07-01,12.415
2003-07-02,13.575
2003-07-03,13.45
2003-07-07,13.405
2003-07-08,13.735
2003-07-09,13.79
2003-07-10,13.375
2003-07-11,13.275
2003-07-14,14.025
2003-07-15,13.125
2003-07-16,12.74
2003-07-17,12.665
2003-07-18,12.115
2003-07-21,11.785
2003-07-22,12.345
2003-07-23,13.255
2003-07-24,13.125
2003-07-25,13.51
2003-07-28,13.345
2003-07-29,13.305
2003-07-30,12.965
2003-07-31,13.0
2003-08-01,12.575
2003-08-04,12.5
2003-08-05,12.19
2003-08-06,11.705
2003-08-07,11.515
2003-08-08,11.79
2003-08-11,12.26
2003-08-12,12.35
2003-08-13,12.105
2003-08-14,12.6
2003-08-15,12.51
2003-08-18,12.405
2003-08-19,12.94
2003-08-20,13.815
2003-08-21,14.415
2003-08-22,14.405
2003-08-25,14.0
2003-08-26,14.86
2003-08-27,16.16
2003-08-28,15.825
2003-08-29,16.58
2003-09-02,16.91
2003-09-03,16.67
2003-09-04,16.76
2003-09-05,17.375
2003-09-08,17.345
2003-09-09,17.72
2003-09-10,16.97
2003-09-11,16.445
2003-09-12,17.275
2003-09-15,17.775
2003-09-16,17.925
2003-09-17,17.875
2003-09-18,18.24
2003-09-19,18.525
2003-09-22,19.285
2003-09-23,19.505
2003-09-24,19.06
2003-09-25,17.405
2003-09-26,16.705
2003-09-29,16.725
2003-09-30,16.75
2003-10-01,17.175
2003-10-02,20.43
2003-10-03,20.065
2003-10-06,20.605
2003-10-07,21.995
2003-10-08,21.595
2003-10-09,21.55
2003-10-10,22.36
2003-10-13,23.39
2003-10-14,23.585
2003-10-15,22.4
2003-10-16,25.86
2003-10-17,25.075
2003-10-20,27.35
2003-10-21,27.2
2003-10-22,26.275
2003-10-23,26.07
2003-10-24,26.05
2003-10-27,26.855
2003-10-28,28.2
2003-10-29,29.47
2003-10-30,29.24
2003-10-31,28.475
2003-11-03,29.225
2003-11-04,29.77
2003-11-05,29.4
2003-11-06,25.47
2003-11-07,23.375
2003-11-10,23.28
2003-11-11,23.545
2003-11-12,25.09
2003-11-13,24.18
2003-11-14,23.44
2003-11-17,22.315
2003-11-18,23.31
2003-11-19,23.3
2003-11-20,22.735
2003-11-21,22.89
2003-11-24,23.5
2003-11-25,24.0
2003-11-26,24.1
2003-11-28,24.5
2003-12-01,25.255
2003-12-02,25.39
2003-12-03,24.95
2003-12-04,24.025
2003-12-05,23.755
2003-12-08,23.53
2003-12-09,22.775
2003-12-10,22.56
2003-12-11,23.67
2003-12-12,23.39
2003-12-15,22.6
2003-12-16,22.27
2003-12-17,25.185
2003-12-18,25.545
2003-12-19,25.6
2003-12-22,25.945
2003-12-23,27.41
2003-12-24,28.495
2003-12-26,29.08
2003-12-29,29.13
2003-12-30,28.475
2003-12-31,27.335
2004-01-02,27.43
2004-01-05,27.945
2004-01-06,29.825
2004-01-07,31.035
2004-01-08,31.115
2004-01-09,30.995
2004-01-12,32.15
2004-01-13,32.73
2004-01-14,32.625
2004-01-15,32.365
2004-01-16,32.725
2004-01-20,33.91
2004-01-21,32.89
2004-01-22,38.815
2004-01-23,38.635
2004-01-26,38.175
2004-01-27,37.485
2004-01-28,35.86
2004-01-29,35.445
2004-01-30,36.795
2004-02-02,36.5
2004-02-03,35.94
2004-02-04,34.8
2004-02-05,36.72
2004-02-06,38.325
2004-02-09,38.4
2004-02-10,36.395
2004-02-11,35.99
2004-02-12,37.32
2004-02-13,35.52
2004-02-17,35.34
2004-02-18,35.38
2004-02-19,34.31
2004-02-20,35.27
2004-02-23,35.01
2004-02-24,31.1
2004-02-25,31.13
2004-02-26,33.59
2004-02-27,34.4
2004-03-01,34.81
2004-03-02,34.51
2004-03-03,33.06
2004-03-04,32.73
2004-03-05,33.25
2004-03-08,31.96
2004-03-09,31.16
2004-03-10,30.79
2004-03-11,30.1
2004-03-12,30.75
2004-03-15,29.54
2004-03-16,29.1
2004-03-17,30.68
2004-03-18,30.91
2004-03-19,30.66
2004-03-22,29.4
2004-03-23,28.55
2004-03-24,28.36
2004-03-25,29.6
2004-03-26,29.07
2004-03-29,33.27
2004-03-30,34.36
2004-03-31,33.98
2004-04-01,35.13
2004-04-02,35.16
2004-04-05,35.8
2004-04-06,35.58
2004-04-07,35.53
2004-04-08,37.74
2004-04-12,37.53
2004-04-13,36.51
2004-04-14,36.4
2004-04-15,37.02
2004-04-16,30.75
2004-04-19,30.65
2004-04-20,29.14
2004-04-21,29.02
2004-04-22,29.78
2004-04-23,29.62
2004-04-26,28.72
2004-04-27,27.89
2004-04-28,27.74
2004-04-29,26.15
2004-04-30,25.4
2004-05-03,26.84
2004-05-04,26.99
2004-05-05,28.62
2004-05-06,28.15
2004-05-07,27.55
2004-05-10,27.0
2004-05-11,29.5
2004-05-12,29.53
2004-05-13,30.48
2004-05-14,30.63
2004-05-17,30.48
2004-05-18,31.05
2004-05-19,31.22
2004-05-20,30.99
2004-05-21,31.35
2004-05-24,31.89
2004-05-25,32.16
2004-05-26,32.39
2004-05-27,33.07
2004-05-28,32.95
2004-06-01,32.53
2004-06-02,32.37
2004-06-03,31.0
2004-06-04,31.39
2004-06-07,32.1
2004-06-08,32.14
2004-06-09,31.29
2004-06-10,31.1
2004-06-14,29.6
2004-06-15,29.85
2004-06-16,30.4
2004-06-17,29.91
2004-06-18,29.6
2004-06-21,28.8
2004-06-22,29.0
2004-06-23,30.68
2004-06-24,31.3
2004-06-25,31.97
2004-06-28,34.19
2004-06-29,34.28
2004-06-30,36.25
2004-07-01,35.87
2004-07-02,32.17
2004-07-06,33.56
2004-07-07,33.32
2004-07-08,31.83
2004-07-09,33.25
2004-07-12,32.61
2004-07-13,31.79
2004-07-14,31.99
2004-07-15,31.85
2004-07-16,23.09
2004-07-19,20.06
2004-07-20,21.59
2004-07-21,20.01
2004-07-22,20.18
2004-07-23,20.12
2004-07-26,19.09
2004-07-27,20.3
2004-07-28,20.1
2004-07-29,20.34
2004-07-30,20.49
2004-08-02,20.17
2004-08-03,19.28
2004-08-04,17.58
2004-08-05,17.13
2004-08-06,16.75
2004-08-09,16.55
2004-08-10,17.17
2004-08-11,16.09
2004-08-12,15.47
2004-08-13,15.09
2004-08-16,15.32
2004-08-17,15.6
2004-08-18,15.77
2004-08-19,15.92
2004-08-20,15.83
2004-08-23,15.91
2004-08-24,15.38
2004-08-25,15.65
2004-08-26,15.18
2004-08-27,15.2
2004-08-30,14.45
2004-08-31,13.93
2004-09-01,14.18
2004-09-02,14.77
2004-09-03,14.34
2004-09-07,15.43
2004-09-08,15.15
2004-09-09,15.11
2004-09-10,14.92
2004-09-13,15.91
2004-09-14,16.31
2004-09-15,15.91
2004-09-16,17.12
2004-09-17,16.96
2004-09-20,17.82
2004-09-21,17.55
2004-09-22,16.87
2004-09-23,16.81
2004-09-24,16.61
2004-09-27,16.29
2004-09-28,16.35
2004-09-29,16.36
2004-09-30,15.4
2004-10-01,16.29
2004-10-04,17.3
2004-10-05,18.11
2004-10-06,17.97
2004-10-07,17.44
2004-10-08,16.8
2004-10-11,17.37
2004-10-12,17.24
2004-10-13,17.35
2004-10-14,17.47
2004-10-15,10.23
2004-10-18,9.88
2004-10-19,9.94
2004-10-20,10.1
2004-10-21,10.03
2004-10-22,9.8
2004-10-25,9.85
2004-10-26,9.63
2004-10-27,9.7
2004-10-28,9.6
2004-10-29,9.46
2004-11-01,9.4
2004-11-02,9.86
2004-11-03,10.1
2004-11-04,10.59
2004-11-05,10.93
2004-11-08,10.79
2004-11-09,10.68
2004-11-10,10.35
2004-11-11,10.76
2004-11-12,10.84
2004-11-15,11.23
2004-11-16,10.81
2004-11-17,10.46
2004-11-18,11.95
2004-11-19,11.25
2004-11-22,11.29
2004-11-23,10.99
2004-11-24,11.36
2004-11-26,11.36
2004-11-29,11.42
2004-11-30,11.25
2004-12-01,11.25
2004-12-02,11.34
2004-12-03,11.3
2004-12-06,11.22
2004-12-07,11.63
2004-12-08,11.35
2004-12-09,11.8
2004-12-10,11.72
2004-12-13,12.77
2004-12-14,12.61
2004-12-15,12.88
2004-12-16,13.44
2004-12-17,12.93
2004-12-20,12.7
2004-12-21,12.54
2004-12-22,11.71
2004-12-23,11.57
2004-12-27,11.64
2004-12-28,12.13
2004-12-29,12.65
2004-12-30,12.69
2004-12-31,12.26
2005-01-03,11.87
2005-01-04,11.75
2005-01-05,11.1
2005-01-06,11.07
2005-01-07,11.15
2005-01-10,11.29
2005-01-11,11.04
2005-01-12,10.75
2005-01-13,10.81
2005-01-14,11.34
2005-01-18,11.21
2005-01-19,11.12
2005-01-20,11.05
2005-01-21,11.0
2005-01-24,11.16
2005-01-25,11.35
2005-01-26,11.04
2005-01-27,11.22
2005-01-28,11.41
2005-01-31,11.44
2005-02-01,11.41
2005-02-02,11.25
2005-02-03,11.9
2005-02-04,12.0
2005-02-07,11.56
2005-02-08,11.5
2005-02-09,11.41
2005-02-10,11.34
2005-02-11,11.15
2005-02-14,11.17
2005-02-15,11.2
2005-02-16,10.88
2005-02-17,10.49
2005-02-18,10.69
2005-02-22,10.17
2005-02-23,10.19
2005-02-24,10.44
2005-02-25,11.06
2005-02-28,10.63
2005-03-01,10.81
2005-03-02,10.67
2005-03-03,10.65
2005-03-04,10.74
2005-03-07,10.54
2005-03-08,10.12
2005-03-09,10.04
2005-03-10,9.89
2005-03-11,9.47
2005-03-14,9.5
2005-03-15,9.23
2005-03-16,9.19
2005-03-17,9.19
2005-03-18,9.18
2005-03-21,9.31
2005-03-22,9.16
2005-03-23,9.14
2005-03-24,9.01
2005-03-28,9.75
2005-03-29,10.08
2005-03-30,10.27
2005-03-31,10.8
2005-04-01,10.82
2005-04-04,10.93
2005-04-05,10.86
2005-04-06,11.09
2005-04-07,11.3
2005-04-08,11.98
2005-04-11,11.86
2005-04-12,11.71
2005-04-13,12.08
2005-04-14,12.0
2005-04-15,11.59
2005-04-18,11.33
2005-04-19,11.62
2005-04-20,11.5
2005-04-21,12.13
2005-04-22,11.2
2005-04-25,11.47
2005-04-26,11.3
2005-04-27,11.47
2005-04-28,11.38
2005-04-29,11.5
2005-05-02,11.49
2005-05-03,11.56
2005-05-04,11.6
2005-05-05,11.45
2005-05-06,11.6
2005-05-09,11.59
2005-05-10,11.68
2005-05-11,12.96
2005-05-12,13.9
2005-05-13,14.28
2005-05-16,14.82
2005-05-17,14.54
2005-05-18,15.35
2005-05-19,16.1
2005-05-20,15.91
2005-05-23,15.6
2005-05-24,14.4
2005-05-25,14.59
2005-05-26,14.63
2005-05-27,14.52
2005-05-31,14.39
2005-06-01,14.5
2005-06-02,14.86
2005-06-03,14.64
2005-06-06,15.29
2005-06-07,14.96
2005-06-08,14.87
2005-06-09,15.58
2005-06-10,16.91
2005-06-13,16.66
2005-06-14,16.96
2005-06-15,17.12
2005-06-16,17.66
2005-06-17,17.16
2005-06-20,17.2
2005-06-21,16.65
2005-06-22,16.63
2005-06-23,16.09
2005-06-24,15.8
2005-06-27,16.05
2005-06-28,16.05
2005-06-29,16.33
2005-06-30,16.43
2005-07-01,16.54
2005-07-05,16.4
2005-07-06,16.75
2005-07-07,16.92
2005-07-08,16.69
2005-07-11,17.18
2005-07-12,16.84
2005-07-13,16.51
2005-07-14,16.42
2005-07-15,16.38
2005-07-18,16.31
2005-07-19,16.38
2005-07-20,16.92
2005-07-21,16.66
2005-07-22,16.38
2005-07-25,17.0
2005-07-26,19.04
2005-07-27,19.55
2005-07-28,18.91
2005-07-29,18.56
2005-08-01,19.3
2005-08-02,19.54
2005-08-03,20.87
2005-08-04,20.65
2005-08-05,21.0
2005-08-08,21.73
2005-08-09,21.31
2005-08-10,20.88
2005-08-11,20.99
2005-08-12,22.09
2005-08-15,21.93
2005-08-16,22.18
2005-08-17,21.87
2005-08-18,21.45
2005-08-19,21.5
2005-08-22,21.41
2005-08-23,21.11
2005-08-24,21.03
2005-08-25,21.09
2005-08-26,21.24
2005-08-29,21.92
2005-08-30,21.33
2005-08-31,21.55
2005-09-01,21.45
2005-09-02,21.56
2005-09-06,22.75
2005-09-07,22.59
2005-09-08,24.1
2005-09-09,24.97
2005-09-12,25.21
2005-09-13,24.39
2005-09-14,23.65
2005-09-15,23.4
2005-09-16,24.2
2005-09-19,23.27
2005-09-20,23.14
2005-09-21,22.7
2005-09-22,23.61
2005-09-23,24.18
2005-09-26,23.92
2005-09-27,24.35
2005-09-28,24.21
2005-09-29,24.43
2005-09-30,26.0
2005-10-03,26.67
2005-10-04,27.02
2005-10-05,26.01
2005-10-06,25.61
2005-10-07,27.23
2005-10-10,28.7
2005-10-11,28.2
2005-10-12,27.49
2005-10-13,27.9
2005-10-14,28.63
2005-10-17,29.07
2005-10-18,27.44
2005-10-19,28.17
2005-10-20,25.62
2005-10-21,26.19
2005-10-24,26.86
2005-10-25,27.54
2005-10-26,24.93
2005-10-27,25.84
2005-10-28,26.28
2005-10-31,26.43
2005-11-01,25.67
2005-11-02,27.01
2005-11-03,27.13
2005-11-04,27.66
2005-11-07,27.84
2005-11-08,28.52
2005-11-09,28.24
2005-11-10,29.51
2005-11-11,30.01
2005-11-14,28.98
2005-11-15,27.89
2005-11-16,27.9
2005-11-17,28.71
2005-11-18,28.4
2005-11-21,28.76
2005-11-22,29.26
2005-11-23,29.02
2005-11-25,29.25
2005-11-28,27.59
2005-11-29,26.98
2005-11-30,27.36
2005-12-01,27.1
2005-12-02,27.64
2005-12-05,27.7
2005-12-06,27.77
2005-12-07,27.44
2005-12-08,27.48
2005-12-09,25.71
2005-12-12,25.02
2005-12-13,24.05
2005-12-14,24.35
2005-12-15,25.9
2005-12-16,26.28
2005-12-19,25.62
2005-12-20,25.22
2005-12-21,27.37
2005-12-22,27.52
2005-12-23,27.69
2005-12-27,26.95
2005-12-28,27.27
2005-12-29,27.29
2005-12-30,27.0
2006-01-03,26.04
2006-01-04,25.03
2006-01-05,24.98
2006-01-06,24.99
2006-01-09,24.99
2006-01-10,25.44
2006-01-11,24.79
2006-01-12,25.77
2006-01-13,25.55
2006-01-17,25.64
2006-01-18,24.87
2006-01-19,25.38
2006-01-20,23.48
2006-01-23,23.21
2006-01-24,24.65
2006-01-25,28.53
2006-01-26,29.01
2006-01-27,27.85
2006-01-30,27.51
2006-01-31,27.5
2006-02-01,27.12
2006-02-02,25.99
2006-02-03,26.11
2006-02-06,26.26
2006-02-07,25.91
2006-02-08,25.19
2006-02-09,24.53
2006-02-10,25.36
2006-02-13,25.24
2006-02-14,24.54
2006-02-15,24.92
2006-02-16,25.12
2006-02-17,25.05
2006-02-21,25.71
2006-02-22,26.35
2006-02-23,25.64
2006-02-24,25.99
2006-02-27,26.52
2006-02-28,26.79
2006-03-01,26.77
2006-03-02,26.8
2006-03-03,26.76
2006-03-06,25.59
2006-03-07,25.46
2006-03-08,25.18
2006-03-09,25.25
2006-03-10,25.56
2006-03-13,25.13
2006-03-14,25.4
2006-03-15,25.17
2006-03-16,25.49
2006-03-17,26.1
2006-03-20,27.06
2006-03-21,27.25
2006-03-22,28.0
2006-03-23,28.25
2006-03-24,28.68
2006-03-27,28.86
2006-03-28,28.01
2006-03-29,29.23
2006-03-30,28.68
2006-03-31,28.99
2006-04-03,28.12
2006-04-04,27.44
2006-04-05,28.69
2006-04-06,28.3
2006-04-07,27.97
2006-04-10,28.23
2006-04-11,28.53
2006-04-12,28.7
2006-04-13,29.16
2006-04-17,29.19
2006-04-18,29.74
2006-04-19,31.08
2006-04-20,31.02
2006-04-21,30.8
2006-04-24,31.0
2006-04-25,31.6
2006-04-26,31.49
2006-04-27,31.3
2006-04-28,29.69
2006-05-01,29.6
2006-05-02,30.14
2006-05-03,29.62
2006-05-04,29.95
2006-05-05,30.33
2006-05-08,30.0
2006-05-09,30.68
2006-05-10,30.94
2006-05-11,29.81
2006-05-12,29.59
2006-05-15,28.5
2006-05-16,28.67
2006-05-17,28.13
2006-05-18,27.7
2006-05-19,27.87
2006-05-22,27.99
2006-05-23,27.87
2006-05-24,27.93
2006-05-25,28.72
2006-05-26,28.8
2006-05-30,27.53
2006-05-31,27.8
2006-06-01,28.5
2006-06-02,27.99
2006-06-05,27.26
2006-06-06,26.88
2006-06-07,26.44
2006-06-08,27.8
2006-06-09,27.53
2006-06-12,27.14
2006-06-13,27.55
2006-06-14,28.05
2006-06-15,27.74
2006-06-16,27.14
2006-06-19,28.07
2006-06-20,27.04
2006-06-21,27.14
2006-06-22,27.64
2006-06-23,27.34
2006-06-26,27.68
2006-06-27,26.99
2006-06-28,26.55
2006-06-29,27.22
2006-06-30,27.18
2006-07-03,27.24
2006-07-05,26.68
2006-07-06,26.58
2006-07-07,26.64
2006-07-10,26.49
2006-07-11,25.32
2006-07-12,24.63
2006-07-13,24.89
2006-07-14,24.2
2006-07-17,23.83
2006-07-18,23.37
2006-07-19,23.66
2006-07-20,23.35
2006-07-21,23.05
2006-07-24,23.75
2006-07-25,18.78
2006-07-26,19.03
2006-07-27,20.15
2006-07-28,20.83
2006-07-31,20.65
2006-08-01,20.5
2006-08-02,20.82
2006-08-03,20.38
2006-08-04,20.98
2006-08-07,20.67
2006-08-08,20.3
2006-08-09,20.15
2006-08-10,20.19
2006-08-11,19.85
2006-08-14,19.88
2006-08-15,19.93
2006-08-16,19.75
2006-08-17,20.04
2006-08-18,19.85
2006-08-21,19.46
2006-08-22,18.76
2006-08-23,18.58
2006-08-24,18.59
2006-08-25,18.7
2006-08-28,19.28
2006-08-29,19.35
2006-08-30,20.07
2006-08-31,20.06
2006-09-01,20.03
2006-09-05,20.18
2006-09-06,21.03
2006-09-07,20.31
2006-09-08,20.28
2006-09-11,20.65
2006-09-12,21.74
2006-09-13,22.33
2006-09-14,22.47
2006-09-15,22.7
2006-09-18,22.3
2006-09-19,21.93
2006-09-20,22.45
2006-09-21,22.9
2006-09-22,23.01
2006-09-25,23.11
2006-09-26,23.02
2006-09-27,23.2
2006-09-28,23.09
2006-09-29,22.76
2006-10-02,22.77
2006-10-03,23.03
2006-10-04,23.27
2006-10-05,23.84
2006-10-06,24.12
2006-10-09,23.98
2006-10-10,23.6
2006-10-11,23.4
2006-10-12,23.4
2006-10-13,23.2
2006-10-16,23.22
2006-10-17,22.78
2006-10-18,22.4
2006-10-19,22.16
2006-10-20,22.28
2006-10-23,23.06
2006-10-24,27.35
2006-10-25,27.75
2006-10-26,27.73
2006-10-27,27.53
2006-10-30,27.9
2006-10-31,27.65
2006-11-01,27.62
2006-11-02,26.7
2006-11-03,26.67
2006-11-06,27.27
2006-11-07,27.65
2006-11-08,28.94
2006-11-09,28.85
2006-11-10,29.35
2006-11-13,29.52
2006-11-14,29.0
2006-11-15,29.73
2006-11-16,29.27
2006-11-17,28.96
2006-11-20,29.04
2006-11-21,29.22
2006-11-22,29.64
2006-11-24,29.21
2006-11-27,28.9
2006-11-28,28.84
2006-11-29,29.18
2006-11-30,29.28
2006-12-01,29.48
2006-12-04,29.0
2006-12-05,28.91
2006-12-06,28.49
2006-12-07,27.69
2006-12-08,27.61
2006-12-11,28.45
2006-12-12,28.38
2006-12-13,28.4
2006-12-14,27.8
2006-12-15,27.58
2006-12-18,26.59
2006-12-19,27.11
2006-12-20,27.38
2006-12-21,26.75
2006-12-22,26.18
2006-12-26,26.9
2006-12-27,26.49
2006-12-28,26.11
2006-12-29,25.9
2007-01-03,26.65
2007-01-04,25.3
2007-01-05,24.84
2007-01-08,23.83
2007-01-09,24.0
2007-01-10,24.08
2007-01-11,24.19
2007-01-12,22.75
2007-01-16,22.74
2007-01-17,22.77
2007-01-18,22.28
2007-01-19,22.58
2007-01-22,21.91
2007-01-23,21.77
2007-01-24,22.79
2007-01-25,23.19
2007-01-26,23.11
2007-01-29,22.58
2007-01-30,22.93
2007-01-31,22.79
2007-02-01,22.77
2007-02-02,22.83
2007-02-05,22.6
2007-02-06,22.31
2007-02-07,22.89
2007-02-08,23.73
2007-02-09,23.14
2007-02-12,23.15
2007-02-13,22.89
2007-02-14,22.61
2007-02-15,22.49
2007-02-16,22.81
2007-02-20,23.45
2007-02-21,23.37
2007-02-22,23.67
2007-02-23,23.5
2007-02-26,23.14
2007-02-27,22.14
2007-02-28,22.54
2007-03-01,22.8
2007-03-02,22.3
2007-03-05,21.08
2007-03-06,21.44
2007-03-07,21.2
2007-03-08,21.23
2007-03-09,21.0
2007-03-12,21.05
2007-03-13,20.54
2007-03-14,21.09
2007-03-15,21.16
2007-03-16,21.04
2007-03-19,21.33
2007-03-20,22.46
2007-03-21,23.06
2007-03-22,23.1
2007-03-23,23.72
2007-03-26,23.24
2007-03-27,23.57
2007-03-28,23.33
2007-03-29,23.42
2007-03-30,23.13
2007-04-02,23.43
2007-04-03,23.76
2007-04-04,24.54
2007-04-05,24.2
2007-04-09,24.34
2007-04-10,24.86
2007-04-11,24.6
2007-04-12,24.6
2007-04-13,24.59
2007-04-16,24.52
2007-04-17,23.94
2007-04-18,21.72
2007-04-19,21.5
2007-04-20,22.1
2007-04-23,21.72
2007-04-24,21.59
2007-04-25,21.53
2007-04-26,22.12
2007-04-27,22.23
2007-04-30,22.18
2007-05-01,22.21
2007-05-02,22.11
2007-05-03,22.33
2007-05-04,22.14
2007-05-07,22.23
2007-05-08,22.14
2007-05-09,22.11
2007-05-10,21.94
2007-05-11,22.09
2007-05-14,21.98
2007-05-15,21.77
2007-05-16,21.73
2007-05-17,21.83
2007-05-18,21.93
2007-05-21,22.5
2007-05-22,22.99
2007-05-23,23.16
2007-05-24,22.58
2007-05-25,22.53
2007-05-29,21.85
2007-05-30,22.07
2007-05-31,21.9
2007-06-01,21.54
2007-06-04,21.49
2007-06-05,21.4
2007-06-06,22.6
2007-06-07,23.95
2007-06-08,23.45
2007-06-11,21.95
2007-06-12,20.07
2007-06-13,19.43
2007-06-14,19.13
2007-06-15,19.71
2007-06-18,20.0
2007-06-19,19.94
2007-06-20,19.52
2007-06-21,19.99
2007-06-22,19.61
2007-06-25,19.61
2007-06-26,19.54
2007-06-27,20.73
2007-06-28,19.85
2007-06-29,19.41
2007-07-02,19.47
2007-07-03,19.77
2007-07-05,19.8
2007-07-06,20.36
2007-07-09,20.42
2007-07-10,20.12
2007-07-11,20.0
2007-07-12,20.09
2007-07-13,20.13
2007-07-16,20.05
2007-07-17,20.2
2007-07-18,20.13
2007-07-19,19.98
2007-07-20,19.64
2007-07-23,17.21
2007-07-24,16.08
2007-07-25,16.7
2007-07-26,17.8
2007-07-27,17.11
2007-07-30,17.39
2007-07-31,17.24
2007-08-01,17.13
2007-08-02,17.1
2007-08-03,16.56
2007-08-06,16.94
2007-08-07,17.34
2007-08-08,17.84
2007-08-09,17.69
2007-08-10,17.8
2007-08-13,17.29
2007-08-14,17.41
2007-08-15,17.42
2007-08-16,16.96
2007-08-17,17.26
2007-08-20,17.17
2007-08-21,17.3
2007-08-22,17.42
2007-08-23,17.25
2007-08-24,17.78
2007-08-27,17.13
2007-08-28,16.99
2007-08-29,17.46
2007-08-30,17.23
2007-08-31,17.51
2007-09-04,18.13
2007-09-05,17.92
2007-09-06,17.99
2007-09-07,18.04
2007-09-10,17.42
2007-09-11,17.65
2007-09-12,17.36
2007-09-13,17.36
2007-09-14,17.7
2007-09-17,18.41
2007-09-18,19.24
2007-09-19,19.66
2007-09-20,19.51
2007-09-21,19.24
2007-09-24,19.29
2007-09-25,20.95
2007-09-26,21.91
2007-09-27,21.33
2007-09-28,20.74
2007-10-01,21.21
2007-10-02,21.22
2007-10-03,21.06
2007-10-04,21.11
2007-10-05,21.97
2007-10-08,22.24
2007-10-09,22.76
2007-10-10,23.36
2007-10-11,22.86
2007-10-12,23.01
2007-10-15,24.03
2007-10-16,23.99
2007-10-17,24.24
2007-10-18,24.0
2007-10-19,23.33
2007-10-22,22.98
2007-10-23,26.0
2007-10-24,25.18
2007-10-25,25.29
2007-10-26,25.24
2007-10-29,26.38
2007-10-30,26.43
2007-10-31,26.39
2007-11-01,26.3
2007-11-02,26.24
2007-11-05,26.59
2007-11-06,27.25
2007-11-07,26.92
2007-11-08,27.14
2007-11-09,25.25
2007-11-12,24.52
2007-11-13,25.38
2007-11-14,24.81
2007-11-15,24.08
2007-11-16,23.74
2007-11-19,23.2
2007-11-20,22.58
2007-11-21,21.59
2007-11-23,21.59
2007-11-26,21.51
2007-11-27,22.18
2007-11-28,23.03
2007-11-29,23.09
2007-11-30,23.09
2007-12-03,23.75
2007-12-04,23.74
2007-12-05,23.86
2007-12-06,23.83
2007-12-07,23.58
2007-12-10,23.5
2007-12-11,23.3
2007-12-12,23.19
2007-12-13,22.94
2007-12-14,23.45
2007-12-17,23.03
2007-12-18,24.22
2007-12-19,24.82
2007-12-20,27.24
2007-12-21,28.15
2007-12-24,27.85
2007-12-26,28.68
2007-12-27,27.41
2007-12-28,26.87
2007-12-31,26.66
2008-01-02,26.31
2008-01-03,26.07
2008-01-04,24.51
2008-01-07,24.81
2008-01-08,23.37
2008-01-09,22.94
2008-01-10,24.7
2008-01-11,23.46
2008-01-14,22.76
2008-01-15,22.1
2008-01-16,22.1
2008-01-17,21.77
2008-01-18,21.87
2008-01-22,22.37
2008-01-23,23.74
2008-01-24,22.04
2008-01-25,21.83
2008-01-28,22.92
2008-01-29,23.13
2008-01-30,22.9
2008-01-31,25.1
2008-02-01,25.35
2008-02-04,25.84
2008-02-05,25.2
2008-02-06,25.97
2008-02-07,26.76
2008-02-08,26.82
2008-02-11,26.97
2008-02-12,26.94
2008-02-13,27.33
2008-02-14,26.82
2008-02-15,26.52
2008-02-19,26.82
2008-02-20,27.36
2008-02-21,27.75
2008-02-22,27.75
2008-02-25,28.06
2008-02-26,29.0
2008-02-27,32.37
2008-02-28,31.58
2008-02-29,31.47
2008-03-03,30.9
2008-03-04,31.55
2008-03-05,32.18
2008-03-06,30.7
2008-03-07,31.27
2008-03-10,33.29
2008-03-11,33.02
2008-03-12,34.06
2008-03-13,34.21
2008-03-14,33.38
2008-03-17,33.19
2008-03-18,34.94
2008-03-19,35.05
2008-03-20,36.41
2008-03-24,38.0
2008-03-25,37.1
2008-03-26,37.77
2008-03-27,36.37
2008-03-28,35.46
2008-03-31,34.57
2008-04-01,36.63
2008-04-02,36.54
2008-04-03,37.32
2008-04-04,36.21
2008-04-07,35.93
2008-04-08,37.06
2008-04-09,36.3
2008-04-10,36.57
2008-04-11,35.36
2008-04-14,35.77
2008-04-15,36.37
2008-04-16,38.94
2008-04-17,40.73
2008-04-18,38.64
2008-04-21,39.44
2008-04-22,30.01
2008-04-23,31.22
2008-04-24,33.0
2008-04-25,33.88
2008-04-28,32.96
2008-04-29,32.16
2008-04-30,32.0
2008-05-01,31.06
2008-05-02,31.11
2008-05-05,31.03
2008-05-06,30.97
2008-05-07,30.11
2008-05-08,30.15
2008-05-09,30.69
2008-05-12,30.61
2008-05-13,30.68
2008-05-14,30.52
2008-05-15,29.9
2008-05-16,31.67
2008-05-19,31.07
2008-05-20,31.59
2008-05-21,31.58
2008-05-22,31.7
2008-05-23,31.28
2008-05-27,31.93
2008-05-28,31.05
2008-05-29,30.35
2008-05-30,30.38
2008-06-02,30.87
2008-06-03,32.02
2008-06-04,32.33
2008-06-05,33.12
2008-06-06,31.79
2008-06-09,31.06
2008-06-10,30.64
2008-06-11,30.26
2008-06-12,31.05
2008-06-13,32.24
2008-06-16,31.92
2008-06-17,31.35
2008-06-18,30.21
2008-06-19,32.13
2008-06-20,31.41
2008-06-23,29.65
2008-06-24,28.97
2008-06-25,29.57
2008-06-26,28.8
2008-06-27,26.8
2008-06-30,26.1
2008-07-01,27.11
2008-07-02,27.26
2008-07-03,27.33
2008-07-07,28.28
2008-07-08,28.36
2008-07-09,28.67
2008-07-10,27.85
2008-07-11,27.21
2008-07-14,27.88
2008-07-15,27.79
2008-07-16,28.11
2008-07-17,27.73
2008-07-18,27.1
2008-07-21,27.36
2008-07-22,27.28
2008-07-23,27.94
2008-07-24,26.76
2008-07-25,27.83
2008-07-28,28.57
2008-07-29,31.05
2008-07-30,30.59
2008-07-31,30.82
2008-08-01,29.23
2008-08-04,29.89
2008-08-05,29.91
2008-08-06,29.99
2008-08-07,30.5
2008-08-08,31.05
2008-08-11,32.26
2008-08-12,30.83
2008-08-13,31.13
2008-08-14,31.83
2008-08-15,31.28
2008-08-18,30.6
2008-08-19,30.06
2008-08-20,30.52
2008-08-21,29.99
2008-08-22,30.64
2008-08-25,29.95
2008-08-26,30.06
2008-08-27,30.68
2008-08-28,31.15
2008-08-29,30.79
2008-09-02,30.83
2008-09-03,30.91
2008-09-04,29.91
2008-09-05,29.7
2008-09-08,30.15
2008-09-09,28.73
2008-09-10,28.75
2008-09-11,28.8
2008-09-12,29.39
2008-09-15,28.07
2008-09-16,28.45
2008-09-17,28.88
2008-09-18,31.06
2008-09-19,32.0
2008-09-22,31.7
2008-09-23,31.5
2008-09-24,31.74
2008-09-25,32.95
2008-09-26,32.81
2008-09-29,31.74
2008-09-30,30.77
2008-10-01,30.08
2008-10-02,29.21
2008-10-03,29.03
2008-10-06,26.51
2008-10-07,21.89
2008-10-08,22.7
2008-10-09,22.99
2008-10-10,24.0
2008-10-13,25.45
2008-10-14,24.05
2008-10-15,22.64
2008-10-16,23.36
2008-10-17,23.3
2008-10-20,23.67
2008-10-21,20.85
2008-10-22,20.65
2008-10-23,20.79
2008-10-24,18.99
2008-10-27,17.96
2008-10-28,20.5
2008-10-29,21.73
2008-10-30,22.77
2008-10-31,24.71
2008-11-03,23.37
2008-11-04,24.04
2008-11-05,23.02
2008-11-06,21.53
2008-11-07,21.86
2008-11-10,21.54
2008-11-11,22.11
2008-11-12,20.67
2008-11-13,24.26
2008-11-14,22.09
2008-11-17,21.24
2008-11-18,21.38
2008-11-19,20.55
2008-11-20,18.71
2008-11-21,20.04
2008-11-24,22.15
2008-11-25,21.66
2008-11-26,22.94
2008-11-28,22.37
2008-12-01,22.01
2008-12-02,23.12
2008-12-03,23.93
2008-12-04,23.16
2008-12-05,25.32
2008-12-08,25.46
2008-12-09,27.96
2008-12-10,28.39
2008-12-11,28.24
2008-12-12,28.53
2008-12-15,28.46
2008-12-16,28.64
2008-12-17,28.69
2008-12-18,28.21
2008-12-19,27.83
2008-12-22,27.82
2008-12-23,27.09
2008-12-24,27.41
2008-12-26,28.4
2008-12-29,27.85
2008-12-30,28.62
2008-12-31,29.96
2009-01-02,29.91
2009-01-05,31.86
2009-01-06,32.94
2009-01-07,32.68
2009-01-08,33.16
2009-01-09,32.38
2009-01-12,31.15
2009-01-13,31.0
2009-01-14,29.55
2009-01-15,31.7
2009-01-16,31.3
2009-01-20,29.84
2009-01-21,30.73
2009-01-22,30.89
2009-01-23,30.45
2009-01-26,30.1
2009-01-27,35.0
2009-01-28,36.18
2009-01-29,36.88
2009-01-30,36.1
2009-02-02,37.0
2009-02-03,36.82
2009-02-04,36.81
2009-02-05,37.51
2009-02-06,36.94
2009-02-09,37.0
2009-02-10,36.15
2009-02-11,36.16
2009-02-12,37.99
2009-02-13,38.55
2009-02-17,37.25
2009-02-18,37.1
2009-02-19,37.15
2009-02-20,36.85
2009-02-23,35.56
2009-02-24,36.03
2009-02-25,35.85
2009-02-26,35.63
2009-02-27,36.25
2009-03-02,34.35
2009-03-03,36.54
2009-03-04,37.64
2009-03-05,37.88
2009-03-06,38.06
2009-03-09,38.52
2009-03-10,38.47
2009-03-11,37.49
2009-03-12,40.0
2009-03-13,39.34
2009-03-16,38.65
2009-03-17,40.74
2009-03-18,41.49
2009-03-19,41.34
2009-03-20,41.51
2009-03-23,43.25
2009-03-24,43.36
2009-03-25,41.61
2009-03-26,41.59
2009-03-27,39.72
2009-03-30,42.03
2009-03-31,43.13
2009-04-01,42.86
2009-04-02,43.11
2009-04-03,43.05
2009-04-06,44.5
2009-04-07,43.6
2009-04-08,44.21
2009-04-09,46.87
2009-04-13,49.5
2009-04-14,47.86
2009-04-15,46.59
2009-04-16,48.4
2009-04-17,48.84
2009-04-20,49.55
2009-04-21,46.63
2009-04-22,45.69
2009-04-23,45.5
2009-04-24,42.8
2009-04-27,46.35
2009-04-28,46.16
2009-04-29,45.15
2009-04-30,45.6
2009-05-01,44.44
2009-05-04,44.86
2009-05-05,45.1
2009-05-06,42.98
2009-05-07,40.11
2009-05-08,40.31
2009-05-11,39.62
2009-05-12,40.3
2009-05-13,37.75
2009-05-14,37.15
2009-05-15,38.53
2009-05-18,38.72
2009-05-19,39.58
2009-05-20,40.22
2009-05-21,39.18
2009-05-22,38.82
2009-05-26,40.05
2009-05-27,39.03
2009-05-28,38.6
2009-05-29,39.56
2009-06-01,40.97
2009-06-02,41.11
2009-06-03,40.36
2009-06-04,40.68
2009-06-05,39.2
2009-06-08,38.8
2009-06-09,38.98
2009-06-10,37.96
2009-06-11,37.77
2009-06-12,37.87
2009-06-15,38.08
2009-06-16,37.79
2009-06-17,40.44
2009-06-18,41.45
2009-06-19,41.73
2009-06-22,40.55
2009-06-23,39.64
2009-06-24,39.6
2009-06-25,41.07
2009-06-26,40.63
2009-06-29,41.13
2009-06-30,41.33
2009-07-01,40.63
2009-07-02,39.97
2009-07-06,39.77
2009-07-07,38.68
2009-07-08,38.57
2009-07-09,40.02
2009-07-10,40.09
2009-07-13,42.2
2009-07-14,43.26
2009-07-15,44.35
2009-07-16,44.11
2009-07-17,44.1
2009-07-20,44.77
2009-07-21,44.87
2009-07-22,45.27
2009-07-23,46.58
2009-07-24,42.26
2009-07-27,41.72
2009-07-28,42.26
2009-07-29,42.62
2009-07-30,43.54
2009-07-31,43.95
2009-08-03,44.83
2009-08-04,44.1
2009-08-05,44.28
2009-08-06,43.48
2009-08-07,45.03
2009-08-10,45.84
2009-08-11,46.15
2009-08-12,46.23
2009-08-13,46.18
2009-08-14,44.52
2009-08-17,43.19
2009-08-18,43.45
2009-08-19,44.85
2009-08-20,44.99
2009-08-21,45.12
2009-08-24,44.33
2009-08-25,44.46
2009-08-26,43.9
2009-08-27,43.79
2009-08-28,44.17
2009-08-31,43.57
2009-09-01,42.23
2009-09-02,41.72
2009-09-03,40.33
2009-09-04,41.02
2009-09-08,41.5
2009-09-09,43.27
2009-09-10,43.45
2009-09-11,42.67
2009-09-14,43.26
2009-09-15,44.98
2009-09-16,46.73
2009-09-17,46.43
2009-09-18,47.4
2009-09-21,47.57
2009-09-22,47.62
2009-09-23,46.85
2009-09-24,46.63
2009-09-25,46.27
2009-09-28,45.86
2009-09-29,46.19
2009-09-30,46.08
2009-10-01,44.62
2009-10-02,44.76
2009-10-05,45.4
2009-10-06,46.18
2009-10-07,46.22
2009-10-08,45.9
2009-10-09,46.9
2009-10-12,46.05
2009-10-13,46.53
2009-10-14,48.04
2009-10-15,50.25
2009-10-16,49.06
2009-10-19,49.8
2009-10-20,48.96
2009-10-21,47.85
2009-10-22,49.64
2009-10-23,54.69
2009-10-26,55.2
2009-10-27,54.32
2009-10-28,53.68
2009-10-29,55.29
2009-10-30,53.48
2009-11-02,53.79
2009-11-03,53.69
2009-11-04,54.17
2009-11-05,56.34
2009-11-06,55.85
2009-11-09,57.13
2009-11-10,58.48
2009-11-11,59.48
2009-11-12,58.18
2009-11-13,59.27
2009-11-16,59.42
2009-11-17,60.83
2009-11-18,61.16
2009-11-19,60.3
2009-11-20,60.02
2009-11-23,60.42
2009-11-24,59.69
2009-11-25,59.21
2009-11-27,58.01
2009-11-30,58.73
2009-12-01,58.3
2009-12-02,59.05
2009-12-03,58.0
2009-12-04,56.22
2009-12-07,55.96
2009-12-08,55.9
2009-12-09,55.95
2009-12-10,56.73
2009-12-11,55.69
2009-12-14,56.4
2009-12-15,56.82
2009-12-16,55.02
2009-12-17,53.76
2009-12-18,53.14
2009-12-21,53.9
2009-12-22,53.52
2009-12-23,56.85
2009-12-24,57.09
2009-12-28,57.32
2009-12-29,57.02
2009-12-30,55.64
2009-12-31,55.13
2010-01-04,53.47
2010-01-05,51.43
2010-01-06,53.21
2010-01-07,52.35
2010-01-08,53.28
2010-01-11,53.15
2010-01-12,52.36
2010-01-13,53.8
2010-01-14,51.04
2010-01-15,51.04
2010-01-19,51.24
2010-01-20,51.19
2010-01-21,51.19
2010-01-22,50.95
2010-01-25,49.19
2010-01-26,49.86
2010-01-27,50.9
2010-01-28,63.06
2010-01-29,62.27
2010-02-01,60.97
2010-02-02,61.88
2010-02-03,61.97
2010-02-04,60.46
2010-02-05,60.91
2010-02-08,60.96
2010-02-09,62.08
2010-02-10,61.55
2010-02-11,63.39
2010-02-12,63.01
2010-02-16,64.9
2010-02-17,64.53
2010-02-18,66.16
2010-02-19,66.7
2010-02-22,65.11
2010-02-23,64.27
2010-02-24,64.66
2010-02-25,65.55
2010-02-26,66.17
2010-03-01,69.7
2010-03-02,68.9
2010-03-03,67.6
2010-03-04,68.0
2010-03-05,67.64
2010-03-08,68.66
2010-03-09,69.93
2010-03-10,71.21
2010-03-11,71.21
2010-03-12,69.84
2010-03-15,69.57
2010-03-16,70.62
2010-03-17,70.95
2010-03-18,70.6
2010-03-19,70.64
2010-03-22,72.79
2010-03-23,72.98
2010-03-24,72.45
2010-03-25,73.62
2010-03-26,74.27
2010-03-29,74.0
2010-03-30,75.13
2010-03-31,73.74
2010-04-01,75.0
2010-04-05,80.01
2010-04-06,83.32
2010-04-07,79.57
2010-04-08,81.81
2010-04-09,82.29
2010-04-12,83.17
2010-04-13,86.52
2010-04-14,87.52
2010-04-15,86.84
2010-04-16,85.28
2010-04-19,84.78
2010-04-20,87.18
2010-04-21,87.14
2010-04-22,100.23
2010-04-23,99.77
2010-04-26,107.96
2010-04-27,102.22
2010-04-28,99.54
2010-04-29,103.11
2010-04-30,98.88
2010-05-03,101.92
2010-05-04,99.31
2010-05-05,98.39
2010-05-06,97.4
2010-05-07,91.33
2010-05-10,97.52
2010-05-11,99.96
2010-05-12,107.88
2010-05-13,109.97
2010-05-14,100.61
2010-05-17,106.48
2010-05-18,101.92
2010-05-19,100.45
2010-05-20,94.73
2010-05-21,99.64
2010-05-24,101.46
2010-05-25,104.72
2010-05-26,104.91
2010-05-27,108.81
2010-05-28,111.14
2010-06-01,107.11
2010-06-02,111.0
2010-06-03,111.83
2010-06-04,109.63
2010-06-07,109.19
2010-06-08,110.31
2010-06-09,115.37
2010-06-10,118.77
2010-06-11,120.72
2010-06-14,126.71
2010-06-15,123.43
2010-06-16,124.54
2010-06-17,125.74
2010-06-18,126.27
2010-06-21,118.94
2010-06-22,116.42
2010-06-23,117.44
2010-06-24,115.16
2010-06-25,118.25
2010-06-28,117.45
2010-06-29,112.65
2010-06-30,108.67
2010-07-01,109.74
2010-07-02,107.08
2010-07-06,107.36
2010-07-07,118.02
2010-07-08,117.01
2010-07-09,117.52
2010-07-12,119.44
2010-07-13,121.0
2010-07-14,122.83
2010-07-15,120.96
2010-07-16,118.31
2010-07-19,118.97
2010-07-20,120.6
2010-07-21,119.53
2010-07-22,103.61
2010-07-23,107.6
2010-07-26,102.7
2010-07-27,104.05
2010-07-28,100.31
2010-07-29,98.15
2010-07-30,102.51
2010-08-02,101.9
2010-08-03,104.48
2010-08-04,108.11
2010-08-05,110.54
2010-08-06,118.37
2010-08-09,116.88
2010-08-10,125.04
2010-08-11,126.38
2010-08-12,133.21
2010-08-13,132.52
2010-08-16,137.23
2010-08-17,132.8
2010-08-18,125.76
2010-08-19,128.34
2010-08-20,130.03
2010-08-23,126.8
2010-08-24,121.28
2010-08-25,124.21
2010-08-26,126.13
2010-08-27,126.2
2010-08-30,123.27
2010-08-31,125.38
2010-09-01,134.98
2010-09-02,137.98
2010-09-03,138.83
2010-09-07,141.83
2010-09-08,145.99
2010-09-09,145.71
2010-09-10,146.0
2010-09-13,147.84
2010-09-14,146.78
2010-09-15,143.41
2010-09-16,140.49
2010-09-17,140.34
2010-09-20,142.88
2010-09-21,147.04
2010-09-22,156.64
2010-09-23,160.51
2010-09-24,162.03
2010-09-27,164.94
2010-09-28,161.75
2010-09-29,170.42
2010-09-30,161.89
2010-10-01,154.77
2010-10-04,156.14
2010-10-05,155.79
2010-10-06,150.04
2010-10-07,151.4
2010-10-08,149.77
2010-10-11,153.6
2010-10-12,155.39
2010-10-13,154.6
2010-10-14,152.9
2010-10-15,155.75
2010-10-18,152.93
2010-10-19,149.06
2010-10-20,153.11
2010-10-21,172.7
2010-10-22,167.93
2010-10-25,167.05
2010-10-26,177.66
2010-10-27,178.44
2010-10-28,175.87
2010-10-29,173.23
2010-11-01,167.68
2010-11-02,171.07
2010-11-03,171.22
2010-11-04,167.88
2010-11-05,168.02
2010-11-08,169.19
2010-11-09,170.51
2010-11-10,177.08
2010-11-11,175.22
2010-11-12,173.32
2010-11-15,167.99
2010-11-16,165.29
2010-11-17,166.55
2010-11-18,168.59
2010-11-19,173.0
2010-11-22,188.62
2010-11-23,187.83
2010-11-24,188.67
2010-11-26,191.97
2010-11-29,199.12
2010-11-30,205.89
2010-12-01,199.91
2010-12-02,193.56
2010-12-03,185.66
2010-12-06,193.29
2010-12-07,189.58
2010-12-08,188.08
2010-12-09,191.07
2010-12-10,194.75
2010-12-13,183.82
2010-12-14,178.4
2010-12-15,178.74
2010-12-16,181.83
2010-12-17,182.83
2010-12-20,177.77
2010-12-21,186.21
2010-12-22,185.38
2010-12-23,184.36
2010-12-27,179.93
2010-12-28,183.38
2010-12-29,180.29
2010-12-30,179.76
2010-12-31,175.7
2011-01-03,178.42
2011-01-04,180.82
2011-01-05,180.08
2011-01-06,177.88
2011-01-07,179.25
2011-01-10,187.48
2011-01-11,186.72
2011-01-12,188.95
2011-01-13,191.36
2011-01-14,191.36
2011-01-18,193.66
2011-01-19,191.03
2011-01-20,185.03
2011-01-21,182.11
2011-01-24,184.23
2011-01-25,186.63
2011-01-26,182.71
2011-01-27,210.82
2011-01-28,217.82
2011-01-31,214.39
2011-02-01,212.78
2011-02-02,211.69
2011-02-03,211.35
2011-02-04,220.06
2011-02-07,217.96
2011-02-08,217.6
2011-02-09,222.34
2011-02-10,222.92
2011-02-11,230.76
2011-02-14,247.29
2011-02-15,240.6
2011-02-16,237.7
2011-02-17,235.48
2011-02-18,235.54
2011-02-22,221.65
2011-02-23,211.42
2011-02-24,215.29
2011-02-25,212.44
2011-02-28,206.43
2011-03-01,204.77
2011-03-02,204.25
2011-03-03,203.18
2011-03-04,210.53
2011-03-07,207.28
2011-03-08,195.06
2011-03-09,193.01
2011-03-10,199.79
2011-03-11,204.42
2011-03-14,201.33
2011-03-15,217.13
2011-03-16,213.8
2011-03-17,213.79
2011-03-18,209.35
2011-03-21,212.77
2011-03-22,221.39
2011-03-23,228.76
2011-03-24,229.1
2011-03-25,229.85
2011-03-28,237.44
2011-03-29,237.27
2011-03-30,238.06
2011-03-31,237.6
2011-04-01,242.0
2011-04-04,244.6
2011-04-05,244.28
2011-04-06,239.77
2011-04-07,233.97
2011-04-08,234.8
2011-04-11,228.18
2011-04-12,233.69
2011-04-13,238.55
2011-04-14,237.52
2011-04-15,235.4
2011-04-18,233.21
2011-04-19,241.41
2011-04-20,244.34
2011-04-21,252.07
2011-04-25,251.21
2011-04-26,228.61
2011-04-27,235.86
2011-04-28,234.64
2011-04-29,233.15
2011-05-02,237.3
2011-05-03,231.18
2011-05-04,229.45
2011-05-05,230.48
2011-05-06,229.35
2011-05-09,236.35
2011-05-10,237.29
2011-05-11,240.63
2011-05-12,245.7
2011-05-13,246.6
2011-05-16,236.92
2011-05-17,236.88
2011-05-18,242.41
2011-05-19,242.7
2011-05-20,245.87
2011-05-23,247.56
2011-05-24,247.65
2011-05-25,259.3
2011-05-26,263.59
2011-05-27,264.2
2011-05-31,270.36
2011-06-01,267.1
2011-06-02,271.58
2011-06-03,273.64
2011-06-06,262.56
2011-06-07,263.42
2011-06-08,262.21
2011-06-09,262.84
2011-06-10,258.6
2011-06-13,257.2
2011-06-14,261.26
2011-06-15,257.12
2011-06-16,249.05
2011-06-17,245.61
2011-06-20,245.32
2011-06-21,253.95
2011-06-22,248.5
2011-06-23,256.16
2011-06-24,255.94
2011-06-27,259.96
2011-06-28,265.0
2011-06-29,264.85
2011-06-30,262.88
2011-07-01,267.91
2011-07-05,289.71
2011-07-06,291.06
2011-07-07,292.37
2011-07-08,295.04
2011-07-11,290.48
2011-07-12,291.0
2011-07-13,298.6
2011-07-14,286.52
2011-07-15,286.91
2011-07-18,279.13
2011-07-19,286.96
2011-07-20,281.37
2011-07-21,275.7
2011-07-22,276.53
2011-07-25,281.78
2011-07-26,266.87
2011-07-27,269.33
2011-07-28,266.42
2011-07-29,265.96
2011-08-01,263.44
2011-08-02,257.23
2011-08-03,260.23
2011-08-04,245.99
2011-08-05,241.4
2011-08-08,226.75
2011-08-09,237.67
2011-08-10,232.23
2011-08-11,243.02
2011-08-12,244.07
2011-08-15,246.13
2011-08-16,238.97
2011-08-17,232.15
2011-08-18,217.24
2011-08-19,205.25
2011-08-22,204.88
2011-08-23,219.53
2011-08-24,215.54
2011-08-25,215.84
2011-08-26,221.74
2011-08-29,225.08
2011-08-30,236.66
2011-08-31,234.5
2011-09-01,232.99
2011-09-02,212.95
2011-09-06,218.6
2011-09-07,215.8
2011-09-08,211.24
2011-09-09,204.01
2011-09-12,209.55
2011-09-13,208.75
2011-09-14,208.87
2011-09-15,169.3
2011-09-16,155.14
2011-09-19,143.28
2011-09-20,129.9
2011-09-21,129.09
2011-09-22,128.91
2011-09-23,129.35
2011-09-26,132.18
2011-09-27,127.21
2011-09-28,127.13
2011-09-29,113.25
2011-09-30,113.34
2011-10-03,113.38
2011-10-04,115.0
2011-10-05,119.72
2011-10-06,123.25
2011-10-07,117.13
2011-10-10,111.54
2011-10-11,108.48
2011-10-12,113.71
2011-10-13,117.13
2011-10-14,115.96
2011-10-17,117.15
2011-10-18,111.69
2011-10-19,108.86
2011-10-20,111.52
2011-10-21,117.07
2011-10-24,119.0
2011-10-25,77.25
2011-10-26,79.41
2011-10-27,80.76
2011-10-28,84.1
2011-10-31,82.14
2011-11-01,79.97
2011-11-02,83.43
2011-11-03,92.27
2011-11-04,90.01
2011-11-07,90.9
2011-11-08,90.45
2011-11-09,88.14
2011-11-10,85.1
2011-11-11,87.55
2011-11-14,85.71
2011-11-15,86.21
2011-11-16,81.11
2011-11-17,76.27
2011-11-18,78.04
2011-11-21,74.63
2011-11-22,70.41
2011-11-23,68.56
2011-11-25,63.66
2011-11-28,69.94
2011-11-29,67.6
2011-11-30,64.45
2011-12-01,67.18
2011-12-02,66.46
2011-12-05,70.09
2011-12-06,68.1
2011-12-07,72.05
2011-12-08,69.53
2011-12-09,71.01
2011-12-12,75.33
2011-12-13,72.13
2011-12-14,71.07
2011-12-15,69.7
2011-12-16,69.86
2011-12-19,67.15
2011-12-20,71.35
2011-12-21,70.91
2011-12-22,73.85
2011-12-23,72.56
2011-12-27,70.69
2011-12-28,69.07
2011-12-29,69.29
2011-12-30,69.38
2012-01-03,72.3
2012-01-04,80.49
2012-01-05,79.3
2012-01-06,86.32
2012-01-09,98.19
2012-01-10,95.8
2012-01-11,92.02
2012-01-12,92.03
2012-01-13,94.47
2012-01-17,94.73
2012-01-18,98.48
2012-01-19,103.42
2012-01-20,100.25
2012-01-23,93.95
2012-01-24,92.71
2012-01-25,95.05
2012-01-26,115.96
2012-01-27,123.83
2012-01-30,125.59
2012-01-31,120.12
2012-02-01,123.04
2012-02-02,124.0
2012-02-03,126.33
2012-02-06,129.19
2012-02-07,127.86
2012-02-08,123.96
2012-02-09,124.98
2012-02-10,123.65
2012-02-13,118.5
2012-02-14,123.0
2012-02-15,121.9
2012-02-16,122.17
2012-02-17,121.79
2012-02-21,117.23
2012-02-22,112.36
2012-02-23,112.87
2012-02-24,111.72
2012-02-27,109.6
2012-02-28,113.38
2012-02-29,110.64
2012-03-01,112.72
2012-03-02,115.01
2012-03-05,110.84
2012-03-06,107.22
2012-03-07,105.24
2012-03-08,108.18
2012-03-09,109.16
2012-03-12,106.11
2012-03-13,106.26
2012-03-14,105.21
2012-03-15,110.13
2012-03-16,109.95
2012-03-19,114.14
2012-03-20,115.03
2012-03-21,120.16
2012-03-22,118.7
2012-03-23,120.28
2012-03-26,121.98
2012-03-27,120.68
2012-03-28,118.76
2012-03-29,115.09
2012-03-30,115.03
2012-04-02,113.9
2012-04-03,112.91
2012-04-04,110.27
2012-04-05,110.15
2012-04-09,106.7
2012-04-10,101.88
2012-04-11,99.69
2012-04-12,104.28
2012-04-13,104.22
2012-04-16,101.06
2012-04-17,107.07
2012-04-18,107.0
2012-04-19,107.21
2012-04-20,106.13
2012-04-23,101.99
2012-04-24,87.71
2012-04-25,86.34
2012-04-26,84.91
2012-04-27,83.74
2012-04-30,80.19
2012-05-01,81.35
2012-05-02,82.28
2012-05-03,76.0
2012-05-04,73.11
2012-05-07,73.51
2012-05-08,72.72
2012-05-09,74.35
2012-05-10,72.35
2012-05-11,77.46
2012-05-14,77.01
2012-05-15,77.54
2012-05-16,74.3
2012-05-17,72.13
2012-05-18,69.98
2012-05-21,71.7
2012-05-22,67.63
2012-05-23,71.85
2012-05-24,70.11
2012-05-25,70.2
2012-05-29,69.5
2012-05-30,67.35
2012-05-31,63.44
2012-06-01,63.04
2012-06-04,64.96
2012-06-05,64.88
2012-06-06,65.85
2012-06-07,64.75
2012-06-08,65.63
2012-06-11,63.0
2012-06-12,62.95
2012-06-13,62.84
2012-06-14,62.65
2012-06-15,65.81
2012-06-18,66.72
2012-06-19,69.85
2012-06-20,68.18
2012-06-21,65.87
2012-06-22,67.77
2012-06-25,67.06
2012-06-26,66.83
2012-06-27,66.47
2012-06-28,67.36
2012-06-29,68.32
2012-07-02,67.9
2012-07-03,72.0
2012-07-05,81.82
2012-07-06,81.88
2012-07-09,82.96
2012-07-10,80.17
2012-07-11,81.6
2012-07-12,84.98
2012-07-13,84.85
2012-07-16,82.95
2012-07-17,81.72
2012-07-18,81.27
2012-07-19,83.14
2012-07-20,81.75
2012-07-23,79.9
2012-07-24,80.38
2012-07-25,60.14
2012-07-26,57.01
2012-07-27,58.77
2012-07-30,57.67
2012-07-31,56.97
2012-08-01,54.5
2012-08-02,53.84
2012-08-03,53.89
2012-08-06,56.72
2012-08-07,57.95
2012-08-08,57.73
2012-08-09,57.86
2012-08-10,59.93
2012-08-13,59.82
2012-08-14,61.81
2012-08-15,63.24
2012-08-16,64.21
2012-08-17,63.63
2012-08-20,64.21
2012-08-21,65.56
2012-08-22,65.4
2012-08-23,64.01
2012-08-24,63.15
2012-08-27,62.38
2012-08-28,62.99
2012-08-29,63.44
2012-08-30,60.52
2012-08-31,59.81
2012-09-04,55.88
2012-09-05,54.99
2012-09-06,56.59
2012-09-07,56.6
2012-09-10,55.91
2012-09-11,57.17
2012-09-12,57.2
2012-09-13,57.98
2012-09-14,60.49
2012-09-17,56.98
2012-09-18,56.03
2012-09-19,57.05
2012-09-20,58.72
2012-09-21,57.74
2012-09-24,56.37
2012-09-25,53.8
2012-09-26,55.14
2012-09-27,55.53
2012-09-28,54.41
2012-10-01,56.04
2012-10-02,56.46
2012-10-03,62.59
2012-10-04,66.71
2012-10-05,66.5
2012-10-08,73.55
2012-10-09,65.5
2012-10-10,65.51
2012-10-11,65.91
2012-10-12,64.4
2012-10-15,64.78
2012-10-16,66.06
2012-10-17,68.53
2012-10-18,67.4
2012-10-19,65.03
2012-10-22,67.85
2012-10-23,68.01
2012-10-24,60.14
2012-10-25,61.51
2012-10-26,69.55
2012-10-31,79.19
2012-11-01,77.82
2012-11-02,76.85
2012-11-05,78.25
2012-11-06,76.45
2012-11-07,77.72
2012-11-08,76.04
2012-11-09,78.01
2012-11-12,78.2
2012-11-13,79.67
2012-11-14,79.79
2012-11-15,81.46
2012-11-16,80.9
2012-11-19,81.38
2012-11-20,82.37
2012-11-21,82.97
2012-11-23,82.95
2012-11-26,82.05
2012-11-27,83.17
2012-11-28,82.3
2012-11-29,81.39
2012-11-30,81.58
2012-12-03,75.66
2012-12-04,86.85
2012-12-05,83.36
2012-12-06,86.34
2012-12-07,86.01
2012-12-10,84.79
2012-12-11,86.02
2012-12-12,90.82
2012-12-13,92.54
2012-12-14,93.33
2012-12-17,94.63
2012-12-18,95.63
2012-12-19,94.09
2012-12-20,93.59
2012-12-21,91.42
2012-12-24,90.43
2012-12-26,90.69
2012-12-27,90.5
2012-12-28,89.41
2012-12-31,92.6
2013-01-02,91.88
2013-01-03,96.53
2013-01-04,95.88
2013-01-07,99.14
2013-01-08,97.18
2013-01-09,95.79
2013-01-10,97.92
2013-01-11,101.17
2013-01-14,103.53
2013-01-15,101.65
2013-01-16,97.41
2013-01-17,97.71
2013-01-18,99.17
2013-01-22,97.75
2013-01-23,103.27
2013-01-24,146.92
2013-01-25,169.66
2013-01-28,162.046
2013-01-29,169.29
2013-01-30,167.69
2013-01-31,165.55
2013-02-01,164.87
2013-02-04,174.81
2013-02-05,174.36
2013-02-06,184.485
2013-02-07,182.0
2013-02-08,181.05
2013-02-11,177.95
2013-02-12,177.82
2013-02-13,186.29
2013-02-14,187.36
2013-02-15,189.779
2013-02-19,196.64
2013-02-20,187.07
2013-02-21,186.88
2013-02-22,179.64
2013-02-25,179.3
2013-02-26,184.25
2013-02-27,184.383
2013-02-28,188.22
2013-03-01,189.27
2013-03-04,181.11
2013-03-05,181.78
2013-03-06,182.87
2013-03-07,181.47
2013-03-08,184.72
2013-03-11,180.36
2013-03-12,182.09
2013-03-13,192.22
2013-03-14,188.33
2013-03-15,184.94
2013-03-18,185.62
2013-03-19,181.43
2013-03-20,182.97
2013-03-21,182.02
2013-03-22,180.97
2013-03-25,180.91
2013-03-26,190.45
2013-03-27,190.11
2013-03-28,189.25
2013-04-01,182.17
2013-04-02,176.46
2013-04-03,169.72
2013-04-04,166.56
2013-04-05,164.64
2013-04-08,163.12
2013-04-09,169.45
2013-04-10,165.85
2013-04-11,172.96
2013-04-12,173.23
2013-04-15,176.93
2013-04-16,175.92
2013-04-17,169.59
2013-04-18,163.89
2013-04-19,163.33
2013-04-22,174.18
2013-04-23,217.08
2013-04-24,216.6
2013-04-25,213.65
2013-04-26,216.05
2013-04-29,215.03
2013-04-30,216.19
2013-05-01,212.84
2013-05-02,214.42
2013-05-03,213.37
2013-05-06,210.38
2013-05-07,206.1
2013-05-08,208.67
2013-05-09,216.17
2013-05-10,217.63
2013-05-13,229.29
2013-05-14,234.06
2013-05-15,243.19
2013-05-16,237.02
2013-05-17,239.34
2013-05-20,239.43
2013-05-21,237.07
2013-05-22,228.73
2013-05-23,226.06
2013-05-24,228.62
2013-05-28,214.445
2013-05-29,215.17
2013-05-30,222.65
2013-05-31,226.55
2013-06-03,221.9
2013-06-04,225.35
2013-06-05,223.04
2013-06-06,217.54
2013-06-07,220.25
2013-06-10,220.86
2013-06-11,214.56
2013-06-12,207.51
2013-06-13,215.34
2013-06-14,213.99
2013-06-17,229.09
2013-06-18,228.67
2013-06-19,232.16
2013-06-20,223.87
2013-06-21,216.93
2013-06-24,215.8
2013-06-25,212.89
2013-06-26,212.1
2013-06-27,215.06
2013-06-28,211.63
2013-07-01,224.08
2013-07-02,221.37
2013-07-03,221.0
2013-07-05,225.05
2013-07-08,233.07
2013-07-09,247.21
2013-07-10,243.39
2013-07-11,244.41
2013-07-12,256.98
2013-07-15,257.81
2013-07-16,260.33
2013-07-17,268.09
2013-07-18,266.61
2013-07-19,264.78
2013-07-22,262.17
2013-07-23,250.29
2013-07-24,241.28
2013-07-25,246.41
2013-07-26,246.14
2013-07-29,244.67
2013-07-30,243.6
2013-07-31,244.16
2013-08-01,248.97
2013-08-02,246.08
2013-08-05,253.56
2013-08-06,256.05
2013-08-07,249.07
2013-08-08,250.43
2013-08-09,252.37
