date,close_price
1998-01-02,11.875
1998-01-05,11.315
1998-01-06,10.405
1998-01-07,10.845
1998-01-08,10.53
1998-01-09,10.405
1998-01-12,9.845
1998-01-13,9.875
1998-01-14,10.25
1998-01-15,10.47
1998-01-16,11.125
1998-01-20,11.565
1998-01-21,11.5
1998-01-22,10.72
1998-01-23,10.405
1998-01-26,10.47
1998-01-27,10.155
1998-01-28,10.655
1998-01-29,11.19
1998-01-30,11.25
1998-02-02,11.19
1998-02-03,10.94
1998-02-04,10.905
1998-02-05,10.565
1998-02-06,11.315
1998-02-09,12.28
1998-02-10,11.845
1998-02-11,11.815
1998-02-12,11.875
1998-02-13,11.97
1998-02-17,11.625
1998-02-18,11.565
1998-02-19,11.69
1998-02-20,11.565
1998-02-23,11.565
1998-02-24,11.625
1998-02-25,11.565
1998-02-26,11.97
1998-02-27,12.03
1998-03-02,12.22
1998-03-03,12.25
1998-03-04,12.03
1998-03-05,11.53
1998-03-06,11.595
1998-03-09,11.72
1998-03-10,11.72
1998-03-11,11.375
1998-03-12,11.25
1998-03-13,11.25
1998-03-16,11.5
1998-03-17,11.315
1998-03-18,11.5
1998-03-19,12.03
1998-03-20,12.405
1998-03-23,13.25
1998-03-24,12.815
1998-03-25,12.655
1998-03-26,12.815
1998-03-27,12.565
1998-03-30,12.5
1998-03-31,13.03
1998-04-01,12.97
1998-04-02,12.905
1998-04-03,13.0
1998-04-06,12.905
1998-04-07,12.72
1998-04-08,12.875
1998-04-09,12.875
1998-04-13,12.69
1998-04-14,12.78
1998-04-15,12.625
1998-04-16,12.47
1998-04-17,12.595
1998-04-20,12.47
1998-04-21,12.405
1998-04-22,12.315
1998-04-23,12.0
1998-04-24,12.095
1998-04-27,11.595
1998-04-28,11.69
1998-04-29,12.0
1998-04-30,12.155
1998-05-01,12.155
1998-05-04,12.28
1998-05-05,12.28
1998-05-06,12.25
1998-05-07,12.25
1998-05-08,12.28
1998-05-11,12.47
1998-05-12,12.095
1998-05-13,11.94
1998-05-14,11.75
1998-05-15,11.595
1998-05-18,11.22
1998-05-19,11.315
1998-05-20,11.125
1998-05-21,10.94
1998-05-22,10.72
1998-05-26,10.815
1998-05-27,10.875
1998-05-28,11.19
1998-05-29,11.19
1998-06-01,10.815
1998-06-02,10.47
1998-06-03,10.0
1998-06-04,10.03
1998-06-05,10.5
1998-06-08,10.03
1998-06-09,9.94
1998-06-10,9.595
1998-06-11,9.405
1998-06-12,9.315
1998-06-15,9.03
1998-06-16,9.655
1998-06-17,9.875
1998-06-18,9.405
1998-06-19,9.75
1998-06-22,10.155
1998-06-23,10.625
1998-06-24,11.065
1998-06-25,11.22
1998-06-26,11.375
1998-06-29,11.375
1998-06-30,12.19
1998-07-01,11.78
1998-07-02,11.595
1998-07-06,11.53
1998-07-07,11.405
1998-07-08,11.655
1998-07-09,11.53
1998-07-10,11.5
1998-07-13,11.125
1998-07-14,10.875
1998-07-15,10.875
1998-07-16,11.0
1998-07-17,10.78
1998-07-20,10.72
1998-07-21,10.815
1998-07-22,10.345
1998-07-23,9.905
1998-07-24,9.815
1998-07-27,9.44
1998-07-28,9.78
1998-07-29,9.815
1998-07-30,9.97
1998-07-31,9.875
1998-08-03,9.655
1998-08-04,9.625
1998-08-05,9.44
1998-08-06,9.44
1998-08-07,9.69
1998-08-10,9.315
1998-08-11,9.03
1998-08-12,9.03
1998-08-13,8.845
1998-08-14,8.97
1998-08-17,8.845
1998-08-18,8.815
1998-08-19,8.845
1998-08-20,8.875
1998-08-21,8.78
1998-08-24,9.0
1998-08-25,9.0
1998-08-26,8.78
1998-08-27,8.25
1998-08-28,8.19
1998-08-31,7.845
1998-09-01,8.19
1998-09-02,8.595
1998-09-03,9.095
1998-09-04,9.565
1998-09-08,10.03
1998-09-09,9.78
1998-09-10,10.845
1998-09-11,11.69
1998-09-14,11.625
1998-09-15,10.565
1998-09-16,10.5
1998-09-17,10.22
1998-09-18,10.375
1998-09-21,10.22
1998-09-22,10.375
1998-09-23,10.655
1998-09-24,10.815
1998-09-25,11.065
1998-09-28,11.095
1998-09-29,11.125
1998-09-30,11.25
1998-10-01,10.97
1998-10-02,11.19
1998-10-05,11.565
1998-10-06,11.69
1998-10-07,11.22
1998-10-08,10.875
1998-10-09,10.97
1998-10-12,10.875
1998-10-13,10.845
1998-10-14,11.0
1998-10-15,11.315
1998-10-16,11.5
1998-10-19,12.095
1998-10-20,11.75
1998-10-21,11.28
1998-10-22,11.53
1998-10-23,11.845
1998-10-26,12.625
1998-10-27,13.22
1998-10-28,12.405
1998-10-29,12.03
1998-10-30,12.19
1998-11-02,12.595
1998-11-03,12.53
1998-11-04,12.345
1998-11-05,12.155
1998-11-06,12.125
1998-11-09,12.0
1998-11-10,11.315
1998-11-11,10.94
1998-11-12,10.5
1998-11-13,10.125
1998-11-16,10.155
1998-11-17,10.565
1998-11-18,10.22
1998-11-19,10.155
1998-11-20,10.405
1998-11-23,10.25
1998-11-24,10.69
1998-11-25,10.405
1998-11-27,10.405
1998-11-30,9.94
1998-12-01,9.0
1998-12-02,8.905
1998-12-03,8.5
1998-12-04,8.815
1998-12-07,9.25
1998-12-08,9.69
1998-12-09,9.815
1998-12-10,9.69
1998-12-11,9.94
1998-12-14,9.875
1998-12-15,9.69
1998-12-16,9.72
1998-12-17,9.565
1998-12-18,9.97
1998-12-21,10.47
1998-12-22,10.22
1998-12-23,11.0
1998-12-24,10.94
1998-12-28,10.625
1998-12-29,10.47
1998-12-30,10.345
1998-12-31,10.595
1999-01-04,10.815
1999-01-05,10.97
1999-01-06,10.875
1999-01-07,10.69
1999-01-08,10.875
1999-01-11,10.69
1999-01-12,10.315
1999-01-13,10.25
1999-01-14,9.815
1999-01-15,9.69
1999-01-19,9.69
1999-01-20,9.44
1999-01-21,9.315
1999-01-22,9.095
1999-01-25,9.25
1999-01-26,9.03
1999-01-27,8.875
1999-01-28,9.095
1999-01-29,9.315
1999-02-01,9.47
1999-02-02,9.155
1999-02-03,9.03
1999-02-04,9.0
1999-02-05,9.405
1999-02-08,9.5
1999-02-09,9.315
1999-02-10,9.315
1999-02-11,9.315
1999-02-12,9.315
1999-02-16,8.5
1999-02-17,8.125
1999-02-18,7.75
1999-02-19,7.815
1999-02-22,8.19
1999-02-23,7.905
1999-02-24,7.75
1999-02-25,8.125
1999-02-26,8.25
1999-03-01,8.405
1999-03-02,8.565
1999-03-03,8.655
1999-03-04,9.095
1999-03-05,9.25
1999-03-08,9.345
1999-03-09,9.815
1999-03-10,10.565
1999-03-11,10.97
1999-03-12,11.375
1999-03-15,11.065
1999-03-16,10.72
1999-03-17,11.125
1999-03-18,11.405
1999-03-19,11.315
1999-03-22,11.0
1999-03-23,10.875
1999-03-24,11.25
1999-03-25,11.28
1999-03-26,11.315
1999-03-29,11.815
1999-03-30,11.44
1999-03-31,11.315
1999-04-01,11.155
1999-04-05,11.345
1999-04-06,11.095
1999-04-07,11.125
1999-04-08,11.25
1999-04-09,11.44
1999-04-12,11.97
1999-04-13,11.78
1999-04-14,11.69
1999-04-15,12.25
1999-04-16,12.345
1999-04-19,12.75
1999-04-20,12.405
1999-04-21,12.625
1999-04-22,12.75
1999-04-23,12.47
1999-04-26,12.5
1999-04-27,13.345
1999-04-28,13.25
1999-04-29,13.375
1999-04-30,13.5
1999-05-03,12.875
1999-05-04,13.125
1999-05-05,12.625
1999-05-06,12.72
1999-05-07,12.655
1999-05-10,13.0
1999-05-11,12.565
1999-05-12,12.0
1999-05-13,12.875
1999-05-14,12.625
1999-05-17,12.28
1999-05-18,12.03
1999-05-19,12.03
1999-05-20,12.125
1999-05-21,12.53
1999-05-24,12.47
1999-05-25,12.405
1999-05-26,12.75
1999-05-27,12.5
1999-05-28,12.69
1999-06-01,12.625
1999-06-02,12.815
1999-06-03,13.345
1999-06-04,13.375
1999-06-07,13.44
1999-06-08,13.47
1999-06-09,13.47
1999-06-10,13.47
1999-06-11,13.375
1999-06-14,12.97
1999-06-15,12.78
1999-06-16,13.0
1999-06-17,13.19
1999-06-18,13.095
1999-06-21,12.625
1999-06-22,12.815
1999-06-23,13.065
1999-06-24,12.845
1999-06-25,12.78
1999-06-28,13.095
1999-06-29,13.28
1999-06-30,14.19
1999-07-01,14.47
1999-07-02,14.19
1999-07-06,14.69
1999-07-07,14.565
1999-07-08,14.47
1999-07-09,14.345
1999-07-12,14.565
1999-07-13,15.0
1999-07-14,14.94
1999-07-15,14.875
1999-07-16,14.94
1999-07-19,14.47
1999-07-20,14.5
1999-07-21,14.03
1999-07-22,14.315
1999-07-23,14.47
1999-07-26,14.25
1999-07-27,14.25
1999-07-28,13.905
1999-07-29,14.19
1999-07-30,14.5
1999-08-02,13.905
1999-08-03,14.065
1999-08-04,14.315
1999-08-05,14.565
1999-08-06,14.905
1999-08-09,14.625
1999-08-10,15.0
1999-08-11,14.97
1999-08-12,15.22
1999-08-13,15.375
1999-08-16,15.22
1999-08-17,15.0
1999-08-18,15.345
1999-08-19,15.5
1999-08-20,15.595
1999-08-23,15.94
1999-08-24,15.845
1999-08-25,15.905
1999-08-26,15.375
1999-08-27,14.94
1999-08-30,14.815
1999-08-31,15.19
1999-09-01,16.03
1999-09-02,15.69
1999-09-03,15.405
1999-09-07,16.47
1999-09-08,16.28
1999-09-09,16.595
1999-09-10,17.375
1999-09-13,17.095
1999-09-14,16.44
1999-09-15,16.315
1999-09-16,16.03
1999-09-17,15.905
1999-09-20,15.315
1999-09-21,14.875
1999-09-22,14.5
1999-09-23,14.44
1999-09-24,14.25
1999-09-27,14.69
1999-09-28,15.03
1999-09-29,15.75
1999-09-30,16.22
1999-10-01,15.875
1999-10-04,15.69
1999-10-05,15.44
1999-10-06,15.125
1999-10-07,15.0
1999-10-08,14.44
1999-10-11,14.47
1999-10-12,14.47
1999-10-13,14.595
1999-10-14,14.5
1999-10-15,14.25
1999-10-18,13.75
1999-10-19,14.19
1999-10-20,14.22
1999-10-21,14.315
1999-10-22,14.53
1999-10-25,13.94
1999-10-26,13.78
1999-10-27,14.19
1999-10-28,14.72
1999-10-29,14.75
1999-11-01,14.875
1999-11-02,14.815
1999-11-03,14.5
1999-11-04,14.5
1999-11-05,14.375
1999-11-08,14.125
1999-11-09,14.345
1999-11-10,14.595
1999-11-11,14.78
1999-11-12,14.565
1999-11-15,15.125
1999-11-16,15.065
1999-11-17,15.405
1999-11-18,15.815
1999-11-19,14.845
1999-11-22,14.5
1999-11-23,13.595
1999-11-24,13.0
1999-11-26,13.065
1999-11-29,12.815
1999-11-30,12.845
1999-12-01,12.72
1999-12-02,12.78
1999-12-03,12.345
1999-12-06,12.125
1999-12-07,11.595
1999-12-08,11.5
1999-12-09,11.53
1999-12-10,11.345
1999-12-13,11.345
1999-12-14,11.19
1999-12-15,11.72
1999-12-16,12.125
1999-12-17,12.065
1999-12-20,11.75
1999-12-21,12.155
1999-12-22,11.815
1999-12-23,12.19
1999-12-27,12.405
1999-12-28,13.19
1999-12-29,13.44
1999-12-30,13.19
1999-12-31,13.375
2000-01-03,12.315
2000-01-04,12.72
2000-01-05,13.0
2000-01-06,13.065
2000-01-07,13.94
2000-01-10,13.72
2000-01-11,13.565
2000-01-12,13.19
2000-01-13,13.53
2000-01-14,13.845
2000-01-18,15.25
2000-01-19,14.94
2000-01-20,14.625
2000-01-21,15.155
2000-01-24,15.5
2000-01-25,15.28
2000-01-26,14.905
2000-01-27,14.19
2000-01-28,13.97
2000-01-31,13.75
2000-02-01,14.315
2000-02-02,14.5
2000-02-03,14.5
2000-02-04,14.5
2000-02-07,14.315
2000-02-08,14.155
2000-02-09,13.905
2000-02-10,15.125
2000-02-11,14.875
2000-02-14,14.97
2000-02-15,15.25
2000-02-16,15.155
2000-02-17,15.28
2000-02-18,15.125
2000-02-22,15.095
2000-02-23,14.78
2000-02-24,15.22
2000-02-25,15.345
2000-02-28,15.375
2000-02-29,15.5
2000-03-01,15.905
2000-03-02,16.0
2000-03-03,16.595
2000-03-06,16.565
2000-03-07,18.47
2000-03-08,18.155
2000-03-09,17.565
2000-03-10,17.53
2000-03-13,17.25
2000-03-14,16.875
2000-03-15,16.94
2000-03-16,17.25
2000-03-17,17.155
2000-03-20,16.78
2000-03-21,17.125
2000-03-22,17.47
2000-03-23,17.125
2000-03-24,17.125
2000-03-27,17.095
2000-03-28,16.625
2000-03-29,17.19
2000-03-30,17.595
2000-03-31,18.405
2000-04-03,18.44
2000-04-04,17.25
2000-04-05,17.47
2000-04-06,17.655
2000-04-07,17.565
2000-04-10,17.75
2000-04-11,18.065
2000-04-12,18.97
2000-04-13,18.405
2000-04-14,17.75
2000-04-17,18.095
2000-04-18,18.72
2000-04-19,18.78
2000-04-20,18.625
2000-04-24,18.845
2000-04-25,19.155
2000-04-26,19.155
2000-04-27,19.53
2000-04-28,20.095
2000-05-01,20.44
2000-05-02,21.065
2000-05-03,19.72
2000-05-04,20.0
2000-05-05,21.345
2000-05-08,21.25
2000-05-09,20.75
2000-05-10,20.69
2000-05-11,21.0
2000-05-12,21.47
2000-05-15,22.315
2000-05-16,22.125
2000-05-17,21.845
2000-05-18,21.94
2000-05-19,21.94
2000-05-22,21.655
2000-05-23,21.28
2000-05-24,20.78
2000-05-25,20.155
2000-05-26,20.5
2000-05-30,20.405
2000-05-31,20.905
2000-06-01,20.125
2000-06-02,19.97
2000-06-05,19.75
2000-06-06,20.405
2000-06-07,19.905
2000-06-08,20.375
2000-06-09,20.095
2000-06-12,20.315
2000-06-13,20.44
2000-06-14,20.25
2000-06-15,20.095
2000-06-16,20.97
2000-06-19,19.72
2000-06-20,19.125
2000-06-21,20.0
2000-06-22,19.875
2000-06-23,19.315
2000-06-26,18.47
2000-06-27,18.375
2000-06-28,18.375
2000-06-29,18.94
2000-06-30,18.875
2000-07-03,18.94
2000-07-05,17.0
2000-07-06,17.78
2000-07-07,18.315
2000-07-10,17.97
2000-07-11,18.94
2000-07-12,18.125
2000-07-13,18.155
2000-07-14,17.69
2000-07-17,17.53
2000-07-18,17.72
2000-07-19,17.375
2000-07-20,16.97
2000-07-21,16.78
2000-07-24,16.405
2000-07-25,16.065
2000-07-26,16.155
2000-07-27,16.69
2000-07-28,16.28
2000-07-31,16.97
2000-08-01,17.72
2000-08-02,17.94
2000-08-03,17.405
2000-08-04,17.375
2000-08-07,18.065
2000-08-08,17.69
2000-08-09,17.905
2000-08-10,18.47
2000-08-11,18.47
2000-08-14,18.94
2000-08-15,19.0
2000-08-16,19.5
2000-08-17,20.125
2000-08-18,20.125
2000-08-21,20.03
2000-08-22,20.22
2000-08-23,21.155
2000-08-24,21.19
2000-08-25,21.25
2000-08-28,21.565
2000-08-29,22.0
2000-08-30,21.69
2000-08-31,21.625
2000-09-01,22.155
2000-09-05,21.44
2000-09-06,22.125
2000-09-07,21.845
2000-09-08,21.5
2000-09-11,22.44
2000-09-12,22.5
2000-09-13,22.03
2000-09-14,22.405
2000-09-15,23.75
2000-09-18,23.345
2000-09-19,22.97
2000-09-20,22.905
2000-09-21,21.095
2000-09-22,21.655
2000-09-25,21.44
2000-09-26,22.28
2000-09-27,22.19
2000-09-28,22.625
2000-09-29,23.315
2000-10-02,23.5
2000-10-03,23.095
2000-10-04,22.345
2000-10-05,21.47
2000-10-06,21.19
2000-10-09,21.44
2000-10-10,21.905
2000-10-11,22.405
2000-10-12,22.28
2000-10-13,21.44
2000-10-16,20.905
2000-10-17,20.94
2000-10-18,20.065
2000-10-19,20.69
2000-10-20,21.125
2000-10-23,20.78
2000-10-24,19.94
2000-10-25,18.845
2000-10-26,19.19
2000-10-27,18.47
2000-10-30,18.47
2000-10-31,18.875
2000-11-01,19.78
2000-11-02,19.5
2000-11-03,19.625
2000-11-06,19.345
2000-11-07,19.44
2000-11-08,19.565
2000-11-09,19.53
2000-11-10,19.47
2000-11-13,19.125
2000-11-14,19.5
2000-11-15,20.47
2000-11-16,20.47
2000-11-17,20.315
2000-11-20,19.845
2000-11-21,20.655
2000-11-22,20.595
2000-11-24,21.095
2000-11-27,20.905
2000-11-28,20.19
2000-11-29,19.69
2000-11-30,18.47
2000-12-01,19.03
2000-12-04,19.75
2000-12-05,19.125
2000-12-06,19.315
2000-12-07,19.0
2000-12-08,18.5
2000-12-11,19.345
2000-12-12,20.405
2000-12-13,20.25
2000-12-14,18.97
2000-12-15,19.19
2000-12-18,20.595
2000-12-19,20.815
2000-12-20,19.78
2000-12-21,19.69
2000-12-22,20.375
2000-12-26,22.53
2000-12-27,23.19
2000-12-28,24.28
2000-12-29,23.655
2001-01-02,22.905
2001-01-03,22.065
2001-01-04,20.28
2001-01-05,20.345
2001-01-08,21.19
2001-01-09,21.315
2001-01-10,21.5
2001-01-11,21.78
2001-01-12,21.53
2001-01-16,20.875
2001-01-17,19.155
2001-01-18,17.78
2001-01-19,17.875
2001-01-22,17.875
2001-01-23,17.845
2001-01-24,18.065
2001-01-25,18.5
2001-01-26,17.905
2001-01-29,17.695
2001-01-30,17.195
2001-01-31,16.76
2001-02-01,16.875
2001-02-02,17.895
2001-02-05,18.015
2001-02-06,18.4
2001-02-07,18.635
2001-02-08,18.73
2001-02-09,19.28
2001-02-12,19.21
2001-02-13,19.675
2001-02-14,19.35
2001-02-15,18.35
2001-02-16,18.7
2001-02-20,18.555
2001-02-21,18.27
2001-02-22,17.975
2001-02-23,17.69
2001-02-26,17.85
2001-02-27,17.755
2001-02-28,17.55
2001-03-01,17.605
2001-03-02,17.6
2001-03-05,18.13
2001-03-06,18.25
2001-03-07,19.575
2001-03-08,20.14
2001-03-09,19.595
2001-03-12,19.205
2001-03-13,18.55
2001-03-14,18.135
2001-03-15,17.875
2001-03-16,18.05
2001-03-19,18.535
2001-03-20,18.65
2001-03-21,18.05
2001-03-22,17.59
2001-03-23,17.5
2001-03-26,17.635
2001-03-27,17.75
2001-03-28,17.685
2001-03-29,17.255
2001-03-30,17.425
2001-04-02,16.815
2001-04-03,16.7
2001-04-04,16.82
2001-04-05,17.25
2001-04-06,17.4
2001-04-09,17.965
2001-04-10,18.555
2001-04-11,18.135
2001-04-12,18.285
2001-04-16,18.6
2001-04-17,18.79
2001-04-18,17.92
2001-04-19,17.0
2001-04-20,17.01
2001-04-23,17.255
2001-04-24,17.235
2001-04-25,17.8
2001-04-26,18.3
2001-04-27,18.065
2001-04-30,18.11
2001-05-01,17.65
2001-05-02,16.58
2001-05-03,16.25
2001-05-04,16.41
2001-05-07,16.7
2001-05-08,17.045
2001-05-09,17.41
2001-05-10,17.755
2001-05-11,17.365
2001-05-14,17.85
2001-05-15,18.07
2001-05-16,17.715
2001-05-17,17.8
2001-05-18,18.445
2001-05-21,18.535
2001-05-22,18.765
2001-05-23,18.0
2001-05-24,17.825
2001-05-25,17.81
2001-05-29,17.655
2001-05-30,17.12
2001-05-31,17.63
2001-06-01,17.435
2001-06-04,17.755
2001-06-05,17.655
2001-06-06,17.495
2001-06-07,16.79
2001-06-08,16.975
2001-06-11,16.825
2001-06-12,17.165
2001-06-13,17.03
2001-06-14,16.63
2001-06-15,17.055
2001-06-18,16.52
2001-06-19,16.445
2001-06-20,16.445
2001-06-21,15.96
2001-06-22,16.06
2001-06-25,16.03
2001-06-26,16.22
2001-06-27,16.09
2001-06-28,15.7
2001-06-29,16.035
2001-07-02,16.06
2001-07-03,16.26
2001-07-05,16.58
2001-07-06,16.725
2001-07-09,16.065
2001-07-10,16.445
2001-07-11,15.89
2001-07-12,15.565
2001-07-13,15.525
2001-07-16,15.12
2001-07-17,15.2
2001-07-18,14.77
2001-07-19,14.93
2001-07-20,15.48
2001-07-23,15.63
2001-07-24,15.235
2001-07-25,15.745
2001-07-26,16.325
2001-07-27,16.61
2001-07-30,16.65
2001-07-31,16.765
2001-08-01,16.55
2001-08-02,16.875
2001-08-03,16.5
2001-08-06,16.425
2001-08-07,16.435
2001-08-08,15.875
2001-08-09,15.825
2001-08-10,15.96
2001-08-13,16.115
2001-08-14,16.65
2001-08-15,17.865
2001-08-16,17.625
2001-08-17,17.57
2001-08-20,17.22
2001-08-21,17.21
2001-08-22,17.39
2001-08-23,17.08
2001-08-24,17.1
2001-08-27,16.9
2001-08-28,16.775
2001-08-29,17.175
2001-08-30,16.77
2001-08-31,16.5
2001-09-04,16.9
2001-09-05,17.35
2001-09-06,17.29
2001-09-07,17.33
2001-09-10,17.19
2001-09-17,16.95
2001-09-18,16.46
2001-09-19,14.9
2001-09-20,14.7
2001-09-21,14.75
2001-09-24,13.745
2001-09-25,13.425
2001-09-26,13.575
2001-09-27,13.8
2001-09-28,14.51
2001-10-01,14.115
2001-10-02,14.095
2001-10-03,13.895
2001-10-04,14.75
2001-10-05,15.05
2001-10-08,15.04
2001-10-09,15.05
2001-10-10,15.905
2001-10-11,16.105
2001-10-12,16.24
2001-10-15,16.0
2001-10-16,16.375
2001-10-17,16.5
2001-10-18,15.855
2001-10-19,16.355
2001-10-22,16.605
2001-10-23,16.65
2001-10-24,17.03
2001-10-25,17.44
2001-10-26,18.0
2001-10-29,18.475
2001-10-30,17.65
2001-10-31,17.4
2001-11-01,17.51
2001-11-02,17.275
2001-11-05,16.55
2001-11-06,16.4
2001-11-07,16.4
2001-11-08,16.375
2001-11-09,16.745
2001-11-12,16.52
2001-11-13,16.425
2001-11-14,15.77
2001-11-15,14.335
2001-11-16,14.91
2001-11-19,14.855
2001-11-20,15.6
2001-11-21,15.4
2001-11-23,15.725
2001-11-26,15.385
2001-11-27,15.285
2001-11-28,15.535
2001-11-29,15.65
2001-11-30,15.45
2001-12-03,15.77
2001-12-04,16.065
2001-12-05,16.455
2001-12-06,16.19
2001-12-07,16.49
2001-12-10,16.18
2001-12-11,16.05
2001-12-12,15.955
2001-12-13,15.71
2001-12-14,16.135
2001-12-17,16.09
2001-12-18,16.375
2001-12-19,16.79
2001-12-20,16.8
2001-12-21,16.765
2001-12-24,16.99
2001-12-26,17.53
2001-12-27,17.53
2001-12-28,17.76
2001-12-31,17.82
2002-01-02,17.0
2002-01-03,16.93
2002-01-04,17.105
2002-01-07,17.09
2002-01-08,16.945
2002-01-09,16.945
2002-01-10,16.9
2002-01-11,16.455
2002-01-14,15.945
2002-01-15,16.24
2002-01-16,16.185
2002-01-17,15.965
2002-01-18,15.74
2002-01-22,15.48
2002-01-23,15.765
2002-01-24,16.475
2002-01-25,16.575
2002-01-28,16.055
2002-01-29,15.515
2002-01-30,15.775
2002-01-31,16.015
2002-02-01,16.285
2002-02-04,16.33
2002-02-05,16.42
2002-02-06,16.66
2002-02-07,16.885
2002-02-08,16.945
2002-02-11,17.1
2002-02-12,17.06
2002-02-13,16.995
2002-02-14,17.035
2002-02-15,16.935
2002-02-19,17.13
2002-02-20,16.9
2002-02-21,17.305
2002-02-22,17.75
2002-02-25,18.5
2002-02-26,18.36
2002-02-27,18.075
2002-02-28,18.145
2002-03-01,18.15
2002-03-04,18.22
2002-03-05,18.1
2002-03-06,18.345
2002-03-07,18.61
2002-03-08,18.065
2002-03-11,18.17
2002-03-12,18.275
2002-03-13,18.305
2002-03-14,18.305
2002-03-15,18.55
2002-03-18,18.8
2002-03-19,18.975
2002-03-20,18.68
2002-03-21,18.95
2002-03-22,18.545
2002-03-25,18.35
2002-03-26,18.43
2002-03-27,18.825
2002-03-28,18.555
2002-04-01,18.61
2002-04-02,18.52
2002-04-03,18.47
2002-04-04,17.935
2002-04-05,17.6
2002-04-08,17.995
2002-04-09,17.675
2002-04-10,17.895
2002-04-11,18.085
2002-04-12,17.255
2002-04-15,17.935
2002-04-16,17.855
2002-04-17,18.39
2002-04-18,18.355
2002-04-19,18.5
2002-04-22,18.535
2002-04-23,19.065
2002-04-24,18.71
2002-04-25,18.96
2002-04-26,18.75
2002-04-29,18.74
2002-04-30,18.93
2002-05-01,19.115
2002-05-02,19.055
2002-05-03,19.415
2002-05-06,18.8
2002-05-07,18.46
2002-05-08,18.94
2002-05-09,18.88
2002-05-10,19.145
2002-05-13,19.215
2002-05-14,19.55
2002-05-15,19.0
2002-05-16,19.075
2002-05-17,18.545
2002-05-20,18.445
2002-05-21,18.4
2002-05-22,18.415
2002-05-23,18.5
2002-05-24,18.595
2002-05-28,18.315
2002-05-29,18.275
2002-05-30,17.69
2002-05-31,18.045
2002-06-03,17.725
2002-06-04,17.945
2002-06-05,17.655
2002-06-06,17.68
2002-06-07,17.755
2002-06-10,17.355
2002-06-11,17.14
2002-06-12,17.17
2002-06-13,17.555
2002-06-14,17.725
2002-06-17,18.51
2002-06-18,18.31
2002-06-19,17.985
2002-06-20,17.51
2002-06-21,17.495
2002-06-24,17.49
2002-06-25,17.785
2002-06-26,18.495
2002-06-27,18.235
2002-06-28,18.575
2002-07-01,18.33
2002-07-02,17.685
2002-07-03,17.5
2002-07-05,17.975
2002-07-08,17.585
2002-07-09,17.3
2002-07-10,16.9
2002-07-11,16.645
2002-07-12,16.22
2002-07-15,16.02
2002-07-16,15.8
2002-07-17,16.25
2002-07-18,15.95
2002-07-19,15.53
2002-07-22,14.59
2002-07-23,14.13
2002-07-24,14.525
2002-07-25,14.55
2002-07-26,14.62
2002-07-29,15.455
2002-07-30,15.35
2002-07-31,15.94
2002-08-01,15.3
2002-08-02,15.18
2002-08-05,14.66
2002-08-06,15.19
2002-08-07,15.285
2002-08-08,15.82
2002-08-09,16.24
2002-08-12,16.545
2002-08-13,16.185
2002-08-14,16.3
2002-08-15,16.725
2002-08-16,16.8
2002-08-19,16.44
2002-08-20,16.275
2002-08-21,16.42
2002-08-22,16.67
2002-08-23,16.905
2002-08-26,17.105
2002-08-27,17.265
2002-08-28,16.865
2002-08-29,16.655
2002-08-30,17.015
2002-09-03,16.275
2002-09-04,16.07
2002-09-05,16.015
2002-09-06,16.3
2002-09-09,16.495
2002-09-10,16.395
2002-09-11,16.425
2002-09-12,16.03
2002-09-13,16.315
2002-09-16,16.485
2002-09-17,16.12
2002-09-18,16.13
2002-09-19,15.845
2002-09-20,15.8
2002-09-23,15.955
2002-09-24,15.775
2002-09-25,15.87
2002-09-26,16.645
2002-09-27,16.835
2002-09-30,16.795
2002-10-01,16.985
2002-10-02,16.9
2002-10-03,17.02
2002-10-04,16.805
2002-10-07,16.495
2002-10-08,16.275
2002-10-09,15.785
2002-10-10,16.095
2002-10-11,16.285
2002-10-14,16.66
2002-10-15,16.88
2002-10-16,16.905
2002-10-17,17.45
2002-10-18,17.665
2002-10-21,18.14
2002-10-22,17.64
2002-10-23,18.145
2002-10-24,17.79
2002-10-25,17.185
2002-10-28,17.215
2002-10-29,17.075
2002-10-30,17.485
2002-10-31,17.49
2002-11-01,17.89
2002-11-04,17.875
2002-11-05,17.64
2002-11-06,17.815
2002-11-07,17.815
2002-11-08,17.68
2002-11-11,17.43
2002-11-12,17.385
2002-11-13,16.97
2002-11-14,17.195
2002-11-15,17.475
2002-11-18,17.815
2002-11-19,17.79
2002-11-20,18.285
2002-11-21,18.46
2002-11-22,18.125
2002-11-25,18.05
2002-11-26,17.745
2002-11-27,18.0
2002-11-29,18.085
2002-12-02,18.535
2002-12-03,18.7
2002-12-04,18.495
2002-12-05,18.68
2002-12-06,18.995
2002-12-09,18.635
2002-12-10,18.75
2002-12-11,18.475
2002-12-12,19.32
2002-12-13,19.305
2002-12-16,19.21
2002-12-17,19.06
2002-12-18,18.6
2002-12-19,18.24
2002-12-20,18.145
2002-12-23,18.3
2002-12-24,18.27
2002-12-26,18.235
2002-12-27,17.85
2002-12-30,18.0
2002-12-31,17.93
2003-01-02,18.295
2003-01-03,17.99
2003-01-06,17.745
2003-01-07,16.98
2003-01-08,16.83
2003-01-09,16.845
2003-01-10,16.515
2003-01-13,16.615
2003-01-14,16.33
2003-01-15,16.9
2003-01-16,17.175
2003-01-17,17.15
2003-01-21,16.82
2003-01-22,16.65
2003-01-23,16.57
2003-01-24,16.18
2003-01-27,15.83
2003-01-28,15.965
2003-01-29,16.325
2003-01-30,16.315
2003-01-31,16.535
2003-02-03,16.515
2003-02-04,16.995
2003-02-05,16.8
2003-02-06,16.8
2003-02-07,16.75
2003-02-10,16.84
2003-02-11,16.78
2003-02-12,16.345
2003-02-13,16.39
2003-02-14,16.15
2003-02-18,16.355
2003-02-19,16.795
2003-02-20,16.79
2003-02-21,17.27
2003-02-24,17.385
2003-02-25,17.085
2003-02-26,17.195
2003-02-27,16.915
2003-02-28,17.045
2003-03-03,16.875
2003-03-04,17.06
2003-03-05,17.15
2003-03-06,17.045
2003-03-07,16.935
2003-03-10,17.01
2003-03-11,16.88
2003-03-12,16.435
2003-03-13,16.235
2003-03-14,16.025
2003-03-17,15.97
2003-03-18,16.3
2003-03-19,16.41
2003-03-20,16.695
2003-03-21,16.48
2003-03-24,16.205
2003-03-25,16.4
2003-03-26,16.31
2003-03-27,16.8
2003-03-28,16.96
2003-03-31,16.905
2003-04-01,17.145
2003-04-02,17.025
2003-04-03,16.5
2003-04-04,16.615
2003-04-07,16.505
2003-04-08,16.49
2003-04-09,16.47
2003-04-10,16.745
2003-04-11,16.545
2003-04-14,16.62
2003-04-15,16.505
2003-04-16,16.32
2003-04-17,16.47
2003-04-21,16.545
2003-04-22,16.965
2003-04-23,16.955
2003-04-24,17.055
2003-04-25,17.06
2003-04-28,17.105
2003-04-29,16.98
2003-04-30,17.185
2003-05-01,18.02
2003-05-02,18.08
2003-05-05,18.045
2003-05-06,18.065
2003-05-07,18.26
2003-05-08,18.28
2003-05-09,18.385
2003-05-12,18.405
2003-05-13,18.64
2003-05-14,18.655
2003-05-15,18.86
2003-05-16,18.815
2003-05-19,18.575
2003-05-20,18.26
2003-05-21,19.135
2003-05-22,18.76
2003-05-23,18.945
2003-05-27,18.975
2003-05-28,18.68
2003-05-29,18.395
2003-05-30,18.69
2003-06-02,18.94
2003-06-03,18.95
2003-06-04,19.305
2003-06-05,19.09
2003-06-06,18.965
2003-06-09,19.005
2003-06-10,18.985
2003-06-11,19.465
2003-06-12,19.32
2003-06-13,19.055
2003-06-16,19.035
2003-06-17,19.005
2003-06-18,18.825
2003-06-19,18.9
2003-06-20,18.66
2003-06-23,18.67
2003-06-24,18.745
2003-06-25,18.96
2003-06-26,18.91
2003-06-27,19.025
2003-06-30,18.775
2003-07-01,18.55
2003-07-02,18.455
2003-07-03,18.535
2003-07-07,18.01
2003-07-08,17.925
2003-07-09,18.145
2003-07-10,17.64
2003-07-11,17.82
2003-07-14,17.42
2003-07-15,17.32
2003-07-16,16.97
2003-07-17,17.55
2003-07-18,17.72
2003-07-21,17.515
2003-07-22,17.315
2003-07-23,17.36
2003-07-24,17.44
2003-07-25,17.76
2003-07-28,18.365
2003-07-29,17.995
2003-07-30,18.13
2003-07-31,18.1
2003-08-01,18.185
2003-08-04,18.15
2003-08-05,18.135
2003-08-06,18.355
2003-08-07,18.745
2003-08-08,18.675
2003-08-11,19.13
2003-08-12,19.5
2003-08-13,19.69
2003-08-14,19.45
2003-08-15,19.63
2003-08-18,19.755
2003-08-19,19.71
2003-08-20,19.9
2003-08-21,20.085
2003-08-22,19.885
2003-08-25,19.45
2003-08-26,19.4
2003-08-27,19.325
2003-08-28,19.68
2003-08-29,19.61
2003-09-02,19.435
2003-09-03,19.405
2003-09-04,19.215
2003-09-05,19.1
2003-09-08,19.55
2003-09-09,19.435
2003-09-10,19.43
2003-09-11,19.425
2003-09-12,19.395
2003-09-15,19.375
2003-09-16,19.3
2003-09-17,18.885
2003-09-18,18.595
2003-09-19,18.81
2003-09-22,18.685
2003-09-23,18.82
2003-09-24,18.98
2003-09-25,18.915
2003-09-26,18.62
2003-09-29,19.0
2003-09-30,19.285
2003-10-01,19.53
2003-10-02,19.9
2003-10-03,19.855
2003-10-06,19.87
2003-10-07,20.135
2003-10-08,20.165
2003-10-09,20.15
2003-10-10,20.475
2003-10-13,20.54
2003-10-14,20.26
2003-10-15,19.965
2003-10-16,20.185
2003-10-17,20.08
2003-10-20,19.88
2003-10-21,20.0
2003-10-22,19.775
2003-10-23,19.725
2003-10-24,19.6
2003-10-27,19.765
2003-10-28,19.855
2003-10-29,20.005
2003-10-30,19.96
2003-10-31,19.875
2003-11-03,19.955
2003-11-04,20.25
2003-11-05,20.275
2003-11-06,20.2
2003-11-07,20.445
2003-11-10,20.51
2003-11-11,20.355
2003-11-12,20.275
2003-11-13,20.41
2003-11-14,20.385
2003-11-17,20.185
2003-11-18,20.24
2003-11-19,20.255
2003-11-20,20.06
2003-11-21,19.84
2003-11-24,20.07
2003-11-25,20.235
2003-11-26,20.475
2003-11-28,20.45
2003-12-01,20.44
2003-12-02,20.675
2003-12-03,20.495
2003-12-04,21.36
2003-12-05,21.575
2003-12-08,22.015
2003-12-09,21.75
2003-12-10,21.335
2003-12-11,21.26
2003-12-12,21.695
2003-12-15,21.63
2003-12-16,21.97
2003-12-17,21.99
2003-12-18,21.985
2003-12-19,22.145
2003-12-22,22.11
2003-12-23,22.065
2003-12-24,22.13
2003-12-26,22.205
2003-12-29,22.625
2003-12-30,22.45
2003-12-31,22.305
2004-01-02,22.255
2004-01-05,22.48
2004-01-06,22.365
2004-01-07,22.225
2004-01-08,22.31
2004-01-09,22.825
2004-01-12,22.965
2004-01-13,23.11
2004-01-14,23.26
2004-01-15,22.5
2004-01-16,22.795
2004-01-20,23.375
2004-01-21,23.1
2004-01-22,24.23
2004-01-23,25.05
2004-01-26,24.695
2004-01-27,24.59
2004-01-28,24.525
2004-01-29,23.97
2004-01-30,23.6
2004-02-02,24.005
2004-02-03,23.89
2004-02-04,23.675
2004-02-05,23.105
2004-02-06,23.83
2004-02-09,24.255
2004-02-10,24.545
2004-02-11,24.71
2004-02-12,24.7
2004-02-13,23.185
2004-02-17,23.185
2004-02-18,22.975
2004-02-19,22.805
2004-02-20,23.03
2004-02-23,22.61
2004-02-24,22.57
2004-02-25,22.735
2004-02-26,23.12
2004-02-27,23.44
2004-03-01,23.98
2004-03-02,23.93
2004-03-03,24.065
2004-03-04,23.59
2004-03-05,24.11
2004-03-08,23.96
2004-03-09,23.745
2004-03-10,23.31
2004-03-11,22.995
2004-03-12,23.225
2004-03-15,23.305
2004-03-16,23.15
2004-03-17,23.315
2004-03-18,23.63
2004-03-19,23.49
2004-03-22,23.33
2004-03-23,23.05
2004-03-24,22.325
2004-03-25,22.555
2004-03-26,22.915
2004-03-29,23.46
2004-03-30,23.595
2004-03-31,23.925
2004-04-01,23.645
2004-04-02,23.905
2004-04-05,24.175
2004-04-06,23.945
2004-04-07,24.15
2004-04-08,24.43
2004-04-12,24.76
2004-04-13,24.4
2004-04-14,24.41
2004-04-15,25.195
2004-04-16,25.59
2004-04-19,26.09
2004-04-20,25.635
2004-04-21,25.78
2004-04-22,26.505
2004-04-23,26.31
2004-04-26,26.66
2004-04-27,27.23
2004-04-28,26.93
2004-04-29,26.28
2004-04-30,26.26
2004-05-03,26.455
2004-05-04,26.41
2004-05-05,26.535
2004-05-06,26.26
2004-05-07,25.645
2004-05-10,24.24
2004-05-11,24.535
2004-05-12,24.22
2004-05-13,24.295
2004-05-14,24.945
2004-05-17,24.715
2004-05-18,24.15
2004-05-19,23.865
2004-05-20,23.875
2004-05-21,23.645
2004-05-24,24.605
2004-05-25,25.355
2004-05-26,24.795
2004-05-27,24.66
2004-05-28,24.875
2004-06-01,25.605
2004-06-02,25.65
2004-06-03,25.255
2004-06-04,25.2
2004-06-07,25.74
2004-06-08,25.725
2004-06-09,25.875
2004-06-10,26.265
2004-06-14,26.04
2004-06-15,26.595
2004-06-16,26.73
2004-06-17,26.95
2004-06-18,26.945
2004-06-21,26.995
2004-06-22,27.535
2004-06-23,27.995
2004-06-24,27.515
2004-06-25,27.675
2004-06-28,27.25
2004-06-29,27.18
2004-06-30,27.88
2004-07-01,27.85
2004-07-02,28.07
2004-07-06,28.65
2004-07-07,28.82
2004-07-08,28.305
2004-07-09,29.13
2004-07-12,28.75
2004-07-13,28.845
2004-07-14,28.645
2004-07-15,28.63
2004-07-16,28.835
2004-07-19,28.7
2004-07-20,28.415
2004-07-21,28.445
2004-07-22,28.25
2004-07-23,28.36
2004-07-26,27.73
2004-07-27,28.475
2004-07-28,28.675
2004-07-29,29.225
2004-07-30,29.51
2004-08-02,29.555
2004-08-03,29.88
2004-08-04,28.77
2004-08-05,28.2
2004-08-06,27.54
2004-08-09,28.075
2004-08-10,28.19
2004-08-11,27.245
2004-08-12,26.495
2004-08-13,27.2
2004-08-16,27.205
2004-08-17,26.57
2004-08-18,27.18
2004-08-19,27.195
2004-08-20,27.42
2004-08-23,26.95
2004-08-24,26.89
2004-08-25,27.1
2004-08-26,27.24
2004-08-27,27.39
2004-08-30,27.36
2004-08-31,27.67
2004-09-01,28.325
2004-09-02,28.545
2004-09-03,28.625
2004-09-07,28.48
2004-09-08,28.465
2004-09-09,29.19
2004-09-10,28.9
2004-09-13,29.2
2004-09-14,29.255
2004-09-15,29.14
2004-09-16,29.3
2004-09-17,29.995
2004-09-20,30.13
2004-09-21,30.595
2004-09-22,30.425
2004-09-23,30.38
2004-09-24,30.85
2004-09-27,30.56
2004-09-28,31.1
2004-09-29,30.69
2004-09-30,30.62
2004-10-01,31.14
2004-10-04,30.66
2004-10-05,31.26
2004-10-06,32.27
2004-10-07,31.955
2004-10-08,31.505
2004-10-11,31.775
2004-10-12,31.16
2004-10-13,30.115
2004-10-14,30.61
2004-10-15,30.525
2004-10-18,29.955
2004-10-19,29.915
2004-10-20,30.865
2004-10-21,31.065
2004-10-22,30.985
2004-10-25,31.05
2004-10-26,31.41
2004-10-27,30.24
2004-10-28,29.295
2004-10-29,29.07
2004-11-01,29.01
2004-11-02,28.5
2004-11-03,29.67
2004-11-04,30.02
2004-11-05,30.25
2004-11-08,29.295
2004-11-09,28.91
2004-11-10,29.23
2004-11-11,28.95
2004-11-12,29.845
2004-11-15,28.79
2004-11-16,28.43
2004-11-17,28.9
2004-11-18,29.425
2004-11-19,29.995
2004-11-22,30.62
2004-11-23,31.28
2004-11-24,31.72
2004-11-26,31.755
2004-11-29,31.59
2004-11-30,31.485
2004-12-01,30.135
2004-12-02,29.16
2004-12-03,29.605
2004-12-06,29.44
2004-12-07,28.725
2004-12-08,29.05
2004-12-09,29.16
2004-12-10,28.53
2004-12-13,29.625
2004-12-14,29.875
2004-12-15,30.425
2004-12-16,29.88
2004-12-17,30.425
2004-12-20,30.045
2004-12-21,30.365
2004-12-22,29.75
2004-12-23,29.73
2004-12-27,29.235
2004-12-28,29.41
2004-12-29,29.62
2004-12-30,29.465
2004-12-31,29.49
2005-01-03,28.305
2005-01-04,28.36
2005-01-05,27.8
2005-01-06,28.19
2005-01-07,28.07
2005-01-10,28.42
2005-01-11,28.43
2005-01-12,29.285
2005-01-13,29.465
2005-01-14,29.59
2005-01-18,29.8
2005-01-19,29.6
2005-01-20,29.395
2005-01-21,29.67
2005-01-24,30.19
2005-01-25,30.26
2005-01-26,30.45
2005-01-27,30.63
2005-01-28,30.175
2005-01-31,30.58
2005-02-01,30.99
2005-02-02,31.38
2005-02-03,31.06
2005-02-04,31.605
2005-02-07,31.54
2005-02-08,32.025
2005-02-09,32.06
2005-02-10,35.04
2005-02-11,34.67
2005-02-14,34.805
2005-02-15,34.695
2005-02-16,35.56
2005-02-17,35.25
2005-02-18,36.245
2005-02-22,35.87
2005-02-23,35.97
2005-02-24,36.39
2005-02-25,37.35
2005-02-28,37.05
2005-03-01,36.115
2005-03-02,36.785
2005-03-03,37.62
2005-03-04,38.13
2005-03-07,37.695
2005-03-08,37.25
2005-03-09,36.555
2005-03-10,35.635
2005-03-11,35.93
2005-03-14,36.055
2005-03-15,35.75
2005-03-16,36.025
2005-03-17,37.5
2005-03-18,37.21
2005-03-21,36.765
2005-03-22,36.275
2005-03-23,35.26
2005-03-24,35.315
2005-03-28,35.555
2005-03-29,34.92
2005-03-30,35.375
2005-03-31,37.1
2005-04-01,37.975
2005-04-04,38.48
2005-04-05,38.215
2005-04-06,38.525
2005-04-07,38.325
2005-04-08,37.655
2005-04-11,38.005
2005-04-12,37.33
2005-04-13,36.45
2005-04-14,36.085
2005-04-15,34.605
2005-04-18,35.305
2005-04-19,36.195
2005-04-20,35.455
2005-04-21,36.175
2005-04-22,36.48
2005-04-25,36.55
2005-04-26,36.425
2005-04-27,35.68
2005-04-28,35.2
2005-04-29,35.47
2005-05-02,36.2
2005-05-03,34.835
2005-05-04,35.285
2005-05-05,35.46
2005-05-06,35.785
2005-05-09,36.075
2005-05-10,35.425
2005-05-11,35.565
2005-05-12,33.76
2005-05-13,33.065
2005-05-16,32.645
2005-05-17,34.38
2005-05-18,34.33
2005-05-19,35.17
2005-05-20,35.175
2005-05-23,35.6
2005-05-24,36.07
2005-05-25,36.215
2005-05-26,36.51
2005-05-27,36.96
2005-05-31,38.45
2005-06-01,39.28
2005-06-02,38.88
2005-06-03,39.11
2005-06-06,38.97
2005-06-07,38.55
2005-06-08,38.68
2005-06-09,39.44
2005-06-10,39.11
2005-06-13,39.45
2005-06-14,39.81
2005-06-15,39.94
2005-06-16,40.19
2005-06-17,40.59
2005-06-20,40.83
2005-06-21,40.19
2005-06-22,40.42
2005-06-23,40.15
2005-06-24,39.94
2005-06-27,40.5
2005-06-28,39.67
2005-06-29,39.77
2005-06-30,39.92
2005-07-01,41.11
2005-07-05,42.38
2005-07-06,41.5
2005-07-07,42.11
2005-07-08,41.76
2005-07-11,41.88
2005-07-12,42.5
2005-07-13,41.83
2005-07-14,39.99
2005-07-15,40.03
2005-07-18,39.79
2005-07-19,41.07
2005-07-20,41.2
2005-07-21,40.64
2005-07-22,41.82
2005-07-25,41.84
2005-07-26,41.77
2005-07-27,42.51
2005-07-28,42.5
2005-07-29,42.55
2005-08-01,42.86
2005-08-02,43.81
2005-08-03,43.93
2005-08-04,44.4
2005-08-05,43.85
2005-08-08,44.62
2005-08-09,44.8
2005-08-10,46.06
2005-08-11,46.11
2005-08-12,46.5
2005-08-15,46.2
2005-08-16,45.48
2005-08-17,44.51
2005-08-18,44.32
2005-08-19,44.6
2005-08-22,45.08
2005-08-23,44.98
2005-08-24,46.05
2005-08-25,45.98
2005-08-26,45.52
2005-08-29,45.52
2005-08-30,46.2
2005-08-31,47.22
2005-09-01,47.26
2005-09-02,45.83
2005-09-06,46.31
2005-09-07,46.45
2005-09-08,46.16
2005-09-09,47.2
2005-09-12,45.98
2005-09-13,45.81
2005-09-14,46.56
2005-09-15,46.94
2005-09-16,46.94
2005-09-19,49.82
2005-09-20,48.81
2005-09-21,49.91
2005-09-22,48.78
2005-09-23,47.89
2005-09-26,49.4
2005-09-27,48.59
2005-09-28,50.16
2005-09-29,50.05
2005-09-30,48.99
2005-10-03,49.85
2005-10-04,47.61
2005-10-05,45.82
2005-10-06,43.82
2005-10-07,44.6
2005-10-10,44.24
2005-10-11,47.6
2005-10-12,46.7
2005-10-13,44.49
2005-10-14,45.39
2005-10-17,47.44
2005-10-18,44.3
2005-10-19,44.89
2005-10-20,43.27
2005-10-21,43.23
2005-10-24,45.66
2005-10-25,46.54
2005-10-26,46.33
2005-10-27,44.27
2005-10-28,45.11
2005-10-31,45.27
2005-11-01,45.37
2005-11-02,46.09
2005-11-03,46.45
2005-11-04,44.89
2005-11-07,44.3
2005-11-08,44.01
2005-11-09,42.87
2005-11-10,40.38
2005-11-11,42.05
2005-11-14,41.92
2005-11-15,41.86
2005-11-16,43.61
2005-11-17,43.88
2005-11-18,42.82
2005-11-21,45.07
2005-11-22,46.46
2005-11-23,46.24
2005-11-25,47.29
2005-11-28,45.22
2005-11-29,45.0
2005-11-30,46.34
2005-12-01,47.75
2005-12-02,48.22
2005-12-05,49.74
2005-12-06,50.32
2005-12-07,50.31
2005-12-08,50.95
2005-12-09,50.23
2005-12-12,51.7
2005-12-13,52.14
2005-12-14,52.27
2005-12-15,51.3
2005-12-16,50.0
2005-12-19,49.95
2005-12-20,50.59
2005-12-21,50.05
2005-12-22,50.51
2005-12-23,50.64
2005-12-27,48.88
2005-12-28,49.97
2005-12-29,49.73
2005-12-30,50.05
2006-01-03,52.08
2006-01-04,53.47
2006-01-05,50.33
2006-01-06,50.95
2006-01-09,51.28
2006-01-10,51.3
2006-01-11,50.64
2006-01-12,50.29
2006-01-13,51.06
2006-01-17,51.14
2006-01-18,50.19
2006-01-19,51.78
2006-01-20,51.67
2006-01-23,52.05
2006-01-24,51.73
2006-01-25,49.8
2006-01-26,49.28
2006-01-27,49.81
2006-01-30,51.55
2006-01-31,52.42
2006-02-01,51.43
2006-02-02,50.59
2006-02-03,50.32
2006-02-06,50.6
2006-02-07,47.14
2006-02-08,47.2
2006-02-09,44.11
2006-02-10,42.61
2006-02-13,40.99
2006-02-14,41.13
2006-02-15,40.48
2006-02-16,42.56
2006-02-17,42.67
2006-02-21,42.58
2006-02-22,40.87
2006-02-23,41.03
2006-02-24,41.16
2006-02-27,39.33
2006-02-28,38.67
2006-03-01,38.89
2006-03-02,39.45
2006-03-03,40.26
2006-03-06,38.03
2006-03-07,36.31
2006-03-08,36.28
2006-03-09,36.57
2006-03-10,36.86
2006-03-13,38.27
2006-03-14,38.59
2006-03-15,38.41
2006-03-16,39.61
2006-03-17,39.04
2006-03-20,37.93
2006-03-21,36.9
2006-03-22,37.15
2006-03-23,40.49
2006-03-24,41.33
2006-03-27,40.64
2006-03-28,40.72
2006-03-29,41.1
2006-03-30,41.81
2006-03-31,41.85
2006-04-03,42.24
2006-04-04,42.48
2006-04-05,42.25
2006-04-06,42.27
2006-04-07,41.39
2006-04-10,42.02
2006-04-11,42.42
2006-04-12,41.85
2006-04-13,41.86
2006-04-17,43.19
2006-04-18,45.42
2006-04-19,47.18
2006-04-20,46.54
2006-04-21,47.74
2006-04-24,46.16
2006-04-25,45.71
2006-04-26,45.13
2006-04-27,44.14
2006-04-28,44.51
2006-05-01,45.47
2006-05-02,46.39
2006-05-03,47.52
2006-05-04,47.08
2006-05-05,47.68
2006-05-08,48.16
2006-05-09,48.88
2006-05-10,49.96
2006-05-11,49.93
2006-05-12,47.9
2006-05-15,46.06
2006-05-16,44.91
2006-05-17,44.15
2006-05-18,43.02
2006-05-19,42.59
2006-05-22,41.89
2006-05-23,42.48
2006-05-24,41.72
2006-05-25,42.4
2006-05-26,42.54
2006-05-30,42.14
2006-05-31,42.79
2006-06-01,43.97
2006-06-02,45.1
2006-06-05,42.92
2006-06-06,43.28
2006-06-07,41.23
2006-06-08,41.24
2006-06-09,41.12
2006-06-12,40.18
2006-06-13,38.86
2006-06-14,40.83
2006-06-15,42.83
2006-06-16,43.21
2006-06-19,41.17
2006-06-20,40.85
2006-06-21,42.15
2006-06-22,41.92
2006-06-23,44.19
2006-06-26,44.83
2006-06-27,45.66
2006-06-28,46.71
2006-06-29,48.53
2006-06-30,49.03
2006-07-03,49.71
2006-07-05,48.82
2006-07-06,47.96
2006-07-07,46.88
2006-07-10,46.63
2006-07-11,47.04
2006-07-12,46.95
2006-07-13,46.09
2006-07-14,46.5
2006-07-17,44.88
2006-07-18,45.31
2006-07-19,46.03
2006-07-20,44.76
2006-07-21,43.85
2006-07-24,45.65
2006-07-25,47.77
2006-07-26,48.95
2006-07-27,45.5
2006-07-28,45.68
2006-07-31,46.37
2006-08-01,45.65
2006-08-02,44.33
2006-08-03,43.31
2006-08-04,42.9
2006-08-07,43.41
2006-08-08,43.62
2006-08-09,44.99
2006-08-10,44.98
2006-08-11,44.68
2006-08-14,43.06
2006-08-15,43.5
2006-08-16,43.5
2006-08-17,41.88
2006-08-18,41.65
2006-08-21,41.38
2006-08-22,41.6
2006-08-23,41.35
2006-08-24,42.98
2006-08-25,45.06
2006-08-28,44.21
2006-08-29,43.56
2006-08-30,43.13
2006-08-31,43.27
2006-09-01,44.27
2006-09-05,44.05
2006-09-06,42.75
2006-09-07,41.9
2006-09-08,40.2
2006-09-11,38.74
2006-09-12,38.38
2006-09-13,38.99
2006-09-14,37.8
2006-09-15,37.6
2006-09-18,38.6
2006-09-19,38.01
2006-09-20,36.85
2006-09-21,37.73
2006-09-22,37.08
2006-09-25,36.7
2006-09-26,37.15
2006-09-27,38.75
2006-09-28,38.42
2006-09-29,38.52
2006-10-02,37.34
2006-10-03,36.22
2006-10-04,36.47
2006-10-05,36.96
2006-10-06,37.31
2006-10-09,37.28
2006-10-10,38.66
2006-10-11,37.55
2006-10-12,38.33
2006-10-13,39.28
2006-10-16,40.86
2006-10-17,39.69
2006-10-18,38.26
2006-10-19,39.47
2006-10-20,38.8
2006-10-23,39.57
2006-10-24,40.5
2006-10-25,41.78
2006-10-26,42.01
2006-10-27,40.75
2006-10-30,39.84
2006-10-31,40.72
2006-11-01,40.49
2006-11-02,40.53
2006-11-03,42.21
2006-11-06,42.12
2006-11-07,41.65
2006-11-08,42.52
2006-11-09,43.2
2006-11-10,42.57
2006-11-13,42.9
2006-11-14,43.08
2006-11-15,44.5
2006-11-16,43.62
2006-11-17,46.4
2006-11-20,46.6
2006-11-21,46.96
2006-11-22,47.22
2006-11-24,46.85
2006-11-27,46.84
2006-11-28,47.79
2006-11-29,49.7
2006-11-30,49.75
2006-12-01,49.65
2006-12-04,48.2
2006-12-05,48.06
2006-12-06,47.95
2006-12-07,47.06
2006-12-08,46.91
2006-12-11,46.8
2006-12-12,47.01
2006-12-13,47.91
2006-12-14,48.48
2006-12-15,47.95
2006-12-18,47.11
2006-12-19,48.21
2006-12-20,47.38
2006-12-21,47.07
2006-12-22,46.96
2006-12-26,46.32
2006-12-27,46.87
2006-12-28,46.74
2006-12-29,45.86
2007-01-03,42.24
2007-01-04,40.45
2007-01-05,41.0
2007-01-08,42.16
2007-01-09,41.25
2007-01-10,41.32
2007-01-11,40.82
2007-01-12,42.33
2007-01-16,41.44
2007-01-17,41.46
2007-01-18,40.44
2007-01-19,40.77
2007-01-22,41.02
2007-01-23,42.18
2007-01-24,41.84
2007-01-25,41.05
2007-01-26,41.66
2007-01-29,40.98
2007-01-30,42.22
2007-01-31,42.76
2007-02-01,43.58
2007-02-02,43.41
2007-02-05,42.99
2007-02-06,43.04
2007-02-07,42.62
2007-02-08,40.88
2007-02-09,41.64
2007-02-12,40.36
2007-02-13,41.03
2007-02-14,41.66
2007-02-15,41.28
2007-02-16,41.73
2007-02-20,41.2
2007-02-21,41.94
2007-02-22,42.99
2007-02-23,42.7
2007-02-26,44.17
2007-02-27,42.91
2007-02-28,43.15
2007-03-01,42.88
2007-03-02,41.8
2007-03-05,40.99
2007-03-06,41.02
2007-03-07,42.19
2007-03-08,41.92
2007-03-09,41.36
2007-03-12,41.29
2007-03-13,40.22
2007-03-14,40.25
2007-03-15,40.14
2007-03-16,39.93
2007-03-19,40.49
2007-03-20,41.11
2007-03-21,42.33
2007-03-22,42.46
2007-03-23,42.24
2007-03-26,42.42
2007-03-27,42.16
2007-03-28,41.81
2007-03-29,41.81
2007-03-30,41.63
2007-04-02,41.84
2007-04-03,42.12
2007-04-04,42.55
2007-04-05,43.48
2007-04-09,43.57
2007-04-10,43.95
2007-04-11,43.53
2007-04-12,44.16
2007-04-13,44.37
2007-04-16,44.34
2007-04-17,44.42
2007-04-18,43.63
2007-04-19,42.33
2007-04-20,43.01
2007-04-23,43.2
2007-04-24,44.31
2007-04-25,45.5
2007-04-26,45.86
2007-04-27,44.94
2007-04-30,43.72
2007-05-01,43.4
2007-05-02,44.74
2007-05-03,45.25
2007-05-04,45.18
2007-05-07,45.01
2007-05-08,44.73
2007-05-09,44.53
2007-05-10,43.5
2007-05-11,44.02
2007-05-14,45.94
2007-05-15,47.1
2007-05-16,47.07
2007-05-17,47.76
2007-05-18,48.18
2007-05-21,48.24
2007-05-22,47.55
2007-05-23,47.31
2007-05-24,46.0
2007-05-25,46.83
2007-05-29,45.95
2007-05-30,47.19
2007-05-31,48.03
2007-06-01,52.35
2007-06-04,51.6
2007-06-05,51.09
2007-06-06,50.13
2007-06-07,49.02
2007-06-08,49.54
2007-06-11,49.5
2007-06-12,49.46
2007-06-13,49.17
2007-06-14,49.76
2007-06-15,50.04
2007-06-18,50.39
2007-06-19,49.65
2007-06-20,48.49
2007-06-21,49.98
2007-06-22,47.96
2007-06-25,47.3
2007-06-26,45.9
2007-06-27,45.79
2007-06-28,45.21
2007-06-29,45.47
2007-07-02,46.18
2007-07-03,46.81
2007-07-05,46.71
2007-07-06,47.03
2007-07-09,47.81
2007-07-10,47.95
2007-07-11,47.89
2007-07-12,48.09
2007-07-13,50.05
2007-07-16,49.4
2007-07-17,49.92
2007-07-18,50.72
2007-07-19,51.0
2007-07-20,49.54
2007-07-23,48.48
2007-07-24,46.4
2007-07-25,47.93
2007-07-26,48.84
2007-07-27,48.97
2007-07-30,48.88
2007-07-31,48.02
2007-08-01,48.37
2007-08-02,48.3
2007-08-03,47.35
2007-08-06,47.07
2007-08-07,47.16
2007-08-08,47.35
2007-08-09,48.07
2007-08-10,48.12
2007-08-13,47.49
2007-08-14,46.74
2007-08-15,45.23
2007-08-16,45.63
2007-08-17,46.36
2007-08-20,45.48
2007-08-21,44.43
2007-08-22,44.24
2007-08-23,44.3
2007-08-24,44.78
2007-08-27,43.81
2007-08-28,42.32
2007-08-29,42.8
2007-08-30,42.99
2007-08-31,43.46
2007-09-04,44.9
2007-09-05,45.89
2007-09-06,46.9
2007-09-07,45.71
2007-09-10,45.39
2007-09-11,46.02
2007-09-12,45.71
2007-09-13,45.41
2007-09-14,46.44
2007-09-17,46.64
2007-09-18,47.78
2007-09-19,48.4
2007-09-20,47.95
2007-09-21,48.08
2007-09-24,47.01
2007-09-25,46.81
2007-09-26,46.82
2007-09-27,47.75
2007-09-28,48.06
2007-10-01,47.86
2007-10-02,49.07
2007-10-03,48.51
2007-10-04,49.01
2007-10-05,49.68
2007-10-08,49.2
2007-10-09,50.78
2007-10-10,51.63
2007-10-11,51.52
2007-10-12,51.41
2007-10-15,52.4
2007-10-16,52.54
2007-10-17,52.74
2007-10-18,52.52
2007-10-19,50.51
2007-10-22,49.9
2007-10-23,50.19
2007-10-24,52.22
2007-10-25,51.57
2007-10-26,53.63
2007-10-29,53.56
2007-10-30,51.54
2007-10-31,53.76
2007-11-01,52.98
2007-11-02,53.1
2007-11-05,52.6
2007-11-06,53.0
2007-11-07,51.65
2007-11-08,52.13
2007-11-09,51.31
2007-11-12,49.06
2007-11-13,50.09
2007-11-14,50.83
2007-11-15,49.98
2007-11-16,51.22
2007-11-19,50.26
2007-11-20,49.59
2007-11-21,49.01
2007-11-23,49.45
2007-11-26,48.52
2007-11-27,47.94
2007-11-28,48.35
2007-11-29,49.21
2007-11-30,49.79
2007-12-03,51.01
2007-12-04,50.68
2007-12-05,52.34
2007-12-06,54.16
2007-12-07,53.89
2007-12-10,53.75
2007-12-11,52.74
2007-12-12,53.94
2007-12-13,53.63
2007-12-14,52.13
2007-12-17,50.36
2007-12-18,49.89
2007-12-19,50.24
2007-12-20,51.17
2007-12-21,51.62
2007-12-24,51.77
2007-12-26,52.15
2007-12-27,52.02
2007-12-28,53.02
2007-12-31,52.61
2008-01-02,52.56
2008-01-03,53.91
2008-01-04,52.99
2008-01-07,51.7
2008-01-08,50.6
2008-01-09,51.57
2008-01-10,52.49
2008-01-11,52.25
2008-01-14,54.63
2008-01-15,53.86
2008-01-16,51.67
2008-01-17,49.31
2008-01-18,48.55
2008-01-22,47.85
2008-01-23,46.51
2008-01-24,48.08
2008-01-25,47.97
2008-01-28,49.33
2008-01-29,50.33
2008-01-30,50.13
2008-01-31,49.78
2008-02-01,51.11
2008-02-04,51.62
2008-02-05,49.63
2008-02-06,49.03
2008-02-07,48.32
2008-02-08,49.63
2008-02-11,52.6
2008-02-12,50.56
2008-02-13,50.42
2008-02-14,49.22
2008-02-15,48.8
2008-02-19,50.26
2008-02-20,51.5
2008-02-21,49.82
2008-02-22,50.33
2008-02-25,53.19
2008-02-26,54.38
2008-02-27,53.54
2008-02-28,56.66
2008-02-29,55.31
2008-03-03,55.85
2008-03-04,54.88
2008-03-05,57.12
2008-03-06,55.61
2008-03-07,54.72
2008-03-10,53.59
2008-03-11,55.58
2008-03-12,54.52
2008-03-13,56.58
2008-03-14,56.33
2008-03-17,52.99
2008-03-18,54.68
2008-03-19,50.64
2008-03-20,50.09
2008-03-24,50.76
2008-03-25,52.43
2008-03-26,53.8
2008-03-27,52.66
2008-03-28,52.02
2008-03-31,52.84
2008-04-01,53.28
2008-04-02,53.83
2008-04-03,53.84
2008-04-04,54.6
2008-04-07,56.03
2008-04-08,56.95
2008-04-09,57.04
2008-04-10,57.09
2008-04-11,56.26
2008-04-14,57.83
2008-04-15,58.54
2008-04-16,61.7
2008-04-17,61.5
2008-04-18,64.06
2008-04-21,63.67
2008-04-22,63.54
2008-04-23,62.45
2008-04-24,62.02
2008-04-25,65.38
2008-04-28,64.27
2008-04-29,60.9
2008-04-30,60.68
2008-05-01,59.12
2008-05-02,59.85
2008-05-05,61.63
2008-05-06,63.21
2008-05-07,62.21
2008-05-08,62.44
2008-05-09,62.67
2008-05-12,63.21
2008-05-13,64.56
2008-05-14,62.62
2008-05-15,62.34
2008-05-16,64.1
2008-05-19,65.73
2008-05-20,67.87
2008-05-21,67.32
2008-05-22,65.8
2008-05-23,64.61
2008-05-27,64.75
2008-05-28,64.76
2008-05-29,61.3
2008-05-30,63.1
2008-06-02,63.71
2008-06-03,62.8
2008-06-04,61.97
2008-06-05,65.7
2008-06-06,65.66
2008-06-09,67.04
2008-06-10,63.78
2008-06-11,64.31
2008-06-12,62.69
2008-06-13,61.96
2008-06-16,63.79
2008-06-17,67.61
2008-06-18,66.79
2008-06-19,62.96
2008-06-20,64.2
2008-06-23,67.64
2008-06-24,66.14
2008-06-25,64.15
2008-06-26,63.99
2008-06-27,64.97
2008-06-30,65.09
2008-07-01,66.66
2008-07-02,64.0
2008-07-03,60.91
2008-07-07,59.41
2008-07-08,58.45
2008-07-09,58.36
2008-07-10,60.25
2008-07-11,60.94
2008-07-14,60.55
2008-07-15,57.15
2008-07-16,55.67
2008-07-17,54.18
2008-07-18,54.0
2008-07-21,56.13
2008-07-22,53.49
2008-07-23,52.12
2008-07-24,52.34
2008-07-25,51.7
2008-07-28,51.71
2008-07-29,50.15
2008-07-30,51.82
2008-07-31,49.07
2008-08-01,48.35
2008-08-04,44.18
2008-08-05,43.91
2008-08-06,45.3
2008-08-07,44.16
2008-08-08,42.47
2008-08-11,42.84
2008-08-12,43.09
2008-08-13,44.29
2008-08-14,44.3
2008-08-15,44.2
2008-08-18,42.26
2008-08-19,43.62
2008-08-20,45.39
2008-08-21,45.98
2008-08-22,44.67
2008-08-25,44.56
2008-08-26,46.2
2008-08-27,47.27
2008-08-28,45.54
2008-08-29,45.27
2008-09-02,40.5
2008-09-03,38.72
2008-09-04,40.52
2008-09-05,42.01
2008-09-08,40.75
2008-09-09,35.21
2008-09-10,36.59
2008-09-11,35.54
2008-09-12,37.21
2008-09-15,34.2
2008-09-16,35.32
2008-09-17,35.07
2008-09-18,37.13
2008-09-19,40.51
2008-09-22,40.6
2008-09-23,39.14
2008-09-24,36.56
2008-09-25,35.79
2008-09-26,34.49
2008-09-29,29.77
2008-09-30,31.95
2008-10-01,30.21
2008-10-02,27.5
2008-10-03,27.3
2008-10-06,24.96
2008-10-07,22.5
2008-10-08,23.13
2008-10-09,21.16
2008-10-10,19.85
2008-10-13,23.23
2008-10-14,23.41
2008-10-15,19.15
2008-10-16,20.15
2008-10-17,20.54
2008-10-20,23.69
2008-10-21,22.2
2008-10-22,19.64
2008-10-23,20.81
2008-10-24,20.12
2008-10-27,18.66
2008-10-28,20.12
2008-10-29,20.67
2008-10-30,22.28
2008-10-31,22.91
2008-11-03,22.4
2008-11-04,24.37
2008-11-05,24.27
2008-11-06,21.67
2008-11-07,22.51
2008-11-10,22.69
2008-11-11,21.46
2008-11-12,18.88
2008-11-13,20.73
2008-11-14,19.88
2008-11-17,19.77
2008-11-18,20.06
2008-11-19,19.01
2008-11-20,15.65
2008-11-21,17.8
2008-11-24,19.48
2008-11-25,19.68
2008-11-26,23.16
2008-11-28,22.58
2008-12-01,19.33
2008-12-02,20.41
2008-12-03,20.31
2008-12-04,17.29
2008-12-05,16.94
2008-12-08,19.07
2008-12-09,19.51
2008-12-10,21.59
2008-12-11,21.82
2008-12-12,20.93
2008-12-15,20.16
2008-12-16,20.73
2008-12-17,20.91
2008-12-18,19.63
2008-12-19,20.02
2008-12-22,18.45
2008-12-23,17.95
2008-12-24,17.37
2008-12-26,18.28
2008-12-29,18.74
2008-12-30,19.25
2008-12-31,19.83
2009-01-02,21.03
2009-01-05,21.99
2009-01-06,23.3
2009-01-07,21.74
2009-01-08,22.33
2009-01-09,21.35
2009-01-12,20.39
2009-01-13,21.59
2009-01-14,19.5
2009-01-15,19.82
2009-01-16,20.03
2009-01-20,17.74
2009-01-21,19.24
2009-01-22,18.08
2009-01-23,18.76
2009-01-26,18.99
2009-01-27,18.6
2009-01-28,19.67
2009-01-29,18.75
2009-01-30,19.09
2009-02-02,18.52
2009-02-03,19.04
2009-02-04,19.44
2009-02-05,20.15
2009-02-06,22.56
2009-02-09,23.03
2009-02-10,21.93
2009-02-11,21.17
2009-02-12,21.41
2009-02-13,21.9
2009-02-17,20.65
2009-02-18,20.16
2009-02-19,19.82
2009-02-20,19.1
2009-02-23,17.69
2009-02-24,18.75
2009-02-25,18.82
2009-02-26,19.56
2009-02-27,19.35
2009-03-02,17.25
2009-03-03,18.26
2009-03-04,20.12
2009-03-05,19.61
2009-03-06,19.29
2009-03-09,19.39
2009-03-10,20.89
2009-03-11,20.79
2009-03-12,21.83
2009-03-13,20.92
2009-03-16,21.4
2009-03-17,22.66
2009-03-18,23.49
2009-03-19,24.73
2009-03-20,23.09
2009-03-23,25.34
2009-03-24,24.84
2009-03-25,25.17
2009-03-26,25.16
2009-03-27,24.09
2009-03-30,22.92
2009-03-31,22.69
2009-04-01,23.22
2009-04-02,24.45
2009-04-03,25.46
2009-04-06,25.82
2009-04-07,24.64
2009-04-08,25.29
2009-04-09,26.54
2009-04-13,26.82
2009-04-14,27.46
2009-04-15,27.26
2009-04-16,28.83
2009-04-17,28.7
2009-04-20,26.37
2009-04-21,27.63
2009-04-22,27.53
2009-04-23,29.84
2009-04-24,32.49
2009-04-27,32.87
2009-04-28,31.59
2009-04-29,31.15
2009-04-30,31.11
2009-05-01,32.65
2009-05-04,35.26
2009-05-05,32.55
2009-05-06,34.52
2009-05-07,33.01
2009-05-08,36.01
2009-05-11,33.83
2009-05-12,33.53
2009-05-13,31.79
2009-05-14,32.63
2009-05-15,31.09
2009-05-18,33.13
2009-05-19,33.63
2009-05-20,34.89
2009-05-21,33.8
2009-05-22,33.91
2009-05-26,34.75
2009-05-27,35.23
2009-05-28,36.29
2009-05-29,36.11
2009-06-01,37.67
2009-06-02,36.29
2009-06-03,34.49
2009-06-04,36.1
2009-06-05,36.15
2009-06-08,35.62
2009-06-09,35.67
2009-06-10,36.11
2009-06-11,37.36
2009-06-12,36.65
2009-06-15,35.8
2009-06-16,35.22
2009-06-17,34.04
2009-06-18,33.92
2009-06-19,32.88
2009-06-22,30.76
2009-06-23,30.35
2009-06-24,30.51
2009-06-25,31.13
2009-06-26,31.56
2009-06-29,32.31
2009-06-30,32.7
2009-07-01,32.71
2009-07-02,31.66
2009-07-06,30.32
2009-07-07,29.52
2009-07-08,29.11
2009-07-09,30.23
2009-07-10,30.33
2009-07-13,31.17
2009-07-14,32.58
2009-07-15,33.21
2009-07-16,34.05
2009-07-17,34.56
2009-07-20,35.47
2009-07-21,35.31
2009-07-22,35.56
2009-07-23,39.4
2009-07-24,40.55
2009-07-27,40.57
2009-07-28,39.23
2009-07-29,37.94
2009-07-30,39.2
2009-07-31,39.39
2009-08-03,41.22
2009-08-04,40.96
2009-08-05,40.84
2009-08-06,40.17
2009-08-07,40.31
2009-08-10,40.15
2009-08-11,39.3
2009-08-12,39.24
2009-08-13,40.29
2009-08-14,39.37
2009-08-17,37.62
2009-08-18,38.19
2009-08-19,39.22
2009-08-20,40.34
2009-08-21,41.38
2009-08-24,40.9
2009-08-25,39.19
2009-08-26,38.95
2009-08-27,39.07
2009-08-28,39.89
2009-08-31,38.68
2009-09-01,38.46
2009-09-02,37.95
2009-09-03,38.05
2009-09-04,39.1
2009-09-08,40.35
2009-09-09,40.84
2009-09-10,42.46
2009-09-11,42.98
2009-09-14,44.17
2009-09-15,45.05
2009-09-16,46.57
2009-09-17,44.81
2009-09-18,43.96
2009-09-21,43.45
2009-09-22,43.92
2009-09-23,43.09
2009-09-24,41.21
2009-09-25,41.25
2009-09-28,41.82
2009-09-29,42.31
2009-09-30,42.6
2009-10-01,41.32
2009-10-02,41.53
2009-10-05,43.71
2009-10-06,45.76
2009-10-07,44.9
2009-10-08,45.92
2009-10-09,45.56
2009-10-12,45.89
2009-10-13,46.63
2009-10-14,47.73
2009-10-15,48.47
2009-10-16,47.95
2009-10-19,49.19
2009-10-20,49.13
2009-10-21,47.98
2009-10-22,47.5
2009-10-23,46.13
2009-10-26,45.17
2009-10-27,45.2
2009-10-28,41.97
2009-10-29,43.65
2009-10-30,41.08
2009-11-02,41.78
2009-11-03,43.26
2009-11-04,42.02
2009-11-05,43.39
2009-11-06,42.8
2009-11-09,45.07
2009-11-10,45.62
2009-11-11,46.09
2009-11-12,43.76
2009-11-13,44.13
2009-11-16,45.39
2009-11-17,43.92
2009-11-18,43.95
2009-11-19,42.37
2009-11-20,41.14
2009-11-23,41.94
2009-11-24,42.83
2009-11-25,43.69
2009-11-27,42.42
2009-11-30,42.24
2009-12-01,43.39
2009-12-02,42.68
2009-12-03,41.32
2009-12-04,41.06
2009-12-07,41.0
2009-12-08,39.99
2009-12-09,39.7
2009-12-10,41.65
2009-12-11,41.23
2009-12-14,44.4
2009-12-15,45.52
2009-12-16,46.29
2009-12-17,46.37
2009-12-18,47.18
2009-12-21,47.85
2009-12-22,48.07
2009-12-23,50.05
2009-12-24,50.43
2009-12-28,49.74
2009-12-29,49.57
2009-12-30,49.3
2009-12-31,48.25
2010-01-04,49.87
2010-01-05,50.64
2010-01-06,51.1
2010-01-07,50.37
2010-01-08,50.5
2010-01-11,49.62
2010-01-12,48.95
2010-01-13,50.58
2010-01-14,53.2
2010-01-15,52.87
2010-01-19,53.39
2010-01-20,52.53
2010-01-21,52.42
2010-01-22,50.5
2010-01-25,51.5
2010-01-26,50.7
2010-01-27,49.32
2010-01-28,49.59
2010-01-29,49.04
2010-02-01,51.91
2010-02-02,53.23
2010-02-03,51.9
2010-02-04,49.29
2010-02-05,49.79
2010-02-08,49.11
2010-02-09,49.92
2010-02-10,49.84
2010-02-11,51.17
2010-02-12,51.96
2010-02-16,52.63
2010-02-17,50.74
2010-02-18,50.69
2010-02-19,50.59
2010-02-22,49.37
2010-02-23,47.93
2010-02-24,49.14
2010-02-25,50.16
2010-02-26,51.02
2010-03-01,52.16
2010-03-02,52.97
2010-03-03,53.63
2010-03-04,52.39
2010-03-05,52.76
2010-03-08,52.61
2010-03-09,52.58
2010-03-10,54.24
2010-03-11,54.89
2010-03-12,54.75
2010-03-15,53.66
2010-03-16,54.22
2010-03-17,54.2
2010-03-18,51.41
2010-03-19,50.0
2010-03-22,49.48
2010-03-23,50.58
2010-03-24,49.86
2010-03-25,48.35
2010-03-26,47.56
2010-03-29,49.79
2010-03-30,50.62
2010-03-31,52.07
2010-04-01,54.25
2010-04-05,55.44
2010-04-06,55.75
2010-04-07,55.57
2010-04-08,55.42
2010-04-09,55.15
2010-04-12,54.34
2010-04-13,53.78
2010-04-14,54.0
2010-04-15,53.76
2010-04-16,52.79
2010-04-19,52.64
2010-04-20,54.02
2010-04-21,53.67
2010-04-22,53.73
2010-04-23,56.72
2010-04-26,57.11
2010-04-27,55.68
2010-04-28,57.0
2010-04-29,57.93
2010-04-30,58.24
2010-05-03,59.29
2010-05-04,57.8
2010-05-05,54.79
2010-05-06,53.16
2010-05-07,51.14
2010-05-10,54.84
2010-05-11,54.36
2010-05-12,56.66
2010-05-13,56.37
2010-05-14,53.99
2010-05-17,52.55
2010-05-18,51.43
2010-05-19,50.07
2010-05-20,46.64
2010-05-21,48.13
2010-05-24,47.15
2010-05-25,47.77
2010-05-26,48.01
2010-05-27,51.0
2010-05-28,52.13
2010-06-01,49.47
2010-06-02,51.31
2010-06-03,52.23
2010-06-04,49.93
2010-06-07,49.94
2010-06-08,51.7
2010-06-09,51.82
2010-06-10,53.74
2010-06-11,54.43
2010-06-14,54.3
2010-06-15,56.98
2010-06-16,56.69
2010-06-17,56.34
2010-06-18,55.46
2010-06-21,55.9
2010-06-22,53.6
2010-06-23,53.41
2010-06-24,52.06
2010-06-25,52.33
2010-06-28,51.81
2010-06-29,49.12
2010-06-30,48.9
2010-07-01,47.87
2010-07-02,47.36
2010-07-06,48.48
2010-07-07,51.06
2010-07-08,52.38
2010-07-09,51.94
2010-07-12,50.9
2010-07-13,51.42
2010-07-14,51.35
2010-07-15,51.24
2010-07-16,49.72
2010-07-19,50.12
2010-07-20,51.19
2010-07-21,50.06
2010-07-22,52.11
2010-07-23,51.46
2010-07-26,52.62
2010-07-27,53.37
2010-07-28,53.38
2010-07-29,53.15
2010-07-30,53.52
2010-08-02,54.91
2010-08-03,54.4
2010-08-04,54.79
2010-08-05,54.78
2010-08-06,54.18
2010-08-09,55.65
2010-08-10,55.33
2010-08-11,52.76
2010-08-12,51.4
2010-08-13,50.63
2010-08-16,50.37
2010-08-17,52.3
2010-08-18,51.92
2010-08-19,50.95
2010-08-20,49.6
2010-08-23,49.39
2010-08-24,48.22
2010-08-25,47.02
2010-08-26,46.75
2010-08-27,47.87
2010-08-30,48.49
2010-08-31,47.96
2010-09-01,49.2
2010-09-02,49.93
2010-09-03,51.12
2010-09-07,50.24
2010-09-08,50.67
2010-09-09,50.69
2010-09-10,51.21
2010-09-13,52.65
2010-09-14,52.91
2010-09-15,52.6
2010-09-16,53.3
2010-09-17,52.99
2010-09-20,53.96
2010-09-21,53.67
2010-09-22,53.18
2010-09-23,53.54
2010-09-24,55.17
2010-09-27,55.65
2010-09-28,56.26
2010-09-29,57.24
2010-09-30,57.51
2010-10-01,58.57
2010-10-04,57.01
2010-10-05,57.48
2010-10-06,57.66
2010-10-07,57.68
2010-10-08,58.45
2010-10-11,58.84
2010-10-12,58.42
2010-10-13,59.81
2010-10-14,59.8
2010-10-15,59.65
2010-10-18,59.7
2010-10-19,58.02
2010-10-20,58.81
2010-10-21,58.92
2010-10-22,59.12
2010-10-25,59.97
2010-10-26,60.14
2010-10-27,58.66
2010-10-28,58.89
2010-10-29,59.64
2010-11-01,59.0
2010-11-02,60.73
2010-11-03,60.85
2010-11-04,63.74
2010-11-05,64.63
2010-11-08,65.08
2010-11-09,64.41
2010-11-10,66.19
2010-11-11,66.27
2010-11-12,65.83
2010-11-15,65.43
2010-11-16,63.92
2010-11-17,64.25
2010-11-18,66.23
2010-11-19,67.89
2010-11-22,68.04
2010-11-23,66.88
2010-11-24,67.67
2010-11-26,67.13
2010-11-29,66.93
2010-11-30,66.85
2010-12-01,68.51
2010-12-02,69.69
2010-12-03,70.17
2010-12-06,70.8
2010-12-07,71.48
2010-12-08,70.08
2010-12-09,69.96
2010-12-10,72.45
2010-12-13,71.4
2010-12-14,71.07
2010-12-15,71.49
2010-12-16,71.76
2010-12-17,71.54
2010-12-20,71.16
2010-12-21,73.04
2010-12-22,72.99
2010-12-23,72.9
2010-12-27,71.48
2010-12-28,71.95
2010-12-29,72.41
2010-12-30,72.0
2010-12-31,72.11
2011-01-03,72.76
2011-01-04,71.32
2011-01-05,72.39
2011-01-06,71.11
2011-01-07,70.85
2011-01-10,72.05
2011-01-11,71.02
2011-01-12,72.67
2011-01-13,71.82
2011-01-14,71.04
2011-01-18,71.94
2011-01-19,69.83
2011-01-20,68.82
2011-01-21,68.3
2011-01-24,68.22
2011-01-25,67.74
2011-01-26,69.96
2011-01-27,69.05
2011-01-28,69.0
2011-01-31,73.22
2011-02-01,74.07
2011-02-02,74.72
2011-02-03,74.48
2011-02-04,74.66
2011-02-07,73.02
2011-02-08,71.87
2011-02-09,70.54
2011-02-10,70.68
2011-02-11,70.87
2011-02-14,72.01
2011-02-15,71.5
2011-02-16,71.58
2011-02-17,69.13
2011-02-18,68.54
2011-02-22,66.0
2011-02-23,68.12
2011-02-24,69.29
2011-02-25,72.16
2011-02-28,72.82
2011-03-01,70.69
2011-03-02,70.12
2011-03-03,70.6
2011-03-04,71.98
2011-03-07,72.01
2011-03-08,70.19
2011-03-09,71.36
2011-03-10,68.5
2011-03-11,70.37
2011-03-14,71.12
2011-03-15,69.65
2011-03-16,68.43
2011-03-17,70.81
2011-03-18,72.1
2011-03-21,75.16
2011-03-22,75.57
2011-03-23,73.26
2011-03-24,72.77
2011-03-25,75.62
2011-03-28,74.44
2011-03-29,76.45
2011-03-30,76.08
2011-03-31,76.03
2011-04-01,75.77
2011-04-04,75.17
2011-04-05,75.63
2011-04-06,75.07
2011-04-07,75.24
2011-04-08,75.94
2011-04-11,72.5
2011-04-12,70.57
2011-04-13,70.71
2011-04-14,70.21
2011-04-15,71.11
2011-04-18,69.98
2011-04-19,71.7
2011-04-20,72.47
2011-04-21,71.65
2011-04-25,70.41
2011-04-26,70.18
2011-04-27,69.68
2011-04-28,69.93
2011-04-29,70.81
2011-05-02,70.04
2011-05-03,67.33
2011-05-04,66.89
2011-05-05,66.06
2011-05-06,67.66
2011-05-09,70.74
2011-05-10,71.12
2011-05-11,69.01
2011-05-12,69.74
2011-05-13,70.04
2011-05-16,69.75
2011-05-17,69.4
2011-05-18,72.99
2011-05-19,73.29
2011-05-20,74.93
2011-05-23,72.92
2011-05-24,72.88
2011-05-25,73.76
2011-05-26,73.67
2011-05-27,74.14
2011-05-31,74.53
2011-06-01,71.94
2011-06-02,72.71
2011-06-03,72.8
2011-06-06,70.87
2011-06-07,68.72
2011-06-08,68.37
2011-06-09,68.44
2011-06-10,67.83
2011-06-13,65.52
2011-06-14,66.47
2011-06-15,64.04
2011-06-16,63.75
2011-06-17,63.78
2011-06-20,62.96
2011-06-21,65.8
2011-06-22,65.84
2011-06-23,65.76
2011-06-24,64.68
2011-06-27,64.98
2011-06-28,66.62
2011-06-29,68.16
2011-06-30,68.0
2011-07-01,69.22
2011-07-05,70.34
2011-07-06,69.84
2011-07-07,70.36
2011-07-08,69.84
2011-07-11,67.09
2011-07-12,67.64
2011-07-13,68.08
2011-07-14,66.93
2011-07-15,69.71
2011-07-18,69.05
2011-07-19,71.28
2011-07-20,71.62
2011-07-21,72.8
2011-07-22,72.92
2011-07-25,72.0
2011-07-26,71.97
2011-07-27,69.14
2011-07-28,68.04
2011-07-29,67.45
2011-08-01,66.95
2011-08-02,64.52
2011-08-03,64.01
2011-08-04,58.45
2011-08-05,55.64
2011-08-08,49.43
2011-08-09,52.09
2011-08-10,49.45
2011-08-11,53.81
2011-08-12,54.62
2011-08-15,56.23
2011-08-16,53.21
2011-08-17,53.37
2011-08-18,48.39
2011-08-19,46.69
2011-08-22,45.45
2011-08-23,47.52
2011-08-24,48.28
2011-08-25,46.52
2011-08-26,48.07
2011-08-29,49.48
2011-08-30,50.47
2011-08-31,50.92
2011-09-01,50.15
2011-09-02,48.04
2011-09-06,47.12
2011-09-07,49.82
2011-09-08,50.04
2011-09-09,47.63
2011-09-12,46.24
2011-09-13,46.81
2011-09-14,48.24
2011-09-15,48.9
2011-09-16,48.88
2011-09-19,48.48
2011-09-20,47.69
2011-09-21,44.34
2011-09-22,40.89
2011-09-23,40.24
2011-09-26,42.24
2011-09-27,43.35
2011-09-28,41.33
2011-09-29,40.69
2011-09-30,39.77
2011-10-03,37.01
2011-10-04,39.18
2011-10-05,41.31
2011-10-06,42.33
2011-10-07,40.59
2011-10-10,43.06
2011-10-11,42.3
2011-10-12,42.46
2011-10-13,40.8
2011-10-14,41.68
2011-10-17,40.44
2011-10-18,41.1
2011-10-19,42.02
2011-10-20,35.8
2011-10-21,36.73
2011-10-24,37.1
2011-10-25,37.11
2011-10-26,38.18
2011-10-27,40.68
2011-10-28,41.99
2011-10-31,40.32
2011-11-01,38.74
2011-11-02,41.1
2011-11-03,42.33
2011-11-04,42.83
2011-11-07,42.14
2011-11-08,42.83
2011-11-09,40.19
2011-11-10,42.39
2011-11-11,44.01
2011-11-14,43.15
2011-11-15,42.99
2011-11-16,42.47
2011-11-17,40.46
2011-11-18,40.89
2011-11-21,40.84
2011-11-22,40.0
2011-11-23,38.87
2011-11-25,38.69
2011-11-28,41.1
2011-11-29,42.31
2011-11-30,45.84
2011-12-01,45.89
2011-12-02,45.65
2011-12-05,43.98
2011-12-06,43.33
2011-12-07,43.16
2011-12-08,41.32
2011-12-09,41.94
2011-12-12,40.33
2011-12-13,39.04
2011-12-14,37.61
2011-12-15,36.98
2011-12-16,37.04
2011-12-19,35.91
2011-12-20,37.58
2011-12-21,37.19
2011-12-22,38.03
2011-12-23,37.59
2011-12-27,37.69
2011-12-28,37.2
2011-12-29,38.0
2011-12-30,37.76
2012-01-03,39.54
2012-01-04,39.21
2012-01-05,38.69
2012-01-06,38.14
2012-01-09,38.91
2012-01-10,39.46
2012-01-11,38.28
2012-01-12,38.28
2012-01-13,38.07
2012-01-17,38.5
2012-01-18,39.23
2012-01-19,39.25
2012-01-20,38.7
2012-01-23,40.02
2012-01-24,39.89
2012-01-25,41.29
2012-01-26,39.5
2012-01-27,39.83
2012-01-30,38.63
2012-01-31,37.8
2012-02-01,37.3
2012-02-02,37.54
2012-02-03,38.3
2012-02-06,38.81
2012-02-07,38.28
2012-02-08,38.17
2012-02-09,38.28
2012-02-10,38.17
2012-02-13,38.15
2012-02-14,39.43
2012-02-15,39.82
2012-02-16,41.32
2012-02-17,42.02
2012-02-21,42.2
2012-02-22,36.98
2012-02-23,37.01
2012-02-24,36.69
2012-02-27,36.14
2012-02-28,36.11
2012-02-29,36.04
2012-03-01,36.06
2012-03-02,35.5
2012-03-05,35.0
2012-03-06,34.21
2012-03-07,34.73
2012-03-08,35.61
2012-03-09,35.55
2012-03-12,35.16
2012-03-13,35.83
2012-03-14,35.63
2012-03-15,36.01
2012-03-16,36.34
2012-03-19,36.05
2012-03-20,35.41
2012-03-21,35.21
2012-03-22,34.55
2012-03-23,35.83
2012-03-26,35.39
2012-03-27,34.75
2012-03-28,34.44
2012-03-29,34.09
2012-03-30,34.71
2012-04-02,35.21
2012-04-03,35.18
2012-04-04,35.47
2012-04-05,35.14
2012-04-09,34.23
2012-04-10,33.09
2012-04-11,32.3
2012-04-12,33.68
2012-04-13,32.86
2012-04-16,32.33
2012-04-17,33.74
2012-04-18,32.72
2012-04-19,32.68
2012-04-20,32.45
2012-04-23,32.48
2012-04-24,33.74
2012-04-25,35.14
2012-04-26,35.73
2012-04-27,35.97
2012-04-30,35.89
2012-05-01,36.33
2012-05-02,35.42
2012-05-03,34.97
2012-05-04,34.4
2012-05-07,33.92
2012-05-08,33.57
2012-05-09,33.04
2012-05-10,32.83
2012-05-11,32.26
2012-05-14,31.52
2012-05-15,30.03
2012-05-16,29.58
2012-05-17,28.45
2012-05-18,28.22
2012-05-21,29.44
2012-05-22,29.25
2012-05-23,29.89
2012-05-24,29.69
2012-05-25,31.0
2012-05-29,32.08
2012-05-30,30.58
2012-05-31,29.98
2012-06-01,28.33
2012-06-04,28.08
2012-06-05,28.44
2012-06-06,29.19
2012-06-07,29.02
2012-06-08,29.17
2012-06-11,27.54
2012-06-12,27.61
2012-06-13,26.72
2012-06-14,26.62
2012-06-15,26.99
2012-06-18,26.54
2012-06-19,27.62
2012-06-20,27.08
2012-06-21,25.49
2012-06-22,26.55
2012-06-25,25.86
2012-06-26,25.5
2012-06-27,26.22
2012-06-28,27.53
2012-06-29,29.31
2012-07-02,29.45
2012-07-03,30.07
2012-07-05,30.0
2012-07-06,29.26
2012-07-09,29.22
2012-07-10,28.22
2012-07-11,28.7
2012-07-12,29.04
2012-07-13,29.99
2012-07-16,30.33
2012-07-17,31.37
2012-07-18,31.45
2012-07-19,32.66
2012-07-20,32.04
2012-07-23,31.4
2012-07-24,30.41
2012-07-25,29.84
2012-07-26,30.95
2012-07-27,31.31
2012-07-30,31.12
2012-07-31,30.6
2012-08-01,30.65
2012-08-02,29.33
2012-08-03,30.04
2012-08-06,30.26
2012-08-07,31.71
2012-08-08,31.49
2012-08-09,32.37
2012-08-10,32.09
2012-08-13,31.75
2012-08-14,31.91
2012-08-15,32.32
2012-08-16,32.94
2012-08-17,32.36
2012-08-20,32.2
2012-08-21,32.01
2012-08-22,32.14
2012-08-23,31.32
2012-08-24,31.7
2012-08-27,31.79
2012-08-28,31.76
2012-08-29,31.54
2012-08-30,31.63
2012-08-31,32.71
2012-09-04,33.0
2012-09-05,32.39
2012-09-06,33.04
2012-09-07,33.32
2012-09-10,33.4
2012-09-11,33.99
2012-09-12,33.75
2012-09-13,34.34
2012-09-14,35.12
2012-09-17,34.88
2012-09-18,34.21
2012-09-19,33.46
2012-09-20,32.54
2012-09-21,33.03
2012-09-24,32.34
2012-09-25,31.96
2012-09-26,31.24
2012-09-27,31.56
2012-09-28,31.34
2012-10-01,31.35
2012-10-02,31.18
2012-10-03,30.1
2012-10-04,30.37
2012-10-05,30.54
2012-10-08,30.74
2012-10-09,32.62
2012-10-10,32.95
2012-10-11,33.4
2012-10-12,33.14
2012-10-15,33.3
2012-10-16,34.0
2012-10-17,34.49
2012-10-18,34.68
2012-10-19,34.14
2012-10-22,33.9
2012-10-23,33.36
2012-10-24,27.48
2012-10-25,27.21
2012-10-26,27.07
2012-10-31,27.15
2012-11-01,26.9
2012-11-02,26.36
2012-11-05,26.55
2012-11-06,26.41
2012-11-07,25.52
2012-11-08,25.04
2012-11-09,25.18
2012-11-12,24.99
2012-11-13,24.93
2012-11-14,24.33
2012-11-15,24.3
2012-11-16,24.23
2012-11-19,24.42
2012-11-20,23.87
2012-11-21,23.95
2012-11-23,23.98
2012-11-26,24.15
2012-11-27,24.1
2012-11-28,23.98
2012-11-29,24.17
2012-11-30,24.34
2012-12-03,24.42
2012-12-04,24.28
2012-12-05,25.14
2012-12-06,25.0
2012-12-07,25.75
2012-12-10,26.02
2012-12-11,26.62
2012-12-12,26.54
2012-12-13,25.87
2012-12-14,25.72
2012-12-17,26.4
2012-12-18,27.18
2012-12-19,26.98
2012-12-20,27.13
2012-12-21,26.94
2012-12-24,26.56
2012-12-26,26.3
2012-12-27,26.27
2012-12-28,25.82
2012-12-31,26.77
2013-01-02,27.26
2013-01-03,27.44
2013-01-04,28.04
2013-01-07,27.72
2013-01-08,27.26
2013-01-09,27.28
2013-01-10,28.19
2013-01-11,27.97
2013-01-14,27.71
2013-01-15,28.03
2013-01-16,28.39
2013-01-17,28.55
2013-01-18,28.61
2013-01-22,29.14
2013-01-23,28.62
2013-01-24,28.55
2013-01-25,28.84
2013-01-28,28.76
2013-01-29,29.34
2013-01-30,29.7
2013-01-31,29.49
2013-02-01,29.52
2013-02-04,29.26
2013-02-05,29.85
2013-02-06,29.765
2013-02-07,29.625
2013-02-08,29.68
2013-02-11,29.45
2013-02-12,29.42
2013-02-13,29.795
2013-02-14,28.1
2013-02-15,27.12
2013-02-19,27.27
2013-02-20,24.74
2013-02-21,24.44
2013-02-22,24.93
2013-02-25,23.79
2013-02-26,23.52
2013-02-27,23.225
2013-02-28,23.135
2013-03-01,23.04
2013-03-04,22.49
2013-03-05,22.72
2013-03-06,23.14
2013-03-07,23.35
2013-03-08,23.74
2013-03-11,23.89
2013-03-12,23.54
2013-03-13,23.83
2013-03-14,24.15
2013-03-15,24.06
2013-03-18,23.56
2013-03-19,23.41
2013-03-20,23.38
2013-03-21,22.96
2013-03-22,22.86
2013-03-25,22.58
2013-03-26,22.62
2013-03-27,22.39
2013-03-28,22.4
2013-04-01,21.96
2013-04-02,22.08
2013-04-03,21.99
2013-04-04,21.47
2013-04-05,22.19
2013-04-08,22.39
2013-04-09,22.7
2013-04-10,22.66
2013-04-11,22.64
2013-04-12,21.66
2013-04-15,20.19
2013-04-16,20.08
2013-04-17,20.44
2013-04-18,20.8
2013-04-19,20.04
2013-04-22,19.96
2013-04-23,19.82
2013-04-24,21.33
2013-04-25,21.91
2013-04-26,22.39
2013-04-29,21.97
2013-04-30,21.76
2013-05-01,21.7
2013-05-02,22.08
2013-05-03,22.77
2013-05-06,22.9
2013-05-07,23.11
2013-05-08,22.88
2013-05-09,22.57
2013-05-10,23.67
2013-05-13,23.32
2013-05-14,23.78
2013-05-15,23.76
2013-05-16,23.31
2013-05-17,23.56
2013-05-20,24.25
2013-05-21,24.66
2013-05-22,24.63
2013-05-23,24.8
2013-05-24,24.36
2013-05-28,24.73
2013-05-29,24.92
2013-05-30,24.9
2013-05-31,23.82
2013-06-03,23.92
2013-06-04,23.73
2013-06-05,23.31
2013-06-06,22.96
2013-06-07,23.55
2013-06-10,23.59
2013-06-11,22.78
2013-06-12,22.36
2013-06-13,22.81
2013-06-14,22.48
2013-06-17,23.01
2013-06-18,23.915
2013-06-19,24.49
2013-06-20,23.28
2013-06-21,23.56
2013-06-24,23.42
2013-06-25,24.01
2013-06-26,24.15
2013-06-27,24.11
2013-06-28,23.93
2013-07-01,24.16
2013-07-02,24.08
2013-07-03,23.93
2013-07-05,24.48
2013-07-08,24.82
2013-07-09,25.0
2013-07-10,25.22
2013-07-11,25.51
2013-07-12,25.73
2013-07-15,25.7
2013-07-16,26.16
2013-07-17,26.67
2013-07-18,27.09
2013-07-19,27.67
2013-07-22,27.08
2013-07-23,26.9
2013-07-24,26.43
2013-07-25,24.83
2013-07-26,24.75
2013-07-29,24.51
2013-07-30,24.47
2013-07-31,24.59
2013-08-01,25.1
2013-08-02,24.5
2013-08-05,24.83
2013-08-06,24.23
2013-08-07,23.95
2013-08-08,24.58
2013-08-09,24.65
