date,close_price
1998-01-02,7.72428
1998-01-05,7.92382
1998-01-06,8.04612
1998-01-07,8.1298
1998-01-08,8.20705
1998-01-09,8.08474
1998-01-12,8.04612
1998-01-13,8.08474
1998-01-14,8.08474
1998-01-15,8.04612
1998-01-16,8.04612
1998-01-20,8.20705
1998-01-21,7.84658
1998-01-22,7.7629
1998-01-23,7.7629
1998-01-26,7.84658
1998-01-27,7.68566
1998-01-28,7.72428
1998-01-29,7.68566
1998-01-30,7.92382
1998-02-02,7.92382
1998-02-03,7.92382
1998-02-04,8.04612
1998-02-05,8.08474
1998-02-06,8.20705
1998-02-09,8.08474
1998-02-10,8.08474
1998-02-11,8.08474
1998-02-12,8.16842
1998-02-13,8.1298
1998-02-17,8.08474
1998-02-18,8.1298
1998-02-19,8.0075
1998-02-20,8.0075
1998-02-23,8.04612
1998-02-24,8.04612
1998-02-25,8.08474
1998-02-26,8.08474
1998-02-27,8.0075
1998-03-02,8.0075
1998-03-03,7.92382
1998-03-04,7.92382
1998-03-05,7.96888
1998-03-06,8.1298
1998-03-09,8.16842
1998-03-10,8.32935
1998-03-11,8.36797
1998-03-12,8.45165
1998-03-13,8.85073
1998-03-16,8.68981
1998-03-17,8.61257
1998-03-18,8.61257
1998-03-19,8.61257
1998-03-20,9.01166
1998-03-23,8.85073
1998-03-24,8.88936
1998-03-25,8.81211
1998-03-26,8.93441
1998-03-27,8.88936
1998-03-30,9.09534
1998-03-31,9.17258
1998-04-01,9.53305
1998-04-02,9.53305
1998-04-03,9.53305
1998-04-06,9.81627
1998-04-07,9.37212
1998-04-08,9.81627
1998-04-09,9.73903
1998-04-13,9.81627
1998-04-14,9.73903
1998-04-15,9.73903
1998-04-16,9.53305
1998-04-17,9.5781
1998-04-20,9.29488
1998-04-21,9.3335
1998-04-22,9.3335
1998-04-23,9.2112
1998-04-24,9.17258
1998-04-27,8.97304
1998-04-28,8.97304
1998-04-29,8.93441
1998-04-30,9.05028
1998-05-01,9.53305
1998-05-04,9.5781
1998-05-05,9.61673
1998-05-06,9.93857
1998-05-07,10.0158
1998-05-08,10.2604
1998-05-11,10.2218
1998-05-12,10.5436
1998-05-13,10.2218
1998-05-14,10.299
1998-05-15,10.3377
1998-05-18,9.97719
1998-05-19,10.1381
1998-05-20,10.1767
1998-05-21,10.0158
1998-05-22,10.0609
1998-05-26,9.93857
1998-05-27,9.97719
1998-05-28,10.0609
1998-05-29,10.2218
1998-06-01,10.4986
1998-06-02,10.7432
1998-06-03,10.7046
1998-06-04,10.5436
1998-06-05,10.4986
1998-06-08,10.3827
1998-06-09,10.3377
1998-06-10,10.7046
1998-06-11,10.5436
1998-06-12,10.4213
1998-06-15,10.4986
1998-06-16,10.299
1998-06-17,10.3827
1998-06-18,10.4213
1998-06-19,10.3377
1998-06-22,10.2218
1998-06-23,10.3827
1998-06-24,10.5436
1998-06-25,10.7432
1998-06-26,10.7432
1998-06-29,10.9041
1998-06-30,10.8655
1998-07-01,10.7818
1998-07-02,10.7432
1998-07-06,10.7818
1998-07-07,10.6595
1998-07-08,10.7046
1998-07-09,10.6209
1998-07-10,10.5436
1998-07-13,10.7432
1998-07-14,10.3827
1998-07-15,10.5436
1998-07-16,10.5823
1998-07-17,10.3827
1998-07-20,10.46
1998-07-21,10.3827
1998-07-22,10.2604
1998-07-23,10.1767
1998-07-24,10.1381
1998-07-27,9.89995
1998-07-28,9.81627
1998-07-29,9.81627
1998-07-30,9.97719
1998-07-31,9.81627
1998-08-03,9.77765
1998-08-04,9.61673
1998-08-05,9.73903
1998-08-06,9.73903
1998-08-07,9.93857
1998-08-10,9.85489
1998-08-11,9.5781
1998-08-12,9.73903
1998-08-13,9.61673
1998-08-14,9.5781
1998-08-17,9.65535
1998-08-18,9.69397
1998-08-19,9.61673
1998-08-20,9.73903
1998-08-21,9.85489
1998-08-24,10.1381
1998-08-25,10.1767
1998-08-26,9.89995
1998-08-27,9.73903
1998-08-28,9.65535
1998-08-31,9.53305
1998-09-01,9.61673
1998-09-02,9.61673
1998-09-03,9.53305
1998-09-04,9.37212
1998-09-08,9.65535
1998-09-09,9.61673
1998-09-10,10.0995
1998-09-11,10.1767
1998-09-14,9.97719
1998-09-15,10.1767
1998-09-16,10.1381
1998-09-17,9.97719
1998-09-18,10.0158
1998-09-21,9.93857
1998-09-22,10.1381
1998-09-23,10.2218
1998-09-24,10.0609
1998-09-25,10.1767
1998-09-28,10.299
1998-09-29,10.6595
1998-09-30,10.7046
1998-10-01,10.7046
1998-10-02,10.9427
1998-10-05,10.8655
1998-10-06,10.8204
1998-10-07,10.9041
1998-10-08,10.8655
1998-10-09,10.7818
1998-10-12,10.299
1998-10-13,10.4986
1998-10-14,10.7818
1998-10-15,10.6209
1998-10-16,10.6209
1998-10-19,10.5823
1998-10-20,10.3827
1998-10-21,10.46
1998-10-22,10.5436
1998-10-23,10.4213
1998-10-26,10.5823
1998-10-27,10.2604
1998-10-28,10.1381
1998-10-29,10.0995
1998-10-30,10.0158
1998-11-02,10.0995
1998-11-03,10.1767
1998-11-04,10.299
1998-11-05,10.46
1998-11-06,10.5436
1998-11-09,10.46
1998-11-10,10.4986
1998-11-11,10.3377
1998-11-12,10.299
1998-11-13,10.299
1998-11-16,10.299
1998-11-17,10.2218
1998-11-18,10.1381
1998-11-19,10.0609
1998-11-20,10.0995
1998-11-23,10.0158
1998-11-24,9.97719
1998-11-25,10.0158
1998-11-27,10.0158
1998-11-30,10.1381
1998-12-01,10.3377
1998-12-02,10.3377
1998-12-03,10.299
1998-12-04,10.3827
1998-12-07,10.4213
1998-12-08,10.5436
1998-12-09,10.46
1998-12-10,10.46
1998-12-11,10.4213
1998-12-14,10.2604
1998-12-15,10.299
1998-12-16,10.4213
1998-12-17,10.4986
1998-12-18,10.4213
1998-12-21,10.46
1998-12-22,10.4213
1998-12-23,10.2218
1998-12-24,10.2218
1998-12-28,10.1381
1998-12-29,10.0995
1998-12-30,10.0995
1998-12-31,10.2604
1999-01-04,10.4213
1999-01-05,10.4213
1999-01-06,10.3827
1999-01-07,10.4213
1999-01-08,10.2604
1999-01-11,10.3377
1999-01-12,10.2604
1999-01-13,10.2218
1999-01-14,10.2604
1999-01-15,10.299
1999-01-19,10.3377
1999-01-20,10.299
1999-01-21,10.1767
1999-01-22,10.2218
1999-01-25,10.1381
1999-01-26,10.0609
1999-01-27,9.93857
1999-01-28,10.0609
1999-01-29,9.85489
1999-02-01,9.97719
1999-02-02,9.93857
1999-02-03,10.1381
1999-02-04,10.0995
1999-02-05,10.0158
1999-02-08,10.0995
1999-02-09,9.97719
1999-02-10,9.97719
1999-02-11,9.73903
1999-02-12,9.49442
1999-02-16,9.41718
1999-02-17,9.53305
1999-02-18,9.5781
1999-02-19,9.61673
1999-02-22,9.61673
1999-02-23,9.5781
1999-02-24,9.5781
1999-02-25,9.5781
1999-02-26,9.65535
1999-03-01,9.53305
1999-03-02,9.65535
1999-03-03,9.65535
1999-03-04,9.85489
1999-03-05,10.0158
1999-03-08,9.89995
1999-03-09,9.73903
1999-03-10,9.65535
1999-03-11,9.61673
1999-03-12,9.53305
1999-03-15,9.61673
1999-03-16,9.41718
1999-03-17,9.41718
1999-03-18,9.49442
1999-03-19,9.29488
1999-03-22,9.25626
1999-03-23,9.29488
1999-03-24,9.25626
1999-03-25,9.25626
1999-03-26,9.4558
1999-03-29,9.37212
1999-03-30,9.17258
1999-03-31,8.88936
1999-04-01,9.09534
1999-04-05,9.13396
1999-04-06,9.01166
1999-04-07,8.85073
1999-04-08,8.97304
1999-04-09,9.09534
1999-04-12,9.01166
1999-04-13,8.77349
1999-04-14,8.85073
1999-04-15,9.01166
1999-04-16,9.13396
1999-04-19,9.3335
1999-04-20,9.53305
1999-04-21,9.41718
1999-04-22,9.49442
1999-04-23,9.41718
1999-04-26,9.4558
1999-04-27,9.41718
1999-04-28,9.4558
1999-04-29,9.97719
1999-04-30,10.2604
1999-05-03,10.2218
1999-05-04,10.2604
1999-05-05,10.1381
1999-05-06,10.299
1999-05-07,10.4213
1999-05-10,10.5823
1999-05-11,10.7046
1999-05-12,10.6209
1999-05-13,10.8204
1999-05-14,10.7818
1999-05-17,10.7432
1999-05-18,10.8204
1999-05-19,10.7818
1999-05-20,10.8204
1999-05-21,10.8655
1999-05-24,10.9427
1999-05-25,10.9813
1999-05-26,11.0264
1999-05-27,11.226
1999-05-28,11.3483
1999-06-01,11.226
1999-06-02,11.1873
1999-06-03,11.1873
1999-06-04,11.226
1999-06-07,11.1873
1999-06-08,11.065
1999-06-09,11.1423
1999-06-10,10.9813
1999-06-11,10.8655
1999-06-14,11.1423
1999-06-15,11.1423
1999-06-16,11.5478
1999-06-17,11.3869
1999-06-18,11.4255
1999-06-21,11.4255
1999-06-22,11.5864
1999-06-23,11.5478
1999-06-24,11.3869
1999-06-25,11.3032
1999-06-28,11.4641
1999-06-29,11.5092
1999-06-30,11.3869
1999-07-01,11.2646
1999-07-02,11.3483
1999-07-06,11.4255
1999-07-07,11.3483
1999-07-08,11.3483
1999-07-09,11.5478
1999-07-12,11.625
1999-07-13,11.6701
1999-07-14,11.786
1999-07-15,11.8696
1999-07-16,11.8696
1999-07-19,11.9083
1999-07-20,11.9919
1999-07-21,11.9083
1999-07-22,12.0692
1999-07-23,12.1915
1999-07-26,12.1078
1999-07-27,12.0306
1999-07-28,11.9919
1999-07-29,11.9469
1999-07-30,12.0692
1999-08-02,12.0306
1999-08-03,11.9919
1999-08-04,11.9083
1999-08-05,11.9083
1999-08-06,11.8696
1999-08-09,11.786
1999-08-10,11.6701
1999-08-11,11.5864
1999-08-12,11.4641
1999-08-13,11.3483
1999-08-16,11.3869
1999-08-17,11.3869
1999-08-18,11.3483
1999-08-19,11.4255
1999-08-20,11.5478
1999-08-23,11.4255
1999-08-24,11.3483
1999-08-25,11.5092
1999-08-26,11.4641
1999-08-27,11.5864
1999-08-30,11.2646
1999-08-31,11.3483
1999-09-01,11.4641
1999-09-02,11.5092
1999-09-03,11.5478
1999-09-07,11.3483
1999-09-08,11.2646
1999-09-09,11.4255
1999-09-10,11.5864
1999-09-13,11.3869
1999-09-14,11.3032
1999-09-15,11.7473
1999-09-16,11.7087
1999-09-17,12.0692
1999-09-20,11.8696
1999-09-21,11.7473
1999-09-22,11.9469
1999-09-23,11.7087
1999-09-24,11.625
1999-09-27,11.5864
1999-09-28,11.3869
1999-09-29,11.4641
1999-09-30,11.9083
1999-10-01,11.7473
1999-10-04,11.7473
1999-10-05,11.5092
1999-10-06,11.831
1999-10-07,12.0306
1999-10-08,13.157
1999-10-11,13.6398
1999-10-12,13.6784
1999-10-13,13.9616
1999-10-14,14.0389
1999-10-15,13.9616
1999-10-18,13.8007
1999-10-19,13.7621
1999-10-20,13.6012
1999-10-21,13.3952
1999-10-22,13.3566
1999-10-25,13.4789
1999-10-26,13.5175
1999-10-27,13.3952
1999-10-28,13.4402
1999-10-29,13.3952
1999-11-01,13.5175
1999-11-02,13.6012
1999-11-03,13.6784
1999-11-04,13.6784
1999-11-05,13.717
1999-11-08,13.7621
1999-11-09,13.6784
1999-11-10,13.7621
1999-11-11,13.6784
1999-11-12,13.8007
1999-11-15,13.717
1999-11-16,13.7621
1999-11-17,13.717
1999-11-18,13.878
1999-11-19,13.6398
1999-11-22,13.2793
1999-11-23,13.2793
1999-11-24,13.2793
1999-11-26,13.3952
1999-11-29,13.2982
1999-11-30,13.6668
1999-12-01,13.5828
1999-12-02,13.4211
1999-12-03,13.6668
1999-12-06,13.7445
1999-12-07,13.7833
1999-12-08,13.7445
1999-12-09,13.7833
1999-12-10,13.7445
1999-12-13,13.7445
1999-12-14,13.7056
1999-12-15,13.8285
1999-12-16,13.7833
1999-12-17,13.7833
1999-12-20,13.5828
1999-12-21,13.4211
1999-12-22,13.4211
1999-12-23,13.4211
1999-12-27,13.4211
1999-12-28,13.3822
1999-12-29,13.2594
1999-12-30,13.3434
1999-12-31,13.2982
2000-01-03,13.2982
2000-01-04,13.3822
2000-01-05,13.4211
2000-01-06,13.5828
2000-01-07,13.7445
2000-01-10,13.5051
2000-01-11,13.6216
2000-01-12,13.5828
2000-01-13,13.5439
2000-01-14,13.3822
2000-01-18,12.9748
2000-01-19,13.02
2000-01-20,13.2982
2000-01-21,13.2205
2000-01-24,12.7354
2000-01-25,12.8583
2000-01-26,13.1365
2000-01-27,13.2594
2000-01-28,13.2205
2000-01-31,13.2205
2000-02-01,13.0977
2000-02-02,13.1365
2000-02-03,13.2205
2000-02-04,13.0588
2000-02-07,13.02
2000-02-08,13.0588
2000-02-09,13.0977
2000-02-10,12.8971
2000-02-11,12.5349
2000-02-14,12.5349
2000-02-15,12.4897
2000-02-16,12.2503
2000-02-17,12.412
2000-02-18,12.2892
2000-02-22,11.927
2000-02-23,12.1275
2000-02-24,11.8881
2000-02-25,11.8041
2000-02-28,12.2333
2000-02-29,12.1162
2000-03-01,12.4804
2000-03-02,12.7485
2000-03-03,12.7485
2000-03-06,12.5066
2000-03-07,12.67
2000-03-08,12.7877
2000-03-09,12.67
2000-03-10,12.9969
2000-03-13,12.7877
2000-03-14,12.67
2000-03-15,12.7093
2000-03-16,12.9969
2000-03-17,12.9969
2000-03-20,13.1146
2000-03-21,13.1146
2000-03-22,13.0754
2000-03-23,13.4872
2000-03-24,13.363
2000-03-27,13.6507
2000-03-28,13.6049
2000-03-29,13.6899
2000-03-30,13.7291
2000-03-31,14.0168
2000-04-03,13.7291
2000-04-04,13.6899
2000-04-05,13.6899
2000-04-06,13.6899
2000-04-07,13.6899
2000-04-10,14.0168
2000-04-11,13.8534
2000-04-12,13.9776
2000-04-13,14.056
2000-04-14,14.0952
2000-04-17,14.0952
2000-04-18,13.6899
2000-04-19,14.056
2000-04-20,14.0168
2000-04-24,13.9776
2000-04-25,14.0952
2000-04-26,14.3829
2000-04-27,14.1802
2000-04-28,14.056
2000-05-01,13.8534
2000-05-02,13.8141
2000-05-03,13.7684
2000-05-04,13.9776
2000-05-05,14.2587
2000-05-08,14.4679
2000-05-09,14.5071
2000-05-10,14.5071
2000-05-11,14.6706
2000-05-12,14.5463
2000-05-15,14.3045
2000-05-16,14.5856
2000-05-17,14.141
2000-05-18,14.141
2000-05-19,14.5071
2000-05-22,14.3437
2000-05-23,14.3437
2000-05-24,14.5856
2000-05-25,14.5463
2000-05-26,14.4679
2000-05-30,14.4088
2000-05-31,14.5336
2000-06-01,14.4482
2000-06-02,14.284
2000-06-05,14.1198
2000-06-06,14.573
2000-06-07,14.3694
2000-06-08,14.4876
2000-06-09,14.6978
2000-06-12,14.7372
2000-06-13,14.816
2000-06-14,14.6518
2000-06-15,14.9408
2000-06-16,15.1049
2000-06-19,14.9802
2000-06-20,14.9014
2000-06-21,14.9802
2000-06-22,14.6518
2000-06-23,14.9014
2000-06-26,14.7766
2000-06-27,14.573
2000-06-28,14.7766
2000-06-29,14.5336
2000-06-30,14.4088
2000-07-03,14.4088
2000-07-05,14.4482
2000-07-06,14.6978
2000-07-07,14.816
2000-07-10,14.9408
2000-07-11,14.9802
2000-07-12,14.9014
2000-07-13,14.9802
2000-07-14,14.9408
2000-07-17,14.7766
2000-07-18,14.816
2000-07-19,14.9802
2000-07-20,14.862
2000-07-21,14.6978
2000-07-24,14.573
2000-07-25,14.6124
2000-07-26,14.4876
2000-07-27,14.4482
2000-07-28,14.5336
2000-07-31,14.4876
2000-08-01,14.6978
2000-08-02,14.7766
2000-08-03,14.9408
2000-08-04,14.9408
2000-08-07,15.0655
2000-08-08,15.3085
2000-08-09,15.3545
2000-08-10,15.3939
2000-08-11,15.3545
2000-08-14,15.1444
2000-08-15,15.2691
2000-08-16,15.3085
2000-08-17,15.1049
2000-08-18,15.1444
2000-08-21,15.0261
2000-08-22,15.1444
2000-08-23,14.9014
2000-08-24,14.7766
2000-08-25,14.6124
2000-08-28,14.816
2000-08-29,14.816
2000-08-30,15.0071
2000-08-31,14.9675
2000-09-01,14.8818
2000-09-05,14.9279
2000-09-06,15.1324
2000-09-07,15.172
2000-09-08,15.3369
2000-09-11,15.6667
2000-09-12,15.7063
2000-09-13,15.5018
2000-09-14,15.2116
2000-09-15,15.5414
2000-09-18,15.2578
2000-09-19,15.0928
2000-09-20,15.0467
2000-09-21,14.9675
2000-09-22,15.4227
2000-09-25,14.5519
2000-09-26,14.6773
2000-09-27,14.2683
2000-09-28,14.5124
2000-09-29,14.3474
2000-10-02,13.8131
2000-10-03,13.5625
2000-10-04,13.1535
2000-10-05,13.0677
2000-10-06,13.193
2000-10-09,13.193
2000-10-10,13.0281
2000-10-11,12.9886
2000-10-12,13.0281
2000-10-13,13.1535
2000-10-16,13.3975
2000-10-17,13.5229
2000-10-18,13.3975
2000-10-19,14.2221
2000-10-20,13.978
2000-10-23,14.1034
2000-10-24,12.6587
2000-10-25,12.164
2000-10-26,12.4938
2000-10-27,12.6587
2000-10-30,12.9886
2000-10-31,13.4833
2000-11-01,13.5625
2000-11-02,13.4437
2000-11-03,13.2788
2000-11-06,13.0677
2000-11-07,12.6983
2000-11-08,12.6587
2000-11-09,12.7379
2000-11-10,12.949
2000-11-13,12.8236
2000-11-14,12.4081
2000-11-15,12.6192
2000-11-16,12.9886
2000-11-17,13.2788
2000-11-20,13.358
2000-11-21,13.193
2000-11-22,12.7841
2000-11-24,13.193
2000-11-27,13.3975
2000-11-28,13.8527
2000-11-29,14.3366
2000-11-30,14.2902
2000-12-01,14.2902
2000-12-04,14.3366
2000-12-05,14.2902
2000-12-06,14.542
2000-12-07,14.9132
2000-12-08,15.2844
2000-12-11,15.2844
2000-12-12,14.8734
2000-12-13,15.0391
2000-12-14,15.1187
2000-12-15,14.9132
2000-12-18,15.0391
2000-12-19,15.2446
2000-12-20,15.1651
2000-12-21,15.1651
2000-12-22,15.4103
2000-12-26,15.4501
2000-12-27,15.4103
2000-12-28,15.7815
2000-12-29,16.0333
2001-01-02,15.6622
2001-01-03,15.4965
2001-01-04,14.6216
2001-01-05,14.5818
2001-01-08,14.7873
2001-01-09,15.2048
2001-01-10,15.1187
2001-01-11,14.8734
2001-01-12,15.0391
2001-01-16,14.7873
2001-01-17,14.9132
2001-01-18,15.0789
2001-01-19,15.6158
2001-01-22,15.1187
2001-01-23,15.2048
2001-01-24,15.2048
2001-01-25,15.2446
2001-01-26,15.2844
2001-01-29,15.2313
2001-01-30,15.0458
2001-01-31,14.9397
2001-02-01,15.0126
2001-02-02,15.1386
2001-02-05,15.1783
2001-02-06,15.2446
2001-02-07,15.238
2001-02-08,15.2579
2001-02-09,15.7417
2001-02-12,15.3838
2001-02-13,14.7475
2001-02-14,14.8469
2001-02-15,15.112
2001-02-16,14.9795
2001-02-20,14.9795
2001-02-21,14.7475
2001-02-22,14.5354
2001-02-23,14.2106
2001-02-26,14.3167
2001-02-27,14.0503
2001-02-28,13.4843
2001-03-01,13.1847
2001-03-02,13.9837
2001-03-05,13.9837
2001-03-06,12.5188
2001-03-07,12.3257
2001-03-08,12.1925
2001-03-09,12.1858
2001-03-12,12.1592
2001-03-13,12.1991
2001-03-14,11.7929
2001-03-15,11.9861
2001-03-16,11.9861
2001-03-19,11.9861
2001-03-20,11.9261
2001-03-21,11.7264
2001-03-22,11.46
2001-03-23,11.187
2001-03-26,11.6531
2001-03-27,11.7929
2001-03-28,11.8396
2001-03-29,11.5532
2001-03-30,11.6598
2001-04-02,11.5532
2001-04-03,11.6531
2001-04-04,11.6731
2001-04-05,11.5532
2001-04-06,11.5665
2001-04-09,12.0327
2001-04-10,12.1792
2001-04-11,12.0859
2001-04-12,12.1858
2001-04-16,12.0859
2001-04-17,12.0859
2001-04-18,12.0193
2001-04-19,12.066
2001-04-20,12.0327
2001-04-23,12.0593
2001-04-24,12.1392
2001-04-25,12.1858
2001-04-26,12.1592
2001-04-27,12.1325
2001-04-30,11.9661
2001-05-01,11.6797
2001-05-02,11.6664
2001-05-03,11.9861
2001-05-04,11.9861
2001-05-07,11.9861
2001-05-08,12.0193
2001-05-09,12.0127
2001-05-10,11.8595
2001-05-11,11.9195
2001-05-14,12.0859
2001-05-15,12.0859
2001-05-16,12.1525
2001-05-17,12.066
2001-05-18,12.319
2001-05-21,12.3656
2001-05-22,12.4522
2001-05-23,12.7518
2001-05-24,12.7185
2001-05-25,12.7452
2001-05-29,12.7518
2001-05-30,12.7054
2001-05-31,12.7791
2001-06-01,13.0201
2001-06-04,12.9866
2001-06-05,12.9665
2001-06-06,12.8527
2001-06-07,12.8929
2001-06-08,12.8326
2001-06-11,12.9464
2001-06-12,13.1339
2001-06-13,13.0736
2001-06-14,13.0067
2001-06-15,12.9933
2001-06-18,13.0736
2001-06-19,13.1205
2001-06-20,13.2878
2001-06-21,13.1941
2001-06-22,13.2477
2001-06-25,13.3213
2001-06-26,13.3882
2001-06-27,13.415
2001-06-28,13.4351
2001-06-29,13.6225
2001-07-02,13.8836
2001-07-03,13.8903
2001-07-05,13.897
2001-07-06,13.8903
2001-07-09,13.8903
2001-07-10,13.6627
2001-07-11,13.6493
2001-07-12,13.5556
2001-07-13,13.6091
2001-07-16,13.6225
2001-07-17,13.3548
2001-07-18,13.0535
2001-07-19,13.3481
2001-07-20,13.328
2001-07-23,12.9665
2001-07-24,12.7791
2001-07-25,12.9063
2001-07-26,13.0535
2001-07-27,12.9799
2001-07-30,13.1004
2001-07-31,13.3079
2001-08-01,13.1406
2001-08-02,13.2544
2001-08-03,13.3748
2001-08-06,13.3213
2001-08-07,13.4886
2001-08-08,13.4351
2001-08-09,13.5824
2001-08-10,13.5958
2001-08-13,13.4217
2001-08-14,13.4953
2001-08-15,13.4619
2001-08-16,13.5556
2001-08-17,13.5154
2001-08-20,13.4351
2001-08-21,13.3748
2001-08-22,13.087
2001-08-23,12.9933
2001-08-24,13.0334
2001-08-27,13.0602
2001-08-28,13.0468
2001-08-29,12.9893
2001-08-30,12.9691
2001-08-31,13.0634
2001-09-04,13.3127
2001-09-05,13.3464
2001-09-06,13.407
2001-09-07,13.4205
2001-09-10,13.4272
2001-09-17,13.3935
2001-09-18,13.3464
2001-09-19,13.1375
2001-09-20,12.868
2001-09-21,12.5851
2001-09-24,12.8007
2001-09-25,12.5783
2001-09-26,12.3964
2001-09-27,12.5177
2001-09-28,12.6255
2001-10-01,12.3425
2001-10-02,12.3291
2001-10-03,12.3358
2001-10-04,12.5986
2001-10-05,12.5986
2001-10-08,12.8344
2001-10-09,12.8344
2001-10-10,12.8007
2001-10-11,12.0596
2001-10-12,11.9922
2001-10-15,11.945
2001-10-16,11.9787
2001-10-17,11.8103
2001-10-18,11.6553
2001-10-19,11.6756
2001-10-22,11.6351
2001-10-23,11.7227
2001-10-24,11.5273
2001-10-25,11.5543
2001-10-26,11.5206
2001-10-29,11.7564
2001-10-30,11.8373
2001-10-31,11.9046
2001-11-01,12.1135
2001-11-02,12.0731
2001-11-05,12.1135
2001-11-06,12.1067
2001-11-07,12.0528
2001-11-08,12.127
2001-11-09,12.1539
2001-11-12,12.1135
2001-11-13,12.0596
2001-11-14,11.9989
2001-11-15,12.1202
2001-11-16,11.9922
2001-11-19,11.9787
2001-11-20,11.9114
2001-11-21,12.1135
2001-11-23,12.1
2001-11-26,12.1135
2001-11-27,12.1202
2001-11-28,12.1236
2001-11-29,12.0761
2001-11-30,11.8115
2001-12-03,11.5401
2001-12-04,11.7233
2001-12-05,11.7911
2001-12-06,11.6283
2001-12-07,11.7233
2001-12-10,11.7436
2001-12-11,11.5333
2001-12-12,11.5333
2001-12-13,11.4926
2001-12-14,11.5265
2001-12-17,11.5333
2001-12-18,11.5333
2001-12-19,11.7843
2001-12-20,11.7029
2001-12-21,11.6758
2001-12-24,11.7233
2001-12-26,11.764
2001-12-27,11.8047
2001-12-28,11.92
2001-12-31,11.9607
2002-01-02,12.2118
2002-01-03,12.1236
2002-01-04,12.2118
2002-01-07,12.2118
2002-01-08,12.1236
2002-01-09,12.2796
2002-01-10,12.0761
2002-01-11,12.0489
2002-01-14,11.9539
2002-01-15,12.0828
2002-01-16,12.1778
2002-01-17,12.2999
2002-01-18,12.5035
2002-01-22,12.3474
2002-01-23,12.4356
2002-01-24,12.4696
2002-01-25,12.3949
2002-01-28,12.4288
2002-01-29,12.2999
2002-01-30,12.4153
2002-01-31,12.2389
2002-02-01,12.2728
2002-02-04,12.3203
2002-02-05,12.3474
2002-02-06,12.2185
2002-02-07,12.2525
2002-02-08,12.3339
2002-02-11,12.2999
2002-02-12,12.2999
2002-02-13,12.3746
2002-02-14,12.4356
2002-02-15,12.4017
2002-02-19,12.4288
2002-02-20,12.4221
2002-02-21,12.6188
2002-02-22,12.6459
2002-02-25,12.551
2002-02-26,12.5578
2002-02-27,12.78
2002-02-28,12.5478
2002-03-01,12.7732
2002-03-04,12.9166
2002-03-05,13.0054
2002-03-06,13.0123
2002-03-07,13.0464
2002-03-08,13.0191
2002-03-11,12.944
2002-03-12,12.8552
2002-03-13,12.9508
2002-03-14,13.0054
2002-03-15,13.0191
2002-03-18,13.1284
2002-03-19,13.1079
2002-03-20,13.0737
2002-03-21,13.1011
2002-03-22,13.0601
2002-03-25,12.9918
2002-03-26,13.1352
2002-03-27,13.4289
2002-03-28,13.5724
2002-04-01,13.5519
2002-04-02,13.4562
2002-04-03,13.4494
2002-04-04,13.5655
2002-04-05,13.5177
2002-04-08,13.5246
2002-04-09,13.4084
2002-04-10,13.5246
2002-04-11,13.4972
2002-04-12,13.5929
2002-04-15,13.5519
2002-04-16,13.6953
2002-04-17,13.8593
2002-04-18,13.7226
2002-04-19,13.8319
2002-04-22,14.0027
2002-04-23,13.7841
2002-04-24,13.6407
2002-04-25,13.5041
2002-04-26,13.3948
2002-04-29,13.3675
2002-04-30,13.6612
2002-05-01,13.5929
2002-05-02,13.5246
2002-05-03,13.5929
2002-05-06,13.5724
2002-05-07,13.6134
2002-05-08,13.6543
2002-05-09,13.6134
2002-05-10,13.4904
2002-05-13,13.9549
2002-05-14,14.03
2002-05-15,13.7431
2002-05-16,13.7021
2002-05-17,13.6953
2002-05-20,13.7021
2002-05-21,13.6202
2002-05-22,13.7705
2002-05-23,13.9344
2002-05-24,13.9207
2002-05-28,14.0368
2002-05-29,13.9853
2002-05-30,13.7723
2002-05-31,13.7104
2002-06-03,13.518
2002-06-04,13.4424
2002-06-05,13.4355
2002-06-06,12.9888
2002-06-07,13.0644
2002-06-10,12.9338
2002-06-11,12.9201
2002-06-12,13.0438
2002-06-13,12.9476
2002-06-14,12.8033
2002-06-17,12.7758
2002-06-18,12.7208
2002-06-19,12.5971
2002-06-20,12.3909
2002-06-21,12.5009
2002-06-24,12.5627
2002-06-25,12.4596
2002-06-26,12.549
2002-06-27,12.6314
2002-06-28,12.8307
2002-07-01,12.6796
2002-07-02,12.5559
2002-07-03,12.4321
2002-07-05,12.6177
2002-07-08,12.4734
2002-07-09,12.3153
2002-07-10,11.6831
2002-07-11,12.0061
2002-07-12,11.6143
2002-07-15,11.5731
2002-07-16,11.2638
2002-07-17,11.3601
2002-07-18,11.1127
2002-07-19,10.611
2002-07-22,10.3842
2002-07-23,9.57324
2002-07-24,9.92373
2002-07-25,10.6866
2002-07-26,10.7209
2002-07-29,11.0577
2002-07-30,11.2707
2002-07-31,11.5387
2002-08-01,11.3807
2002-08-02,11.2432
2002-08-05,11.1539
2002-08-06,11.4082
2002-08-07,11.5662
2002-08-08,11.58
2002-08-09,11.4838
2002-08-12,11.7312
2002-08-13,11.58
2002-08-14,11.6418
2002-08-15,11.6831
2002-08-16,11.635
2002-08-19,11.6831
2002-08-20,11.5937
2002-08-21,12.0267
2002-08-22,12.226
2002-08-23,12.1641
2002-08-26,12.3703
2002-08-27,12.2329
2002-08-28,12.2107
2002-08-29,12.2245
2002-08-30,12.1207
2002-09-03,11.8575
2002-09-04,11.9129
2002-09-05,11.7743
2002-09-06,11.6358
2002-09-09,11.3657
2002-09-10,11.338
2002-09-11,11.4835
2002-09-12,11.4488
2002-09-13,11.7536
2002-09-16,11.7397
2002-09-17,11.6012
2002-09-18,11.9683
2002-09-19,11.6705
2002-09-20,11.3796
2002-09-23,11.3657
2002-09-24,11.3588
2002-09-25,11.5527
2002-09-26,11.899
2002-09-27,11.7051
2002-09-30,11.7813
2002-10-01,11.7536
2002-10-02,11.1856
2002-10-03,10.9571
2002-10-04,10.7285
2002-10-07,10.6662
2002-10-08,10.4722
2002-10-09,9.19784
2002-10-10,9.81426
2002-10-11,9.91815
2002-10-14,9.75193
2002-10-15,9.84197
2002-10-16,9.54415
2002-10-17,9.69652
2002-10-18,9.71037
2002-10-21,10.0844
2002-10-22,10.4515
2002-10-23,10.5207
2002-10-24,10.5692
2002-10-25,10.5554
2002-10-28,10.1813
2002-10-29,10.1052
2002-10-30,10.2506
2002-10-31,10.2852
2002-11-01,10.3406
2002-11-04,10.4099
2002-11-05,10.3822
2002-11-06,10.4584
2002-11-07,10.2852
2002-11-08,9.94586
2002-11-11,9.75193
2002-11-12,9.44026
2002-11-13,9.66189
2002-11-14,9.80041
2002-11-15,9.94586
2002-11-18,9.91815
2002-11-19,9.85582
2002-11-20,10.0082
2002-11-21,10.0567
2002-11-22,10.1744
2002-11-25,10.2852
2002-11-26,10.1087
2002-11-27,10.1856
2002-11-29,10.0458
2002-12-02,9.88504
2002-12-03,9.94097
2002-12-04,9.78018
2002-12-05,9.79416
2002-12-06,9.82212
2002-12-09,9.79416
2002-12-10,9.87805
2002-12-11,9.89203
2002-12-12,9.95495
2002-12-13,10.1577
2002-12-16,10.2346
2002-12-17,10.2905
2002-12-18,10.2835
2002-12-19,10.3255
2002-12-20,10.4793
2002-12-23,10.5002
2002-12-24,10.4653
2002-12-26,10.6051
2002-12-27,10.6121
2002-12-30,10.647
2002-12-31,10.5771
2003-01-02,10.8218
2003-01-03,10.8707
2003-01-06,11.2063
2003-01-07,10.9127
2003-01-08,10.8568
2003-01-09,10.71
2003-01-10,10.675
2003-01-13,10.5632
2003-01-14,10.3045
2003-01-15,10.2835
2003-01-16,10.1297
2003-01-17,9.96194
2003-01-21,9.79416
2003-01-22,9.72425
2003-01-23,9.75921
2003-01-24,9.58443
2003-01-27,9.3817
2003-01-28,9.8361
2003-01-29,9.86407
2003-01-30,9.79416
2003-01-31,9.98291
2003-02-03,10.1018
2003-02-04,9.93398
2003-02-05,9.89902
2003-02-06,10.0249
2003-02-07,9.82212
2003-02-10,9.86407
2003-02-11,9.78018
2003-02-12,9.57744
2003-02-13,9.78717
2003-02-14,9.80814
2003-02-18,9.89902
2003-02-19,9.90601
2003-02-20,9.96194
2003-02-21,9.96893
2003-02-24,9.75921
2003-02-25,9.86407
2003-02-26,9.84126
2003-02-27,9.86244
2003-02-28,9.84832
2003-03-03,9.9401
2003-03-04,9.98952
2003-03-05,10.0107
2003-03-06,10.0319
2003-03-07,10.0319
2003-03-10,9.91892
2003-03-11,9.5024
2003-03-12,9.42474
2003-03-13,9.61535
2003-03-14,9.65771
2003-03-17,9.87656
2003-03-18,10.0248
2003-03-19,9.72831
2003-03-20,9.72831
2003-03-21,9.91892
2003-03-24,9.79185
2003-03-25,9.91892
2003-03-26,9.88362
2003-03-27,9.93304
2003-03-28,9.82715
2003-03-31,9.85538
2003-04-01,9.98246
2003-04-02,9.99658
2003-04-03,9.85538
2003-04-04,9.98952
2003-04-07,9.94716
2003-04-08,10.0601
2003-04-09,10.0601
2003-04-10,10.0954
2003-04-11,10.0389
2003-04-14,10.1872
2003-04-15,10.286
2003-04-16,10.279
2003-04-17,10.2719
2003-04-21,10.3072
2003-04-22,10.5261
2003-04-23,10.3354
2003-04-24,10.4272
2003-04-25,10.3849
2003-04-28,10.5755
2003-04-29,10.5331
2003-04-30,10.5261
2003-05-01,10.4625
2003-05-02,10.1448
2003-05-05,10.399
2003-05-06,10.166
2003-05-07,10.4343
2003-05-08,10.4908
2003-05-09,10.5472
2003-05-12,10.6531
2003-05-13,10.5614
2003-05-14,10.5755
2003-05-15,10.7449
2003-05-16,10.872
2003-05-19,10.8084
2003-05-20,10.9779
2003-05-21,11.112
2003-05-22,11.2462
2003-05-23,11.578
2003-05-27,11.8392
2003-05-28,11.6954
2003-05-29,11.3964
2003-05-30,11.4818
2003-06-02,11.7594
2003-06-03,11.7594
2003-06-04,11.8805
2003-06-05,11.7737
2003-06-06,11.6954
2003-06-09,11.61
2003-06-10,11.4889
2003-06-11,11.5601
2003-06-12,11.6242
2003-06-13,11.4391
2003-06-16,11.6384
2003-06-17,11.7025
2003-06-18,11.7381
2003-06-19,11.6242
2003-06-20,11.7737
2003-06-23,11.7239
2003-06-24,11.731
2003-06-25,11.7096
2003-06-26,11.731
2003-06-27,11.6811
2003-06-30,11.916
2003-07-01,11.9232
2003-07-02,11.8947
2003-07-03,11.7737
2003-07-07,11.8662
2003-07-08,11.8805
2003-07-09,11.8449
2003-07-10,11.5174
2003-07-11,11.6171
2003-07-14,11.5957
2003-07-15,11.4249
2003-07-16,11.2683
2003-07-17,11.2256
2003-07-18,11.4035
2003-07-21,11.2754
2003-07-22,11.7452
2003-07-23,11.7879
2003-07-24,11.973
2003-07-25,11.8591
2003-07-28,11.8235
2003-07-29,11.7666
2003-07-30,12.0157
2003-07-31,11.9588
2003-08-01,11.9018
2003-08-04,11.9445
2003-08-05,11.7594
2003-08-06,11.8662
2003-08-07,11.7808
2003-08-08,11.8805
2003-08-11,11.8164
2003-08-12,12.1154
2003-08-13,12.094
2003-08-14,12.0228
2003-08-15,12.1794
2003-08-18,12.1082
2003-08-19,12.0726
2003-08-20,12.3147
2003-08-21,12.272
2003-08-22,12.1438
2003-08-25,12.1865
2003-08-26,12.1794
2003-08-27,12.3159
2003-08-28,12.3733
2003-08-29,12.3877
2003-09-02,12.6821
2003-09-03,12.8186
2003-09-04,12.9119
2003-09-05,12.7827
2003-09-08,12.8616
2003-09-09,13.0412
2003-09-10,12.9622
2003-09-11,12.9981
2003-09-12,13.0268
2003-09-15,12.9335
2003-09-16,13.0196
2003-09-17,12.876
2003-09-18,12.955
2003-09-19,13.0196
2003-09-22,13.1058
2003-09-23,13.1345
2003-09-24,12.9694
2003-09-25,12.9837
2003-09-26,12.9981
2003-09-29,13.0053
2003-09-30,12.8976
2003-10-01,13.0196
2003-10-02,13.2063
2003-10-03,13.2279
2003-10-06,13.4218
2003-10-07,13.4577
2003-10-08,13.4649
2003-10-09,13.5439
2003-10-10,13.5941
2003-10-13,13.5439
2003-10-14,13.551
2003-10-15,13.4936
2003-10-16,13.508
2003-10-17,13.429
2003-10-20,13.5008
2003-10-21,13.3572
2003-10-22,13.4433
2003-10-23,13.551
2003-10-24,13.6516
2003-10-27,13.8527
2003-10-28,13.8455
2003-10-29,13.7593
2003-10-30,13.788
2003-10-31,13.5151
2003-11-03,13.7234
2003-11-04,13.6803
2003-11-05,13.6372
2003-11-06,13.6803
2003-11-07,13.6947
2003-11-10,13.7378
2003-11-11,13.7306
2003-11-12,13.8383
2003-11-13,13.9604
2003-11-14,13.8957
2003-11-17,13.7808
2003-11-18,13.587
2003-11-19,13.5941
2003-11-20,13.4433
2003-11-21,13.3859
2003-11-24,13.8886
2003-11-25,14.1399
2003-11-26,14.1404
2003-11-28,14.4371
2003-12-01,14.4154
2003-12-02,14.2417
2003-12-03,14.3286
2003-12-04,14.4009
2003-12-05,14.2345
2003-12-08,14.343
2003-12-09,14.0463
2003-12-10,14.0029
2003-12-11,14.1042
2003-12-12,14.1476
2003-12-15,14.1404
2003-12-16,14.1404
2003-12-17,14.0319
2003-12-18,14.1404
2003-12-19,14.0463
2003-12-22,14.1766
2003-12-23,14.2924
2003-12-24,14.2273
2003-12-26,14.1911
2003-12-29,14.3141
2003-12-30,14.5601
2003-12-31,14.5601
2004-01-02,14.5746
2004-01-05,14.2996
2004-01-06,14.249
2004-01-07,14.22
2004-01-08,14.1838
2004-01-09,14.0753
2004-01-12,14.1115
2004-01-13,14.0391
2004-01-14,14.1476
2004-01-15,14.1476
2004-01-16,14.0825
2004-01-20,14.22
2004-01-21,14.4733
2004-01-22,14.4516
2004-01-23,14.4154
2004-01-26,14.068
2004-01-27,13.8944
2004-01-28,13.9884
2004-01-29,13.8727
2004-01-30,13.8944
2004-02-02,13.9016
2004-02-03,13.9957
2004-02-04,13.7569
2004-02-05,13.6483
2004-02-06,13.7279
2004-02-09,13.7496
2004-02-10,14.0029
2004-02-11,13.9523
2004-02-12,14.0463
2004-02-13,13.9884
2004-02-17,14.1838
2004-02-18,14.0898
2004-02-19,13.9667
2004-02-20,13.8075
2004-02-23,13.8003
2004-02-24,13.8437
2004-02-25,13.8075
2004-02-26,13.8951
2004-02-27,14.0556
2004-03-01,13.9972
2004-03-02,13.9097
2004-03-03,13.8513
2004-03-04,13.9389
2004-03-05,14.0337
2004-03-08,13.9462
2004-03-09,14.0045
2004-03-10,13.793
2004-03-11,13.6544
2004-03-12,13.8149
2004-03-15,13.6617
2004-03-16,13.6471
2004-03-17,13.8951
2004-03-18,13.6836
2004-03-19,13.7711
2004-03-22,13.5669
2004-03-23,13.5377
2004-03-24,13.421
2004-03-25,13.4794
2004-03-26,13.4283
2004-03-29,13.5304
2004-03-30,13.5596
2004-03-31,13.5742
2004-04-01,13.6034
2004-04-02,13.4137
2004-04-05,13.4794
2004-04-06,13.4429
2004-04-07,13.3481
2004-04-08,13.3262
2004-04-12,12.9979
2004-04-13,13.0709
2004-04-14,12.9834
2004-04-15,12.9834
2004-04-16,13.0928
2004-04-19,13.0198
2004-04-20,12.9834
2004-04-21,13.0928
2004-04-22,13.2678
2004-04-23,13.1292
2004-04-26,13.2678
2004-04-27,13.2241
2004-04-28,13.2897
2004-04-29,13.2314
2004-04-30,13.297
2004-05-03,13.2386
2004-05-04,13.2386
2004-05-05,13.2897
2004-05-06,13.3116
2004-05-07,13.0855
2004-05-10,12.9688
2004-05-11,13.0636
2004-05-12,13.1001
2004-05-13,13.1438
2004-05-14,13.3481
2004-05-17,13.4283
2004-05-18,13.4575
2004-05-19,13.3116
2004-05-20,13.3918
2004-05-21,13.3626
2004-05-24,13.5815
2004-05-25,13.7857
2004-05-26,13.8659
2004-05-27,14.0644
2004-05-28,14.0791
2004-06-01,14.0717
2004-06-02,14.0644
2004-06-03,14.1158
2004-06-04,14.0276
2004-06-07,14.1379
2004-06-08,14.0129
2004-06-09,13.91
2004-06-10,14.035
2004-06-14,13.9394
2004-06-15,13.9909
2004-06-16,14.0203
2004-06-17,14.1232
2004-06-18,14.16
2004-06-21,14.1894
2004-06-22,14.1894
2004-06-23,14.1894
2004-06-24,14.2335
2004-06-25,14.2555
2004-06-28,14.3143
2004-06-29,14.1747
2004-06-30,14.2114
2004-07-01,14.1232
2004-07-02,14.2629
2004-07-06,14.182
2004-07-07,14.1379
2004-07-08,14.1011
2004-07-09,14.0056
2004-07-12,13.9467
2004-07-13,13.9394
2004-07-14,13.9909
2004-07-15,14.1452
2004-07-16,14.1747
2004-07-19,14.182
2004-07-20,14.2776
2004-07-21,13.9762
2004-07-22,13.785
2004-07-23,13.7409
2004-07-26,13.6527
2004-07-27,13.6894
2004-07-28,13.6453
2004-07-29,13.7629
2004-07-30,13.7482
2004-08-02,13.8071
2004-08-03,13.8071
2004-08-04,14.0717
2004-08-05,13.9394
2004-08-06,13.9909
2004-08-09,13.8365
2004-08-10,13.9909
2004-08-11,13.7997
2004-08-12,13.6012
2004-08-13,13.6306
2004-08-16,13.8144
2004-08-17,13.91
2004-08-18,13.9835
2004-08-19,13.8732
2004-08-20,13.8953
2004-08-23,13.8071
2004-08-24,13.8585
2004-08-25,13.8732
2004-08-26,13.8438
2004-08-27,13.8512
2004-08-30,13.9053
2004-08-31,14.1797
2004-09-01,14.3058
2004-09-02,14.3058
2004-09-03,14.15
2004-09-07,14.1797
2004-09-08,14.202
2004-09-09,14.2168
2004-09-10,14.2539
2004-09-13,14.1945
2004-09-14,14.2539
2004-09-15,14.3206
2004-09-16,14.2613
2004-09-17,14.3132
2004-09-20,14.2242
2004-09-21,14.2539
2004-09-22,14.1204
2004-09-23,14.0981
2004-09-24,14.061
2004-09-27,14.0907
2004-09-28,14.239
2004-09-29,14.1352
2004-09-30,14.3725
2004-10-01,14.3577
2004-10-04,14.4022
2004-10-05,14.4467
2004-10-06,14.4764
2004-10-07,14.3725
2004-10-08,14.3874
2004-10-11,14.4615
2004-10-12,14.4912
2004-10-13,14.3503
2004-10-14,14.4096
2004-10-15,14.6024
2004-10-18,14.5579
2004-10-19,14.4319
2004-10-20,14.4022
2004-10-21,14.4541
2004-10-22,14.417
2004-10-25,14.3503
2004-10-26,14.5134
2004-10-27,14.3132
2004-10-28,14.2761
2004-10-29,14.2835
2004-11-01,14.3799
2004-11-02,14.2242
2004-11-03,14.4467
2004-11-04,14.8175
2004-11-05,14.7285
2004-11-08,14.7508
2004-11-09,14.6618
2004-11-10,14.7063
2004-11-11,14.8546
2004-11-12,14.8397
2004-11-15,13.3046
2004-11-16,12.8448
2004-11-17,13.2749
2004-11-18,13.4752
2004-11-19,13.3491
2004-11-22,13.49
2004-11-23,13.5864
2004-11-24,13.757
2004-11-26,13.6828
2004-11-29,13.6701
2004-11-30,13.6252
2004-12-01,13.5728
2004-12-02,13.5728
2004-12-03,13.5953
2004-12-06,13.6177
2004-12-07,13.5504
2004-12-08,13.5205
2004-12-09,13.3259
2004-12-10,13.2511
2004-12-13,13.3933
2004-12-14,13.3783
2004-12-15,13.5055
2004-12-16,13.5504
2004-12-17,13.5878
2004-12-20,13.6177
2004-12-21,13.7973
2004-12-22,13.8497
2004-12-23,13.8198
2004-12-27,13.7375
2004-12-28,13.7225
2004-12-29,13.7449
2004-12-30,13.9245
2004-12-31,14.0816
2005-01-03,13.8422
2005-01-04,13.7
2005-01-05,13.5803
2005-01-06,13.5579
2005-01-07,13.5429
2005-01-10,13.4382
2005-01-11,13.4456
2005-01-12,13.4531
2005-01-13,13.3783
2005-01-14,13.3559
2005-01-18,13.4905
2005-01-19,13.6103
2005-01-20,13.6177
2005-01-21,13.7075
2005-01-24,13.6252
2005-01-25,13.5728
2005-01-26,13.9095
2005-01-27,13.8123
2005-01-28,13.7599
2005-01-31,13.9245
2005-02-01,13.9395
2005-02-02,14.0293
2005-02-03,14.1415
2005-02-04,14.568
2005-02-07,14.3285
2005-02-08,14.3809
2005-02-09,14.134
2005-02-10,14.2163
2005-02-11,14.134
2005-02-14,14.2163
2005-02-15,14.1415
2005-02-16,14.2313
2005-02-17,14.2612
2005-02-18,14.1789
2005-02-22,13.8796
2005-02-23,13.9993
2005-02-24,14.0517
2005-02-25,14.1898
2005-02-28,14.054
2005-03-01,14.1294
2005-03-02,14.054
2005-03-03,13.9785
2005-03-04,14.1445
2005-03-07,14.2427
2005-03-08,14.2728
2005-03-09,14.0917
2005-03-10,14.3861
2005-03-11,14.5295
2005-03-14,14.3861
2005-03-15,14.2578
2005-03-16,14.1596
2005-03-17,14.3332
2005-03-18,14.303
2005-03-21,14.3634
2005-03-22,14.1672
2005-03-23,14.0087
2005-03-24,14.1445
2005-03-28,14.2351
2005-03-29,14.1747
2005-03-30,14.2653
2005-03-31,14.537
2005-04-01,14.5672
2005-04-04,14.5295
2005-04-05,14.6427
2005-04-06,14.4464
2005-04-07,14.3634
2005-04-08,14.3106
2005-04-11,14.2955
2005-04-12,14.4615
2005-04-13,14.4087
2005-04-14,14.2351
2005-04-15,13.9936
2005-04-18,13.9332
2005-04-19,14.0766
2005-04-20,13.8879
2005-04-21,14.0691
2005-04-22,14.1219
2005-04-25,14.1143
2005-04-26,13.9558
2005-04-27,13.9332
2005-04-28,13.6917
2005-04-29,13.7898
2005-05-02,14.1445
2005-05-03,14.0992
2005-05-04,14.1974
2005-05-05,14.22
2005-05-06,14.2653
2005-05-09,14.2276
2005-05-10,14.3408
2005-05-11,14.5899
2005-05-12,14.5219
2005-05-13,14.371
2005-05-16,14.5521
2005-05-17,14.5295
2005-05-18,14.6427
2005-05-19,14.5068
2005-05-20,14.5219
2005-05-23,14.5672
2005-05-24,14.5748
2005-05-25,14.6049
2005-05-26,14.9597
2005-05-27,15.0299
2005-05-31,15.0451
2005-06-01,15.1821
2005-06-02,15.1212
2005-06-03,15.1593
2005-06-06,15.1669
2005-06-07,15.2201
2005-06-08,15.2354
2005-06-09,15.2886
2005-06-10,15.6235
2005-06-13,15.8822
2005-06-14,15.7757
2005-06-15,15.8898
2005-06-16,15.867
2005-06-17,16.1105
2005-06-20,16.0877
2005-06-21,15.9431
2005-06-22,15.9659
2005-06-23,16.004
2005-06-24,15.7985
2005-06-27,15.8822
2005-06-28,15.9583
2005-06-29,15.9431
2005-06-30,15.8822
2005-07-01,15.9431
2005-07-05,16.0192
2005-07-06,15.7529
2005-07-07,15.7452
2005-07-08,15.8974
2005-07-11,15.9355
2005-07-12,16.0268
2005-07-13,16.3084
2005-07-14,16.3617
2005-07-15,16.354
2005-07-18,16.3236
2005-07-19,16.3693
2005-07-20,16.2856
2005-07-21,16.042
2005-07-22,16.179
2005-07-25,16.2627
2005-07-26,16.2856
2005-07-27,16.1714
2005-07-28,16.2018
2005-07-29,16.3921
2005-08-01,16.2627
2005-08-02,16.5443
2005-08-03,16.4149
2005-08-04,16.2171
2005-08-05,15.8898
2005-08-08,15.5398
2005-08-09,15.6083
2005-08-10,15.4104
2005-08-11,15.3952
2005-08-12,15.243
2005-08-15,15.3647
2005-08-16,15.0908
2005-08-17,15.0299
2005-08-18,14.969
2005-08-19,15.0223
2005-08-22,15.1517
2005-08-23,15.2201
2005-08-24,15.1897
2005-08-25,15.1212
2005-08-26,15.144
2005-08-29,15.0375
2005-08-30,15.0645
2005-08-31,15.2564
2005-09-01,15.3332
2005-09-02,15.3793
2005-09-06,15.5021
2005-09-07,15.4637
2005-09-08,15.1643
2005-09-09,15.4714
2005-09-12,15.5021
2005-09-13,15.3946
2005-09-14,15.3793
2005-09-15,15.2641
2005-09-16,15.2718
2005-09-19,15.3255
2005-09-20,15.2871
2005-09-21,15.1182
2005-09-22,15.1105
2005-09-23,15.0645
2005-09-26,14.9646
2005-09-27,15.0952
2005-09-28,15.1182
2005-09-29,15.3485
2005-09-30,15.3025
2005-10-03,15.41
2005-10-04,15.195
2005-10-05,14.8648
2005-10-06,14.5347
2005-10-07,14.5039
2005-10-10,14.3734
2005-10-11,14.55
2005-10-12,14.2813
2005-10-13,13.8513
2005-10-14,14.0356
2005-10-17,14.1815
2005-10-18,13.9818
2005-10-19,14.0125
2005-10-20,13.7131
2005-10-21,13.8052
2005-10-24,13.9281
2005-10-25,13.9742
2005-10-26,13.7822
2005-10-27,13.7515
2005-10-28,13.9127
2005-10-31,13.9742
2005-11-01,13.8667
2005-11-02,13.8897
2005-11-03,13.8897
2005-11-04,13.8513
2005-11-07,13.7515
2005-11-08,13.5211
2005-11-09,13.6977
2005-11-10,13.6056
2005-11-11,13.5979
2005-11-14,13.5365
2005-11-15,13.6056
2005-11-16,13.6363
2005-11-17,14.1277
2005-11-18,14.312
2005-11-21,14.4502
2005-11-22,14.5884
2005-11-23,14.5807
2005-11-25,14.5884
2005-11-28,14.5039
2005-11-29,14.3141
2005-11-30,14.3916
2005-12-01,14.4614
2005-12-02,14.6086
2005-12-05,14.6629
2005-12-06,14.8411
2005-12-07,15.0504
2005-12-08,15.1201
2005-12-09,15.1589
2005-12-12,15.1124
2005-12-13,15.1589
2005-12-14,15.3294
2005-12-15,15.5386
2005-12-16,15.4534
2005-12-19,15.3759
2005-12-20,15.4069
2005-12-21,15.3216
2005-12-22,15.3449
2005-12-23,15.2596
2005-12-27,15.2364
2005-12-28,15.3061
2005-12-29,15.2441
2005-12-30,15.2441
2006-01-03,15.3449
2006-01-04,15.3759
2006-01-05,15.3526
2006-01-06,15.3061
2006-01-09,15.3449
2006-01-10,15.1589
2006-01-11,15.2829
2006-01-12,15.2441
2006-01-13,15.2441
2006-01-17,15.2751
2006-01-18,15.3216
2006-01-19,15.6549
2006-01-20,15.4766
2006-01-23,15.4844
2006-01-24,15.5154
2006-01-25,15.3914
2006-01-26,15.3681
2006-01-27,15.3914
2006-01-30,15.4301
2006-01-31,15.3914
2006-02-01,15.2906
2006-02-02,15.1821
2006-02-03,15.1744
2006-02-06,15.0659
2006-02-07,14.9961
2006-02-08,15.1666
2006-02-09,15.1434
2006-02-10,15.2286
2006-02-13,15.2286
2006-02-14,15.2674
2006-02-15,15.3061
2006-02-16,15.4069
2006-02-17,15.5929
2006-02-21,15.4379
2006-02-22,15.5076
2006-02-23,15.2054
2006-02-24,15.1976
2006-02-27,15.3264
2006-02-28,15.303
2006-03-01,15.2873
2006-03-02,15.3264
2006-03-03,15.3186
2006-03-06,15.0997
2006-03-07,15.0606
2006-03-08,15.0997
2006-03-09,15.0606
2006-03-10,15.1622
2006-03-13,15.3734
2006-03-14,15.389
2006-03-15,15.5532
2006-03-16,15.7252
2006-03-17,15.7018
2006-03-20,15.4828
2006-03-21,15.3968
2006-03-22,15.4985
2006-03-23,15.4672
2006-03-24,15.6236
2006-03-27,15.6392
2006-03-28,15.6627
2006-03-29,15.6158
2006-03-30,15.3499
2006-03-31,15.2248
2006-04-03,15.4516
2006-04-04,15.4125
2006-04-05,15.3577
2006-04-06,15.3343
2006-04-07,15.2092
2006-04-10,15.2092
2006-04-11,15.2013
2006-04-12,15.2248
2006-04-13,15.1388
2006-04-17,15.0449
2006-04-18,15.2483
2006-04-19,15.2092
2006-04-20,15.3968
2006-04-21,15.3734
2006-04-24,15.4437
2006-04-25,15.3499
2006-04-26,15.3968
2006-04-27,15.6783
2006-04-28,15.7096
2006-05-01,15.6549
2006-05-02,15.7487
2006-05-03,15.7174
2006-05-04,15.8582
2006-05-05,15.9442
2006-05-08,15.7878
2006-05-09,15.7252
2006-05-10,15.7878
2006-05-11,15.5767
2006-05-12,15.4281
2006-05-15,15.3968
2006-05-16,15.2639
2006-05-17,15.0137
2006-05-18,15.1544
2006-05-19,15.2326
2006-05-22,15.3734
2006-05-23,15.1388
2006-05-24,15.2483
2006-05-25,15.4672
2006-05-26,15.7018
2006-05-30,15.5715
2006-05-31,15.9738
2006-06-01,16.2104
2006-06-02,16.455
2006-06-05,16.1473
2006-06-06,16.2026
2006-06-07,16.1868
2006-06-08,16.2499
2006-06-09,16.4471
2006-06-12,16.384
2006-06-13,16.455
2006-06-14,16.3288
2006-06-15,16.5181
2006-06-16,16.5496
2006-06-19,16.171
2006-06-20,16.1631
2006-06-21,16.1473
2006-06-22,16.0132
2006-06-23,15.9975
2006-06-26,16.0132
2006-06-27,15.9817
2006-06-28,15.9975
2006-06-29,16.0763
2006-06-30,16.2972
2006-07-03,16.5102
2006-07-05,16.4865
2006-07-06,16.455
2006-07-07,16.5496
2006-07-10,16.6443
2006-07-11,16.7863
2006-07-12,16.5496
2006-07-13,16.5575
2006-07-14,16.5891
2006-07-17,16.526
2006-07-18,16.5575
2006-07-19,16.7705
2006-07-20,17.0229
2006-07-21,17.0939
2006-07-24,17.157
2006-07-25,17.37
2006-07-26,17.4016
2006-07-27,17.512
2006-07-28,17.6067
2006-07-31,17.6698
2006-08-01,17.9301
2006-08-02,18.08
2006-08-03,18.009
2006-08-04,18.1194
2006-08-07,17.7802
2006-08-08,17.8433
2006-08-09,17.7487
2006-08-10,17.8354
2006-08-11,17.7092
2006-08-14,17.8433
2006-08-15,17.8985
2006-08-16,17.7013
2006-08-17,17.6698
2006-08-18,17.867
2006-08-21,17.8196
2006-08-22,17.9459
2006-08-23,17.7802
2006-08-24,17.7881
2006-08-25,17.8906
2006-08-28,18.0011
2006-08-29,18.009
2006-08-30,18.0313
2006-08-31,18.1665
2006-09-01,18.1586
2006-09-05,18.2301
2006-09-06,18.2063
2006-09-07,18.1506
2006-09-08,18.2142
2006-09-11,18.2142
2006-09-12,18.2779
2006-09-13,18.2938
2006-09-14,18.1506
2006-09-15,18.2699
2006-09-18,18.1267
2006-09-19,18.2699
2006-09-20,18.4688
2006-09-21,18.4688
2006-09-22,18.5006
2006-09-25,18.7233
2006-09-26,18.6437
2006-09-27,18.7392
2006-09-28,18.6915
2006-09-29,18.4926
2006-10-02,18.771
2006-10-03,18.604
2006-10-04,18.7312
2006-10-05,18.7392
2006-10-06,18.6358
2006-10-09,18.6596
2006-10-10,18.6915
2006-10-11,18.8505
2006-10-12,19.0573
2006-10-13,19.1289
2006-10-16,19.3198
2006-10-17,19.2482
2006-10-18,19.296
2006-10-19,19.3278
2006-10-20,19.4312
2006-10-23,19.6618
2006-10-24,19.6936
2006-10-25,19.8368
2006-10-26,19.8209
2006-10-27,19.6777
2006-10-30,19.6618
2006-10-31,19.8845
2006-11-01,19.98
2006-11-02,20.0277
2006-11-03,20.0118
2006-11-06,20.155
2006-11-07,20.4174
2006-11-08,20.664
2006-11-09,20.6083
2006-11-10,20.9185
2006-11-13,20.8151
2006-11-14,21.0299
2006-11-15,21.2208
2006-11-16,21.4435
2006-11-17,21.531
2006-11-20,21.5867
2006-11-21,21.7219
2006-11-22,21.7696
2006-11-24,22.6763
2006-11-27,21.7219
2006-11-28,22.0321
2006-11-29,22.3587
2006-11-30,22.4147
2006-12-01,22.647
2006-12-04,22.8632
2006-12-05,23.0554
2006-12-06,22.7911
2006-12-07,22.3987
2006-12-08,22.3026
2006-12-11,22.1905
2006-12-12,22.2466
2006-12-13,22.4228
2006-12-14,22.5509
2006-12-15,22.4228
2006-12-18,22.2626
2006-12-19,22.3827
2006-12-20,22.3106
2006-12-21,22.2946
2006-12-22,22.3106
2006-12-26,22.5269
2006-12-27,22.655
2006-12-28,22.5028
2006-12-29,22.5429
2007-01-03,22.7431
2007-01-04,22.5749
2007-01-05,22.1184
2007-01-08,22.2225
2007-01-09,22.2225
2007-01-10,22.2065
2007-01-11,22.2065
2007-01-12,22.1665
2007-01-16,22.1265
2007-01-17,22.1024
2007-01-18,21.9503
2007-01-19,22.0704
2007-01-22,22.0864
2007-01-23,21.9343
2007-01-24,22.1985
2007-01-25,21.9663
2007-01-26,22.0464
2007-01-29,21.9823
2007-01-30,22.0544
2007-01-31,22.1265
2007-02-01,22.2306
2007-02-02,22.2626
2007-02-05,22.5189
2007-02-06,22.7191
2007-02-07,22.8712
2007-02-08,22.9833
2007-02-09,23.0554
2007-02-12,23.1435
2007-02-13,23.1435
2007-02-14,23.2956
2007-02-15,23.2716
2007-02-16,23.2876
2007-02-20,23.4238
2007-02-21,23.5119
2007-02-22,23.5279
2007-02-23,23.8082
2007-02-26,23.7601
2007-02-27,23.3877
2007-02-28,23.3716
2007-03-01,23.4763
2007-03-02,23.2587
2007-03-05,22.8961
2007-03-06,23.3877
2007-03-07,23.5327
2007-03-08,23.5327
2007-03-09,23.6294
2007-03-12,24.0324
2007-03-13,23.9357
2007-03-14,24.2339
2007-03-15,24.8222
2007-03-16,24.6691
2007-03-19,24.935
2007-03-20,25.2977
2007-03-21,25.8135
2007-03-22,25.8618
2007-03-23,26.0794
2007-03-26,26.0472
2007-03-27,25.9263
2007-03-28,26.0391
2007-03-29,26.0391
2007-03-30,26.4018
2007-04-02,26.9015
2007-04-03,27.0062
2007-04-04,26.8209
2007-04-05,26.8612
2007-04-09,26.9015
2007-04-10,26.4502
2007-04-11,26.3454
2007-04-12,26.2245
2007-04-13,26.152
2007-04-16,26.2729
2007-04-17,26.2406
2007-04-18,26.1197
2007-04-19,25.9585
2007-04-20,26.1842
2007-04-23,26.3776
2007-04-24,26.4179
2007-04-25,26.6597
2007-04-26,26.5146
2007-04-27,26.2245
2007-04-30,25.9263
2007-05-01,26.1923
2007-05-02,26.289
2007-05-03,26.2487
2007-05-04,26.4824
2007-05-07,26.571
2007-05-08,26.426
2007-05-09,26.3534
2007-05-10,25.9424
2007-05-11,26.0794
2007-05-14,26.1036
2007-05-15,26.3615
2007-05-16,26.297
2007-05-17,26.1681
2007-05-18,26.2245
2007-05-21,26.1681
2007-05-22,25.9585
2007-05-23,25.2896
2007-05-24,24.5885
2007-05-25,24.5401
2007-05-29,24.7738
2007-05-30,25.0073
2007-05-31,24.6748
2007-06-01,24.9019
2007-06-04,24.8127
2007-06-05,24.4235
2007-06-06,24.0018
2007-06-07,22.9639
2007-06-08,22.9963
2007-06-11,23.0855
2007-06-12,22.826
2007-06-13,23.199
2007-06-14,23.1666
2007-06-15,23.4261
2007-06-18,23.2882
2007-06-19,23.045
2007-06-20,22.745
2007-06-21,22.7044
2007-06-22,22.3801
2007-06-25,22.1611
2007-06-26,22.6314
2007-06-27,23.0125
2007-06-28,22.9152
2007-06-29,22.9396
2007-07-02,23.3369
2007-07-03,23.5153
2007-07-05,23.2153
2007-07-06,23.1017
2007-07-09,23.0855
2007-07-10,22.8179
2007-07-11,22.9152
2007-07-12,23.491
2007-07-13,23.7585
2007-07-16,23.5315
2007-07-17,23.345
2007-07-18,23.2315
2007-07-19,23.3288
2007-07-20,23.1504
2007-07-23,23.3126
2007-07-24,22.5422
2007-07-25,22.6558
2007-07-26,21.9827
2007-07-27,21.853
2007-07-30,22.3314
2007-07-31,22.1773
2007-08-01,22.8098
2007-08-02,22.6639
2007-08-03,22.08
2007-08-06,23.045
2007-08-07,23.7666
2007-08-08,23.4747
2007-08-09,22.3557
2007-08-10,22.7125
2007-08-13,23.1098
2007-08-14,22.4449
2007-08-15,22.0881
2007-08-16,22.2584
2007-08-17,22.9396
2007-08-20,22.7693
2007-08-21,22.8828
2007-08-22,23.199
2007-08-23,23.4504
2007-08-24,23.8315
2007-08-27,23.3531
2007-08-28,22.6801
2007-08-29,22.9171
2007-08-30,22.6557
2007-08-31,22.5741
2007-09-04,22.9416
2007-09-05,22.6476
2007-09-06,22.4189
2007-09-07,22.0514
2007-09-10,22.0024
2007-09-11,22.1657
2007-09-12,22.3046
2007-09-13,22.1085
2007-09-14,22.1657
2007-09-17,22.0514
2007-09-18,22.1249
2007-09-19,22.8518
2007-09-20,22.6394
2007-09-21,22.6149
2007-09-24,22.6557
2007-09-25,22.6231
2007-09-26,23.1703
2007-09-27,23.5296
2007-09-28,23.2928
2007-10-01,23.6603
2007-10-02,23.3173
2007-10-03,23.2765
2007-10-04,23.6358
2007-10-05,23.7583
2007-10-08,23.6276
2007-10-09,23.9217
2007-10-10,23.7011
2007-10-11,23.8073
2007-10-12,23.7747
2007-10-15,23.3908
2007-10-16,23.3255
2007-10-17,23.3173
2007-10-18,23.2846
2007-10-19,22.8599
2007-10-22,22.9661
2007-10-23,22.8926
2007-10-24,23.2601
2007-10-25,23.693
2007-10-26,23.8237
2007-10-29,24.6975
2007-10-30,24.9426
2007-10-31,25.1631
2007-11-01,25.0324
2007-11-02,25.0242
2007-11-05,25.8491
2007-11-06,26.0615
2007-11-07,25.1304
2007-11-08,25.4081
2007-11-09,25.4163
2007-11-12,25.1467
2007-11-13,24.9262
2007-11-14,24.8772
2007-11-15,25.1794
2007-11-16,26.2738
2007-11-19,26.4453
2007-11-20,26.821
2007-11-21,26.2085
2007-11-23,25.9635
2007-11-26,25.5633
2007-11-27,25.6776
2007-11-28,26.1217
2007-11-29,26.0066
2007-11-30,25.9491
2007-12-03,26.1957
2007-12-04,26.4916
2007-12-05,26.8944
2007-12-06,26.9272
2007-12-07,26.5738
2007-12-10,26.7135
2007-12-11,26.1546
2007-12-12,26.171
2007-12-13,26.3025
2007-12-14,26.0888
2007-12-17,25.719
2007-12-18,26.0313
2007-12-19,25.8094
2007-12-20,25.8916
2007-12-21,26.2779
2007-12-24,26.319
2007-12-26,26.0149
2007-12-27,25.6943
2007-12-28,25.9573
2007-12-31,25.7272
2008-01-02,25.3573
2008-01-03,25.3409
2008-01-04,25.2258
2008-01-07,25.5381
2008-01-08,25.3326
2008-01-09,25.308
2008-01-10,25.3326
2008-01-11,25.1107
2008-01-14,25.16
2008-01-15,24.823
2008-01-16,25.1107
2008-01-17,24.6586
2008-01-18,24.3381
2008-01-22,23.2695
2008-01-23,23.7791
2008-01-24,23.3928
2008-01-25,22.9736
2008-01-28,23.212
2008-01-29,22.7764
2008-01-30,22.4065
2008-01-31,22.8175
2008-02-01,22.9572
2008-02-04,23.5326
2008-02-05,22.9079
2008-02-06,22.538
2008-02-07,22.6202
2008-02-08,22.3736
2008-02-11,22.538
2008-02-12,22.7435
2008-02-13,22.7188
2008-02-14,22.7024
2008-02-15,22.8586
2008-02-19,22.6037
2008-02-20,22.4722
2008-02-21,21.938
2008-02-22,22.2914
2008-02-25,21.8311
2008-02-26,21.5681
2008-02-27,21.4352
2008-02-28,21.4849
2008-02-29,21.0045
2008-03-03,21.046
2008-03-04,21.0045
2008-03-05,21.046
2008-03-06,20.6318
2008-03-07,20.5242
2008-03-10,20.3585
2008-03-11,20.4248
2008-03-12,20.5159
2008-03-13,20.5739
2008-03-14,20.6567
2008-03-17,20.4827
2008-03-18,20.7229
2008-03-19,20.3834
2008-03-20,20.2343
2008-03-24,20.0935
2008-03-25,19.8616
2008-03-26,19.9444
2008-03-27,20.0355
2008-03-28,19.9775
2008-03-31,20.3419
2008-04-01,20.8058
2008-04-02,20.9134
2008-04-03,20.9714
2008-04-04,21.2033
2008-04-07,21.2779
2008-04-08,21.3027
2008-04-09,21.3358
2008-04-10,21.311
2008-04-11,21.427
2008-04-14,21.5015
2008-04-15,21.6423
2008-04-16,21.9405
2008-04-17,22.0978
2008-04-18,22.0067
2008-04-21,21.5843
2008-04-22,21.5098
2008-04-23,21.7914
2008-04-24,21.7583
2008-04-25,22.0647
2008-04-28,22.073
2008-04-29,21.8494
2008-04-30,21.7831
2008-05-01,22.3712
2008-05-02,22.9592
2008-05-05,22.7936
2008-05-06,22.8598
2008-05-07,22.6528
2008-05-08,22.6445
2008-05-09,22.5782
2008-05-12,22.5368
2008-05-13,22.5948
2008-05-14,22.338
2008-05-15,21.8328
2008-05-16,21.8576
2008-05-19,21.7583
2008-05-20,21.6506
2008-05-21,21.6092
2008-05-22,21.7003
2008-05-23,21.2696
2008-05-27,21.692
2008-05-28,21.6083
2008-05-29,21.7669
2008-05-30,21.7669
2008-06-02,21.7002
2008-06-03,21.5833
2008-06-04,21.8504
2008-06-05,22.2594
2008-06-06,21.7419
2008-06-09,22.1091
2008-06-10,22.2343
2008-06-11,22.0924
2008-06-12,22.0924
2008-06-13,22.3762
2008-06-16,22.3762
2008-06-17,22.468
2008-06-18,22.4012
2008-06-19,22.4597
2008-06-20,22.1175
2008-06-23,22.1342
2008-06-24,22.0173
2008-06-25,22.2343
2008-06-26,21.9255
2008-06-27,21.3413
2008-06-30,21.3162
2008-07-01,21.5332
2008-07-02,21.0408
2008-07-03,20.8572
2008-07-07,20.6819
2008-07-08,21.1577
2008-07-09,21.4164
2008-07-10,21.3162
2008-07-11,21.408
2008-07-14,20.9657
2008-07-15,20.7654
2008-07-16,20.4566
2008-07-17,20.4482
2008-07-18,20.54
2008-07-21,20.6903
2008-07-22,20.757
2008-07-23,20.7654
2008-07-24,20.6903
2008-07-25,20.6819
2008-07-28,20.6736
2008-07-29,20.8405
2008-07-30,21.1577
2008-07-31,21.0575
2008-08-01,20.6235
2008-08-04,21.7753
2008-08-05,21.7502
2008-08-06,21.8587
2008-08-07,21.7419
2008-08-08,22.4346
2008-08-11,22.7768
2008-08-12,22.5515
2008-08-13,22.6015
2008-08-14,22.5348
2008-08-15,22.468
2008-08-18,22.8519
2008-08-19,22.6516
2008-08-20,22.8019
2008-08-21,23.0773
2008-08-22,23.3611
2008-08-25,22.902
2008-08-26,22.9521
2008-08-27,23.0722
2008-08-28,23.2656
2008-08-29,22.6348
2008-09-02,22.4245
2008-09-03,22.3909
2008-09-04,22.2731
2008-09-05,21.8357
2008-09-08,22.046
2008-09-09,21.3899
2008-09-10,21.2049
2008-09-11,21.6927
2008-09-12,22.5759
2008-09-15,21.9366
2008-09-16,21.5918
2008-09-17,20.9946
2008-09-18,22.1385
2008-09-19,22.3404
2008-09-22,21.718
2008-09-23,21.5581
2008-09-24,21.5077
2008-09-25,21.8189
2008-09-26,21.8694
2008-09-29,21.3647
2008-09-30,21.575
2008-10-01,21.8609
2008-10-02,21.4236
2008-10-03,20.8852
2008-10-06,19.5731
2008-10-07,18.6394
2008-10-08,17.8488
2008-10-09,17.5375
2008-10-10,16.1244
2008-10-13,17.8908
2008-10-14,17.4787
2008-10-15,16.3263
2008-10-16,17.2516
2008-10-17,16.9067
2008-10-20,18.3871
2008-10-21,18.202
2008-10-22,17.403
2008-10-23,17.9497
2008-10-24,17.4534
2008-10-27,16.6123
2008-10-28,17.7394
2008-10-29,17.8992
2008-10-30,19.0516
2008-10-31,18.9086
2008-11-03,19.0852
2008-11-04,18.9002
2008-11-05,18.1768
2008-11-06,17.4703
2008-11-07,17.5964
2008-11-10,17.8908
2008-11-11,18.8329
2008-11-12,18.1936
2008-11-13,19.9348
2008-11-14,19.4721
2008-11-17,19.2787
2008-11-18,19.2534
2008-11-19,18.5637
2008-11-20,17.4618
2008-11-21,19.1862
2008-11-24,19.2787
2008-11-25,19.4469
2008-11-26,19.6699
2008-11-28,19.9585
2008-12-01,18.6681
2008-12-02,19.1775
2008-12-03,19.6614
2008-12-04,18.5832
2008-12-05,19.2369
2008-12-08,19.1435
2008-12-09,19.2794
2008-12-10,19.95
2008-12-11,19.551
2008-12-12,20.1877
2008-12-15,19.1435
2008-12-16,19.6104
2008-12-17,19.1096
2008-12-18,19.0671
2008-12-19,19.2539
2008-12-22,19.7802
2008-12-23,19.5425
2008-12-24,19.5171
2008-12-26,19.6868
2008-12-29,19.6953
2008-12-30,20.2047
2008-12-31,20.4254
2009-01-02,20.6377
2009-01-05,21.0451
2009-01-06,21.0112
2009-01-07,20.8923
2009-01-08,21.164
2009-01-09,21.1895
2009-01-12,20.748
2009-01-13,20.1538
2009-01-14,19.8142
2009-01-15,19.7802
2009-01-16,20.2132
2009-01-20,19.7123
2009-01-21,19.9161
2009-01-22,19.9245
2009-01-23,19.8312
2009-01-26,20.5528
2009-01-27,20.5528
2009-01-28,20.3151
2009-01-29,20.383
2009-01-30,20.1198
2009-02-02,20.3915
2009-02-03,20.6037
2009-02-04,21.2659
2009-02-05,21.1895
2009-02-06,21.1725
2009-02-09,20.8499
2009-02-10,20.2896
2009-02-11,20.0689
2009-02-12,20.4
2009-02-13,20.383
2009-02-17,19.6444
2009-02-18,18.9992
2009-02-19,19.169
2009-02-20,18.6766
2009-02-23,18.4898
2009-02-24,19.0162
2009-02-25,19.0145
2009-02-26,18.9115
2009-02-27,18.8171
2009-03-02,17.9934
2009-03-03,17.2383
2009-03-04,17.4013
2009-03-05,16.8865
2009-03-06,17.1697
2009-03-09,16.672
2009-03-10,17.1182
2009-03-11,17.264
2009-03-12,17.6244
2009-03-13,17.0753
2009-03-16,17.3756
2009-03-17,18.1135
2009-03-18,18.2765
2009-03-19,18.5511
2009-03-20,18.594
2009-03-23,18.8686
2009-03-24,18.5511
2009-03-25,18.5597
2009-03-26,18.6712
2009-03-27,18.5854
2009-03-30,18.4224
2009-03-31,18.5082
2009-04-01,18.3623
2009-04-02,18.1393
2009-04-03,18.062
2009-04-06,18.1822
2009-04-07,18.3194
2009-04-08,18.4396
2009-04-09,18.4053
2009-04-13,18.1822
2009-04-14,17.8132
2009-04-15,18.0792
2009-04-16,18.268
2009-04-17,18.0792
2009-04-20,18.0191
2009-04-21,17.9247
2009-04-22,17.4356
2009-04-23,17.2984
2009-04-24,17.3498
2009-04-27,17.8218
2009-04-28,17.633
2009-04-29,17.5729
2009-04-30,18.0449
2009-05-01,18.4996
2009-05-04,18.534
2009-05-05,18.7056
2009-05-06,18.4053
2009-05-07,18.2508
2009-05-08,18.2079
2009-05-11,18.165
2009-05-12,18.328
2009-05-13,18.1478
2009-05-14,18.062
2009-05-15,17.6587
2009-05-18,17.6759
2009-05-19,17.796
2009-05-20,17.1611
2009-05-21,17.3756
2009-05-22,17.3927
2009-05-26,17.8818
2009-05-27,17.6845
2009-05-28,17.8912
2009-05-29,18.0388
2009-06-01,18.794
2009-06-02,18.603
2009-06-03,18.2818
2009-06-04,18.2558
2009-06-05,18.4381
2009-06-08,18.3079
2009-06-09,18.1169
2009-06-10,18.3513
2009-06-11,18.7332
2009-06-12,19.202
2009-06-15,19.0457
2009-06-16,18.8461
2009-06-17,18.8113
2009-06-18,19.4537
2009-06-19,19.0718
2009-06-22,19.228
2009-06-23,18.7245
2009-06-24,18.8634
2009-06-25,19.202
2009-06-26,19.1673
2009-06-29,19.4277
2009-06-30,19.3756
2009-07-01,19.9225
2009-07-02,19.2801
2009-07-06,19.5058
2009-07-07,19.1759
2009-07-08,18.8634
2009-07-09,18.6898
2009-07-10,18.5336
2009-07-13,18.6638
2009-07-14,18.7072
2009-07-15,19.1586
2009-07-16,19.2888
2009-07-17,19.1673
2009-07-20,19.1412
2009-07-21,19.3322
2009-07-22,19.3148
2009-07-23,19.8357
2009-07-24,19.9659
2009-07-27,19.9659
2009-07-28,19.7836
2009-07-29,19.6708
2009-07-30,20.0787
2009-07-31,20.0006
2009-08-03,20.235
2009-08-04,19.9746
2009-08-05,20.0961
2009-08-06,19.8965
2009-08-07,20.3131
2009-08-10,20.2437
2009-08-11,20.2871
2009-08-12,20.4954
2009-08-13,20.4347
2009-08-14,20.5822
2009-08-17,20.5041
2009-08-18,20.426
2009-08-19,20.5996
2009-08-20,20.5909
2009-08-21,21.0857
2009-08-24,21.1552
2009-08-25,21.1465
2009-08-26,21.1031
2009-08-27,21.077
2009-08-28,21.0926
2009-08-31,20.8559
2009-09-01,20.8909
2009-09-02,20.7156
2009-09-03,20.7331
2009-09-04,20.777
2009-09-08,20.7682
2009-09-09,20.7419
2009-09-10,20.5753
2009-09-11,20.777
2009-09-14,21.0575
2009-09-15,21.4958
2009-09-16,21.6536
2009-09-17,21.4958
2009-09-18,21.4432
2009-09-21,21.303
2009-09-22,20.9874
2009-09-23,20.8646
2009-09-24,20.8646
2009-09-25,20.8997
2009-09-28,21.0312
2009-09-29,21.0575
2009-09-30,20.812
2009-10-01,20.4877
2009-10-02,20.1984
2009-10-05,20.3649
2009-10-06,20.4175
2009-10-07,20.3474
2009-10-08,20.514
2009-10-09,20.5753
2009-10-12,20.6192
2009-10-13,20.4263
2009-10-14,20.5227
2009-10-15,20.7156
2009-10-16,20.6893
2009-10-19,20.9786
2009-10-20,20.4789
2009-10-21,20.5227
2009-10-22,20.6104
2009-10-23,20.2334
2009-10-26,19.9967
2009-10-27,20.0669
2009-10-28,20.0493
2009-10-29,20.3211
2009-10-30,20.2334
2009-11-02,19.7425
2009-11-03,19.9178
2009-11-04,19.9441
2009-11-05,20.3123
2009-11-06,20.2334
2009-11-09,20.3737
2009-11-10,20.6367
2009-11-11,20.7156
2009-11-12,20.5052
2009-11-13,20.8033
2009-11-16,20.9435
2009-11-17,21.0137
2009-11-18,20.9874
2009-11-19,20.7068
2009-11-20,21.0049
2009-11-23,21.2504
2009-11-24,21.3731
2009-11-25,21.4695
2009-11-27,21.2464
2009-11-30,21.3261
2009-12-01,21.5474
2009-12-02,21.7333
2009-12-03,21.7156
2009-12-04,21.7599
2009-12-07,21.8484
2009-12-08,21.9015
2009-12-09,21.751
2009-12-10,21.9635
2009-12-11,22.5743
2009-12-14,22.8488
2009-12-15,22.8488
2009-12-16,22.8753
2009-12-17,22.8753
2009-12-18,23.0524
2009-12-21,23.1763
2009-12-22,22.9993
2009-12-23,22.9462
2009-12-24,23.2206
2009-12-28,23.2471
2009-12-29,23.3091
2009-12-30,23.2914
2009-12-31,22.8488
2010-01-04,22.8045
2010-01-05,22.6983
2010-01-06,23.0435
2010-01-07,22.9993
2010-01-08,23.0612
2010-01-11,23.2206
2010-01-12,23.1321
2010-01-13,23.3888
2010-01-14,23.3622
2010-01-15,22.9727
2010-01-19,23.3976
2010-01-20,23.256
2010-01-21,22.9816
2010-01-22,22.5389
2010-01-25,22.6009
2010-01-26,22.5124
2010-01-27,22.6363
2010-01-28,22.5832
2010-01-29,22.4061
2010-02-01,22.6894
2010-02-02,23.0081
2010-02-03,22.9993
2010-02-04,22.3265
2010-02-05,22.2291
2010-02-08,21.9281
2010-02-09,22.1229
2010-02-10,22.1229
2010-02-11,22.3265
2010-02-12,22.2468
2010-02-16,22.8045
2010-02-17,22.893
2010-02-18,23.1498
2010-02-19,23.6012
2010-02-22,23.5924
2010-02-23,23.2826
2010-02-24,23.2383
2010-02-25,22.8681
2010-02-26,22.8949
2010-03-01,23.324
2010-03-02,23.4671
2010-03-03,23.4134
2010-03-04,23.476
2010-03-05,23.6995
2010-03-08,23.771
2010-03-09,23.6548
2010-03-10,23.8962
2010-03-11,23.8247
2010-03-12,23.9498
2010-03-15,24.1197
2010-03-16,24.3253
2010-03-17,24.2717
2010-03-18,24.2538
2010-03-19,24.2985
2010-03-22,24.218
2010-03-23,24.37
2010-03-24,24.1107
2010-03-25,24.1733
2010-03-26,24.1376
2010-03-29,24.6024
2010-03-30,24.8527
2010-03-31,24.7276
2010-04-01,24.9779
2010-04-05,25.0494
2010-04-06,25.1925
2010-04-07,24.9511
2010-04-08,24.7544
2010-04-09,24.8796
2010-04-12,24.8617
2010-04-13,24.7812
2010-04-14,24.9064
2010-04-15,24.9421
2010-04-16,24.4862
2010-04-19,24.5399
2010-04-20,24.6382
2010-04-21,24.7276
2010-04-22,24.8527
2010-04-23,24.8259
2010-04-26,24.7186
2010-04-27,24.1465
2010-04-28,24.4236
2010-04-29,24.6293
2010-04-30,24.8438
2010-05-03,24.817
2010-05-04,24.4952
2010-05-05,24.227
2010-05-06,23.2793
2010-05-07,22.8502
2010-05-10,23.5118
2010-05-11,23.6906
2010-05-12,24.0571
2010-05-13,23.8336
2010-05-14,23.771
2010-05-17,23.771
2010-05-18,23.6995
2010-05-19,23.8247
2010-05-20,23.2615
2010-05-21,23.3419
2010-05-24,23.0469
2010-05-25,22.8234
2010-05-26,23.0201
2010-05-27,23.3144
2010-05-28,23.4499
2010-06-01,22.8539
2010-06-02,23.3686
2010-06-03,23.7659
2010-06-04,22.8901
2010-06-07,22.8359
2010-06-08,23.0255
2010-06-09,22.8269
2010-06-10,23.4589
2010-06-11,23.486
2010-06-14,23.5312
2010-06-15,23.8923
2010-06-16,24.0639
2010-06-17,24.3799
2010-06-18,24.2806
2010-06-21,24.0458
2010-06-22,23.5402
2010-06-23,23.17
2010-06-24,23.1971
2010-06-25,23.3054
2010-06-28,23.477
2010-06-29,23.0165
2010-06-30,23.0074
2010-07-01,23.0345
2010-07-02,23.179
2010-07-06,23.468
2010-07-07,24.1542
2010-07-08,24.4341
2010-07-09,24.2806
2010-07-12,24.3438
2010-07-13,24.6689
2010-07-14,24.6237
2010-07-15,24.9308
2010-07-16,24.3348
2010-07-19,24.6328
2010-07-20,24.8766
2010-07-21,24.5967
2010-07-22,25.1023
2010-07-23,25.2287
2010-07-26,25.3913
2010-07-27,25.924
2010-07-28,25.6351
2010-07-29,25.3281
2010-07-30,25.1565
2010-08-02,25.7254
2010-08-03,25.5538
2010-08-04,25.9962
2010-08-05,26.3032
2010-08-06,26.1588
2010-08-09,26.1949
2010-08-10,26.3484
2010-08-11,26.0865
2010-08-12,25.8518
2010-08-13,25.9962
2010-08-16,26.0414
2010-08-17,26.4206
2010-08-18,26.1949
2010-08-19,25.8066
2010-08-20,25.7976
2010-08-23,25.8337
2010-08-24,25.9872
2010-08-25,26.0595
2010-08-26,25.8066
2010-08-27,26.4026
2010-08-30,26.0894
2010-08-31,26.3809
2010-09-01,26.9548
2010-09-02,26.6177
2010-09-03,26.8363
2010-09-07,26.6268
2010-09-08,26.5084
2010-09-09,26.8819
2010-09-10,26.7999
2010-09-13,27.1916
2010-09-14,27.2554
2010-09-15,26.9821
2010-09-16,26.6177
2010-09-17,26.5631
2010-09-20,26.8728
2010-09-21,26.6268
2010-09-22,26.6359
2010-09-23,26.39
2010-09-24,26.9274
2010-09-27,27.0368
2010-09-28,27.1552
2010-09-29,27.2007
2010-09-30,26.9548
2010-10-01,27.1734
2010-10-04,27.1643
2010-10-05,27.5104
2010-10-06,27.474
2010-10-07,27.5378
2010-10-08,27.6198
2010-10-11,27.7473
2010-10-12,27.6106
2010-10-13,27.7382
2010-10-14,27.6926
2010-10-15,27.9568
2010-10-18,27.7108
2010-10-19,28.0023
2010-10-20,28.1481
2010-10-21,27.9568
2010-10-22,28.057
2010-10-25,28.3941
2010-10-26,28.1481
2010-10-27,28.2756
2010-10-28,28.3667
2010-10-29,28.4851
2010-11-01,28.6036
2010-11-02,29.0135
2010-11-03,28.7858
2010-11-04,29.0135
2010-11-05,28.9315
2010-11-08,28.6673
2010-11-09,28.4305
2010-11-10,28.5216
2010-11-11,28.6036
2010-11-12,28.5216
2010-11-15,28.886
2010-11-16,28.4214
2010-11-17,28.4487
2010-11-18,28.7858
2010-11-19,28.6218
2010-11-22,28.8677
2010-11-23,28.6582
2010-11-24,28.9953
2010-11-26,28.8586
2010-11-29,28.6528
2010-11-30,28.5886
2010-12-01,28.9926
2010-12-02,29.1855
2010-12-03,29.0569
2010-12-06,28.9559
2010-12-07,28.7447
2010-12-08,28.6712
2010-12-09,28.8641
2010-12-10,29.0845
2010-12-13,29.0294
2010-12-14,29.1855
2010-12-15,28.809
2010-12-16,29.2314
2010-12-17,29.2957
2010-12-20,29.3508
2010-12-21,29.259
2010-12-22,29.3324
2010-12-23,29.2681
2010-12-27,29.1396
2010-12-28,29.3324
2010-12-29,29.4426
2010-12-30,29.4518
2010-12-31,29.2865
2011-01-03,29.3141
2011-01-04,29.3049
2011-01-05,28.9283
2011-01-06,28.8824
2011-01-07,29.0661
2011-01-10,28.9743
2011-01-11,28.9834
2011-01-12,29.0202
2011-01-13,29.1579
2011-01-14,29.3875
2011-01-18,29.9294
2011-01-19,29.7365
2011-01-20,29.9569
2011-01-21,29.9018
2011-01-24,30.1406
2011-01-25,30.3243
2011-01-26,29.9569
2011-01-27,30.1406
2011-01-28,30.1038
2011-01-31,30.2416
2011-02-01,30.912
2011-02-02,30.9763
2011-02-03,31.0038
2011-02-04,30.9947
2011-02-07,31.0589
2011-02-08,30.9212
2011-02-09,31.0222
2011-02-10,31.013
2011-02-11,30.8294
2011-02-14,30.6732
2011-02-15,30.7467
2011-02-16,30.7467
2011-02-17,30.8753
2011-02-18,30.7008
2011-02-22,30.6916
2011-02-23,30.5998
2011-02-24,30.4161
2011-02-25,31.1149
2011-02-28,31.5409
2011-03-01,31.3279
2011-03-02,31.4853
2011-03-03,31.6427
2011-03-04,31.3464
2011-03-07,31.6057
2011-03-08,32.2169
2011-03-09,32.4854
2011-03-10,31.9298
2011-03-11,31.9854
2011-03-14,31.7816
2011-03-15,31.2445
2011-03-16,30.7167
2011-03-17,31.0223
2011-03-18,31.1612
2011-03-21,31.6798
2011-03-22,31.6242
2011-03-23,31.652
2011-03-24,31.6335
2011-03-25,31.6335
2011-03-28,31.3556
2011-03-29,31.7075
2011-03-30,32.1983
2011-03-31,32.0409
2011-04-01,32.2909
2011-04-04,32.328
2011-04-05,32.2076
2011-04-06,32.3002
2011-04-07,32.0039
2011-04-08,31.9761
2011-04-11,31.652
2011-04-12,31.5779
2011-04-13,31.3649
2011-04-14,31.2816
2011-04-15,31.476
2011-04-18,30.9945
2011-04-19,31.1427
2011-04-20,31.6242
2011-04-21,31.8279
2011-04-25,32.0502
2011-04-26,32.2169
2011-04-27,32.5225
2011-04-28,32.7725
2011-04-29,32.967
2011-05-02,33.0318
2011-05-03,33.0781
2011-05-04,33.0873
2011-05-05,32.6151
2011-05-06,32.6799
2011-05-09,32.8466
2011-05-10,33.0873
2011-05-11,33.0225
2011-05-12,33.3559
2011-05-13,33.2448
2011-05-16,33.2355
2011-05-17,33.5874
2011-05-18,33.6152
2011-05-19,33.5874
2011-05-20,33.4207
2011-05-23,32.8651
2011-05-24,32.8929
2011-05-25,32.7354
2011-05-26,32.7169
2011-05-27,32.6747
2011-05-31,32.8707
2011-06-01,32.5814
2011-06-02,32.544
2011-06-03,31.9747
2011-06-06,31.6294
2011-06-07,31.7414
2011-06-08,31.8627
2011-06-09,31.7974
2011-06-10,31.6107
2011-06-13,31.6387
2011-06-14,31.8161
2011-06-15,31.6294
2011-06-16,31.9841
2011-06-17,32.4414
2011-06-20,32.7214
2011-06-21,32.8614
2011-06-22,32.488
2011-06-23,32.2547
2011-06-24,32.3387
2011-06-27,32.6747
2011-06-28,32.8894
2011-06-29,32.852
2011-06-30,32.8427
2011-07-01,33.3187
2011-07-05,33.2813
2011-07-06,33.1133
2011-07-07,32.992
2011-07-08,32.9454
2011-07-11,32.572
2011-07-12,33.0294
2011-07-13,32.8427
2011-07-14,32.5067
2011-07-15,32.6094
2011-07-18,32.0121
2011-07-19,32.2267
2011-07-20,32.46
2011-07-21,32.9454
2011-07-22,32.9547
2011-07-25,32.7214
2011-07-26,32.6187
2011-07-27,32.516
2011-07-28,32.208
2011-07-29,31.7694
2011-08-01,31.9841
2011-08-02,31.3214
2011-08-03,30.8361
2011-08-04,29.8655
2011-08-05,30.1175
2011-08-08,28.4562
2011-08-09,29.7908
2011-08-10,29.1002
2011-08-11,30.6308
2011-08-12,30.2481
2011-08-15,31.0788
2011-08-16,30.8268
2011-08-17,30.9294
2011-08-18,30.4068
2011-08-19,30.0428
2011-08-22,30.0241
2011-08-23,30.9201
2011-08-24,31.9561
2011-08-25,31.6294
2011-08-26,31.8254
2011-08-29,32.3574
2011-08-30,32.4561
2011-08-31,32.569
2011-09-01,32.315
2011-09-02,31.7223
2011-09-06,31.4871
2011-09-07,31.7976
2011-09-08,31.8258
2011-09-09,31.1579
2011-09-12,31.3554
2011-09-13,31.7129
2011-09-14,32.0422
2011-09-15,32.3714
2011-09-16,32.4091
2011-09-19,32.4561
2011-09-20,32.7854
2011-09-21,32.2585
2011-09-22,31.5342
2011-09-23,31.9575
2011-09-26,32.108
2011-09-27,32.4655
2011-09-28,31.7599
2011-09-29,32.0798
2011-09-30,31.6847
2011-10-03,30.1983
2011-10-04,29.3986
2011-10-05,29.2669
2011-10-06,30.0478
2011-10-07,30.1512
2011-10-10,31.0073
2011-10-11,30.3582
2011-10-12,30.631
2011-10-13,30.9979
2011-10-14,31.3272
2011-10-17,30.9038
2011-10-18,31.2896
2011-10-19,31.3836
2011-10-20,31.393
2011-10-21,31.7693
2011-10-24,31.9669
2011-10-25,31.4307
2011-10-26,31.9199
2011-10-27,32.8418
2011-10-28,32.5408
2011-10-31,32.5125
2011-11-01,31.5812
2011-11-02,32.1927
2011-11-03,32.7101
2011-11-04,32.5502
2011-11-07,32.362
2011-11-08,32.3902
2011-11-09,31.7317
2011-11-10,32.2679
2011-11-11,32.9923
2011-11-14,32.3996
2011-11-15,32.823
2011-11-16,32.2585
2011-11-17,31.8728
2011-11-18,32.4279
2011-11-21,31.807
2011-11-22,31.6
2011-11-23,31.0167
2011-11-25,30.9979
2011-11-28,31.393
2011-11-29,31.7223
2011-11-30,32.5314
2011-12-01,32.776
2011-12-02,32.3432
2011-12-05,32.3996
2011-12-06,32.362
2011-12-07,32.1833
2011-12-08,31.4965
2011-12-09,32.3244
2011-12-12,32.2209
2011-12-13,32.5972
2011-12-14,32.2962
2011-12-15,32.6066
2011-12-16,32.6913
2011-12-19,32.4655
2011-12-20,32.7195
2011-12-21,33.077
2011-12-22,33.1993
2011-12-23,33.5756
2011-12-27,33.9689
2011-12-28,33.9594
2011-12-29,34.3576
2011-12-30,34.2154
2012-01-03,33.8456
2012-01-04,33.2673
2012-01-05,33.2484
2012-01-06,33.1725
2012-01-09,32.7269
2012-01-10,32.689
2012-01-11,32.471
2012-01-12,32.452
2012-01-13,32.433
2012-01-17,32.4236
2012-01-18,32.3382
2012-01-19,31.7978
2012-01-20,32.5658
2012-01-23,32.6795
2012-01-24,32.7459
2012-01-25,33.1346
2012-01-26,33.4095
2012-01-27,32.9355
2012-01-30,32.708
2012-01-31,32.964
2012-02-01,33.3242
2012-02-02,33.2863
2012-02-03,33.5138
2012-02-06,33.419
2012-02-07,33.675
2012-02-08,33.7603
2012-02-09,33.6181
2012-02-10,33.3621
2012-02-13,33.1536
2012-02-14,33.0588
2012-02-15,33.656
2012-02-16,34.3007
2012-02-17,34.2344
2012-02-21,34.1206
2012-02-22,34.0637
2012-02-23,33.9215
2012-02-24,33.9879
2012-02-27,33.8267
2012-02-28,33.821
2012-02-29,34.3468
2012-03-01,34.4615
2012-03-02,34.4997
2012-03-05,34.9012
2012-03-06,34.3468
2012-03-07,34.624
2012-03-08,35.0733
2012-03-09,35.2167
2012-03-12,35.4844
2012-03-13,35.8858
2012-03-14,35.1402
2012-03-15,35.0733
2012-03-16,34.8343
2012-03-19,34.7674
2012-03-20,34.9299
2012-03-21,34.7961
2012-03-22,34.777
2012-03-23,35.1211
2012-03-26,35.513
2012-03-27,35.5226
2012-03-28,35.2454
2012-03-29,35.5608
2012-03-30,35.513
2012-04-02,35.4079
2012-04-03,35.666
2012-04-04,35.427
2012-04-05,35.2932
2012-04-09,35.2167
2012-04-10,34.3372
2012-04-11,34.1556
2012-04-12,34.1269
2012-04-13,34.2321
2012-04-16,34.5762
2012-04-17,34.7292
2012-04-18,34.6049
2012-04-19,34.3659
2012-04-20,34.8439
2012-04-23,34.4902
2012-04-24,34.777
2012-04-25,34.949
2012-04-26,35.0542
2012-04-27,35.2167
2012-04-30,35.1498
2012-05-01,35.4461
2012-05-02,35.4079
2012-05-03,34.2799
2012-05-04,34.4902
2012-05-07,34.3181
2012-05-08,34.624
2012-05-09,34.6144
2012-05-10,34.8439
2012-05-11,34.9586
2012-05-14,34.5953
2012-05-15,34.213
2012-05-16,34.0122
2012-05-17,33.5725
2012-05-18,33.3622
2012-05-21,34.1843
2012-05-22,34.624
2012-05-23,34.6431
2012-05-24,34.71
2012-05-25,34.7578
2012-05-29,35.0924
2012-05-30,34.709
2012-05-31,34.7476
2012-06-01,35.1335
2012-06-04,34.9502
2012-06-05,34.9405
2012-06-06,35.6836
2012-06-07,35.8283
2012-06-08,36.0406
2012-06-11,36.0116
2012-06-12,36.0888
2012-06-13,36.2432
2012-06-14,36.745
2012-06-15,37.1213
2012-06-18,37.3722
2012-06-19,37.2178
2012-06-20,36.6871
2012-06-21,36.2336
2012-06-22,36.4845
2012-06-25,36.2818
2012-06-26,36.7353
2012-06-27,36.9766
2012-06-28,36.9959
2012-06-29,37.4397
2012-07-02,37.7292
2012-07-03,37.8836
2012-07-05,37.4011
2012-07-06,37.3336
2012-07-09,37.2082
2012-07-10,37.3529
2012-07-11,37.5169
2012-07-12,37.7485
2012-07-13,38.4915
2012-07-16,38.1345
2012-07-17,38.6459
2012-07-18,38.8293
2012-07-19,39.0415
2012-07-20,38.8582
2012-07-23,38.4143
2012-07-24,37.9705
2012-07-25,38.067
2012-07-26,38.6266
2012-07-27,38.5494
2012-07-30,39.1573
2012-07-31,38.4915
2012-08-01,37.7389
2012-08-02,37.8643
2012-08-03,38.1538
2012-08-06,38.1731
2012-08-07,38.0766
2012-08-08,38.0863
2012-08-09,37.7871
2012-08-10,38.2021
2012-08-13,37.8933
2012-08-14,37.7485
2012-08-15,37.6424
2012-08-16,37.4011
2012-08-17,37.1985
2012-08-20,37.3047
2012-08-21,36.8608
2012-08-22,36.8318
2012-08-23,36.4266
2012-08-24,36.6292
2012-08-27,36.6388
2012-08-28,36.6871
2012-08-29,36.7874
2012-08-30,36.7192
2012-08-31,36.6803
2012-09-04,37.0016
2012-09-05,36.7095
2012-09-06,37.1282
2012-09-07,37.2451
2012-09-10,37.1282
2012-09-11,36.9432
2012-09-12,36.6998
2012-09-13,37.284
2012-09-14,36.729
2012-09-17,36.2616
2012-09-18,35.9305
2012-09-19,36.0376
2012-09-20,36.1253
2012-09-21,36.4174
2012-09-24,37.0308
2012-09-25,37.0698
2012-09-26,37.1185
2012-09-27,36.9237
2012-09-28,37.2548
2012-10-01,37.654
2012-10-02,37.7709
2012-10-03,37.7806
2012-10-04,37.7903
2012-10-05,38.0922
2012-10-08,38.0922
2012-10-09,38.3648
2012-10-10,38.0143
2012-10-11,37.8585
2012-10-12,37.7124
2012-10-15,38.063
2012-10-16,38.0727
2012-10-17,38.4525
2012-10-18,38.7446
2012-10-19,38.657
2012-10-22,38.4914
2012-10-23,38.0435
2012-10-24,37.8001
2012-10-25,37.9656
2012-10-26,37.9461
2012-10-31,38.2577
2012-11-01,38.1409
2012-11-02,38.433
2012-11-05,37.9948
2012-11-06,38.1214
2012-11-07,37.4106
2012-11-08,37.2451
2012-11-09,37.1477
2012-11-12,36.9335
2012-11-13,37.2256
2012-11-14,36.9627
2012-11-15,36.8848
2012-11-16,37.3327
2012-11-19,37.1379
2012-11-20,37.0406
2012-11-21,36.9043
2012-11-23,36.8945
2012-11-26,37.0795
2012-11-27,37.3522
2012-11-28,37.4138
2012-11-29,37.4629
2012-11-30,38.0819
2012-12-03,37.8559
2012-12-04,37.797
2012-12-05,38.5339
2012-12-06,38.5633
2012-12-07,38.5437
2012-12-10,38.4553
2012-12-11,38.809
2012-12-12,38.976
2012-12-13,38.6616
2012-12-14,37.9738
2012-12-17,38.6125
2012-12-18,38.9956
2012-12-19,38.7697
2012-12-20,38.7304
2012-12-21,38.5339
2012-12-24,38.4651
2012-12-26,38.1016
2012-12-27,38.1507
2012-12-28,37.8068
2012-12-31,38.3668
2013-01-02,39.0753
2013-01-03,38.869
2013-01-04,38.928
2013-01-07,38.5153
2013-01-08,38.3286
2013-01-09,38.4072
2013-01-10,38.5939
2013-01-11,38.4858
2013-01-14,38.3384
2013-01-15,38.309
2013-01-16,37.9847
2013-01-17,38.0535
2013-01-18,38.5054
2013-01-22,39.1539
2013-01-23,39.0556
2013-01-24,39.2031
2013-01-25,39.5666
2013-01-28,39.5704
2013-01-29,39.9487
2013-01-30,40.2435
2013-01-31,40.0224
2013-02-01,40.5087
2013-02-04,40.2336
2013-02-05,40.1943
2013-02-06,40.3418
2013-02-07,40.3859
2013-02-08,40.3515
2013-02-11,40.4105
2013-02-12,40.4301
2013-02-13,40.3712
2013-02-14,40.1059
2013-02-15,40.1992
2013-02-19,40.7063
2013-02-20,40.4115
2013-02-21,40.1364
2013-02-22,40.667
2013-02-25,40.3024
2013-02-26,40.4154
2013-02-27,40.9132
2013-02-28,41.171
2013-03-01,41.4188
2013-03-04,41.9349
2013-03-05,42.1728
2013-03-06,42.1728
2013-03-07,41.9547
2013-03-08,41.8655
2013-03-11,42.0638
2013-03-12,41.7465
2013-03-13,42.0043
2013-03-14,42.1232
2013-03-15,42.2521
2013-03-18,42.0241
2013-03-19,42.0142
2013-03-20,42.3017
2013-03-21,42.2422
2013-03-22,42.2521
2013-03-25,42.2025
2013-03-26,42.4207
2013-03-27,42.49
2013-03-28,43.0849
2013-04-01,42.8767
2013-04-02,43.075
2013-04-03,42.8172
2013-04-04,43.065
2013-04-05,43.3525
2013-04-08,43.4319
2013-04-09,43.2931
2013-04-10,43.7689
2013-04-11,44.0663
2013-04-12,44.2547
2013-04-15,43.5012
2013-04-16,44.1159
2013-04-17,43.5607
2013-04-18,43.8086
2013-04-19,44.5323
2013-04-22,44.0862
2013-04-23,44.3736
2013-04-24,44.5323
2013-04-25,44.4034
2013-04-26,44.4827
2013-04-29,44.6215
2013-04-30,44.9189
2013-05-01,44.5818
2013-05-02,44.8396
2013-05-03,44.7405
2013-05-06,44.2249
2013-05-07,44.5719
2013-05-08,44.0961
2013-05-09,43.1741
2013-05-10,43.3823
2013-05-13,43.1245
2013-05-14,43.5607
2013-05-15,44.1655
2013-05-16,43.7293
2013-05-17,44.0465
2013-05-20,44.0267
2013-05-21,44.215
2013-05-22,43.5508
2013-05-23,43.1543
2013-05-24,42.381
2013-05-28,42.1431
2013-05-29,41.79
2013-05-30,41.97
2013-05-31,41.74
2013-06-03,41.82
2013-06-04,41.59
2013-06-05,41.23
2013-06-06,41.63
2013-06-07,42.39
2013-06-10,42.02
2013-06-11,41.52
2013-06-12,41.14
2013-06-13,41.91
2013-06-14,42.12
2013-06-17,42.12
2013-06-18,42.53
2013-06-19,41.33
2013-06-20,39.63
2013-06-21,40.36
2013-06-24,40.15
2013-06-25,40.58
2013-06-26,41.25
2013-06-27,41.72
2013-06-28,42.11
2013-07-01,41.3
2013-07-02,41.15
2013-07-03,41.2
2013-07-05,41.13
2013-07-08,41.75
2013-07-09,42.17
2013-07-10,42.3
2013-07-11,43.16
2013-07-12,43.28
2013-07-15,44.12
2013-07-16,43.83
2013-07-17,43.94
2013-07-18,44.61
2013-07-19,44.82
2013-07-22,44.67
2013-07-23,44.92
2013-07-24,44.19
2013-07-25,44.36
2013-07-26,44.29
2013-07-29,43.93
2013-07-30,44.62
2013-07-31,44.42
2013-08-01,45.09
2013-08-02,44.67
2013-08-05,44.25
2013-08-06,43.65
2013-08-07,44.17
2013-08-08,44.22
2013-08-09,43.74
