date,close_price
1998-01-02,8.24098
1998-01-05,8.58435
1998-01-06,8.36333
1998-01-07,8.24098
1998-01-08,8.38701
1998-01-09,7.7713
1998-01-12,8.06732
1998-01-13,8.091
1998-01-14,8.32167
1998-01-15,8.29782
1998-01-16,8.42101
1998-01-20,8.94161
1998-01-21,9.09263
1998-01-22,9.01712
1998-01-23,9.16416
1998-01-26,9.39068
1998-01-27,9.41453
1998-01-28,9.71258
1998-01-29,9.63707
1998-01-30,9.58938
1998-02-02,9.73642
1998-02-03,9.76027
1998-02-04,9.88743
1998-02-05,10.1855
1998-02-06,10.2093
1998-02-09,10.2849
1998-02-10,10.3563
1998-02-11,10.3087
1998-02-12,10.3326
1998-02-13,10.3326
1998-02-17,10.3087
1998-02-18,10.3842
1998-02-19,10.3326
1998-02-20,10.4557
1998-02-23,10.5074
1998-02-24,10.5074
1998-02-25,10.5829
1998-02-26,10.6306
1998-02-27,10.7061
1998-03-02,10.8531
1998-03-03,10.7816
1998-03-04,10.7299
1998-03-05,10.6306
1998-03-06,10.9048
1998-03-09,10.9525
1998-03-10,10.8809
1998-03-11,10.9525
1998-03-12,10.9048
1998-03-13,10.9525
1998-03-16,11.1512
1998-03-17,11.1035
1998-03-18,11.1035
1998-03-19,11.1035
1998-03-20,10.9525
1998-03-23,10.9048
1998-03-24,10.8809
1998-03-25,11.0042
1998-03-26,10.9525
1998-03-27,11.028
1998-03-30,11.2784
1998-03-31,11.5764
1998-04-01,11.6479
1998-04-02,11.6241
1998-04-03,11.6241
1998-04-06,11.3261
1998-04-07,11.1035
1998-04-08,11.0796
1998-04-09,11.5764
1998-04-13,11.2505
1998-04-14,11.5764
1998-04-15,11.856
1998-04-16,11.6802
1998-04-17,11.7321
1998-04-20,11.804
1998-04-21,12.3551
1998-04-22,12.3791
1998-04-23,12.2792
1998-04-24,12.1036
1998-04-27,11.9797
1998-04-28,12.0796
1998-04-29,11.9318
1998-04-30,12.0316
1998-05-01,12.0557
1998-05-04,12.0037
1998-05-05,12.0316
1998-05-06,12.0037
1998-05-07,11.7561
1998-05-08,11.9318
1998-05-11,12.1315
1998-05-12,12.3551
1998-05-13,12.8024
1998-05-14,12.9301
1998-05-15,12.6785
1998-05-18,12.8024
1998-05-19,13.1019
1998-05-20,13.4293
1998-05-21,12.8782
1998-05-22,12.7544
1998-05-26,12.403
1998-05-27,11.9039
1998-05-28,12.431
1998-05-29,12.6027
1998-06-01,12.7304
1998-06-02,12.6546
1998-06-03,12.3791
1998-06-04,12.5548
1998-06-05,12.2033
1998-06-08,12.1315
1998-06-09,12.2033
1998-06-10,12.0316
1998-06-11,11.856
1998-06-12,11.4566
1998-06-15,11.2809
1998-06-16,11.3808
1998-06-17,11.6802
1998-06-18,11.5564
1998-06-19,11.4327
1998-06-22,11.6323
1998-06-23,11.78
1998-06-24,11.9318
1998-06-25,11.832
1998-06-26,11.804
1998-06-29,11.8799
1998-06-30,11.9039
1998-07-01,11.9039
1998-07-02,11.9039
1998-07-06,11.8799
1998-07-07,11.832
1998-07-08,11.832
1998-07-09,11.6563
1998-07-10,11.2809
1998-07-13,11.0333
1998-07-14,11.0054
1998-07-15,11.3568
1998-07-16,11.7042
1998-07-17,11.7561
1998-07-20,11.6323
1998-07-21,11.6044
1998-07-22,11.4118
1998-07-23,11.2874
1998-07-24,11.1871
1998-07-27,10.9343
1998-07-28,10.6333
1998-07-29,10.5571
1998-07-30,10.6092
1998-07-31,10.3324
1998-08-03,10.9864
1998-08-04,11.4359
1998-08-05,11.488
1998-08-06,11.5602
1998-08-07,11.3114
1998-08-10,11.1108
1998-08-11,11.2352
1998-08-12,11.5602
1998-08-13,11.3356
1998-08-14,11.3877
1998-08-17,11.3596
1998-08-18,11.6124
1998-08-19,11.5883
1998-08-20,11.5121
1998-08-21,11.4118
1998-08-24,11.0867
1998-08-25,10.7858
1998-08-26,10.2079
1998-08-27,9.68235
1998-08-28,9.58203
1998-08-31,9.42955
1998-09-01,7.82452
1998-09-02,8.82766
1998-09-03,9.15268
1998-09-04,9.22892
1998-09-08,9.50579
1998-09-09,9.45363
1998-09-10,9.22892
1998-09-11,9.32924
1998-09-14,9.20485
1998-09-15,9.30516
1998-09-16,9.15268
1998-09-17,9.05237
1998-09-18,8.77951
1998-09-21,8.65111
1998-09-22,9.05237
1998-09-23,9.30516
1998-09-24,9.08045
1998-09-25,8.98014
1998-09-28,8.95205
1998-09-29,9.40548
1998-09-30,9.08045
1998-10-01,8.87982
1998-10-02,9.32924
1998-10-05,9.48172
1998-10-06,9.40548
1998-10-07,9.18077
1998-10-08,8.65111
1998-10-09,8.50265
1998-10-12,9.02829
1998-10-13,8.92798
1998-10-14,8.72735
1998-10-15,9.08045
1998-10-16,9.30516
1998-10-19,9.3814
1998-10-20,9.50579
1998-10-21,8.93276
1998-10-22,8.9812
1998-10-23,10.067
1998-10-26,10.2931
1998-10-27,10.1437
1998-10-28,10.1679
1998-10-29,10.1922
1998-10-30,10.1679
1998-11-02,10.3939
1998-11-03,10.5473
1998-11-04,10.9995
1998-11-05,11.2255
1998-11-06,11.1771
1998-11-09,11.4798
1998-11-10,11.2255
1998-11-11,10.6967
1998-11-12,10.951
1998-11-13,10.8985
1998-11-16,10.6483
1998-11-17,10.7976
1998-11-18,10.721
1998-11-19,10.6483
1998-11-20,10.721
1998-11-23,10.951
1998-11-24,10.9995
1998-11-25,10.951
1998-11-27,11.052
1998-11-30,11.1771
1998-12-01,11.6049
1998-12-02,11.2255
1998-12-03,11.3546
1998-12-04,11.3021
1998-12-07,11.4556
1998-12-08,11.2013
1998-12-09,11.1004
1998-12-10,10.8985
1998-12-11,10.8743
1998-12-14,10.721
1998-12-15,10.6967
1998-12-16,10.2163
1998-12-17,10.5473
1998-12-18,10.6483
1998-12-21,10.7976
1998-12-22,10.6483
1998-12-23,10.8218
1998-12-24,11.0761
1998-12-28,10.9995
1998-12-29,10.8985
1998-12-30,11.2537
1998-12-31,11.2537
1999-01-04,11.6574
1999-01-05,11.9319
1999-01-06,12.1337
1999-01-07,11.6816
1999-01-08,11.8068
1999-01-11,11.504
1999-01-12,11.5565
1999-01-13,11.5565
1999-01-14,11.3021
1999-01-15,11.6574
1999-01-19,11.3789
1999-01-20,11.0301
1999-01-21,11.0301
1999-01-22,10.8759
1999-01-25,11.3831
1999-01-26,11.6386
1999-01-27,11.5129
1999-01-28,11.6143
1999-01-29,11.4845
1999-02-01,11.5129
1999-02-02,11.2086
1999-02-03,11.6386
1999-02-04,10.9774
1999-02-05,11.1802
1999-02-08,10.9044
1999-02-09,10.7746
1999-02-10,10.8517
1999-02-11,11.1073
1999-02-12,10.9044
1999-02-16,10.8273
1999-02-17,10.8517
1999-02-18,10.8517
1999-02-19,11.233
1999-02-22,11.2086
1999-02-23,11.1558
1999-02-24,10.9287
1999-02-25,10.9531
1999-02-26,10.6001
1999-03-01,10.7015
1999-03-02,10.803
1999-03-03,10.7015
1999-03-04,10.8517
1999-03-05,11.1558
1999-03-08,11.31
1999-03-09,11.0788
1999-03-10,11.0058
1999-03-11,11.233
1999-03-12,11.1316
1999-03-15,11.2086
1999-03-16,11.2573
1999-03-17,10.9287
1999-03-18,10.803
1999-03-19,10.9774
1999-03-22,10.8273
1999-03-23,10.7015
1999-03-24,10.5231
1999-03-25,10.6732
1999-03-26,10.6245
1999-03-29,10.7259
1999-03-30,10.4459
1999-03-31,10.6732
1999-04-01,10.8273
1999-04-05,10.9774
1999-04-06,11.0058
1999-04-07,11.0788
1999-04-08,11.0301
1999-04-09,11.1802
1999-04-12,11.2817
1999-04-13,10.9044
1999-04-14,11.0545
1999-04-15,11.2086
1999-04-16,11.1558
1999-04-19,11.5372
1999-04-20,11.663
1999-04-21,11.7731
1999-04-22,12.2296
1999-04-23,12.5598
1999-04-26,12.4579
1999-04-27,13.4036
1999-04-28,13.1469
1999-04-29,12.7922
1999-04-30,12.6372
1999-05-03,12.5598
1999-05-04,13.4526
1999-05-05,13.3752
1999-05-06,13.2732
1999-05-07,13.3506
1999-05-10,12.9674
1999-05-11,13.098
1999-05-12,13.045
1999-05-13,12.8411
1999-05-14,12.8411
1999-05-17,12.8656
1999-05-18,12.5883
1999-05-19,12.9674
1999-05-20,12.8656
1999-05-21,12.6903
1999-05-24,12.5109
1999-05-25,12.0258
1999-05-26,12.1807
1999-05-27,11.8219
1999-05-28,12.0788
1999-06-01,12.1522
1999-06-02,11.8219
1999-06-03,12.1522
1999-06-04,12.3071
1999-06-07,12.254
1999-06-08,12.3846
1999-06-09,12.4579
1999-06-10,12.4865
1999-06-11,12.4335
1999-06-14,12.5353
1999-06-15,12.6618
1999-06-16,12.8941
1999-06-17,12.8167
1999-06-18,12.6903
1999-06-21,12.6903
1999-06-22,12.8167
1999-06-23,12.8941
1999-06-24,12.9674
1999-06-25,12.8656
1999-06-28,13.0694
1999-06-29,13.6808
1999-06-30,14.5981
1999-07-01,14.4228
1999-07-02,14.5981
1999-07-06,13.9133
1999-07-07,14.064
1999-07-08,14.0396
1999-07-09,13.9133
1999-07-12,13.8847
1999-07-13,14.0885
1999-07-14,13.9377
1999-07-15,14.2435
1999-07-16,14.166
1999-07-19,14.0885
1999-07-20,13.7094
1999-07-21,14.2496
1999-07-22,14.0982
1999-07-23,14.0736
1999-07-26,13.7912
1999-07-27,13.9713
1999-07-28,13.8689
1999-07-29,13.6888
1999-07-30,13.7134
1999-08-02,13.7912
1999-08-03,13.8689
1999-08-04,13.6111
1999-08-05,13.7912
1999-08-06,13.562
1999-08-09,13.6888
1999-08-10,13.562
1999-08-11,13.8158
1999-08-12,13.6888
1999-08-13,13.6356
1999-08-16,13.6643
1999-08-17,13.6356
1999-08-18,13.4064
1999-08-19,13.3572
1999-08-20,13.5087
1999-08-23,13.8935
1999-08-24,13.8689
1999-08-25,14.1227
1999-08-26,13.7667
1999-08-27,13.2263
1999-08-30,13.0503
1999-08-31,12.9971
1999-09-01,13.5087
1999-09-02,13.5332
1999-09-03,14.045
1999-09-07,14.0736
1999-09-08,13.9959
1999-09-09,13.7379
1999-09-10,14.3275
1999-09-13,14.6099
1999-09-14,15.3754
1999-09-15,15.1993
1999-09-16,15.0438
1999-09-17,15.1993
1999-09-20,15.2484
1999-09-21,15.1993
1999-09-22,15.2239
1999-09-23,15.0438
1999-09-24,14.9947
1999-09-27,15.5064
1999-09-28,15.6579
1999-09-29,15.9403
1999-09-30,16.2964
1999-10-01,15.7602
1999-10-04,16.0427
1999-10-05,16.1204
1999-10-06,16.2964
1999-10-07,16.4275
1999-10-08,16.2964
1999-10-11,16.2719
1999-10-12,16.2473
1999-10-13,15.9648
1999-10-14,15.8134
1999-10-15,14.9947
1999-10-18,15.1216
1999-10-19,15.3754
1999-10-20,15.7165
1999-10-21,15.7698
1999-10-22,15.7698
1999-10-25,16.5136
1999-10-26,16.1273
1999-10-27,15.9465
1999-10-28,16.2547
1999-10-29,16.7682
1999-11-01,16.4354
1999-11-02,16.3328
1999-11-03,15.9753
1999-11-04,15.8438
1999-11-05,16.078
1999-11-08,16.1519
1999-11-09,16.1807
1999-11-10,16.3328
1999-11-11,16.6409
1999-11-12,16.4601
1999-11-15,16.3328
1999-11-16,16.8217
1999-11-17,17.2819
1999-11-18,17.9763
1999-11-19,17.9517
1999-11-22,17.8736
1999-11-23,17.4134
1999-11-24,17.5407
1999-11-26,17.6928
1999-11-29,17.5161
1999-11-30,16.871
1999-12-01,17.0519
1999-12-02,17.0025
1999-12-03,17.5654
1999-12-06,17.3107
1999-12-07,17.4134
1999-12-08,17.5407
1999-12-09,17.8983
1999-12-10,17.7462
1999-12-13,17.3354
1999-12-14,17.36
1999-12-15,17.5407
1999-12-16,17.4873
1999-12-17,16.4889
1999-12-20,16.6409
1999-12-21,16.4354
1999-12-22,15.6137
1999-12-23,16.5916
1999-12-27,16.5382
1999-12-28,16.3328
1999-12-29,16.7436
1999-12-30,17.2079
1999-12-31,17.1299
2000-01-03,17.0025
2000-01-04,16.2547
2000-01-05,16.0246
2000-01-06,16.2547
2000-01-07,16.4354
2000-01-10,17.1299
2000-01-11,16.6163
2000-01-12,16.6409
2000-01-13,17.0519
2000-01-14,17.0519
2000-01-18,17.6928
2000-01-19,18.0595
2000-01-20,18.8593
2000-01-21,19.4282
2000-01-24,19.5312
2000-01-25,19.5806
2000-01-26,19.659
2000-01-27,20.2774
2000-01-28,20.5865
2000-01-31,20.6113
2000-02-01,21.2543
2000-02-02,20.8957
2000-02-03,21.0771
2000-02-04,21.7985
2000-02-07,21.951
2000-02-08,22.7259
2000-02-09,22.4415
2000-02-10,22.6723
2000-02-11,23.3155
2000-02-14,24.8118
2000-02-15,26.9512
2000-02-16,27.619
2000-02-17,31.3827
2000-02-18,28.0313
2000-02-22,28.831
2000-02-23,28.4435
2000-02-24,26.8729
2000-02-25,25.9207
2000-02-28,24.8902
2000-02-29,26.7163
2000-03-01,28.291
2000-03-02,29.8863
2000-03-03,31.7413
2000-03-06,32.5657
2000-03-07,32.0505
2000-03-08,29.3463
2000-03-09,29.3711
2000-03-10,30.0429
2000-03-13,28.4435
2000-03-14,26.4854
2000-03-15,26.6421
2000-03-16,27.619
2000-03-17,28.7279
2000-03-20,28.9341
2000-03-21,28.0849
2000-03-22,28.3404
2000-03-23,27.8252
2000-03-24,27.2604
2000-03-27,27.9819
2000-03-28,27.2068
2000-03-29,27.5161
2000-03-30,26.3824
2000-03-31,27.4666
2000-04-03,26.1268
2000-04-04,25.1457
2000-04-05,24.2965
2000-04-06,24.6304
2000-04-07,25.9455
2000-04-10,25.2241
2000-04-11,25.8671
2000-04-12,24.7583
2000-04-13,25.0179
2000-04-14,22.9568
2000-04-17,22.5446
2000-04-18,22.6807
2000-04-19,22.7303
2000-04-20,21.9823
2000-04-24,20.7424
2000-04-25,21.7508
2000-04-26,22.317
2000-04-27,22.3955
2000-04-28,22.6022
2000-05-01,22.4741
2000-05-02,22.317
2000-05-03,21.8542
2000-05-04,22.1352
2000-05-05,23.094
2000-05-08,22.3708
2000-05-09,21.6971
2000-05-10,20.8209
2000-05-11,21.8789
2000-05-12,22.0856
2000-05-15,22.3418
2000-05-16,23.5816
2000-05-17,22.8089
2000-05-18,22.7055
2000-05-19,21.8542
2000-05-22,21.6186
2000-05-23,20.6887
2000-05-24,21.1309
2000-05-25,21.1309
2000-05-26,20.8705
2000-05-30,22.2674
2000-05-31,21.6971
2000-06-01,23.4039
2000-06-02,24.7719
2000-06-05,24.2553
2000-06-06,24.9537
2000-06-07,24.3338
2000-06-08,25.0033
2000-06-09,25.2099
2000-06-12,23.8916
2000-06-13,24.2015
2000-06-14,23.5569
2000-06-15,23.065
2000-06-16,23.1973
2000-06-19,25.0033
2000-06-20,25.0033
2000-06-21,24.6149
2000-06-22,23.9205
2000-06-23,24.2015
2000-06-26,26.5779
2000-06-27,26.7101
2000-06-28,28.4129
2000-06-29,26.3713
2000-06-30,26.863
2000-07-03,26.863
2000-07-05,26.5531
2000-07-06,26.863
2000-07-07,28.2062
2000-07-10,27.9995
2000-07-11,28.9832
2000-07-12,31.1777
2000-07-13,30.4007
2000-07-14,30.2726
2000-07-17,31.1529
2000-07-18,30.3759
2000-07-19,29.6305
2000-07-20,29.1916
2000-07-21,28.3138
2000-07-24,28.1067
2000-07-25,28.1813
2000-07-26,26.8894
2000-07-27,25.9826
2000-07-28,26.4505
2000-07-31,26.5002
2000-08-01,27.0716
2000-08-02,25.9039
2000-08-03,25.7259
2000-08-04,27.1461
2000-08-07,28.8811
2000-08-08,29.7879
2000-08-09,29.5022
2000-08-10,30.0198
2000-08-11,30.1771
2000-08-14,30.9514
2000-08-15,31.2868
2000-08-16,32.3757
2000-08-17,33.0465
2000-08-18,32.765
2000-08-21,33.0465
2000-08-22,34.3923
2000-08-23,35.2742
2000-08-24,34.8063
2000-08-25,35.0672
2000-08-28,36.0237
2000-08-29,36.3591
2000-08-30,36.9802
2000-08-31,37.241
2000-09-01,37.1872
2000-09-05,35.8705
2000-09-06,35.2742
2000-09-07,36.0776
2000-09-08,36.5661
2000-09-11,36.5661
2000-09-12,37.3943
2000-09-13,37.8621
2000-09-14,39.3114
2000-09-15,39.0257
2000-09-18,37.5764
2000-09-19,38.7689
2000-09-20,41.096
2000-09-21,41.51
2000-09-22,41.6385
2000-09-25,42.2596
2000-09-26,40.2678
2000-09-27,41.7709
2000-09-28,44.3298
2000-09-29,43.4769
2000-10-02,44.4334
2000-10-03,42.7522
2000-10-04,41.2243
2000-10-05,41.2243
2000-10-06,38.3259
2000-10-09,39.154
2000-10-10,40.6032
2000-10-11,40.9138
2000-10-12,39.2327
2000-10-13,41.3031
2000-10-16,42.6736
2000-10-17,42.0276
2000-10-18,42.2931
2000-10-19,44.4451
2000-10-20,46.0
2000-10-23,47.1402
2000-10-24,48.0193
2000-10-25,46.3898
2000-10-26,44.5487
2000-10-27,46.1285
2000-10-30,47.9944
2000-10-31,49.4995
2000-11-01,48.6703
2000-11-02,49.4705
2000-11-03,48.0483
2000-11-06,49.2632
2000-11-07,48.3592
2000-11-08,48.1229
2000-11-09,45.8176
2000-11-10,43.2799
2000-11-13,39.9338
2000-11-14,43.226
2000-11-15,45.3532
2000-11-16,43.4582
2000-11-17,45.1956
2000-11-20,42.6829
2000-11-21,43.1763
2000-11-22,41.8785
2000-11-24,42.629
2000-11-27,43.1473
2000-11-28,39.8592
2000-11-29,38.2255
2000-11-30,36.9028
2000-12-01,40.9994
2000-12-04,39.7555
2000-12-05,42.2682
2000-12-06,42.1646
2000-12-07,40.8418
2000-12-08,42.4216
2000-12-11,46.0
2000-12-12,44.8349
2000-12-13,42.1895
2000-12-14,40.4522
2000-12-15,42.3968
2000-12-18,44.2875
2000-12-19,43.848
2000-12-20,42.2682
2000-12-21,39.1585
2000-12-22,41.2316
2000-12-26,41.1777
2000-12-27,42.5792
2000-12-28,44.9883
2000-12-29,42.969
2001-01-02,40.1951
2001-01-03,41.4638
2001-01-04,38.7935
2001-01-05,35.5801
2001-01-08,36.853
2001-01-09,36.3348
2001-01-10,37.786
2001-01-11,39.6518
2001-01-12,38.097
2001-01-16,37.7072
2001-01-17,38.4381
2001-01-18,39.0901
2001-01-19,36.3119
2001-01-22,37.0884
2001-01-23,37.5827
2001-01-24,35.9464
2001-01-25,36.5445
2001-01-26,38.0769
2001-01-29,37.8982
2001-01-30,38.9904
2001-01-31,40.4523
2001-02-01,39.6133
2001-02-02,37.8526
2001-02-05,37.7487
2001-02-06,39.5428
2001-02-07,37.9232
2001-02-08,37.4622
2001-02-09,36.831
2001-02-12,37.3916
2001-02-13,36.5528
2001-02-14,37.7903
2001-02-15,37.9564
2001-02-16,36.3202
2001-02-20,33.4215
2001-02-21,32.101
2001-02-22,30.7679
2001-02-23,31.3535
2001-02-26,32.4166
2001-02-27,31.6276
2001-02-28,30.4108
2001-03-01,29.8917
2001-03-02,29.9789
2001-03-05,29.9996
2001-03-06,31.1998
2001-03-07,29.8585
2001-03-08,29.028
2001-03-09,27.6949
2001-03-12,25.3569
2001-03-13,26.3743
2001-03-14,25.8095
2001-03-15,25.4192
2001-03-16,24.763
2001-03-19,24.7298
2001-03-20,22.6285
2001-03-21,21.1626
2001-03-22,18.3594
2001-03-23,20.768
2001-03-26,21.7606
2001-03-27,21.6028
2001-03-28,20.9798
2001-03-29,20.5521
2001-03-30,21.9433
2001-04-02,20.2241
2001-04-03,19.4766
2001-04-04,17.8487
2001-04-05,20.3237
2001-04-06,20.0164
2001-04-09,20.141
2001-04-10,20.93
2001-04-11,21.6485
2001-04-12,23.2722
2001-04-16,22.4042
2001-04-17,22.6991
2001-04-18,24.9893
2001-04-19,27.0752
2001-04-20,26.5007
2001-04-23,25.6097
2001-04-24,25.5139
2001-04-25,25.8803
2001-04-26,26.6547
2001-04-27,26.5298
2001-04-30,27.7955
2001-05-01,26.305
2001-05-02,26.2092
2001-05-03,26.1343
2001-05-04,25.8553
2001-05-07,26.7171
2001-05-08,26.7796
2001-05-09,27.0002
2001-05-10,26.8712
2001-05-11,26.7422
2001-05-14,26.1967
2001-05-15,26.9004
2001-05-16,27.6456
2001-05-17,29.1486
2001-05-18,30.3519
2001-05-21,30.8765
2001-05-22,31.3428
2001-05-23,29.9772
2001-05-24,29.9605
2001-05-25,30.0895
2001-05-29,29.0196
2001-05-30,27.8995
2001-05-31,28.7864
2001-06-01,29.1653
2001-06-04,29.0779
2001-06-05,30.993
2001-06-06,30.3935
2001-06-07,30.0937
2001-06-08,29.9772
2001-06-11,28.4534
2001-06-12,27.8205
2001-06-13,28.0287
2001-06-14,27.7788
2001-06-15,29.6191
2001-06-18,28.8197
2001-06-19,26.5632
2001-06-20,24.8978
2001-06-21,24.6895
2001-06-22,23.3156
2001-06-25,23.1906
2001-06-26,22.4828
2001-06-27,22.3663
2001-06-28,21.9749
2001-06-29,22.8159
2001-07-02,22.3164
2001-07-03,22.2164
2001-07-05,21.4503
2001-07-06,20.8674
2001-07-09,21.442
2001-07-10,21.6502
2001-07-11,20.9257
2001-07-12,22.6578
2001-07-13,22.9326
2001-07-16,23.0741
2001-07-17,23.4821
2001-07-18,25.1183
2001-07-19,25.1267
2001-07-20,25.2518
2001-07-23,25.0515
2001-07-24,25.928
2001-07-25,27.2469
2001-07-26,27.7562
2001-07-27,28.3489
2001-07-30,26.6877
2001-07-31,26.145
2001-08-01,25.8362
2001-08-02,25.9197
2001-08-03,25.5858
2001-08-06,25.4856
2001-08-07,25.4689
2001-08-08,24.4588
2001-08-09,24.5006
2001-08-10,24.7928
2001-08-13,24.8345
2001-08-14,24.6341
2001-08-15,23.8577
2001-08-16,23.816
2001-08-17,23.6407
2001-08-20,23.4905
2001-08-21,23.791
2001-08-22,24.3169
2001-08-23,23.8411
2001-08-24,24.6758
2001-08-27,26.0949
2001-08-28,25.6776
2001-08-29,26.4038
2001-08-30,26.888
2001-08-31,26.7378
2001-09-04,26.5124
2001-09-05,25.519
2001-09-06,25.3854
2001-09-07,25.0766
2001-09-10,24.4337
2001-09-17,23.2317
2001-09-18,22.9813
2001-09-19,22.8727
2001-09-20,21.5956
2001-09-21,21.9462
2001-09-24,22.9813
2001-09-25,22.6975
2001-09-26,22.2133
2001-09-27,21.487
2001-09-28,21.9045
2001-10-01,21.462
2001-10-02,22.2801
2001-10-03,23.407
2001-10-04,23.5156
2001-10-05,23.3653
2001-10-08,23.4988
2001-10-09,23.2066
2001-10-10,23.5406
2001-10-11,24.2167
2001-10-12,24.3336
2001-10-15,24.1082
2001-10-16,24.4588
2001-10-17,25.1285
2001-10-18,24.5093
2001-10-19,23.9487
2001-10-22,23.8483
2001-10-23,23.2207
2001-10-24,22.8943
2001-10-25,22.9362
2001-10-26,22.9696
2001-10-29,22.5596
2001-10-30,22.342
2001-10-31,22.5178
2001-11-01,22.8776
2001-11-02,22.6767
2001-11-05,22.8274
2001-11-06,23.2291
2001-11-07,23.3462
2001-11-08,22.6182
2001-11-09,22.6015
2001-11-12,22.9362
2001-11-13,24.2415
2001-11-14,24.5428
2001-11-15,24.4842
2001-11-16,24.4173
2001-11-19,24.2499
2001-11-20,24.0826
2001-11-21,23.957
2001-11-23,24.2248
2001-11-26,24.2248
2001-11-27,24.183
2001-11-28,23.3127
2001-11-29,23.3713
2001-11-30,23.1453
2001-12-03,22.6517
2001-12-04,24.7687
2001-12-05,26.3836
2001-12-06,27.5719
2001-12-07,27.0782
2001-12-10,26.869
2001-12-11,26.71
2001-12-12,26.4422
2001-12-13,25.9318
2001-12-14,25.5637
2001-12-17,26.6599
2001-12-18,27.2372
2001-12-19,27.6221
2001-12-20,27.2121
2001-12-21,27.4966
2001-12-24,28.0656
2001-12-26,28.7853
2001-12-27,29.4965
2001-12-28,29.8814
2001-12-31,29.1869
2002-01-02,29.2036
2002-01-03,29.9819
2002-01-04,30.3082
2002-01-07,29.4547
2002-01-08,29.3208
2002-01-09,28.7099
2002-01-10,28.2999
2002-01-11,28.2163
2002-01-14,27.6975
2002-01-15,27.6891
2002-01-16,26.7164
2002-01-17,26.8507
2002-01-18,26.2301
2002-01-22,25.8192
2002-01-23,26.7667
2002-01-24,26.8086
2002-01-25,26.3727
2002-01-28,25.2238
2002-01-29,24.8549
2002-01-30,24.7458
2002-01-31,24.771
2002-02-01,24.6452
2002-02-04,23.5132
2002-02-05,22.4231
2002-02-06,21.7773
2002-02-07,22.3224
2002-02-08,22.2134
2002-02-11,22.2218
2002-02-12,22.054
2002-02-13,21.8025
2002-02-14,21.4084
2002-02-15,20.8885
2002-02-19,20.3937
2002-02-20,20.5027
2002-02-21,20.1925
2002-02-22,19.8235
2002-02-25,20.1086
2002-02-26,20.444
2002-02-27,19.8906
2002-02-28,19.2785
2002-03-01,13.266
2002-03-04,13.593
2002-03-05,14.0626
2002-03-06,14.507
2002-03-07,14.725
2002-03-08,14.7083
2002-03-11,14.3058
2002-03-12,14.4819
2002-03-13,14.658
2002-03-14,14.4483
2002-03-15,14.549
2002-03-18,14.725
2002-03-19,14.9682
2002-03-20,15.1108
2002-03-21,14.8844
2002-03-22,14.8006
2002-03-25,14.5406
2002-03-26,14.7921
2002-03-27,15.1025
2002-03-28,15.4462
2002-04-01,15.5049
2002-04-02,15.245
2002-04-03,14.6748
2002-04-04,14.4567
2002-04-05,14.4399
2002-04-08,14.0794
2002-04-09,13.9787
2002-04-10,13.9117
2002-04-11,9.99559
2002-04-12,10.1047
2002-04-15,10.4233
2002-04-16,10.8509
2002-04-17,11.1298
2002-04-18,11.1635
2002-04-19,11.425
2002-04-22,11.2984
2002-04-23,10.9612
2002-04-24,10.7925
2002-04-25,10.5228
2002-04-26,10.0843
2002-04-29,10.624
2002-04-30,10.7083
2002-05-01,10.4047
2002-05-02,10.5312
2002-05-03,10.3794
2002-05-06,10.0674
2002-05-07,10.2613
2002-05-08,10.919
2002-05-09,10.4131
2002-05-10,10.4216
2002-05-13,10.6071
2002-05-14,11.2901
2002-05-15,11.602
2002-05-16,11.8044
2002-05-17,11.8044
2002-05-20,11.8634
2002-05-21,11.4671
2002-05-22,11.6695
2002-05-23,12.3271
2002-05-24,11.8802
2002-05-28,11.8212
2002-05-29,11.8212
2002-05-30,11.7201
2002-05-31,11.7116
2002-06-03,11.054
2002-06-04,11.231
2002-06-05,11.2057
2002-06-06,11.1973
2002-06-07,11.2647
2002-06-10,11.1804
2002-06-11,10.9612
2002-06-12,10.7083
2002-06-13,10.919
2002-06-14,10.624
2002-06-17,10.6998
2002-06-18,10.3288
2002-06-19,10.2445
2002-06-20,9.47722
2002-06-21,9.24113
2002-06-24,9.29172
2002-06-25,9.24956
2002-06-26,9.35917
2002-06-27,9.43506
2002-06-28,9.42662
2002-07-01,8.65091
2002-07-02,8.27148
2002-07-03,8.0101
2002-07-05,8.58346
2002-07-08,8.27991
2002-07-09,8.10285
2002-07-10,7.89206
2002-07-11,7.75715
2002-07-12,8.1703
2002-07-15,7.58852
2002-07-16,7.39459
2002-07-17,7.37773
2002-07-18,6.96974
2002-07-19,6.70625
2002-07-22,6.26427
2002-07-23,5.73729
2002-07-24,6.28977
2002-07-25,6.21327
2002-07-26,5.6438
2002-07-29,6.16228
2002-07-30,6.62975
2002-07-31,6.47676
2002-08-01,6.45976
2002-08-02,6.65525
2002-08-05,6.21327
2002-08-06,6.33227
2002-08-07,6.18777
2002-08-08,6.55325
2002-08-09,6.43426
2002-08-12,5.3888
2002-08-13,4.92131
2002-08-14,4.82782
2002-08-15,4.30084
2002-08-16,4.10535
2002-08-19,4.58983
2002-08-20,4.49634
2002-08-21,4.46234
2002-08-22,5.3123
2002-08-23,4.95531
2002-08-26,4.97232
2002-08-27,4.71732
2002-08-28,4.60683
2002-08-29,4.63233
2002-08-30,4.76833
2002-09-03,4.62383
2002-09-04,4.75982
2002-09-05,4.47083
2002-09-06,4.68332
2002-09-09,4.63233
2002-09-10,4.79382
2002-09-11,4.81082
2002-09-12,4.71732
2002-09-13,4.54733
2002-09-16,4.53034
2002-09-17,4.43683
2002-09-18,4.23284
2002-09-19,4.09685
2002-09-20,4.47933
2002-09-23,4.46234
2002-09-24,4.32634
2002-09-25,4.56433
2002-09-26,4.64933
2002-09-27,4.59833
2002-09-30,4.53883
2002-10-01,4.53034
2002-10-02,4.74282
2002-10-03,4.80232
2002-10-04,4.65783
2002-10-07,4.62383
2002-10-08,4.51333
2002-10-09,4.26684
2002-10-10,3.81636
2002-10-11,3.90985
2002-10-14,3.90985
2002-10-15,4.04585
2002-10-16,3.89871
2002-10-17,3.85558
2002-10-18,3.96772
2002-10-21,4.11435
2002-10-22,3.85558
2002-10-23,3.98496
2002-10-24,4.21785
2002-10-25,4.35586
2002-10-28,4.52837
2002-10-29,5.26154
2002-10-30,5.60655
2002-10-31,6.03783
2002-11-01,6.29659
2002-11-04,6.29659
2002-11-05,6.35697
2002-11-06,6.4691
2002-11-07,6.44322
2002-11-08,6.56398
2002-11-11,6.14133
2002-11-12,6.25346
2002-11-13,6.2621
2002-11-14,6.53811
2002-11-15,6.51223
2002-11-18,6.51223
2002-11-19,6.62436
2002-11-20,6.71924
2002-11-21,7.26264
2002-11-22,7.33165
2002-11-25,7.60767
2002-11-26,7.3834
2002-11-27,7.46104
2002-11-29,7.35752
2002-12-02,7.58179
2002-12-03,7.46104
2002-12-04,7.29715
2002-12-05,7.05564
2002-12-06,7.11601
2002-12-09,6.78824
2002-12-10,7.03838
2002-12-11,7.41791
2002-12-12,7.36615
2002-12-13,7.05564
2002-12-16,7.09876
2002-12-17,7.11601
2002-12-18,7.17639
2002-12-19,6.89175
2002-12-20,6.81413
2002-12-23,6.8745
2002-12-24,6.71061
2002-12-26,6.67612
2002-12-27,6.81413
2002-12-30,6.86588
2002-12-31,7.06426
2003-01-02,7.50415
2003-01-03,7.40927
2003-01-06,7.59904
2003-01-07,7.49553
2003-01-08,7.21089
2003-01-09,7.29715
2003-01-10,7.50415
2003-01-13,7.53866
2003-01-14,7.83193
2003-01-15,7.53612
2003-01-16,7.62304
2003-01-17,7.35358
2003-01-21,7.13628
2003-01-22,7.09282
2003-01-23,7.17975
2003-01-24,7.04067
2003-01-27,6.85813
2003-01-28,6.92767
2003-01-29,6.91028
2003-01-30,6.86682
2003-01-31,6.73644
2003-02-03,6.58867
2003-02-04,6.56259
2003-02-05,6.68429
2003-02-06,6.6756
2003-02-07,6.56259
2003-02-10,6.44091
2003-02-11,6.44091
2003-02-12,6.43222
2003-02-13,6.64083
2003-02-14,6.41483
2003-02-18,6.73644
2003-02-19,6.7886
2003-02-20,6.86682
2003-02-21,6.95374
2003-02-24,6.83206
2003-02-25,6.88421
2003-02-26,6.87552
2003-02-27,7.25797
2003-02-28,7.41443
2003-03-03,7.12759
2003-03-04,7.09282
2003-03-05,7.15366
2003-03-06,7.16235
2003-03-07,7.14497
2003-03-10,6.97982
2003-03-11,6.93636
2003-03-12,6.97114
2003-03-13,7.19713
2003-03-14,7.2319
2003-03-17,7.54482
2003-03-18,7.54482
2003-03-19,7.64043
2003-03-20,7.45789
2003-03-21,7.74473
2003-03-24,7.57089
2003-03-25,7.90988
2003-03-26,7.69258
2003-03-27,7.83166
2003-03-28,7.98812
2003-03-31,7.73604
2003-04-01,7.83166
2003-04-02,8.06634
2003-04-03,8.30103
2003-04-04,7.84904
2003-04-07,7.88381
2003-04-08,7.82296
2003-04-09,7.75343
2003-04-10,7.64912
2003-04-11,7.69258
2003-04-14,7.72735
2003-04-15,7.94631
2003-04-16,7.79737
2003-04-17,7.93754
2003-04-21,8.07772
2003-04-22,8.5333
2003-04-23,8.59462
2003-04-24,7.99011
2003-04-25,8.14781
2003-04-28,8.56835
2003-04-29,8.80489
2003-04-30,8.69976
2003-05-01,8.8487
2003-05-02,9.11153
2003-05-05,9.41817
2003-05-06,9.75985
2003-05-07,9.47074
2003-05-08,9.41817
2003-05-09,9.70728
2003-05-12,9.93507
2003-05-13,9.69852
2003-05-14,10.1804
2003-05-15,10.4082
2003-05-16,10.303
2003-05-19,9.75985
2003-05-20,9.77738
2003-05-21,10.0402
2003-05-22,10.3468
2003-05-23,10.5571
2003-05-27,10.9776
2003-05-28,11.0828
2003-05-29,11.1879
2003-05-30,11.2229
2003-06-02,11.1879
2003-06-03,11.1704
2003-06-04,11.7311
2003-06-05,12.0114
2003-06-06,12.0728
2003-06-09,11.3807
2003-06-10,11.6084
2003-06-11,11.9939
2003-06-12,11.6084
2003-06-13,11.5208
2003-06-16,11.9501
2003-06-17,12.0553
2003-06-18,12.2655
2003-06-19,12.2217
2003-06-20,12.1166
2003-06-23,11.7048
2003-06-24,11.7836
2003-06-25,11.7924
2003-06-26,11.8188
2003-06-27,12.1429
2003-06-30,12.0815
2003-07-01,12.029
2003-07-02,12.2655
2003-07-03,12.2305
2003-07-07,12.3531
2003-07-08,12.3093
2003-07-09,12.6334
2003-07-10,12.3269
2003-07-11,12.467
2003-07-14,12.8613
2003-07-15,12.9577
2003-07-16,12.6057
2003-07-17,12.2975
2003-07-18,12.6585
2003-07-21,12.2975
2003-07-22,12.6233
2003-07-23,12.0158
2003-07-24,12.6233
2003-07-25,12.9402
2003-07-28,13.0634
2003-07-29,12.7641
2003-07-30,13.3011
2003-07-31,13.0634
2003-08-01,13.2483
2003-08-04,13.169
2003-08-05,13.2042
2003-08-06,12.3856
2003-08-07,12.5793
2003-08-08,12.5
2003-08-11,12.6585
2003-08-12,12.9402
2003-08-13,13.3979
2003-08-14,13.3275
2003-08-15,13.5035
2003-08-18,13.7412
2003-08-19,14.0846
2003-08-20,14.0669
2003-08-21,14.1022
2003-08-22,13.7236
2003-08-25,13.6884
2003-08-26,13.7149
2003-08-27,13.6708
2003-08-28,13.574
2003-08-29,14.5071
2003-09-02,14.4807
2003-09-03,14.3222
2003-09-04,14.8592
2003-09-05,14.8856
2003-09-08,14.6919
2003-09-09,14.4454
2003-09-10,13.8204
2003-09-11,13.8204
2003-09-12,13.7852
2003-09-15,14.1286
2003-09-16,14.4631
2003-09-17,14.5775
2003-09-18,14.868
2003-09-19,14.9121
2003-09-22,14.5423
2003-09-23,15.0176
2003-09-24,14.331
2003-09-25,14.2166
2003-09-26,13.6092
2003-09-29,14.0141
2003-09-30,13.4155
2003-10-01,14.1549
2003-10-02,14.1726
2003-10-03,14.5071
2003-10-06,14.5247
2003-10-07,14.4807
2003-10-08,14.5334
2003-10-09,14.9208
2003-10-10,15.1585
2003-10-13,15.3874
2003-10-14,15.3346
2003-10-15,15.0076
2003-10-16,15.2285
2003-10-17,14.7159
2003-10-20,14.8927
2003-10-21,14.7954
2003-10-22,14.3712
2003-10-23,15.0694
2003-10-24,15.2374
2003-10-27,15.7058
2003-10-28,16.1565
2003-10-29,15.9091
2003-10-30,15.9356
2003-10-31,15.9356
2003-11-03,16.2626
2003-11-04,16.4835
2003-11-05,16.245
2003-11-06,15.9091
2003-11-07,15.7323
2003-11-10,15.1755
2003-11-11,15.0871
2003-11-12,15.1136
2003-11-13,15.2816
2003-11-14,14.8573
2003-11-17,14.1326
2003-11-18,13.9735
2003-11-19,14.1149
2003-11-20,13.9028
2003-11-21,14.1414
2003-11-24,14.3535
2003-11-25,14.4243
2003-11-26,14.8573
2003-11-28,14.9457
2003-12-01,14.4331
2003-12-02,14.4507
2003-12-03,14.7424
2003-12-04,14.5038
2003-12-05,14.159
2003-12-08,14.1149
2003-12-09,13.8498
2003-12-10,13.5845
2003-12-11,14.2209
2003-12-12,14.3624
2003-12-15,13.9558
2003-12-16,14.4331
2003-12-17,14.0354
2003-12-18,14.8219
2003-12-19,14.8308
2003-12-22,14.875
2003-12-23,15.149
2003-12-24,15.0164
2003-12-26,14.875
2003-12-29,14.981
2003-12-30,15.2108
2003-12-31,15.1047
2004-01-02,15.476
2004-01-05,15.5025
2004-01-06,16.0682
2004-01-07,16.5012
2004-01-08,16.3952
2004-01-09,16.1478
2004-01-12,16.2184
2004-01-13,16.1654
2004-01-14,16.4316
2004-01-15,16.4139
2004-01-16,17.1147
2004-01-20,16.9195
2004-01-21,17.0083
2004-01-22,17.0349
2004-01-23,16.7067
2004-01-26,17.239
2004-01-27,17.9221
2004-01-28,18.7029
2004-01-29,18.1971
2004-01-30,18.3214
2004-02-02,18.6231
2004-02-03,18.6852
2004-02-04,18.1706
2004-02-05,18.1084
2004-02-06,18.7206
2004-02-09,19.2175
2004-02-10,18.7739
2004-02-11,19.1021
2004-02-12,18.9602
2004-02-13,18.5432
2004-02-17,18.6053
2004-02-18,18.5343
2004-02-19,18.561
2004-02-20,18.2327
2004-02-23,17.8423
2004-02-24,17.9576
2004-02-25,18.4723
2004-02-26,18.6852
2004-02-27,18.4723
2004-03-01,19.111
2004-03-02,19.2175
2004-03-03,19.2973
2004-03-04,19.1199
2004-03-05,19.1909
2004-03-08,18.4279
2004-03-09,17.9488
2004-03-10,17.4786
2004-03-11,17.0527
2004-03-12,17.2567
2004-03-15,15.9791
2004-03-16,16.476
2004-03-17,17.1947
2004-03-18,16.9906
2004-03-19,17.2301
2004-03-22,16.9639
2004-03-23,17.2212
2004-03-24,17.1591
2004-03-25,17.6027
2004-03-26,17.9399
2004-03-29,18.2238
2004-03-30,18.3836
2004-03-31,18.3303
2004-04-01,18.7118
2004-04-02,18.9602
2004-04-05,18.8804
2004-04-06,18.9336
2004-04-07,19.324
2004-04-08,19.7942
2004-04-12,19.7232
2004-04-13,19.3684
2004-04-14,19.1466
2004-04-15,19.0667
2004-04-16,18.4988
2004-04-19,18.7739
2004-04-20,18.002
2004-04-21,18.2512
2004-04-22,18.5984
2004-04-23,18.2067
2004-04-26,17.8951
2004-04-27,17.5034
2004-04-28,16.9959
2004-04-29,17.2719
2004-04-30,17.1561
2004-05-03,17.6637
2004-05-04,17.5835
2004-05-05,17.2451
2004-05-06,17.2541
2004-05-07,17.1295
2004-05-10,16.2213
2004-05-11,16.5597
2004-05-12,16.3816
2004-05-13,16.4261
2004-05-14,16.2925
2004-05-17,15.883
2004-05-18,15.972
2004-05-19,16.2392
2004-05-20,16.2925
2004-05-21,16.2569
2004-05-24,16.4617
2004-05-25,17.0939
2004-05-26,17.5123
2004-05-27,17.3253
2004-05-28,17.3698
2004-06-01,17.1829
2004-06-02,17.0582
2004-06-03,17.7171
2004-06-04,17.5924
2004-06-07,18.3491
2004-06-08,18.4916
2004-06-09,17.9218
2004-06-10,17.8862
2004-06-14,17.5212
2004-06-15,17.5924
2004-06-16,17.5212
2004-06-17,17.5212
2004-06-18,17.4144
2004-06-21,17.1295
2004-06-22,17.2897
2004-06-23,17.7259
2004-06-24,18.0821
2004-06-25,18.3402
2004-06-28,17.7082
2004-06-29,17.8684
2004-06-30,17.8506
2004-07-01,17.2363
2004-07-02,17.0494
2004-07-06,16.5507
2004-07-07,16.4706
2004-07-08,15.9098
2004-07-09,15.8207
2004-07-12,15.2866
2004-07-13,15.2509
2004-07-14,15.1263
2004-07-15,15.34
2004-07-16,14.9838
2004-07-19,15.0551
2004-07-20,15.4646
2004-07-21,14.8031
2004-07-22,14.9909
2004-07-23,14.7942
2004-07-26,14.0611
2004-07-27,14.1237
2004-07-28,15.3306
2004-07-29,15.3484
2004-07-30,15.697
2004-08-02,15.554
2004-08-03,15.3216
2004-08-04,15.7774
2004-08-05,15.1786
2004-08-06,14.5349
2004-08-09,14.5707
2004-08-10,15.2143
2004-08-11,14.9015
2004-08-12,14.6779
2004-08-13,14.4277
2004-08-16,14.8478
2004-08-17,15.1875
2004-08-18,15.8668
2004-08-19,15.6434
2004-08-20,16.001
2004-08-23,15.7864
2004-08-24,15.8758
2004-08-25,16.144
2004-08-26,15.9384
2004-08-27,16.0188
2004-08-30,15.6703
2004-08-31,15.6166
2004-09-01,15.6881
2004-09-02,15.992
2004-09-03,15.6703
2004-09-07,15.7149
2004-09-08,15.5272
2004-09-09,16.0904
2004-09-10,16.4479
2004-09-13,16.6625
2004-09-14,16.7786
2004-09-15,16.2334
2004-09-16,16.2334
2004-09-17,16.2781
2004-09-20,15.992
2004-09-21,16.1529
2004-09-22,15.5093
2004-09-23,15.3931
2004-09-24,15.0892
2004-09-27,14.9551
2004-09-28,15.1965
2004-09-29,15.402
2004-09-30,15.3484
2004-10-01,16.1171
2004-10-04,16.3228
2004-10-05,15.8043
2004-10-06,16.1082
2004-10-07,16.2065
2004-10-08,16.2155
2004-10-11,16.1082
2004-10-12,15.9294
2004-10-13,15.7238
2004-10-14,15.4289
2004-10-15,15.7774
2004-10-18,16.0188
2004-10-19,15.9652
2004-10-20,15.7679
2004-10-21,16.046
2004-10-22,15.7947
2004-10-25,15.7229
2004-10-26,16.0639
2004-10-27,17.0152
2004-10-28,17.1498
2004-10-29,18.4601
2004-11-01,18.6217
2004-11-02,18.7742
2004-11-03,18.9178
2004-11-04,19.1601
2004-11-05,19.1422
2004-11-08,19.1781
2004-11-09,19.4024
2004-11-10,19.4294
2004-11-11,19.6267
2004-11-12,19.8511
2004-11-15,19.887
2004-11-16,19.546
2004-11-17,19.528
2004-11-18,19.2588
2004-11-19,18.8819
2004-11-22,18.7024
2004-11-23,18.5947
2004-11-24,18.6576
2004-11-26,18.6844
2004-11-29,19.0075
2004-11-30,19.1152
2004-12-01,19.6178
2004-12-02,19.5191
2004-12-03,19.6716
2004-12-06,19.869
2004-12-07,19.1691
2004-12-08,19.3844
2004-12-09,19.4383
2004-12-10,19.4472
2004-12-13,19.6357
2004-12-14,20.3716
2004-12-15,20.5691
2004-12-16,20.3537
2004-12-17,19.6627
2004-12-20,19.5818
2004-12-21,19.8421
2004-12-22,19.9499
2004-12-23,19.878
2004-12-27,20.0126
2004-12-28,20.2101
2004-12-29,20.1922
2004-12-30,20.2639
2004-12-31,20.1742
2005-01-03,19.7524
2005-01-04,19.546
2005-01-05,18.9806
2005-01-06,19.1959
2005-01-07,19.1601
2005-01-10,19.187
2005-01-11,18.837
2005-01-12,18.8101
2005-01-13,18.6037
2005-01-14,18.9178
2005-01-18,18.8999
2005-01-19,18.4586
2005-01-20,18.5126
2005-01-21,18.6746
2005-01-24,18.6746
2005-01-25,18.8818
2005-01-26,19.368
2005-01-27,19.4311
2005-01-28,20.2594
2005-01-31,20.7097
2005-02-01,20.6016
2005-02-02,21.0157
2005-02-03,20.5745
2005-02-04,21.1869
2005-02-07,21.3669
2005-02-08,21.2769
2005-02-09,20.7006
2005-02-10,20.5295
2005-02-11,20.7186
2005-02-14,20.6196
2005-02-15,20.6196
2005-02-16,20.8087
2005-02-17,21.0157
2005-02-18,20.6826
2005-02-22,20.0974
2005-02-23,20.1244
2005-02-24,20.2774
2005-02-25,20.3315
2005-02-28,19.9713
2005-03-01,20.0163
2005-03-02,19.8632
2005-03-03,20.0884
2005-03-04,20.7097
2005-03-07,20.5295
2005-03-08,20.7186
2005-03-09,20.3315
2005-03-10,20.2504
2005-03-11,19.8722
2005-03-14,19.8002
2005-03-15,19.6921
2005-03-16,19.287
2005-03-17,19.1789
2005-03-18,19.386
2005-03-21,19.1519
2005-03-22,18.9088
2005-03-23,19.5481
2005-03-24,19.8812
2005-03-28,19.7191
2005-03-29,19.0799
2005-03-30,17.8283
2005-03-31,18.5576
2005-04-01,18.3235
2005-04-04,18.4045
2005-04-05,18.2605
2005-04-06,18.7287
2005-04-07,18.7017
2005-04-08,18.5846
2005-04-11,18.4045
2005-04-12,18.3685
2005-04-13,18.2514
2005-04-14,17.9813
2005-04-15,17.7113
2005-04-18,17.7022
2005-04-19,17.6662
2005-04-20,17.7115
2005-04-21,18.5699
2005-04-22,17.7115
2005-04-25,17.4765
2005-04-26,18.0007
2005-04-27,17.847
2005-04-28,17.0608
2005-04-29,16.7175
2005-05-02,16.4463
2005-05-03,16.2927
2005-05-04,16.8078
2005-05-05,17.0247
2005-05-06,17.0337
2005-05-09,17.2235
2005-05-10,17.0698
2005-05-11,17.2144
2005-05-12,17.2505
2005-05-13,16.8349
2005-05-16,16.8078
2005-05-17,16.6451
2005-05-18,16.8891
2005-05-19,17.1874
2005-05-20,17.359
2005-05-23,17.4223
2005-05-24,17.3862
2005-05-25,17.2235
2005-05-26,17.4314
2005-05-27,17.3409
2005-05-31,17.3048
2005-06-01,17.6482
2005-06-02,17.359
2005-06-03,17.1602
2005-06-06,17.4403
2005-06-07,17.6663
2005-06-08,17.4132
2005-06-09,17.6572
2005-06-10,17.4855
2005-06-13,17.5217
2005-06-14,17.5759
2005-06-15,17.6301
2005-06-16,17.7295
2005-06-17,17.7024
2005-06-20,17.6211
2005-06-21,17.5217
2005-06-22,17.4675
2005-06-23,17.2687
2005-06-24,16.7627
2005-06-27,16.4011
2005-06-28,16.9434
2005-06-29,16.9162
2005-06-30,17.0608
2005-07-01,17.3409
2005-07-05,17.7747
2005-07-06,17.7567
2005-07-07,17.8741
2005-07-08,18.1181
2005-07-11,18.4343
2005-07-12,18.1632
2005-07-13,18.1723
2005-07-14,18.6151
2005-07-15,18.9946
2005-07-18,18.9856
2005-07-19,19.1211
2005-07-20,19.3931
2005-07-21,19.4566
2005-07-22,19.3841
2005-07-25,19.2571
2005-07-26,19.5382
2005-07-27,18.9579
2005-07-28,19.2571
2005-07-29,19.0214
2005-08-01,18.9579
2005-08-02,18.813
2005-08-03,18.7404
2005-08-04,18.4049
2005-08-05,18.2961
2005-08-08,18.2689
2005-08-09,18.4411
2005-08-10,18.3867
2005-08-11,18.5862
2005-08-12,18.5681
2005-08-15,18.5591
2005-08-16,18.4502
2005-08-17,18.4956
2005-08-18,18.4775
2005-08-19,18.3778
2005-08-22,18.1601
2005-08-23,17.9879
2005-08-24,18.0604
2005-08-25,18.142
2005-08-26,17.87
2005-08-29,18.7313
2005-08-30,18.4956
2005-08-31,18.7495
2005-09-01,18.2598
2005-09-02,18.3324
2005-09-06,18.813
2005-09-07,18.813
2005-09-08,18.8401
2005-09-09,19.0487
2005-09-12,18.9579
2005-09-13,18.5137
2005-09-14,18.278
2005-09-15,18.0332
2005-09-16,18.3505
2005-09-19,18.0694
2005-09-20,17.861
2005-09-21,17.6162
2005-09-22,17.4892
2005-09-23,17.6433
2005-09-26,17.4348
2005-09-27,17.734
2005-09-28,18.2054
2005-09-29,18.2961
2005-09-30,18.4322
2005-10-03,18.8401
2005-10-04,18.7404
2005-10-05,18.6588
2005-10-06,18.695
2005-10-07,20.0187
2005-10-10,19.3206
2005-10-11,19.1121
2005-10-12,18.813
2005-10-13,19.1393
2005-10-14,19.1303
2005-10-17,19.2027
2005-10-18,18.9489
2005-10-19,19.1399
2005-10-20,19.4764
2005-10-21,18.8942
2005-10-24,19.3035
2005-10-25,18.9306
2005-10-26,20.3497
2005-10-27,19.9312
2005-10-28,19.5764
2005-10-31,20.1132
2005-11-01,20.1223
2005-11-02,20.6954
2005-11-03,20.2951
2005-11-04,20.3224
2005-11-07,20.1678
2005-11-08,19.904
2005-11-09,20.1586
2005-11-10,20.3497
2005-11-11,20.277
2005-11-14,20.2406
2005-11-15,20.0313
2005-11-16,19.995
2005-11-17,20.2861
2005-11-18,20.2678
2005-11-21,20.6499
2005-11-22,20.6499
2005-11-23,20.6226
2005-11-25,20.5135
2005-11-28,20.4861
2005-11-29,20.6681
2005-11-30,20.75
2005-12-01,20.8682
2005-12-02,20.8864
2005-12-05,20.5953
2005-12-06,20.9592
2005-12-07,21.1775
2005-12-08,21.1593
2005-12-09,21.3049
2005-12-12,21.3322
2005-12-13,21.2776
2005-12-14,21.5596
2005-12-15,21.5323
2005-12-16,21.4413
2005-12-19,21.1684
2005-12-20,21.0137
2005-12-21,20.8955
2005-12-22,20.9319
2005-12-23,21.1321
2005-12-27,21.2503
2005-12-28,21.6232
2005-12-29,21.7143
2005-12-30,21.4232
2006-01-03,21.8143
2006-01-04,21.8052
2006-01-05,21.7233
2006-01-06,21.5232
2006-01-09,21.6051
2006-01-10,21.5414
2006-01-11,21.787
2006-01-12,21.1867
2006-01-13,21.3595
2006-01-17,21.1138
2006-01-18,20.9405
2006-01-19,21.3693
2006-01-20,20.9496
2006-01-23,20.9405
2006-01-24,21.0134
2006-01-25,20.7945
2006-01-26,21.2781
2006-01-27,19.9276
2006-01-30,20.7397
2006-01-31,20.7762
2006-02-01,21.0773
2006-02-02,20.5572
2006-02-03,20.6485
2006-02-06,20.9496
2006-02-07,20.9313
2006-02-08,21.4787
2006-02-09,21.3419
2006-02-10,21.1959
2006-02-13,20.9587
2006-02-14,21.1686
2006-02-15,21.7617
2006-02-16,21.8894
2006-02-17,21.6978
2006-02-21,21.5609
2006-02-22,21.7434
2006-02-23,21.7707
2006-02-24,21.8711
2006-02-27,21.9806
2006-02-28,21.6613
2006-03-01,21.9806
2006-03-02,21.7982
2006-03-03,21.789
2006-03-06,21.4514
2006-03-07,21.1686
2006-03-08,21.2507
2006-03-09,20.977
2006-03-10,21.205
2006-03-13,21.4423
2006-03-14,21.4697
2006-03-15,21.7617
2006-03-16,21.4423
2006-03-17,21.3419
2006-03-20,21.2415
2006-03-21,21.0317
2006-03-22,21.1047
2006-03-23,21.0409
2006-03-24,21.1686
2006-03-27,21.1686
2006-03-28,21.1047
2006-03-29,21.351
2006-03-30,21.2598
2006-03-31,21.4149
2006-04-03,21.5791
2006-04-04,21.351
2006-04-05,21.0773
2006-04-06,21.0317
2006-04-07,20.8674
2006-04-10,20.6211
2006-04-11,20.2835
2006-04-12,20.32
2006-04-13,20.4386
2006-04-17,20.3017
2006-04-18,20.5664
2006-04-19,20.667
2006-04-20,20.6394
2006-04-21,20.6852
2006-04-24,20.31
2006-04-25,19.8798
2006-04-26,20.0079
2006-04-27,20.1543
2006-04-28,19.6876
2006-05-01,19.7608
2006-05-02,19.7242
2006-05-03,19.6784
2006-05-04,19.8157
2006-05-05,19.8706
2006-05-08,19.834
2006-05-09,19.6784
2006-05-10,19.5686
2006-05-11,19.2208
2006-05-12,19.1293
2006-05-15,19.1567
2006-05-16,18.992
2006-05-17,18.8547
2006-05-18,18.7632
2006-05-19,18.8638
2006-05-22,18.9095
2006-05-23,18.809
2006-05-24,18.5801
2006-05-25,18.397
2006-05-26,18.8547
2006-05-30,18.5069
2006-05-31,19.1109
2006-06-01,19.413
2006-06-02,19.175
2006-06-05,18.5984
2006-06-06,18.4336
2006-06-07,18.4885
2006-06-08,18.6442
2006-06-09,19.0012
2006-06-12,18.7723
2006-06-13,18.809
2006-06-14,18.7998
2006-06-15,19.0927
2006-06-16,19.1659
2006-06-19,18.6533
2006-06-20,18.6716
2006-06-21,18.6716
2006-06-22,18.6442
2006-06-23,18.7448
2006-06-26,18.8638
2006-06-27,18.5984
2006-06-28,18.6716
2006-06-29,19.2482
2006-06-30,19.175
2006-07-03,19.4679
2006-07-05,19.3947
2006-07-06,19.5045
2006-07-07,19.4954
2006-07-10,19.294
2006-07-11,19.3215
2006-07-12,19.2208
2006-07-13,18.7723
2006-07-14,18.6625
2006-07-17,18.6167
2006-07-18,18.6716
2006-07-19,19.186
2006-07-20,18.9748
2006-07-21,18.7819
2006-07-24,18.7819
2006-07-25,19.0758
2006-07-26,19.0391
2006-07-27,18.4789
2006-07-28,16.5317
2006-07-31,16.5501
2006-08-01,16.5317
2006-08-02,16.4308
2006-08-03,17.2022
2006-08-04,16.8532
2006-08-07,16.8073
2006-08-08,16.7705
2006-08-09,16.596
2006-08-10,17.2573
2006-08-11,17.2114
2006-08-14,17.3399
2006-08-15,17.5971
2006-08-16,18.0288
2006-08-17,18.2033
2006-08-18,18.1022
2006-08-21,18.0104
2006-08-22,17.5787
2006-08-23,17.1195
2006-08-24,17.0185
2006-08-25,17.0644
2006-08-28,17.2298
2006-08-29,17.0461
2006-08-30,16.9359
2006-08-31,16.9451
2006-09-01,16.8348
2006-09-05,16.7889
2006-09-06,16.7797
2006-09-07,16.5685
2006-09-08,16.844
2006-09-11,16.8899
2006-09-12,17.1654
2006-09-13,17.0736
2006-09-14,17.239
2006-09-15,17.4042
2006-09-18,17.239
2006-09-19,16.9267
2006-09-20,17.294
2006-09-21,17.4134
2006-09-22,17.3491
2006-09-25,17.6063
2006-09-26,17.4594
2006-09-27,17.5787
2006-09-28,17.4502
2006-09-29,17.4042
2006-10-02,17.4594
2006-10-03,17.3216
2006-10-04,17.5512
2006-10-05,17.5787
2006-10-06,18.0655
2006-10-09,18.2401
2006-10-10,18.0472
2006-10-11,18.2033
2006-10-12,18.4789
2006-10-13,18.4237
2006-10-16,18.2492
2006-10-17,18.2309
2006-10-18,18.2586
2006-10-19,18.231
2006-10-20,18.231
2006-10-23,18.0466
2006-10-24,18.3231
2006-10-25,18.4521
2006-10-26,18.7194
2006-10-27,19.724
2006-10-30,19.9637
2006-10-31,19.6872
2006-11-01,19.3831
2006-11-02,19.2817
2006-11-03,19.125
2006-11-06,19.3922
2006-11-07,19.9822
2006-11-08,19.8254
2006-11-09,19.89
2006-11-10,19.9914
2006-11-13,19.9176
2006-11-14,19.9545
2006-11-15,19.8439
2006-11-16,19.7149
2006-11-17,19.7425
2006-11-20,19.8347
2006-11-21,19.8254
2006-11-22,19.9268
2006-11-24,19.9729
2006-11-27,19.6688
2006-11-28,19.4383
2006-11-29,19.9084
2006-11-30,19.9545
2006-12-01,19.6503
2006-12-04,19.9084
2006-12-05,19.8071
2006-12-06,19.8162
2006-12-07,20.0282
2006-12-08,20.3232
2006-12-11,20.4337
2006-12-12,20.5075
2006-12-13,20.4614
2006-12-14,20.5721
2006-12-15,20.5075
2006-12-18,20.4983
2006-12-19,20.4707
2006-12-20,20.5168
2006-12-21,20.4983
2006-12-22,20.3876
2006-12-26,20.5351
2006-12-27,20.7287
2006-12-28,20.5168
2006-12-29,20.5075
2007-01-03,20.185
2007-01-04,19.89
2007-01-05,19.8992
2007-01-08,19.7886
2007-01-09,19.7701
2007-01-10,19.7149
2007-01-11,20.1296
2007-01-12,20.4061
2007-01-16,20.8946
2007-01-17,20.5249
2007-01-18,20.6081
2007-01-19,20.6081
2007-01-22,20.4785
2007-01-23,20.6727
2007-01-24,20.9871
2007-01-25,20.9871
2007-01-26,21.2645
2007-01-29,21.625
2007-01-30,21.6897
2007-01-31,22.0873
2007-02-01,22.189
2007-02-02,22.1612
2007-02-05,22.1705
2007-02-06,22.189
2007-02-07,22.1705
2007-02-08,22.2537
2007-02-09,22.3369
2007-02-12,22.3831
2007-02-13,22.4016
2007-02-14,22.5681
2007-02-15,22.4848
2007-02-16,22.4386
2007-02-20,22.6513
2007-02-21,22.6051
2007-02-22,22.7068
2007-02-23,22.679
2007-02-26,22.6051
2007-02-27,21.9209
2007-02-28,21.9394
2007-03-01,21.7915
2007-03-02,21.5048
2007-03-05,21.1627
2007-03-06,21.4031
2007-03-07,21.4217
2007-03-08,21.4494
2007-03-09,21.4956
2007-03-12,21.6158
2007-03-13,21.4401
2007-03-14,21.4494
2007-03-15,21.5141
2007-03-16,21.4863
2007-03-19,21.8284
2007-03-20,21.7729
2007-03-21,22.2907
2007-03-22,22.3461
2007-03-23,22.5403
2007-03-26,22.3277
2007-03-27,22.263
2007-03-28,22.1798
2007-03-29,22.1336
2007-03-30,22.3647
2007-04-02,22.3739
2007-04-03,22.5588
2007-04-04,22.6606
2007-04-05,22.7714
2007-04-09,22.8177
2007-04-10,22.6975
2007-04-11,22.5958
2007-04-12,22.7992
2007-04-13,23.2338
2007-04-16,23.169
2007-04-17,23.0951
2007-04-18,23.1321
2007-04-19,22.9281
2007-04-20,23.0951
2007-04-23,23.0394
2007-04-24,22.9559
2007-04-25,23.1228
2007-04-26,23.1506
2007-04-27,22.7148
2007-04-30,22.4182
2007-05-01,22.5109
2007-05-02,23.2248
2007-05-03,23.2712
2007-05-04,23.336
2007-05-07,23.4196
2007-05-08,23.3639
2007-05-09,23.4937
2007-05-10,23.2712
2007-05-11,23.5493
2007-05-14,23.3083
2007-05-15,23.5307
2007-05-16,23.7533
2007-05-17,23.503
2007-05-18,23.6606
2007-05-21,23.6606
2007-05-22,23.7811
2007-05-23,24.1242
2007-05-24,24.0963
2007-05-25,24.1056
2007-05-29,24.1983
2007-05-30,24.4301
2007-05-31,24.5321
2007-06-01,24.9678
2007-06-04,24.9122
2007-06-05,24.7453
2007-06-06,24.5506
2007-06-07,24.4672
2007-06-08,24.6804
2007-06-11,24.5784
2007-06-12,24.4393
2007-06-13,24.6897
2007-06-14,24.7083
2007-06-15,24.9029
2007-06-18,24.7175
2007-06-19,24.7175
2007-06-20,24.4857
2007-06-21,24.4764
2007-06-22,24.2725
2007-06-25,23.9944
2007-06-26,23.9294
2007-06-27,23.7347
2007-06-28,23.9758
2007-06-29,24.2169
2007-07-02,24.5321
2007-07-03,24.7638
2007-07-05,25.0142
2007-07-06,25.3109
2007-07-09,25.0605
2007-07-10,24.9678
2007-07-11,25.1996
2007-07-12,25.6447
2007-07-13,25.385
2007-07-16,25.2923
2007-07-17,25.2923
2007-07-18,25.2273
2007-07-19,25.0693
2007-07-20,24.9205
2007-07-23,25.125
2007-07-24,24.967
2007-07-25,25.2273
2007-07-26,24.9391
2007-07-27,25.9987
2007-07-30,26.4821
2007-07-31,25.8873
2007-08-01,26.0731
2007-08-02,26.51
2007-08-03,26.0638
2007-08-06,25.9151
2007-08-07,25.0879
2007-08-08,25.125
2007-08-09,25.0693
2007-08-10,25.5619
2007-08-13,25.6734
2007-08-14,25.6084
2007-08-15,24.6324
2007-08-16,24.9485
2007-08-17,25.9151
2007-08-20,26.0731
2007-08-21,25.7571
2007-08-22,25.7571
2007-08-23,25.7757
2007-08-24,25.9337
2007-08-27,25.7014
2007-08-28,25.1808
2007-08-29,25.7478
2007-08-30,25.7385
2007-08-31,25.4597
2007-09-04,25.5061
2007-09-05,25.5433
2007-09-06,25.943
2007-09-07,25.2365
2007-09-10,25.2273
2007-09-11,25.4597
2007-09-12,25.5805
2007-09-13,25.785
2007-09-14,26.0452
2007-09-17,25.9337
2007-09-18,26.5379
2007-09-19,27.2629
2007-09-20,27.1978
2007-09-21,26.9655
2007-09-24,26.4543
2007-09-25,26.4914
2007-09-26,27.0956
2007-09-27,27.0584
2007-09-28,27.1049
2007-10-01,27.7742
2007-10-02,26.9376
2007-10-03,26.5937
2007-10-04,26.7796
2007-10-05,26.9934
2007-10-08,26.8632
2007-10-09,27.0677
2007-10-10,26.575
2007-10-11,26.2404
2007-10-12,26.5937
2007-10-15,26.2404
2007-10-16,26.668
2007-10-17,26.9383
2007-10-18,27.1619
2007-10-19,26.6401
2007-10-22,26.5842
2007-10-23,27.4415
2007-10-24,27.544
2007-10-25,27.3483
2007-10-26,25.9506
2007-10-29,25.9971
2007-10-30,25.9413
2007-10-31,25.6431
2007-11-01,24.9722
2007-11-02,25.2798
2007-11-05,25.8574
2007-11-06,26.1649
2007-11-07,25.9786
2007-11-08,26.1556
2007-11-09,25.6897
2007-11-12,25.0841
2007-11-13,25.1307
2007-11-14,25.1866
2007-11-15,24.9722
2007-11-16,25.1772
2007-11-19,24.8418
2007-11-20,24.9816
2007-11-21,24.7579
2007-11-23,25.1026
2007-11-26,24.6274
2007-11-27,25.0281
2007-11-28,25.6338
2007-11-29,25.3729
2007-11-30,25.3822
2007-12-03,25.2798
2007-12-04,24.6554
2007-12-05,24.935
2007-12-06,25.1866
2007-12-07,24.7393
2007-12-10,24.7859
2007-12-11,23.4255
2007-12-12,23.0154
2007-12-13,22.9409
2007-12-14,23.9565
2007-12-17,23.295
2007-12-18,22.9688
2007-12-19,23.3696
2007-12-20,23.5932
2007-12-21,24.087
2007-12-24,24.0497
2007-12-26,24.2454
2007-12-27,24.2175
2007-12-28,24.32
2007-12-31,24.2081
2008-01-02,23.7982
2008-01-03,23.4347
2008-01-04,22.8384
2008-01-07,23.0527
2008-01-08,23.1552
2008-01-09,23.6957
2008-01-10,23.9659
2008-01-11,23.6584
2008-01-14,24.0031
2008-01-15,23.8354
2008-01-16,23.9384
2008-01-17,23.3497
2008-01-18,22.705
2008-01-22,21.78
2008-01-23,21.3969
2008-01-24,21.7053
2008-01-25,24.9382
2008-01-28,24.0224
2008-01-29,23.2656
2008-01-30,22.9105
2008-01-31,23.1908
2008-02-01,23.6581
2008-02-04,24.0598
2008-02-05,23.8636
2008-02-06,23.7422
2008-02-07,24.0037
2008-02-08,23.6581
2008-02-11,24.0131
2008-02-12,23.8262
2008-02-13,24.1065
2008-02-14,23.7422
2008-02-15,23.7141
2008-02-19,23.7982
2008-02-20,23.8917
2008-02-21,23.2844
2008-02-22,23.3497
2008-02-25,23.3591
2008-02-26,23.3591
2008-02-27,23.3591
2008-02-28,23.1628
2008-02-29,23.1535
2008-03-03,22.9947
2008-03-04,23.1161
2008-03-05,23.3778
2008-03-06,23.387
2008-03-07,22.4247
2008-03-10,21.5277
2008-03-11,21.9949
2008-03-12,22.0229
2008-03-13,22.5088
2008-03-14,21.864
2008-03-17,21.4997
2008-03-18,21.7893
2008-03-19,21.7053
2008-03-20,21.7239
2008-03-24,22.1257
2008-03-25,22.2098
2008-03-26,22.4154
2008-03-27,22.4994
2008-03-28,22.5649
2008-03-31,22.6302
2008-04-01,23.387
2008-04-02,23.6487
2008-04-03,23.8169
2008-04-04,23.8636
2008-04-07,23.7515
2008-04-08,23.6206
2008-04-09,23.6114
2008-04-10,23.5646
2008-04-11,23.0881
2008-04-14,23.1535
2008-04-15,22.4807
2008-04-16,23.0617
2008-04-17,23.0336
2008-04-18,23.5115
2008-04-21,23.5209
2008-04-22,22.9961
2008-04-23,23.7738
2008-04-24,23.4553
2008-04-25,25.7417
2008-04-28,25.3388
2008-04-29,25.0576
2008-04-30,24.8608
2008-05-01,25.3201
2008-05-02,25.0951
2008-05-05,25.3856
2008-05-06,25.8448
2008-05-07,25.3201
2008-05-08,25.47
2008-05-09,25.4044
2008-05-12,25.6199
2008-05-13,25.5824
2008-05-14,26.4258
2008-05-15,26.482
2008-05-16,26.1822
2008-05-19,26.6976
2008-05-20,26.3321
2008-05-21,26.0135
2008-05-22,26.2009
2008-05-23,26.6788
2008-05-27,27.0536
2008-05-28,26.482
2008-05-29,26.4258
2008-05-30,26.482
2008-06-02,26.5851
2008-06-03,26.8007
2008-06-04,27.0818
2008-06-05,27.3067
2008-06-06,26.4914
2008-06-09,26.1354
2008-06-10,25.9479
2008-06-11,25.9854
2008-06-12,26.7163
2008-06-13,26.8381
2008-06-16,27.1849
2008-06-17,27.1755
2008-06-18,26.9037
2008-06-19,27.0442
2008-06-20,26.6601
2008-06-23,26.6507
2008-06-24,26.6507
2008-06-25,26.9693
2008-06-26,26.1446
2008-06-27,25.9386
2008-06-30,26.1354
2008-07-01,25.7417
2008-07-02,26.2383
2008-07-03,26.2383
2008-07-07,26.3977
2008-07-08,26.6976
2008-07-09,26.5757
2008-07-10,27.1661
2008-07-11,26.482
2008-07-14,25.8635
2008-07-15,25.5543
2008-07-16,25.93
2008-07-17,25.9675
2008-07-18,25.8642
2008-07-21,26.0051
2008-07-22,27.3486
2008-07-23,26.9164
2008-07-24,26.6534
2008-07-25,27.621
2008-07-28,27.4708
2008-07-29,26.9164
2008-07-30,27.2828
2008-07-31,27.3486
2008-08-01,26.907
2008-08-04,26.4655
2008-08-05,27.1701
2008-08-06,27.6587
2008-08-07,27.2358
2008-08-08,27.6774
2008-08-11,27.8747
2008-08-12,27.4989
2008-08-13,27.1888
2008-08-14,27.574
2008-08-15,27.9123
2008-08-18,27.6117
2008-08-19,27.2265
2008-08-20,26.9634
2008-08-21,26.813
2008-08-22,27.5365
2008-08-25,27.1419
2008-08-26,26.8319
2008-08-27,26.7755
2008-08-28,26.907
2008-08-29,26.7098
2008-09-02,26.8507
2008-09-03,26.2118
2008-09-04,25.3475
2008-09-05,24.6334
2008-09-08,24.8966
2008-09-09,24.5489
2008-09-10,24.4361
2008-09-11,24.1825
2008-09-12,23.8068
2008-09-15,23.7691
2008-09-16,23.9288
2008-09-17,23.1679
2008-09-18,24.1919
2008-09-19,24.8966
2008-09-22,24.5677
2008-09-23,24.5583
2008-09-24,24.2482
2008-09-25,24.4831
2008-09-26,24.7087
2008-09-29,23.0739
2008-09-30,23.4873
2008-10-01,22.9988
2008-10-02,22.0968
2008-10-03,22.482
2008-10-06,21.7492
2008-10-07,21.8432
2008-10-08,21.5425
2008-10-09,20.3118
2008-10-10,18.7804
2008-10-13,21.3922
2008-10-14,21.1479
2008-10-15,19.4798
2008-10-16,19.9511
2008-10-17,19.8474
2008-10-20,20.8746
2008-10-21,19.838
2008-10-22,18.8296
2008-10-23,16.7563
2008-10-24,16.4924
2008-10-27,15.3709
2008-10-28,15.8327
2008-10-29,15.9458
2008-10-30,16.6149
2008-10-31,16.8411
2008-11-03,17.3689
2008-11-04,18.283
2008-11-05,17.6516
2008-11-06,16.9919
2008-11-07,17.4631
2008-11-10,17.3971
2008-11-11,16.7751
2008-11-12,15.5688
2008-11-13,16.3416
2008-11-14,15.8327
2008-11-17,15.7196
2008-11-18,16.0306
2008-11-19,15.4368
2008-11-20,14.3154
2008-11-21,15.2296
2008-11-24,16.4547
2008-11-25,16.1531
2008-11-26,16.6149
2008-11-28,17.0201
2008-12-01,15.616
2008-12-02,15.5688
2008-12-03,15.8798
2008-12-04,14.928
2008-12-05,15.2672
2008-12-08,15.7479
2008-12-09,15.3992
2008-12-10,15.5028
2008-12-11,15.3992
2008-12-12,12.5814
2008-12-15,12.3835
2008-12-16,12.8358
2008-12-17,12.7321
2008-12-18,12.7981
2008-12-19,13.1185
2008-12-22,12.6191
2008-12-23,12.4022
2008-12-24,12.5531
2008-12-26,12.6285
2008-12-29,12.6096
2008-12-30,12.7699
2008-12-31,13.1374
2009-01-02,13.3635
2009-01-05,13.8819
2009-01-06,14.0703
2009-01-07,13.6651
2009-01-08,13.3541
2009-01-09,13.0431
2009-01-12,12.7415
2009-01-13,13.3164
2009-01-14,12.9848
2009-01-15,13.4962
2009-01-16,14.0456
2009-01-20,13.5814
2009-01-21,14.0077
2009-01-22,13.6383
2009-01-23,13.4867
2009-01-26,13.089
2009-01-27,13.3541
2009-01-28,14.2255
2009-01-29,13.894
2009-01-30,11.9051
2009-02-02,12.1987
2009-02-03,12.3313
2009-02-04,12.6817
2009-02-05,12.8144
2009-02-06,13.392
2009-02-09,13.553
2009-02-10,13.2594
2009-02-11,13.3068
2009-02-12,13.5341
2009-02-13,13.7425
2009-02-17,13.1458
2009-02-18,12.6912
2009-02-19,12.7859
2009-02-20,12.6533
2009-02-23,12.4449
2009-02-24,12.767
2009-02-25,12.5776
2009-02-26,12.2935
2009-02-27,12.2366
2009-03-02,11.2895
2009-03-03,11.1853
2009-03-04,11.6872
2009-03-05,11.0621
2009-03-06,10.9012
2009-03-09,10.4087
2009-03-10,11.0054
2009-03-11,10.778
2009-03-12,10.8727
2009-03-13,11.1001
2009-03-16,11.1001
2009-03-17,11.3557
2009-03-18,11.4505
2009-03-19,11.3652
2009-03-20,11.1474
2009-03-23,11.9903
2009-03-24,11.6305
2009-03-25,11.9903
2009-03-26,12.4544
2009-03-27,12.2176
2009-03-30,11.7536
2009-03-31,12.085
2009-04-01,12.2176
2009-04-02,12.7007
2009-04-03,12.6343
2009-04-06,12.6817
2009-04-07,12.5396
2009-04-08,12.8049
2009-04-09,13.2784
2009-04-13,13.4015
2009-04-14,13.1647
2009-04-15,12.9649
2009-04-16,13.2695
2009-04-17,13.4027
2009-04-20,12.7935
2009-04-21,13.003
2009-04-22,12.9459
2009-04-23,12.3937
2009-04-24,12.746
2009-04-27,12.3652
2009-04-28,12.6317
2009-04-29,13.279
2009-04-30,13.9643
2009-05-01,16.6678
2009-05-04,16.5821
2009-05-05,16.4393
2009-05-06,16.1537
2009-05-07,16.0491
2009-05-08,16.4203
2009-05-11,16.0491
2009-05-12,16.0681
2009-05-13,15.5636
2009-05-14,15.4398
2009-05-15,15.4017
2009-05-18,15.5445
2009-05-19,16.0585
2009-05-20,16.1823
2009-05-21,15.6302
2009-05-22,15.5445
2009-05-26,15.8587
2009-05-27,15.4684
2009-05-28,15.5255
2009-05-29,15.4969
2009-06-01,15.754
2009-06-02,16.0681
2009-06-03,15.8206
2009-06-04,15.8016
2009-06-05,15.8777
2009-06-08,15.6969
2009-06-09,16.2775
2009-06-10,16.2299
2009-06-11,16.4964
2009-06-12,16.4775
2009-06-15,15.9824
2009-06-16,16.2204
2009-06-17,16.4393
2009-06-18,17.1056
2009-06-19,17.1723
2009-06-22,16.6583
2009-06-23,16.1347
2009-06-24,16.2013
2009-06-25,16.3632
2009-06-26,16.1919
2009-06-29,16.4679
2009-06-30,16.5726
2009-07-01,16.6773
2009-07-02,16.0681
2009-07-06,15.992
2009-07-07,15.6207
2009-07-08,15.24
2009-07-09,15.1733
2009-07-10,15.9253
2009-07-13,16.0967
2009-07-14,16.3347
2009-07-15,16.717
2009-07-16,16.6979
2009-07-17,16.7361
2009-07-20,16.8986
2009-07-21,16.9942
2009-07-22,16.7265
2009-07-23,17.0133
2009-07-24,17.3669
2009-07-27,17.6155
2009-07-28,17.8449
2009-07-29,17.9882
2009-07-30,18.2272
2009-07-31,16.8604
2009-08-03,16.7648
2009-08-04,16.6692
2009-08-05,16.5354
2009-08-06,16.2486
2009-08-07,16.4207
2009-08-10,16.4303
2009-08-11,16.2104
2009-08-12,16.0766
2009-08-13,17.0133
2009-08-14,16.7743
2009-08-17,16.4398
2009-08-18,16.4493
2009-08-19,16.5641
2009-08-20,16.9273
2009-08-21,17.3956
2009-08-24,17.453
2009-08-25,17.2236
2009-08-26,17.3478
2009-08-27,17.5294
2009-08-28,17.3861
2009-08-31,17.4052
2009-09-01,17.0898
2009-09-02,16.7743
2009-09-03,16.6883
2009-09-04,17.2809
2009-09-08,17.3765
2009-09-09,17.7779
2009-09-10,18.533
2009-09-11,18.4088
2009-09-14,18.4566
2009-09-15,18.4374
2009-09-16,19.183
2009-09-17,19.1638
2009-09-18,19.269
2009-09-21,18.9153
2009-09-22,18.9058
2009-09-23,18.8007
2009-09-24,18.3132
2009-09-25,18.447
2009-09-28,18.4948
2009-09-29,18.5808
2009-09-30,18.3801
2009-10-01,17.95
2009-10-02,17.95
2009-10-05,18.294
2009-10-06,18.4566
2009-10-07,18.5713
2009-10-08,18.7051
2009-10-09,18.7433
2009-10-12,18.6381
2009-10-13,18.8675
2009-10-14,19.6227
2009-10-15,19.9667
2009-10-16,19.7182
2009-10-19,20.0336
2009-10-20,19.3168
2009-10-21,19.1729
2009-10-22,18.9907
2009-10-23,18.9331
2009-10-26,18.5591
2009-10-27,18.4536
2009-10-28,17.7151
2009-10-29,18.2042
2009-10-30,17.8685
2009-11-02,17.9164
2009-11-03,17.7246
2009-11-04,17.7342
2009-11-05,18.1562
2009-11-06,18.1754
2009-11-09,18.6167
2009-11-10,18.7893
2009-11-11,18.7893
2009-11-12,18.5399
2009-11-13,18.6262
2009-11-16,18.9427
2009-11-17,19.0866
2009-11-18,18.9907
2009-11-19,18.5782
2009-11-20,18.2521
2009-11-23,18.3673
2009-11-24,18.4632
2009-11-25,18.6262
2009-11-27,18.2138
2009-11-30,18.0891
2009-12-01,18.396
2009-12-02,18.6262
2009-12-03,18.4632
2009-12-04,18.8852
2009-12-07,18.8564
2009-12-08,18.6454
2009-12-09,18.5974
2009-12-10,18.8276
2009-12-11,19.1154
2009-12-14,19.5086
2009-12-15,19.6525
2009-12-16,19.5662
2009-12-17,19.3551
2009-12-18,19.2881
2009-12-21,19.4319
2009-12-22,19.4319
2009-12-23,19.6716
2009-12-24,19.7388
2009-12-28,19.7964
2009-12-29,19.921
2009-12-30,19.8827
2009-12-31,19.758
2010-01-04,19.7868
2010-01-05,20.0361
2010-01-06,20.4389
2010-01-07,20.3815
2010-01-08,20.5637
2010-01-11,20.5828
2010-01-12,20.2663
2010-01-13,20.5253
2010-01-14,20.7746
2010-01-15,20.5541
2010-01-19,20.5541
2010-01-20,20.3423
2010-01-21,19.7073
2010-01-22,19.611
2010-01-25,19.7649
2010-01-26,19.8035
2010-01-27,19.6014
2010-01-28,19.3415
2010-01-29,19.3993
2010-02-01,19.4186
2010-02-02,20.0055
2010-02-03,19.8804
2010-02-04,19.0528
2010-02-05,19.7169
2010-02-08,20.1884
2010-02-09,20.1017
2010-02-10,19.9093
2010-02-11,20.0632
2010-02-12,20.1979
2010-02-16,20.785
2010-02-17,20.7946
2010-02-18,21.0737
2010-02-19,20.9774
2010-02-22,21.5452
2010-02-23,21.4874
2010-02-24,21.497
2010-02-25,21.5644
2010-02-26,21.4105
2010-03-01,22.3823
2010-03-02,22.5363
2010-03-03,22.4497
2010-03-04,22.238
2010-03-05,22.8634
2010-03-08,22.8058
2010-03-09,22.6614
2010-03-10,22.6229
2010-03-11,22.5747
2010-03-12,22.469
2010-03-15,22.6037
2010-03-16,22.7672
2010-03-17,23.104
2010-03-18,23.181
2010-03-19,22.7095
2010-03-22,23.1233
2010-03-23,23.2868
2010-03-24,23.0944
2010-03-25,22.9982
2010-03-26,23.0944
2010-03-29,23.3254
2010-03-30,23.412
2010-03-31,23.0078
2010-04-01,23.2099
2010-04-05,23.258
2010-04-06,23.0848
2010-04-07,22.9693
2010-04-08,22.7961
2010-04-09,22.9212
2010-04-12,22.8731
2010-04-13,22.8346
2010-04-14,23.0083
2010-04-15,23.0179
2010-04-16,22.6801
2010-04-19,22.6126
2010-04-20,23.1241
2010-04-21,23.153
2010-04-22,23.047
2010-04-23,22.989
2010-04-26,22.9214
2010-04-27,22.6222
2010-04-28,23.7418
2010-04-29,24.2244
2010-04-30,24.1954
2010-05-03,24.2823
2010-05-04,23.5005
2010-05-05,23.1434
2010-05-06,22.1976
2010-05-07,21.5124
2010-05-10,22.6126
2010-05-11,22.2555
2010-05-12,22.7381
2010-05-13,22.5547
2010-05-14,21.8694
2010-05-17,21.9853
2010-05-18,21.9467
2010-05-19,22.2458
2010-05-20,21.2904
2010-05-21,21.2421
2010-05-24,21.0587
2010-05-25,21.0105
2010-05-26,21.1843
2010-05-27,22.2652
2010-05-28,21.9274
2010-06-01,21.4256
2010-06-02,21.9274
2010-06-03,22.1976
2010-06-04,20.9719
2010-06-07,20.5473
2010-06-08,20.6052
2010-06-09,21.0395
2010-06-10,21.7054
2010-06-11,21.7537
2010-06-14,21.6572
2010-06-15,22.0528
2010-06-16,22.1783
2010-06-17,22.1204
2010-06-18,21.8985
2010-06-21,22.1107
2010-06-22,21.6958
2010-06-23,21.4351
2010-06-24,20.6341
2010-06-25,21.136
2010-06-28,21.0781
2010-06-29,20.1323
2010-06-30,19.9682
2010-07-01,19.1189
2010-07-02,18.9549
2010-07-06,18.8776
2010-07-07,18.8293
2010-07-08,19.032
2010-07-09,18.8776
2010-07-12,18.8004
2010-07-13,18.9935
2010-07-14,18.8197
2010-07-15,18.8101
2010-07-16,18.4047
2010-07-19,18.4819
2010-07-20,18.5688
2010-07-21,18.3364
2010-07-22,18.995
2010-07-23,18.9853
2010-07-26,19.305
2010-07-27,18.7432
2010-07-28,18.8594
2010-07-29,18.5979
2010-07-30,18.8788
2010-08-02,19.4018
2010-08-03,19.1209
2010-08-04,19.46
2010-08-05,19.4115
2010-08-06,21.6007
2010-08-09,21.4941
2010-08-10,21.4844
2010-08-11,20.8354
2010-08-12,20.8257
2010-08-13,20.7773
2010-08-16,20.6998
2010-08-17,21.3198
2010-08-18,21.3779
2010-08-19,20.8839
2010-08-20,20.4286
2010-08-23,20.5933
2010-08-24,19.9249
2010-08-25,20.3898
2010-08-26,20.6223
2010-08-27,21.0097
2010-08-30,20.3898
2010-08-31,20.3221
2010-09-01,21.3585
2010-09-02,21.4941
2010-09-03,21.6878
2010-09-07,21.4748
2010-09-08,21.1453
2010-09-09,21.3198
2010-09-10,21.281
2010-09-13,21.5425
2010-09-14,21.8816
2010-09-15,21.9978
2010-09-16,21.6394
2010-09-17,21.4941
2010-09-20,21.7072
2010-09-21,21.9881
2010-09-22,21.7653
2010-09-23,21.775
2010-09-24,22.4336
2010-09-27,22.3562
2010-09-28,22.4821
2010-09-29,22.2883
2010-09-30,22.4046
2010-10-01,22.2787
2010-10-04,21.9784
2010-10-05,22.5984
2010-10-06,22.0366
2010-10-07,21.9397
2010-10-08,22.1819
2010-10-11,22.5209
2010-10-12,22.4531
2010-10-13,22.763
2010-10-14,22.5596
2010-10-15,22.4628
2010-10-18,22.8405
2010-10-19,22.0366
2010-10-20,22.4639
2010-10-21,22.5708
2010-10-22,22.7554
2010-10-25,22.9498
2010-10-26,22.6583
2010-10-27,22.6971
2010-10-28,22.6097
2010-10-29,22.8234
2010-11-01,22.8526
2010-11-02,22.94
2010-11-03,22.9692
2010-11-04,23.3676
2010-11-05,23.3481
2010-11-08,23.0761
2010-11-09,23.0761
2010-11-10,23.2412
2010-11-11,23.3676
2010-11-12,23.2607
2010-11-15,23.0858
2010-11-16,22.5514
2010-11-17,22.7262
2010-11-18,23.2704
2010-11-19,23.319
2010-11-22,23.319
2010-11-23,22.8331
2010-11-24,23.2218
2010-11-26,23.008
2010-11-29,22.7846
2010-11-30,22.6679
2010-12-01,23.2704
2010-12-02,23.6591
2010-12-03,24.0671
2010-12-06,23.7465
2010-12-07,23.9116
2010-12-08,24.0185
2010-12-09,24.3489
2010-12-10,24.6987
2010-12-13,24.8638
2010-12-14,24.9512
2010-12-15,24.9319
2010-12-16,25.1553
2010-12-17,25.2913
2010-12-20,25.3787
2010-12-21,25.3691
2010-12-22,25.3691
2010-12-23,25.3302
2010-12-27,25.3399
2010-12-28,25.2234
2010-12-29,25.1165
2010-12-30,25.1845
2010-12-31,25.0679
2011-01-03,25.1262
2011-01-04,24.8833
2011-01-05,24.6987
2011-01-06,25.0193
2011-01-07,24.8735
2011-01-10,25.0484
2011-01-11,25.3302
2011-01-12,25.2427
2011-01-13,25.0581
2011-01-14,24.825
2011-01-18,24.893
2011-01-19,24.5227
2011-01-20,24.172
2011-01-21,24.0746
2011-01-24,24.3181
2011-01-25,24.4837
2011-01-26,24.9319
2011-01-27,25.3313
2011-01-28,24.9026
2011-01-31,24.9514
2011-02-01,25.3411
2011-02-02,25.234
2011-02-03,25.2827
2011-02-04,25.9549
2011-02-07,25.7698
2011-02-08,26.0329
2011-02-09,26.0134
2011-02-10,26.1887
2011-02-11,26.3349
2011-02-14,26.3739
2011-02-15,26.1206
2011-02-16,26.2472
2011-02-17,26.218
2011-02-18,26.2765
2011-02-22,25.838
2011-02-23,25.2729
2011-02-24,27.0364
2011-02-25,25.7893
2011-02-28,25.8185
2011-03-01,26.3933
2011-03-02,26.7343
2011-03-03,27.2897
2011-03-04,27.0364
2011-03-07,26.6369
2011-03-08,26.9877
2011-03-09,26.7733
2011-03-10,26.1887
2011-03-11,26.2569
2011-03-14,25.838
2011-03-15,25.4288
2011-03-16,24.9417
2011-03-17,25.0878
2011-03-18,24.9806
2011-03-21,25.2047
2011-03-22,25.1755
2011-03-23,25.1658
2011-03-24,25.3606
2011-03-25,25.3509
2011-03-28,25.2534
2011-03-29,25.4775
2011-03-30,25.7016
2011-03-31,25.6042
2011-04-01,25.6723
2011-04-04,26.1303
2011-04-05,26.2082
2011-04-06,26.0427
2011-04-07,26.0134
2011-04-08,26.0134
2011-04-11,25.9355
2011-04-12,25.838
2011-04-13,25.7893
2011-04-14,25.5652
2011-04-15,26.0134
2011-04-18,25.6723
2011-04-19,25.6821
2011-04-20,26.3172
2011-04-21,26.4832
2011-04-25,26.2878
2011-04-26,26.9424
2011-04-27,27.128
2011-04-28,27.3526
2011-04-29,27.6163
2011-05-02,27.802
2011-05-03,27.675
2011-05-04,27.3234
2011-05-05,27.128
2011-05-06,27.3136
2011-05-09,27.3917
2011-05-10,27.5675
2011-05-11,27.4405
2011-05-12,27.6457
2011-05-13,27.3917
2011-05-16,27.5284
2011-05-17,27.0986
2011-05-18,27.5969
2011-05-19,27.5871
2011-05-20,27.2745
2011-05-23,26.6688
2011-05-24,26.5028
2011-05-25,26.6883
2011-05-26,26.913
2011-05-27,27.0791
2011-05-31,27.0498
2011-06-01,26.5907
2011-06-02,26.366
2011-06-03,25.7896
2011-06-06,25.477
2011-06-07,25.6138
2011-06-08,25.7408
2011-06-09,25.9654
2011-06-10,25.477
2011-06-13,25.2133
2011-06-14,25.477
2011-06-15,25.2133
2011-06-16,25.1742
2011-06-17,25.2914
2011-06-20,25.4281
2011-06-21,25.9068
2011-06-22,25.6627
2011-06-23,25.5552
2011-06-24,25.3989
2011-06-27,25.6235
2011-06-28,26.112
2011-06-29,26.2097
2011-06-30,26.3074
2011-07-01,26.8153
2011-07-05,26.5222
2011-07-06,26.8642
2011-07-07,26.9326
2011-07-08,26.6199
2011-07-11,25.9068
2011-07-12,25.6821
2011-07-13,25.858
2011-07-14,25.604
2011-07-15,25.5942
2011-07-18,25.2621
2011-07-19,25.8385
2011-07-20,25.8287
2011-07-21,26.3283
2011-07-22,26.24
2011-07-25,26.005
2011-07-26,25.2899
2011-07-27,24.4183
2011-07-28,23.9677
2011-07-29,23.9775
2011-08-01,23.2135
2011-08-02,22.6161
2011-08-03,22.2341
2011-08-04,20.9705
2011-08-05,22.0577
2011-08-08,21.3231
2011-08-09,21.666
2011-08-10,21.3721
2011-08-11,21.8031
2011-08-12,22.0675
2011-08-15,22.3222
2011-08-16,22.1263
2011-08-17,21.9304
2011-08-18,20.7061
2011-08-19,20.4905
2011-08-22,20.3829
2011-08-23,21.1566
2011-08-24,21.4406
2011-08-25,20.9705
2011-08-26,21.4504
2011-08-29,22.2927
2011-08-30,22.2927
2011-08-31,22.3222
2011-09-01,21.8618
2011-09-02,21.1762
2011-09-06,20.9215
2011-09-07,21.5777
2011-09-08,20.3143
2011-09-09,19.8637
2011-09-12,19.9029
2011-09-13,20.1575
2011-09-14,20.6669
2011-09-15,20.6179
2011-09-16,20.5787
2011-09-19,20.138
2011-09-20,19.9714
2011-09-21,19.1389
2011-09-22,18.4729
2011-09-23,18.8549
2011-09-26,19.2369
2011-09-27,19.5404
2011-09-28,18.6688
2011-09-29,19.1584
2011-09-30,18.8352
2011-10-03,18.0614
2011-10-04,18.9625
2011-10-05,18.6785
2011-10-06,19.1584
2011-10-07,17.562
2011-10-10,17.9929
2011-10-11,18.3847
2011-10-12,18.6198
2011-10-13,18.3358
2011-10-14,18.8059
2011-10-17,18.2378
2011-10-18,18.61
2011-10-19,18.4625
2011-10-20,18.6591
2011-10-21,19.072
2011-10-24,19.6619
2011-10-25,19.1703
2011-10-26,19.072
2011-10-27,20.409
2011-10-28,21.225
2011-10-31,20.35
2011-11-01,19.3669
2011-11-02,19.4652
2011-11-03,20.3008
2011-11-04,19.1997
2011-11-07,19.7602
2011-11-08,20.0649
2011-11-09,19.0327
2011-11-10,19.0032
2011-11-11,19.1997
2011-11-14,19.1014
2011-11-15,19.2981
2011-11-16,18.895
2011-11-17,18.4232
2011-11-18,18.5116
2011-11-21,18.0889
2011-11-22,17.6465
2011-11-23,17.2729
2011-11-25,17.1943
2011-11-28,17.794
2011-11-29,17.617
2011-11-30,18.5902
2011-12-01,18.6394
2011-12-02,18.7083
2011-12-05,18.8163
2011-12-06,18.7869
2011-12-07,18.9835
2011-12-08,18.315
2011-12-09,18.6591
2011-12-12,18.2068
2011-12-13,17.794
2011-12-14,17.7055
2011-12-15,18.3445
2011-12-16,18.256
2011-12-19,18.1282
2011-12-20,19.0523
2011-12-21,18.9835
2011-12-22,19.2686
2011-12-23,19.4947
2011-12-27,19.6029
2011-12-28,19.2293
2011-12-29,19.5242
2011-12-30,19.6619
2012-01-03,20.2418
2012-01-04,20.0453
2012-01-05,20.1928
2012-01-06,20.7432
2012-01-09,20.8907
2012-01-10,21.4019
2012-01-11,21.6575
2012-01-12,21.9819
2012-01-13,21.9229
2012-01-17,22.3358
2012-01-18,22.8093
2012-01-19,23.0656
2012-01-20,23.0163
2012-01-23,22.9177
2012-01-24,23.4897
2012-01-25,23.7954
2012-01-26,23.47
2012-01-27,23.6671
2012-01-30,23.4798
2012-01-31,23.6475
2012-02-01,24.6139
2012-02-02,24.3476
2012-02-03,25.886
2012-02-06,25.6395
2012-02-07,25.8071
2012-02-08,25.9353
2012-02-09,26.1423
2012-02-10,25.531
2012-02-13,25.7085
2012-02-14,25.7183
2012-02-15,26.0142
2012-02-16,26.4481
2012-02-17,26.5763
2012-02-21,26.2312
2012-02-22,26.4679
2012-02-23,26.2903
2012-02-24,26.8622
2012-02-27,26.8129
2012-02-28,26.8919
2012-02-29,26.6157
2012-03-01,26.6157
2012-03-02,26.379
2012-03-05,26.1819
2012-03-06,25.462
2012-03-07,25.8466
2012-03-08,26.2312
2012-03-09,26.3692
2012-03-12,26.0833
2012-03-13,26.8327
2012-03-14,26.6256
2012-03-15,26.9313
2012-03-16,26.9214
2012-03-19,26.9412
2012-03-20,26.8524
2012-03-21,26.7933
2012-03-22,26.6848
2012-03-23,26.951
2012-03-26,27.4441
2012-03-27,27.454
2012-03-28,27.1876
2012-03-29,27.2765
2012-03-30,27.2765
2012-04-02,27.5722
2012-04-03,27.3258
2012-04-04,27.0496
2012-04-05,26.9806
2012-04-09,26.4087
2012-04-10,25.6197
2012-04-11,26.0536
2012-04-12,26.5073
2012-04-13,25.8959
2012-04-16,25.8071
2012-04-17,26.4382
2012-04-18,26.2801
2012-04-19,26.1318
2012-04-20,26.2109
2012-04-23,25.9934
2012-04-24,25.6078
2012-04-25,26.4185
2012-04-26,26.468
2012-04-27,27.249
2012-04-30,27.249
2012-05-01,27.6148
2012-05-02,27.7434
2012-05-03,27.6544
2012-05-04,27.0711
2012-05-07,27.2391
2012-05-08,27.0909
2012-05-09,26.7151
2012-05-10,26.7843
2012-05-11,26.7843
2012-05-14,26.4283
2012-05-15,26.1515
2012-05-16,25.8253
2012-05-17,25.667
2012-05-18,25.2716
2012-05-21,25.9241
2012-05-22,25.9043
2012-05-23,25.9341
2012-05-24,26.201
2012-05-25,26.1021
2012-05-29,26.6755
2012-05-30,26.3691
2012-05-31,26.2998
2012-06-01,25.499
2012-06-04,25.1035
2012-06-05,25.2321
2012-06-06,25.7758
2012-06-07,25.7956
2012-06-08,25.7067
2012-06-11,25.2716
2012-06-12,25.5484
2012-06-13,25.3012
2012-06-14,25.1134
2012-06-15,25.2913
2012-06-18,25.3606
2012-06-19,26.1515
2012-06-20,26.0526
2012-06-21,25.3309
2012-06-22,25.3507
2012-06-25,24.5795
2012-06-26,24.5795
2012-06-27,24.886
2012-06-28,24.7772
2012-06-29,25.5089
2012-07-02,25.588
2012-07-03,25.9241
2012-07-05,25.8056
2012-07-06,25.1035
2012-07-09,24.6092
2012-07-10,24.1741
2012-07-11,23.9665
2012-07-12,23.8874
2012-07-13,24.2631
2012-07-16,24.095
2012-07-17,24.2335
2012-07-18,24.878
2012-07-19,25.0267
2012-07-20,24.6599
2012-07-23,24.1937
2012-07-24,23.6682
2012-07-25,24.1839
2012-07-26,24.6599
2012-07-27,25.4828
2012-07-30,25.4134
2012-07-31,25.3638
2012-08-01,25.225
2012-08-02,24.6499
2012-08-03,26.5636
2012-08-06,27.1486
2012-08-07,27.7633
2012-08-08,27.7633
2012-08-09,27.694
2012-08-10,27.5849
2012-08-13,27.5452
2012-08-14,27.2775
2012-08-15,27.3271
2012-08-16,27.0494
2012-08-17,27.1189
2012-08-20,26.9701
2012-08-21,27.3172
2012-08-22,27.337
2012-08-23,27.1684
2012-08-24,27.0396
2012-08-27,26.9602
2012-08-28,26.7321
2012-08-29,26.5537
2012-08-30,26.7123
2012-08-31,27.1089
2012-09-04,27.3568
2012-09-05,27.3668
2012-09-06,28.0311
2012-09-07,28.279
2012-09-10,28.1996
2012-09-11,28.5566
2012-09-12,28.507
2012-09-13,29.1019
2012-09-14,30.0836
2012-09-17,29.8555
2012-09-18,29.9051
2012-09-19,29.8555
2012-09-20,29.9051
2012-09-21,29.7663
2012-09-24,29.5679
2012-09-25,29.3795
2012-09-26,29.1317
2012-09-27,29.3102
2012-09-28,29.2705
2012-10-01,29.1119
2012-10-02,29.2507
2012-10-03,29.5283
2012-10-04,29.915
2012-10-05,30.1233
2012-10-08,30.0538
2012-10-09,29.4094
2012-10-10,29.1119
2012-10-11,29.3201
2012-10-12,29.4689
2012-10-15,29.6077
2012-10-16,30.034
2012-10-17,30.3023
2012-10-18,29.1991
2012-10-19,28.3743
2012-10-22,28.2847
2012-10-23,27.6984
2012-10-24,28.1556
2012-10-25,28.3344
2012-10-26,31.0973
2012-10-31,30.7694
2012-11-01,31.3955
2012-11-02,31.1172
2012-11-05,31.2961
2012-11-06,31.2266
2012-11-07,31.0278
2012-11-08,30.511
2012-11-09,30.4811
2012-11-12,30.2725
2012-11-13,30.352
2012-11-14,29.9147
2012-11-15,29.9047
2012-11-16,30.0141
2012-11-19,30.352
2012-11-20,30.6799
2012-11-21,30.6999
2012-11-23,31.2862
2012-11-26,30.9582
2012-11-27,30.7594
2012-11-28,31.0079
2012-11-29,31.2266
2012-11-30,31.475
2012-12-03,31.2067
2012-12-04,31.0676
2012-12-05,30.839
2012-12-06,30.6502
2012-12-07,30.5408
2012-12-10,30.9979
2012-12-11,31.4352
2012-12-12,31.1967
2012-12-13,31.157
2012-12-14,31.2067
2012-12-17,31.7532
2012-12-18,32.1111
2012-12-19,31.6141
2012-12-20,31.8229
2012-12-21,31.3061
2012-12-24,31.4352
2012-12-26,31.1769
2012-12-27,31.1967
2012-12-28,30.8787
2012-12-31,31.5147
2013-01-02,31.8625
2013-01-03,31.7334
2013-01-04,32.9657
2013-01-07,32.8663
2013-01-08,32.7868
2013-01-09,34.1583
2013-01-10,34.4564
2013-01-11,34.2378
2013-01-14,33.9794
2013-01-15,33.9496
2013-01-16,33.8301
2013-01-17,34.3778
2013-01-18,34.9754
2013-01-22,35.294
2013-01-23,35.1646
2013-01-24,35.1048
2013-01-25,35.4833
2013-01-28,35.2742
2013-01-29,35.1149
2013-01-30,34.7863
2013-01-31,35.1049
2013-02-01,33.5712
2013-02-04,33.3522
2013-02-05,33.8999
2013-02-06,34.2983
2013-02-07,34.3281
2013-02-08,34.5572
2013-02-11,34.4675
2013-02-12,34.368
2013-02-13,34.4128
2013-02-14,34.3829
2013-02-15,33.9398
2013-02-19,34.0392
2013-02-20,33.2227
2013-02-21,32.8342
2013-02-22,33.0733
2013-02-25,32.6949
2013-02-26,33.6808
2013-02-27,34.1937
2013-02-28,34.0592
2013-03-01,34.4875
2013-03-04,34.2085
2013-03-05,34.6368
2013-03-06,34.7264
2013-03-07,35.1646
2013-03-08,35.4136
2013-03-11,35.7123
2013-03-12,35.294
2013-03-13,35.2442
2013-03-14,35.0849
2013-03-15,35.1048
2013-03-18,34.7464
2013-03-19,34.8558
2013-03-20,34.8558
2013-03-21,34.1886
2013-03-22,33.8401
2013-03-25,33.2525
2013-03-26,33.4617
2013-03-27,33.0334
2013-03-28,33.5115
2013-04-01,33.2923
2013-04-02,33.6707
2013-04-03,33.4915
2013-04-04,33.5612
2013-04-05,33.2425
2013-04-08,33.4517
2013-04-09,34.0691
2013-04-10,34.587
2013-04-11,34.806
2013-04-12,34.7364
2013-04-15,33.8699
2013-04-16,34.3878
2013-04-17,34.0384
2013-04-18,33.4896
2013-04-19,33.0106
2013-04-22,33.1703
2013-04-23,33.779
2013-04-24,33.8688
2013-04-25,34.3578
2013-04-26,30.2664
2013-04-29,30.5358
2013-04-30,30.6256
2013-05-01,30.7354
2013-05-02,30.5358
2013-05-03,30.8352
2013-05-06,30.935
2013-05-07,31.6235
2013-05-08,32.1424
2013-05-09,32.1823
2013-05-10,32.6214
2013-05-13,32.332
2013-05-14,32.3221
2013-05-15,32.6314
2013-05-16,31.893
2013-05-17,32.1125
2013-05-20,32.1424
2013-05-21,32.4618
2013-05-22,31.7333
2013-05-23,31.6634
2013-05-24,31.6634
2013-05-28,31.9628
2013-05-29,31.7333
2013-05-30,31.7034
2013-05-31,31.3042
2013-06-03,31.8031
2013-06-04,31.9628
2013-06-05,31.883
2013-06-06,32.1823
2013-06-07,32.6114
2013-06-10,32.7312
2013-06-11,32.2123
2013-06-12,32.5216
2013-06-13,33.3399
2013-06-14,32.9807
2013-06-17,33.769
2013-06-18,34.3179
2013-06-19,33.6393
2013-06-20,32.7112
2013-06-21,33.3998
2013-06-24,32.6913
2013-06-25,32.6813
2013-06-26,32.7512
2013-06-27,32.7611
2013-06-28,32.5017
2013-07-01,32.6813
2013-07-02,32.4717
2013-07-03,32.3221
2013-07-05,32.6913
2013-07-08,33.1104
2013-07-09,33.6293
2013-07-10,33.7391
2013-07-11,33.9387
2013-07-12,33.7091
2013-07-15,33.8189
2013-07-16,33.29
2013-07-17,33.31
2013-07-18,33.72
2013-07-19,34.09
2013-07-22,34.16
2013-07-23,33.7
2013-07-24,33.8
2013-07-25,33.95
2013-07-26,34.1
2013-07-29,34.28
2013-07-30,34.39
2013-07-31,34.1
2013-08-01,35.08
2013-08-02,36.39
2013-08-05,36.36
2013-08-06,36.3
2013-08-07,36.54
2013-08-08,36.6
2013-08-09,36.92
