date,close_price
1998-01-02,27.6002
1998-01-05,26.1025
1998-01-06,24.9601
1998-01-07,24.0001
1998-01-08,23.5201
1998-01-09,22.8001
1998-01-12,22.3201
1998-01-13,23.0401
1998-01-14,23.2801
1998-01-15,22.9249
1998-01-16,22.9825
1998-01-20,23.5777
1998-01-21,23.2801
1998-01-22,22.8577
1998-01-23,21.7825
1998-01-26,20.1601
1998-01-27,20.7649
1998-01-28,21.2449
1998-01-29,21.0625
1998-01-30,20.8225
1998-02-02,20.4001
1998-02-03,20.6401
1998-02-04,20.4577
1998-02-05,21.1201
1998-02-06,21.4177
1998-02-09,21.2449
1998-02-10,22.1377
1998-02-11,21.7825
1998-02-12,21.5904
1998-02-13,21.4076
1998-02-17,21.2921
1998-02-18,21.0516
1998-02-19,21.2921
1998-02-20,21.167
1998-02-23,21.1093
1998-02-24,21.1093
1998-02-25,21.2247
1998-02-26,22.0714
1998-02-27,22.7353
1998-03-02,22.9085
1998-03-03,23.149
1998-03-04,23.2164
1998-03-05,22.9758
1998-03-06,22.793
1998-03-09,22.0137
1998-03-10,21.5326
1998-03-11,21.5904
1998-03-12,21.8309
1998-03-13,22.0714
1998-03-16,22.5525
1998-03-17,22.668
1998-03-18,22.9085
1998-03-19,23.9957
1998-03-20,25.0156
1998-03-23,25.6217
1998-03-24,25.4966
1998-03-25,24.1112
1998-03-26,23.8129
1998-03-27,23.938
1998-03-30,24.0534
1998-03-31,23.9957
1998-04-01,24.775
1998-04-02,24.2362
1998-04-03,24.0534
1998-04-06,23.3896
1998-04-07,23.5724
1998-04-08,23.6301
1998-04-09,23.2741
1998-04-13,23.3318
1998-04-14,23.149
1998-04-15,23.2164
1998-04-16,23.0913
1998-04-17,23.3896
1998-04-20,22.793
1998-04-21,23.0913
1998-04-22,22.9758
1998-04-23,22.6102
1998-04-24,22.668
1998-04-27,22.668
1998-04-28,22.7353
1998-04-29,23.149
1998-04-30,22.9758
1998-05-01,23.2164
1998-05-04,22.8508
1998-05-05,23.2164
1998-05-06,22.9758
1998-05-07,22.668
1998-05-08,23.0913
1998-05-11,22.8508
1998-05-12,22.9085
1998-05-13,22.9085
1998-05-14,22.793
1998-05-15,22.668
1998-05-18,22.312
1998-05-19,22.2542
1998-05-20,22.1869
1998-05-21,22.1292
1998-05-22,21.8886
1998-05-26,22.0137
1998-05-27,21.5904
1998-05-28,22.0137
1998-05-29,22.6102
1998-06-01,22.0714
1998-06-02,21.7732
1998-06-03,21.7732
1998-06-04,22.1869
1998-06-05,22.1869
1998-06-08,22.0137
1998-06-09,21.8886
1998-06-10,21.8309
1998-06-11,21.2921
1998-06-12,21.2247
1998-06-15,20.8688
1998-06-16,20.8688
1998-06-17,21.4653
1998-06-18,21.1093
1998-06-19,20.9265
1998-06-22,21.4076
1998-06-23,21.9464
1998-06-24,22.2542
1998-06-25,22.1869
1998-06-26,22.0137
1998-06-29,22.1292
1998-06-30,22.7353
1998-07-01,22.9758
1998-07-02,23.0913
1998-07-06,23.3318
1998-07-07,23.149
1998-07-08,23.149
1998-07-09,22.4948
1998-07-10,22.0714
1998-07-13,21.8309
1998-07-14,21.7732
1998-07-15,21.7732
1998-07-16,21.7058
1998-07-17,21.167
1998-07-20,20.9842
1998-07-21,20.9265
1998-07-22,20.5705
1998-07-23,20.2626
1998-07-24,20.1472
1998-07-27,19.9066
1998-07-28,19.7238
1998-07-29,19.3005
1998-07-30,19.2427
1998-07-31,18.7617
1998-08-03,17.9246
1998-08-04,16.2986
1998-08-05,16.1735
1998-08-06,16.6546
1998-08-07,17.5013
1998-08-10,17.1357
1998-08-11,16.6546
1998-08-12,16.7219
1998-08-13,16.6449
1998-08-14,16.7028
1998-08-17,16.7028
1998-08-18,16.587
1998-08-19,16.7704
1998-08-20,16.7028
1998-08-21,16.5291
1998-08-24,16.4616
1998-08-25,16.4037
1998-08-26,15.8634
1998-08-27,15.1397
1998-08-28,14.5318
1998-08-31,14.1747
1998-09-01,13.2677
1998-09-02,13.8081
1998-09-03,13.7502
1998-09-04,14.1168
1998-09-08,14.5993
1998-09-09,14.5318
1998-09-10,14.416
1998-09-11,15.0142
1998-09-14,15.1397
1998-09-15,15.1976
1998-09-16,15.2554
1998-09-17,14.4739
1998-09-18,14.416
1998-09-21,13.8756
1998-09-22,13.5668
1998-09-23,14.2326
1998-09-24,14.2326
1998-09-25,14.2326
1998-09-28,13.6344
1998-09-29,13.2098
1998-09-30,13.5668
1998-10-01,13.3256
1998-10-02,13.3256
1998-10-05,13.1519
1998-10-06,13.2098
1998-10-07,13.3931
1998-10-08,12.6695
1998-10-09,12.3607
1998-10-12,12.6695
1998-10-13,12.2449
1998-10-14,12.3028
1998-10-15,12.4282
1998-10-16,12.7273
1998-10-19,13.1519
1998-10-20,13.2677
1998-10-21,13.3256
1998-10-22,13.2098
1998-10-23,13.0265
1998-10-26,13.5089
1998-10-27,13.7502
1998-10-28,13.9914
1998-10-29,14.3581
1998-10-30,14.4739
1998-11-02,14.8405
1998-11-03,14.416
1998-11-04,14.773
1998-11-05,14.8984
1998-11-06,15.0142
1998-11-09,15.0142
1998-11-10,14.8405
1998-11-11,14.9563
1998-11-12,14.9563
1998-11-13,15.0818
1998-11-16,14.7151
1998-11-17,13.9335
1998-11-18,13.451
1998-11-19,13.5668
1998-11-20,13.5089
1998-11-23,13.1519
1998-11-24,13.3256
1998-11-25,13.2098
1998-11-27,13.7502
1998-11-30,12.8431
1998-12-01,11.5791
1998-12-02,10.4308
1998-12-03,10.3729
1998-12-04,10.5563
1998-12-07,11.0387
1998-12-08,10.4984
1998-12-09,10.0738
1998-12-10,9.16678
1998-12-11,8.56853
1998-12-14,8.44308
1998-12-15,8.68432
1998-12-16,9.22467
1998-12-17,8.62642
1998-12-18,8.38519
1998-12-21,8.56853
1998-12-22,8.62642
1998-12-23,8.32729
1998-12-24,8.20185
1998-12-28,7.84483
1998-12-29,7.77729
1998-12-30,7.47816
1998-12-31,8.20185
1999-01-04,8.98344
1999-01-05,8.74221
1999-01-06,8.74221
1999-01-07,8.56853
1999-01-08,8.62642
1999-01-11,8.74221
1999-01-12,8.44308
1999-01-13,8.50098
1999-01-14,8.74221
1999-01-15,8.68432
1999-01-19,8.80976
1999-01-20,8.32729
1999-01-21,8.74221
1999-01-22,8.74221
1999-01-25,8.86765
1999-01-26,8.32729
1999-01-27,8.14396
1999-01-28,7.71939
1999-01-29,7.96062
1999-02-01,7.90273
1999-02-02,8.14396
1999-02-03,8.14396
1999-02-04,8.01852
1999-02-05,8.01852
1999-02-08,7.84483
1999-02-09,7.77729
1999-02-10,7.71939
1999-02-11,7.23693
1999-02-12,6.87991
1999-02-16,6.87991
1999-02-17,6.69657
1999-02-18,6.03078
1999-02-19,5.54831
1999-02-22,5.19129
1999-02-23,5.60621
1999-02-24,5.60621
1999-02-25,5.36498
1999-02-26,5.06585
1999-03-01,4.95006
1999-03-02,5.00796
1999-03-03,5.19129
1999-03-04,5.00796
1999-03-05,5.06585
1999-03-08,5.43252
1999-03-09,5.60621
1999-03-10,5.84744
1999-03-11,6.08867
1999-03-12,6.57113
1999-03-15,6.75447
1999-03-16,6.81236
1999-03-17,6.9957
1999-03-18,7.36237
1999-03-19,6.9378
1999-03-22,7.77729
1999-03-23,7.42027
1999-03-24,7.71939
1999-03-25,7.42027
1999-03-26,7.47816
1999-03-29,7.96062
1999-03-30,7.77729
1999-03-31,7.42027
1999-04-01,7.23693
1999-04-05,6.9957
1999-04-06,6.9378
1999-04-07,7.12114
1999-04-08,7.71939
1999-04-09,8.14396
1999-04-12,8.14396
1999-04-13,8.38519
1999-04-14,8.32729
1999-04-15,8.38519
1999-04-16,8.44308
1999-04-19,9.35011
1999-04-20,8.56853
1999-04-21,9.05099
1999-04-22,8.86765
1999-04-23,8.80976
1999-04-26,8.80976
1999-04-27,9.16678
1999-04-28,9.77468
1999-04-29,10.8554
1999-04-30,11.28
1999-05-03,11.8203
1999-05-04,12.544
1999-05-05,12.7273
1999-05-06,12.3607
1999-05-07,11.5791
1999-05-10,11.8203
1999-05-11,11.5791
1999-05-12,11.28
1999-05-13,12.0037
1999-05-14,12.0037
1999-05-17,11.5212
1999-05-18,10.6721
1999-05-19,10.3729
1999-05-20,10.4308
1999-05-21,10.6142
1999-05-24,10.5563
1999-05-25,10.1317
1999-05-26,10.1896
1999-05-27,10.2571
1999-05-28,10.4308
1999-06-01,10.3729
1999-06-02,10.315
1999-06-03,10.315
1999-06-04,10.3729
1999-06-07,10.6721
1999-06-08,10.6721
1999-06-09,10.6142
1999-06-10,10.7975
1999-06-11,10.7975
1999-06-14,10.6142
1999-06-15,10.6721
1999-06-16,10.7975
1999-06-17,11.0387
1999-06-18,10.8554
1999-06-21,10.7396
1999-06-22,10.5563
1999-06-23,10.315
1999-06-24,10.0159
1999-06-25,9.94837
1999-06-28,9.94837
1999-06-29,10.4308
1999-06-30,10.6721
1999-07-01,10.9808
1999-07-02,10.9133
1999-07-06,11.4633
1999-07-07,10.9133
1999-07-08,11.28
1999-07-09,11.0966
1999-07-12,10.7396
1999-07-13,10.9133
1999-07-14,11.0387
1999-07-15,10.8554
1999-07-16,10.5563
1999-07-19,10.5563
1999-07-20,10.4308
1999-07-21,10.4984
1999-07-22,10.4984
1999-07-23,10.6721
1999-07-26,10.5563
1999-07-27,10.6721
1999-07-28,10.7396
1999-07-29,11.28
1999-07-30,11.1545
1999-08-02,10.8554
1999-08-03,10.7396
1999-08-04,10.5563
1999-08-05,10.8554
1999-08-06,10.7975
1999-08-09,11.2221
1999-08-10,11.0387
1999-08-11,11.5791
1999-08-12,12.1194
1999-08-13,12.187
1999-08-16,11.8203
1999-08-17,12.1194
1999-08-18,11.9458
1999-08-19,12.0037
1999-08-20,12.0037
1999-08-23,11.9458
1999-08-24,11.7624
1999-08-25,11.5212
1999-08-26,11.4633
1999-08-27,10.9808
1999-08-30,10.7975
1999-08-31,11.0966
1999-09-01,10.9808
1999-09-02,10.6142
1999-09-03,10.4984
1999-09-07,10.6142
1999-09-08,10.4308
1999-09-09,10.8554
1999-09-10,10.6142
1999-09-13,10.4308
1999-09-14,10.6142
1999-09-15,10.5563
1999-09-16,10.6142
1999-09-17,10.5563
1999-09-20,10.3729
1999-09-21,10.1317
1999-09-22,10.0738
1999-09-23,9.89047
1999-09-24,9.70714
1999-09-27,9.89047
1999-09-28,9.59134
1999-09-29,9.53345
1999-09-30,10.1896
1999-10-01,10.2571
1999-10-04,10.0159
1999-10-05,9.77468
1999-10-06,10.2571
1999-10-07,9.83257
1999-10-08,9.70714
1999-10-11,10.1317
1999-10-12,10.1896
1999-10-13,10.4984
1999-10-14,10.4984
1999-10-15,10.315
1999-10-18,10.3729
1999-10-19,10.3729
1999-10-20,10.1317
1999-10-21,10.0738
1999-10-22,10.1896
1999-10-25,10.4308
1999-10-26,9.89047
1999-10-27,10.0159
1999-10-28,9.59134
1999-10-29,9.10888
1999-11-01,9.83257
1999-11-02,9.59134
1999-11-03,9.59134
1999-11-04,10.0738
1999-11-05,10.6142
1999-11-08,10.315
1999-11-09,10.315
1999-11-10,9.64924
1999-11-11,9.35011
1999-11-12,9.64924
1999-11-15,9.64924
1999-11-16,9.83257
1999-11-17,9.94837
1999-11-18,9.83257
1999-11-19,9.59134
1999-11-22,9.53345
1999-11-23,8.98344
1999-11-24,8.98344
1999-11-26,8.80976
1999-11-29,8.38519
1999-11-30,8.08606
1999-12-01,8.01852
1999-12-02,8.62642
1999-12-03,8.80976
1999-12-06,8.08606
1999-12-07,7.77729
1999-12-08,8.08606
1999-12-09,7.6036
1999-12-10,7.47816
1999-12-13,7.71939
1999-12-14,7.6036
1999-12-15,7.96062
1999-12-16,8.14396
1999-12-17,8.56853
1999-12-20,8.32729
1999-12-21,7.90273
1999-12-22,7.71939
1999-12-23,7.6036
1999-12-27,7.53606
1999-12-28,7.6615
1999-12-29,8.44308
1999-12-30,8.32729
1999-12-31,8.62642
2000-01-03,8.08606
2000-01-04,8.25975
2000-01-05,8.01852
2000-01-06,8.14396
2000-01-07,8.44308
2000-01-10,8.20185
2000-01-11,8.32729
2000-01-12,7.96062
2000-01-13,8.14396
2000-01-14,8.50098
2000-01-18,8.98344
2000-01-19,8.68432
2000-01-20,8.56853
2000-01-21,9.10888
2000-01-24,9.16678
2000-01-25,9.40801
2000-01-26,9.53345
2000-01-27,8.50098
2000-01-28,8.44308
2000-01-31,8.25975
2000-02-01,8.50098
2000-02-02,8.92555
2000-02-03,8.62642
2000-02-04,8.56853
2000-02-07,8.32729
2000-02-08,8.01852
2000-02-09,7.84483
2000-02-10,8.01852
2000-02-11,7.96062
2000-02-14,7.53606
2000-02-15,7.71939
2000-02-16,7.47816
2000-02-17,7.47816
2000-02-18,6.87991
2000-02-22,7.17903
2000-02-23,7.42027
2000-02-24,7.47816
2000-02-25,7.12114
2000-02-28,7.36237
2000-02-29,8.08606
2000-03-01,8.14396
2000-03-02,8.44308
2000-03-03,7.96062
2000-03-06,7.96062
2000-03-07,8.80976
2000-03-08,8.62642
2000-03-09,9.10888
2000-03-10,8.74221
2000-03-13,8.25975
2000-03-14,8.44308
2000-03-15,8.44308
2000-03-16,8.74221
2000-03-17,8.80976
2000-03-20,8.44308
2000-03-21,8.68432
2000-03-22,8.92555
2000-03-23,8.74221
2000-03-24,9.05099
2000-03-27,8.86765
2000-03-28,8.62642
2000-03-29,8.92555
2000-03-30,9.64924
2000-03-31,10.0159
2000-04-03,9.94837
2000-04-04,9.53345
2000-04-05,9.53345
2000-04-06,9.64924
2000-04-07,9.53345
2000-04-10,8.86765
2000-04-11,8.80976
2000-04-12,9.35011
2000-04-13,9.35011
2000-04-14,9.40801
2000-04-17,9.22467
2000-04-18,9.40801
2000-04-19,9.4659
2000-04-20,9.22467
2000-04-24,9.40801
2000-04-25,9.77468
2000-04-26,9.16678
2000-04-27,9.70714
2000-04-28,10.0159
2000-05-01,10.1317
2000-05-02,10.2571
2000-05-03,10.1896
2000-05-04,11.1545
2000-05-05,11.7045
2000-05-08,11.3379
2000-05-09,11.1545
2000-05-10,11.0387
2000-05-11,11.5791
2000-05-12,11.5212
2000-05-15,12.0616
2000-05-16,12.3028
2000-05-17,13.1519
2000-05-18,12.6695
2000-05-19,12.8431
2000-05-22,12.8431
2000-05-23,12.6695
2000-05-24,12.544
2000-05-25,12.544
2000-05-26,13.5089
2000-05-30,13.6344
2000-05-31,14.416
2000-06-01,13.7502
2000-06-02,13.6344
2000-06-05,13.3256
2000-06-06,13.2677
2000-06-07,13.1519
2000-06-08,13.1519
2000-06-09,13.1519
2000-06-12,13.451
2000-06-13,13.5089
2000-06-14,13.2677
2000-06-15,13.2098
2000-06-16,13.2098
2000-06-19,13.0265
2000-06-20,12.8431
2000-06-21,13.0265
2000-06-22,12.6019
2000-06-23,12.4282
2000-06-26,12.2449
2000-06-27,12.3028
2000-06-28,12.2449
2000-06-29,12.0616
2000-06-30,12.187
2000-07-03,12.544
2000-07-05,11.8203
2000-07-06,11.9458
2000-07-07,11.7624
2000-07-10,11.637
2000-07-11,12.1194
2000-07-12,11.8782
2000-07-13,11.9458
2000-07-14,11.7624
2000-07-17,11.4633
2000-07-18,11.7624
2000-07-19,11.3958
2000-07-20,11.3379
2000-07-21,10.9808
2000-07-24,10.3729
2000-07-25,10.4308
2000-07-26,10.8554
2000-07-27,10.7396
2000-07-28,10.6142
2000-07-31,10.4984
2000-08-01,10.9808
2000-08-02,11.0966
2000-08-03,11.0387
2000-08-04,10.9133
2000-08-07,11.3379
2000-08-08,11.4633
2000-08-09,12.1194
2000-08-10,12.3028
2000-08-11,12.3607
2000-08-14,12.6019
2000-08-15,12.0616
2000-08-16,12.7852
2000-08-17,13.451
2000-08-18,12.9686
2000-08-21,12.9107
2000-08-22,13.0844
2000-08-23,13.3256
2000-08-24,13.3931
2000-08-25,13.1519
2000-08-28,13.3931
2000-08-29,13.5089
2000-08-30,13.2098
2000-08-31,13.3256
2000-09-01,13.8081
2000-09-05,13.5089
2000-09-06,14.0493
2000-09-07,13.9914
2000-09-08,13.6923
2000-09-11,13.9335
2000-09-12,13.9914
2000-09-13,13.9914
2000-09-14,13.9335
2000-09-15,14.1168
2000-09-18,15.1976
2000-09-19,14.9563
2000-09-20,14.773
2000-09-21,13.9914
2000-09-22,13.6923
2000-09-25,13.3256
2000-09-26,13.8081
2000-09-27,13.9335
2000-09-28,13.9914
2000-09-29,13.6344
2000-10-02,13.6344
2000-10-03,13.3256
2000-10-04,13.3931
2000-10-05,13.3931
2000-10-06,13.5089
2000-10-09,13.6923
2000-10-10,13.6344
2000-10-11,13.6923
2000-10-12,13.9914
2000-10-13,13.6344
2000-10-16,13.3931
2000-10-17,13.451
2000-10-18,12.9686
2000-10-19,13.1519
2000-10-20,13.2677
2000-10-23,13.0844
2000-10-24,13.1519
2000-10-25,12.3028
2000-10-26,12.6019
2000-10-27,12.3607
2000-10-30,12.6695
2000-10-31,12.6019
2000-11-01,13.0265
2000-11-02,13.0265
2000-11-03,12.9686
2000-11-06,12.8431
2000-11-07,12.9107
2000-11-08,13.0265
2000-11-09,12.8431
2000-11-10,12.544
2000-11-13,12.1194
2000-11-14,12.3028
2000-11-15,13.3256
2000-11-16,13.8756
2000-11-17,13.451
2000-11-20,13.3256
2000-11-21,13.7502
2000-11-22,13.8756
2000-11-24,14.1168
2000-11-27,13.8756
2000-11-28,13.8756
2000-11-29,13.9335
2000-11-30,13.9914
2000-12-01,14.1168
2000-12-04,14.2905
2000-12-05,14.1747
2000-12-06,14.2326
2000-12-07,14.3581
2000-12-08,14.7151
2000-12-11,14.8984
2000-12-12,14.773
2000-12-13,14.4739
2000-12-14,14.2326
2000-12-15,14.1168
2000-12-18,14.4739
2000-12-19,15.1397
2000-12-20,15.2554
2000-12-21,16.6449
2000-12-22,16.7028
2000-12-26,19.0572
2000-12-27,19.3564
2000-12-28,19.4818
2000-12-29,19.0572
2001-01-02,18.3915
2001-01-03,17.4941
2001-01-04,16.7704
2001-01-05,17.3107
2001-01-08,18.816
2001-01-09,17.9765
2001-01-10,18.7002
2001-01-11,17.7932
2001-01-12,17.7353
2001-01-16,17.4941
2001-01-17,17.1853
2001-01-18,16.2879
2001-01-19,16.4616
2001-01-22,17.0116
2001-01-23,17.1274
2001-01-24,17.6099
2001-01-25,17.3686
2001-01-26,16.9441
2001-01-29,17.7642
2001-01-30,16.8862
2001-01-31,16.8379
2001-02-01,16.6546
2001-02-02,16.8572
2001-02-05,17.3686
2001-02-06,17.5134
2001-02-07,17.9476
2001-02-08,17.4748
2001-02-09,18.3336
2001-02-12,18.0151
2001-02-13,18.2467
2001-02-14,18.1116
2001-02-15,17.3686
2001-02-16,17.7546
2001-02-20,17.3493
2001-02-21,16.7607
2001-02-22,16.3072
2001-02-23,16.4423
2001-02-26,16.7221
2001-02-27,16.259
2001-02-28,16.2493
2001-03-01,16.3748
2001-03-02,16.3458
2001-03-05,17.0309
2001-03-06,16.9344
2001-03-07,19.0958
2001-03-08,19.009
2001-03-09,19.1248
2001-03-12,18.1502
2001-03-13,17.1563
2001-03-14,16.6546
2001-03-15,16.2879
2001-03-16,16.0177
2001-03-19,16.5195
2001-03-20,16.4616
2001-03-21,15.8537
2001-03-22,15.6511
2001-03-23,16.4037
2001-03-26,15.9695
2001-03-27,16.0756
2001-03-28,15.6125
2001-03-29,15.0046
2001-03-30,15.2651
2001-04-02,14.5221
2001-04-03,13.9239
2001-04-04,14.58
2001-04-05,15.7186
2001-04-06,14.966
2001-04-09,15.8537
2001-04-10,16.23
2001-04-11,15.9888
2001-04-12,16.3265
2001-04-16,16.7125
2001-04-17,17.0599
2001-04-18,16.2493
2001-04-19,16.066
2001-04-20,16.8765
2001-04-23,17.1467
2001-04-24,17.5713
2001-04-25,18.9029
2001-04-26,19.3178
2001-04-27,18.8836
2001-04-30,18.4493
2001-05-01,18.1985
2001-05-02,17.3686
2001-05-03,17.8511
2001-05-04,18.6616
2001-05-07,18.1792
2001-05-08,18.0055
2001-05-09,18.2081
2001-05-10,18.1695
2001-05-11,18.2564
2001-05-14,18.9125
2001-05-15,21.4599
2001-05-16,21.2669
2001-05-17,21.2766
2001-05-18,21.8073
2001-05-21,22.0968
2001-05-22,21.6336
2001-05-23,20.8424
2001-05-24,20.7555
2001-05-25,20.7555
2001-05-29,20.466
2001-05-30,19.8871
2001-05-31,20.466
2001-06-01,20.6687
2001-06-04,21.2283
2001-06-05,21.3152
2001-06-06,20.0897
2001-06-07,19.9643
2001-06-08,20.1283
2001-06-11,19.9643
2001-06-12,20.0318
2001-06-13,19.7809
2001-06-14,19.395
2001-06-15,19.559
2001-06-18,19.5494
2001-06-19,19.0669
2001-06-20,18.5748
2001-06-21,17.8704
2001-06-22,17.8028
2001-06-25,17.2432
2001-06-26,17.5037
2001-06-27,16.8958
2001-06-28,16.4037
2001-06-29,16.6932
2001-07-02,16.2107
2001-07-03,16.066
2001-07-05,16.259
2001-07-06,16.423
2001-07-09,15.5932
2001-07-10,15.6414
2001-07-11,14.9274
2001-07-12,14.9467
2001-07-13,15.1493
2001-07-16,14.773
2001-07-17,14.9853
2001-07-18,14.8598
2001-07-19,14.58
2001-07-20,15.4195
2001-07-23,16.0949
2001-07-24,15.4388
2001-07-25,16.1721
2001-07-26,16.6932
2001-07-27,16.7511
2001-07-30,16.4134
2001-07-31,16.4037
2001-08-01,17.0792
2001-08-02,17.3493
2001-08-03,16.6546
2001-08-06,16.5002
2001-08-07,16.7125
2001-08-08,16.1721
2001-08-09,16.1335
2001-08-10,16.7511
2001-08-13,17.0116
2001-08-14,17.5616
2001-08-15,18.5265
2001-08-16,18.5941
2001-08-17,18.3818
2001-08-20,17.9476
2001-08-21,17.5809
2001-08-22,17.6099
2001-08-23,17.8511
2001-08-24,17.4169
2001-08-27,17.1371
2001-08-28,16.7897
2001-08-29,17.2818
2001-08-30,16.9634
2001-08-31,17.002
2001-09-04,17.6581
2001-09-05,17.8511
2001-09-06,17.6678
2001-09-07,18.1695
2001-09-10,17.7642
2001-09-17,17.9476
2001-09-18,16.7125
2001-09-19,15.3809
2001-09-20,15.294
2001-09-21,15.3905
2001-09-24,14.3774
2001-09-25,13.9528
2001-09-26,12.3317
2001-09-27,13.3352
2001-09-28,13.7309
2001-10-01,13.2291
2001-10-02,13.4028
2001-10-03,13.4703
2001-10-04,14.2133
2001-10-05,14.4835
2001-10-08,14.5607
2001-10-09,14.9853
2001-10-10,15.7572
2001-10-11,15.4291
2001-10-12,15.3133
2001-10-15,14.8984
2001-10-16,15.6511
2001-10-17,15.2169
2001-10-18,14.966
2001-10-19,15.4388
2001-10-22,15.4291
2001-10-23,15.2651
2001-10-24,16.0853
2001-10-25,16.6932
2001-10-26,17.359
2001-10-29,16.8958
2001-10-30,16.5388
2001-10-31,16.4327
2001-11-01,16.3941
2001-11-02,16.0563
2001-11-05,15.7862
2001-11-06,16.3748
2001-11-07,16.7028
2001-11-08,16.9827
2001-11-09,17.4072
2001-11-12,17.1853
2001-11-13,17.1467
2001-11-14,16.3941
2001-11-15,14.744
2001-11-16,14.8695
2001-11-19,15.2265
2001-11-20,15.8826
2001-11-21,15.8248
2001-11-23,16.3844
2001-11-26,16.037
2001-11-27,16.0274
2001-11-28,15.6511
2001-11-29,16.0177
2001-11-30,15.9598
2001-12-03,16.5581
2001-12-04,16.8476
2001-12-05,17.4265
2001-12-06,16.8765
2001-12-07,17.1274
2001-12-10,16.8958
2001-12-11,16.6642
2001-12-12,16.6932
2001-12-13,16.4616
2001-12-14,16.8476
2001-12-17,16.8765
2001-12-18,16.9055
2001-12-19,17.6195
2001-12-20,17.5616
2001-12-21,17.7642
2001-12-24,18.43
2001-12-26,18.5555
2001-12-27,18.6616
2001-12-28,18.7292
2001-12-31,18.5941
2002-01-02,17.8993
2002-01-03,17.5906
2002-01-04,17.6002
2002-01-07,17.4362
2002-01-08,17.4555
2002-01-09,16.7607
2002-01-10,16.5484
2002-01-11,16.1625
2002-01-14,15.6028
2002-01-15,16.0274
2002-01-16,16.2204
2002-01-17,16.3941
2002-01-18,16.2107
2002-01-22,15.7862
2002-01-23,16.5774
2002-01-24,16.9537
2002-01-25,17.1178
2002-01-28,16.8958
2002-01-29,16.5098
2002-01-30,16.6932
2002-01-31,17.0309
2002-02-01,17.1563
2002-02-04,16.8476
2002-02-05,16.9344
2002-02-06,16.7414
2002-02-07,16.9827
2002-02-08,17.8125
2002-02-11,17.8704
2002-02-12,17.6292
2002-02-13,17.5134
2002-02-14,17.9283
2002-02-15,17.6388
2002-02-19,17.4651
2002-02-20,17.7739
2002-02-21,17.9958
2002-02-22,18.2274
2002-02-25,18.7678
2002-02-26,18.7099
2002-02-27,18.7967
2002-02-28,19.1055
2002-03-01,19.0476
2002-03-04,19.2502
2002-03-05,19.1827
2002-03-06,19.6844
2002-03-07,20.3888
2002-03-08,19.8967
2002-03-11,20.5529
2002-03-12,20.3888
2002-03-13,19.9643
2002-03-14,20.1959
2002-03-15,20.852
2002-03-18,21.0353
2002-03-19,20.9774
2002-03-20,20.852
2002-03-21,21.2283
2002-03-22,21.0257
2002-03-25,20.4371
2002-03-26,20.4853
2002-03-27,21.3441
2002-03-28,21.4213
2002-04-01,21.7397
2002-04-02,22.309
2002-04-03,21.9424
2002-04-04,21.1415
2002-04-05,20.9678
2002-04-08,21.4213
2002-04-09,20.8424
2002-04-10,21.7976
2002-04-11,21.7687
2002-04-12,20.8231
2002-04-15,21.238
2002-04-16,21.3055
2002-04-17,22.4345
2002-04-18,22.309
2002-04-19,22.4345
2002-04-22,22.4538
2002-04-23,22.4248
2002-04-24,21.9424
2002-04-25,22.8687
2002-04-26,23.0134
2002-04-29,23.1582
2002-04-30,23.2161
2002-05-01,23.5152
2002-05-02,23.6213
2002-05-03,23.8915
2002-05-06,23.2354
2002-05-07,23.1292
2002-05-08,24.0845
2002-05-09,23.2064
2002-05-10,23.2547
2002-05-13,23.7082
2002-05-14,23.8047
2002-05-15,23.467
2002-05-16,23.7371
2002-05-17,23.5731
2002-05-20,23.5924
2002-05-21,23.4091
2002-05-22,23.2257
2002-05-23,23.9301
2002-05-24,23.6406
2002-05-28,23.3126
2002-05-29,23.245
2002-05-30,22.7336
2002-05-31,23.1871
2002-06-03,22.7143
2002-06-04,22.3283
2002-06-05,21.981
2002-06-06,21.952
2002-06-07,22.309
2002-06-10,21.9327
2002-06-11,21.5757
2002-06-12,22.1257
2002-06-13,22.2704
2002-06-14,22.5213
2002-06-17,23.4477
2002-06-18,23.3512
2002-06-19,23.6985
2002-06-20,23.7371
2002-06-21,24.017
2002-06-24,23.8722
2002-06-25,24.374
2002-06-26,24.3547
2002-06-27,24.0073
2002-06-28,24.3161
2002-07-01,24.3933
2002-07-02,23.4573
2002-07-03,23.0327
2002-07-05,23.8336
2002-07-08,22.9073
2002-07-09,22.5503
2002-07-10,22.3669
2002-07-11,22.0003
2002-07-12,21.3055
2002-07-15,20.6397
2002-07-16,20.8231
2002-07-17,21.1801
2002-07-18,21.3248
2002-07-19,20.9389
2002-07-22,20.0704
2002-07-23,19.8388
2002-07-24,20.6976
2002-07-25,20.3502
2002-07-26,21.0739
2002-07-29,22.3573
2002-07-30,22.4634
2002-07-31,23.2547
2002-08-01,22.2222
2002-08-02,21.8073
2002-08-05,20.9099
2002-08-06,21.5468
2002-08-07,21.7397
2002-08-08,22.8301
2002-08-09,23.8915
2002-08-12,23.6985
2002-08-13,23.2064
2002-08-14,23.7854
2002-08-15,24.731
2002-08-16,24.7117
2002-08-19,24.8371
2002-08-20,24.152
2002-08-21,24.538
2002-08-22,24.5959
2002-08-23,24.2389
2002-08-26,24.2968
2002-08-27,24.2678
2002-08-28,23.5152
2002-08-29,23.7275
2002-08-30,24.0363
2002-09-03,23.0617
2002-09-04,23.5345
2002-09-05,24.1134
2002-09-06,24.2292
2002-09-09,24.345
2002-09-10,24.9626
2002-09-11,25.0205
2002-09-12,24.1327
2002-09-13,24.6249
2002-09-16,23.6406
2002-09-17,22.6178
2002-09-18,22.7433
2002-09-19,22.6468
2002-09-20,22.2801
2002-09-23,22.6854
2002-09-24,22.9266
2002-09-25,23.5055
2002-09-26,24.0942
2002-09-27,23.7468
2002-09-30,23.3898
2002-10-01,24.5477
2002-10-02,25.281
2002-10-03,25.4064
2002-10-04,24.924
2002-10-07,24.3547
2002-10-08,24.1713
2002-10-09,24.3643
2002-10-10,24.2775
2002-10-11,24.2389
2002-10-14,25.117
2002-10-15,25.4933
2002-10-16,24.895
2002-10-17,26.188
2002-10-18,26.0819
2002-10-21,26.1591
2002-10-22,24.7503
2002-10-23,25.088
2002-10-24,24.2292
2002-10-25,23.6406
2002-10-28,23.7371
2002-10-29,22.8012
2002-10-30,23.3898
2002-10-31,23.9687
2002-11-01,23.6117
2002-11-04,23.0617
2002-11-05,23.1389
2002-11-06,23.1485
2002-11-07,23.1582
2002-11-08,22.1161
2002-11-11,21.7494
2002-11-12,21.8748
2002-11-13,21.1318
2002-11-14,22.0968
2002-11-15,22.724
2002-11-18,23.2161
2002-11-19,22.9652
2002-11-20,24.4126
2002-11-21,23.5152
2002-11-22,23.1196
2002-11-25,23.2836
2002-11-26,23.1292
2002-11-27,23.5827
2002-11-29,23.795
2002-12-02,24.0845
2002-12-03,24.3547
2002-12-04,24.0556
2002-12-05,24.4608
2002-12-06,25.2135
2002-12-09,24.9047
2002-12-10,24.9915
2002-12-11,24.8854
2002-12-12,25.2038
2002-12-13,25.0591
2002-12-16,25.6187
2002-12-17,25.4933
2002-12-18,25.1556
2002-12-19,24.5091
2002-12-20,24.895
2002-12-23,25.3293
2002-12-24,25.1749
2002-12-26,24.7985
2002-12-27,24.1038
2002-12-30,23.988
2002-12-31,24.3064
2003-01-02,25.0977
2003-01-03,25.0687
2003-01-06,24.9529
2003-01-07,23.7082
2003-01-08,23.2257
2003-01-09,23.8336
2003-01-10,23.4862
2003-01-13,23.3222
2003-01-14,23.2064
2003-01-15,23.9591
2003-01-16,24.7889
2003-01-17,24.5477
2003-01-21,24.1713
2003-01-22,23.8819
2003-01-23,24.1231
2003-01-24,23.7082
2003-01-27,22.5889
2003-01-28,23.0038
2003-01-29,23.2354
2003-01-30,22.9266
2003-01-31,23.4766
2003-02-03,23.3994
2003-02-04,24.1713
2003-02-05,23.7757
2003-02-06,23.9205
2003-02-07,24.0652
2003-02-10,24.3064
2003-02-11,23.9977
2003-02-12,23.5538
2003-02-13,23.1099
2003-02-14,23.467
2003-02-18,23.7275
2003-02-19,23.8819
2003-02-20,24.0556
2003-02-21,24.9336
2003-02-24,26.0915
2003-02-25,26.0047
2003-02-26,25.6863
2003-02-27,25.117
2003-02-28,25.2231
2003-03-03,25.4257
2003-03-04,25.9082
2003-03-05,26.0722
2003-03-06,25.9854
2003-03-07,25.7731
2003-03-10,25.5319
2003-03-11,25.1845
2003-03-12,24.5766
2003-03-13,24.3257
2003-03-14,23.9784
2003-03-17,23.3994
2003-03-18,23.8433
2003-03-19,24.1038
2003-03-20,24.5959
2003-03-21,24.1424
2003-03-24,23.8819
2003-03-25,24.374
2003-03-26,24.2003
2003-03-27,24.3547
2003-03-28,24.3064
2003-03-31,24.1617
2003-04-01,25.3871
2003-04-02,25.6573
2003-04-03,24.9626
2003-04-04,25.1266
2003-04-07,24.895
2003-04-08,24.6152
2003-04-09,24.6828
2003-04-10,25.1363
2003-04-11,24.6635
2003-04-14,24.8661
2003-04-15,25.0398
2003-04-16,24.9336
2003-04-17,24.7503
2003-04-21,24.9722
2003-04-22,24.8275
2003-04-23,24.6345
2003-04-24,24.3257
2003-04-25,23.9398
2003-04-28,23.8722
2003-04-29,22.7047
2003-04-30,23.052
2003-05-01,23.2257
2003-05-02,23.5827
2003-05-05,23.1582
2003-05-06,22.7722
2003-05-07,22.7722
2003-05-08,22.9652
2003-05-09,22.7819
2003-05-12,22.8398
2003-05-13,23.5924
2003-05-14,24.0073
2003-05-15,24.0749
2003-05-16,24.2678
2003-05-19,23.6406
2003-05-20,23.3415
2003-05-21,24.7117
2003-05-22,24.6731
2003-05-23,25.2617
2003-05-27,25.5994
2003-05-28,24.7696
2003-05-29,24.5091
2003-05-30,25.8117
2003-06-02,25.667
2003-06-03,25.7249
2003-06-04,25.8986
2003-06-05,25.6959
2003-06-06,25.638
2003-06-09,25.4836
2003-06-10,26.0529
2003-06-11,27.0468
2003-06-12,26.8442
2003-06-13,26.0626
2003-06-16,25.8214
2003-06-17,25.2907
2003-06-18,24.924
2003-06-19,25.7249
2003-06-20,25.7056
2003-06-23,25.6863
2003-06-24,25.281
2003-06-25,25.5994
2003-06-26,25.4547
2003-06-27,25.3582
2003-06-30,25.2521
2003-07-01,25.3003
2003-07-02,25.0301
2003-07-03,25.3871
2003-07-07,25.0301
2003-07-08,24.8178
2003-07-09,24.9626
2003-07-10,24.2196
2003-07-11,24.1231
2003-07-14,23.988
2003-07-15,23.7854
2003-07-16,23.7178
2003-07-17,23.4477
2003-07-18,24.0266
2003-07-21,23.8047
2003-07-22,23.7178
2003-07-23,23.3222
2003-07-24,23.1582
2003-07-25,23.2064
2003-07-28,22.8687
2003-07-29,22.5599
2003-07-30,22.3862
2003-07-31,23.1582
2003-08-01,22.8205
2003-08-04,22.338
2003-08-05,22.0003
2003-08-06,22.8687
2003-08-07,23.5441
2003-08-08,23.7468
2003-08-11,24.6152
2003-08-12,24.6828
2003-08-13,24.6056
2003-08-14,24.181
2003-08-15,24.7792
2003-08-18,24.7021
2003-08-19,24.3161
2003-08-20,24.6056
2003-08-21,25.0494
2003-08-22,24.8757
2003-08-25,24.5863
2003-08-26,24.1424
2003-08-27,24.0749
2003-08-28,24.3064
2003-08-29,24.4222
2003-09-02,24.3064
2003-09-03,24.2775
2003-09-04,24.1231
2003-09-05,24.0266
2003-09-08,24.2871
2003-09-09,24.152
2003-09-10,24.2292
2003-09-11,23.8722
2003-09-12,23.6213
2003-09-15,23.4959
2003-09-16,23.4766
2003-09-17,23.1485
2003-09-18,23.6985
2003-09-19,24.1713
2003-09-22,23.9977
2003-09-23,24.2196
2003-09-24,24.6056
2003-09-25,24.3933
2003-09-26,24.2196
2003-09-29,24.5091
2003-09-30,24.6345
2003-10-01,24.8854
2003-10-02,25.2714
2003-10-03,25.6766
2003-10-06,25.8117
2003-10-07,25.831
2003-10-08,25.5705
2003-10-09,25.3775
2003-10-10,25.8021
2003-10-13,25.4257
2003-10-14,25.1845
2003-10-15,24.538
2003-10-16,25.088
2003-10-17,24.6538
2003-10-20,24.7021
2003-10-21,24.7503
2003-10-22,24.8371
2003-10-23,24.8371
2003-10-24,24.7985
2003-10-27,24.5187
2003-10-28,24.8178
2003-10-29,25.3389
2003-10-30,25.0977
2003-10-31,25.474
2003-11-03,25.5415
2003-11-04,25.281
2003-11-05,25.31
2003-11-06,25.3871
2003-11-07,25.5029
2003-11-10,25.6477
2003-11-11,25.5415
2003-11-12,25.9372
2003-11-13,26.217
2003-11-14,26.1494
2003-11-17,25.8696
2003-11-18,26.1687
2003-11-19,26.024
2003-11-20,26.1108
2003-11-21,25.8986
2003-11-24,26.217
2003-11-25,26.4968
2003-11-26,27.1337
2003-11-28,27.3652
2003-12-01,27.5968
2003-12-02,27.7995
2003-12-03,27.7995
2003-12-04,28.4653
2003-12-05,28.5135
2003-12-08,29.0153
2003-12-09,28.6582
2003-12-10,28.2723
2003-12-11,28.8512
2003-12-12,29.2661
2003-12-15,28.9091
2003-12-16,29.6811
2003-12-17,30.067
2003-12-18,31.3118
2003-12-19,31.0609
2003-12-22,30.3662
2003-12-23,30.1925
2003-12-24,30.6074
2003-12-26,31.0223
2003-12-29,31.582
2003-12-30,31.5916
2003-12-31,30.8583
2004-01-02,30.7811
2004-01-05,31.5916
2004-01-06,31.3407
2004-01-07,30.8969
2004-01-08,30.8293
2004-01-09,31.4758
2004-01-12,31.746
2004-01-13,31.5627
2004-01-14,31.553
2004-01-15,31.1188
2004-01-16,31.0802
2004-01-20,31.8907
2004-01-21,31.8425
2004-01-22,31.8039
2004-01-23,32.7206
2004-01-26,32.6434
2004-01-27,32.3539
2004-01-28,31.6013
2004-01-29,31.2539
2004-01-30,30.8197
2004-02-02,30.4916
2004-02-03,30.26
2004-02-04,29.7872
2004-02-05,28.8802
2004-02-06,29.0249
2004-02-09,29.4881
2004-02-10,29.9416
2004-02-11,30.2214
2004-02-12,29.9898
2004-02-13,29.739
2004-02-17,29.8933
2004-02-18,29.5653
2004-02-19,29.2372
2004-02-20,29.0442
2004-02-23,29.2468
2004-02-24,29.4302
2004-02-25,29.9705
2004-02-26,30.4819
2004-02-27,30.9644
2004-03-01,31.8907
2004-03-02,31.8039
2004-03-03,31.9004
2004-03-04,31.8328
2004-03-05,32.5179
2004-03-08,32.6434
2004-03-09,32.3925
2004-03-10,31.8039
2004-03-11,31.4372
2004-03-12,32.0162
2004-03-15,32.2671
2004-03-16,31.7556
2004-03-17,32.325
2004-03-18,32.4793
2004-03-19,31.9872
2004-03-22,31.4469
2004-03-23,31.2539
2004-03-24,30.4241
2004-03-25,30.6373
2004-03-26,31.1794
2004-03-29,32.0506
2004-03-30,31.2762
2004-03-31,31.3052
2004-04-01,30.5018
2004-04-02,30.4437
2004-04-05,30.8115
2004-04-06,30.3275
2004-04-07,30.4437
2004-04-08,30.889
2004-04-12,31.9247
2004-04-13,31.5859
2004-04-14,31.7795
2004-04-15,32.8831
2004-04-16,33.2993
2004-04-19,33.2509
2004-04-20,32.1474
2004-04-21,32.5733
2004-04-22,32.9605
2004-04-23,32.7185
2004-04-26,32.9702
2004-04-27,33.4445
2004-04-28,32.6604
2004-04-29,31.6634
2004-04-30,31.6634
2004-05-03,32.583
2004-05-04,31.5472
2004-05-05,31.4311
2004-05-06,30.5986
2004-05-07,29.224
2004-05-10,28.7303
2004-05-11,30.0565
2004-05-12,30.2307
2004-05-13,29.6015
2004-05-14,30.1727
2004-05-17,30.5502
2004-05-18,29.7371
2004-05-19,29.5241
2004-05-20,29.4176
2004-05-21,29.0595
2004-05-24,30.4147
2004-05-25,30.8599
2004-05-26,30.4824
2004-05-27,29.8145
2004-05-28,29.8823
2004-06-01,30.3372
2004-06-02,30.1146
2004-06-03,29.5435
2004-06-04,29.5241
2004-06-07,30.0371
2004-06-08,30.2985
2004-06-09,30.5405
2004-06-10,31.3052
2004-06-14,30.8212
2004-06-15,31.8183
2004-06-16,32.6023
2004-06-17,33.0089
2004-06-18,33.2412
2004-06-21,33.0767
2004-06-22,33.3768
2004-06-23,33.7543
2004-06-24,33.4736
2004-06-25,33.8414
2004-06-28,33.0767
2004-06-29,33.6091
2004-06-30,33.9576
2004-07-01,33.6865
2004-07-02,33.9479
2004-07-06,33.8704
2004-07-07,34.0737
2004-07-08,33.9672
2004-07-09,34.1221
2004-07-12,34.1221
2004-07-13,33.7833
2004-07-14,33.8995
2004-07-15,33.9576
2004-07-16,35.1966
2004-07-19,35.6612
2004-07-20,35.6806
2004-07-21,35.4289
2004-07-22,35.3321
2004-07-23,34.761
2004-07-26,33.7543
2004-07-27,34.49
2004-07-28,34.6836
2004-07-29,34.8191
2004-07-30,34.8481
2004-08-02,34.1802
2004-08-03,34.5964
2004-08-04,32.9218
2004-08-05,31.3923
2004-08-06,30.9761
2004-08-09,32.1764
2004-08-10,31.6731
2004-08-11,31.4988
2004-08-12,30.405
2004-08-13,31.1503
2004-08-16,31.1987
2004-08-17,30.2404
2004-08-18,30.8503
2004-08-19,30.7438
2004-08-20,31.7408
2004-08-23,31.2278
2004-08-24,30.8406
2004-08-25,31.0535
2004-08-26,31.3633
2004-08-27,32.2829
2004-08-30,31.6053
2004-08-31,32.4087
2004-09-01,33.28
2004-09-02,33.1928
2004-09-03,33.2219
2004-09-07,31.8376
2004-09-08,31.373
2004-09-09,31.8763
2004-09-10,31.2955
2004-09-13,30.9955
2004-09-14,30.9083
2004-09-15,30.5889
2004-09-16,30.5599
2004-09-17,30.9567
2004-09-20,31.0051
2004-09-21,32.4475
2004-09-22,32.4571
2004-09-23,32.1377
2004-09-24,32.583
2004-09-27,33.0781
2004-09-28,33.6703
2004-09-29,32.816
2004-09-30,33.4762
2004-10-01,33.9131
2004-10-04,34.2529
2004-10-05,34.3597
2004-10-06,34.9131
2004-10-07,34.6509
2004-10-08,33.7869
2004-10-11,33.3402
2004-10-12,32.9519
2004-10-13,31.9033
2004-10-14,32.0587
2004-10-15,31.5344
2004-10-18,30.7189
2004-10-19,30.4373
2004-10-20,31.0101
2004-10-21,31.8936
2004-10-22,32.0684
2004-10-25,32.0587
2004-10-26,32.7868
2004-10-27,31.5538
2004-10-28,31.2237
2004-10-29,31.4567
2004-11-01,31.5538
2004-11-02,31.1849
2004-11-03,31.9422
2004-11-04,32.3305
2004-11-05,32.4179
2004-11-08,32.0393
2004-11-09,31.8257
2004-11-10,32.2626
2004-11-11,32.2626
2004-11-12,32.9033
2004-11-15,32.1363
2004-11-16,32.0198
2004-11-17,32.3791
2004-11-18,33.0101
2004-11-19,33.4956
2004-11-22,34.1072
2004-11-23,34.2723
2004-11-24,34.7383
2004-11-26,34.8354
2004-11-29,34.583
2004-11-30,34.214
2004-12-01,33.5635
2004-12-02,33.0199
2004-12-03,33.447
2004-12-06,33.1558
2004-12-07,32.8742
2004-12-08,32.9422
2004-12-09,33.1752
2004-12-10,32.8548
2004-12-13,33.6218
2004-12-14,33.5927
2004-12-15,33.8257
2004-12-16,33.4179
2004-12-17,33.4762
2004-12-20,33.6121
2004-12-21,34.0102
2004-12-22,33.5344
2004-12-23,33.6801
2004-12-27,33.4665
2004-12-28,33.6801
2004-12-29,33.9228
2004-12-30,33.9907
2004-12-31,34.0684
2005-01-03,33.1364
2005-01-04,32.9325
2005-01-05,32.214
2005-01-06,32.5538
2005-01-07,32.3014
2005-01-10,32.6218
2005-01-11,32.8936
2005-01-12,32.816
2005-01-13,33.3791
2005-01-14,34.4568
2005-01-18,35.1655
2005-01-19,34.6218
2005-01-20,34.6315
2005-01-21,34.7092
2005-01-24,35.0976
2005-01-25,34.9034
2005-01-26,35.2529
2005-01-27,37.3888
2005-01-28,36.7772
2005-01-31,37.2626
2005-02-01,37.7092
2005-02-02,38.3306
2005-02-03,38.2529
2005-02-04,38.5539
2005-02-07,37.9811
2005-02-08,37.9908
2005-02-09,37.35
2005-02-10,37.8452
2005-02-11,37.9131
2005-02-14,38.0199
2005-02-15,38.3015
2005-02-16,39.1267
2005-02-17,38.4665
2005-02-18,38.952
2005-02-22,39.1753
2005-02-23,39.6219
2005-02-24,40.9908
2005-02-25,41.486
2005-02-28,40.952
2005-03-01,40.7287
2005-03-02,41.8646
2005-03-03,42.1947
2005-03-04,43.4083
2005-03-07,43.0782
2005-03-08,42.1171
2005-03-09,41.117
2005-03-10,40.5831
2005-03-11,41.1559
2005-03-14,42.0879
2005-03-15,41.5637
2005-03-16,41.0491
2005-03-17,41.9423
2005-03-18,42.3015
2005-03-21,41.7772
2005-03-22,41.3598
2005-03-23,40.0782
2005-03-24,40.7869
2005-03-28,40.2918
2005-03-29,39.4939
2005-03-30,40.3212
2005-03-31,41.5572
2005-04-01,43.0462
2005-04-04,43.163
2005-04-05,43.2603
2005-04-06,43.747
2005-04-07,43.2117
2005-04-08,42.1022
2005-04-11,42.6277
2005-04-12,41.8978
2005-04-13,40.7299
2005-04-14,41.5182
2005-04-15,40.0681
2005-04-18,41.1387
2005-04-19,41.9173
2005-04-20,41.0511
2005-04-21,41.9562
2005-04-22,41.9951
2005-04-25,42.8905
2005-04-26,42.3552
2005-04-27,41.3917
2005-04-28,40.4574
2005-04-29,39.5426
2005-05-02,39.7567
2005-05-03,37.8589
2005-05-04,37.5474
2005-05-05,37.3723
2005-05-06,37.0998
2005-05-09,37.3723
2005-05-10,36.7883
2005-05-11,37.129
2005-05-12,36.1363
2005-05-13,36.253
2005-05-16,37.0414
2005-05-17,37.7616
2005-05-18,38.2968
2005-05-19,38.871
2005-05-20,38.2579
2005-05-23,38.1898
2005-05-24,38.8224
2005-05-25,38.9294
2005-05-26,38.8419
2005-05-27,39.2117
2005-05-31,39.1144
2005-06-01,39.7275
2005-06-02,39.7956
2005-06-03,39.9903
2005-06-06,40.2238
2005-06-07,39.0852
2005-06-08,39.7567
2005-06-09,40.5255
2005-06-10,40.5353
2005-06-13,40.8856
2005-06-14,40.7981
2005-06-15,40.7786
2005-06-16,41.2263
2005-06-17,41.7616
2005-06-20,41.781
2005-06-21,41.0414
2005-06-22,41.0122
2005-06-23,40.8759
2005-06-24,40.8564
2005-06-27,41.4793
2005-06-28,40.7397
2005-06-29,41.0608
2005-06-30,40.983
2005-07-01,42.1314
2005-07-05,43.2214
2005-07-06,42.7153
2005-07-07,42.1509
2005-07-08,41.4209
2005-07-11,41.5864
2005-07-12,42.1995
2005-07-13,42.4526
2005-07-14,41.2555
2005-07-15,41.0998
2005-07-18,41.09
2005-07-19,41.528
2005-07-20,41.4404
2005-07-21,40.8273
2005-07-22,42.1314
2005-07-25,41.9173
2005-07-26,41.8881
2005-07-27,41.9465
2005-07-28,41.9854
2005-07-29,42.1703
2005-08-01,42.8613
2005-08-02,41.3333
2005-08-03,39.5231
2005-08-04,39.5328
2005-08-05,38.764
2005-08-08,39.6594
2005-08-09,39.8443
2005-08-10,40.944
2005-08-11,41.6934
2005-08-12,42.1022
2005-08-15,43.8637
2005-08-16,43.4647
2005-08-17,42.365
2005-08-18,42.7348
2005-08-19,43.8637
2005-08-22,43.8929
2005-08-23,44.0487
2005-08-24,44.5353
2005-08-25,45.0608
2005-08-26,46.2968
2005-08-29,46.5207
2005-08-30,47.056
2005-08-31,48.0973
2005-09-01,52.2628
2005-09-02,50.3747
2005-09-06,50.5888
2005-09-07,49.8783
2005-09-08,49.7421
2005-09-09,50.5207
2005-09-12,49.8978
2005-09-13,49.6642
2005-09-14,50.5888
2005-09-15,50.9392
2005-09-16,50.5693
2005-09-19,52.8564
2005-09-20,52.1655
2005-09-21,52.5937
2005-09-22,52.2822
2005-09-23,51.9708
2005-09-26,52.8467
2005-09-27,52.5645
2005-09-28,53.7056
2005-09-29,54.798
2005-09-30,53.569
2005-10-03,54.4274
2005-10-04,53.2081
2005-10-05,50.6038
2005-10-06,48.0678
2005-10-07,49.4529
2005-10-10,48.653
2005-10-11,50.36
2005-10-12,48.5945
2005-10-13,47.7166
2005-10-14,49.3748
2005-10-17,50.7306
2005-10-18,48.5945
2005-10-19,48.1263
2005-10-20,44.8685
2005-10-21,45.5708
2005-10-24,47.6679
2005-10-25,49.2675
2005-10-26,48.9847
2005-10-27,47.1899
2005-10-28,48.7701
2005-10-31,48.8286
2005-11-01,49.4041
2005-11-02,50.0186
2005-11-03,49.8333
2005-11-04,48.0873
2005-11-07,46.5364
2005-11-08,46.9168
2005-11-09,46.5754
2005-11-10,45.4732
2005-11-11,46.2243
2005-11-14,46.7315
2005-11-15,46.9071
2005-11-16,49.3358
2005-11-17,48.9847
2005-11-18,49.0432
2005-11-21,50.8379
2005-11-22,51.706
2005-11-23,51.4914
2005-11-25,52.5644
2005-11-28,50.2332
2005-11-29,50.321
2005-11-30,49.7455
2005-12-01,50.4575
2005-12-02,50.0674
2005-12-05,50.6623
2005-12-06,50.5258
2005-12-07,50.2234
2005-12-08,51.4329
2005-12-09,50.321
2005-12-12,52.3205
2005-12-13,52.4766
2005-12-14,52.7985
2005-12-15,52.818
2005-12-16,50.6428
2005-12-19,50.2624
2005-12-20,51.1208
2005-12-21,51.4719
2005-12-22,51.628
2005-12-23,50.7794
2005-12-27,49.3651
2005-12-28,50.4087
2005-12-29,49.7357
2005-12-30,49.9893
2006-01-03,51.6085
2006-01-04,52.4083
2006-01-05,51.1988
2006-01-06,51.9889
2006-01-09,51.8816
2006-01-10,51.9304
2006-01-11,51.0037
2006-01-12,50.0478
2006-01-13,50.3892
2006-01-17,51.6475
2006-01-18,50.4087
2006-01-19,51.2086
2006-01-20,50.7599
2006-01-23,50.955
2006-01-24,51.3549
2006-01-25,49.209
2006-01-26,48.8091
2006-01-27,49.2968
2006-01-30,50.7111
2006-01-31,51.7938
2006-02-01,51.2086
2006-02-02,50.6331
2006-02-03,50.7794
2006-02-06,51.4719
2006-02-07,49.0042
2006-02-08,47.7557
2006-02-09,44.1369
2006-02-10,43.7077
2006-02-13,42.547
2006-02-14,42.43
2006-02-15,41.5619
2006-02-16,43.3078
2006-02-17,43.2493
2006-02-21,43.4931
2006-02-22,41.7862
2006-02-23,42.3617
2006-02-24,41.9715
2006-02-27,40.8693
2006-02-28,41.1229
2006-03-01,41.2107
2006-03-02,42.7226
2006-03-03,42.9274
2006-03-06,40.4792
2006-03-07,40.1475
2006-03-08,40.3914
2006-03-09,39.0063
2006-03-10,38.226
2006-03-13,38.9088
2006-03-14,39.572
2006-03-15,38.4308
2006-03-16,39.0551
2006-03-17,38.4211
2006-03-20,37.7773
2006-03-21,37.4359
2006-03-22,38.2357
2006-03-23,38.899
2006-03-24,41.952
2006-03-27,41.7467
2006-03-28,42.4216
2006-03-29,42.9106
2006-03-30,42.7835
2006-03-31,43.2138
2006-04-03,43.4388
2006-04-04,43.1356
2006-04-05,43.5268
2006-04-06,43.654
2006-04-07,43.3997
2006-04-10,43.253
2006-04-11,42.7933
2006-04-12,42.0107
2006-04-13,41.3456
2006-04-17,42.3922
2006-04-18,43.8203
2006-04-19,43.7909
2006-04-20,43.4584
2006-04-21,44.2311
2006-04-24,43.4877
2006-04-25,43.3214
2006-04-26,41.8445
2006-04-27,41.0717
2006-04-28,41.8151
2006-05-01,42.0988
2006-05-02,41.8347
2006-05-03,41.1304
2006-05-04,40.8859
2006-05-05,41.4728
2006-05-08,40.8663
2006-05-09,40.7294
2006-05-10,40.5925
2006-05-11,40.6609
2006-05-12,39.3894
2006-05-15,38.4797
2006-05-16,39.4187
2006-05-17,38.4601
2006-05-18,38.8025
2006-05-19,39.1644
2006-05-22,38.8514
2006-05-23,38.734
2006-05-24,38.3525
2006-05-25,38.8514
2006-05-26,39.2524
2006-05-30,38.6362
2006-05-31,39.9273
2006-06-01,39.6143
2006-06-02,39.8491
2006-06-05,38.4797
2006-06-06,38.9296
2006-06-07,37.9515
2006-06-08,37.8048
2006-06-09,37.8146
2006-06-12,37.4429
2006-06-13,35.7409
2006-06-14,36.8169
2006-06-15,38.822
2006-06-16,43.3312
2006-06-19,41.6782
2006-06-20,40.4555
2006-06-21,40.4751
2006-06-22,40.6707
2006-06-23,42.627
2006-06-26,42.9693
2006-06-27,43.1747
2006-06-28,43.9572
2006-06-29,45.5614
2006-06-30,45.3657
2006-07-03,45.6396
2006-07-05,44.9256
2006-07-06,45.1701
2006-07-07,44.0844
2006-07-10,44.2507
2006-07-11,44.1333
2006-07-12,43.967
2006-07-13,43.7323
2006-07-14,43.6149
2006-07-17,42.4802
2006-07-18,42.0499
2006-07-19,42.6563
2006-07-20,41.5999
2006-07-21,40.8174
2006-07-24,42.0107
2006-07-25,42.7052
2006-07-26,43.6931
2006-07-27,43.3703
2006-07-28,43.3312
2006-07-31,44.3289
2006-08-01,44.3387
2006-08-02,44.4561
2006-08-03,43.9279
2006-08-04,43.4779
2006-08-07,43.654
2006-08-08,43.0965
2006-08-09,43.5758
2006-08-10,42.9302
2006-08-11,42.3531
2006-08-14,41.7956
2006-08-15,41.0815
2006-08-16,41.2282
2006-08-17,40.8468
2006-08-18,40.8174
2006-08-21,41.0815
2006-08-22,41.7075
2006-08-23,40.8663
2006-08-24,41.4826
2006-08-25,41.9716
2006-08-28,41.2674
2006-08-29,41.0913
2006-08-30,40.7392
2006-08-31,40.749
2006-09-01,41.5119
2006-09-05,41.5804
2006-09-06,40.7294
2006-09-07,40.5827
2006-09-08,39.1253
2006-09-11,38.3721
2006-09-12,38.1569
2006-09-13,38.4797
2006-09-14,37.4331
2006-09-15,37.7657
2006-09-18,38.1373
2006-09-19,37.3646
2006-09-20,36.6701
2006-09-21,37.257
2006-09-22,37.0321
2006-09-25,37.0027
2006-09-26,38.0136
2006-09-27,38.2884
2006-09-28,38.0627
2006-09-29,38.3964
2006-10-02,37.5817
2006-10-03,36.2862
2006-10-04,36.453
2006-10-05,36.6984
2006-10-06,37.0321
2006-10-09,37.0419
2006-10-10,37.6406
2006-10-11,37.2677
2006-10-12,38.2786
2006-10-13,38.7105
2006-10-16,39.5447
2006-10-17,39.2699
2006-10-18,39.7999
2006-10-19,40.5655
2006-10-20,39.9472
2006-10-23,40.1631
2006-10-24,40.6637
2006-10-25,41.7433
2006-10-26,41.3016
2006-10-27,40.7913
2006-10-30,40.1336
2006-10-31,39.9079
2006-11-01,39.6429
2006-11-02,40.1336
2006-11-03,41.0464
2006-11-06,41.0955
2006-11-07,40.8894
2006-11-08,41.3115
2006-11-09,41.3703
2006-11-10,40.4772
2006-11-13,39.8785
2006-11-14,40.0748
2006-11-15,40.2612
2006-11-16,39.4564
2006-11-17,40.3496
2006-11-20,40.6538
2006-11-21,41.0366
2006-11-22,40.8698
2006-11-24,40.7814
2006-11-27,40.9287
2006-11-28,41.3507
2006-11-29,43.4708
2006-11-30,42.715
2006-12-01,43.5198
2006-12-04,42.5187
2006-12-05,42.7346
2006-12-06,42.6168
2006-12-07,42.7444
2006-12-08,42.2046
2006-12-11,42.0181
2006-12-12,41.7139
2006-12-13,42.4304
2006-12-14,42.4009
2006-12-15,41.2329
2006-12-18,40.0748
2006-12-19,40.2711
2006-12-20,40.0061
2006-12-21,39.6527
2006-12-22,39.4172
2006-12-26,38.9264
2006-12-27,39.3288
2006-12-28,39.2012
2006-12-29,38.897
2007-01-03,37.9351
2007-01-04,37.464
2007-01-05,37.3364
2007-01-08,37.7682
2007-01-09,37.9645
2007-01-10,37.2186
2007-01-11,36.8652
2007-01-12,37.7584
2007-01-16,37.464
2007-01-17,37.9842
2007-01-18,37.7682
2007-01-19,38.6123
2007-01-22,38.5338
2007-01-23,39.5251
2007-01-24,39.8196
2007-01-25,39.0147
2007-01-26,38.5829
2007-01-29,38.4945
2007-01-30,39.6723
2007-01-31,40.2318
2007-02-01,40.3987
2007-02-02,40.4281
2007-02-05,40.3005
2007-02-06,40.2416
2007-02-07,39.1423
2007-02-08,39.6625
2007-02-09,39.4564
2007-02-12,38.8577
2007-02-13,39.6036
2007-02-14,39.2208
2007-02-15,39.0245
2007-02-16,39.6036
2007-02-20,38.789
2007-02-21,39.2503
2007-02-22,39.5938
2007-02-23,39.1325
2007-02-26,39.1718
2007-02-27,38.0823
2007-02-28,37.7584
2007-03-01,38.0823
2007-03-02,37.0812
2007-03-05,37.091
2007-03-06,36.8849
2007-03-07,37.6014
2007-03-08,37.3069
2007-03-09,37.4934
2007-03-12,37.6799
2007-03-13,37.4934
2007-03-14,38.0823
2007-03-15,38.151
2007-03-16,37.5425
2007-03-19,38.2688
2007-03-20,38.3375
2007-03-21,38.5731
2007-03-22,39.1129
2007-03-23,39.1325
2007-03-26,39.7803
2007-03-27,40.5753
2007-03-28,40.9791
2007-03-29,41.0973
2007-03-30,42.4561
2007-04-02,42.6431
2007-04-03,42.9385
2007-04-04,44.8486
2007-04-05,45.6462
2007-04-09,45.5083
2007-04-10,46.5618
2007-04-11,46.1089
2007-04-12,46.7489
2007-04-13,46.7095
2007-04-16,47.2806
2007-04-17,46.3748
2007-04-18,45.6659
2007-04-19,45.6068
2007-04-20,45.9317
2007-04-23,49.3286
2007-04-24,48.9938
2007-04-25,49.6043
2007-04-26,49.5058
2007-04-27,49.3384
2007-04-30,49.5058
2007-05-01,49.6338
2007-05-02,50.392
2007-05-03,50.6283
2007-05-04,50.0867
2007-05-07,48.8855
2007-05-08,48.5507
2007-05-09,48.4917
2007-05-10,47.1132
2007-05-11,48.5015
2007-05-14,47.96
2007-05-15,47.6843
2007-05-16,47.5858
2007-05-17,48.3932
2007-05-18,48.5212
2007-05-21,49.2301
2007-05-22,49.0923
2007-05-23,49.0923
2007-05-24,48.2947
2007-05-25,48.8264
2007-05-29,48.8363
2007-05-30,50.264
2007-05-31,50.8153
2007-06-01,50.6972
2007-06-04,51.859
2007-06-05,51.9378
2007-06-06,50.835
2007-06-07,49.6535
2007-06-08,49.5255
2007-06-11,50.4215
2007-06-12,50.1064
2007-06-13,51.2486
2007-06-14,52.2922
2007-06-15,52.9224
2007-06-18,53.3261
2007-06-19,52.6467
2007-06-20,51.4258
2007-06-21,52.4005
2007-06-22,51.2879
2007-06-25,49.9489
2007-06-26,48.2357
2007-06-27,48.6984
2007-06-28,47.7926
2007-06-29,47.8911
2007-07-02,47.9403
2007-07-03,48.344
2007-07-05,48.0584
2007-07-06,48.4621
2007-07-09,48.9446
2007-07-10,48.1372
2007-07-11,48.1569
2007-07-12,48.472
2007-07-13,48.5803
2007-07-16,47.4086
2007-07-17,47.2609
2007-07-18,48.4818
2007-07-19,48.7181
2007-07-20,47.9403
2007-07-23,47.448
2007-07-24,45.2819
2007-07-25,46.2862
2007-07-26,45.656
2007-07-27,45.4985
2007-07-30,45.0554
2007-07-31,44.8191
2007-08-01,45.4492
2007-08-02,45.784
2007-08-03,43.9625
2007-08-06,43.0862
2007-08-07,41.8751
2007-08-08,41.8259
2007-08-09,41.3139
2007-08-10,40.6838
2007-08-13,42.1114
2007-08-14,41.4222
2007-08-15,40.221
2007-08-16,39.9749
2007-08-17,40.9398
2007-08-20,40.2112
2007-08-21,40.5755
2007-08-22,41.1367
2007-08-23,40.1324
2007-08-24,40.6444
2007-08-27,40.2604
2007-08-28,39.5712
2007-08-29,40.4179
2007-08-30,40.1422
2007-08-31,40.3884
2007-09-04,41.6782
2007-09-05,42.1705
2007-09-06,42.7022
2007-09-07,42.2296
2007-09-10,42.6628
2007-09-11,43.4013
2007-09-12,43.8443
2007-09-13,43.4308
2007-09-14,43.4604
2007-09-17,44.0511
2007-09-18,44.7699
2007-09-19,44.6517
2007-09-20,44.6911
2007-09-21,44.9668
2007-09-24,44.6222
2007-09-25,44.1693
2007-09-26,43.7547
2007-09-27,44.693
2007-09-28,44.3473
2007-10-01,44.8411
2007-10-02,44.7127
2007-10-03,44.3078
2007-10-04,45.1671
2007-10-05,45.3547
2007-10-08,45.0387
2007-10-09,45.9276
2007-10-10,46.3523
2007-10-11,46.4609
2007-10-12,47.0634
2007-10-15,47.6363
2007-10-16,48.1499
2007-10-17,47.9919
2007-10-18,48.8413
2007-10-19,47.0338
2007-10-22,46.5301
2007-10-23,46.4609
2007-10-24,46.5696
2007-10-25,47.0733
2007-10-26,48.4462
2007-10-29,49.2166
2007-10-30,49.0388
2007-10-31,50.303
2007-11-01,49.6512
2007-11-02,51.1821
2007-11-05,50.9846
2007-11-06,53.7007
2007-11-07,52.7229
2007-11-08,52.5747
2007-11-09,50.7179
2007-11-12,47.6955
2007-11-13,50.066
2007-11-14,49.8092
2007-11-15,49.1376
2007-11-16,49.3746
2007-11-19,48.6931
2007-11-20,47.0042
2007-11-21,45.6905
2007-11-23,45.8584
2007-11-26,44.8411
2007-11-27,43.8337
2007-11-28,42.9843
2007-11-29,43.7448
2007-11-30,43.9522
2007-12-03,43.7152
2007-12-04,43.8337
2007-12-05,45.3745
2007-12-06,46.4313
2007-12-07,46.1152
2007-12-10,46.5597
2007-12-11,45.9078
2007-12-12,47.0338
2007-12-13,46.6288
2007-12-14,46.2239
2007-12-17,45.7992
2007-12-18,45.9967
2007-12-19,45.7597
2007-12-20,46.0757
2007-12-21,47.5573
2007-12-24,47.498
2007-12-26,47.7153
2007-12-27,48.1104
2007-12-28,48.6339
2007-12-31,48.1894
2008-01-02,48.6536
2008-01-03,48.8907
2008-01-04,47.4387
2008-01-07,46.7375
2008-01-08,46.056
2008-01-09,46.9745
2008-01-10,46.1251
2008-01-11,46.8758
2008-01-14,47.577
2008-01-15,43.5374
2008-01-16,41.4237
2008-01-17,39.5767
2008-01-18,39.9718
2008-01-22,38.836
2008-01-23,38.0656
2008-01-24,40.6039
2008-01-25,39.9521
2008-01-28,40.5447
2008-01-29,40.999
2008-01-30,41.2064
2008-01-31,41.4731
2008-02-01,42.1645
2008-02-04,42.8559
2008-02-05,40.92
2008-02-06,39.8039
2008-02-07,41.5719
2008-02-08,42.9645
2008-02-11,43.5077
2008-02-12,43.4781
2008-02-13,43.5769
2008-02-14,43.7843
2008-02-15,43.4188
2008-02-19,44.3967
2008-02-20,44.8806
2008-02-21,43.6658
2008-02-22,44.1991
2008-02-25,45.4337
2008-02-26,46.0955
2008-02-27,44.6535
2008-02-28,46.056
2008-02-29,44.4164
2008-03-03,44.6732
2008-03-04,44.693
2008-03-05,46.2338
2008-03-06,46.135
2008-03-07,46.7572
2008-03-10,46.293
2008-03-11,48.2091
2008-03-12,47.8931
2008-03-13,49.1771
2008-03-14,47.4091
2008-03-17,45.9276
2008-03-18,47.8635
2008-03-19,45.4831
2008-03-20,44.3572
2008-03-24,45.2757
2008-03-25,46.5202
2008-03-26,48.0116
2008-03-27,48.2293
2008-03-28,48.0807
2008-03-31,48.7543
2008-04-01,49.4179
2008-04-02,51.2009
2008-04-03,50.0816
2008-04-04,52.0825
2008-04-07,52.4886
2008-04-08,53.9843
2008-04-09,54.331
2008-04-10,53.489
2008-04-11,53.6871
2008-04-14,55.7871
2008-04-15,56.4507
2008-04-16,58.3922
2008-04-17,57.471
2008-04-18,58.3229
2008-04-21,59.3431
2008-04-22,59.3035
2008-04-23,58.2238
2008-04-24,56.8073
2008-04-25,58.5903
2008-04-28,57.9762
2008-04-29,56.6488
2008-04-30,57.0154
2008-05-01,55.9654
2008-05-02,58.313
2008-05-05,60.6011
2008-05-06,62.2652
2008-05-07,64.8802
2008-05-08,67.1585
2008-05-09,67.2179
2008-05-12,66.6434
2008-05-13,67.9113
2008-05-14,66.9207
2008-05-15,67.6042
2008-05-16,68.9216
2008-05-19,69.298
2008-05-20,71.2395
2008-05-21,69.9122
2008-05-22,70.8234
2008-05-23,70.1103
2008-05-27,70.1697
2008-05-28,70.2192
2008-05-29,68.8325
2008-05-30,70.9819
2008-06-02,72.6262
2008-06-03,71.3187
2008-06-04,70.2489
2008-06-05,74.538
2008-06-06,75.4295
2008-06-09,76.1922
2008-06-10,74.6073
2008-06-11,74.8847
2008-06-12,75.0629
2008-06-13,74.4092
2008-06-16,76.0436
2008-06-17,78.1633
2008-06-18,78.619
2008-06-19,75.3601
2008-06-20,76.1426
2008-06-23,78.3218
2008-06-24,77.4898
2008-06-25,74.9738
2008-06-26,76.5686
2008-06-27,77.2322
2008-06-30,77.4204
2008-07-01,78.7577
2008-07-02,75.6672
2008-07-03,73.6861
2008-07-07,70.6352
2008-07-08,68.3768
2008-07-09,67.1386
2008-07-10,71.1503
2008-07-11,72.3092
2008-07-14,72.7055
2008-07-15,69.0603
2008-07-16,66.8118
2008-07-17,64.2067
2008-07-18,64.4147
2008-07-21,66.6731
2008-07-22,62.6218
2008-07-23,59.4818
2008-07-24,59.7096
2008-07-25,60.4723
2008-07-28,59.5511
2008-07-29,57.1639
2008-07-30,61.3539
2008-07-31,59.1153
2008-08-01,59.67
2008-08-04,56.1338
2008-08-05,55.0244
2008-08-06,57.9366
2008-08-07,56.0347
2008-08-08,54.6975
2008-08-11,54.8758
2008-08-12,55.5097
2008-08-13,59.3431
2008-08-14,58.9469
2008-08-15,57.7781
2008-08-18,56.2427
2008-08-19,58.8974
2008-08-20,60.9775
2008-08-21,62.6614
2008-08-22,61.8492
2008-08-25,61.5718
2008-08-26,63.543
2008-08-27,65.0585
2008-08-28,63.2161
2008-08-29,62.6416
2008-09-02,58.9766
2008-09-03,56.8271
2008-09-04,56.4606
2008-09-05,57.1342
2008-09-08,55.3017
2008-09-09,49.2396
2008-09-10,52.9145
2008-09-11,51.0721
2008-09-12,52.2311
2008-09-15,49.1208
2008-09-16,50.3887
2008-09-17,48.9623
2008-09-18,49.6656
2008-09-19,53.1225
2008-09-22,54.6876
2008-09-23,56.0149
2008-09-24,55.9852
2008-09-25,57.5502
2008-09-26,56.5966
2008-09-29,50.786
2008-09-30,51.7594
2008-10-01,50.1701
2008-10-02,45.6408
2008-10-03,45.3925
2008-10-06,43.6741
2008-10-07,39.3236
2008-10-08,37.7443
2008-10-09,33.8507
2008-10-10,30.404
2008-10-13,35.281
2008-10-14,34.1089
2008-10-15,27.6825
2008-10-16,29.7981
2008-10-17,29.7385
2008-10-20,32.6091
2008-10-21,32.0529
2008-10-22,27.4838
2008-10-23,25.5171
2008-10-24,24.216
2008-10-27,21.5043
2008-10-28,23.4015
2008-10-29,24.9808
2008-10-30,26.6097
2008-10-31,27.3944
2008-11-03,25.5966
2008-11-04,28.8446
2008-11-05,24.5934
2008-11-06,23.2028
2008-11-07,24.3053
2008-11-10,24.6729
2008-11-11,23.6399
2008-11-12,21.7228
2008-11-13,24.3153
2008-11-14,22.1301
2008-11-17,21.6136
2008-11-18,22.1897
2008-11-19,20.4415
2008-11-20,15.8625
2008-11-21,18.1272
2008-11-24,19.5277
2008-11-25,18.9913
2008-11-26,21.0474
2008-11-28,19.9449
2008-12-01,17.7796
2008-12-02,18.5344
2008-12-03,18.3755
2008-12-04,15.793
2008-12-05,15.9023
2008-12-08,16.9154
2008-12-09,16.8757
2008-12-10,17.9981
2008-12-11,18.6834
2008-12-12,18.0775
2008-12-15,17.0048
2008-12-16,17.6902
2008-12-17,17.6902
2008-12-18,15.8923
2008-12-19,16.1208
2008-12-22,14.9388
2008-12-23,14.7997
2008-12-24,14.1541
2008-12-26,14.323
2008-12-29,14.6508
2008-12-30,15.7334
2008-12-31,16.0711
2009-01-02,17.8888
2009-01-05,19.3191
2009-01-06,19.9151
2009-01-07,19.3887
2009-01-08,19.7363
2009-01-09,19.2099
2009-01-12,17.9981
2009-01-13,18.3954
2009-01-14,17.2333
2009-01-15,16.8856
2009-01-16,16.1009
2009-01-20,14.5713
2009-01-21,15.6738
2009-01-22,14.9388
2009-01-23,15.7831
2009-01-26,15.8824
2009-01-27,15.4354
2009-01-28,16.1506
2009-01-29,15.1275
2009-01-30,14.5216
2009-02-02,14.2932
2009-02-03,14.6607
2009-02-04,14.2336
2009-02-05,14.2832
2009-02-06,15.7235
2009-02-09,17.0545
2009-02-10,16.379
2009-02-11,16.24
2009-02-12,15.9817
2009-02-13,17.1637
2009-02-17,15.5348
2009-02-18,15.0381
2009-02-19,15.3659
2009-02-20,14.9686
2009-02-23,13.727
2009-02-24,14.4819
2009-02-25,14.7004
2009-02-26,14.9487
2009-02-27,14.5316
2009-03-02,12.6543
2009-03-03,12.9423
2009-03-04,13.7171
2009-03-05,12.9622
2009-03-06,12.6145
2009-03-09,12.0285
2009-03-10,13.6972
2009-03-11,14.3925
2009-03-12,15.5844
2009-03-13,15.3063
2009-03-16,15.5745
2009-03-17,15.9619
2009-03-18,16.1208
2009-03-19,17.4716
2009-03-20,16.4585
2009-03-23,18.5543
2009-03-24,17.9782
2009-03-25,18.5444
2009-03-26,18.3159
2009-03-27,18.087
2009-03-30,16.7829
2009-03-31,16.4345
2009-04-01,16.6137
2009-04-02,17.3603
2009-04-03,17.7186
2009-04-06,17.211
2009-04-07,16.4445
2009-04-08,17.0617
2009-04-09,18.7041
2009-04-13,20.0181
2009-04-14,20.5357
2009-04-15,20.5556
2009-04-16,21.0235
2009-04-17,21.9492
2009-04-20,20.2371
2009-04-21,21.2624
2009-04-22,21.1131
2009-04-23,21.4316
2009-04-24,22.3474
2009-04-27,22.4171
2009-04-28,22.1981
2009-04-29,23.1736
2009-04-30,23.0741
2009-05-01,24.617
2009-05-04,26.4983
2009-05-05,25.3635
2009-05-06,28.3598
2009-05-07,27.3146
2009-05-08,29.7733
2009-05-11,27.5933
2009-05-12,26.9662
2009-05-13,24.9753
2009-05-14,25.5328
2009-05-15,24.2885
2009-05-18,26.0902
2009-05-19,26.14
2009-05-20,25.8613
2009-05-21,24.6269
2009-05-22,24.6966
2009-05-26,25.4929
2009-05-27,25.0749
2009-05-28,26.7671
2009-05-29,27.872
2009-06-01,29.4149
2009-06-02,29.1959
2009-06-03,26.8169
2009-06-04,27.444
2009-06-05,27.5137
2009-06-08,27.5634
2009-06-09,27.7526
2009-06-10,28.4892
2009-06-11,29.5344
2009-06-12,29.1462
2009-06-15,27.9616
2009-06-16,27.215
2009-06-17,26.9264
2009-06-18,26.6078
2009-06-19,25.8513
2009-06-22,23.7012
2009-06-23,23.5319
2009-06-24,23.7509
2009-06-25,24.7165
2009-06-26,25.1844
2009-06-29,25.5726
2009-06-30,25.3237
2009-07-01,25.0848
2009-07-02,24.2686
2009-07-06,23.1338
2009-07-07,22.8053
2009-07-08,22.1981
2009-07-09,23.084
2009-07-10,22.9845
2009-07-13,23.4822
2009-07-14,24.0993
2009-07-15,24.826
2009-07-16,25.4133
2009-07-17,25.5925
2009-07-20,26.2097
2009-07-21,26.6476
2009-07-22,26.6775
2009-07-23,27.872
2009-07-24,28.4792
2009-07-27,28.4295
2009-07-28,27.5535
2009-07-29,26.7273
2009-07-30,27.5634
2009-07-31,28.4394
2009-08-03,30.0421
2009-08-04,30.4303
2009-08-05,29.7633
2009-08-06,29.2955
2009-08-07,29.7832
2009-08-10,30.4303
2009-08-11,29.3851
2009-08-12,29.176
2009-08-13,29.4448
2009-08-14,28.529
2009-08-17,27.6132
2009-08-18,28.6485
2009-08-19,29.0566
2009-08-20,29.614
2009-08-21,30.6891
2009-08-24,31.4058
2009-08-25,30.2411
2009-08-26,29.8728
2009-08-27,29.6638
2009-08-28,29.5244
2009-08-31,28.8077
2009-09-01,28.4693
2009-09-02,28.1906
2009-09-03,28.32
2009-09-04,28.758
2009-09-08,29.9823
2009-09-09,30.2212
2009-09-10,32.6999
2009-09-11,33.0383
2009-09-14,33.984
2009-09-15,35.2581
2009-09-16,35.8554
2009-09-17,35.497
2009-09-18,35.1586
2009-09-21,34.9595
2009-09-22,36.0047
2009-09-23,35.5866
2009-09-24,35.2481
2009-09-25,34.4518
2009-09-28,35.8071
2009-09-29,36.2058
2009-09-30,36.0862
2009-10-01,34.6511
2009-10-02,34.2923
2009-10-05,35.8869
2009-10-06,37.3718
2009-10-07,37.591
2009-10-08,38.8766
2009-10-09,39.3151
2009-10-12,40.0326
2009-10-13,40.5608
2009-10-14,41.6969
2009-10-15,42.3048
2009-10-16,42.4743
2009-10-19,43.4509
2009-10-20,43.5107
2009-10-21,43.3014
2009-10-22,44.3179
2009-10-23,42.6437
2009-10-26,45.1551
2009-10-27,45.3145
2009-10-28,41.8763
2009-10-29,43.8994
2009-10-30,40.9993
2009-11-02,41.4278
2009-11-03,42.3547
2009-11-04,40.9993
2009-11-05,42.6038
2009-11-06,42.2749
2009-11-09,43.6702
2009-11-10,43.9193
2009-11-11,43.6004
2009-11-12,42.6038
2009-11-13,42.6736
2009-11-16,44.2581
2009-11-17,43.4011
2009-11-18,42.5938
2009-11-19,41.1289
2009-11-20,40.7502
2009-11-23,40.9296
2009-11-24,41.5674
2009-11-25,42.9227
2009-11-27,41.1089
2009-11-30,41.2385
2009-12-01,42.5042
2009-12-02,42.1354
2009-12-03,40.8797
2009-12-04,40.6306
2009-12-07,40.79
2009-12-08,39.8831
2009-12-09,39.7536
2009-12-10,40.1821
2009-12-11,40.6206
2009-12-14,42.7932
2009-12-15,43.2317
2009-12-16,43.8495
2009-12-17,43.9392
2009-12-18,44.6667
2009-12-21,46.2613
2009-12-22,47.7561
2009-12-23,48.8225
2009-12-24,49.2809
2009-12-28,49.3806
2009-12-29,49.3806
2009-12-30,48.8125
2009-12-31,48.0352
2010-01-04,50.7758
2010-01-05,50.8256
2010-01-06,51.6727
2010-01-07,52.1311
2010-01-08,53.0878
2010-01-11,52.1212
2010-01-12,50.9552
2010-01-13,51.7225
2010-01-14,52.3703
2010-01-15,50.3074
2010-01-19,50.0084
2010-01-20,49.3507
2010-01-21,47.9654
2010-01-22,46.331
2010-01-25,46.8393
2010-01-26,45.7929
2010-01-27,45.2846
2010-01-28,45.175
2010-01-29,43.8595
2010-02-01,45.6035
2010-02-02,46.63
2010-02-03,45.7032
2010-02-04,43.9193
2010-02-05,43.4509
2010-02-08,44.1884
2010-02-09,46.1516
2010-02-10,45.1949
2010-02-11,47.198
2010-02-12,46.8891
2010-02-16,48.6132
2010-02-17,48.4936
2010-02-18,49.1015
2010-02-19,49.3507
2010-02-22,47.8159
2010-02-23,46.042
2010-02-24,46.0918
2010-02-25,46.5303
2010-02-26,46.5303
2010-03-01,47.0087
2010-03-02,47.6266
2010-03-03,47.8359
2010-03-04,47.4871
2010-03-05,48.8225
2010-03-08,48.4238
2010-03-09,49.2311
2010-03-10,50.8156
2010-03-11,50.9153
2010-03-12,52.6493
2010-03-15,51.9019
2010-03-16,53.6758
2010-03-17,53.0878
2010-03-18,52.9583
2010-03-19,52.8487
2010-03-22,52.4201
2010-03-23,53.7257
2010-03-24,53.7954
2010-03-25,53.1377
2010-03-26,52.5796
2010-03-29,54.2251
2010-03-30,54.6141
2010-03-31,56.1799
2010-04-01,58.8827
2010-04-05,61.2065
2010-04-06,60.7178
2010-04-07,59.3315
2010-04-08,60.0595
2010-04-09,60.7776
2010-04-12,60.6081
2010-04-13,61.8847
2010-04-14,62.5329
2010-04-15,62.2038
2010-04-16,60.628
2010-04-19,61.3361
2010-04-20,63.1413
2010-04-21,63.1114
2010-04-22,64.6672
2010-04-23,65.9438
2010-04-26,65.874
2010-04-27,62.4831
2010-04-28,62.9518
2010-04-29,63.7497
2010-04-30,63.989
2010-05-03,66.0735
2010-05-04,63.9392
2010-05-05,62.7823
2010-05-06,61.1765
2010-05-07,58.5037
2010-05-10,63.7596
2010-05-11,63.7497
2010-05-12,65.2756
2010-05-13,64.8069
2010-05-14,62.7623
2010-05-17,60.8275
2010-05-18,60.4485
2010-05-19,59.4312
2010-05-20,56.3794
2010-05-21,59.2916
2010-05-24,57.9153
2010-05-25,58.4538
2010-05-26,59.8601
2010-05-27,63.2111
2010-05-28,63.5901
2010-06-01,61.5655
2010-06-02,65.4451
2010-06-03,67.3301
2010-06-04,63.0017
2010-06-07,62.0742
2010-06-08,63.6699
2010-06-09,64.5874
2010-06-10,68.6167
2010-06-11,69.9132
2010-06-14,69.4644
2010-06-15,70.8507
2010-06-16,71.4591
2010-06-17,71.3494
2010-06-18,71.5189
2010-06-21,70.7909
2010-06-22,66.7816
2010-06-23,67.011
2010-06-24,64.7171
2010-06-25,65.0961
2010-06-28,63.7896
2010-06-29,60.3986
2010-06-30,59.4611
2010-07-01,58.7431
2010-07-02,57.1473
2010-07-06,56.8182
2010-07-07,58.9724
2010-07-08,60.2091
2010-07-09,60.648
2010-07-12,60.5582
2010-07-13,62.1539
2010-07-14,61.8248
2010-07-15,61.2164
2010-07-16,58.7032
2010-07-19,59.0722
2010-07-20,60.2789
2010-07-21,59.4212
2010-07-22,59.4013
2010-07-23,58.6932
2010-07-26,60.0296
2010-07-27,58.9126
2010-07-28,59.132
2010-07-29,58.1247
2010-07-30,57.7657
2010-08-02,60.628
2010-08-03,61.2164
2010-08-04,61.3162
2010-08-05,61.1666
2010-08-06,60.1194
2010-08-09,60.2989
2010-08-10,59.4711
2010-08-11,57.5064
2010-08-12,56.2996
2010-08-13,56.3295
2010-08-16,55.751
2010-08-17,57.7357
2010-08-18,58.5236
2010-08-19,57.8255
2010-08-20,57.8554
2010-08-23,58.3142
2010-08-24,57.0675
2010-08-25,57.277
2010-08-26,56.9478
2010-08-27,58.8827
2010-08-30,58.0449
2010-08-31,57.6061
2010-09-01,60.1493
2010-09-02,61.0469
2010-09-03,62.3434
2010-09-07,61.6254
2010-09-08,62.882
2010-09-09,63.4106
2010-09-10,64.4777
2010-09-13,64.9066
2010-09-14,64.8966
2010-09-15,65.0662
2010-09-16,64.6572
2010-09-17,65.2058
2010-09-20,66.6719
2010-09-21,66.2131
2010-09-22,65.6247
2010-09-23,65.8341
2010-09-24,64.6273
2010-09-27,64.0788
2010-09-28,64.1386
2010-09-29,65.1764
2010-09-30,64.9369
2010-10-01,65.9648
2010-10-04,65.4459
2010-10-05,69.1184
2010-10-06,69.318
2010-10-07,68.5795
2010-10-08,71.6332
2010-10-11,71.4137
2010-10-12,71.7131
2010-10-13,73.689
2010-10-14,72.7509
2010-10-15,73.4295
2010-10-18,73.3397
2010-10-19,71.2739
2010-10-20,72.212
2010-10-21,71.6632
2010-10-22,72.4715
2010-10-25,73.1102
2010-10-26,71.733
2010-10-27,69.7371
2010-10-28,69.0785
2010-10-29,69.7171
2010-11-01,70.7949
2010-11-02,72.3817
2010-11-03,73.2299
2010-11-04,75.0263
2010-11-05,76.4633
2010-11-08,76.7128
2010-11-09,76.7427
2010-11-10,77.4513
2010-11-11,77.7906
2010-11-12,76.8425
2010-11-15,76.9523
2010-11-16,76.124
2010-11-17,76.5931
2010-11-18,78.7387
2010-11-19,79.8364
2010-11-22,79.4272
2010-11-23,77.2717
2010-11-24,79.1578
2010-11-26,77.9902
2010-11-29,80.0061
2010-11-30,79.9362
2010-12-01,84.2673
2010-12-02,83.7584
2010-12-03,83.938
2010-12-06,84.6066
2010-12-07,84.3971
2010-12-08,83.0997
2010-12-09,83.0698
2010-12-10,84.2374
2010-12-13,84.0677
2010-12-14,84.427
2010-12-15,84.447
2010-12-16,85.2254
2010-12-17,84.9958
2010-12-20,85.4948
2010-12-21,87.0616
2010-12-22,87.371
2010-12-23,86.403
2010-12-27,85.9239
2010-12-28,85.7044
2010-12-29,87.2412
2010-12-30,86.8221
2010-12-31,86.6924
2011-01-03,88.1793
2011-01-04,87.2412
2011-01-05,87.9697
2011-01-06,87.82
2011-01-07,87.7302
2011-01-10,87.6604
2011-01-11,89.7162
2011-01-12,91.742
2011-01-13,92.3707
2011-01-14,93.2689
2011-01-18,93.4485
2011-01-19,91.6023
2011-01-20,90.2451
2011-01-21,89.6862
2011-01-24,90.3449
2011-01-25,88.1993
2011-01-26,91.3029
2011-01-27,89.2371
2011-01-28,90.8538
2011-01-31,95.0053
2011-02-01,95.3446
2011-02-02,95.2648
2011-02-03,94.7359
2011-02-04,95.4943
2011-02-07,94.7459
2011-02-08,93.7978
2011-02-09,94.0273
2011-02-10,95.9334
2011-02-11,96.123
2011-02-14,98.4283
2011-02-15,97.4004
2011-02-16,99.6358
2011-02-17,100.394
2011-02-18,99.0071
2011-02-22,98.4583
2011-02-23,100.554
2011-02-24,100.125
2011-02-25,102.55
2011-02-28,102.201
2011-03-01,99.1768
2011-03-02,99.087
2011-03-03,99.7955
2011-03-04,99.8055
2011-03-07,99.077
2011-03-08,97.3006
2011-03-09,97.1609
2011-03-10,94.2768
2011-03-11,94.9055
2011-03-14,96.8815
2011-03-15,96.8016
2011-03-16,95.5342
2011-03-17,99.4362
2011-03-18,98.5181
2011-03-21,100.664
2011-03-22,99.5859
2011-03-23,97.8096
2011-03-24,99.1468
2011-03-25,99.8554
2011-03-28,99.6658
2011-03-29,102.591
2011-03-30,102.661
2011-03-31,101.762
2011-04-01,103.579
2011-04-04,104.448
2011-04-05,103.829
2011-04-06,102.182
2011-04-07,103.539
2011-04-08,104.128
2011-04-11,102.192
2011-04-12,97.09
2011-04-13,97.08
2011-04-14,97.9785
2011-04-15,99.8554
2011-04-18,98.298
2011-04-19,99.1965
2011-04-20,101.812
2011-04-21,100.774
2011-04-25,100.145
2011-04-26,100.285
2011-04-27,100.674
2011-04-28,99.9253
2011-04-29,102.022
2011-05-02,100.844
2011-05-03,96.1016
2011-05-04,92.198
2011-05-05,88.4642
2011-05-06,89.0432
2011-05-09,93.8453
2011-05-10,94.9335
2011-05-11,93.1265
2011-05-12,92.807
2011-05-13,92.0083
2011-05-16,89.7321
2011-05-17,89.2329
2011-05-18,91.7088
2011-05-19,90.8403
2011-05-20,90.8103
2011-05-23,89.153
2011-05-24,90.6007
2011-05-25,91.1897
2011-05-26,90.9501
2011-05-27,91.0799
2011-05-31,91.599
2011-06-01,91.1797
2011-06-02,91.3894
2011-06-03,91.0499
2011-06-06,87.975
2011-06-07,87.8552
2011-06-08,86.8369
2011-06-09,88.2645
2011-06-10,86.2978
2011-06-13,83.5722
2011-06-14,85.3393
2011-06-15,84.1413
2011-06-16,84.6704
2011-06-17,84.4109
2011-06-20,84.3709
2011-06-21,86.8668
2011-06-22,86.0282
2011-06-23,85.7686
2011-06-24,84.301
2011-06-27,84.96
2011-06-28,87.0066
2011-06-29,88.6838
2011-06-30,89.5224
2011-07-01,89.9417
2011-07-05,90.8303
2011-07-06,91.1298
2011-07-07,92.3278
2011-07-08,90.99
2011-07-11,87.4259
2011-07-12,87.2162
2011-07-13,87.5058
2011-07-14,85.9982
2011-07-15,94.9136
2011-07-18,93.1864
2011-07-19,97.2597
2011-07-20,96.8903
2011-07-21,98.1582
2011-07-22,99.3662
2011-07-25,98.268
2011-07-26,97.3595
2011-07-27,94.8137
2011-07-28,93.0167
2011-07-29,92.9368
2011-08-01,92.9468
2011-08-02,88.9134
2011-08-03,87.4558
2011-08-04,80.8967
2011-08-05,78.6104
2011-08-08,70.5138
2011-08-09,76.0846
2011-08-10,73.0596
2011-08-11,77.3525
2011-08-12,77.4024
2011-08-15,80.6271
2011-08-16,79.0297
2011-08-17,78.6803
2011-08-18,73.409
2011-08-19,71.7517
2011-08-22,71.2825
2011-08-23,73.6187
2011-08-24,74.3475
2011-08-25,72.2809
2011-08-26,73.8882
2011-08-29,76.1445
2011-08-30,76.424
2011-08-31,77.8816
2011-09-01,78.0314
2011-09-02,74.2376
2011-09-06,73.0895
2011-09-07,76.9232
2011-09-08,75.4756
2011-09-09,72.5304
2011-09-12,72.7701
2011-09-13,73.8383
2011-09-14,75.3258
2011-09-15,78.7801
2011-09-16,80.4574
2011-09-19,77.5522
2011-09-20,76.2643
2011-09-21,74.3574
2011-09-22,68.4372
2011-09-23,67.4189
2011-09-26,70.2642
2011-09-27,71.8715
2011-09-28,68.6251
2011-09-29,68.3354
2011-09-30,65.8581
2011-10-03,61.7426
2011-10-04,65.3487
2011-10-05,68.1356
2011-10-06,70.3732
2011-10-07,68.3154
2011-10-10,71.2323
2011-10-11,69.7039
2011-10-12,69.7838
2011-10-13,69.9636
2011-10-14,75.3877
2011-10-17,73.6996
2011-10-18,79.0537
2011-10-19,79.3933
2011-10-20,80.0227
2011-10-21,81.9206
2011-10-24,84.5577
2011-10-25,82.5799
2011-10-26,83.8485
2011-10-27,87.9041
2011-10-28,88.4335
2011-10-31,83.9584
2011-11-01,80.8018
2011-11-02,91.1006
2011-11-03,94.0174
2011-11-04,92.9685
2011-11-07,91.8997
2011-11-08,88.4634
2011-11-09,86.2958
2011-11-10,91.9796
2011-11-11,93.3082
2011-11-14,92.8886
2011-11-15,93.1483
2011-11-16,94.0374
2011-11-17,90.741
2011-11-18,89.812
2011-11-21,88.5633
2011-11-22,87.4246
2011-11-23,84.0782
2011-11-25,83.9384
2011-11-28,87.7842
2011-11-29,89.3125
2011-11-30,94.377
2011-12-01,93.5679
2011-12-02,92.8487
2011-12-05,93.1284
2011-12-06,94.337
2011-12-07,92.2593
2011-12-08,88.1338
2011-12-09,91.1805
2011-12-12,88.1338
2011-12-13,86.9451
2011-12-14,82.7996
2011-12-15,82.7097
2011-12-16,83.7286
2011-12-19,81.2913
2011-12-20,85.9462
2011-12-21,87.3147
2011-12-22,89.2226
2011-12-23,88.4035
2011-12-27,90.0317
2011-12-28,87.7043
2011-12-29,88.913
2011-12-30,89.4724
2012-01-03,92.4191
2012-01-04,93.3981
2012-01-05,95.4558
2012-01-06,94.0773
2012-01-09,94.8864
2012-01-10,97.4836
2012-01-11,94.2471
2012-01-12,96.4048
2012-01-13,97.5335
2012-01-17,99.1018
2012-01-18,99.4415
2012-01-19,100.86
2012-01-20,97.4536
2012-01-23,100.021
2012-01-24,98.073
2012-01-25,101.549
2012-01-26,98.5624
2012-01-27,97.3438
2012-01-30,97.5136
2012-01-31,99.3116
2012-02-01,98.8721
2012-02-02,102.548
2012-02-03,104.266
2012-02-06,105.625
2012-02-07,108.262
2012-02-08,109.64
2012-02-09,110.07
2012-02-10,108.971
2012-02-13,111.678
2012-02-14,110.709
2012-02-15,113.147
2012-02-16,114.655
2012-02-17,113.526
2012-02-21,113.616
2012-02-22,113.546
2012-02-23,114.675
2012-02-24,116.133
2012-02-27,113.896
2012-02-28,111.858
2012-02-29,109.411
2012-03-01,111.728
2012-03-02,108.362
2012-03-05,106.034
2012-03-06,103.217
2012-03-07,105.145
2012-03-08,107.603
2012-03-09,108.412
2012-03-12,106.883
2012-03-13,107.772
2012-03-14,106.224
2012-03-15,106.424
2012-03-16,109.86
2012-03-19,111.209
2012-03-20,106.194
2012-03-21,103.697
2012-03-22,100.63
2012-03-23,101.719
2012-03-26,104.925
2012-03-27,106.494
2012-03-28,105.335
2012-03-29,105.245
2012-03-30,111.5
2012-04-02,111.96
2012-04-03,111.88
2012-04-04,109.602
2012-04-05,109.532
2012-04-09,107.383
2012-04-10,105.175
2012-04-11,103.536
2012-04-12,107.633
2012-04-13,106.524
2012-04-16,104.545
2012-04-17,107.483
2012-04-18,105.664
2012-04-19,105.894
2012-04-20,104.825
2012-04-23,105.444
2012-04-24,106.614
2012-04-25,113.449
2012-04-26,115.537
2012-04-27,115.517
2012-04-30,115.747
2012-05-01,115.777
2012-05-02,112.22
2012-05-03,110.691
2012-05-04,106.834
2012-05-07,105.325
2012-05-08,103.876
2012-05-09,102.237
2012-05-10,103.926
2012-05-11,101.877
2012-05-14,98.6494
2012-05-15,97.9299
2012-05-16,97.6301
2012-05-17,96.8207
2012-05-18,95.2718
2012-05-21,99.7886
2012-05-22,100.638
2012-05-23,99.219
2012-05-24,97.9099
2012-05-25,99.0691
2012-05-29,102.507
2012-05-30,98.3396
2012-05-31,96.6408
2012-06-01,88.3467
2012-06-04,86.7379
2012-06-05,89.446
2012-06-06,94.3924
2012-06-07,95.2618
2012-06-08,94.0826
2012-06-11,90.2154
2012-06-12,92.6936
2012-06-13,88.8164
2012-06-14,87.987
2012-06-15,89.8157
2012-06-18,87.0177
2012-06-19,90.2254
2012-06-20,85.8485
2012-06-21,80.6323
2012-06-22,83.1705
2012-06-25,78.7936
2012-06-26,80.7122
2012-06-27,82.1512
2012-06-28,83.2004
2012-06-29,88.0669
2012-07-02,86.628
2012-07-03,91.0448
2012-07-05,88.0669
2012-07-06,86.1383
2012-07-09,86.0384
2012-07-10,82.7607
2012-07-11,84.9492
2012-07-12,83.83
2012-07-13,84.9792
2012-07-16,84.6894
2012-07-17,88.3068
2012-07-18,89.8557
2012-07-19,93.4831
2012-07-20,92.6537
2012-07-23,88.6665
2012-07-24,86.9378
2012-07-25,87.5573
2012-07-26,89.446
2012-07-27,92.184
2012-07-30,90.2254
2012-07-31,88.5066
2012-08-01,93.6729
2012-08-02,91.8842
2012-08-03,97.3703
2012-08-06,96.6608
2012-08-07,98.5594
2012-08-08,99.3289
2012-08-09,99.7386
2012-08-10,98.1697
2012-08-13,97.0305
2012-08-14,97.0305
2012-08-15,98.6094
2012-08-16,99.9984
2012-08-17,100.258
2012-08-20,98.1397
2012-08-21,96.6608
2012-08-22,97.4003
2012-08-23,96.1012
2012-08-24,98.6394
2012-08-27,97.9799
2012-08-28,98.2596
2012-08-29,98.4495
2012-08-30,96.0512
2012-08-31,97.4702
2012-09-04,97.2304
2012-09-05,95.9413
2012-09-06,99.229
2012-09-07,103.056
2012-09-10,103.036
2012-09-11,105.624
2012-09-12,106.484
2012-09-13,109.092
2012-09-14,112.919
2012-09-17,111.9
2012-09-18,108.752
2012-09-19,107.163
2012-09-20,106.334
2012-09-21,106.124
2012-09-24,104.026
2012-09-25,102.946
2012-09-26,101.557
2012-09-27,104.556
2012-09-28,104.416
2012-10-01,103.816
2012-10-02,104.706
2012-10-03,102.966
2012-10-04,103.916
2012-10-05,102.756
2012-10-08,102.626
2012-10-09,105.236
2012-10-10,102.466
2012-10-11,104.186
2012-10-12,102.207
2012-10-15,105.595
2012-10-16,108.364
2012-10-17,108.195
2012-10-18,107.765
2012-10-19,105.285
2012-10-22,104.676
2012-10-23,102.716
2012-10-24,101.627
2012-10-25,104.216
2012-10-26,103.606
2012-10-31,105.895
2012-11-01,109.384
2012-11-02,106.155
2012-11-05,107.745
2012-11-06,108.874
2012-11-07,105.625
2012-11-08,102.426
2012-11-09,103.916
2012-11-12,102.766
2012-11-13,103.586
2012-11-14,101.727
2012-11-15,102.926
2012-11-16,102.756
2012-11-19,104.996
2012-11-20,105.465
2012-11-21,106.175
2012-11-23,107.955
2012-11-26,106.135
2012-11-27,104.766
2012-11-28,104.826
2012-11-29,106.595
2012-11-30,107.055
2012-12-03,104.726
2012-12-04,102.356
2012-12-05,104.806
2012-12-06,103.186
2012-12-07,102.776
2012-12-10,101.737
2012-12-11,104.186
2012-12-12,105.505
2012-12-13,103.076
2012-12-14,102.806
2012-12-17,104.466
2012-12-18,107.765
2012-12-19,107.195
2012-12-20,108.644
2012-12-21,108.335
2012-12-24,107.905
2012-12-26,106.325
2012-12-27,104.846
2012-12-28,102.536
2012-12-31,106.435
2013-01-02,109.674
2013-01-03,111.114
2013-01-04,113.123
2013-01-07,112.033
2013-01-08,112.403
2013-01-09,111.034
2013-01-10,112.403
2013-01-11,111.763
2013-01-14,111.583
2013-01-15,110.884
2013-01-16,112.843
2013-01-17,114.223
2013-01-18,113.583
2013-01-22,114.283
2013-01-23,111.953
2013-01-24,113.753
2013-01-25,115.382
2013-01-28,114.952
2013-01-29,117.362
2013-01-30,116.182
2013-01-31,117.472
2013-02-01,119.836
2013-02-04,119.551
2013-02-05,121.53
2013-02-06,124.989
2013-02-07,124.529
2013-02-08,128.898
2013-02-11,128.528
2013-02-12,128.358
2013-02-13,126.718
2013-02-14,130.017
2013-02-15,130.437
2013-02-19,132.407
2013-02-20,127.818
2013-02-21,125.329
2013-02-22,126.748
2013-02-25,121.15
2013-02-26,124.199
2013-02-27,125.979
2013-02-28,125.603
2013-03-01,123.629
2013-03-04,122.82
2013-03-05,125.039
2013-03-06,125.039
2013-03-07,127.648
2013-03-08,127.558
2013-03-11,127.648
2013-03-12,127.008
2013-03-13,126.119
2013-03-14,127.548
2013-03-15,129.208
2013-03-18,126.838
2013-03-19,123.959
2013-03-20,124.379
2013-03-21,121.84
2013-03-22,122.55
2013-03-25,122.14
2013-03-26,125.96
2013-03-27,126.21
2013-03-28,124.28
2013-04-01,122.87
2013-04-02,123.48
2013-04-03,120.96
2013-04-04,117.72
2013-04-05,118.62
2013-04-08,121.28
2013-04-09,123.23
2013-04-10,122.77
2013-04-11,123.52
2013-04-12,118.52
2013-04-15,110.35
2013-04-16,113.58
2013-04-17,111.79
2013-04-18,112.35
2013-04-19,110.55
2013-04-22,112.73
2013-04-23,113.74
2013-04-24,115.65
2013-04-25,117.52
2013-04-26,118.21
2013-04-29,120.98
2013-04-30,122.22
2013-05-01,118.95
2013-05-02,126.33
2013-05-03,129.65
2013-05-06,133.53
2013-05-07,137.68
2013-05-08,138.03
2013-05-09,136.82
2013-05-10,137.07
2013-05-13,137.8
2013-05-14,139.98
2013-05-15,138.75
2013-05-16,138.7
2013-05-17,142.22
2013-05-20,140.18
2013-05-21,138.98
2013-05-22,143.56
2013-05-23,144.03
2013-05-24,141.07
2013-05-28,145.47
2013-05-29,144.84
2013-05-30,144.52
2013-05-31,138.78
2013-06-03,140.75
2013-06-04,140.01
2013-06-05,138.0
2013-06-06,141.86
2013-06-07,144.38
2013-06-10,145.4
2013-06-11,143.05
2013-06-12,143.07
2013-06-13,147.06
2013-06-14,146.72
2013-06-17,152.33
2013-06-18,154.579
2013-06-19,153.42
2013-06-20,146.48
2013-06-21,144.66
2013-06-24,145.31
2013-06-25,148.29
2013-06-26,147.3
2013-06-27,146.65
2013-06-28,145.28
2013-07-01,148.95
2013-07-02,149.97
2013-07-03,148.75
2013-07-05,152.57
2013-07-08,150.47
2013-07-09,153.61
2013-07-10,152.07
2013-07-11,153.71
2013-07-12,153.38
2013-07-15,152.55
2013-07-16,152.49
2013-07-17,153.35
2013-07-18,156.12
2013-07-19,157.78
2013-07-22,155.88
2013-07-23,155.09
2013-07-24,153.05
2013-07-25,154.75
2013-07-26,154.83
2013-07-29,154.84
2013-07-30,153.45
2013-07-31,154.88
2013-08-01,173.96
2013-08-02,181.09
2013-08-05,179.96
2013-08-06,176.43
2013-08-07,175.63
2013-08-08,176.4
2013-08-09,175.46
