date,close_price
2010-07-01,29.1397
2010-07-02,28.832
2010-07-06,27.909
2010-07-07,29.1198
2010-07-08,30.0031
2010-07-09,30.1917
2010-07-12,29.9734
2010-07-13,30.2116
2010-07-14,30.2314
2010-07-15,30.281
2010-07-16,29.497
2010-07-19,29.5267
2010-07-20,30.2314
2010-07-21,29.4672
2010-07-22,29.7649
2010-07-23,29.0503
2010-07-26,29.358
2010-07-27,29.9138
2010-07-28,30.7277
2010-07-29,32.266
2010-07-30,33.9831
2010-08-02,33.6158
2010-08-03,34.2312
2010-08-04,34.6381
2010-08-05,34.6083
2010-08-06,33.7052
2010-08-09,34.0426
2010-08-10,33.199
2010-08-11,31.5415
2010-08-12,30.688
2010-08-13,29.9535
2010-08-16,30.0726
2010-08-17,31.3529
2010-08-18,31.2735
2010-08-19,31.0947
2010-08-20,30.8166
2010-08-23,31.0252
2010-08-24,30.4393
2010-08-25,30.3896
2010-08-26,30.2506
2010-08-27,30.1413
2010-08-30,29.2972
2010-08-31,28.8006
2010-09-01,30.5286
2010-09-02,31.055
2010-09-03,31.5516
2010-09-07,31.0451
2010-09-08,30.2903
2010-09-09,29.8831
2010-09-10,29.8335
2010-09-13,29.5554
2010-09-14,29.5554
2010-09-15,29.6448
2010-09-16,29.5057
2010-09-17,29.2475
2010-09-20,29.5156
2010-09-21,29.0886
2010-09-22,29.1383
2010-09-23,29.0787
2010-09-24,29.1085
2010-09-27,28.9595
2010-09-28,29.6249
2010-09-29,29.6646
2010-09-30,30.0221
2010-10-01,30.1314
2010-10-04,29.8136
2010-10-05,30.1215
2010-10-06,30.5584
2010-10-07,30.2406
2010-10-08,30.1115
2010-10-11,29.9725
2010-10-12,29.5057
2010-10-13,30.2903
2010-10-14,30.3201
2010-10-15,30.9557
2010-10-18,31.6012
2010-10-19,31.2735
2010-10-20,31.3728
2010-10-21,31.5218
2010-10-22,31.5317
2010-10-25,31.194
2010-10-26,32.1176
2010-10-27,31.5615
2010-10-28,32.1772
2010-10-29,32.793
2010-11-01,32.6738
2010-11-02,33.1803
2010-11-03,33.6768
2010-11-04,33.9152
2010-11-05,33.2101
2010-11-08,33.0412
2010-11-09,33.2399
2010-11-10,33.4186
2010-11-11,33.5775
2010-11-12,32.7433
2010-11-15,33.0214
2010-11-16,32.6043
2010-11-17,33.3491
2010-11-18,34.0145
2010-11-19,34.4912
2010-11-22,35.3155
2010-11-23,34.1032
2010-11-24,35.2857
2010-11-26,34.6796
2010-11-29,34.9677
2010-11-30,34.8982
2010-12-01,36.2198
2010-12-02,36.6371
2010-12-03,36.7862
2010-12-06,37.124
2010-12-07,37.8693
2010-12-08,36.9352
2010-12-09,37.0644
2010-12-10,36.8359
2010-12-13,37.6209
2010-12-14,37.2234
2010-12-15,36.2695
2010-12-16,36.5179
2010-12-17,36.4185
2010-12-20,36.4384
2010-12-21,37.2234
2010-12-22,36.9352
2010-12-23,36.7265
2010-12-27,36.0707
2010-12-28,35.9415
2010-12-29,36.021
2010-12-30,35.8322
2010-12-31,36.0707
2011-01-03,36.2893
2011-01-04,36.2595
2011-01-05,36.3191
2011-01-06,36.4483
2011-01-07,36.6868
2011-01-10,36.965
2011-01-11,37.6209
2011-01-12,38.9623
2011-01-13,38.2469
2011-01-14,37.9985
2011-01-18,38.4456
2011-01-19,37.6209
2011-01-20,37.6507
2011-01-21,37.2333
2011-01-24,38.3562
2011-01-25,38.5549
2011-01-26,39.0418
2011-01-27,39.3101
2011-01-28,38.6543
2011-01-31,40.4529
2011-02-01,41.2279
2011-02-02,40.5025
2011-02-03,40.1846
2011-02-04,39.9858
2011-02-07,40.0256
2011-02-08,39.4989
2011-02-09,38.6145
2011-02-10,37.6109
2011-02-11,38.2568
2011-02-14,38.9723
2011-02-15,38.5152
2011-02-16,39.1015
2011-02-17,39.0319
2011-02-18,38.853
2011-02-22,38.5748
2011-02-23,38.5649
2011-02-24,37.6705
2011-02-25,38.8729
2011-02-28,39.2903
2011-03-01,38.3363
2011-03-02,38.1475
2011-03-03,38.2966
2011-03-04,38.0978
2011-03-07,37.7997
2011-03-08,37.8097
2011-03-09,37.591
2011-03-10,37.1038
2011-03-11,37.591
2011-03-14,38.3664
2011-03-15,37.2032
2011-03-16,37.233
2011-03-17,38.6846
2011-03-18,39.0226
2011-03-21,40.4244
2011-03-22,40.1958
2011-03-23,40.1262
2011-03-24,41.021
2011-03-25,40.9613
2011-03-28,39.7981
2011-03-29,39.9273
2011-03-30,39.8876
2011-03-31,40.3449
2011-04-01,40.7227
2011-04-04,41.5578
2011-04-05,40.8917
2011-04-06,39.8677
2011-04-07,39.9273
2011-04-08,39.6987
2011-04-11,38.9431
2011-04-12,37.8097
2011-04-13,37.8196
2011-04-14,37.6307
2011-04-15,38.0781
2011-04-18,37.7799
2011-04-19,37.7202
2011-04-20,39.2811
2011-04-21,40.2057
2011-04-25,39.9373
2011-04-26,39.3109
2011-04-27,40.7028
2011-04-28,41.2397
2011-04-29,42.4825
2011-05-02,42.1146
2011-05-03,40.7824
2011-05-04,40.6233
2011-05-05,40.1461
2011-05-06,41.0011
2011-05-09,41.6473
2011-05-10,41.6473
2011-05-11,40.1162
2011-05-12,39.7583
2011-05-13,40.1958
2011-05-16,40.5736
2011-05-17,40.6829
2011-05-18,40.7724
2011-05-19,41.0607
2011-05-20,41.6771
2011-05-23,41.2695
2011-05-24,41.2596
2011-05-25,41.9161
2011-05-26,42.2742
2011-05-27,42.2941
2011-05-31,43.2887
2011-06-01,41.8962
2011-06-02,41.7967
2011-06-03,41.8464
2011-06-06,40.1057
2011-06-07,39.7477
2011-06-08,39.7278
2011-06-09,39.7477
2011-06-10,39.7178
2011-06-13,39.2006
2011-06-14,39.8869
2011-06-15,39.0016
2011-06-16,38.6734
2011-06-17,38.375
2011-06-20,38.554
2011-06-21,39.4194
2011-06-22,39.3498
2011-06-23,39.7676
2011-06-24,40.3246
2011-06-27,40.613
2011-06-28,41.4884
2011-06-29,41.5083
2011-06-30,41.6276
2011-07-01,42.4035
2011-07-05,41.9857
2011-07-06,41.4187
2011-07-07,42.2344
2011-07-08,41.7271
2011-07-11,40.3146
2011-07-12,40.0162
2011-07-13,40.056
2011-07-14,39.7676
2011-07-15,41.2596
2011-07-18,40.7026
2011-07-19,41.5978
2011-07-20,42.2841
2011-07-21,43.6568
2011-07-22,44.4227
2011-07-25,44.7609
2011-07-26,44.9499
2011-07-27,42.7914
2011-07-28,43.5871
2011-07-29,43.6468
2011-08-01,43.8955
2011-08-02,42.2841
2011-08-03,42.4532
2011-08-04,38.5938
2011-08-05,37.2112
2011-08-08,33.8293
2011-08-09,35.759
2011-08-10,34.3366
2011-08-11,36.2961
2011-08-12,35.6496
2011-08-15,36.8233
2011-08-16,36.3359
2011-08-17,35.9378
2011-08-18,33.6786
2011-08-19,33.6985
2011-08-22,33.6189
2011-08-23,34.6141
2011-08-24,34.6539
2011-08-25,33.1909
2011-08-26,33.9175
2011-08-29,34.4648
2011-08-30,34.4847
2011-08-31,34.9724
2011-09-01,34.9226
2011-09-02,33.8976
2011-09-06,33.6089
2011-09-07,34.853
2011-09-08,34.2857
2011-09-09,32.8227
2011-09-12,32.5042
2011-09-13,32.6336
2011-09-14,33.2009
2011-09-15,33.9374
2011-09-16,33.589
2011-09-19,32.7132
2011-09-20,32.972
2011-09-21,31.2602
2011-09-22,28.3541
2011-09-23,27.3589
2011-09-26,27.7172
2011-09-27,29.4588
2011-09-28,27.548
2011-09-29,27.6575
2011-09-30,26.9707
2011-10-03,24.7016
2011-10-04,26.085
2011-10-05,28.175
2011-10-06,28.3641
2011-10-07,27.2693
2011-10-10,28.3641
2011-10-11,28.0157
2011-10-12,28.4437
2011-10-13,29.2896
2011-10-14,30.6531
2011-10-17,30.7725
2011-10-18,32.8725
2011-10-19,32.3649
2011-10-20,31.6085
2011-10-21,32.6834
2011-10-24,33.0914
2011-10-25,31.2502
2011-10-26,33.808
2011-10-27,35.1316
2011-10-28,36.7439
2011-10-31,35.4103
2011-11-01,34.843
2011-11-02,35.7288
2011-11-03,37.1121
2011-11-04,38.0477
2011-11-07,37.0922
2011-11-08,36.8932
2011-11-09,34.4648
2011-11-10,35.6193
2011-11-11,36.8335
2011-11-14,33.9971
2011-11-15,34.2459
2011-11-16,33.8376
2011-11-17,31.7564
2011-11-18,31.6767
2011-11-21,31.368
2011-11-22,30.5216
2011-11-23,29.3067
2011-11-25,28.6694
2011-11-28,30.4618
2011-11-29,30.6212
2011-11-30,32.5431
2011-12-01,31.856
2011-12-02,31.6369
2011-12-05,32.5829
2011-12-06,32.2344
2011-12-07,32.324
2011-12-08,31.1191
2011-12-09,31.9157
2011-12-12,30.6112
2011-12-13,29.6751
2011-12-14,28.1217
2011-12-15,28.4005
2011-12-16,28.749
2011-12-19,27.6835
2011-12-20,29.0478
2011-12-21,29.0876
2011-12-22,29.6453
2011-12-23,29.7349
2011-12-27,29.9241
2011-12-28,28.9582
2011-12-29,29.1374
2011-12-30,29.1872
2012-01-03,30.422
2012-01-04,31.3481
2012-01-05,31.5373
2012-01-06,30.9597
2012-01-09,30.6809
2012-01-10,30.7207
2012-01-11,28.9382
2012-01-12,28.271
2012-01-13,26.7873
2012-01-17,26.8968
2012-01-18,27.4844
2012-01-19,27.3549
2012-01-20,27.3051
2012-01-23,28.8287
2012-01-24,28.7789
2012-01-25,29.8942
2012-01-26,28.8187
2012-01-27,29.1274
2012-01-30,29.0876
2012-01-31,28.53
2012-02-01,28.7689
2012-02-02,29.0777
2012-02-03,29.6453
2012-02-06,29.7648
2012-02-07,29.7349
2012-02-08,30.2627
2012-02-09,31.2983
2012-02-10,30.2428
2012-02-13,30.7606
2012-02-14,30.89
2012-02-15,31.0693
2012-02-16,31.8759
2012-02-17,32.4136
2012-02-21,32.334
2012-02-22,31.4671
2012-02-23,33.9083
2012-02-24,34.2072
2012-02-27,34.835
2012-02-28,34.6556
2012-02-29,34.0578
2012-03-01,33.6791
2012-03-02,32.7624
2012-03-05,32.1147
2012-03-06,31.8557
2012-03-07,31.8955
2012-03-08,32.2243
2012-03-09,31.8258
2012-03-12,30.5902
2012-03-13,30.9091
2012-03-14,30.5005
2012-03-15,31.3774
2012-03-16,31.7859
2012-03-19,32.9617
2012-03-20,32.1446
2012-03-21,31.7859
2012-03-22,30.4208
2012-03-23,30.361
2012-03-26,30.4806
2012-03-27,30.1518
2012-03-28,29.5041
2012-03-29,29.6237
2012-03-30,30.4009
2012-04-02,31.3973
2012-04-03,31.0386
2012-04-04,30.3112
2012-04-05,29.6038
2012-04-09,29.0557
2012-04-10,28.149
2012-04-11,27.8899
2012-04-12,28.8564
2012-04-13,28.2984
2012-04-16,28.3084
2012-04-17,29.6635
2012-04-18,29.245
2012-04-19,29.3546
2012-04-20,29.2151
2012-04-23,29.7134
2012-04-24,29.9326
2012-04-25,30.102
2012-04-26,30.4706
2012-04-27,30.5105
2012-04-30,30.7098
2012-05-01,31.3475
2012-05-02,30.1617
2012-05-03,29.7632
2012-05-04,29.823
2012-05-07,30.1817
2012-05-08,30.2016
2012-05-09,29.9525
2012-05-10,29.3746
2012-05-11,29.2251
2012-05-14,28.5077
2012-05-15,27.1625
2012-05-16,26.8138
2012-05-17,26.744
2012-05-18,26.186
2012-05-21,27.1824
2012-05-22,26.7938
2012-05-23,26.9433
2012-05-24,26.1456
2012-05-25,26.5544
2012-05-29,27.3222
2012-05-30,26.1256
2012-05-31,26.2453
2012-06-01,25.2681
2012-06-04,25.2381
2012-06-05,25.6669
2012-06-06,26.7837
2012-06-07,26.355
2012-06-08,26.1655
2012-06-11,25.7068
2012-06-12,26.1954
2012-06-13,25.5473
2012-06-14,26.355
2012-06-15,27.4219
2012-06-18,27.4119
2012-06-19,27.4419
2012-06-20,26.5644
2012-06-21,24.939
2012-06-22,25.3877
2012-06-25,24.4504
2012-06-26,25.4575
2012-06-27,27.4618
2012-06-28,28.2296
2012-06-29,29.8251
2012-07-02,29.2467
2012-07-03,29.8251
2012-07-05,29.3165
2012-07-06,28.9875
2012-07-09,28.8479
2012-07-10,27.9604
2012-07-11,28.3493
2012-07-12,28.1897
2012-07-13,28.7681
2012-07-16,29.1071
2012-07-17,29.4561
2012-07-18,29.7852
2012-07-19,29.6855
2012-07-20,29.3464
2012-07-23,28.9376
2012-07-24,28.4191
2012-07-25,28.1399
2012-07-26,28.8179
2012-07-27,29.3066
2012-07-30,30.1741
2012-07-31,29.9746
2012-08-01,28.5886
2012-08-02,26.9433
2012-08-03,27.3222
2012-08-06,27.382
2012-08-07,28.1498
2012-08-08,27.8308
2012-08-09,28.0601
2012-08-10,27.8706
2012-08-13,26.8635
2012-08-14,26.6142
2012-08-15,26.4146
2012-08-16,26.4645
2012-08-17,27.0134
2012-08-20,27.2828
2012-08-21,27.6421
2012-08-22,27.9714
2012-08-23,27.1331
2012-08-24,28.7597
2012-08-27,28.5901
2012-08-28,28.9493
2012-08-29,28.9194
2012-08-30,28.161
2012-08-31,28.7098
2012-09-04,28.63
2012-09-05,28.0911
2012-09-06,28.4404
2012-09-07,29.5381
2012-09-10,29.578
2012-09-11,30.5859
2012-09-12,31.6337
2012-09-13,32.5019
2012-09-14,33.0807
2012-09-17,32.8412
2012-09-18,32.2025
2012-09-19,31.983
2012-09-20,31.973
2012-09-21,31.9231
2012-09-24,31.484
2012-09-25,30.995
2012-09-26,30.6657
2012-09-27,31.5539
2012-09-28,31.5938
2012-10-01,32.0329
2012-10-02,32.3422
2012-10-03,31.3343
2012-10-04,31.983
2012-10-05,31.5638
2012-10-08,31.474
2012-10-09,31.6936
2012-10-10,31.7235
2012-10-11,32.432
2012-10-12,31.9231
2012-10-15,31.4441
2012-10-16,31.8632
2012-10-17,31.7934
2012-10-18,31.5838
2012-10-19,31.7534
2012-10-22,31.2345
2012-10-23,30.8853
2012-10-24,31.2645
2012-10-25,31.5938
2012-10-26,31.4141
2012-10-31,28.9194
2012-11-01,29.1888
2012-11-02,28.5502
2012-11-05,28.5302
2012-11-06,28.9493
2012-11-07,28.3605
2012-11-08,28.63
2012-11-09,28.5003
2012-11-12,28.151
2012-11-13,27.8017
2012-11-14,27.1331
2012-11-15,26.8435
2012-11-16,26.6837
2012-11-19,27.5725
2012-11-20,27.6325
2012-11-21,28.6111
2012-11-23,28.6511
2012-11-26,28.5212
2012-11-27,28.2416
2012-11-28,28.1218
2012-11-29,28.1717
2012-11-30,28.1418
2012-12-03,28.4813
2012-12-04,28.4613
2012-12-05,29.5099
2012-12-06,29.8594
2012-12-07,29.9094
2012-12-10,29.5998
2012-12-11,29.6497
2012-12-12,29.8594
2012-12-13,29.8594
2012-12-14,29.6098
2012-12-17,30.0891
2012-12-18,30.928
2012-12-19,30.2988
2012-12-20,30.4586
2012-12-21,30.2689
2012-12-24,29.9992
2012-12-26,29.8794
2012-12-27,30.0691
2012-12-28,29.6098
2012-12-31,30.199
2013-01-02,30.5485
2013-01-03,30.8481
2013-01-04,31.3175
2013-01-07,29.7595
2013-01-08,29.6297
2013-01-09,29.3101
2013-01-10,29.3701
2013-01-11,29.3801
2013-01-14,29.2303
2013-01-15,29.6097
2013-01-16,29.6997
2013-01-17,30.0691
2013-01-18,29.7495
2013-01-22,30.0093
2013-01-23,29.4899
2013-01-24,29.4699
2013-01-25,29.7495
2013-01-28,29.1704
2013-01-29,30.154
2013-01-30,29.5998
2013-01-31,29.3501
2013-02-01,29.7496
2013-02-04,29.4799
2013-02-05,29.7496
2013-02-06,29.6098
2013-02-07,29.5399
2013-02-08,29.5698
2013-02-11,29.46
2013-02-12,29.7096
2013-02-13,30.0776
2013-02-14,29.7496
2013-02-15,29.8494
2013-02-19,30.5185
2013-02-20,29.9493
2013-02-21,29.3697
2013-02-22,30.349
2013-02-25,29.8044
2013-02-26,30.0592
2013-02-27,30.8387
2013-02-28,30.469
2013-03-01,29.8144
2013-03-04,29.4596
2013-03-05,29.9693
2013-03-06,29.8394
2013-03-07,30.6188
2013-03-08,31.2884
2013-03-11,31.3583
2013-03-12,31.3783
2013-03-13,31.7381
2013-03-14,32.5775
2013-03-15,32.4476
2013-03-18,32.1878
2013-03-19,31.5282
2013-03-20,31.818
2013-03-21,31.1285
2013-03-22,31.3783
2013-03-25,31.2184
2013-03-26,31.7281
2013-03-27,31.6281
2013-03-28,31.828
2013-04-01,31.3283
2013-04-02,31.1984
2013-04-03,29.7394
2013-04-04,29.4896
2013-04-05,29.7594
2013-04-08,30.8587
2013-04-09,31.2284
2013-04-10,31.3283
2013-04-11,31.3883
2013-04-12,30.7388
2013-04-15,28.8101
2013-04-16,29.4796
2013-04-17,28.87
2013-04-18,29.1199
2013-04-19,28.3904
2013-04-22,28.2705
2013-04-23,27.9807
2013-04-24,28.3404
2013-04-25,28.1605
2013-04-26,27.7508
2013-04-29,28.6302
2013-04-30,28.7002
2013-05-01,26.8814
2013-05-02,26.8414
2013-05-03,27.8008
2013-05-06,27.7009
2013-05-07,27.511
2013-05-08,27.7608
2013-05-09,28.3204
2013-05-10,29.8694
2013-05-13,29.2997
2013-05-14,29.4397
2013-05-15,29.1299
2013-05-16,28.6402
2013-05-17,29.2198
2013-05-20,29.3297
2013-05-21,29.2198
2013-05-22,28.5103
2013-05-23,28.88
2013-05-24,28.6302
2013-05-28,28.7201
2013-05-29,28.97
2013-05-30,28.79
2013-05-31,28.37
2013-06-03,28.6
2013-06-04,29.4
2013-06-05,29.54
2013-06-06,29.64
2013-06-07,30.02
2013-06-10,30.01
2013-06-11,29.45
2013-06-12,29.04
2013-06-13,29.57
2013-06-14,29.29
2013-06-17,29.61
2013-06-18,29.67
2013-06-19,28.95
2013-06-20,28.06
2013-06-21,28.19
2013-06-24,28.05
2013-06-25,28.23
2013-06-26,28.01
2013-06-27,27.93
2013-06-28,27.85
2013-07-01,28.18
2013-07-02,28.5
2013-07-03,28.6
2013-07-05,29.3
2013-07-08,29.18
2013-07-09,29.3
2013-07-10,29.54
2013-07-11,29.89
2013-07-12,29.61
2013-07-15,29.15
2013-07-16,28.77
2013-07-17,28.59
2013-07-18,29.51
2013-07-19,29.87
2013-07-22,29.92
2013-07-23,30.52
2013-07-24,30.25
2013-07-25,30.67
2013-07-26,30.45
2013-07-29,30.12
2013-07-30,30.05
2013-07-31,30.51
2013-08-01,30.25
2013-08-02,30.28
2013-08-05,30.99
2013-08-06,30.58
2013-08-07,29.84
2013-08-08,30.03
2013-08-09,29.52
