date,close_price
1998-01-02,7.5164
1998-01-05,7.42347
1998-01-06,7.27826
1998-01-07,7.29859
1998-01-08,7.38862
1998-01-09,7.38862
1998-01-12,7.35086
1998-01-13,7.40605
1998-01-14,7.40605
1998-01-15,7.31601
1998-01-16,7.31601
1998-01-20,7.27826
1998-01-21,7.20565
1998-01-22,7.29859
1998-01-23,7.15337
1998-01-26,7.27826
1998-01-27,7.35086
1998-01-28,7.33344
1998-01-29,7.2672
1998-01-30,7.15535
1998-02-02,7.17596
1998-02-03,7.08178
1998-02-04,7.06412
1998-02-05,7.12004
1998-02-06,7.28486
1998-02-09,7.22894
1998-02-10,7.34079
1998-02-11,7.34079
1998-02-12,7.37611
1998-02-13,7.30253
1998-02-17,7.35845
1998-02-18,7.37611
1998-02-19,7.28486
1998-02-20,7.30253
1998-02-23,7.28486
1998-02-24,7.2672
1998-02-25,7.28486
1998-02-26,7.22894
1998-02-27,7.28486
1998-03-02,7.24955
1998-03-03,7.32313
1998-03-04,7.34079
1998-03-05,7.34079
1998-03-06,7.41437
1998-03-09,7.57921
1998-03-10,7.67045
1998-03-11,7.56155
1998-03-12,7.63513
1998-03-13,7.61747
1998-03-16,7.67045
1998-03-17,7.74403
1998-03-18,7.91181
1998-03-19,7.94713
1998-03-20,8.16788
1998-03-23,8.27973
1998-03-24,8.38864
1998-03-25,8.25913
1998-03-26,8.16788
1998-03-27,8.00305
1998-03-30,7.98539
1998-03-31,8.13256
1998-04-01,8.09429
1998-04-02,8.16788
1998-04-03,8.16788
1998-04-06,8.07664
1998-04-07,8.02071
1998-04-08,8.07664
1998-04-09,8.07664
1998-04-13,7.92947
1998-04-14,7.92947
1998-04-15,7.91181
1998-04-16,7.81762
1998-04-17,8.03837
1998-04-20,8.00305
1998-04-21,7.96478
1998-04-22,7.89121
1998-04-23,7.74403
1998-04-24,7.79996
1998-04-27,7.76463
1998-04-28,7.81762
1998-04-29,7.79996
1998-04-30,7.89982
1998-05-01,7.86405
1998-05-04,7.82529
1998-05-05,7.76866
1998-05-06,7.78952
1998-05-07,7.76866
1998-05-08,7.8074
1998-05-11,7.75076
1998-05-12,7.76866
1998-05-13,7.76866
1998-05-14,7.67625
1998-05-15,7.64046
1998-05-18,7.6196
1998-05-19,7.6196
1998-05-20,7.71499
1998-05-21,7.64046
1998-05-22,7.6196
1998-05-26,7.6196
1998-05-27,7.54508
1998-05-28,7.67625
1998-05-29,7.9177
1998-06-01,8.3291
1998-06-02,8.21581
1998-06-03,8.31121
1998-06-04,8.25457
1998-06-05,8.16216
1998-06-08,8.16216
1998-06-09,8.21581
1998-06-10,8.34698
1998-06-11,8.60931
1998-06-12,8.49604
1998-06-15,8.40362
1998-06-16,8.36487
1998-06-17,8.42151
1998-06-18,8.36487
1998-06-19,8.25457
1998-06-22,8.25457
1998-06-23,8.25457
1998-06-24,8.16216
1998-06-25,8.08763
1998-06-26,8.06676
1998-06-29,8.23668
1998-06-30,8.23668
1998-07-01,8.25457
1998-07-02,8.19793
1998-07-06,8.18004
1998-07-07,8.08763
1998-07-08,8.08763
1998-07-09,8.06676
1998-07-10,8.1234
1998-07-13,8.0131
1998-07-14,8.03099
1998-07-15,7.99223
1998-07-16,7.97435
1998-07-17,8.08763
1998-07-20,8.03099
1998-07-21,7.93857
1998-07-22,7.99223
1998-07-23,7.93857
1998-07-24,7.88193
1998-07-27,7.9177
1998-07-28,7.9177
1998-07-29,7.8074
1998-07-30,7.86981
1998-07-31,7.68258
1998-08-03,7.73996
1998-08-04,7.75808
1998-08-05,7.79431
1998-08-06,7.81545
1998-08-07,7.86981
1998-08-10,7.96645
1998-08-11,7.86981
1998-08-12,8.04194
1998-08-13,7.98457
1998-08-14,7.94531
1998-08-17,8.06007
1998-08-18,8.04194
1998-08-19,7.9272
1998-08-20,7.94531
1998-08-21,8.13556
1998-08-24,8.21106
1998-08-25,8.15368
1998-08-26,8.26844
1998-08-27,8.22918
1998-08-28,8.38017
1998-08-31,8.49493
1998-09-01,8.43755
1998-09-02,8.07819
1998-09-03,8.06007
1998-09-04,7.98457
1998-09-08,8.21106
1998-09-09,8.28655
1998-09-10,8.28655
1998-09-11,8.3228
1998-09-14,8.3983
1998-09-15,8.47379
1998-09-16,8.49493
1998-09-17,8.43755
1998-09-18,8.68216
1998-09-21,8.66405
1998-09-22,8.62478
1998-09-23,8.75765
1998-09-24,8.68216
1998-09-25,8.75765
1998-09-28,8.70028
1998-09-29,8.85127
1998-09-30,8.90866
1998-10-01,8.98415
1998-10-02,9.34351
1998-10-05,9.51263
1998-10-06,9.28614
1998-10-07,9.2499
1998-10-08,9.28614
1998-10-09,8.81504
1998-10-12,8.53117
1998-10-13,8.57043
1998-10-14,8.77578
1998-10-15,9.0234
1998-10-16,8.75765
1998-10-19,8.57043
1998-10-20,8.45567
1998-10-21,8.38017
1998-10-22,8.49493
1998-10-23,8.47379
1998-10-26,8.51305
1998-10-27,8.62478
1998-10-28,8.73954
1998-10-29,8.63087
1998-10-30,8.5942
1998-11-02,8.64921
1998-11-03,8.72558
1998-11-04,8.61254
1998-11-05,8.72558
1998-11-06,8.82334
1998-11-09,8.74697
1998-11-10,8.93639
1998-11-11,8.70725
1998-11-12,8.70725
1998-11-13,8.72558
1998-11-16,8.86
1998-11-17,9.01277
1998-11-18,8.95472
1998-11-19,8.95472
1998-11-20,8.95472
1998-11-23,8.89973
1998-11-24,8.86
1998-11-25,9.08914
1998-11-27,9.10748
1998-11-30,8.99444
1998-12-01,9.08914
1998-12-02,9.0311
1998-12-03,8.91806
1998-12-04,9.08914
1998-12-07,9.05248
1998-12-08,9.0311
1998-12-09,8.95472
1998-12-10,8.89973
1998-12-11,8.9761
1998-12-14,8.82334
1998-12-15,8.82334
1998-12-16,8.84167
1998-12-17,9.07081
1998-12-18,9.1472
1998-12-21,9.1472
1998-12-22,8.9761
1998-12-23,9.0311
1998-12-24,8.99444
1998-12-28,8.82334
1998-12-29,8.9761
1998-12-30,8.89973
1998-12-31,8.89973
1999-01-04,8.95472
1999-01-05,8.93639
1999-01-06,8.89973
1999-01-07,8.78363
1999-01-08,8.78363
1999-01-11,8.57282
1999-01-12,8.5942
1999-01-13,8.74697
1999-01-14,8.70725
1999-01-15,8.70725
1999-01-19,8.55449
1999-01-20,8.49644
1999-01-21,8.64921
1999-01-22,8.61254
1999-01-25,8.61254
1999-01-26,8.57282
1999-01-27,8.42007
1999-01-28,8.409
1999-01-29,8.31313
1999-02-01,8.13685
1999-02-02,8.21416
1999-02-03,8.15849
1999-02-04,8.00386
1999-02-05,8.05952
1999-02-08,8.15849
1999-02-09,8.11829
1999-02-10,8.00386
1999-02-11,7.96366
1999-02-12,7.71314
1999-02-16,7.80902
1999-02-17,7.90489
1999-02-18,8.15849
1999-02-19,7.9822
1999-02-22,8.00386
1999-02-23,7.92654
1999-02-24,7.7317
1999-02-25,7.69459
1999-02-26,7.7317
1999-03-01,7.61727
1999-03-02,7.65439
1999-03-03,7.65439
1999-03-04,7.69459
1999-03-05,7.65439
1999-03-08,7.61727
1999-03-09,7.53995
1999-03-10,7.4812
1999-03-11,7.49975
1999-03-12,7.69459
1999-03-15,7.71314
1999-03-16,7.88633
1999-03-17,7.86778
1999-03-18,7.96366
1999-03-19,7.84923
1999-03-22,7.86778
1999-03-23,7.80902
1999-03-24,8.00386
1999-03-25,7.90489
1999-03-26,7.7317
1999-03-29,7.38532
1999-03-30,7.20904
1999-03-31,7.20904
1999-04-01,7.2678
1999-04-05,7.24924
1999-04-06,7.05441
1999-04-07,7.20904
1999-04-08,7.44099
1999-04-09,7.32656
1999-04-12,7.49975
1999-04-13,7.44099
1999-04-14,7.28636
1999-04-15,7.55851
1999-04-16,7.59563
1999-04-19,7.9451
1999-04-20,8.54508
1999-04-21,8.35023
1999-04-22,8.29148
1999-04-23,8.31313
1999-04-26,8.33168
1999-04-27,8.21416
1999-04-28,8.29148
1999-04-29,8.45589
1999-04-30,8.45589
1999-05-03,8.61248
1999-05-04,8.4966
1999-05-05,8.57489
1999-05-06,8.55297
1999-05-07,8.4966
1999-05-10,8.55297
1999-05-11,8.39638
1999-05-12,8.43709
1999-05-13,8.63127
1999-05-14,8.55297
1999-05-17,8.63127
1999-05-18,8.59368
1999-05-19,8.70957
1999-05-20,8.67197
1999-05-21,8.73148
1999-05-24,8.94445
1999-05-25,9.04466
1999-05-26,9.00395
1999-05-27,8.73148
1999-05-28,8.86615
1999-06-01,8.63127
1999-06-02,8.65319
1999-06-03,8.70957
1999-06-04,8.86615
1999-06-07,8.82857
1999-06-08,8.80978
1999-06-09,8.80978
1999-06-10,8.63127
1999-06-11,8.63127
1999-06-14,8.70957
1999-06-15,8.82857
1999-06-16,8.88807
1999-06-17,8.78786
1999-06-18,8.73148
1999-06-21,8.67197
1999-06-22,8.69077
1999-06-23,8.67197
1999-06-24,8.67197
1999-06-25,8.67197
1999-06-28,8.69077
1999-06-29,8.59368
1999-06-30,8.2993
1999-07-01,8.39638
1999-07-02,8.39638
1999-07-06,8.37759
1999-07-07,8.2993
1999-07-08,8.1427
1999-07-09,8.16149
1999-07-12,8.22099
1999-07-13,8.2993
1999-07-14,8.1427
1999-07-15,8.26171
1999-07-16,8.31808
1999-07-19,8.37759
1999-07-20,8.39638
1999-07-21,8.53418
1999-07-22,8.55297
1999-07-23,8.63127
1999-07-26,8.65319
1999-07-27,8.57489
1999-07-28,8.41831
1999-07-29,8.3438
1999-07-30,8.38502
1999-08-02,8.50237
1999-08-03,8.58165
1999-08-04,8.56262
1999-08-05,8.6419
1999-08-06,8.58165
1999-08-09,8.54358
1999-08-10,8.52456
1999-08-11,8.50237
1999-08-12,8.38502
1999-08-13,8.46431
1999-08-16,8.366
1999-08-17,8.3438
1999-08-18,8.3438
1999-08-19,8.48333
1999-08-20,8.66093
1999-08-23,8.72118
1999-08-24,8.72118
1999-08-25,8.84169
1999-08-26,8.80046
1999-08-27,8.72118
1999-08-30,8.54358
1999-08-31,8.62288
1999-09-01,8.56262
1999-09-02,8.56262
1999-09-03,8.78144
1999-09-07,8.6419
1999-09-08,8.54358
1999-09-09,8.60384
1999-09-10,8.72118
1999-09-13,8.66093
1999-09-14,8.58165
1999-09-15,8.62288
1999-09-16,8.46431
1999-09-17,8.60384
1999-09-20,8.52456
1999-09-21,8.38502
1999-09-22,8.3438
1999-09-23,8.18522
1999-09-24,8.20743
1999-09-27,8.1662
1999-09-28,8.08692
1999-09-29,8.12815
1999-09-30,8.18522
1999-10-01,8.366
1999-10-04,8.54358
1999-10-05,8.366
1999-10-06,8.366
1999-10-07,8.22645
1999-10-08,8.24548
1999-10-11,8.12815
1999-10-12,8.04886
1999-10-13,8.02666
1999-10-14,8.22645
1999-10-15,8.10594
1999-10-18,8.20743
1999-10-19,8.08692
1999-10-20,8.10594
1999-10-21,8.14717
1999-10-22,8.18522
1999-10-25,8.18522
1999-10-26,8.14717
1999-10-27,8.3438
1999-10-28,8.53143
1999-10-29,8.53143
1999-11-01,8.49289
1999-11-02,8.49289
1999-11-03,8.39331
1999-11-04,8.33228
1999-11-05,8.41258
1999-11-08,8.31301
1999-11-09,8.19095
1999-11-10,8.01106
1999-11-11,8.09138
1999-11-12,8.09138
1999-11-15,8.03034
1999-11-16,8.03034
1999-11-17,7.86973
1999-11-18,7.85046
1999-11-19,7.85046
1999-11-22,7.68986
1999-11-23,7.54852
1999-11-24,7.5678
1999-11-26,7.5678
1999-11-29,7.32688
1999-11-30,7.50998
1999-12-01,7.54852
1999-12-02,7.62883
1999-12-03,7.68986
1999-12-06,7.6481
1999-12-07,7.50998
1999-12-08,7.42968
1999-12-09,7.147
1999-12-10,7.26906
1999-12-13,7.18876
1999-12-14,7.26906
1999-12-15,7.52925
1999-12-16,7.44895
1999-12-17,7.5678
1999-12-20,7.42968
1999-12-21,7.52925
1999-12-22,7.5678
1999-12-23,7.62883
1999-12-27,7.67058
1999-12-28,7.67058
1999-12-29,7.52925
1999-12-30,7.60955
1999-12-31,7.54852
2000-01-03,7.32688
2000-01-04,7.34937
2000-01-05,7.78943
2000-01-06,7.8087
2000-01-07,7.95004
2000-01-10,7.86973
2000-01-11,7.8087
2000-01-12,7.95004
2000-01-13,7.86973
2000-01-14,7.75088
2000-01-18,7.52925
2000-01-19,7.68986
2000-01-20,7.6481
2000-01-21,7.86973
2000-01-24,8.04961
2000-01-25,8.12992
2000-01-26,8.21022
2000-01-27,8.25198
2000-01-28,8.12992
2000-01-31,8.23271
2000-02-01,8.17168
2000-02-02,8.09138
2000-02-03,8.11905
2000-02-04,7.93675
2000-02-07,7.89443
2000-02-08,7.95628
2000-02-09,7.89443
2000-02-10,7.95628
2000-02-11,7.91396
2000-02-14,7.91396
2000-02-15,7.89443
2000-02-16,7.77398
2000-02-17,7.63074
2000-02-18,7.52982
2000-02-22,7.52982
2000-02-23,7.44843
2000-02-24,7.20427
2000-02-25,7.10011
2000-02-28,7.36705
2000-02-29,7.22381
2000-03-01,7.12289
2000-03-02,7.22381
2000-03-03,7.20427
2000-03-06,6.89827
2000-03-07,6.89827
2000-03-08,6.87873
2000-03-09,6.85595
2000-03-10,6.89827
2000-03-13,6.9178
2000-03-14,6.71596
2000-03-15,7.08057
2000-03-16,7.38658
2000-03-17,7.14242
2000-03-20,7.06103
2000-03-21,6.96012
2000-03-22,6.77456
2000-03-23,6.96012
2000-03-24,7.12289
2000-03-27,7.18149
2000-03-28,7.08057
2000-03-29,7.10011
2000-03-30,7.08057
2000-03-31,7.06103
2000-04-03,7.34426
2000-04-04,7.52982
2000-04-05,7.52982
2000-04-06,7.32473
2000-04-07,7.24334
2000-04-10,7.58842
2000-04-11,7.63074
2000-04-12,7.83258
2000-04-13,8.09952
2000-04-14,7.73166
2000-04-17,7.87489
2000-04-18,8.1809
2000-04-19,8.11905
2000-04-20,8.30135
2000-04-24,8.4446
2000-04-25,8.68875
2000-04-26,8.95245
2000-04-27,8.48612
2000-04-28,8.23895
2000-05-01,7.99179
2000-05-02,8.01156
2000-05-03,8.07417
2000-05-04,8.23895
2000-05-05,8.07417
2000-05-08,8.19941
2000-05-09,8.23895
2000-05-10,8.32135
2000-05-11,8.52896
2000-05-12,8.2818
2000-05-15,8.38396
2000-05-16,8.32135
2000-05-17,8.09395
2000-05-18,8.2818
2000-05-19,8.46635
2000-05-22,8.54873
2000-05-23,8.46635
2000-05-24,8.67067
2000-05-25,8.63113
2000-05-26,8.71352
2000-05-30,8.50589
2000-05-31,8.52896
2000-06-01,8.50589
2000-06-02,8.25872
2000-06-05,7.99179
2000-06-06,8.19941
2000-06-07,8.25872
2000-06-08,8.17633
2000-06-09,8.25872
2000-06-12,8.30157
2000-06-13,8.46635
2000-06-14,8.36419
2000-06-15,8.44657
2000-06-16,8.30157
2000-06-19,8.11701
2000-06-20,8.23895
2000-06-21,8.21917
2000-06-22,8.19941
2000-06-23,8.17633
2000-06-26,8.21917
2000-06-27,7.99179
2000-06-28,8.11701
2000-06-29,7.9094
2000-06-30,7.70507
2000-07-03,7.84677
2000-07-05,7.84677
2000-07-06,7.88962
2000-07-07,8.01156
2000-07-10,8.17633
2000-07-11,8.17633
2000-07-12,8.03463
2000-07-13,8.07417
2000-07-14,7.95224
2000-07-17,7.95224
2000-07-18,8.03463
2000-07-19,8.2818
2000-07-20,8.30157
2000-07-21,8.34112
2000-07-24,8.23895
2000-07-25,8.23895
2000-07-26,8.03463
2000-07-27,8.15656
2000-07-28,8.19941
2000-07-31,8.0544
2000-08-01,8.25872
2000-08-02,8.63113
2000-08-03,8.80667
2000-08-04,8.8267
2000-08-07,9.14051
2000-08-08,9.30743
2000-08-09,9.07708
2000-08-10,9.05705
2000-08-11,9.05705
2000-08-14,9.16055
2000-08-15,9.22397
2000-08-16,9.14051
2000-08-17,9.11714
2000-08-18,9.14051
2000-08-21,9.16055
2000-08-22,9.09711
2000-08-23,9.32746
2000-08-24,9.34749
2000-08-25,9.49438
2000-08-28,9.6613
2000-08-29,9.59787
2000-08-30,9.80819
2000-08-31,9.99516
2000-09-01,10.0151
2000-09-05,10.2021
2000-09-06,10.4125
2000-09-07,10.6194
2000-09-08,10.9533
2000-09-11,11.0167
2000-09-12,11.1435
2000-09-13,11.394
2000-09-14,10.9766
2000-09-15,10.9766
2000-09-18,11.0367
2000-09-19,10.5159
2000-09-20,10.2021
2000-09-21,9.97509
2000-09-22,10.2656
2000-09-25,10.3924
2000-09-26,10.7663
2000-09-27,10.6829
2000-09-28,10.7263
2000-09-29,10.8097
2000-10-02,10.7029
2000-10-03,10.309
2000-10-04,9.82822
2000-10-05,9.68133
2000-10-06,9.74476
2000-10-09,10.0151
2000-10-10,9.97509
2000-10-11,10.0786
2000-10-12,9.99516
2000-10-13,10.0352
2000-10-16,9.97509
2000-10-17,10.0151
2000-10-18,9.97509
2000-10-19,9.82822
2000-10-20,9.84825
2000-10-23,9.99516
2000-10-24,9.86828
2000-10-25,9.53444
2000-10-26,9.43095
2000-10-27,9.68133
2000-10-30,9.91171
2000-10-31,9.80819
2000-11-01,10.0352
2000-11-02,9.83431
2000-11-03,9.83431
2000-11-06,9.74991
2000-11-07,9.70603
2000-11-08,9.64188
2000-11-09,9.68577
2000-11-10,9.74991
2000-11-13,9.83431
2000-11-14,9.49671
2000-11-15,9.72628
2000-11-16,10.0031
2000-11-17,10.4657
2000-11-20,10.2125
2000-11-21,10.1078
2000-11-22,10.1483
2000-11-24,10.1483
2000-11-27,10.1078
2000-11-28,10.1922
2000-11-29,10.361
2000-11-30,10.6344
2000-12-01,10.4657
2000-12-04,10.5297
2000-12-05,10.2326
2000-12-06,9.87482
2000-12-07,9.47308
2000-12-08,9.68577
2000-12-11,9.72628
2000-12-12,9.81068
2000-12-13,10.2765
2000-12-14,10.128
2000-12-15,10.2125
2000-12-18,10.5095
2000-12-19,10.4858
2000-12-20,11.0361
2000-12-21,10.9518
2000-12-22,11.1206
2000-12-26,11.3738
2000-12-27,11.3299
2000-12-28,11.2455
2000-12-29,11.2252
2001-01-02,10.8876
2001-01-03,10.55
2001-01-04,9.79042
2001-01-05,9.68577
2001-01-08,9.85457
2001-01-09,9.87482
2001-01-10,9.72628
2001-01-11,9.21988
2001-01-12,9.47308
2001-01-16,9.36843
2001-01-17,9.26376
2001-01-18,9.32791
2001-01-19,9.51697
2001-01-22,9.66551
2001-01-23,9.68577
2001-01-24,9.87482
2001-01-25,9.97944
2001-01-26,9.79042
2001-01-29,9.939
2001-01-30,9.94572
2001-01-31,9.85119
2001-02-01,9.75044
2001-02-02,9.81875
2001-02-05,9.91774
2001-02-06,9.97588
2001-02-07,10.0612
2001-02-08,10.2525
2001-02-09,10.3105
2001-02-12,10.4198
2001-02-13,10.3959
2001-02-14,10.2798
2001-02-15,10.092
2001-02-16,10.3174
2001-02-20,10.5018
2001-02-21,10.4334
2001-02-22,10.4334
2001-02-23,10.3037
2001-02-26,10.3754
2001-02-27,10.536
2001-02-28,10.5701
2001-03-01,10.5633
2001-03-02,10.6555
2001-03-05,10.7375
2001-03-06,10.6725
2001-03-07,10.5564
2001-03-08,10.6281
2001-03-09,10.5633
2001-03-12,10.5018
2001-03-13,10.3378
2001-03-14,10.1568
2001-03-15,10.8296
2001-03-16,10.8502
2001-03-19,11.0038
2001-03-20,11.1029
2001-03-21,11.1506
2001-03-22,10.915
2001-03-23,10.8502
2001-03-26,11.3521
2001-03-27,11.5092
2001-03-28,11.6937
2001-03-29,11.8064
2001-03-30,11.9737
2001-04-02,12.0387
2001-04-03,12.2374
2001-04-04,12.0717
2001-04-05,12.1822
2001-04-06,11.8728
2001-04-09,12.149
2001-04-10,12.2816
2001-04-11,12.2927
2001-04-12,12.232
2001-04-16,12.4419
2001-04-17,12.7015
2001-04-18,12.58
2001-04-19,12.3535
2001-04-20,12.3093
2001-04-23,12.4971
2001-04-24,12.7954
2001-04-25,12.8838
2001-04-26,12.906
2001-04-27,12.7568
2001-04-30,12.9226
2001-05-01,12.8838
2001-05-02,12.7292
2001-05-03,12.5803
2001-05-04,12.5915
2001-05-07,12.6532
2001-05-08,12.5635
2001-05-09,12.6139
2001-05-10,12.7428
2001-05-11,12.6643
2001-05-14,12.726
2001-05-15,12.5915
2001-05-16,12.5971
2001-05-17,12.6532
2001-05-18,12.6251
2001-05-21,12.6475
2001-05-22,12.7204
2001-05-23,12.8887
2001-05-24,12.9559
2001-05-25,12.8662
2001-05-29,12.7709
2001-05-30,12.9166
2001-05-31,13.1858
2001-06-01,13.0344
2001-06-04,13.2643
2001-06-05,13.3315
2001-06-06,13.0624
2001-06-07,12.8942
2001-06-08,12.8887
2001-06-11,13.0176
2001-06-12,13.0344
2001-06-13,12.8494
2001-06-14,12.6083
2001-06-15,12.7541
2001-06-18,12.8325
2001-06-19,12.8998
2001-06-20,13.1184
2001-06-21,12.911
2001-06-22,12.9391
2001-06-25,12.9334
2001-06-26,13.1184
2001-06-27,13.2754
2001-06-28,13.169
2001-06-29,13.0288
2001-07-02,13.0399
2001-07-03,13.0792
2001-07-05,13.0344
2001-07-06,12.9671
2001-07-09,13.0792
2001-07-10,13.2082
2001-07-11,13.0961
2001-07-12,13.0344
2001-07-13,13.0624
2001-07-16,13.2194
2001-07-17,13.2194
2001-07-18,13.2137
2001-07-19,13.0904
2001-07-20,12.9166
2001-07-23,12.7933
2001-07-24,12.6588
2001-07-25,12.5578
2001-07-26,12.8774
2001-07-27,12.883
2001-07-30,13.1409
2001-07-31,13.1745
2001-08-01,13.2418
2001-08-02,13.4211
2001-08-03,13.7565
2001-08-06,13.3186
2001-08-07,13.4096
2001-08-08,13.1537
2001-08-09,13.2959
2001-08-10,13.2163
2001-08-13,13.0457
2001-08-14,13.1082
2001-08-15,13.0514
2001-08-16,13.1651
2001-08-17,13.0514
2001-08-20,13.1196
2001-08-21,13.0343
2001-08-22,13.2504
2001-08-23,13.2163
2001-08-24,13.2277
2001-08-27,13.2903
2001-08-28,13.2845
2001-08-29,13.3073
2001-08-30,13.1025
2001-08-31,13.2333
2001-09-04,13.2618
2001-09-05,13.2903
2001-09-06,13.4438
2001-09-07,13.5746
2001-09-10,13.4665
2001-09-17,13.6485
2001-09-18,13.785
2001-09-19,14.075
2001-09-20,14.6722
2001-09-21,14.5697
2001-09-24,14.274
2001-09-25,13.9442
2001-09-26,13.7452
2001-09-27,13.529
2001-09-28,13.6485
2001-10-01,14.0693
2001-10-02,14.2285
2001-10-03,14.53
2001-10-04,14.5356
2001-10-05,14.6949
2001-10-08,14.6153
2001-10-09,14.274
2001-10-10,14.2058
2001-10-11,13.8646
2001-10-12,13.9556
2001-10-15,14.2115
2001-10-16,14.4959
2001-10-17,14.3707
2001-10-18,14.1148
2001-10-19,14.3196
2001-10-22,14.1376
2001-10-23,13.9954
2001-10-24,13.7509
2001-10-25,13.7793
2001-10-26,13.7964
2001-10-29,13.8532
2001-10-30,13.6939
2001-10-31,13.603
2001-11-01,13.8425
2001-11-02,13.5368
2001-11-05,13.9579
2001-11-06,13.9983
2001-11-07,13.831
2001-11-08,13.9175
2001-11-09,13.9232
2001-11-12,13.8598
2001-11-13,13.831
2001-11-14,13.6407
2001-11-15,13.4965
2001-11-16,13.6118
2001-11-19,13.358
2001-11-20,13.6695
2001-11-21,13.4907
2001-11-23,13.5541
2001-11-26,13.4619
2001-11-27,13.4446
2001-11-28,13.2196
2001-11-29,13.1216
2001-11-30,13.0927
2001-12-03,13.1504
2001-12-04,13.2369
2001-12-05,13.2542
2001-12-06,13.0119
2001-12-07,13.1446
2001-12-10,13.0985
2001-12-11,12.914
2001-12-12,13.2138
2001-12-13,13.4042
2001-12-14,13.4388
2001-12-17,13.3811
2001-12-18,13.7214
2001-12-19,14.2175
2001-12-20,14.1367
2001-12-21,14.2002
2001-12-24,14.3962
2001-12-26,14.6097
2001-12-27,14.6327
2001-12-28,14.627
2001-12-31,14.5981
2002-01-02,14.6903
2002-01-03,14.4886
2002-01-04,14.3154
2002-01-07,14.2635
2002-01-08,14.2116
2002-01-09,14.1713
2002-01-10,14.2289
2002-01-11,14.2462
2002-01-14,14.4654
2002-01-15,14.5751
2002-01-16,14.5519
2002-01-17,14.4539
2002-01-18,14.5808
2002-01-22,14.4192
2002-01-23,14.2924
2002-01-24,14.4481
2002-01-25,14.3559
2002-01-28,14.327
2002-01-29,14.1655
2002-01-30,14.1251
2002-01-31,14.3562
2002-02-01,14.4088
2002-02-04,14.3502
2002-02-05,14.3093
2002-02-06,14.3327
2002-02-07,14.5023
2002-02-08,14.6134
2002-02-11,14.6193
2002-02-12,14.6018
2002-02-13,14.7597
2002-02-14,14.7948
2002-02-15,14.6719
2002-02-19,14.5023
2002-02-20,14.6427
2002-02-21,14.4906
2002-02-22,14.6719
2002-02-25,14.8474
2002-02-26,14.8415
2002-02-27,14.9292
2002-02-28,14.8707
2002-03-01,15.0227
2002-03-04,15.1104
2002-03-05,15.2392
2002-03-06,15.2859
2002-03-07,15.3152
2002-03-08,15.2332
2002-03-11,15.169
2002-03-12,15.1339
2002-03-13,15.0929
2002-03-14,15.1573
2002-03-15,15.3795
2002-03-18,15.3502
2002-03-19,15.4438
2002-03-20,15.3502
2002-03-21,15.6427
2002-03-22,15.6543
2002-03-25,15.5374
2002-03-26,15.5783
2002-03-27,15.5666
2002-03-28,15.4964
2002-04-01,15.5023
2002-04-02,15.666
2002-04-03,15.6368
2002-04-04,15.7713
2002-04-05,15.6076
2002-04-08,15.6718
2002-04-09,15.6192
2002-04-10,15.6543
2002-04-11,15.4672
2002-04-12,15.6368
2002-04-15,15.3853
2002-04-16,15.6076
2002-04-17,15.7713
2002-04-18,16.2099
2002-04-19,16.5257
2002-04-22,16.432
2002-04-23,16.5431
2002-04-24,16.3678
2002-04-25,16.2683
2002-04-26,16.1923
2002-04-29,16.3327
2002-04-30,16.549
2002-05-01,16.4613
2002-05-02,16.5767
2002-05-03,16.6239
2002-05-06,16.8134
2002-05-07,16.7364
2002-05-08,16.7956
2002-05-09,16.6358
2002-05-10,16.4996
2002-05-13,16.6299
2002-05-14,16.6417
2002-05-15,16.3636
2002-05-16,15.9493
2002-05-17,15.612
2002-05-20,15.8961
2002-05-21,16.0085
2002-05-22,16.5115
2002-05-23,16.6122
2002-05-24,16.4642
2002-05-28,16.3577
2002-05-29,16.1505
2002-05-30,16.1387
2002-05-31,16.0203
2002-06-03,15.7895
2002-06-04,15.7718
2002-06-05,15.6889
2002-06-06,15.2037
2002-06-07,15.2273
2002-06-10,15.3989
2002-06-11,15.4995
2002-06-12,15.5765
2002-06-13,15.8191
2002-06-14,15.6711
2002-06-17,15.8013
2002-06-18,16.0796
2002-06-19,15.967
2002-06-20,15.9611
2002-06-21,16.121
2002-06-24,15.8487
2002-06-25,15.7126
2002-06-26,15.5706
2002-06-27,15.8606
2002-06-28,16.2097
2002-07-01,15.9256
2002-07-02,16.0499
2002-07-03,15.9138
2002-07-05,16.0381
2002-07-08,15.7954
2002-07-09,15.5823
2002-07-10,15.109
2002-07-11,15.4522
2002-07-12,14.884
2002-07-15,15.5054
2002-07-16,14.9078
2002-07-17,15.0675
2002-07-18,14.7835
2002-07-19,14.1621
2002-07-22,14.5586
2002-07-23,14.2331
2002-07-24,15.4108
2002-07-25,15.9315
2002-07-26,15.7599
2002-07-29,15.754
2002-07-30,16.7186
2002-07-31,17.0383
2002-08-01,16.501
2002-08-02,16.5549
2002-08-05,16.7766
2002-08-06,17.2857
2002-08-07,17.1719
2002-08-08,17.2498
2002-08-09,17.0102
2002-08-12,16.8544
2002-08-13,16.6328
2002-08-14,17.2737
2002-08-15,16.9503
2002-08-16,16.7586
2002-08-19,16.7705
2002-08-20,16.7705
2002-08-21,17.07
2002-08-22,17.3875
2002-08-23,16.9981
2002-08-26,17.124
2002-08-27,17.0102
2002-08-28,17.1479
2002-08-29,17.0461
2002-08-30,17.3216
2002-09-03,16.9203
2002-09-04,16.9084
2002-09-05,16.9503
2002-09-06,17.124
2002-09-09,17.2198
2002-09-10,16.6927
2002-09-11,16.5251
2002-09-12,16.0578
2002-09-13,16.2615
2002-09-16,16.2315
2002-09-17,16.0159
2002-09-18,16.8964
2002-09-19,16.6148
2002-09-20,16.9084
2002-09-23,16.6927
2002-09-24,16.549
2002-09-25,17.0641
2002-09-26,17.2857
2002-09-27,17.1299
2002-09-30,17.1959
2002-10-01,17.4294
2002-10-02,17.2797
2002-10-03,17.3816
2002-10-04,17.1599
2002-10-07,17.5792
2002-10-08,17.2737
2002-10-09,16.1836
2002-10-10,17.2557
2002-10-11,17.2797
2002-10-14,17.2737
2002-10-15,17.3097
2002-10-16,16.8365
2002-10-17,17.2378
2002-10-18,17.2857
2002-10-21,18.0104
2002-10-22,17.4594
2002-10-23,17.669
2002-10-24,17.669
2002-10-25,18.1841
2002-10-28,18.4416
2002-10-29,17.9925
2002-10-30,18.226
2002-10-31,17.9605
2002-11-01,17.8697
2002-11-04,17.9362
2002-11-05,17.7667
2002-11-06,17.8697
2002-11-07,17.2457
2002-11-08,16.646
2002-11-11,16.6339
2002-11-12,15.2286
2002-11-13,15.4103
2002-11-14,15.5194
2002-11-15,15.9737
2002-11-18,15.804
2002-11-19,15.8646
2002-11-20,15.6707
2002-11-21,15.6405
2002-11-22,16.1069
2002-11-25,16.2887
2002-11-26,15.9313
2002-11-27,15.8282
2002-11-29,15.8464
2002-12-02,15.4527
2002-12-03,15.9615
2002-12-04,16.0039
2002-12-05,15.9494
2002-12-06,16.0887
2002-12-09,16.5249
2002-12-10,16.6702
2002-12-11,16.7612
2002-12-12,16.8701
2002-12-13,16.9125
2002-12-16,16.852
2002-12-17,17.0458
2002-12-18,17.1124
2002-12-19,17.3305
2002-12-20,17.5001
2002-12-23,17.276
2002-12-24,17.4456
2002-12-26,17.5061
2002-12-27,17.2517
2002-12-30,17.2517
2002-12-31,17.1669
2003-01-02,17.5365
2003-01-03,17.6576
2003-01-06,18.6571
2003-01-07,17.9666
2003-01-08,17.8999
2003-01-09,17.8697
2003-01-10,17.8939
2003-01-13,17.6516
2003-01-14,17.6152
2003-01-15,17.5849
2003-01-16,17.4214
2003-01-17,17.2821
2003-01-21,17.2336
2003-01-22,17.3911
2003-01-23,17.5607
2003-01-24,17.1488
2003-01-27,16.858
2003-01-28,17.3668
2003-01-29,17.5607
2003-01-30,17.2008
2003-01-31,17.2989
2003-02-03,17.6544
2003-02-04,17.446
2003-02-05,17.2253
2003-02-06,17.4644
2003-02-07,17.3786
2003-02-10,17.7525
2003-02-11,17.538
2003-02-12,16.9863
2003-02-13,17.0415
2003-02-14,17.2744
2003-02-18,17.3602
2003-02-19,17.3479
2003-02-20,17.2683
2003-02-21,17.4031
2003-02-24,17.256
2003-02-25,17.4031
2003-02-26,17.2621
2003-02-27,17.2805
2003-02-28,17.3173
2003-03-03,17.3725
2003-03-04,17.305
2003-03-05,17.4705
2003-03-06,17.5441
2003-03-07,17.4522
2003-03-10,17.164
2003-03-11,17.2805
2003-03-12,17.305
2003-03-13,17.3909
2003-03-14,17.3479
2003-03-17,17.6728
2003-03-18,17.7648
2003-03-19,17.6483
2003-03-20,17.6851
2003-03-21,17.9487
2003-03-24,17.777
2003-03-25,17.8812
2003-03-26,17.5318
2003-03-27,17.4583
2003-03-28,17.5257
2003-03-31,17.4031
2003-04-01,17.4705
2003-04-02,17.4092
2003-04-03,17.2744
2003-04-04,17.4154
2003-04-07,17.3418
2003-04-08,17.2928
2003-04-09,17.2008
2003-04-10,17.2253
2003-04-11,17.1518
2003-04-14,17.4951
2003-04-15,17.5625
2003-04-16,17.5012
2003-04-17,17.6177
2003-04-21,17.5012
2003-04-22,17.7096
2003-04-23,17.5931
2003-04-24,17.6544
2003-04-25,17.6544
2003-04-28,17.8629
2003-04-29,17.7035
2003-04-30,17.7893
2003-05-01,17.7342
2003-05-02,17.7218
2003-05-05,17.8335
2003-05-06,17.7714
2003-05-07,17.7466
2003-05-08,17.821
2003-05-09,17.9947
2003-05-12,18.094
2003-05-13,18.0505
2003-05-14,17.9947
2003-05-15,18.0381
2003-05-16,18.3483
2003-05-19,18.2242
2003-05-20,18.4537
2003-05-21,18.2553
2003-05-22,18.4289
2003-05-23,19.3222
2003-05-27,19.502
2003-05-28,19.5393
2003-05-29,19.1299
2003-05-30,19.5206
2003-06-02,19.4834
2003-06-03,19.6323
2003-06-04,19.7191
2003-06-05,19.1795
2003-06-06,19.0988
2003-06-09,19.1236
2003-06-10,18.9561
2003-06-11,19.2415
2003-06-12,19.4462
2003-06-13,19.2539
2003-06-16,19.533
2003-06-17,19.5082
2003-06-18,19.5454
2003-06-19,19.5889
2003-06-20,19.6013
2003-06-23,19.5206
2003-06-24,19.4027
2003-06-25,19.2477
2003-06-26,19.533
2003-06-27,19.3656
2003-06-30,19.3222
2003-07-01,18.9252
2003-07-02,18.8073
2003-07-03,18.6708
2003-07-07,18.7887
2003-07-08,18.7142
2003-07-09,18.4103
2003-07-10,17.9327
2003-07-11,18.156
2003-07-14,17.9823
2003-07-15,17.6784
2003-07-16,17.3186
2003-07-17,17.5419
2003-07-18,18.0009
2003-07-21,17.5729
2003-07-22,17.9451
2003-07-23,18.0133
2003-07-24,17.9575
2003-07-25,17.9762
2003-07-28,17.7776
2003-07-29,17.697
2003-07-30,17.8024
2003-07-31,17.8338
2003-08-01,17.6203
2003-08-04,17.7333
2003-08-05,17.4633
2003-08-06,17.7333
2003-08-07,17.7648
2003-08-08,17.7648
2003-08-11,17.6454
2003-08-12,17.8276
2003-08-13,17.7146
2003-08-14,17.7082
2003-08-15,17.658
2003-08-18,17.6266
2003-08-19,17.5638
2003-08-20,17.6014
2003-08-21,17.5827
2003-08-22,17.5073
2003-08-25,17.6454
2003-08-26,17.6831
2003-08-27,17.8966
2003-08-28,17.8715
2003-08-29,17.8024
2003-09-02,18.0787
2003-09-03,18.1416
2003-09-04,18.1792
2003-09-05,18.198
2003-09-08,18.4869
2003-09-09,18.3801
2003-09-10,18.3801
2003-09-11,18.1792
2003-09-12,18.3236
2003-09-15,18.1227
2003-09-16,18.2922
2003-09-17,18.1416
2003-09-18,18.3927
2003-09-19,18.3613
2003-09-22,18.1164
2003-09-23,18.2295
2003-09-24,18.0599
2003-09-25,18.2043
2003-09-26,18.4367
2003-09-29,18.6627
2003-09-30,18.4304
2003-10-01,18.5748
2003-10-02,18.5874
2003-10-03,18.5434
2003-10-06,18.4429
2003-10-07,18.4367
2003-10-08,18.4116
2003-10-09,18.6125
2003-10-10,18.5559
2003-10-13,18.4618
2003-10-14,18.581
2003-10-15,18.355
2003-10-16,18.4744
2003-10-17,18.4241
2003-10-20,18.581
2003-10-21,18.9516
2003-10-22,18.9139
2003-10-23,19.052
2003-10-24,19.0332
2003-10-27,19.0332
2003-10-28,19.0897
2003-10-29,19.0457
2003-10-30,19.0776
2003-10-31,18.9632
2003-11-03,19.0521
2003-11-04,18.9187
2003-11-05,18.8869
2003-11-06,18.7916
2003-11-07,18.6519
2003-11-10,18.7027
2003-11-11,18.582
2003-11-12,18.5757
2003-11-13,18.5757
2003-11-14,18.6011
2003-11-17,18.5185
2003-11-18,18.2389
2003-11-19,18.4676
2003-11-20,18.2707
2003-11-21,18.2072
2003-11-24,18.3914
2003-11-25,18.4613
2003-11-26,18.6138
2003-11-28,18.5947
2003-12-01,18.7408
2003-12-02,18.7472
2003-12-03,18.8679
2003-12-04,18.8489
2003-12-05,18.8615
2003-12-08,18.8679
2003-12-09,18.7154
2003-12-10,18.6265
2003-12-11,18.7282
2003-12-12,18.8361
2003-12-15,18.8361
2003-12-16,18.7662
2003-12-17,18.9123
2003-12-18,18.9187
2003-12-19,18.9886
2003-12-22,19.122
2003-12-23,19.1983
2003-12-24,19.0966
2003-12-26,19.0521
2003-12-29,19.1284
2003-12-30,19.2173
2003-12-31,19.1855
2004-01-02,19.0902
2004-01-05,19.0776
2004-01-06,19.0648
2004-01-07,19.0267
2004-01-08,19.0394
2004-01-09,18.9505
2004-01-12,18.9632
2004-01-13,18.8933
2004-01-14,18.8933
2004-01-15,18.8298
2004-01-16,18.6709
2004-01-20,18.8298
2004-01-21,19.141
2004-01-22,19.1093
2004-01-23,19.2173
2004-01-26,19.1538
2004-01-27,19.1664
2004-01-28,19.2109
2004-01-29,19.3066
2004-01-30,19.1588
2004-02-02,19.0238
2004-02-03,18.9788
2004-02-04,18.8374
2004-02-05,18.7346
2004-02-06,18.7924
2004-02-09,18.7667
2004-02-10,18.9017
2004-02-11,18.8952
2004-02-12,18.9916
2004-02-13,18.9467
2004-02-17,19.0302
2004-02-18,19.2424
2004-02-19,19.2617
2004-02-20,19.1845
2004-02-23,19.0881
2004-02-24,19.0496
2004-02-25,19.1588
2004-02-26,19.2874
2004-02-27,19.4737
2004-03-01,19.5444
2004-03-02,19.4866
2004-03-03,19.4866
2004-03-04,19.5701
2004-03-05,19.6858
2004-03-08,19.628
2004-03-09,19.6858
2004-03-10,19.4866
2004-03-11,19.3131
2004-03-12,19.358
2004-03-15,19.493
2004-03-16,19.5894
2004-03-17,19.8272
2004-03-18,19.5637
2004-03-19,19.3709
2004-03-22,19.1974
2004-03-23,19.2488
2004-03-24,19.2424
2004-03-25,19.3709
2004-03-26,19.5508
2004-03-29,19.5765
2004-03-30,19.6601
2004-03-31,19.6023
2004-04-01,19.6794
2004-04-02,19.4994
2004-04-05,19.448
2004-04-06,19.4416
2004-04-07,19.3516
2004-04-08,19.146
2004-04-12,18.8888
2004-04-13,18.7603
2004-04-14,18.7089
2004-04-15,18.831
2004-04-16,18.9852
2004-04-19,18.786
2004-04-20,18.6318
2004-04-21,18.6896
2004-04-22,18.786
2004-04-23,18.8181
2004-04-26,18.9531
2004-04-27,18.9017
2004-04-28,18.7089
2004-04-29,18.6374
2004-04-30,18.6895
2004-05-03,18.774
2004-05-04,18.8651
2004-05-05,18.6895
2004-05-06,18.8651
2004-05-07,18.2861
2004-05-10,18.2146
2004-05-11,18.1885
2004-05-12,18.143
2004-05-13,18.2016
2004-05-14,18.3577
2004-05-17,18.2081
2004-05-18,18.4162
2004-05-19,18.2732
2004-05-20,18.3252
2004-05-21,18.2861
2004-05-24,18.4227
2004-05-25,18.774
2004-05-26,18.7024
2004-05-27,18.7935
2004-05-28,18.8586
2004-06-01,18.8456
2004-06-02,19.0343
2004-06-03,18.8586
2004-06-04,18.9627
2004-06-07,19.0733
2004-06-08,18.8976
2004-06-09,18.657
2004-06-10,18.8
2004-06-14,18.6114
2004-06-15,18.826
2004-06-16,18.774
2004-06-17,18.8066
2004-06-18,18.8521
2004-06-21,18.9822
2004-06-22,18.9301
2004-06-23,18.9822
2004-06-24,18.9887
2004-06-25,18.8911
2004-06-28,19.0017
2004-06-29,18.8391
2004-06-30,18.9692
2004-07-01,18.7415
2004-07-02,18.8847
2004-07-06,18.8131
2004-07-07,18.8196
2004-07-08,18.8586
2004-07-09,18.8326
2004-07-12,18.8586
2004-07-13,18.8131
2004-07-14,19.0017
2004-07-15,19.1253
2004-07-16,19.1904
2004-07-19,19.3595
2004-07-20,19.4441
2004-07-21,19.2554
2004-07-22,19.1123
2004-07-23,19.1123
2004-07-26,19.1384
2004-07-27,19.1318
2004-07-28,19.1644
2004-07-29,19.2154
2004-07-30,19.2747
2004-08-02,19.3735
2004-08-03,19.3603
2004-08-04,19.492
2004-08-05,19.3208
2004-08-06,19.6369
2004-08-09,19.5644
2004-08-10,19.6106
2004-08-11,19.6171
2004-08-12,19.7356
2004-08-13,19.6369
2004-08-16,19.6829
2004-08-17,19.5644
2004-08-18,19.7423
2004-08-19,19.5908
2004-08-20,19.5579
2004-08-23,19.5644
2004-08-24,19.6435
2004-08-25,19.7027
2004-08-26,19.7488
2004-08-27,19.7949
2004-08-30,19.7554
2004-08-31,19.9596
2004-09-01,19.9266
2004-09-02,20.0451
2004-09-03,20.0715
2004-09-07,20.1768
2004-09-08,19.9925
2004-09-09,19.9463
2004-09-10,19.9529
2004-09-13,19.8805
2004-09-14,19.7554
2004-09-15,19.7949
2004-09-16,19.9859
2004-09-17,20.0517
2004-09-20,19.8607
2004-09-21,20.0254
2004-09-22,19.8739
2004-09-23,19.6829
2004-09-24,19.65
2004-09-27,19.7619
2004-09-28,19.9002
2004-09-29,19.6896
2004-09-30,19.7554
2004-10-01,19.8805
2004-10-04,19.9727
2004-10-05,19.9266
2004-10-06,19.999
2004-10-07,19.8805
2004-10-08,20.1505
2004-10-11,20.0846
2004-10-12,20.2163
2004-10-13,19.9332
2004-10-14,19.841
2004-10-15,19.92
2004-10-18,19.8015
2004-10-19,19.7423
2004-10-20,20.1571
2004-10-21,20.7695
2004-10-22,20.809
2004-10-25,20.8946
2004-10-26,21.0658
2004-10-27,21.0395
2004-10-28,20.8318
2004-10-29,21.0049
2004-11-01,21.0516
2004-11-02,20.7119
2004-11-03,21.1181
2004-11-04,21.7042
2004-11-05,21.571
2004-11-08,21.7708
2004-11-09,21.7442
2004-11-10,21.6776
2004-11-11,21.8841
2004-11-12,22.0638
2004-11-15,21.9839
2004-11-16,21.9973
2004-11-17,21.7841
2004-11-18,21.8707
2004-11-19,21.8374
2004-11-22,22.1105
2004-11-23,22.1238
2004-11-24,22.3768
2004-11-26,22.5101
2004-11-29,22.277
2004-11-30,21.8707
2004-12-01,21.8374
2004-12-02,21.4778
2004-12-03,21.7242
2004-12-06,21.9373
2004-12-07,21.8108
2004-12-08,21.6709
2004-12-09,21.7375
2004-12-10,21.7908
2004-12-13,22.0572
2004-12-14,21.9773
2004-12-15,21.9174
2004-12-16,22.1038
2004-12-17,22.0039
2004-12-20,22.237
2004-12-21,22.3968
2004-12-22,22.5034
2004-12-23,22.4967
2004-12-27,22.2903
2004-12-28,22.4101
2004-12-29,22.3768
2004-12-30,22.59
2004-12-31,22.3369
2005-01-03,21.9973
2005-01-04,22.0239
2005-01-05,21.8773
2005-01-06,21.7176
2005-01-07,21.8174
2005-01-10,21.9906
2005-01-11,21.9506
2005-01-12,21.9306
2005-01-13,21.904
2005-01-14,21.9373
2005-01-18,22.1105
2005-01-19,21.9706
2005-01-20,21.924
2005-01-21,21.9174
2005-01-24,22.2303
2005-01-25,21.7974
2005-01-26,22.0971
2005-01-27,22.3036
2005-01-28,22.3103
2005-01-31,22.4834
2005-02-01,22.6766
2005-02-02,22.6233
2005-02-03,22.5413
2005-02-04,22.7096
2005-02-07,22.6624
2005-02-08,22.6356
2005-02-09,22.4807
2005-02-10,22.5211
2005-02-11,22.3528
2005-02-14,22.4606
2005-02-15,22.4201
2005-02-16,22.3461
2005-02-17,22.225
2005-02-18,21.8682
2005-02-22,21.3095
2005-02-23,21.4307
2005-02-24,21.4509
2005-02-25,21.8884
2005-02-28,21.6259
2005-03-01,21.7875
2005-03-02,21.7875
2005-03-03,21.6528
2005-03-04,21.922
2005-03-07,21.9018
2005-03-08,21.8211
2005-03-09,21.3701
2005-03-10,21.6057
2005-03-11,21.4442
2005-03-14,21.7942
2005-03-15,21.6326
2005-03-16,21.397
2005-03-17,21.6461
2005-03-18,21.5519
2005-03-21,21.4644
2005-03-22,21.1884
2005-03-23,21.1009
2005-03-24,21.35
2005-03-28,21.1817
2005-03-29,21.0201
2005-03-30,21.2625
2005-03-31,21.4375
2005-04-01,21.5182
2005-04-04,21.4981
2005-04-05,21.599
2005-04-06,21.5317
2005-04-07,21.6528
2005-04-08,21.5317
2005-04-11,21.7201
2005-04-12,22.0903
2005-04-13,21.8682
2005-04-14,21.7
2005-04-15,21.5115
2005-04-18,21.4106
2005-04-19,21.8682
2005-04-20,21.9356
2005-04-21,22.0903
2005-04-22,22.225
2005-04-25,22.4067
2005-04-26,22.0365
2005-04-27,22.2653
2005-04-28,22.0701
2005-04-29,22.4309
2005-05-02,22.5807
2005-05-03,22.4854
2005-05-04,22.6011
2005-05-05,22.5535
2005-05-06,22.5535
2005-05-09,22.5943
2005-05-10,22.5262
2005-05-11,22.4785
2005-05-12,22.6623
2005-05-13,22.9143
2005-05-16,23.1117
2005-05-17,23.452
2005-05-18,23.3772
2005-05-19,23.4112
2005-05-20,23.384
2005-05-23,23.2478
2005-05-24,23.0709
2005-05-25,23.0096
2005-05-26,23.0641
2005-05-27,23.2274
2005-05-31,23.1117
2005-06-01,23.418
2005-06-02,23.4793
2005-06-03,23.4453
2005-06-06,23.418
2005-06-07,23.4793
2005-06-08,23.5201
2005-06-09,23.4725
2005-06-10,23.4316
2005-06-13,23.3976
2005-06-14,23.4248
2005-06-15,23.241
2005-06-16,23.2887
2005-06-17,23.2955
2005-06-20,23.2137
2005-06-21,23.3227
2005-06-22,23.527
2005-06-23,23.4861
2005-06-24,23.2955
2005-06-27,23.6086
2005-06-28,23.8061
2005-06-29,23.6699
2005-06-30,23.5746
2005-07-01,23.8877
2005-07-05,23.9422
2005-07-06,23.5814
2005-07-07,23.8129
2005-07-08,24.2281
2005-07-11,24.4323
2005-07-12,24.2485
2005-07-13,24.269
2005-07-14,24.16
2005-07-15,24.2213
2005-07-18,24.0443
2005-07-19,24.0512
2005-07-20,24.0988
2005-07-21,23.7652
2005-07-22,24.0375
2005-07-25,24.017
2005-07-26,23.9899
2005-07-27,24.1055
2005-07-28,24.1837
2005-07-29,24.0944
2005-08-01,23.8604
2005-08-02,24.0805
2005-08-03,24.1356
2005-08-04,23.9498
2005-08-05,23.5921
2005-08-08,23.2962
2005-08-09,23.5508
2005-08-10,23.4545
2005-08-11,23.5921
2005-08-12,23.5301
2005-08-15,23.537
2005-08-16,23.2068
2005-08-17,23.0485
2005-08-18,23.1104
2005-08-19,23.1999
2005-08-22,23.2136
2005-08-23,23.4957
2005-08-24,23.3857
2005-08-25,23.6127
2005-08-26,23.365
2005-08-29,23.4476
2005-08-30,23.4201
2005-08-31,23.6747
2005-09-01,23.8742
2005-09-02,24.1356
2005-09-06,24.4383
2005-09-07,24.2595
2005-09-08,24.1769
2005-09-09,24.3971
2005-09-12,24.2732
2005-09-13,24.1081
2005-09-14,24.2457
2005-09-15,24.4108
2005-09-16,24.8924
2005-09-19,24.6723
2005-09-20,24.569
2005-09-21,24.4314
2005-09-22,24.4521
2005-09-23,24.6034
2005-09-26,24.6653
2005-09-27,24.5553
2005-09-28,24.6104
2005-09-29,24.7686
2005-09-30,24.6104
2005-10-03,24.8167
2005-10-04,24.631
2005-10-05,24.0324
2005-10-06,23.8673
2005-10-07,24.0049
2005-10-10,23.6127
2005-10-11,23.5096
2005-10-12,23.1999
2005-10-13,22.9041
2005-10-14,22.9041
2005-10-17,23.255
2005-10-18,22.9178
2005-10-19,23.1517
2005-10-20,22.8972
2005-10-21,23.255
2005-10-24,23.7022
2005-10-25,23.7779
2005-10-26,23.544
2005-10-27,23.3031
2005-10-28,23.6333
2005-10-31,24.0737
2005-11-01,23.8879
2005-11-02,24.0118
2005-11-03,24.0206
2005-11-04,23.9997
2005-11-07,23.7841
2005-11-08,23.9163
2005-11-09,23.9789
2005-11-10,24.0275
2005-11-11,23.9789
2005-11-14,23.6589
2005-11-15,23.6589
2005-11-16,23.6937
2005-11-17,23.9301
2005-11-18,24.1944
2005-11-21,24.0901
2005-11-22,24.0275
2005-11-23,24.2292
2005-11-25,24.2849
2005-11-28,24.3057
2005-11-29,24.4101
2005-11-30,24.1389
2005-12-01,24.2361
2005-12-02,24.3683
2005-12-05,24.3335
2005-12-06,24.264
2005-12-07,24.1318
2005-12-08,24.3335
2005-12-09,24.4935
2005-12-12,24.2709
2005-12-13,24.5283
2005-12-14,24.5909
2005-12-15,24.5492
2005-12-16,24.5839
2005-12-19,24.4378
2005-12-20,24.5421
2005-12-21,24.2432
2005-12-22,24.424
2005-12-23,24.4518
2005-12-27,24.4101
2005-12-28,24.2987
2005-12-29,24.1249
2005-12-30,23.9928
2006-01-03,24.3823
2006-01-04,24.3266
2006-01-05,24.2501
2006-01-06,24.3892
2006-01-09,24.2709
2006-01-10,24.2432
2006-01-11,24.1944
2006-01-12,24.2292
2006-01-13,24.2709
2006-01-17,24.3892
2006-01-18,24.4657
2006-01-19,24.7786
2006-01-20,24.3544
2006-01-23,24.4866
2006-01-24,24.7578
2006-01-25,24.57
2006-01-26,24.4587
2006-01-27,24.5561
2006-01-30,24.3961
2006-01-31,24.1875
2006-02-01,24.1389
2006-02-02,23.7544
2006-02-03,23.4872
2006-02-06,23.5294
2006-02-07,23.445
2006-02-08,23.3959
2006-02-09,23.4662
2006-02-10,23.4872
2006-02-13,23.5997
2006-02-14,23.5856
2006-02-15,23.4802
2006-02-16,23.7333
2006-02-17,23.7895
2006-02-21,23.8739
2006-02-22,23.9652
2006-02-23,23.8949
2006-02-24,23.9723
2006-02-27,24.0075
2006-02-28,23.923
2006-03-01,23.9723
2006-03-02,23.7824
2006-03-03,23.7544
2006-03-06,23.4169
2006-03-07,23.4239
2006-03-08,23.452
2006-03-09,23.3256
2006-03-10,23.3959
2006-03-13,23.4169
2006-03-14,23.6489
2006-03-15,23.7333
2006-03-16,23.7824
2006-03-17,23.7473
2006-03-20,23.5997
2006-03-21,23.4942
2006-03-22,23.4802
2006-03-23,23.3607
2006-03-24,23.2623
2006-03-27,23.206
2006-03-28,22.967
2006-03-29,23.1498
2006-03-30,22.7843
2006-03-31,23.0373
2006-04-03,22.8967
2006-04-04,22.9529
2006-04-05,23.2623
2006-04-06,22.8616
2006-04-07,22.4889
2006-04-10,22.3835
2006-04-11,22.1304
2006-04-12,22.2851
2006-04-13,22.1164
2006-04-17,22.2148
2006-04-18,22.3976
2006-04-19,22.4257
2006-04-20,22.5171
2006-04-21,22.4749
2006-04-24,22.7561
2006-04-25,22.3061
2006-04-26,22.271
2006-04-27,22.8321
2006-04-28,22.9175
2006-05-01,22.6044
2006-05-02,22.7324
2006-05-03,22.4549
2006-05-04,22.4905
2006-05-05,22.8036
2006-05-08,22.7111
2006-05-09,22.6186
2006-05-10,22.8606
2006-05-11,22.4763
2006-05-12,22.1488
2006-05-15,22.3125
2006-05-16,22.2414
2006-05-17,21.7147
2006-05-18,21.793
2006-05-19,22.2058
2006-05-22,22.5475
2006-05-23,22.0991
2006-05-24,22.4264
2006-05-25,22.6044
2006-05-26,23.003
2006-05-30,22.5546
2006-05-31,22.7752
2006-06-01,22.7253
2006-06-02,23.2164
2006-06-05,23.0243
2006-06-06,23.067
2006-06-07,23.0385
2006-06-08,23.124
2006-06-09,23.2093
2006-06-12,23.3445
2006-06-13,23.0528
2006-06-14,22.9602
2006-06-15,23.2876
2006-06-16,23.1382
2006-06-19,23.0528
2006-06-20,22.8463
2006-06-21,22.7752
2006-06-22,22.8891
2006-06-23,22.825
2006-06-26,22.8036
2006-06-27,22.6044
2006-06-28,22.6186
2006-06-29,22.768
2006-06-30,22.8535
2006-07-03,22.9816
2006-07-05,23.0457
2006-07-06,23.0385
2006-07-07,23.2022
2006-07-10,23.4157
2006-07-11,23.5225
2006-07-12,23.3161
2006-07-13,23.1667
2006-07-14,23.1667
2006-07-17,23.124
2006-07-18,23.2662
2006-07-19,23.6008
2006-07-20,23.736
2006-07-21,23.857
2006-07-24,23.9139
2006-07-25,24.099
2006-07-26,24.0492
2006-07-27,24.0349
2006-07-28,24.0919
2006-07-31,24.0777
2006-08-01,24.2911
2006-08-02,24.3338
2006-08-03,24.0443
2006-08-04,24.2964
2006-08-07,23.8932
2006-08-08,24.1092
2006-08-09,24.0084
2006-08-10,24.0588
2006-08-11,24.0228
2006-08-14,24.1524
2006-08-15,24.3323
2006-08-16,24.0948
2006-08-17,24.1884
2006-08-18,24.2459
2006-08-21,24.2891
2006-08-22,24.3611
2006-08-23,24.0732
2006-08-24,24.2244
2006-08-25,24.138
2006-08-28,24.462
2006-08-29,24.3539
2006-08-30,24.4259
2006-08-31,24.6563
2006-09-01,24.6202
2006-09-05,24.4691
2006-09-06,24.3971
2006-09-07,24.4403
2006-09-08,24.5195
2006-09-11,24.5627
2006-09-12,24.6059
2006-09-13,24.8075
2006-09-14,24.6707
2006-09-15,24.865
2006-09-18,24.6419
2006-09-19,24.6707
2006-09-20,24.7859
2006-09-21,24.8435
2006-09-22,24.6707
2006-09-25,24.973
2006-09-26,24.901
2006-09-27,25.1674
2006-09-28,24.9083
2006-09-29,24.8003
2006-10-02,25.081
2006-10-03,25.1458
2006-10-04,25.2034
2006-10-05,25.1386
2006-10-06,25.045
2006-10-09,25.0019
2006-10-10,24.9587
2006-10-11,25.1962
2006-10-12,25.189
2006-10-13,25.2898
2006-10-16,25.3474
2006-10-17,25.3402
2006-10-18,25.765
2006-10-19,25.6641
2006-10-20,25.7433
2006-10-23,25.8082
2006-10-24,25.8082
2006-10-25,26.0601
2006-10-26,26.0241
2006-10-27,25.9377
2006-10-30,26.0529
2006-10-31,26.1968
2006-11-01,26.3624
2006-11-02,26.201
2006-11-03,26.0264
2006-11-06,25.9536
2006-11-07,25.9317
2006-11-08,26.15
2006-11-09,26.0627
2006-11-10,26.2228
2006-11-13,26.2083
2006-11-14,26.3392
2006-11-15,26.2592
2006-11-16,26.2883
2006-11-17,26.3174
2006-11-20,26.2883
2006-11-21,26.2883
2006-11-22,26.2737
2006-11-24,26.5575
2006-11-27,25.9827
2006-11-28,26.121
2006-11-29,26.3829
2006-11-30,26.3901
2006-12-01,26.4193
2006-12-04,26.6376
2006-12-05,26.7321
2006-12-06,26.4993
2006-12-07,26.4557
2006-12-08,26.5139
2006-12-11,26.6448
2006-12-12,26.9868
2006-12-13,27.0013
2006-12-14,27.125
2006-12-15,26.9213
2006-12-18,26.9649
2006-12-19,27.1614
2006-12-20,27.0013
2006-12-21,26.9795
2006-12-22,26.8558
2006-12-26,27.0158
2006-12-27,27.1032
2006-12-28,26.8412
2006-12-29,26.7758
2007-01-03,26.914
2007-01-04,26.9431
2007-01-05,26.5356
2007-01-08,26.5793
2007-01-09,26.6812
2007-01-10,26.5866
2007-01-11,26.703
2007-01-12,26.361
2007-01-16,26.5503
2007-01-17,26.6957
2007-01-18,26.6376
2007-01-19,26.7394
2007-01-22,26.6666
2007-01-23,26.7321
2007-01-24,26.7321
2007-01-25,26.7249
2007-01-26,26.4847
2007-01-29,26.3756
2007-01-30,26.3465
2007-01-31,26.5939
2007-02-01,26.725
2007-02-02,26.6882
2007-02-05,26.7838
2007-02-06,26.8867
2007-02-07,26.8499
2007-02-08,26.7396
2007-02-09,26.7543
2007-02-12,26.6735
2007-02-13,26.8352
2007-02-14,26.8647
2007-02-15,26.747
2007-02-16,26.7617
2007-02-20,26.9088
2007-02-21,26.7176
2007-02-22,26.6882
2007-02-23,26.6514
2007-02-26,26.7838
2007-02-27,26.1071
2007-02-28,26.3058
2007-03-01,26.394
2007-03-02,26.0042
2007-03-05,25.7469
2007-03-06,26.0851
2007-03-07,25.9674
2007-03-08,26.1513
2007-03-09,25.9674
2007-03-12,26.0557
2007-03-13,25.7689
2007-03-14,25.9527
2007-03-15,26.2175
2007-03-16,26.041
2007-03-19,26.3205
2007-03-20,26.6587
2007-03-21,27.0779
2007-03-22,26.9676
2007-03-23,27.1
2007-03-26,27.2471
2007-03-27,27.0706
2007-03-28,26.9603
2007-03-29,27.1368
2007-03-30,26.9603
2007-04-02,27.2471
2007-04-03,27.3721
2007-04-04,27.2839
2007-04-05,27.3573
2007-04-09,27.4236
2007-04-10,27.4897
2007-04-11,27.4971
2007-04-12,27.4677
2007-04-13,27.5486
2007-04-16,27.5192
2007-04-17,27.7324
2007-04-18,27.8796
2007-04-19,27.7765
2007-04-20,28.056
2007-04-23,27.9604
2007-04-24,28.1664
2007-04-25,28.4753
2007-04-26,28.3061
2007-04-27,28.0854
2007-04-30,27.7765
2007-05-01,27.9457
2007-05-02,27.9972
2007-05-03,27.9995
2007-05-04,27.9475
2007-05-07,28.0738
2007-05-08,28.0069
2007-05-09,27.9029
2007-05-10,27.4049
2007-05-11,27.4792
2007-05-14,27.5089
2007-05-15,27.5536
2007-05-16,27.8583
2007-05-17,27.6576
2007-05-18,27.7542
2007-05-21,27.7394
2007-05-22,27.6278
2007-05-23,27.2265
2007-05-24,26.6839
2007-05-25,26.3569
2007-05-29,26.5204
2007-05-30,26.7211
2007-05-31,26.7582
2007-06-01,26.6542
2007-06-04,26.6096
2007-06-05,26.2454
2007-06-06,26.2454
2007-06-07,25.4723
2007-06-08,25.7325
2007-06-11,25.7622
2007-06-12,25.3981
2007-06-13,25.9629
2007-06-14,26.1264
2007-06-15,26.4609
2007-06-18,26.1042
2007-06-19,26.3123
2007-06-20,25.6508
2007-06-21,25.7994
2007-06-22,25.2494
2007-06-25,25.175
2007-06-26,25.1156
2007-06-27,25.4277
2007-06-28,25.2048
2007-06-29,25.4723
2007-07-02,25.7399
2007-07-03,25.7251
2007-07-05,25.5838
2007-07-06,25.3459
2007-07-09,25.5021
2007-07-10,25.1008
2007-07-11,25.3014
2007-07-12,25.7697
2007-07-13,25.9257
2007-07-16,25.5838
2007-07-17,25.5244
2007-07-18,25.6062
2007-07-19,25.9703
2007-07-20,25.4277
2007-07-23,25.6656
2007-07-24,25.123
2007-07-25,25.7251
2007-07-26,25.5095
2007-07-27,25.1453
2007-07-30,25.1899
2007-07-31,24.9669
2007-08-01,25.9852
2007-08-02,26.2962
2007-08-03,25.2961
2007-08-06,26.5594
2007-08-07,27.3339
2007-08-08,27.6573
2007-08-09,27.8903
2007-08-10,27.5896
2007-08-13,26.6496
2007-08-14,26.3564
2007-08-15,26.3338
2007-08-16,26.6947
2007-08-17,27.0482
2007-08-20,27.0181
2007-08-21,27.2513
2007-08-22,27.2963
2007-08-23,27.0707
2007-08-24,27.1685
2007-08-27,26.5519
2007-08-28,26.424
2007-08-29,26.7775
2007-08-30,26.5068
2007-08-31,26.6797
2007-09-04,27.0031
2007-09-05,26.5443
2007-09-06,26.7925
2007-09-07,26.6045
2007-09-10,26.6797
2007-09-11,27.0106
2007-09-12,27.146
2007-09-13,27.2888
2007-09-14,27.3941
2007-09-17,27.3339
2007-09-18,27.74
2007-09-19,28.131
2007-09-20,27.7927
2007-09-21,27.8453
2007-09-24,27.74
2007-09-25,27.7249
2007-09-26,27.8528
2007-09-27,27.7776
2007-09-28,27.2963
2007-10-01,27.7249
2007-10-02,27.6798
2007-10-03,27.7475
2007-10-04,27.74
2007-10-05,27.6347
2007-10-08,27.567
2007-10-09,27.9581
2007-10-10,27.6573
2007-10-11,27.6498
2007-10-12,27.5445
2007-10-15,27.3339
2007-10-16,27.1835
2007-10-17,27.176
2007-10-18,27.1083
2007-10-19,26.6045
2007-10-22,26.7624
2007-10-23,26.7624
2007-10-24,26.8978
2007-10-25,27.1234
2007-10-26,27.2211
2007-10-29,27.4091
2007-10-30,27.2738
2007-10-31,27.6046
2007-11-01,27.0675
2007-11-02,27.1587
2007-11-05,27.2804
2007-11-06,27.2271
2007-11-07,26.7633
2007-11-08,27.4857
2007-11-09,27.2347
2007-11-12,27.3717
2007-11-13,27.7061
2007-11-14,27.653
2007-11-15,28.0255
2007-11-16,28.1472
2007-11-19,28.6642
2007-11-20,29.0748
2007-11-21,28.9759
2007-11-23,28.9227
2007-11-26,28.5958
2007-11-27,28.725
2007-11-28,28.8771
2007-11-29,28.7402
2007-11-30,28.5958
2007-12-03,28.7707
2007-12-04,29.0596
2007-12-05,29.5157
2007-12-06,29.6146
2007-12-07,29.5689
2007-12-10,29.7743
2007-12-11,29.28
2007-12-12,29.2953
2007-12-13,29.5918
2007-12-14,29.2345
2007-12-17,28.9531
2007-12-18,29.4702
2007-12-19,29.1888
2007-12-20,29.3865
2007-12-21,29.7743
2007-12-24,29.7667
2007-12-26,29.7058
2007-12-27,29.5765
2007-12-28,29.7514
2007-12-31,29.4929
2008-01-02,29.0064
2008-01-03,28.9607
2008-01-04,29.4473
2008-01-07,29.9872
2008-01-08,30.1544
2008-01-09,30.7551
2008-01-10,30.5802
2008-01-11,30.2457
2008-01-14,30.1164
2008-01-15,29.8959
2008-01-16,29.7591
2008-01-17,29.0748
2008-01-18,28.649
2008-01-22,28.0939
2008-01-23,28.4741
2008-01-24,27.7974
2008-01-25,27.4173
2008-01-28,27.4552
2008-01-29,27.7746
2008-01-30,27.6225
2008-01-31,28.0164
2008-02-01,28.6622
2008-02-04,28.8544
2008-02-05,28.1086
2008-02-06,27.8165
2008-02-07,27.5935
2008-02-08,27.4936
2008-02-11,27.409
2008-02-12,27.8242
2008-02-13,27.7781
2008-02-14,27.5013
2008-02-15,27.509
2008-02-19,27.4783
2008-02-20,27.4628
2008-02-21,27.0169
2008-02-22,27.2938
2008-02-25,27.509
2008-02-26,27.8012
2008-02-27,27.4783
2008-02-28,27.0631
2008-02-29,26.5864
2008-03-03,26.671
2008-03-04,26.94
2008-03-05,26.8785
2008-03-06,26.4326
2008-03-07,26.3557
2008-03-10,26.2789
2008-03-11,26.9939
2008-03-12,26.6171
2008-03-13,26.5787
2008-03-14,26.5326
2008-03-17,27.2476
2008-03-18,27.6167
2008-03-19,27.1476
2008-03-20,27.7934
2008-03-24,27.5013
2008-03-25,27.4475
2008-03-26,27.4475
2008-03-27,27.4244
2008-03-28,27.2168
2008-03-31,27.3629
2008-04-01,27.9626
2008-04-02,28.201
2008-04-03,28.0471
2008-04-04,28.1086
2008-04-07,27.8934
2008-04-08,27.9164
2008-04-09,28.2163
2008-04-10,27.9011
2008-04-11,27.9319
2008-04-14,27.8319
2008-04-15,28.0241
2008-04-16,28.4162
2008-04-17,28.2855
2008-04-18,28.3855
2008-04-21,28.2163
2008-04-22,28.0933
2008-04-23,28.1394
2008-04-24,28.3086
2008-04-25,28.5162
2008-04-28,28.3624
2008-04-29,28.3624
2008-04-30,28.6238
2008-05-01,28.6937
2008-05-02,28.8571
2008-05-05,28.6005
2008-05-06,28.5305
2008-05-07,28.2272
2008-05-08,28.305
2008-05-09,28.2195
2008-05-12,28.6549
2008-05-13,28.5539
2008-05-14,28.7327
2008-05-15,28.5382
2008-05-16,28.5772
2008-05-19,28.7716
2008-05-20,28.6627
2008-05-21,28.3983
2008-05-22,28.6082
2008-05-23,28.0406
2008-05-27,28.1495
2008-05-28,28.1183
2008-05-29,28.235
2008-05-30,28.1572
2008-06-02,27.7062
2008-06-03,27.5507
2008-06-04,27.7218
2008-06-05,27.9861
2008-06-06,27.193
2008-06-09,27.4107
2008-06-10,27.3485
2008-06-11,27.2241
2008-06-12,27.2164
2008-06-13,27.3252
2008-06-16,27.4185
2008-06-17,27.333
2008-06-18,27.2319
2008-06-19,27.2164
2008-06-20,26.8431
2008-06-23,27.0919
2008-06-24,27.1542
2008-06-25,27.5662
2008-06-26,26.9753
2008-06-27,26.7498
2008-06-30,27.1464
2008-07-01,27.3097
2008-07-02,27.3874
2008-07-03,27.4652
2008-07-07,27.3641
2008-07-08,27.8773
2008-07-09,28.4605
2008-07-10,28.3594
2008-07-11,27.9395
2008-07-14,27.7062
2008-07-15,27.6284
2008-07-16,27.4496
2008-07-17,27.1385
2008-07-18,27.0764
2008-07-21,27.6129
2008-07-22,27.7373
2008-07-23,27.3796
2008-07-24,27.6518
2008-07-25,27.3407
2008-07-28,27.5119
2008-07-29,27.7529
2008-07-30,27.9318
2008-07-31,27.822
2008-08-01,27.2162
2008-08-04,27.767
2008-08-05,28.2311
2008-08-06,28.0659
2008-08-07,27.822
2008-08-08,28.7505
2008-08-11,29.5216
2008-08-12,29.4743
2008-08-13,29.4272
2008-08-14,29.1282
2008-08-15,29.4272
2008-08-18,29.6003
2008-08-19,29.4822
2008-08-20,29.5373
2008-08-21,29.5216
2008-08-22,29.7104
2008-08-25,29.3564
2008-08-26,29.5452
2008-08-27,29.6317
2008-08-28,29.8756
2008-08-29,29.5216
2008-09-02,29.3485
2008-09-03,29.616
2008-09-04,29.3564
2008-09-05,29.1911
2008-09-08,29.8835
2008-09-09,29.8285
2008-09-10,29.6081
2008-09-11,29.8835
2008-09-12,29.9229
2008-09-15,29.9858
2008-09-16,30.7175
2008-09-17,30.0094
2008-09-18,30.9142
2008-09-19,30.214
2008-09-22,29.6947
2008-09-23,29.4901
2008-09-24,29.8678
2008-09-25,30.3163
2008-09-26,30.4421
2008-09-29,29.6003
2008-09-30,29.6632
2008-10-01,29.7104
2008-10-02,29.4901
2008-10-03,29.2462
2008-10-06,28.6639
2008-10-07,28.0738
2008-10-08,27.8535
2008-10-09,27.0589
2008-10-10,25.4931
2008-10-13,27.9244
2008-10-14,27.1139
2008-10-15,25.737
2008-10-16,26.5631
2008-10-17,26.3979
2008-10-20,28.0817
2008-10-21,27.5624
2008-10-22,26.5474
2008-10-23,28.4358
2008-10-24,27.3736
2008-10-27,25.9809
2008-10-28,28.1289
2008-10-29,27.5624
2008-10-30,28.0664
2008-10-31,27.2541
2008-11-03,27.6363
2008-11-04,28.0585
2008-11-05,27.5169
2008-11-06,26.8797
2008-11-07,27.6444
2008-11-10,27.5487
2008-11-11,27.6921
2008-11-12,27.3019
2008-11-13,27.9549
2008-11-14,28.0904
2008-11-17,28.2337
2008-11-18,27.8753
2008-11-19,27.4771
2008-11-20,26.8638
2008-11-21,28.3213
2008-11-24,28.2496
2008-11-25,28.5045
2008-11-26,28.6797
2008-11-28,28.9266
2008-12-01,28.0266
2008-12-02,28.2736
2008-12-03,29.0142
2008-12-04,28.1859
2008-12-05,29.3806
2008-12-08,29.4443
2008-12-09,29.054
2008-12-10,29.3089
2008-12-11,28.9346
2008-12-12,28.7593
2008-12-15,28.5523
2008-12-16,29.6673
2008-12-17,28.9186
2008-12-18,28.7275
2008-12-19,28.6239
2008-12-22,28.7196
2008-12-23,28.4567
2008-12-24,28.5045
2008-12-26,28.608
2008-12-29,28.7514
2008-12-30,29.0619
2008-12-31,29.5319
2009-01-02,29.8186
2009-01-05,29.2611
2009-01-06,28.5045
2009-01-07,28.4407
2009-01-08,28.3213
2009-01-09,28.3292
2009-01-12,28.4886
2009-01-13,27.7718
2009-01-14,27.3417
2009-01-15,27.5965
2009-01-16,27.947
2009-01-20,27.708
2009-01-21,27.8435
2009-01-22,27.7956
2009-01-23,27.6045
2009-01-26,27.7797
2009-01-27,27.8594
2009-01-28,27.3895
2009-01-29,27.309
2009-01-30,26.8898
2009-02-02,26.8737
2009-02-03,26.9704
2009-02-04,27.0349
2009-02-05,26.9301
2009-02-06,27.0833
2009-02-09,26.6156
2009-02-10,25.9464
2009-02-11,25.8899
2009-02-12,25.5433
2009-02-13,25.3739
2009-02-17,24.5515
2009-02-18,24.8096
2009-02-19,24.8579
2009-02-20,24.358
2009-02-23,23.9549
2009-02-24,24.9627
2009-02-25,25.2127
2009-02-26,24.7692
2009-02-27,24.4629
2009-03-02,23.9952
2009-03-03,23.0034
2009-03-04,23.213
2009-03-05,22.439
2009-03-06,22.6326
2009-03-09,21.6166
2009-03-10,21.9633
2009-03-11,21.8827
2009-03-12,21.5763
2009-03-13,21.8747
2009-03-16,22.7052
2009-03-17,23.2212
2009-03-18,23.9469
2009-03-19,24.4145
2009-03-20,24.6644
2009-03-23,25.6481
2009-03-24,24.7692
2009-03-25,24.5677
2009-03-26,24.745
2009-03-27,24.608
2009-03-30,24.5032
2009-03-31,24.6644
2009-04-01,24.8257
2009-04-02,25.0111
2009-04-03,25.0272
2009-04-06,24.9466
2009-04-07,24.9063
2009-04-08,25.2934
2009-04-09,24.8579
2009-04-13,24.5919
2009-04-14,24.0274
2009-04-15,24.2209
2009-04-16,24.0355
2009-04-17,23.8823
2009-04-20,24.0678
2009-04-21,24.2209
2009-04-22,23.8017
2009-04-23,23.721
2009-04-24,23.7453
2009-04-27,24.0032
2009-04-28,24.2694
2009-04-29,24.1161
2009-04-30,23.6221
2009-05-01,23.5566
2009-05-04,23.7203
2009-05-05,23.6467
2009-05-06,23.8348
2009-05-07,23.9167
2009-05-08,23.4912
2009-05-11,23.7367
2009-05-12,23.5975
2009-05-13,23.4503
2009-05-14,23.2621
2009-05-15,23.0166
2009-05-18,22.9839
2009-05-19,22.8694
2009-05-20,22.4848
2009-05-21,22.3702
2009-05-22,22.6975
2009-05-26,23.1639
2009-05-27,22.9921
2009-05-28,23.1394
2009-05-29,23.2212
2009-06-01,23.6467
2009-06-02,23.7285
2009-06-03,23.4912
2009-06-04,23.5076
2009-06-05,23.6467
2009-06-08,23.5648
2009-06-09,23.4503
2009-06-10,23.7694
2009-06-11,24.424
2009-06-12,24.964
2009-06-15,24.6776
2009-06-16,24.6776
2009-06-17,24.8331
2009-06-18,25.4713
2009-06-19,25.0213
2009-06-22,25.4549
2009-06-23,25.4549
2009-06-24,25.5777
2009-06-25,25.9868
2009-06-26,26.0768
2009-06-29,26.0768
2009-06-30,25.4958
2009-07-01,25.774
2009-07-02,25.4468
2009-07-06,25.9132
2009-07-07,25.4631
2009-07-08,25.3158
2009-07-09,25.1931
2009-07-10,25.0949
2009-07-13,25.0949
2009-07-14,25.1931
2009-07-15,25.7986
2009-07-16,26.0113
2009-07-17,25.774
2009-07-20,25.9868
2009-07-21,26.0768
2009-07-22,26.0195
2009-07-23,26.404
2009-07-24,26.6987
2009-07-27,26.6413
2009-07-28,26.1832
2009-07-29,26.0686
2009-07-30,26.3994
2009-07-31,26.0758
2009-08-03,25.9099
2009-08-04,25.9762
2009-08-05,25.9099
2009-08-06,25.9762
2009-08-07,26.1588
2009-08-10,25.9762
2009-08-11,25.9348
2009-08-12,26.0841
2009-08-13,26.0095
2009-08-14,26.0924
2009-08-17,25.7771
2009-08-18,25.6112
2009-08-19,25.8103
2009-08-20,25.9928
2009-08-21,26.1173
2009-08-24,26.1754
2009-08-25,26.1837
2009-08-26,26.2417
2009-08-27,26.2086
2009-08-28,26.2003
2009-08-31,25.885
2009-09-01,25.8353
2009-09-02,25.7771
2009-09-03,25.8435
2009-09-04,26.0841
2009-09-08,26.0426
2009-09-09,25.8186
2009-09-10,25.8684
2009-09-11,25.7191
2009-09-14,26.1504
2009-09-15,26.5073
2009-09-16,26.6649
2009-09-17,26.6316
2009-09-18,26.5985
2009-09-21,26.5653
2009-09-22,26.3994
2009-09-23,26.4077
2009-09-24,26.4907
2009-09-25,26.474
2009-09-28,26.5073
2009-09-29,26.5404
2009-09-30,26.2666
2009-10-01,26.2998
2009-10-02,26.2998
2009-10-05,26.3081
2009-10-06,26.4491
2009-10-07,26.416
2009-10-08,26.3828
2009-10-09,26.3911
2009-10-12,26.4907
2009-10-13,26.3496
2009-10-14,26.4242
2009-10-15,26.6316
2009-10-16,26.9303
2009-10-19,27.6023
2009-10-20,27.5443
2009-10-21,27.7682
2009-10-22,27.6356
2009-10-23,27.0962
2009-10-26,27.005
2009-10-27,27.0548
2009-10-28,26.9802
2009-10-29,26.6335
2009-10-30,26.213
2009-11-02,26.1038
2009-11-03,26.028
2009-11-04,26.1794
2009-11-05,26.499
2009-11-06,26.5411
2009-11-09,26.9952
2009-11-10,27.096
2009-11-11,26.8858
2009-11-12,26.5579
2009-11-13,26.5663
2009-11-16,26.8438
2009-11-17,26.7093
2009-11-18,26.6756
2009-11-19,26.4906
2009-11-20,26.4233
2009-11-23,26.8017
2009-11-24,26.8942
2009-11-25,26.9194
2009-11-27,26.5831
2009-11-30,26.9784
2009-12-01,27.2475
2009-12-02,27.4577
2009-12-03,27.8278
2009-12-04,27.5754
2009-12-07,27.7436
2009-12-08,27.895
2009-12-09,28.2313
2009-12-10,28.3912
2009-12-11,28.7864
2009-12-14,28.7528
2009-12-15,28.6855
2009-12-16,28.5005
2009-12-17,28.1809
2009-12-18,28.3912
2009-12-21,28.3828
2009-12-22,28.1053
2009-12-23,27.9791
2009-12-24,28.0043
2009-12-28,28.1305
2009-12-29,28.1809
2009-12-30,28.3155
2009-12-31,28.0211
2010-01-04,27.9959
2010-01-05,27.382
2010-01-06,27.794
2010-01-07,27.6511
2010-01-08,27.6259
2010-01-11,27.9623
2010-01-12,27.7772
2010-01-13,28.2061
2010-01-14,28.0969
2010-01-15,28.0211
2010-01-19,28.2819
2010-01-20,28.1053
2010-01-21,27.8446
2010-01-22,27.3736
2010-01-25,27.5754
2010-01-26,27.7436
2010-01-27,27.7268
2010-01-28,27.2485
2010-01-29,27.2911
2010-02-01,27.2655
2010-02-02,27.3934
2010-02-03,27.257
2010-02-04,26.9246
2010-02-05,27.0013
2010-02-08,26.524
2010-02-09,26.6604
2010-02-10,26.6604
2010-02-11,26.6945
2010-02-12,26.524
2010-02-16,27.1803
2010-02-17,26.9417
2010-02-18,27.095
2010-02-19,27.5213
2010-02-22,27.5553
2010-02-23,27.2996
2010-02-24,27.3848
2010-02-25,27.2655
2010-02-26,27.1121
2010-03-01,27.3167
2010-03-02,27.4786
2010-03-03,27.4189
2010-03-04,27.5383
2010-03-05,27.4615
2010-03-08,27.5553
2010-03-09,27.5383
2010-03-10,27.5894
2010-03-11,27.6917
2010-03-12,27.7002
2010-03-15,27.9985
2010-03-16,28.3224
2010-03-17,28.5014
2010-03-18,28.4502
2010-03-19,28.3394
2010-03-22,28.2202
2010-03-23,28.3991
2010-03-24,28.1519
2010-03-25,28.1348
2010-03-26,28.1946
2010-03-29,28.4076
2010-03-30,28.2798
2010-03-31,28.2713
2010-04-01,28.4758
2010-04-05,28.544
2010-04-06,28.8679
2010-04-07,28.6122
2010-04-08,28.5781
2010-04-09,28.9105
2010-04-12,28.919
2010-04-13,28.8764
2010-04-14,28.9702
2010-04-15,28.9446
2010-04-16,28.8594
2010-04-19,29.0724
2010-04-20,29.3196
2010-04-21,29.3537
2010-04-22,29.4645
2010-04-23,29.5924
2010-04-26,29.7117
2010-04-27,29.3622
2010-04-28,30.0782
2010-04-29,29.8756
2010-04-30,29.8324
2010-05-03,29.8583
2010-05-04,29.6425
2010-05-05,29.4007
2010-05-06,28.8481
2010-05-07,29.297
2010-05-10,30.1347
2010-05-11,30.1088
2010-05-12,30.2469
2010-05-13,29.9187
2010-05-14,29.772
2010-05-17,29.9187
2010-05-18,29.582
2010-05-19,29.2798
2010-05-20,28.8654
2010-05-21,29.0121
2010-05-24,28.589
2010-05-25,28.4854
2010-05-26,28.2005
2010-05-27,28.4249
2010-05-28,28.2523
2010-06-01,27.881
2010-06-02,28.2264
2010-06-03,28.3473
2010-06-04,27.7256
2010-06-07,27.8464
2010-06-08,28.3473
2010-06-09,28.1314
2010-06-10,28.5026
2010-06-11,28.494
2010-06-14,28.6409
2010-06-15,29.0898
2010-06-16,29.2193
2010-06-17,29.3748
2010-06-18,29.4525
2010-06-21,29.297
2010-06-22,28.9431
2010-06-23,28.7704
2010-06-24,28.7359
2010-06-25,28.7704
2010-06-28,29.2107
2010-06-29,29.0553
2010-06-30,28.7359
2010-07-01,28.8308
2010-07-02,28.8222
2010-07-06,28.9172
2010-07-07,29.841
2010-07-08,29.8151
2010-07-09,30.0051
2010-07-12,30.031
2010-07-13,30.1692
2010-07-14,30.1519
2010-07-15,30.2469
2010-07-16,30.031
2010-07-19,30.6095
2010-07-20,30.929
2010-07-21,30.5232
2010-07-22,30.8082
2010-07-23,30.9808
2010-07-26,31.1621
2010-07-27,31.7493
2010-07-28,31.5853
2010-07-29,30.9949
2010-07-30,30.9075
2010-08-02,31.3359
2010-08-03,31.0911
2010-08-04,31.2747
2010-08-05,31.3971
2010-08-06,31.3446
2010-08-09,31.5982
2010-08-10,31.7906
2010-08-11,31.3534
2010-08-12,31.3184
2010-08-13,31.3534
2010-08-16,31.3359
2010-08-17,31.537
2010-08-18,31.4583
2010-08-19,31.0299
2010-08-20,31.3446
2010-08-23,31.3796
2010-08-24,31.8518
2010-08-25,31.7381
2010-08-26,31.5982
2010-08-27,32.3501
2010-08-30,31.9567
2010-08-31,32.0703
2010-09-01,32.2627
2010-09-02,32.1928
2010-09-03,32.3414
2010-09-07,32.2889
2010-09-08,32.2889
2010-09-09,32.4813
2010-09-10,32.4201
2010-09-13,32.5425
2010-09-14,32.56
2010-09-15,32.49
2010-09-16,32.3239
2010-09-17,32.4113
2010-09-20,32.7786
2010-09-21,32.5163
2010-09-22,32.7523
2010-09-23,32.2977
2010-09-24,32.7611
2010-09-27,32.8048
2010-09-28,32.831
2010-09-29,32.7086
2010-09-30,32.5775
2010-10-01,32.49
2010-10-04,32.6999
2010-10-05,33.0321
2010-10-06,32.9796
2010-10-07,33.0146
2010-10-08,32.9622
2010-10-11,32.831
2010-10-12,32.7698
2010-10-13,32.7698
2010-10-14,32.8398
2010-10-15,32.9184
2010-10-18,33.1633
2010-10-19,33.0758
2010-10-20,33.2507
2010-10-21,33.3469
2010-10-22,33.4693
2010-10-25,33.3818
2010-10-26,33.4605
2010-10-27,33.4955
2010-10-28,33.4381
2010-10-29,33.4824
2010-11-01,33.2523
2010-11-02,33.5886
2010-11-03,33.5089
2010-11-04,34.0221
2010-11-05,34.0487
2010-11-08,33.8628
2010-11-09,33.8186
2010-11-10,33.5974
2010-11-11,33.8628
2010-11-12,33.7035
2010-11-15,33.9159
2010-11-16,33.7655
2010-11-17,33.5355
2010-11-18,33.6416
2010-11-19,33.677
2010-11-22,33.854
2010-11-23,33.5886
2010-11-24,33.6239
2010-11-26,33.447
2010-11-29,33.2346
2010-11-30,33.385
2010-12-01,33.8186
2010-12-02,33.677
2010-12-03,33.7566
2010-12-06,33.7212
2010-12-07,33.5355
2010-12-08,33.2523
2010-12-09,33.5355
2010-12-10,33.4558
2010-12-13,33.5355
2010-12-14,33.4735
2010-12-15,33.3762
2010-12-16,33.447
2010-12-17,33.5797
2010-12-20,33.8717
2010-12-21,33.8894
2010-12-22,33.8097
2010-12-23,33.8805
2010-12-27,33.8805
2010-12-28,33.9867
2010-12-29,33.9956
2010-12-30,33.8894
2010-12-31,33.8274
2011-01-03,34.0044
2011-01-04,34.0664
2011-01-05,33.7124
2011-01-06,33.5178
2011-01-07,33.7124
2011-01-10,33.4204
2011-01-11,33.4824
2011-01-12,33.6681
2011-01-13,33.8805
2011-01-14,34.0575
2011-01-18,33.9867
2011-01-19,33.9956
2011-01-20,33.9867
2011-01-21,33.8274
2011-01-24,33.9779
2011-01-25,34.0575
2011-01-26,33.7655
2011-01-27,33.7389
2011-01-28,33.4116
2011-01-31,33.27
2011-02-01,33.5709
2011-02-02,33.2611
2011-02-03,33.6773
2011-02-04,33.4444
2011-02-07,33.5609
2011-02-08,33.4534
2011-02-09,33.6683
2011-02-10,33.4624
2011-02-11,34.0803
2011-02-14,33.9997
2011-02-15,34.1699
2011-02-16,33.9371
2011-02-17,33.8744
2011-02-18,33.9281
2011-02-22,33.955
2011-02-23,33.8475
2011-02-24,33.8206
2011-02-25,34.0714
2011-02-28,34.1251
2011-03-01,33.7938
2011-03-02,33.8565
2011-03-03,34.2058
2011-03-04,34.0087
2011-03-07,34.0893
2011-03-08,34.3849
2011-03-09,34.5013
2011-03-10,34.3938
2011-03-11,34.2775
2011-03-14,33.7221
2011-03-15,33.1399
2011-03-16,32.9428
2011-03-17,33.0414
2011-03-18,33.1579
2011-03-21,33.5251
2011-03-22,33.4803
2011-03-23,33.5699
2011-03-24,33.6057
2011-03-25,33.6683
2011-03-28,33.6236
2011-03-29,33.749
2011-03-30,34.1699
2011-03-31,34.1251
2011-04-01,34.2954
2011-04-04,34.3133
2011-04-05,34.2775
2011-04-06,34.6536
2011-04-07,34.6536
2011-04-08,34.4028
2011-04-11,33.8296
2011-04-12,33.5878
2011-04-13,33.6683
2011-04-14,33.9192
2011-04-15,34.3402
2011-04-18,34.2685
2011-04-19,34.2237
2011-04-20,34.4565
2011-04-21,34.5282
2011-04-25,34.5103
2011-04-26,34.5103
2011-04-27,34.8417
2011-04-28,35.1979
2011-04-29,35.3883
2011-05-02,35.3974
2011-05-03,35.5878
2011-05-04,35.8417
2011-05-05,35.6332
2011-05-06,35.8145
2011-05-09,36.023
2011-05-10,36.1771
2011-05-11,36.2678
2011-05-12,36.6576
2011-05-13,36.703
2011-05-16,36.5308
2011-05-17,36.8028
2011-05-18,36.7121
2011-05-19,37.0022
2011-05-20,36.6849
2011-05-23,36.3767
2011-05-24,36.3676
2011-05-25,36.1952
2011-05-26,36.1228
2011-05-27,36.0956
2011-05-31,36.3222
2011-06-01,36.0049
2011-06-02,35.9776
2011-06-03,35.7147
2011-06-06,35.6604
2011-06-07,35.6875
2011-06-08,35.9052
2011-06-09,35.8508
2011-06-10,35.6693
2011-06-13,35.9686
2011-06-14,35.9686
2011-06-15,35.6604
2011-06-16,35.9504
2011-06-17,36.1046
2011-06-20,36.2587
2011-06-21,36.1137
2011-06-22,35.8689
2011-06-23,35.6693
2011-06-24,35.76
2011-06-27,36.0774
2011-06-28,36.4673
2011-06-29,36.5035
2011-06-30,36.6305
2011-07-01,36.9297
2011-07-05,36.8028
2011-07-06,36.8481
2011-07-07,36.6849
2011-07-08,36.5308
2011-07-11,36.3676
2011-07-12,36.5761
2011-07-13,36.5761
2011-07-14,36.3676
2011-07-15,36.4673
2011-07-18,36.2678
2011-07-19,36.5126
2011-07-20,36.5489
2011-07-21,37.0022
2011-07-22,36.7756
2011-07-25,36.5398
2011-07-26,36.4945
2011-07-27,36.4582
2011-07-28,36.4794
2011-07-29,36.2776
2011-08-01,36.3968
2011-08-02,36.2225
2011-08-03,36.3143
2011-08-04,36.039
2011-08-05,36.6538
2011-08-08,35.2041
2011-08-09,35.1307
2011-08-10,34.8188
2011-08-11,36.1858
2011-08-12,35.9657
2011-08-15,37.085
2011-08-16,36.9289
2011-08-17,37.2685
2011-08-18,36.8464
2011-08-19,36.6813
2011-08-22,36.6813
2011-08-23,37.2501
2011-08-24,37.819
2011-08-25,37.4886
2011-08-26,37.4612
2011-08-29,37.7088
2011-08-30,37.8006
2011-08-31,37.8648
2011-09-01,37.7272
2011-09-02,37.7547
2011-09-06,37.8464
2011-09-07,37.8832
2011-09-08,37.975
2011-09-09,37.4153
2011-09-12,37.9291
2011-09-13,38.1401
2011-09-14,38.3236
2011-09-15,38.5622
2011-09-16,39.1035
2011-09-19,38.8557
2011-09-20,39.2962
2011-09-21,39.0759
2011-09-22,38.6906
2011-09-23,38.9016
2011-09-26,38.92
2011-09-27,38.8282
2011-09-28,38.8006
2011-09-29,39.2686
2011-09-30,38.9016
2011-10-03,38.5713
2011-10-04,38.3511
2011-10-05,37.9382
2011-10-06,38.5804
2011-10-07,38.8833
2011-10-10,39.4154
2011-10-11,39.1127
2011-10-12,39.2044
2011-10-13,38.9933
2011-10-14,39.1401
2011-10-17,39.3144
2011-10-18,39.3053
2011-10-19,39.4246
2011-10-20,39.6814
2011-10-21,40.3145
2011-10-24,39.7916
2011-10-25,39.5438
2011-10-26,39.5346
2011-10-27,40.0301
2011-10-28,39.6814
2011-10-31,39.6631
2011-11-01,39.131
2011-11-02,39.6264
2011-11-03,40.1854
2011-11-04,40.0184
2011-11-07,40.4636
2011-11-08,40.7698
2011-11-09,40.0926
2011-11-10,40.4358
2011-11-11,40.7512
2011-11-14,40.4079
2011-11-15,40.3338
2011-11-16,39.9905
2011-11-17,39.8514
2011-11-18,40.0926
2011-11-21,39.9257
2011-11-22,39.536
2011-11-23,39.1836
2011-11-25,39.369
2011-11-28,39.6102
2011-11-29,40.139
2011-11-30,40.7141
2011-12-01,40.8625
2011-12-02,40.6213
2011-12-05,41.048
2011-12-06,41.5119
2011-12-07,41.1686
2011-12-08,40.7698
2011-12-09,41.4099
2011-12-12,41.0295
2011-12-13,41.1037
2011-12-14,40.9553
2011-12-15,41.4747
2011-12-16,41.3356
2011-12-19,41.3263
2011-12-20,42.1334
2011-12-21,42.5138
2011-12-22,42.3931
2011-12-23,42.5879
2011-12-27,43.1538
2011-12-28,43.0053
2011-12-29,43.2095
2011-12-30,42.9683
2012-01-03,41.7809
2012-01-04,41.7438
2012-01-05,41.716
2012-01-06,41.2429
2012-01-09,41.7253
2012-01-10,41.5861
2012-01-11,41.7994
2012-01-12,41.8551
2012-01-13,42.0035
2012-01-17,41.9478
2012-01-18,42.1798
2012-01-19,41.716
2012-01-20,42.0221
2012-01-23,42.087
2012-01-24,41.6417
2012-01-25,41.8737
2012-01-26,42.0128
2012-01-27,41.7994
2012-01-30,41.7623
2012-01-31,42.254
2012-02-01,42.0684
2012-02-02,41.4805
2012-02-03,41.5648
2012-02-06,41.4617
2012-02-07,41.7617
2012-02-08,41.8179
2012-02-09,41.8742
2012-02-10,41.8179
2012-02-13,41.6305
2012-02-14,41.7148
2012-02-15,41.3867
2012-02-16,41.6211
2012-02-17,41.6023
2012-02-21,41.2648
2012-02-22,41.4148
2012-02-23,41.4711
2012-02-24,41.743
2012-02-27,41.696
2012-02-28,41.5742
2012-02-29,41.4523
2012-03-01,41.6023
2012-03-02,41.5179
2012-03-05,41.4242
2012-03-06,41.8742
2012-03-07,41.7991
2012-03-08,41.9679
2012-03-09,42.2304
2012-03-12,42.5678
2012-03-13,42.5678
2012-03-14,42.0148
2012-03-15,42.0522
2012-03-16,41.5554
2012-03-19,41.2461
2012-03-20,41.2648
2012-03-21,41.2086
2012-03-22,41.3117
2012-03-23,41.3867
2012-03-26,41.7336
2012-03-27,41.9585
2012-03-28,41.8273
2012-03-29,42.0616
2012-03-30,42.0991
2012-04-02,42.1835
2012-04-03,42.4178
2012-04-04,42.3522
2012-04-05,42.1647
2012-04-09,41.9491
2012-04-10,41.6211
2012-04-11,41.7336
2012-04-12,41.9304
2012-04-13,41.9867
2012-04-16,42.3616
2012-04-17,42.5491
2012-04-18,42.7084
2012-04-19,42.6429
2012-04-20,42.9615
2012-04-23,42.7553
2012-04-24,43.0272
2012-04-25,42.6335
2012-04-26,42.9709
2012-04-27,43.1021
2012-04-30,43.074
2012-05-01,43.224
2012-05-02,42.9991
2012-05-03,42.8471
2012-05-04,42.9987
2012-05-07,43.0462
2012-05-08,43.3304
2012-05-09,42.9892
2012-05-10,43.2261
2012-05-11,43.1504
2012-05-14,43.0462
2012-05-15,43.0177
2012-05-16,43.0177
2012-05-17,42.885
2012-05-18,43.0745
2012-05-21,43.103
2012-05-22,43.1599
2012-05-23,42.9513
2012-05-24,43.1882
2012-05-25,43.283
2012-05-29,43.4346
2012-05-30,43.463
2012-05-31,43.5483
2012-06-01,43.5483
2012-06-04,43.643
2012-06-05,43.7189
2012-06-06,44.5243
2012-06-07,44.8085
2012-06-08,44.8654
2012-06-11,44.818
2012-06-12,44.818
2012-06-13,44.9412
2012-06-14,45.0833
2012-06-15,45.5002
2012-06-18,45.7371
2012-06-19,45.2064
2012-06-20,44.2779
2012-06-21,43.9747
2012-06-22,44.0884
2012-06-25,43.8326
2012-06-26,43.9368
2012-06-27,44.1453
2012-06-28,44.1926
2012-06-29,43.8136
2012-07-02,44.259
2012-07-03,44.06
2012-07-05,44.041
2012-07-06,44.1453
2012-07-09,44.3727
2012-07-10,44.4959
2012-07-11,44.7233
2012-07-12,44.7611
2012-07-13,45.1307
2012-07-16,45.0644
2012-07-17,45.197
2012-07-18,45.2728
2012-07-19,45.1781
2012-07-20,45.2349
2012-07-23,45.1591
2012-07-24,44.638
2012-07-25,44.9127
2012-07-26,45.6234
2012-07-27,45.8698
2012-07-30,45.7939
2012-07-31,45.6612
2012-08-01,45.396
2012-08-02,45.0899
2012-08-03,45.3005
2012-08-06,45.377
2012-08-07,45.1473
2012-08-08,44.8984
2012-08-09,44.7931
2012-08-10,44.908
2012-08-13,44.7452
2012-08-14,44.5921
2012-08-15,44.391
2012-08-16,44.1996
2012-08-17,44.0943
2012-08-20,43.9794
2012-08-21,43.8549
2012-08-22,44.1516
2012-08-23,43.6347
2012-08-24,43.8932
2012-08-27,44.0751
2012-08-28,43.7975
2012-08-29,43.5773
2012-08-30,43.4432
2012-08-31,43.4432
2012-09-04,43.5773
2012-09-05,43.4241
2012-09-06,44.0559
2012-09-07,43.9028
2012-09-10,43.7304
2012-09-11,43.4816
2012-09-12,43.405
2012-09-13,43.941
2012-09-14,43.0699
2012-09-17,42.9933
2012-09-18,43.0124
2012-09-19,43.2422
2012-09-20,43.2709
2012-09-21,43.3283
2012-09-24,43.8645
2012-09-25,43.7975
2012-09-26,44.1421
2012-09-27,43.9314
2012-09-28,44.1516
2012-10-01,43.6826
2012-10-02,43.6155
2012-10-03,43.8645
2012-10-04,43.9794
2012-10-05,43.9698
2012-10-08,44.1229
2012-10-09,43.9985
2012-10-10,43.9602
2012-10-11,43.7687
2012-10-12,43.6826
2012-10-15,43.7208
2012-10-16,43.9314
2012-10-17,44.5441
2012-10-18,44.8027
2012-10-19,44.659
2012-10-22,44.5729
2012-10-23,44.257
2012-10-24,44.0176
2012-10-25,44.2282
2012-10-26,44.3527
2012-10-31,44.8697
2012-11-01,44.5023
2012-11-02,44.2798
2012-11-05,43.1189
2012-11-06,42.6738
2012-11-07,41.4355
2012-11-08,41.8902
2012-11-09,41.6
2012-11-12,41.184
2012-11-13,41.5613
2012-11-14,41.4259
2012-11-15,41.155
2012-11-16,41.3485
2012-11-19,41.3291
2012-11-20,41.0582
2012-11-21,40.8938
2012-11-23,40.5745
2012-11-26,41.2324
2012-11-27,41.4065
2012-11-28,41.3679
2012-11-29,41.8902
2012-11-30,42.1418
2012-12-03,41.7548
2012-12-04,41.4839
2012-12-05,42.0256
2012-12-06,42.2773
2012-12-07,42.2868
2012-12-10,42.2191
2012-12-11,42.1998
2012-12-12,41.8999
2012-12-13,41.7451
2012-12-14,41.5613
2012-12-17,42.3353
2012-12-18,42.4707
2012-12-19,42.016
2012-12-20,42.0547
2012-12-21,41.8902
2012-12-24,41.542
2012-12-26,41.4259
2012-12-27,41.3097
2012-12-28,41.0099
2012-12-31,41.3774
2013-01-02,42.3066
2013-01-03,42.268
2013-01-04,42.7419
2013-01-07,41.9777
2013-01-08,41.8422
2013-01-09,41.6294
2013-01-10,41.7842
2013-01-11,41.7454
2013-01-14,41.6391
2013-01-15,41.6004
2013-01-16,41.494
2013-01-17,41.6198
2013-01-18,42.0648
2013-01-22,42.413
2013-01-23,42.413
2013-01-24,42.7516
2013-01-25,42.9451
2013-01-28,42.935
2013-01-29,43.2059
2013-01-30,43.0996
2013-01-31,43.2268
2013-02-01,43.0019
2013-02-04,42.855
2013-02-05,42.7083
2013-02-06,42.8258
2013-02-07,42.8648
2013-02-08,42.855
2013-02-11,43.1094
2013-02-12,43.1876
2013-02-13,43.2258
2013-02-14,42.9529
2013-02-15,43.1094
2013-02-19,43.4816
2013-02-20,43.5795
2013-02-21,43.4424
2013-02-22,43.7458
2013-02-25,43.5888
2013-02-26,43.7355
2013-02-27,44.0876
2013-02-28,44.0974
2013-03-01,43.8235
2013-03-04,44.0098
2013-03-05,44.3326
2013-03-06,44.4598
2013-03-07,44.4109
2013-03-08,44.3326
2013-03-11,44.3131
2013-03-12,44.2153
2013-03-13,44.3033
2013-03-14,44.3522
2013-03-15,44.4892
2013-03-18,44.3131
2013-03-19,44.4892
2013-03-20,44.7435
2013-03-21,44.4696
2013-03-22,44.6359
2013-03-25,44.6946
2013-03-26,45.0858
2013-03-27,45.3304
2013-03-28,45.8978
2013-04-01,45.6826
2013-04-02,45.7706
2013-04-03,45.6532
2013-04-04,46.2011
2013-04-05,46.1619
2013-04-08,46.4456
2013-04-09,46.2891
2013-04-10,46.4162
2013-04-11,46.5923
2013-04-12,46.7977
2013-04-15,46.4064
2013-04-16,47.1303
2013-04-17,46.9445
2013-04-18,46.8173
2013-04-19,47.4434
2013-04-22,47.3846
2013-04-23,47.5314
2013-04-24,46.964
2013-04-25,46.9934
2013-04-26,46.876
2013-04-29,47.0716
2013-04-30,47.1793
2013-05-01,46.788
2013-05-02,46.6464
2013-05-03,46.7057
2013-05-06,46.241
2013-05-07,46.6958
2013-05-08,46.3992
2013-05-09,45.6577
2013-05-10,45.5687
2013-05-13,45.2919
2013-05-14,45.717
2013-05-15,46.152
2013-05-16,45.806
2013-05-17,46.0334
2013-05-20,45.8455
2013-05-21,45.9246
2013-05-22,45.2424
2013-05-23,45.0249
2013-05-24,44.669
2013-05-28,44.402
2013-05-29,43.8187
2013-05-30,43.6408
2013-05-31,43.4727
2013-06-03,43.5518
2013-06-04,43.4628
2013-06-05,43.2354
2013-06-06,43.8978
2013-06-07,43.967
2013-06-10,43.8879
2013-06-11,43.7594
2013-06-12,43.4628
2013-06-13,44.1252
2013-06-14,44.0066
2013-06-17,44.0165
2013-06-18,44.2043
2013-06-19,43.1266
2013-06-20,42.0589
2013-06-21,42.6026
2013-06-24,42.484
2013-06-25,43.0871
2013-06-26,43.5716
2013-06-27,43.4925
2013-06-28,43.7001
2013-07-01,43.3046
2013-07-02,43.1266
2013-07-03,42.8795
2013-07-05,42.6026
2013-07-08,43.3343
2013-07-09,43.6111
2013-07-10,43.71
2013-07-11,44.4614
2013-07-12,44.4713
2013-07-15,45.0447
2013-07-16,44.7184
2013-07-17,44.7778
2013-07-18,45.104
2013-07-19,45.0546
2013-07-22,45.015
2013-07-23,45.104
2013-07-24,44.5207
2013-07-25,44.6196
2013-07-26,44.8272
2013-07-29,44.8568
2013-07-30,44.9557
2013-07-31,44.2636
2013-08-01,44.34
2013-08-02,44.31
2013-08-05,44.05
2013-08-06,43.76
2013-08-07,44.14
2013-08-08,44.04
2013-08-09,43.85
