date,close_price
1998-01-02,15.059
1998-01-05,15.2016
1998-01-06,15.174
1998-01-07,15.059
1998-01-08,15.0038
1998-01-09,14.8291
1998-01-12,14.7142
1998-01-13,14.5992
1998-01-14,14.8567
1998-01-15,15.1464
1998-01-16,15.0038
1998-01-20,14.9716
1998-01-21,15.0866
1998-01-22,15.1188
1998-01-23,15.1464
1998-01-26,15.1188
1998-01-27,15.1188
1998-01-28,15.1464
1998-01-29,15.2016
1998-01-30,15.2613
1998-02-02,15.3487
1998-02-03,15.3763
1998-02-04,15.4071
1998-02-05,15.4071
1998-02-06,15.4071
1998-02-09,15.3791
1998-02-10,15.4678
1998-02-11,15.5518
1998-02-12,15.5518
1998-02-13,15.6125
1998-02-17,15.4678
1998-02-18,15.7012
1998-02-19,15.2343
1998-02-20,15.0849
1998-02-23,14.7955
1998-02-24,14.6181
1998-02-25,14.59
1998-02-26,14.6181
1998-02-27,14.4453
1998-03-02,14.5013
1998-03-03,14.4453
1998-03-04,14.4173
1998-03-05,14.2679
1998-03-06,14.4453
1998-03-09,14.3846
1998-03-10,14.4733
1998-03-11,14.534
1998-03-12,14.9122
1998-03-13,15.0289
1998-03-16,14.8235
1998-03-17,14.9402
1998-03-18,14.9682
1998-03-19,14.9682
1998-03-20,15.3791
1998-03-23,15.2624
1998-03-24,15.2624
1998-03-25,15.7012
1998-03-26,15.902
1998-03-27,15.7012
1998-03-30,15.8179
1998-03-31,16.0187
1998-04-01,15.9347
1998-04-02,16.0514
1998-04-03,16.0514
1998-04-06,15.874
1998-04-07,16.0794
1998-04-08,15.8179
1998-04-09,16.0514
1998-04-13,16.1074
1998-04-14,15.9347
1998-04-15,15.8179
1998-04-16,15.874
1998-04-17,15.7012
1998-04-20,15.5238
1998-04-21,15.0289
1998-04-22,15.1456
1998-04-23,15.1456
1998-04-24,15.2904
1998-04-27,15.2904
1998-04-28,15.2017
1998-04-29,15.3511
1998-04-30,15.3791
1998-05-01,15.4351
1998-05-04,15.4678
1998-05-05,15.6405
1998-05-06,15.851
1998-05-07,15.5524
1998-05-08,15.5856
1998-05-11,15.5524
1998-05-12,15.5524
1998-05-13,15.4671
1998-05-14,15.4955
1998-05-15,15.524
1998-05-18,15.524
1998-05-19,15.3486
1998-05-20,15.377
1998-05-21,15.4055
1998-05-22,15.4955
1998-05-26,15.524
1998-05-27,15.524
1998-05-28,15.614
1998-05-29,15.7894
1998-06-01,16.088
1998-06-02,16.0596
1998-06-03,15.7894
1998-06-04,15.6709
1998-06-05,15.7041
1998-06-08,15.7894
1998-06-09,15.5524
1998-06-10,15.3486
1998-06-11,15.4339
1998-06-12,15.1685
1998-06-15,15.0499
1998-06-16,15.2301
1998-06-17,15.1116
1998-06-18,14.9599
1998-06-19,14.8414
1998-06-22,14.7229
1998-06-23,14.7561
1998-06-24,14.9314
1998-06-25,15.1116
1998-06-26,14.9599
1998-06-29,15.2301
1998-06-30,15.4055
1998-07-01,15.4671
1998-07-02,15.8226
1998-07-06,15.998
1998-07-07,16.1449
1998-07-08,16.1449
1998-07-09,16.088
1998-07-10,15.9695
1998-07-13,15.8226
1998-07-14,15.5856
1998-07-15,15.4955
1998-07-16,15.4955
1998-07-17,15.5856
1998-07-20,15.5524
1998-07-21,15.524
1998-07-22,15.4955
1998-07-23,15.4055
1998-07-24,15.14
1998-07-27,15.0499
1998-07-28,14.9599
1998-07-29,14.8746
1998-07-30,14.9599
1998-07-31,14.7229
1998-08-03,14.5759
1998-08-04,14.3094
1998-08-05,14.0058
1998-08-06,14.1263
1998-08-07,14.4588
1998-08-10,14.4588
1998-08-11,14.401
1998-08-12,14.9408
1998-08-13,14.9697
1998-08-14,15.2444
1998-08-17,15.0613
1998-08-18,15.0324
1998-08-19,15.1818
1998-08-20,15.0902
1998-08-21,14.6083
1998-08-24,14.642
1998-08-25,14.6083
1998-08-26,14.5504
1998-08-27,14.3384
1998-08-28,14.5504
1998-08-31,14.0395
1998-09-01,14.0395
1998-09-02,14.0058
1998-09-03,13.948
1998-09-04,13.7986
1998-09-08,13.8564
1998-09-09,13.7986
1998-09-10,13.5865
1998-09-11,13.1335
1998-09-14,12.9551
1998-09-15,13.013
1998-09-16,13.0756
1998-09-17,12.9214
1998-09-18,13.1624
1998-09-21,13.2539
1998-09-22,14.2805
1998-09-23,14.6083
1998-09-24,14.7625
1998-09-25,14.7625
1998-09-28,14.4878
1998-09-29,14.2468
1998-09-30,14.3673
1998-10-01,13.9769
1998-10-02,13.9769
1998-10-05,13.6781
1998-10-06,13.8564
1998-10-07,13.2539
1998-10-08,12.6515
1998-10-09,12.8009
1998-10-12,13.0419
1998-10-13,13.1335
1998-10-14,12.984
1998-10-15,13.225
1998-10-16,13.7359
1998-10-19,14.0685
1998-10-20,14.5215
1998-10-21,14.16
1998-10-22,14.1889
1998-10-23,14.3094
1998-10-26,14.0685
1998-10-27,14.0058
1998-10-28,14.0058
1998-10-29,14.0395
1998-10-30,14.3384
1998-11-02,14.1889
1998-11-03,14.5793
1998-11-04,14.7785
1998-11-05,14.4746
1998-11-06,14.1127
1998-11-09,14.1127
1998-11-10,14.1417
1998-11-11,14.1417
1998-11-12,14.0548
1998-11-13,13.9631
1998-11-16,13.9631
1998-11-17,14.0838
1998-11-18,14.2044
1998-11-19,14.4456
1998-11-20,14.6765
1998-11-23,14.7059
1998-11-24,14.7353
1998-11-25,14.5834
1998-11-27,14.554
1998-11-30,14.554
1998-12-01,14.4608
1998-12-02,14.6128
1998-12-03,14.5834
1998-12-04,14.5834
1998-12-07,14.554
1998-12-08,14.5834
1998-12-09,14.2452
1998-12-10,13.7893
1998-12-11,14.0001
1998-12-14,14.0344
1998-12-15,14.0932
1998-12-16,13.9412
1998-12-17,14.0344
1998-12-18,14.0001
1998-12-21,14.0932
1998-12-22,13.9118
1998-12-23,13.7893
1998-12-24,13.7255
1998-12-28,13.6961
1998-12-29,13.6324
1998-12-30,13.6961
1998-12-31,13.9706
1999-01-04,13.8775
1999-01-05,13.9412
1999-01-06,13.9118
1999-01-07,13.7893
1999-01-08,13.7893
1999-01-11,13.7255
1999-01-12,13.6961
1999-01-13,13.6961
1999-01-14,13.6961
1999-01-15,13.6961
1999-01-19,13.8775
1999-01-20,13.8775
1999-01-21,13.9706
1999-01-22,14.0001
1999-01-25,13.9412
1999-01-26,13.6667
1999-01-27,13.4216
1999-01-28,13.4216
1999-01-29,12.9902
1999-02-01,13.2353
1999-02-02,13.2059
1999-02-03,13.2678
1999-02-04,13.1779
1999-02-05,13.2378
1999-02-08,13.3028
1999-02-09,13.2378
1999-02-10,13.1429
1999-02-11,13.053
1999-02-12,13.053
1999-02-16,12.9581
1999-02-17,12.9881
1999-02-18,12.8032
1999-02-19,12.6434
1999-02-22,12.6134
1999-02-23,12.6434
1999-02-24,12.7683
1999-02-25,12.8032
1999-02-26,12.7383
1999-03-01,12.6784
1999-03-02,12.3936
1999-03-03,12.2088
1999-03-04,12.2388
1999-03-05,12.2687
1999-03-08,12.1438
1999-03-09,12.1139
1999-03-10,12.4885
1999-03-11,12.5535
1999-03-12,12.8932
1999-03-15,12.8032
1999-03-16,12.9281
1999-03-17,12.9281
1999-03-18,12.8332
1999-03-19,12.7383
1999-03-22,12.6784
1999-03-23,12.6784
1999-03-24,12.7383
1999-03-25,12.8032
1999-03-26,12.8332
1999-03-29,13.2079
1999-03-30,13.3627
1999-03-31,13.6125
1999-04-01,13.2678
1999-04-05,13.1779
1999-04-06,13.1779
1999-04-07,13.3328
1999-04-08,13.3328
1999-04-09,13.2079
1999-04-12,12.9881
1999-04-13,13.053
1999-04-14,13.113
1999-04-15,13.3028
1999-04-16,13.9872
1999-04-19,14.3918
1999-04-20,14.2369
1999-04-21,14.4268
1999-04-22,14.5167
1999-04-23,14.4567
1999-04-26,14.142
1999-04-27,13.9572
1999-04-28,14.0171
1999-04-29,14.142
1999-04-30,14.3019
1999-05-03,14.4268
1999-05-04,14.4867
1999-05-05,14.5197
1999-05-06,14.5553
1999-05-07,14.7434
1999-05-10,14.9976
1999-05-11,14.9976
1999-05-12,15.1908
1999-05-13,15.3179
1999-05-14,15.1247
1999-05-17,14.6824
1999-05-18,14.4892
1999-05-19,14.6163
1999-05-20,14.9976
1999-05-21,15.2213
1999-05-24,15.2213
1999-05-25,15.0637
1999-05-26,14.9366
1999-05-27,14.6163
1999-05-28,14.84
1999-06-01,14.7129
1999-06-02,14.7434
1999-06-03,14.8095
1999-06-04,14.7434
1999-06-07,14.4892
1999-06-08,14.4587
1999-06-09,14.4587
1999-06-10,14.3316
1999-06-11,14.3926
1999-06-14,14.5197
1999-06-15,14.5553
1999-06-16,14.6824
1999-06-17,14.84
1999-06-18,14.7129
1999-06-21,14.7129
1999-06-22,14.6163
1999-06-23,14.4892
1999-06-24,14.0114
1999-06-25,13.9198
1999-06-28,13.6656
1999-06-29,13.5996
1999-06-30,13.0302
1999-07-01,13.7267
1999-07-02,13.7927
1999-07-06,13.8537
1999-07-07,13.8537
1999-07-08,13.8232
1999-07-09,13.7572
1999-07-12,13.7267
1999-07-13,13.7572
1999-07-14,13.7927
1999-07-15,13.7572
1999-07-16,13.7572
1999-07-19,13.7927
1999-07-20,13.6301
1999-07-21,13.6301
1999-07-22,13.7267
1999-07-23,13.7572
1999-07-26,13.6961
1999-07-27,13.7267
1999-07-28,13.6656
1999-07-29,13.4114
1999-07-30,13.569
1999-08-02,13.6301
1999-08-03,13.5996
1999-08-04,13.5031
1999-08-05,13.3114
1999-08-06,13.4409
1999-08-09,13.2803
1999-08-10,13.0523
1999-08-11,12.9227
1999-08-12,12.9849
1999-08-13,13.0834
1999-08-16,13.0523
1999-08-17,12.9538
1999-08-18,13.0212
1999-08-19,13.2129
1999-08-20,13.3735
1999-08-23,13.472
1999-08-24,13.2129
1999-08-25,13.2129
1999-08-26,13.0834
1999-08-27,13.1818
1999-08-30,13.0523
1999-08-31,13.1818
1999-09-01,13.1507
1999-09-02,13.0523
1999-09-03,13.1507
1999-09-07,13.1507
1999-09-08,13.0834
1999-09-09,13.2129
1999-09-10,12.9849
1999-09-13,12.9538
1999-09-14,12.9227
1999-09-15,12.7621
1999-09-16,12.6637
1999-09-17,12.6637
1999-09-20,12.4668
1999-09-21,12.503
1999-09-22,12.5341
1999-09-23,12.503
1999-09-24,12.3372
1999-09-27,12.0782
1999-09-28,12.0782
1999-09-29,11.9175
1999-09-30,11.7258
1999-10-01,12.016
1999-10-04,12.1144
1999-10-05,12.1144
1999-10-06,11.9849
1999-10-07,11.7569
1999-10-08,11.6585
1999-10-11,11.8191
1999-10-12,11.6585
1999-10-13,11.6895
1999-10-14,11.6274
1999-10-15,11.5289
1999-10-18,11.56
1999-10-19,11.4667
1999-10-20,11.3683
1999-10-21,11.1714
1999-10-22,11.2698
1999-10-25,11.2387
1999-10-26,11.2698
1999-10-27,11.3994
1999-10-28,11.5963
1999-10-29,11.9849
1999-11-01,11.7569
1999-11-02,11.8864
1999-11-03,11.9527
1999-11-04,11.9209
1999-11-05,11.9209
1999-11-08,12.0851
1999-11-09,12.1222
1999-11-10,12.2176
1999-11-11,12.2176
1999-11-12,12.3183
1999-11-15,12.2865
1999-11-16,12.4189
1999-11-17,12.4189
1999-11-18,12.4825
1999-11-19,12.4507
1999-11-22,12.5832
1999-11-23,12.652
1999-11-24,12.5196
1999-11-26,12.3183
1999-11-29,12.2176
1999-11-30,12.3183
1999-12-01,12.615
1999-12-02,12.615
1999-12-03,12.8481
1999-12-06,12.7845
1999-12-07,12.5196
1999-12-08,12.3183
1999-12-09,12.3501
1999-12-10,11.9898
1999-12-13,11.8202
1999-12-14,11.1951
1999-12-15,11.1262
1999-12-16,11.1262
1999-12-17,11.6878
1999-12-20,12.0851
1999-12-21,11.8891
1999-12-22,11.8573
1999-12-23,11.9209
1999-12-27,11.8573
1999-12-28,12.0216
1999-12-29,12.154
1999-12-30,12.2865
1999-12-31,12.154
2000-01-03,11.9527
2000-01-04,11.7249
2000-01-05,11.9209
2000-01-06,12.2176
2000-01-07,12.7845
2000-01-10,12.8799
2000-01-11,12.8799
2000-01-12,12.6838
2000-01-13,12.8799
2000-01-14,13.0812
2000-01-18,13.1448
2000-01-19,13.1819
2000-01-20,13.2454
2000-01-21,13.3461
2000-01-24,13.2454
2000-01-25,13.1819
2000-01-26,13.1819
2000-01-27,13.2454
2000-01-28,13.1448
2000-01-31,13.113
2000-02-01,13.1448
2000-02-02,13.1475
2000-02-03,13.3205
2000-02-04,13.3854
2000-02-07,13.2502
2000-02-08,13.1475
2000-02-09,13.115
2000-02-10,13.0826
2000-02-11,12.9474
2000-02-14,12.6445
2000-02-15,12.6066
2000-02-16,12.439
2000-02-17,12.5417
2000-02-18,12.4714
2000-02-22,12.4714
2000-02-23,12.5417
2000-02-24,12.4714
2000-02-25,12.6445
2000-02-28,12.6769
2000-02-29,12.6445
2000-03-01,12.6769
2000-03-02,12.6445
2000-03-03,12.7418
2000-03-06,12.6445
2000-03-07,12.5742
2000-03-08,12.6445
2000-03-09,12.3038
2000-03-10,12.4065
2000-03-13,12.3038
2000-03-14,12.2713
2000-03-15,12.3741
2000-03-16,12.5093
2000-03-17,12.4714
2000-03-20,12.4714
2000-03-21,12.6445
2000-03-22,12.5742
2000-03-23,12.6445
2000-03-24,12.7418
2000-03-27,12.6066
2000-03-28,12.4714
2000-03-29,12.5417
2000-03-30,12.6769
2000-03-31,12.7094
2000-04-03,12.7418
2000-04-04,12.6769
2000-04-05,12.5742
2000-04-06,12.6769
2000-04-07,12.9474
2000-04-10,13.0123
2000-04-11,13.115
2000-04-12,13.2827
2000-04-13,13.7261
2000-04-14,13.5206
2000-04-17,13.3205
2000-04-18,13.3854
2000-04-19,13.4179
2000-04-20,13.3854
2000-04-24,13.3854
2000-04-25,13.5206
2000-04-26,13.7261
2000-04-27,13.791
2000-04-28,13.7261
2000-05-01,14.0615
2000-05-02,14.6023
2000-05-03,14.5016
2000-05-04,14.5733
2000-05-05,14.6394
2000-05-08,14.4685
2000-05-09,14.4024
2000-05-10,14.2977
2000-05-11,14.3307
2000-05-12,14.4355
2000-05-15,14.2977
2000-05-16,14.2646
2000-05-17,14.226
2000-05-18,14.2977
2000-05-19,14.1929
2000-05-22,14.0221
2000-05-23,13.989
2000-05-24,13.7134
2000-05-25,13.6748
2000-05-26,13.5756
2000-05-30,13.3662
2000-05-31,13.504
2000-06-01,13.537
2000-06-02,13.4709
2000-06-05,13.4378
2000-06-06,13.3
2000-06-07,13.3331
2000-06-08,13.2284
2000-06-09,13.3662
2000-06-12,13.4709
2000-06-13,13.504
2000-06-14,13.504
2000-06-15,13.3331
2000-06-16,13.4378
2000-06-19,13.537
2000-06-20,13.6418
2000-06-21,13.537
2000-06-22,13.4709
2000-06-23,13.4709
2000-06-26,13.4378
2000-06-27,13.504
2000-06-28,13.4378
2000-06-29,13.6418
2000-06-30,13.2615
2000-07-03,13.4709
2000-07-05,13.6748
2000-07-06,13.7796
2000-07-07,13.8843
2000-07-10,13.7796
2000-07-11,13.7134
2000-07-12,13.7134
2000-07-13,13.8126
2000-07-14,13.8126
2000-07-17,13.7465
2000-07-18,13.6748
2000-07-19,13.6748
2000-07-20,13.7465
2000-07-21,13.7796
2000-07-24,13.9504
2000-07-25,14.1268
2000-07-26,14.4685
2000-07-27,14.7441
2000-07-28,14.5402
2000-07-31,14.3307
2000-08-01,14.678
2000-08-02,14.6795
2000-08-03,14.3593
2000-08-04,13.8368
2000-08-07,13.938
2000-08-08,14.0447
2000-08-09,14.011
2000-08-10,14.011
2000-08-11,13.938
2000-08-14,13.7975
2000-08-15,13.6964
2000-08-16,13.6964
2000-08-17,13.5559
2000-08-18,13.4829
2000-08-21,13.4829
2000-08-22,13.3088
2000-08-23,13.3088
2000-08-24,13.0616
2000-08-25,12.9942
2000-08-28,13.0279
2000-08-29,12.8874
2000-08-30,12.9548
2000-08-31,12.9548
2000-09-01,12.8874
2000-09-05,13.0279
2000-09-06,13.0616
2000-09-07,13.2357
2000-09-08,13.5166
2000-09-11,13.5166
2000-09-12,13.4492
2000-09-13,13.3762
2000-09-14,13.2357
2000-09-15,13.1683
2000-09-18,13.202
2000-09-19,13.1346
2000-09-20,13.0279
2000-09-21,12.9942
2000-09-22,12.9942
2000-09-25,12.9942
2000-09-26,13.4155
2000-09-27,13.2357
2000-09-28,13.275
2000-09-29,13.1346
2000-10-02,12.747
2000-10-03,12.5728
2000-10-04,12.4661
2000-10-05,12.6402
2000-10-06,12.7807
2000-10-09,12.747
2000-10-10,12.6065
2000-10-11,12.4324
2000-10-12,12.4661
2000-10-13,12.4324
2000-10-16,12.4998
2000-10-17,12.393
2000-10-18,12.2526
2000-10-19,12.4324
2000-10-20,12.6065
2000-10-23,12.3593
2000-10-24,12.393
2000-10-25,12.1852
2000-10-26,12.3256
2000-10-27,12.3256
2000-10-30,12.393
2000-10-31,12.5335
2000-11-01,12.6111
2000-11-02,12.5363
2000-11-03,12.5766
2000-11-06,12.6455
2000-11-07,12.7203
2000-11-08,12.8237
2000-11-09,12.8985
2000-11-10,12.7892
2000-11-13,12.7892
2000-11-14,12.864
2000-11-15,12.864
2000-11-16,12.9329
2000-11-17,12.8985
2000-11-20,12.864
2000-11-21,12.864
2000-11-22,12.864
2000-11-24,12.864
2000-11-27,12.9674
2000-11-28,12.7548
2000-11-29,12.9329
2000-11-30,13.2203
2000-12-01,13.364
2000-12-04,13.364
2000-12-05,13.7262
2000-12-06,13.8296
2000-12-07,13.7606
2000-12-08,13.8296
2000-12-11,13.7951
2000-12-12,13.9043
2000-12-13,14.048
2000-12-14,13.9388
2000-12-15,13.9388
2000-12-18,14.2262
2000-12-19,14.117
2000-12-20,13.9388
2000-12-21,13.9043
2000-12-22,13.8699
2000-12-26,13.7606
2000-12-27,14.1917
2000-12-28,14.048
2000-12-29,13.8699
2001-01-02,14.0136
2001-01-03,14.301
2001-01-04,14.301
2001-01-05,14.4447
2001-01-08,14.3699
2001-01-09,14.4791
2001-01-10,14.5136
2001-01-11,14.5884
2001-01-12,14.5481
2001-01-16,14.6918
2001-01-17,14.6573
2001-01-18,14.6918
2001-01-19,14.6918
2001-01-22,14.8758
2001-01-23,14.8355
2001-01-24,15.0195
2001-01-25,15.1229
2001-01-26,15.0539
2001-01-29,15.0827
2001-01-30,15.0884
2001-01-31,15.1344
2001-02-01,15.0424
2001-02-02,15.1861
2001-02-05,15.0597
2001-02-06,14.9447
2001-02-07,14.7148
2001-02-08,14.7091
2001-02-09,14.5769
2001-02-12,14.7263
2001-02-13,14.8585
2001-02-14,14.9608
2001-02-15,14.9373
2001-02-16,14.7204
2001-02-20,14.8552
2001-02-21,14.7849
2001-02-22,14.5914
2001-02-23,14.6852
2001-02-26,14.6618
2001-02-27,14.7087
2001-02-28,15.0135
2001-03-01,15.0897
2001-03-02,15.1249
2001-03-05,15.1073
2001-03-06,15.0897
2001-03-07,14.949
2001-03-08,14.9783
2001-03-09,15.119
2001-03-12,15.0546
2001-03-13,14.9373
2001-03-14,14.8376
2001-03-15,14.8025
2001-03-16,14.7263
2001-03-19,14.6559
2001-03-20,14.7907
2001-03-21,14.867
2001-03-22,14.7849
2001-03-23,14.7497
2001-03-26,15.1249
2001-03-27,14.8025
2001-03-28,14.738
2001-03-29,14.9197
2001-03-30,14.8963
2001-04-02,14.949
2001-04-03,14.9256
2001-04-04,14.949
2001-04-05,15.2597
2001-04-06,15.1308
2001-04-09,15.2128
2001-04-10,15.1132
2001-04-11,14.779
2001-04-12,14.8904
2001-04-16,14.7438
2001-04-17,15.078
2001-04-18,15.4415
2001-04-19,15.5177
2001-04-20,15.3828
2001-04-23,15.4532
2001-04-24,15.3184
2001-04-25,15.3594
2001-04-26,15.5177
2001-04-27,15.4591
2001-04-30,15.5353
2001-05-01,15.4356
2001-05-02,15.3711
2001-05-03,15.2832
2001-05-04,15.3008
2001-05-07,15.2363
2001-05-08,15.1659
2001-05-09,15.0077
2001-05-10,14.9783
2001-05-11,14.9783
2001-05-14,15.037
2001-05-15,15.3242
2001-05-16,15.6088
2001-05-17,15.7284
2001-05-18,15.7942
2001-05-21,15.9557
2001-05-22,16.1831
2001-05-23,16.207
2001-05-24,16.3027
2001-05-25,16.2429
2001-05-29,16.1233
2001-05-30,16.0575
2001-05-31,16.213
2001-06-01,16.2609
2001-06-04,16.3027
2001-06-05,16.3327
2001-06-06,16.4822
2001-06-07,16.4762
2001-06-08,16.4762
2001-06-11,16.6797
2001-06-12,17.0685
2001-06-13,16.9608
2001-06-14,16.9608
2001-06-15,16.7215
2001-06-18,16.8472
2001-06-19,17.0147
2001-06-20,17.0625
2001-06-21,17.236
2001-06-22,17.2301
2001-06-25,17.1164
2001-06-26,17.4454
2001-06-27,17.254
2001-06-28,17.4095
2001-06-29,17.7087
2001-07-02,17.589
2001-07-03,17.6488
2001-07-05,17.6967
2001-07-06,17.6488
2001-07-09,17.3736
2001-07-10,17.4095
2001-07-11,17.3736
2001-07-12,17.3976
2001-07-13,17.3736
2001-07-16,17.3617
2001-07-17,17.4036
2001-07-18,17.4335
2001-07-19,17.5591
2001-07-20,17.5531
2001-07-23,17.5053
2001-07-24,17.2959
2001-07-25,17.3497
2001-07-26,17.2719
2001-07-27,17.2839
2001-07-30,17.1044
2001-07-31,16.9788
2001-08-01,17.1044
2001-08-02,17.0386
2001-08-03,17.1583
2001-08-06,17.1283
2001-08-07,17.1583
2001-08-08,17.2121
2001-08-09,17.4394
2001-08-10,17.6548
2001-08-13,17.6967
2001-08-14,17.7924
2001-08-15,18.0317
2001-08-16,18.1744
2001-08-17,18.3571
2001-08-20,18.5397
2001-08-21,18.7954
2001-08-22,18.7528
2001-08-23,18.5397
2001-08-24,18.0952
2001-08-27,18.1683
2001-08-28,18.1135
2001-08-29,17.8334
2001-08-30,17.8334
2001-08-31,17.8395
2001-09-04,17.7543
2001-09-05,17.736
2001-09-06,17.8273
2001-09-07,17.6142
2001-09-10,17.6203
2001-09-17,16.4452
2001-09-18,16.6949
2001-09-19,16.427
2001-09-20,15.7816
2001-09-21,15.5137
2001-09-24,15.812
2001-09-25,16.0069
2001-09-26,16.2869
2001-09-27,16.3965
2001-09-28,16.3783
2001-10-01,16.6096
2001-10-02,16.5487
2001-10-03,16.3417
2001-10-04,16.6523
2001-10-05,16.6096
2001-10-08,16.8045
2001-10-09,17.1393
2001-10-10,17.2672
2001-10-11,17.669
2001-10-12,17.5107
2001-10-15,17.5899
2001-10-16,17.5107
2001-10-17,17.4377
2001-10-18,17.255
2001-10-19,16.8654
2001-10-22,16.5609
2001-10-23,16.6523
2001-10-24,16.5183
2001-10-25,16.5061
2001-10-26,16.5183
2001-10-29,16.5487
2001-10-30,16.3235
2001-10-31,16.6766
2001-11-01,17.0419
2001-11-02,16.9871
2001-11-05,16.9506
2001-11-06,17.0115
2001-11-07,16.981
2001-11-08,17.1637
2001-11-09,17.0237
2001-11-12,17.0724
2001-11-13,17.3585
2001-11-14,17.6508
2001-11-15,17.8339
2001-11-16,17.7843
2001-11-19,17.6913
2001-11-20,17.6479
2001-11-21,17.6665
2001-11-23,17.7285
2001-11-26,17.6479
2001-11-27,17.7285
2001-11-28,17.9207
2001-11-29,17.9704
2001-11-30,17.9828
2001-12-03,18.0572
2001-12-04,18.268
2001-12-05,18.392
2001-12-06,18.4044
2001-12-07,18.516
2001-12-10,18.3734
2001-12-11,18.5036
2001-12-12,18.4664
2001-12-13,18.3238
2001-12-14,18.2556
2001-12-17,18.454
2001-12-18,18.3982
2001-12-19,18.3052
2001-12-20,17.9828
2001-12-21,18.0758
2001-12-24,18.1564
2001-12-26,18.1874
2001-12-27,18.113
2001-12-28,18.1192
2001-12-31,18.1998
2002-01-02,18.2122
2002-01-03,18.4788
2002-01-04,18.3858
2002-01-07,18.3362
2002-01-08,18.2928
2002-01-09,18.1812
2002-01-10,18.2494
2002-01-11,18.2246
2002-01-14,18.4478
2002-01-15,18.423
2002-01-16,18.361
2002-01-17,18.4788
2002-01-18,18.33
2002-01-22,18.423
2002-01-23,18.3176
2002-01-24,18.5408
2002-01-25,18.5594
2002-01-28,18.5904
2002-01-29,18.5904
2002-01-30,18.6525
2002-01-31,18.7827
2002-02-01,18.7517
2002-02-04,18.7579
2002-02-05,18.8199
2002-02-06,18.9129
2002-02-07,18.8757
2002-02-08,18.8695
2002-02-11,19.0307
2002-02-12,18.9625
2002-02-13,19.18
2002-02-14,19.1484
2002-02-15,19.3251
2002-02-19,19.3314
2002-02-20,19.3377
2002-02-21,19.1926
2002-02-22,19.243
2002-02-25,19.2557
2002-02-26,19.4071
2002-02-27,19.3503
2002-02-28,19.4449
2002-03-01,19.4954
2002-03-04,19.6468
2002-03-05,19.956
2002-03-06,19.8613
2002-03-07,19.8929
2002-03-08,19.9118
2002-03-11,19.6658
2002-03-12,19.5964
2002-03-13,19.7352
2002-03-14,19.9875
2002-03-15,20.1894
2002-03-18,20.4796
2002-03-19,20.3724
2002-03-20,20.3282
2002-03-21,20.6058
2002-03-22,20.6248
2002-03-25,20.2084
2002-03-26,20.467
2002-03-27,20.6942
2002-03-28,20.5995
2002-04-01,20.6689
2002-04-02,20.7636
2002-04-03,20.8014
2002-04-04,20.833
2002-04-05,21.0096
2002-04-08,21.0601
2002-04-09,21.3251
2002-04-10,21.4071
2002-04-11,21.262
2002-04-12,21.7036
2002-04-15,21.4828
2002-04-16,21.3251
2002-04-17,21.0979
2002-04-18,21.1232
2002-04-19,20.915
2002-04-22,20.8834
2002-04-23,20.6752
2002-04-24,20.6689
2002-04-25,20.7951
2002-04-26,20.9781
2002-04-29,21.0412
2002-04-30,21.2809
2002-05-01,21.3819
2002-05-02,21.609
2002-05-03,21.6279
2002-05-06,21.4765
2002-05-07,21.3188
2002-05-08,21.2746
2002-05-09,21.1169
2002-05-10,21.0601
2002-05-13,21.1989
2002-05-14,21.2557
2002-05-15,21.3134
2002-05-16,21.1915
2002-05-17,21.1402
2002-05-20,21.1017
2002-05-21,21.0184
2002-05-22,21.0761
2002-05-23,21.5443
2002-05-24,21.5764
2002-05-28,21.6598
2002-05-29,21.865
2002-05-30,21.9227
2002-05-31,21.8522
2002-06-03,21.8393
2002-06-04,21.8522
2002-06-05,21.8778
2002-06-06,21.9099
2002-06-07,21.8265
2002-06-10,21.9355
2002-06-11,22.1729
2002-06-12,22.1087
2002-06-13,22.2755
2002-06-14,22.237
2002-06-17,22.5192
2002-06-18,22.532
2002-06-19,22.5064
2002-06-20,22.6026
2002-06-21,23.0259
2002-06-24,22.9618
2002-06-25,23.0259
2002-06-26,23.1863
2002-06-27,23.2761
2002-06-28,23.4107
2002-07-01,23.3145
2002-07-02,23.2312
2002-07-03,23.0772
2002-07-05,23.2183
2002-07-08,23.1798
2002-07-09,23.0387
2002-07-10,22.8271
2002-07-11,22.0061
2002-07-12,22.0125
2002-07-15,21.9548
2002-07-16,22.0959
2002-07-17,21.9933
2002-07-18,21.3262
2002-07-19,20.8067
2002-07-22,20.3385
2002-07-23,19.8639
2002-07-24,19.9537
2002-07-25,20.4347
2002-07-26,21.23
2002-07-29,22.4422
2002-07-30,22.7373
2002-07-31,23.058
2002-08-01,22.7052
2002-08-02,22.718
2002-08-05,22.609
2002-08-06,22.5192
2002-08-07,22.6347
2002-08-08,22.5641
2002-08-09,22.6283
2002-08-12,22.8912
2002-08-13,22.7694
2002-08-14,22.9137
2002-08-15,22.8811
2002-08-16,22.9658
2002-08-19,22.9202
2002-08-20,22.8616
2002-08-21,22.8942
2002-08-22,22.7964
2002-08-23,22.7378
2002-08-26,22.8551
2002-08-27,22.8746
2002-08-28,23.272
2002-08-29,23.0049
2002-08-30,23.2004
2002-09-03,22.8681
2002-09-04,22.7313
2002-09-05,22.7443
2002-09-06,22.7573
2002-09-09,22.7052
2002-09-10,22.7639
2002-09-11,22.7248
2002-09-12,22.6596
2002-09-13,22.9984
2002-09-16,23.1092
2002-09-17,23.0636
2002-09-18,23.0375
2002-09-19,23.1026
2002-09-20,23.4349
2002-09-23,23.3437
2002-09-24,23.2264
2002-09-25,23.3176
2002-09-26,23.7086
2002-09-27,23.5587
2002-09-30,23.2916
2002-10-01,22.9919
2002-10-02,22.6466
2002-10-03,22.803
2002-10-04,21.9886
2002-10-07,20.9657
2002-10-08,21.1481
2002-10-09,20.5227
2002-10-10,21.1025
2002-10-11,21.7084
2002-10-14,21.2784
2002-10-15,21.956
2002-10-16,21.8778
2002-10-17,22.2101
2002-10-18,22.1319
2002-10-21,22.0863
2002-10-22,21.5651
2002-10-23,21.5064
2002-10-24,21.9495
2002-10-25,22.0928
2002-10-28,21.8713
2002-10-29,21.7866
2002-10-30,22.0081
2002-10-31,22.2817
2002-11-01,22.3925
2002-11-04,22.6205
2002-11-05,22.5489
2002-11-06,22.5814
2002-11-07,22.3534
2002-11-08,22.3599
2002-11-11,22.2883
2002-11-12,22.412
2002-11-13,21.9806
2002-11-14,22.3779
2002-11-15,22.2521
2002-11-18,22.2587
2002-11-19,22.2984
2002-11-20,22.2918
2002-11-21,22.2057
2002-11-22,22.5169
2002-11-25,22.5169
2002-11-26,22.4441
2002-11-27,22.3779
2002-11-29,22.3249
2002-12-02,22.4904
2002-12-03,22.2256
2002-12-04,22.2521
2002-12-05,22.4441
2002-12-06,22.2521
2002-12-09,22.3779
2002-12-10,22.5037
2002-12-11,22.1263
2002-12-12,22.1528
2002-12-13,22.1991
2002-12-16,22.3514
2002-12-17,22.2653
2002-12-18,22.1329
2002-12-19,22.1131
2002-12-20,22.2322
2002-12-23,22.2984
2002-12-24,22.411
2002-12-26,22.3514
2002-12-27,22.2852
2002-12-30,22.5235
2002-12-31,22.5699
2003-01-02,22.8811
2003-01-03,22.9804
2003-01-06,23.2253
2003-01-07,22.8877
2003-01-08,22.4971
2003-01-09,22.6295
2003-01-10,22.3183
2003-01-13,22.0601
2003-01-14,22.0071
2003-01-15,21.9277
2003-01-16,21.7158
2003-01-17,21.3583
2003-01-21,21.2987
2003-01-22,21.6099
2003-01-23,21.6827
2003-01-24,21.3583
2003-01-27,21.0604
2003-01-28,21.2457
2003-01-29,21.4576
2003-01-30,21.206
2003-01-31,21.6099
2003-02-03,21.7224
2003-02-04,21.974
2003-02-05,22.1263
2003-02-06,22.3117
2003-02-07,22.6228
2003-02-10,22.6493
2003-02-11,22.5566
2003-02-12,22.6096
2003-02-13,22.4477
2003-02-14,22.5758
2003-02-18,23.0677
2003-02-19,23.243
2003-02-20,23.2362
2003-02-21,23.499
2003-02-24,23.3575
2003-02-25,23.4519
2003-02-26,23.2497
2003-02-27,23.4519
2003-02-28,23.3373
2003-03-03,23.4451
2003-03-04,23.2699
2003-03-05,23.3575
2003-03-06,23.243
2003-03-07,23.2362
2003-03-10,22.9869
2003-03-11,23.034
2003-03-12,23.0475
2003-03-13,23.3845
2003-03-14,23.4586
2003-03-17,24.1797
2003-03-18,24.4021
2003-03-19,24.6649
2003-03-20,24.8468
2003-03-21,24.8199
2003-03-24,24.1258
2003-03-25,24.5301
2003-03-26,24.6042
2003-03-27,24.5099
2003-03-28,24.4762
2003-03-31,24.1392
2003-04-01,24.6649
2003-04-02,25.0221
2003-04-03,24.8805
2003-04-04,24.8468
2003-04-07,24.9547
2003-04-08,24.8671
2003-04-09,24.9008
2003-04-10,24.7121
2003-04-11,24.7255
2003-04-14,25.0018
2003-04-15,24.9614
2003-04-16,24.9884
2003-04-17,25.2242
2003-04-21,25.1703
2003-04-22,25.6218
2003-04-23,25.6016
2003-04-24,25.1434
2003-04-25,24.9277
2003-04-28,24.8199
2003-04-29,25.0355
2003-04-30,24.6986
2003-05-01,24.9344
2003-05-02,24.9681
2003-05-05,25.2512
2003-05-06,25.5881
2003-05-07,25.6555
2003-05-08,25.9453
2003-05-09,26.2823
2003-05-12,26.289
2003-05-13,26.262
2003-05-14,26.0429
2003-05-15,26.0087
2003-05-16,26.0977
2003-05-19,26.0018
2003-05-20,26.3304
2003-05-21,26.3167
2003-05-22,26.6041
2003-05-23,26.7342
2003-05-27,26.6521
2003-05-28,26.1045
2003-05-29,25.29
2003-05-30,25.7349
2003-06-02,25.9129
2003-06-03,26.2893
2003-06-04,26.4399
2003-06-05,26.3304
2003-06-06,26.6521
2003-06-09,26.4809
2003-06-10,27.0216
2003-06-11,27.3228
2003-06-12,27.1175
2003-06-13,26.6178
2003-06-16,26.8232
2003-06-17,26.5905
2003-06-18,26.6794
2003-06-19,26.5562
2003-06-20,26.6178
2003-06-23,26.3577
2003-06-24,26.4125
2003-06-25,26.5494
2003-06-26,27.0216
2003-06-27,26.919
2003-06-30,26.7136
2003-07-01,27.0011
2003-07-02,27.4597
2003-07-03,27.6513
2003-07-07,27.8704
2003-07-08,27.8977
2003-07-09,27.6171
2003-07-10,27.2064
2003-07-11,27.5144
2003-07-14,27.7882
2003-07-15,28.0757
2003-07-16,27.7198
2003-07-17,27.5281
2003-07-18,27.8498
2003-07-21,27.7198
2003-07-22,27.8498
2003-07-23,27.7061
2003-07-24,28.0962
2003-07-25,28.5616
2003-07-28,28.0894
2003-07-29,28.4795
2003-07-30,28.897
2003-07-31,29.0955
2003-08-01,28.9997
2003-08-04,29.0339
2003-08-05,28.9107
2003-08-06,29.0202
2003-08-07,29.1845
2003-08-08,29.1845
2003-08-11,29.1571
2003-08-12,29.0887
2003-08-13,29.0401
2003-08-14,29.3872
2003-08-15,29.1234
2003-08-18,29.4705
2003-08-19,29.4358
2003-08-20,29.8662
2003-08-21,29.7204
2003-08-22,29.2969
2003-08-25,28.9776
2003-08-26,29.2206
2003-08-27,29.4636
2003-08-28,29.526
2003-08-29,29.6579
2003-09-02,29.9009
2003-09-03,30.1509
2003-09-04,30.2619
2003-09-05,30.3105
2003-09-08,30.4216
2003-09-09,30.3383
2003-09-10,29.8662
2003-09-11,30.0814
2003-09-12,30.1994
2003-09-15,30.2342
2003-09-16,30.0398
2003-09-17,29.533
2003-09-18,29.5469
2003-09-19,29.7482
2003-09-22,29.6441
2003-09-23,29.9356
2003-09-24,29.6163
2003-09-25,29.6718
2003-09-26,29.8176
2003-09-29,30.1092
2003-09-30,30.2619
2003-10-01,30.5605
2003-10-02,31.0187
2003-10-03,31.3866
2003-10-06,31.7615
2003-10-07,31.3866
2003-10-08,31.3658
2003-10-09,31.6435
2003-10-10,31.463
2003-10-13,31.5532
2003-10-14,31.3519
2003-10-15,31.1783
2003-10-16,31.3935
2003-10-17,31.2686
2003-10-20,31.1714
2003-10-21,30.9215
2003-10-22,30.7757
2003-10-23,30.6438
2003-10-24,30.6715
2003-10-27,31.1783
2003-10-28,30.9701
2003-10-29,31.4074
2003-10-30,31.6712
2003-10-31,31.1783
2003-11-03,31.6504
2003-11-04,31.8031
2003-11-05,32.1711
2003-11-06,32.7751
2003-11-07,32.8584
2003-11-10,32.7057
2003-11-11,32.4627
2003-11-12,33.0035
2003-11-13,33.1582
2003-11-14,33.3762
2003-11-17,33.1722
2003-11-18,33.0738
2003-11-19,32.9542
2003-11-20,32.7784
2003-11-21,32.2369
2003-11-24,32.469
2003-11-25,32.9472
2003-11-26,33.3199
2003-11-28,33.3692
2003-12-01,33.6504
2003-12-02,33.3762
2003-12-03,33.6504
2003-12-04,33.5661
2003-12-05,33.5801
2003-12-08,33.0386
2003-12-09,33.0457
2003-12-10,32.9472
2003-12-11,33.0457
2003-12-12,33.0527
2003-12-15,32.7714
2003-12-16,33.0457
2003-12-17,32.912
2003-12-18,32.8066
2003-12-19,32.8136
2003-12-22,32.687
2003-12-23,32.5604
2003-12-24,32.5815
2003-12-26,32.5393
2003-12-29,32.5604
2003-12-30,32.5815
2003-12-31,32.5674
2004-01-02,32.4268
2004-01-05,32.9331
2004-01-06,33.552
2004-01-07,33.2707
2004-01-08,33.6223
2004-01-09,33.8685
2004-01-12,33.7841
2004-01-13,34.3185
2004-01-14,34.8952
2004-01-15,34.635
2004-01-16,34.3467
2004-01-20,34.3185
2004-01-21,34.3115
2004-01-22,34.5084
2004-01-23,34.9374
2004-01-26,35.4859
2004-01-27,35.8516
2004-01-28,35.8727
2004-01-29,36.4634
2004-01-30,36.6252
2004-02-02,37.3214
2004-02-03,37.0542
2004-02-04,36.5689
2004-02-05,36.801
2004-02-06,37.8277
2004-02-09,37.7012
2004-02-10,38.4747
2004-02-11,38.9881
2004-02-12,38.3258
2004-02-13,37.9629
2004-02-17,38.1693
2004-02-18,37.9914
2004-02-19,38.0697
2004-02-20,38.0697
2004-02-23,37.9487
2004-02-24,37.8349
2004-02-25,38.1408
2004-02-26,38.4397
2004-02-27,38.7101
2004-03-01,38.9805
2004-03-02,39.3292
2004-03-03,39.3505
2004-03-04,39.4928
2004-03-05,40.0336
2004-03-08,39.9696
2004-03-09,40.0977
2004-03-10,39.3363
2004-03-11,38.9947
2004-03-12,39.2794
2004-03-15,39.0374
2004-03-16,39.6636
2004-03-17,40.1688
2004-03-18,40.5531
2004-03-19,40.5887
2004-03-22,40.6598
2004-03-23,40.9801
2004-03-24,40.6171
2004-03-25,41.0939
2004-03-26,40.6456
2004-03-29,40.852
2004-03-30,41.4497
2004-03-31,41.5066
2004-04-01,41.834
2004-04-02,41.1437
2004-04-05,39.7846
2004-04-06,38.1195
2004-04-07,38.3899
2004-04-08,37.5787
2004-04-12,35.323
2004-04-13,34.9387
2004-04-14,34.8676
2004-04-15,35.7215
2004-04-16,36.1484
2004-04-19,36.2053
2004-04-20,34.8747
2004-04-21,34.8676
2004-04-22,35.2233
2004-04-23,35.1095
2004-04-26,35.3585
2004-04-27,35.7926
2004-04-28,35.4653
2004-04-29,34.4975
2004-04-30,34.3268
2004-05-03,34.7822
2004-05-04,34.4975
2004-05-05,33.7646
2004-05-06,33.9923
2004-05-07,32.5549
2004-05-10,32.6403
2004-05-11,32.6901
2004-05-12,32.5193
2004-05-13,32.6278
2004-05-14,33.4218
2004-05-17,34.0787
2004-05-18,34.3602
2004-05-19,33.3785
2004-05-20,34.252
2004-05-21,34.2375
2004-05-24,34.8006
2004-05-25,35.8617
2004-05-26,36.2659
2004-05-27,36.7207
2004-05-28,37.3632
2004-06-01,36.2948
2004-06-02,37.0744
2004-06-03,36.9228
2004-06-04,37.0095
2004-06-07,37.4281
2004-06-08,37.0744
2004-06-09,36.7496
2004-06-10,36.663
2004-06-14,35.9628
2004-06-15,36.9156
2004-06-16,36.995
2004-06-17,37.4426
2004-06-18,37.8251
2004-06-21,37.5148
2004-06-22,37.3776
2004-06-23,37.4498
2004-06-24,37.3199
2004-06-25,37.5292
2004-06-28,37.7313
2004-06-29,36.8001
2004-06-30,37.06
2004-07-01,36.9589
2004-07-02,37.5797
2004-07-06,37.5436
2004-07-07,37.8035
2004-07-08,37.1971
2004-07-09,37.1394
2004-07-12,37.6158
2004-07-13,37.2549
2004-07-14,37.5942
2004-07-15,37.9479
2004-07-16,38.0056
2004-07-19,38.4893
2004-07-20,38.1355
2004-07-21,37.522
2004-07-22,36.4897
2004-07-23,36.1288
2004-07-26,35.5008
2004-07-27,35.573
2004-07-28,36.071
2004-07-29,36.5763
2004-07-30,37.2188
2004-08-02,38.2149
2004-08-03,38.8357
2004-08-04,39.0667
2004-08-05,38.3665
2004-08-06,38.2655
2004-08-09,38.4532
2004-08-10,38.547
2004-08-11,38.4387
2004-08-12,38.3521
2004-08-13,38.4105
2004-08-16,38.849
2004-08-17,38.9586
2004-08-18,39.4263
2004-08-19,38.732
2004-08-20,39.6528
2004-08-23,40.0986
2004-08-24,40.771
2004-08-25,40.6979
2004-08-26,40.7344
2004-08-27,40.464
2004-08-30,40.7125
2004-08-31,40.844
2004-09-01,40.4859
2004-09-02,40.6613
2004-09-03,40.8586
2004-09-07,41.3264
2004-09-08,41.319
2004-09-09,39.9159
2004-09-10,39.7625
2004-09-13,39.6017
2004-09-14,39.4555
2004-09-15,39.3167
2004-09-16,39.7698
2004-09-17,39.8063
2004-09-20,39.3971
2004-09-21,39.3971
2004-09-22,39.5724
2004-09-23,39.0901
2004-09-24,39.1997
2004-09-27,39.1194
2004-09-28,39.2874
2004-09-29,38.8855
2004-09-30,39.0609
2004-10-01,40.0913
2004-10-04,40.1059
2004-10-05,40.3471
2004-10-06,40.7563
2004-10-07,40.4275
2004-10-08,40.7125
2004-10-11,40.771
2004-10-12,41.0194
2004-10-13,41.0779
2004-10-14,41.341
2004-10-15,41.7383
2004-10-18,42.2388
2004-10-19,42.0475
2004-10-20,42.0327
2004-10-21,42.4597
2004-10-22,42.3787
2004-10-25,42.0695
2004-10-26,42.7983
2004-10-27,42.8646
2004-10-28,42.9308
2004-10-29,42.8498
2004-11-01,43.873
2004-11-02,43.6596
2004-11-03,44.0424
2004-11-04,44.3442
2004-11-05,42.3566
2004-11-08,43.1664
2004-11-09,42.9455
2004-11-10,43.3504
2004-11-11,43.9393
2004-11-12,45.4189
2004-11-15,45.8549
2004-11-16,45.2119
2004-11-17,44.0961
2004-11-18,44.4212
2004-11-19,44.1256
2004-11-22,43.9852
2004-11-23,44.8646
2004-11-24,45.7884
2004-11-26,45.4189
2004-11-29,45.4041
2004-11-30,45.8401
2004-12-01,46.7417
2004-12-02,46.2022
2004-12-03,47.0594
2004-12-06,47.2811
2004-12-07,46.653
2004-12-08,46.6752
2004-12-09,47.3846
2004-12-10,47.7763
2004-12-13,47.961
2004-12-14,47.695
2004-12-15,47.8576
2004-12-16,47.4068
2004-12-17,47.8723
2004-12-20,47.8945
2004-12-21,48.3896
2004-12-22,48.0054
2004-12-23,47.2664
2004-12-27,47.1703
2004-12-28,47.3255
2004-12-29,48.0128
2004-12-30,48.0349
2004-12-31,47.8576
2005-01-03,47.2442
2005-01-04,46.7638
2005-01-05,44.872
2005-01-06,45.138
2005-01-07,45.2785
2005-01-10,45.2637
2005-01-11,44.909
2005-01-12,44.6651
2005-01-13,45.1454
2005-01-14,45.9066
2005-01-18,46.3722
2005-01-19,46.4387
2005-01-20,46.2096
2005-01-21,45.8918
2005-01-24,45.2858
2005-01-25,44.3769
2005-01-26,44.3399
2005-01-27,43.6157
2005-01-28,43.9187
2005-01-31,43.8005
2005-02-01,44.3399
2005-02-02,45.2193
2005-02-03,45.4706
2005-02-04,46.3204
2005-02-07,46.2613
2005-02-08,46.6826
2005-02-09,47.0742
2005-02-10,47.5989
2005-02-11,47.9684
2005-02-14,48.1236
2005-02-15,48.0867
2005-02-16,47.9511
2005-02-17,47.8092
2005-02-18,47.2938
2005-02-22,46.2031
2005-02-23,46.4496
2005-02-24,46.2181
2005-02-25,47.3386
2005-02-28,46.3376
2005-03-01,46.472
2005-03-02,46.3226
2005-03-03,46.3301
2005-03-04,47.2938
2005-03-07,47.4432
2005-03-08,46.7634
2005-03-09,45.1872
2005-03-10,46.106
2005-03-11,45.232
2005-03-14,46.0164
2005-03-15,45.7997
2005-03-16,45.1498
2005-03-17,46.1583
2005-03-18,46.3899
2005-03-21,46.1583
2005-03-22,44.9407
2005-03-23,44.7614
2005-03-24,44.9705
2005-03-28,44.7315
2005-03-29,45.0975
2005-03-30,45.5084
2005-03-31,45.2918
2005-04-01,45.0228
2005-04-04,44.6867
2005-04-05,44.4999
2005-04-06,44.7763
2005-04-07,45.2021
2005-04-08,45.0079
2005-04-11,44.9332
2005-04-12,45.8371
2005-04-13,46.233
2005-04-14,46.0911
2005-04-15,45.9267
2005-04-18,46.1658
2005-04-19,46.1359
2005-04-20,46.0911
2005-04-21,46.5019
2005-04-22,46.995
2005-04-25,47.4357
2005-04-26,47.5104
2005-04-27,48.0184
2005-04-28,47.8316
2005-04-29,49.3331
2005-05-02,49.4377
2005-05-03,49.3705
2005-05-04,49.871
2005-05-05,50.1324
2005-05-06,49.3779
2005-05-09,50.8197
2005-05-10,50.6703
2005-05-11,51.0886
2005-05-12,50.8048
2005-05-13,50.2463
2005-05-16,50.8501
2005-05-17,51.3483
2005-05-18,51.786
2005-05-19,52.3446
2005-05-20,53.1069
2005-05-23,52.7748
2005-05-24,51.9974
2005-05-25,51.4162
2005-05-26,51.1294
2005-05-27,51.3256
2005-05-31,51.8993
2005-06-01,52.7673
2005-06-02,52.722
2005-06-03,52.9786
2005-06-06,53.4088
2005-06-07,54.0278
2005-06-08,54.3448
2005-06-09,54.0957
2005-06-10,53.907
2005-06-13,54.0957
2005-06-14,54.8882
2005-06-15,54.8354
2005-06-16,54.9939
2005-06-17,55.8393
2005-06-20,55.4694
2005-06-21,54.7222
2005-06-22,54.692
2005-06-23,54.2995
2005-06-24,54.1183
2005-06-27,54.1561
2005-06-28,54.5788
2005-06-29,54.6467
2005-06-30,54.692
2005-07-01,55.4241
2005-07-05,55.8694
2005-07-06,55.5524
2005-07-07,55.6808
2005-07-08,57.0243
2005-07-11,58.0357
2005-07-12,57.9602
2005-07-13,57.8998
2005-07-14,57.0545
2005-07-15,57.7564
2005-07-18,57.998
2005-07-19,58.0885
2005-07-20,58.4357
2005-07-21,57.3337
2005-07-22,57.8923
2005-07-25,58.2093
2005-07-26,58.5791
2005-07-27,59.3188
2005-07-28,60.051
2005-07-29,60.2246
2005-08-01,59.7264
2005-08-02,60.4888
2005-08-03,60.7605
2005-08-04,59.7717
2005-08-05,57.3866
2005-08-08,54.8429
2005-08-09,56.1185
2005-08-10,56.5488
2005-08-11,57.296
2005-08-12,57.696
2005-08-15,57.9174
2005-08-16,58.1612
2005-08-17,57.5823
2005-08-18,57.369
2005-08-19,57.2623
2005-08-22,57.3842
2005-08-23,57.5366
2005-08-24,57.6432
2005-08-25,57.7422
2005-08-26,56.8662
2005-08-29,56.7062
2005-08-30,56.7139
2005-08-31,57.8717
2005-09-01,58.1917
2005-09-02,58.4507
2005-09-06,59.5324
2005-09-07,59.3724
2005-09-08,59.4029
2005-09-09,59.5476
2005-09-12,58.6488
2005-09-13,58.0927
2005-09-14,57.7422
2005-09-15,57.8032
2005-09-16,57.1404
2005-09-19,56.5615
2005-09-20,56.0816
2005-09-21,54.4362
2005-09-22,54.7409
2005-09-23,55.0608
2005-09-26,54.9542
2005-09-27,55.038
2005-09-28,55.0151
2005-09-29,56.1349
2005-09-30,56.4091
2005-10-03,56.691
2005-10-04,55.1294
2005-10-05,53.7277
2005-10-06,53.5906
2005-10-07,52.8517
2005-10-10,52.1204
2005-10-11,52.0518
2005-10-12,50.9701
2005-10-13,50.7263
2005-10-14,51.6633
2005-10-17,51.8004
2005-10-18,51.2139
2005-10-19,51.7623
2005-10-20,51.1605
2005-10-21,51.7166
2005-10-24,52.5165
2005-10-25,52.7755
2005-10-26,51.9909
2005-10-27,51.4729
2005-10-28,53.8267
2005-10-31,54.6114
2005-11-01,53.324
2005-11-02,53.7125
2005-11-03,53.7963
2005-11-04,53.6134
2005-11-07,53.7963
2005-11-08,53.9867
2005-11-09,54.7104
2005-11-10,56.5996
2005-11-11,57.6661
2005-11-14,57.4354
2005-11-15,57.3893
2005-11-16,57.9736
2005-11-17,58.6656
2005-11-18,59.396
2005-11-21,59.3884
2005-11-22,59.9035
2005-11-23,60.0111
2005-11-25,60.0035
2005-11-28,59.0885
2005-11-29,59.5652
2005-11-30,59.4883
2005-12-01,60.434
2005-12-02,60.2879
2005-12-05,59.742
2005-12-06,59.7651
2005-12-07,59.2038
2005-12-08,59.3653
2005-12-09,59.8958
2005-12-12,59.8189
2005-12-13,60.434
2005-12-14,60.9722
2005-12-15,61.0953
2005-12-16,60.7416
2005-12-19,59.4883
2005-12-20,59.1192
2005-12-21,59.9189
2005-12-22,60.3033
2005-12-23,60.2879
2005-12-27,60.5263
2005-12-28,59.9112
2005-12-29,59.15
2005-12-30,58.8886
2006-01-03,60.2803
2006-01-04,60.5186
2006-01-05,61.1183
2006-01-06,61.941
2006-01-09,62.3947
2006-01-10,63.0636
2006-01-11,63.202
2006-01-12,62.9252
2006-01-13,62.0179
2006-01-17,61.941
2006-01-18,62.1563
2006-01-19,63.0328
2006-01-20,62.0717
2006-01-23,62.6945
2006-01-24,62.9406
2006-01-25,62.4716
2006-01-26,62.6638
2006-01-27,64.6091
2006-01-30,63.894
2006-01-31,63.7633
2006-02-01,64.1323
2006-02-02,63.7018
2006-02-03,62.6484
2006-02-06,62.8637
2006-02-07,62.4562
2006-02-08,62.0564
2006-02-09,62.0102
2006-02-10,61.4413
2006-02-13,61.8795
2006-02-14,62.5331
2006-02-15,62.5718
2006-02-16,63.868
2006-02-17,64.6907
2006-02-21,64.745
2006-02-22,65.6686
2006-02-23,65.56
2006-02-24,64.8847
2006-02-27,64.7838
2006-02-28,64.419
2006-03-01,64.8304
2006-03-02,64.4578
2006-03-03,63.6584
2006-03-06,65.0477
2006-03-07,63.8602
2006-03-08,63.7904
2006-03-09,64.0775
2006-03-10,64.582
2006-03-13,63.9378
2006-03-14,64.5975
2006-03-15,66.4836
2006-03-16,67.3916
2006-03-17,68.6102
2006-03-20,66.8483
2006-03-21,65.6531
2006-03-22,66.0256
2006-03-23,66.1343
2006-03-24,65.9325
2006-03-27,64.7916
2006-03-28,65.7074
2006-03-29,66.7242
2006-03-30,65.3271
2006-03-31,65.3038
2006-04-03,64.4889
2006-04-04,63.9689
2006-04-05,64.6364
2006-04-06,64.1862
2006-04-07,62.9444
2006-04-10,62.4709
2006-04-11,62.1294
2006-04-12,62.2536
2006-04-13,61.2757
2006-04-17,61.2214
2006-04-18,62.9521
2006-04-19,64.031
2006-04-20,64.5355
2006-04-21,64.5432
2006-04-24,64.3181
2006-04-25,63.736
2006-04-26,62.9366
2006-04-27,63.2548
2006-04-28,63.5032
2006-05-01,62.9211
2006-05-02,61.7414
2006-05-03,61.8423
2006-05-04,62.8901
2006-05-05,64.3259
2006-05-08,64.2871
2006-05-09,64.4035
2006-05-10,64.8071
2006-05-11,63.0065
2006-05-12,62.3157
2006-05-15,63.8742
2006-05-16,63.263
2006-05-17,61.4295
2006-05-18,61.0848
2006-05-19,60.8732
2006-05-22,60.5128
2006-05-23,60.3404
2006-05-24,60.3326
2006-05-25,61.6803
2006-05-26,62.3776
2006-05-30,62.2444
2006-05-31,62.3933
2006-06-01,63.9212
2006-06-02,64.2111
2006-06-05,64.0622
2006-06-06,63.4589
2006-06-07,63.9995
2006-06-08,63.8585
2006-06-09,64.7831
2006-06-12,64.0622
2006-06-13,62.3854
2006-06-14,61.7664
2006-06-15,62.7224
2006-06-16,63.1533
2006-06-19,62.8399
2006-06-20,62.456
2006-06-21,63.122
2006-06-22,62.6283
2006-06-23,62.0485
2006-06-26,62.4403
2006-06-27,62.8242
2006-06-28,63.1141
2006-06-29,64.8223
2006-06-30,65.0025
2006-07-03,65.8487
2006-07-05,66.2796
2006-07-06,65.5901
2006-07-07,65.4177
2006-07-10,66.4285
2006-07-11,66.0681
2006-07-12,66.6871
2006-07-13,65.4648
2006-07-14,64.3991
2006-07-17,64.0544
2006-07-18,64.7987
2006-07-19,66.3893
2006-07-20,65.8879
2006-07-21,65.0103
2006-07-24,66.0446
2006-07-25,66.1934
2006-07-26,66.6087
2006-07-27,66.2718
2006-07-28,67.1885
2006-07-31,67.1337
2006-08-01,66.1073
2006-08-02,64.7439
2006-08-03,64.9398
2006-08-04,65.7703
2006-08-07,65.5431
2006-08-08,64.6342
2006-08-09,64.1014
2006-08-10,64.7752
2006-08-11,64.2189
2006-08-14,64.9868
2006-08-15,65.8722
2006-08-16,66.0541
2006-08-17,65.9434
2006-08-18,66.4574
2006-08-21,66.8607
2006-08-22,67.6752
2006-08-23,67.0188
2006-08-24,67.8808
2006-08-25,67.9836
2006-08-28,67.5328
2006-08-29,66.9081
2006-08-30,67.5407
2006-08-31,67.1453
2006-09-01,67.0663
2006-09-05,67.9361
2006-09-06,68.118
2006-09-07,67.7068
2006-09-08,68.4739
2006-09-11,70.6722
2006-09-12,71.1546
2006-09-13,72.1431
2006-09-14,72.151
2006-09-15,72.4989
2006-09-18,71.977
2006-09-19,72.3645
2006-09-20,72.3724
2006-09-21,71.55
2006-09-22,72.0324
2006-09-25,71.8426
2006-09-26,71.5579
2006-09-27,71.7872
2006-09-28,71.3919
2006-09-29,71.5975
2006-10-02,71.0755
2006-10-03,72.8548
2006-10-04,74.1201
2006-10-05,74.8317
2006-10-06,74.2466
2006-10-09,74.4601
2006-10-10,74.5392
2006-10-11,74.4047
2006-10-12,74.7685
2006-10-13,75.3458
2006-10-16,75.9389
2006-10-17,75.6225
2006-10-18,75.9151
2006-10-19,75.7728
2006-10-20,75.7491
2006-10-23,75.9784
2006-10-24,75.6225
2006-10-25,76.1445
2006-10-26,76.7455
2006-10-27,76.524
2006-10-30,76.5952
2006-10-31,76.7217
2006-11-01,76.7534
2006-11-02,75.3695
2006-11-03,74.4205
2006-11-06,75.0215
2006-11-07,73.9777
2006-11-08,74.1912
2006-11-09,74.6103
2006-11-10,75.0057
2006-11-13,75.2113
2006-11-14,76.4548
2006-11-15,76.0801
2006-11-16,76.3352
2006-11-17,75.9207
2006-11-20,78.2802
2006-11-21,80.2253
2006-11-22,80.5123
2006-11-24,81.2456
2006-11-27,78.2563
2006-11-28,78.918
2006-11-29,80.01
2006-11-30,81.3971
2006-12-01,81.1101
2006-12-04,82.4732
2006-12-05,81.8036
2006-12-06,80.9029
2006-12-07,80.7434
2006-12-08,80.7833
2006-12-11,81.5087
2006-12-12,81.0065
2006-12-13,80.5441
2006-12-14,80.2731
2006-12-15,80.0898
2006-12-18,79.8506
2006-12-19,78.7745
2006-12-20,80.2014
2006-12-21,78.91
2006-12-22,78.2802
2006-12-26,78.91
2006-12-27,80.3209
2006-12-28,80.4565
2006-12-29,80.5601
2007-01-03,81.0384
2007-01-04,81.1021
2007-01-05,79.1571
2007-01-08,79.4441
2007-01-09,81.1261
2007-01-10,82.529
2007-01-11,84.2429
2007-01-12,83.9001
2007-01-16,86.2916
2007-01-17,86.6982
2007-01-18,86.5467
2007-01-19,87.2482
2007-01-22,86.1959
2007-01-23,86.746
2007-01-24,88.6193
2007-01-25,89.0179
2007-01-26,89.3287
2007-01-29,89.2092
2007-01-30,90.3332
2007-01-31,91.202
2007-02-01,91.0346
2007-02-02,91.505
2007-02-05,92.5971
2007-02-06,94.6457
2007-02-07,98.504
2007-02-08,96.3038
2007-02-09,94.0718
2007-02-12,92.0795
2007-02-13,94.7048
2007-02-14,94.3997
2007-02-15,95.1303
2007-02-16,94.8574
2007-02-20,95.7726
2007-02-21,96.1901
2007-02-22,95.6361
2007-02-23,94.1749
2007-02-26,92.7458
2007-02-27,89.695
2007-02-28,90.5219
2007-03-01,89.8395
2007-03-02,87.455
2007-03-05,83.7298
2007-03-06,87.6397
2007-03-07,86.1223
2007-03-08,87.8805
2007-03-09,88.9082
2007-03-12,91.1
2007-03-13,88.0491
2007-03-14,87.9367
2007-03-15,89.0527
2007-03-16,87.9849
2007-03-19,89.2534
2007-03-20,89.5344
2007-03-21,91.2766
2007-03-22,91.3328
2007-03-23,91.8707
2007-03-26,89.6308
2007-03-27,88.29
2007-03-28,87.2222
2007-03-29,87.7039
2007-03-30,89.2133
2007-04-02,90.3614
2007-04-03,92.0393
2007-04-04,90.7467
2007-04-05,91.092
2007-04-09,91.4773
2007-04-10,91.8386
2007-04-11,89.7592
2007-04-12,89.2454
2007-04-13,90.8832
2007-04-16,90.0483
2007-04-17,91.8788
2007-04-18,91.4854
2007-04-19,90.8591
2007-04-20,91.7262
2007-04-23,93.7173
2007-04-24,92.8261
2007-04-25,92.7298
2007-04-26,93.075
2007-04-27,94.0384
2007-04-30,92.6656
2007-05-01,90.8993
2007-05-02,92.4729
2007-05-03,92.5532
2007-05-04,91.0277
2007-05-07,91.4693
2007-05-08,89.8234
2007-05-09,91.2927
2007-05-10,89.406
2007-05-11,90.2249
2007-05-14,89.3096
2007-05-15,87.7967
2007-05-16,86.3163
2007-05-17,84.2615
2007-05-18,83.4445
2007-05-21,84.0997
2007-05-22,85.7743
2007-05-23,83.9703
2007-05-24,82.0288
2007-05-25,82.4252
2007-05-29,85.1514
2007-05-30,87.8937
2007-05-31,87.2304
2007-06-01,87.2789
2007-06-04,87.8209
2007-06-05,85.7257
2007-06-06,84.5932
2007-06-07,81.2441
2007-06-08,82.2715
2007-06-11,80.2814
2007-06-12,78.2752
2007-06-13,80.783
2007-06-14,79.3026
2007-06-15,80.0792
2007-06-18,78.2671
2007-06-19,78.9385
2007-06-20,77.5876
2007-06-21,77.5229
2007-06-22,76.8191
2007-06-25,74.9018
2007-06-26,74.9989
2007-06-27,77.7008
2007-06-28,76.5036
2007-06-29,75.2658
2007-07-02,77.984
2007-07-03,77.0294
2007-07-05,78.1862
2007-07-06,77.45
2007-07-09,77.3449
2007-07-10,74.1657
2007-07-11,73.8178
2007-07-12,75.0474
2007-07-13,76.2851
2007-07-16,76.4227
2007-07-17,75.7512
2007-07-18,75.5732
2007-07-19,76.0667
2007-07-20,74.0848
2007-07-23,73.4376
2007-07-24,72.394
2007-07-25,72.1028
2007-07-26,71.0592
2007-07-27,68.7618
2007-07-30,69.7487
2007-07-31,69.9995
2007-08-01,70.2341
2007-08-02,70.5658
2007-08-03,68.8022
2007-08-06,71.488
2007-08-07,72.0057
2007-08-08,76.8514
2007-08-09,77.9516
2007-08-10,73.5994
2007-08-13,74.0605
2007-08-14,71.9167
2007-08-15,69.899
2007-08-16,72.5695
2007-08-17,74.6194
2007-08-20,76.563
2007-08-21,77.0449
2007-08-22,78.4904
2007-08-23,77.5349
2007-08-24,76.6202
2007-08-27,75.0685
2007-08-28,71.8672
2007-08-29,74.2764
2007-08-30,75.6239
2007-08-31,77.3225
2007-09-04,79.3806
2007-09-05,76.8489
2007-09-06,77.886
2007-09-07,75.338
2007-09-10,75.1012
2007-09-11,76.6774
2007-09-12,77.5022
2007-09-13,78.523
2007-09-14,78.425
2007-09-17,77.7145
2007-09-18,81.5039
2007-09-19,82.7371
2007-09-20,81.3569
2007-09-21,81.6672
2007-09-24,83.3169
2007-09-25,80.4586
2007-09-26,80.9731
2007-09-27,81.5284
2007-09-28,81.7407
2007-10-01,83.2352
2007-10-02,85.7833
2007-10-03,85.6036
2007-10-04,86.9756
2007-10-05,88.5436
2007-10-08,86.2406
2007-10-09,87.2696
2007-10-10,87.0001
2007-10-11,85.5791
2007-10-12,85.1463
2007-10-15,82.6881
2007-10-16,81.3406
2007-10-17,81.4876
2007-10-18,82.0756
2007-10-19,78.4169
2007-10-22,79.8052
2007-10-23,80.3851
2007-10-24,79.9767
2007-10-25,80.2054
2007-10-26,80.2136
2007-10-29,81.1364
2007-10-30,83.6926
2007-10-31,85.2198
2007-11-01,82.0756
2007-11-02,81.0956
2007-11-05,80.1972
2007-11-06,80.6301
2007-11-07,77.494
2007-11-08,77.5022
2007-11-09,75.6647
2007-11-12,76.6284
2007-11-13,80.8342
2007-11-14,80.3145
2007-11-15,79.7956
2007-11-16,77.547
2007-11-19,75.0266
2007-11-20,73.1899
2007-11-21,74.1453
2007-11-23,73.5523
2007-11-26,70.8507
2007-11-27,74.5489
2007-11-28,78.8154
2007-11-29,78.7248
2007-11-30,81.237
2007-12-03,79.7791
2007-12-04,77.8353
2007-12-05,79.9932
2007-12-06,81.8959
2007-12-07,80.1415
2007-12-10,82.456
2007-12-11,77.5058
2007-12-12,79.0955
2007-12-13,77.9835
2007-12-14,75.8997
2007-12-17,72.9675
2007-12-18,74.0959
2007-12-19,73.6511
2007-12-20,73.1487
2007-12-21,74.3347
2007-12-24,77.094
2007-12-26,75.2902
2007-12-27,72.5804
2007-12-28,71.6002
2007-12-31,71.6167
2008-01-02,70.7766
2008-01-03,68.9316
2008-01-04,65.2993
2008-01-07,66.7818
2008-01-08,63.6437
2008-01-09,65.637
2008-01-10,67.0372
2008-01-11,67.6879
2008-01-14,67.309
2008-01-15,65.2169
2008-01-16,66.2053
2008-01-17,65.5793
2008-01-18,64.5909
2008-01-22,68.9481
2008-01-23,74.2853
2008-01-24,72.3909
2008-01-25,71.3531
2008-01-28,73.0169
2008-01-29,72.3662
2008-01-30,71.2049
2008-01-31,71.7402
2008-02-01,78.7825
2008-02-04,77.2917
2008-02-05,73.2887
2008-02-06,70.9083
2008-02-07,72.0944
2008-02-08,68.8904
2008-02-11,68.701
2008-02-12,70.9578
2008-02-13,70.8669
2008-02-14,70.3925
2008-02-15,70.3342
2008-02-19,69.2688
2008-02-20,70.5007
2008-02-21,69.8598
2008-02-22,71.2498
2008-02-25,74.1298
2008-02-26,73.4805
2008-02-27,73.1642
2008-02-28,71.5411
2008-02-29,69.7765
2008-03-03,70.5922
2008-03-04,71.5162
2008-03-05,72.1155
2008-03-06,68.4697
2008-03-07,69.8847
2008-03-10,68.4531
2008-03-11,74.3878
2008-03-12,71.949
2008-03-13,73.3307
2008-03-14,71.8824
2008-03-17,73.3307
2008-03-18,77.5341
2008-03-19,75.9859
2008-03-20,79.1905
2008-03-24,77.1512
2008-03-25,79.1655
2008-03-26,78.1001
2008-03-27,78.2416
2008-03-28,76.6934
2008-03-31,77.1429
2008-04-01,82.7613
2008-04-02,83.8101
2008-04-03,85.7412
2008-04-04,83.4938
2008-04-07,83.5437
2008-04-08,82.5116
2008-04-09,80.6554
2008-04-10,81.7125
2008-04-11,80.8552
2008-04-14,79.9729
2008-04-15,81.0883
2008-04-16,84.4011
2008-04-17,84.3761
2008-04-18,85.275
2008-04-21,83.9682
2008-04-22,83.0943
2008-04-23,84.9005
2008-04-24,87.1312
2008-04-25,86.8399
2008-04-28,86.482
2008-04-29,84.5342
2008-04-30,83.5021
2008-05-01,86.0158
2008-05-02,86.1407
2008-05-05,86.2822
2008-05-06,87.2561
2008-05-07,83.6436
2008-05-08,83.6852
2008-05-09,82.8945
2008-05-12,84.2429
2008-05-13,83.9016
2008-05-14,85.5478
2008-05-15,87.0176
2008-05-16,86.816
2008-05-19,86.6396
2008-05-20,85.7074
2008-05-21,83.4734
2008-05-22,81.7936
2008-05-23,82.0372
2008-05-27,83.1542
2008-05-28,82.4739
2008-05-29,84.0025
2008-05-30,83.4146
2008-06-02,82.1968
2008-06-03,83.129
2008-06-04,83.8093
2008-06-05,85.9341
2008-06-06,81.8356
2008-06-09,80.5759
2008-06-10,80.9874
2008-06-11,78.8793
2008-06-12,80.5003
2008-06-13,82.1968
2008-06-16,83.8093
2008-06-17,80.5759
2008-06-18,79.2657
2008-06-19,82.1464
2008-06-20,80.0048
2008-06-23,78.4174
2008-06-24,78.6946
2008-06-25,79.8032
2008-06-26,76.385
2008-06-27,76.3262
2008-06-30,75.6207
2008-07-01,74.8732
2008-07-02,74.1593
2008-07-03,74.1425
2008-07-07,71.1275
2008-07-08,76.3682
2008-07-09,71.2198
2008-07-10,73.5211
2008-07-11,72.6056
2008-07-14,69.7585
2008-07-15,68.0452
2008-07-16,74.0838
2008-07-17,75.6207
2008-07-18,75.9902
2008-07-21,76.301
2008-07-22,77.5692
2008-07-23,78.3922
2008-07-24,73.7898
2008-07-25,76.0238
2008-07-28,74.6045
2008-07-29,79.0305
2008-07-30,80.0383
2008-07-31,77.7791
2008-08-01,76.6537
2008-08-04,75.9734
2008-08-05,80.0971
2008-08-06,79.9628
2008-08-07,77.292
2008-08-08,80.7522
2008-08-11,84.4728
2008-08-12,82.3563
2008-08-13,80.5184
2008-08-14,82.0442
2008-08-15,82.7732
2008-08-18,80.7643
2008-08-19,79.0605
2008-08-20,79.7979
2008-08-21,78.323
2008-08-22,81.0948
2008-08-25,78.7638
2008-08-26,79.0096
2008-08-27,79.1452
2008-08-28,81.7645
2008-08-29,80.5269
2008-09-02,81.2474
2008-09-03,83.0021
2008-09-04,79.764
2008-09-05,79.4758
2008-09-08,83.7226
2008-09-09,79.8318
2008-09-10,80.5693
2008-09-11,81.6119
2008-09-12,83.214
2008-09-15,78.9164
2008-09-16,81.6373
2008-09-17,76.1276
2008-09-18,84.1294
2008-09-19,86.4605
2008-09-22,77.8144
2008-09-23,79.3402
2008-09-24,79.0435
2008-09-25,80.7558
2008-09-26,84.5702
2008-09-29,77.5093
2008-09-30,83.6039
2008-10-01,79.764
2008-10-02,73.9407
2008-10-03,71.0247
2008-10-06,69.6685
2008-10-07,61.6158
2008-10-08,61.921
2008-10-09,58.132
2008-10-10,65.8795
2008-10-13,67.8376
2008-10-14,61.0564
2008-10-15,51.071
2008-10-16,57.5301
2008-10-17,56.479
2008-10-20,56.4027
2008-10-21,53.3003
2008-10-22,50.1132
2008-10-23,48.4687
2008-10-24,45.8241
2008-10-27,43.8066
2008-10-28,53.0969
2008-10-29,50.2149
2008-10-30,52.6392
2008-10-31,56.8181
2008-11-03,56.2756
2008-11-04,61.1411
2008-11-05,54.2158
2008-11-06,53.1562
2008-11-07,57.564
2008-11-10,51.5627
2008-11-11,49.7656
2008-11-12,44.0688
2008-11-13,50.3533
2008-11-14,44.4046
2008-11-17,41.9768
2008-11-18,40.7888
2008-11-19,34.9176
2008-11-20,33.0064
2008-11-21,34.005
2008-11-24,41.2881
2008-11-25,40.8577
2008-11-26,43.8019
2008-11-28,41.7444
2008-12-01,32.6104
2008-12-02,38.585
2008-12-03,41.0213
2008-12-04,39.7127
2008-12-05,45.2999
2008-12-08,48.0461
2008-12-09,44.1807
2008-12-10,47.9256
2008-12-11,40.4445
2008-12-12,44.7403
2008-12-15,42.9324
2008-12-16,48.6229
2008-12-17,48.2097
2008-12-18,43.8278
2008-12-19,46.9528
2008-12-22,45.1191
2008-12-23,44.8866
2008-12-24,44.1635
2008-12-26,44.68
2008-12-29,42.2523
2008-12-30,44.3787
2008-12-31,46.1435
2009-01-02,44.086
2009-01-05,43.3715
2009-01-06,46.0747
2009-01-07,44.0774
2009-01-08,43.3371
2009-01-09,40.3756
2009-01-12,37.638
2009-01-13,39.3253
2009-01-14,36.5447
2009-01-15,38.5677
2009-01-16,39.6783
2009-01-20,35.3652
2009-01-21,39.9968
2009-01-22,37.1559
2009-01-23,38.7485
2009-01-26,37.8188
2009-01-27,37.7585
2009-01-28,42.347
2009-01-29,38.1115
2009-01-30,37.087
2009-02-02,37.7757
2009-02-03,36.9923
2009-02-04,36.8201
2009-02-05,37.1473
2009-02-06,39.4975
2009-02-09,40.3584
2009-02-10,36.7863
2009-02-11,37.6904
2009-02-12,36.6459
2009-02-13,33.4596
2009-02-17,30.765
2009-02-18,31.5549
2009-02-19,30.2559
2009-02-20,31.9499
2009-02-23,28.711
2009-02-24,31.0458
2009-02-25,30.4665
2009-02-26,29.2903
2009-02-27,29.027
2009-03-02,26.464
2009-03-03,26.227
2009-03-04,25.9286
2009-03-05,24.4891
2009-03-06,22.9443
2009-03-09,25.1298
2009-03-10,29.2377
2009-03-11,28.3863
2009-03-12,31.2126
2009-03-13,30.291
2009-03-16,27.4559
2009-03-17,29.659
2009-03-18,31.2653
2009-03-19,29.9574
2009-03-20,28.4916
2009-03-23,34.3286
2009-03-24,30.6772
2009-03-25,30.8001
2009-03-26,32.301
2009-03-27,29.3957
2009-03-30,26.9994
2009-03-31,30.3788
2009-04-01,29.3079
2009-04-02,32.3449
2009-04-03,36.1017
2009-04-06,35.2064
2009-04-07,31.4759
2009-04-08,32.1869
2009-04-09,37.8571
2009-04-13,37.3919
2009-04-14,33.4509
2009-04-15,38.7788
2009-04-16,41.6578
2009-04-17,43.3255
2009-04-20,38.0239
2009-04-21,41.7894
2009-04-22,40.5606
2009-04-23,42.9217
2009-04-24,44.5807
2009-04-27,40.0866
2009-04-28,41.5173
2009-04-29,43.3957
2009-04-30,44.7738
2009-05-01,41.886
2009-05-04,45.5111
2009-05-05,43.9926
2009-05-06,48.1882
2009-05-07,45.2916
2009-05-08,47.3456
2009-05-11,45.792
2009-05-12,45.4831
2009-05-13,42.7303
2009-05-14,44.453
2009-05-15,41.8246
2009-05-18,45.5541
2009-05-19,44.6839
2009-05-20,44.2577
2009-05-21,44.0534
2009-05-22,43.0766
2009-05-26,45.421
2009-05-27,44.5596
2009-05-28,46.0603
2009-05-29,47.268
2009-06-01,50.4115
2009-06-02,48.1027
2009-06-03,47.9517
2009-06-04,48.227
2009-06-05,47.5699
2009-06-08,47.8097
2009-06-09,47.3745
2009-06-10,46.824
2009-06-11,46.2912
2009-06-12,47.9251
2009-06-15,46.2379
2009-06-16,45.6341
2009-06-17,44.533
2009-06-18,45.3055
2009-06-19,47.0815
2009-06-22,43.6627
2009-06-23,44.3554
2009-06-24,44.9148
2009-06-25,45.6785
2009-06-26,46.2379
2009-06-29,45.6962
2009-06-30,45.6874
2009-07-01,45.5719
2009-07-02,43.0322
2009-07-06,44.533
2009-07-07,42.1442
2009-07-08,42.3218
2009-07-09,41.2918
2009-07-10,41.0254
2009-07-13,43.2276
2009-07-14,44.1156
2009-07-15,45.0924
2009-07-16,45.8472
2009-07-17,44.4264
2009-07-20,46.0869
2009-07-21,46.0692
2009-07-22,46.4333
2009-07-23,48.0139
2009-07-24,47.6143
2009-07-27,48.822
2009-07-28,48.3336
2009-07-29,47.9873
2009-07-30,49.7366
2009-07-31,49.4702
2009-08-03,50.7756
2009-08-04,53.9368
2009-08-05,56.0059
2009-08-06,55.9526
2009-08-07,59.2026
2009-08-10,57.2402
2009-08-11,55.4198
2009-08-12,56.1124
2009-08-13,56.7139
2009-08-14,56.1222
2009-08-17,52.0878
2009-08-18,53.1188
2009-08-19,52.4106
2009-08-20,54.7146
2009-08-21,55.6918
2009-08-24,54.867
2009-08-25,55.7725
2009-08-26,56.7945
2009-08-27,57.3235
2009-08-28,58.1304
2009-08-31,56.9649
2009-09-01,53.845
2009-09-02,52.7423
2009-09-03,53.6567
2009-09-04,54.8939
2009-09-08,57.7986
2009-09-09,59.2062
2009-09-10,60.4613
2009-09-11,60.2013
2009-09-14,62.093
2009-09-15,63.1329
2009-09-16,65.7956
2009-09-17,65.2846
2009-09-18,66.2887
2009-09-21,64.3522
2009-09-22,65.8225
2009-09-23,62.8909
2009-09-24,60.3179
2009-09-25,61.0082
2009-09-28,64.2446
2009-09-29,62.1916
2009-09-30,62.1737
2009-10-01,59.1883
2009-10-02,59.3138
2009-10-05,60.7034
2009-10-06,61.1696
2009-10-07,60.9365
2009-10-08,61.7433
2009-10-09,62.1826
2009-10-12,61.8778
2009-10-13,60.3268
2009-10-14,63.2136
2009-10-15,62.7654
2009-10-16,60.4075
2009-10-19,61.9675
2009-10-20,61.4206
2009-10-21,61.1875
2009-10-22,62.855
2009-10-23,61.6178
2009-10-26,61.5461
2009-10-27,60.4255
2009-10-28,57.7269
2009-10-29,61.044
2009-10-30,60.9275
2009-11-02,61.1875
2009-11-03,61.833
2009-11-04,60.4613
2009-11-05,62.2185
2009-11-06,61.062
2009-11-09,64.3163
2009-11-10,63.2405
2009-11-11,65.1591
2009-11-12,64.8429
2009-11-13,65.3762
2009-11-16,66.7503
2009-11-17,65.3581
2009-11-18,68.3232
2009-11-19,66.8045
2009-11-20,65.6564
2009-11-23,67.0757
2009-11-24,65.1141
2009-11-25,65.3129
2009-11-27,63.0349
2009-11-30,65.9548
2009-12-01,66.7864
2009-12-02,67.9706
2009-12-03,66.9763
2009-12-04,68.5673
2009-12-07,66.9582
2009-12-08,67.4915
2009-12-09,67.8441
2009-12-10,68.2147
2009-12-11,69.3537
2009-12-14,70.3481
2009-12-15,69.4261
2009-12-16,69.5526
2009-12-17,69.3718
2009-12-18,70.3301
2009-12-21,71.7855
2009-12-22,72.0657
2009-12-23,73.4126
2009-12-24,74.7957
2009-12-28,74.9404
2009-12-29,74.2081
2009-12-30,73.6115
2009-12-31,72.3459
2010-01-04,71.3606
2010-01-05,70.7459
2010-01-06,69.9775
2010-01-07,71.0352
2010-01-08,69.2453
2010-01-11,69.3628
2010-01-12,67.7718
2010-01-13,68.6034
2010-01-14,69.0012
2010-01-15,67.7537
2010-01-19,69.2634
2010-01-20,67.7447
2010-01-21,65.566
2010-01-22,63.8214
2010-01-25,65.096
2010-01-26,64.8971
2010-01-27,65.4666
2010-01-28,65.0869
2010-01-29,65.1141
2010-02-01,66.4791
2010-02-02,67.3288
2010-02-03,65.8372
2010-02-04,62.9626
2010-02-05,66.3164
2010-02-08,63.8575
2010-02-09,63.8304
2010-02-10,63.4688
2010-02-11,64.9818
2010-02-12,65.693
2010-02-16,68.246
2010-02-17,69.2125
2010-02-18,70.3157
2010-02-19,70.9266
2010-02-22,71.6013
2010-02-23,71.0816
2010-02-24,70.5801
2010-02-25,71.4554
2010-02-26,71.5192
2010-03-01,71.4828
2010-03-02,71.0816
2010-03-03,70.6622
2010-03-04,70.7078
2010-03-05,72.4857
2010-03-08,72.6407
2010-03-09,73.6072
2010-03-10,73.6072
2010-03-11,73.7987
2010-03-12,74.7287
2010-03-15,74.6466
2010-03-16,76.9169
2010-03-17,78.084
2010-03-18,77.081
2010-03-19,76.1054
2010-03-22,77.4093
2010-03-23,76.8713
2010-03-24,77.0628
2010-03-25,77.9746
2010-03-26,77.5278
2010-03-29,77.5278
2010-03-30,77.6007
2010-03-31,76.4884
2010-04-01,76.8987
2010-04-05,78.5763
2010-04-06,79.9622
2010-04-07,76.999
2010-04-08,77.2087
2010-04-09,78.5216
2010-04-12,77.5734
2010-04-13,80.3634
2010-04-14,80.2084
2010-04-15,77.5369
2010-04-16,74.8563
2010-04-19,75.6313
2010-04-20,77.0993
2010-04-21,79.4152
2010-04-22,80.6552
2010-04-23,81.7037
2010-04-26,82.6702
2010-04-27,79.7799
2010-04-28,79.7708
2010-04-29,84.2931
2010-04-30,80.9743
2010-05-03,84.6578
2010-05-04,82.2234
2010-05-05,80.6916
2010-05-06,77.0537
2010-05-07,78.3119
2010-05-10,82.1596
2010-05-11,82.7522
2010-05-12,83.726
2010-05-13,82.3309
2010-05-14,79.6049
2010-05-17,79.6783
2010-05-18,77.2368
2010-05-19,76.5209
2010-05-20,74.52
2010-05-21,77.1726
2010-05-24,74.9238
2010-05-25,75.805
2010-05-26,75.1992
2010-05-27,79.3938
2010-05-28,78.2465
2010-06-01,77.8793
2010-06-02,79.3754
2010-06-03,79.0633
2010-06-04,74.7311
2010-06-07,74.4099
2010-06-08,75.6306
2010-06-09,75.6122
2010-06-10,78.7421
2010-06-11,79.8986
2010-06-14,81.0642
2010-06-15,82.9734
2010-06-16,82.0922
2010-06-17,81.7985
2010-06-18,82.0096
2010-06-21,81.3671
2010-06-22,78.5034
2010-06-23,79.1368
2010-06-24,76.989
2010-06-25,79.3112
2010-06-28,77.8793
2010-06-29,75.034
2010-06-30,74.0978
2010-07-01,74.3915
2010-07-02,72.6017
2010-07-06,70.8761
2010-07-07,74.5016
2010-07-08,75.0707
2010-07-09,75.9059
2010-07-12,76.0436
2010-07-13,78.1455
2010-07-14,77.5764
2010-07-15,77.8151
2010-07-16,75.4378
2010-07-19,76.475
2010-07-20,77.402
2010-07-21,75.5296
2010-07-22,79.201
2010-07-23,80.2565
2010-07-26,81.8169
2010-07-27,81.8719
2010-07-28,81.8628
2010-07-29,80.743
2010-07-30,81.9637
2010-08-02,85.9013
2010-08-03,85.5525
2010-08-04,86.6631
2010-08-05,85.4607
2010-08-06,85.2221
2010-08-09,85.9288
2010-08-10,84.9559
2010-08-11,83.1661
2010-08-12,82.3309
2010-08-13,82.5253
2010-08-16,82.5438
2010-08-17,84.7523
2010-08-18,84.974
2010-08-19,82.5346
2010-08-20,82.322
2010-08-23,81.4072
2010-08-24,81.5366
2010-08-25,82.7656
2010-08-26,82.1557
2010-08-27,83.7173
2010-08-30,82.9227
2010-08-31,83.5972
2010-09-01,86.4894
2010-09-02,88.125
2010-09-03,89.1507
2010-09-07,87.3211
2010-09-08,87.6445
2010-09-09,87.09
2010-09-10,87.626
2010-09-13,87.8385
2010-09-14,87.3026
2010-09-15,88.1897
2010-09-16,87.4042
2010-09-17,88.088
2010-09-20,89.8622
2010-09-21,89.0767
2010-09-22,88.088
2010-09-23,85.6855
2010-09-24,87.9124
2010-09-27,86.665
2010-09-28,86.8868
2010-09-29,85.9258
2010-09-30,85.6208
2010-10-01,86.4894
2010-10-04,87.1732
2010-10-05,88.3929
2010-10-06,88.088
2010-10-07,88.3375
2010-10-08,88.3467
2010-10-11,88.3467
2010-10-12,89.1876
2010-10-13,89.7235
2010-10-14,89.4556
2010-10-15,90.0654
2010-10-18,90.7215
2010-10-19,88.8272
2010-10-20,90.7123
2010-10-21,90.4535
2010-10-22,90.1948
2010-10-25,90.4443
2010-10-26,89.7513
2010-10-27,89.4556
2010-10-28,89.0952
2010-10-29,89.0305
2010-11-01,91.1281
2010-11-02,93.0039
2010-11-03,93.1517
2010-11-04,95.9608
2010-11-05,97.661
2010-11-08,98.0953
2010-11-09,93.392
2010-11-10,95.24
2010-11-11,93.7431
2010-11-12,93.5381
2010-11-15,92.9514
2010-11-16,89.5332
2010-11-17,90.2411
2010-11-18,91.2469
2010-11-19,91.5822
2010-11-22,91.7685
2010-11-23,90.8278
2010-11-24,93.3332
2010-11-26,92.1969
2010-11-29,91.9548
2010-11-30,91.9455
2010-12-01,92.8955
2010-12-02,94.9166
2010-12-03,95.1401
2010-12-06,94.9166
2010-12-07,94.544
2010-12-08,92.97
2010-12-09,91.6567
2010-12-10,92.1317
2010-12-13,92.1038
2010-12-14,90.9768
2010-12-15,88.7322
2010-12-16,88.192
2010-12-17,88.8812
2010-12-20,90.2783
2010-12-21,91.9361
2010-12-22,91.8896
2010-12-23,91.0979
2010-12-27,92.644
2010-12-28,92.169
2010-12-29,93.3239
2010-12-30,92.8675
2010-12-31,92.6626
2011-01-03,94.0597
2011-01-04,91.2656
2011-01-05,91.4984
2011-01-06,88.8347
2011-01-07,90.2783
2011-01-10,90.921
2011-01-11,90.8464
2011-01-12,90.9116
2011-01-13,91.3494
2011-01-14,92.169
2011-01-18,92.8489
2011-01-19,91.9641
2011-01-20,91.9827
2011-01-21,92.6719
2011-01-24,92.9514
2011-01-25,93.7337
2011-01-26,93.8268
2011-01-27,94.4695
2011-01-28,93.0817
2011-01-31,94.5161
2011-02-01,95.5033
2011-02-02,95.7175
2011-02-03,97.72
2011-02-04,96.295
2011-02-07,97.8504
2011-02-08,99.0332
2011-02-09,98.9028
2011-02-10,99.869
2011-02-11,100.601
2011-02-14,100.498
2011-02-15,100.291
2011-02-16,101.164
2011-02-17,101.446
2011-02-18,101.286
2011-02-22,101.22
2011-02-23,100.601
2011-02-24,99.0525
2011-02-25,100.404
2011-02-28,103.313
2011-03-01,100.47
2011-03-02,98.9493
2011-03-03,100.667
2011-03-04,100.01
2011-03-07,99.4467
2011-03-08,100.592
2011-03-09,100.075
2011-03-10,98.8461
2011-03-11,100.197
2011-03-14,99.1745
2011-03-15,98.4801
2011-03-16,96.4906
2011-03-17,96.8378
2011-03-18,97.4384
2011-03-21,98.8555
2011-03-22,98.4801
2011-03-23,96.5469
2011-03-24,97.2883
2011-03-25,98.1329
2011-03-28,98.6678
2011-03-29,99.3059
2011-03-30,100.047
2011-03-31,100.535
2011-04-01,100.47
2011-04-04,100.31
2011-04-05,100.554
2011-04-06,100.714
2011-04-07,99.7564
2011-04-08,99.1933
2011-04-11,99.1933
2011-04-12,98.3112
2011-04-13,98.5927
2011-04-14,100.864
2011-04-15,102.018
2011-04-18,101.427
2011-04-19,101.69
2011-04-20,102.816
2011-04-21,103.698
2011-04-25,104.861
2011-04-26,105.134
2011-04-27,106.382
2011-04-28,107.874
2011-04-29,107.452
2011-05-02,108.446
2011-05-03,108.84
2011-05-04,108.503
2011-05-05,108.024
2011-05-06,107.865
2011-05-09,108.606
2011-05-10,110.06
2011-05-11,109.563
2011-05-12,109.76
2011-05-13,108.919
2011-05-16,109.43
2011-05-17,109.071
2011-05-18,110.195
2011-05-19,109.836
2011-05-20,108.163
2011-05-23,106.888
2011-05-24,107.757
2011-05-25,108.277
2011-05-26,109.212
2011-05-27,109.798
2011-05-31,111.499
2011-06-01,108.919
2011-06-02,108.163
2011-06-03,109.033
2011-06-06,107.644
2011-06-07,108.645
2011-06-08,108.598
2011-06-09,107.37
2011-06-10,104.705
2011-06-13,105.48
2011-06-14,107.209
2011-06-15,105.3
2011-06-16,106.368
2011-06-17,107.833
2011-06-20,108.664
2011-06-21,108.57
2011-06-22,107.861
2011-06-23,105.744
2011-06-24,106.226
2011-06-27,107.559
2011-06-28,107.681
2011-06-29,109.278
2011-06-30,109.845
2011-07-01,111.905
2011-07-05,112.689
2011-07-06,113.615
2011-07-07,114.957
2011-07-08,114.513
2011-07-11,112.576
2011-07-12,112.708
2011-07-13,111.773
2011-07-14,110.998
2011-07-15,112.179
2011-07-18,111.357
2011-07-19,113.615
2011-07-20,113.908
2011-07-21,114.494
2011-07-22,115.099
2011-07-25,113.852
2011-07-26,115.666
2011-07-27,112.907
2011-07-28,113.946
2011-07-29,113.984
2011-08-01,113.266
2011-08-02,109.505
2011-08-03,109.08
2011-08-04,104.601
2011-08-05,102.862
2011-08-08,94.3111
2011-08-09,104.251
2011-08-10,101.54
2011-08-11,108.466
2011-08-12,107.946
2011-08-15,110.363
2011-08-16,111.771
2011-08-17,111.8
2011-08-18,107.175
2011-08-19,104.72
2011-08-22,105.025
2011-08-23,108.079
2011-08-24,109.811
2011-08-25,107.851
2011-08-26,109.535
2011-08-29,111.533
2011-08-30,110.763
2011-08-31,111.6
2011-09-01,111.686
2011-09-02,108.898
2011-09-06,110.61
2011-09-07,113.551
2011-09-08,113.037
2011-09-09,110.192
2011-09-12,110.296
2011-09-13,110.696
2011-09-14,110.867
2011-09-15,113.218
2011-09-16,114.721
2011-09-19,113.027
2011-09-20,113.741
2011-09-21,107.204
2011-09-22,105.596
2011-09-23,107.118
2011-09-26,108.079
2011-09-27,108.079
2011-09-28,105.891
2011-09-29,106.947
2011-09-30,104.711
2011-10-03,101.466
2011-10-04,105.339
2011-10-05,104.102
2011-10-06,107.251
2011-10-07,104.14
2011-10-10,109.021
2011-10-11,107.232
2011-10-12,109.687
2011-10-13,107.841
2011-10-14,110.22
2011-10-17,107.385
2011-10-18,111.238
2011-10-19,109.925
2011-10-20,111.2
2011-10-21,114.816
2011-10-24,116.824
2011-10-25,115.073
2011-10-26,117.69
2011-10-27,122.771
2011-10-28,122.981
2011-10-31,122.2
2011-11-01,119.117
2011-11-02,121.715
2011-11-03,123.123
2011-11-04,122.467
2011-11-07,123.447
2011-11-08,124.418
2011-11-09,119.155
2011-11-10,119.65
2011-11-11,121.801
2011-11-14,119.75
2011-11-15,120.948
2011-11-16,118.811
2011-11-17,116.617
2011-11-18,118.006
2011-11-21,114.585
2011-11-22,114.144
2011-11-23,111.03
2011-11-25,111.48
2011-11-28,113.56
2011-11-29,114.23
2011-11-30,119.233
2011-12-01,117.901
2011-12-02,117.776
2011-12-05,117.862
2011-12-06,117.747
2011-12-07,119.175
2011-12-08,116.147
2011-12-09,119.329
2011-12-12,116.597
2011-12-13,115.409
2011-12-14,115.822
2011-12-15,117.31
2011-12-16,118.5
2011-12-19,118.289
2011-12-20,122.32
2011-12-21,122.445
2011-12-22,123.875
2011-12-23,124.96
2011-12-27,125.795
2011-12-28,123.885
2011-12-29,124.605
2011-12-30,123.846
2012-01-03,124.202
2012-01-04,121.984
2012-01-05,122.56
2012-01-06,121.725
2012-01-09,121.754
2012-01-10,122.493
2012-01-11,122.839
2012-01-12,121.84
2012-01-13,121.735
2012-01-17,123.011
2012-01-18,123.203
2012-01-19,125.949
2012-01-20,126.313
2012-01-23,126.285
2012-01-24,128.32
2012-01-25,130.393
2012-01-26,130.969
2012-01-27,131.247
2012-01-30,129.932
2012-01-31,130.489
2012-02-01,130.902
2012-02-02,131.881
2012-02-03,133.1
2012-02-06,131.91
2012-02-07,131.929
2012-02-08,132.063
2012-02-09,132.332
2012-02-10,131.257
2012-02-13,132.339
2012-02-14,131.083
2012-02-15,131.199
2012-02-16,133.277
2012-02-17,133.045
2012-02-21,131.054
2012-02-22,130.512
2012-02-23,131.199
2012-02-24,131.962
2012-02-27,132.484
2012-02-28,131.682
2012-02-29,131.141
2012-03-01,131.895
2012-03-02,132.629
2012-03-05,133.702
2012-03-06,132.233
2012-03-07,133.538
2012-03-08,133.577
2012-03-09,131.846
2012-03-12,134.505
2012-03-13,136.157
2012-03-14,136.409
2012-03-15,136.525
2012-03-16,137.056
2012-03-19,138.738
2012-03-20,138.758
2012-03-21,139.425
2012-03-22,138.071
2012-03-23,138.903
2012-03-26,139.657
2012-03-27,139.811
2012-03-28,139.318
2012-03-29,139.889
2012-03-30,140.788
2012-04-02,141.928
2012-04-03,141.831
2012-04-04,140.913
2012-04-05,140.894
2012-04-09,139.869
2012-04-10,137.134
2012-04-11,138.632
2012-04-12,140.739
2012-04-13,139.956
2012-04-16,143.146
2012-04-17,144.644
2012-04-18,144.055
2012-04-19,143.165
2012-04-20,145.079
2012-04-23,143.639
2012-04-24,145.746
2012-04-25,147.477
2012-04-26,147.09
2012-04-27,150.241
2012-04-30,150.299
2012-05-01,152.213
2012-05-02,151.73
2012-05-03,150.367
2012-05-04,149.187
2012-05-07,149.941
2012-05-08,150.212
2012-05-09,149.661
2012-05-10,149.787
2012-05-11,150.811
2012-05-14,149.429
2012-05-15,149.041
2012-05-16,146.093
2012-05-17,142.386
2012-05-18,140.401
2012-05-21,143.544
2012-05-22,143.719
2012-05-23,143.768
2012-05-24,144.964
2012-05-25,143.991
2012-05-29,145.927
2012-05-30,142.415
2012-05-31,143.719
2012-06-01,139.72
2012-06-04,139.457
2012-06-05,141.997
2012-06-06,144.721
2012-06-07,144.867
2012-06-08,146.492
2012-06-11,143.612
2012-06-12,144.828
2012-06-13,143.408
2012-06-14,144.05
2012-06-15,145.266
2012-06-18,145.344
2012-06-19,147.212
2012-06-20,148.175
2012-06-21,145.198
2012-06-22,146.219
2012-06-25,145.937
2012-06-26,146.531
2012-06-27,146.754
2012-06-28,147.601
2012-06-29,151.366
2012-07-02,153.652
2012-07-03,154.148
2012-07-05,152.679
2012-07-06,153.214
2012-07-09,154.401
2012-07-10,152.65
2012-07-11,152.884
2012-07-12,152.777
2012-07-13,154.051
2012-07-16,154.119
2012-07-17,155.433
2012-07-18,155.073
2012-07-19,153.993
2012-07-20,152.699
2012-07-23,151.852
2012-07-24,153.195
2012-07-25,151.882
2012-07-26,154.723
2012-07-27,156.094
2012-07-30,156.785
2012-07-31,156.231
2012-08-01,156.775
2012-08-02,157.087
2012-08-03,158.536
2012-08-06,157.291
2012-08-07,155.121
2012-08-08,154.071
2012-08-09,152.543
2012-08-10,153.467
2012-08-13,152.962
2012-08-14,153.36
2012-08-15,154.291
2012-08-16,156.27
2012-08-17,156.574
2012-08-20,155.712
2012-08-21,155.291
2012-08-22,155.486
2012-08-23,153.165
2012-08-24,153.753
2012-08-27,155.369
2012-08-28,155.3
2012-08-29,154.487
2012-08-30,154.194
2012-08-31,155.457
2012-09-04,155.663
2012-09-05,154.566
2012-09-06,155.673
2012-09-07,155.614
2012-09-10,153.087
2012-09-11,154.527
2012-09-12,155.398
2012-09-13,158.229
2012-09-14,159.492
2012-09-17,160.002
2012-09-18,158.141
2012-09-19,157.631
2012-09-20,152.764
2012-09-21,153.008
2012-09-24,152.176
2012-09-25,149.003
2012-09-26,148.023
2012-09-27,148.748
2012-09-28,148.611
2012-10-01,148.013
2012-10-02,149.061
2012-10-03,149.825
2012-10-04,149.502
2012-10-05,149.365
2012-10-08,149.776
2012-10-09,149.091
2012-10-10,149.766
2012-10-11,149.913
2012-10-12,149.306
2012-10-15,149.972
2012-10-16,150.912
2012-10-17,149.727
2012-10-18,151.588
2012-10-19,150.491
2012-10-22,149.786
2012-10-23,147.886
2012-10-24,147.915
2012-10-25,148.287
2012-10-26,147.122
2012-10-31,149.247
2012-11-01,149.247
2012-11-02,152.705
2012-11-05,151.559
2012-11-06,152.176
2012-11-07,152.48
2012-11-08,151.157
2012-11-09,148.807
2012-11-12,149.022
2012-11-13,148.738
2012-11-14,145.976
2012-11-15,144.881
2012-11-16,145.118
2012-11-19,147.022
2012-11-20,147.89
2012-11-21,148.196
2012-11-23,149.587
2012-11-26,150.218
2012-11-27,148.61
2012-11-28,148.235
2012-11-29,149.232
2012-11-30,150.376
2012-12-03,150.82
2012-12-04,150.504
2012-12-05,150.09
2012-12-06,152.379
2012-12-07,153.563
2012-12-10,154.046
2012-12-11,154.658
2012-12-12,154.155
2012-12-13,151.935
2012-12-14,151.836
2012-12-17,153.267
2012-12-18,154.569
2012-12-19,154.352
2012-12-20,155.98
2012-12-21,155.28
2012-12-24,155.822
2012-12-26,154.727
2012-12-27,155.911
2012-12-28,154.096
2012-12-31,155.625
2013-01-02,157.391
2013-01-03,156.128
2013-01-04,156.483
2013-01-07,157.647
2013-01-08,156.828
2013-01-09,157.627
2013-01-10,157.529
2013-01-11,157.697
2013-01-14,157.193
2013-01-15,158.14
2013-01-16,157.499
2013-01-17,157.835
2013-01-18,157.677
2013-01-22,158.821
2013-01-23,159.314
2013-01-24,159.837
2013-01-25,159.995
2013-01-28,160.607
2013-01-29,160.597
2013-01-30,159.068
2013-01-31,158.101
2013-02-01,159.65
2013-02-04,160.36
2013-02-05,159.502
2013-02-06,159.571
2013-02-07,158.752
2013-02-08,160.499
2013-02-11,161.268
2013-02-12,161.854
2013-02-13,160.98
2013-02-14,159.519
2013-02-15,158.496
2013-02-19,159.38
2013-02-20,158.456
2013-02-21,157.065
2013-02-22,158.704
2013-02-25,156.439
2013-02-26,156.886
2013-02-27,158.19
2013-02-28,157.989
2013-03-01,158.824
2013-03-04,160.512
2013-03-05,161.446
2013-03-06,160.89
2013-03-07,158.963
2013-03-08,158.486
2013-03-11,159.439
2013-03-12,158.515
2013-03-13,158.207
2013-03-14,158.625
2013-03-15,158.585
2013-03-18,157.651
2013-03-19,156.161
2013-03-20,157.323
2013-03-21,157.085
2013-03-22,158.068
2013-03-25,158.297
2013-03-26,158.158
2013-03-27,158.048
2013-03-28,157.651
2013-04-01,158.098
2013-04-02,159.936
2013-04-03,160.572
2013-04-04,162.758
2013-04-05,165.073
2013-04-08,167.805
2013-04-09,168.084
2013-04-10,169.673
2013-04-11,173.131
2013-04-12,172.356
2013-04-15,169.683
2013-04-16,173.499
2013-04-17,171.869
2013-04-18,171.879
2013-04-19,174.731
2013-04-22,174.313
2013-04-23,174.979
2013-04-24,175.466
2013-04-25,174.681
2013-04-26,174.621
2013-04-29,174.701
2013-04-30,176.807
2013-05-01,175.595
2013-05-02,176.926
2013-05-03,178.158
2013-05-06,177.89
2013-05-07,177.493
2013-05-08,179.003
2013-05-09,177.642
2013-05-10,178.158
2013-05-13,178.645
2013-05-14,177.9
2013-05-15,179.53
2013-05-16,178.13
2013-05-17,179.75
2013-05-20,178.81
2013-05-21,180.24
2013-05-22,175.87
2013-05-23,173.57
2013-05-24,174.4
2013-05-28,175.46
2013-05-29,171.99
2013-05-30,170.14
2013-05-31,166.97
2013-06-03,166.62
2013-06-04,165.51
2013-06-05,163.91
2013-06-06,166.61
2013-06-07,167.13
2013-06-10,165.23
2013-06-11,162.26
2013-06-12,159.39
2013-06-13,165.23
2013-06-14,166.13
2013-06-17,168.05
2013-06-18,167.25
2013-06-19,161.48
2013-06-20,154.8
2013-06-21,156.66
2013-06-24,155.67
2013-06-25,156.91
2013-06-26,158.37
2013-06-27,160.6
2013-06-28,158.29
2013-07-01,157.72
2013-07-02,162.29
2013-07-03,159.05
2013-07-05,159.22
2013-07-08,159.31
2013-07-09,161.55
2013-07-10,160.85
2013-07-11,164.01
2013-07-12,162.85
2013-07-15,162.95
2013-07-16,162.91
2013-07-17,162.9
2013-07-18,164.51
2013-07-19,164.96
2013-07-22,166.02
2013-07-23,166.04
2013-07-24,164.49
2013-07-25,163.85
2013-07-26,164.45
2013-07-29,162.88
2013-07-30,161.8
2013-07-31,160.37
2013-08-01,158.72
2013-08-02,157.45
2013-08-05,156.89
2013-08-06,156.36
2013-08-07,156.94
2013-08-08,156.33
2013-08-09,157.96
