date,close_price
1998-01-02,7.0503
1998-01-05,7.19192
1998-01-06,7.01743
1998-01-07,6.8126
1998-01-08,6.55972
1998-01-09,6.52684
1998-01-12,6.59006
1998-01-13,6.51167
1998-01-14,6.59006
1998-01-15,6.35488
1998-01-16,6.43328
1998-01-20,6.4004
1998-01-21,6.32201
1998-01-22,6.25879
1998-01-23,6.19557
1998-01-26,6.16522
1998-01-27,6.0843
1998-01-28,6.74938
1998-01-29,6.79742
1998-01-30,6.90616
1998-02-02,7.2564
1998-02-03,7.20709
1998-02-04,7.32468
1998-02-05,7.22985
1998-02-06,7.18433
1998-02-09,7.16157
1998-02-10,7.27916
1998-02-11,7.27916
1998-02-12,7.37399
1998-02-13,7.49158
1998-02-17,7.46882
1998-02-18,7.35123
1998-02-19,7.46882
1998-02-20,7.39675
1998-02-23,7.56365
1998-02-24,7.75331
1998-02-25,8.08332
1998-02-26,8.13263
1998-02-27,8.06056
1998-03-02,8.15539
1998-03-03,8.08332
1998-03-04,8.10987
1998-03-05,8.13263
1998-03-06,8.84196
1998-03-09,8.91403
1998-03-10,8.43988
1998-03-11,8.79644
1998-03-12,9.00886
1998-03-13,8.51195
1998-03-16,8.67885
1998-03-17,8.39436
1998-03-18,8.67885
1998-03-19,8.8192
1998-03-20,8.55747
1998-03-23,8.60678
1998-03-24,8.79644
1998-03-25,8.79644
1998-03-26,8.74713
1998-03-27,8.55747
1998-03-30,8.70161
1998-03-31,8.79644
1998-04-01,8.74713
1998-04-02,8.39436
1998-04-03,8.91403
1998-04-06,8.46264
1998-04-07,8.62954
1998-04-08,8.84196
1998-04-09,9.10369
1998-04-13,9.17576
1998-04-14,9.29335
1998-04-15,9.31611
1998-04-16,9.17576
1998-04-17,9.43749
1998-04-20,9.46025
1998-04-21,9.69543
1998-04-22,9.64991
1998-04-23,9.62715
1998-04-24,8.89127
1998-04-27,8.72437
1998-04-28,9.12645
1998-04-29,9.08093
1998-04-30,9.36542
1998-05-01,9.67267
1998-05-04,9.53232
1998-05-05,9.31611
1998-05-06,9.08093
1998-05-07,9.22128
1998-05-08,9.7675
1998-05-11,9.48301
1998-05-12,9.53232
1998-05-13,9.64991
1998-05-14,9.67267
1998-05-15,9.24783
1998-05-18,9.10369
1998-05-19,9.10369
1998-05-20,9.05817
1998-05-21,9.29335
1998-05-22,9.22128
1998-05-26,9.41094
1998-05-27,9.48301
1998-05-28,9.53232
1998-05-29,9.50577
1998-06-01,9.46025
1998-06-02,9.46025
1998-06-03,9.12645
1998-06-04,9.53232
1998-06-05,9.81681
1998-06-08,10.2189
1998-06-09,10.2189
1998-06-10,10.0292
1998-06-11,10.0748
1998-06-12,10.0748
1998-06-15,10.1961
1998-06-16,10.291
1998-06-17,11.0003
1998-06-18,10.7158
1998-06-19,10.5261
1998-06-22,11.1444
1998-06-23,11.4744
1998-06-24,11.831
1998-06-25,11.19
1998-06-26,11.0003
1998-06-29,11.3796
1998-06-30,10.9775
1998-07-01,11.4024
1998-07-02,11.6641
1998-07-06,12.2103
1998-07-07,12.2558
1998-07-08,12.2824
1998-07-09,12.1383
1998-07-10,12.3279
1998-07-13,12.3507
1998-07-14,12.1876
1998-07-15,11.9979
1998-07-16,11.9979
1998-07-17,12.0662
1998-07-20,12.8514
1998-07-21,12.1724
1998-07-22,12.1383
1998-07-23,12.2331
1998-07-24,12.6617
1998-07-27,12.6617
1998-07-28,12.2331
1998-07-29,12.3279
1998-07-30,12.8514
1998-07-31,12.4455
1998-08-03,12.3279
1998-08-04,11.831
1998-08-05,11.3341
1998-08-06,11.8082
1998-08-07,12.3507
1998-08-10,11.9979
1998-08-11,11.6869
1998-08-12,12.4227
1998-08-13,12.0927
1998-08-14,11.7134
1998-08-17,11.9031
1998-08-18,12.6617
1998-08-19,12.7072
1998-08-20,12.3279
1998-08-21,12.0662
1998-08-24,11.7134
1998-08-25,12.1383
1998-08-26,11.9486
1998-08-27,11.3341
1998-08-28,11.592
1998-08-31,10.3592
1998-09-01,11.0231
1998-09-02,11.3569
1998-09-03,10.5755
1998-09-04,9.95716
1998-09-08,10.621
1998-09-09,10.5755
1998-09-10,9.9344
1998-09-11,10.5755
1998-09-14,10.8106
1998-09-15,11.3341
1998-09-16,11.4024
1998-09-17,10.8106
1998-09-18,10.7651
1998-09-21,10.8827
1998-09-22,11.4024
1998-09-23,11.5238
1998-09-24,11.2127
1998-09-25,11.4024
1998-09-28,11.4289
1998-09-29,10.3858
1998-09-30,11.1444
1998-10-01,9.86233
1998-10-02,10.291
1998-10-05,10.1013
1998-10-06,10.4086
1998-10-07,10.3365
1998-10-08,10.0748
1998-10-09,11.19
1998-10-12,11.0496
1998-10-13,11.0951
1998-10-14,11.2127
1998-10-15,11.4024
1998-10-16,10.9775
1998-10-19,11.5693
1998-10-20,11.8765
1998-10-21,12.0662
1998-10-22,12.3507
1998-10-23,11.8082
1998-10-26,11.6413
1998-10-27,11.4744
1998-10-28,11.7134
1998-10-29,12.0662
1998-10-30,12.3772
1998-11-02,12.4721
1998-11-03,12.3772
1998-11-04,12.3621
1998-11-05,12.2331
1998-11-06,12.9197
1998-11-09,12.7565
1998-11-10,13.041
1998-11-11,13.371
1998-11-12,13.6555
1998-11-13,12.8969
1998-11-16,12.9917
1998-11-17,13.5379
1998-11-18,13.2307
1998-11-19,13.2762
1998-11-20,13.4886
1998-11-23,13.8452
1998-11-24,13.6555
1998-11-25,13.8945
1998-11-27,13.7997
1998-11-30,13.2307
1998-12-01,13.371
1998-12-02,13.61
1998-12-03,13.3255
1998-12-04,13.6555
1998-12-07,14.3914
1998-12-08,14.3914
1998-12-09,14.7935
1998-12-10,14.8656
1998-12-11,14.6152
1998-12-14,14.179
1998-12-15,14.8656
1998-12-16,15.0325
1998-12-17,15.078
1998-12-18,15.6014
1998-12-21,16.2159
1998-12-22,15.719
1998-12-23,17.3084
1998-12-24,17.2136
1998-12-28,16.3108
1998-12-29,16.6673
1998-12-30,16.2653
1998-12-31,16.5725
1999-01-04,17.1642
1999-01-05,16.7129
1999-01-06,16.9518
1999-01-07,16.4284
1999-01-08,16.288
1999-01-11,16.1211
1999-01-12,15.8594
1999-01-13,15.4118
1999-01-14,14.7935
1999-01-15,15.7418
1999-01-19,15.5066
1999-01-20,15.9315
1999-01-21,15.5749
1999-01-22,15.1728
1999-01-25,15.1273
1999-01-26,15.1273
1999-01-27,15.2449
1999-01-28,15.647
1999-01-29,16.2899
1999-02-01,16.9613
1999-02-02,16.8191
1999-02-03,17.1776
1999-02-04,16.7508
1999-02-05,15.6129
1999-02-08,16.216
1999-02-09,15.647
1999-02-10,15.6129
1999-02-11,16.3241
1999-02-12,15.738
1999-02-16,16.4322
1999-02-17,15.4365
1999-02-18,15.721
1999-02-19,15.9315
1999-02-22,16.3241
1999-02-23,17.2458
1999-02-24,17.5701
1999-02-25,17.1036
1999-02-26,16.6768
1999-03-01,16.6427
1999-03-02,16.2899
1999-03-03,15.9315
1999-03-04,16.216
1999-03-05,16.216
1999-03-08,17.8546
1999-03-09,17.7124
1999-03-10,18.2245
1999-03-11,18.4236
1999-03-12,17.6384
1999-03-15,18.4236
1999-03-16,18.2074
1999-03-17,18.2074
1999-03-18,19.169
1999-03-19,18.5659
1999-03-22,17.9571
1999-03-23,17.9571
1999-03-24,17.7807
1999-03-25,18.7423
1999-03-26,18.4919
1999-03-29,18.9528
1999-03-30,18.0652
1999-03-31,18.6683
1999-04-01,19.1348
1999-04-05,19.2771
1999-04-06,19.095
1999-04-07,19.664
1999-04-08,20.3069
1999-04-09,19.6299
1999-04-12,19.9883
1999-04-13,19.6299
1999-04-14,18.3497
1999-04-15,18.7081
1999-04-16,17.3539
1999-04-19,17.4279
1999-04-20,17.2857
1999-04-21,18.7081
1999-04-22,19.2031
1999-04-23,18.2415
1999-04-26,17.1776
1999-04-27,17.7124
1999-04-28,17.1434
1999-04-29,16.6427
1999-04-30,17.0865
1999-05-03,16.1818
1999-05-04,15.2544
1999-05-05,16.216
1999-05-06,16.5346
1999-05-07,15.9315
1999-05-10,15.5047
1999-05-11,15.3284
1999-05-12,15.8234
1999-05-13,15.9656
1999-05-14,15.6811
1999-05-17,15.3284
1999-05-18,15.5047
1999-05-19,16.3241
1999-05-20,16.0737
1999-05-21,16.0737
1999-05-24,15.721
1999-05-25,15.2203
1999-05-26,15.8234
1999-05-27,15.8632
1999-05-28,16.3582
1999-06-01,15.4365
1999-06-02,16.6086
1999-06-03,16.3582
1999-06-04,17.0012
1999-06-07,17.0012
1999-06-08,15.9315
1999-06-09,16.5005
1999-06-10,16.4322
1999-06-11,15.647
1999-06-14,15.3625
1999-06-15,15.5218
1999-06-16,16.6768
1999-06-17,16.3924
1999-06-18,16.5005
1999-06-21,17.0353
1999-06-22,16.8931
1999-06-23,16.1818
1999-06-24,15.8632
1999-06-25,16.1477
1999-06-28,16.3582
1999-06-29,16.7508
1999-06-30,17.6043
1999-07-01,17.9229
1999-07-02,18.1733
1999-07-06,17.2458
1999-07-07,17.3198
1999-07-08,17.0694
1999-07-09,16.8931
1999-07-12,16.4663
1999-07-13,16.2501
1999-07-14,16.8931
1999-07-15,16.7167
1999-07-16,17.462
1999-07-19,17.8546
1999-07-20,17.3881
1999-07-21,17.8546
1999-07-22,17.2117
1999-07-23,17.2117
1999-07-26,16.8931
1999-07-27,17.0694
1999-07-28,16.785
1999-07-29,16.4322
1999-07-30,16.4663
1999-08-02,15.8234
1999-08-03,15.0097
1999-08-04,13.263
1999-08-05,13.94
1999-08-06,13.6897
1999-08-09,12.4835
1999-08-10,13.263
1999-08-11,13.7181
1999-08-12,13.6897
1999-08-13,14.0482
1999-08-16,14.5432
1999-08-17,14.2587
1999-08-18,14.7252
1999-08-19,14.8277
1999-08-20,14.7423
1999-08-23,14.7935
1999-08-24,14.5432
1999-08-25,14.014
1999-08-26,12.9443
1999-08-27,12.8021
1999-08-30,12.4835
1999-08-31,12.3412
1999-09-01,12.0567
1999-09-02,11.9145
1999-09-03,12.4835
1999-09-07,12.0909
1999-09-08,10.8448
1999-09-09,10.7765
1999-09-10,11.8064
1999-09-13,11.886
1999-09-14,12.199
1999-09-15,12.0909
1999-09-16,11.556
1999-09-17,12.1648
1999-09-20,12.1648
1999-09-21,12.3412
1999-09-22,11.9486
1999-09-23,11.3455
1999-09-24,11.9828
1999-09-27,12.0909
1999-09-28,12.1421
1999-09-29,12.125
1999-09-30,12.4493
1999-10-01,11.8064
1999-10-04,12.5517
1999-10-05,12.4835
1999-10-06,12.7338
1999-10-07,12.6598
1999-10-08,13.3028
1999-10-11,13.3028
1999-10-12,13.5873
1999-10-13,12.5916
1999-10-14,12.4835
1999-10-15,11.9828
1999-10-18,11.2032
1999-10-19,11.556
1999-10-20,11.4138
1999-10-21,11.4138
1999-10-22,11.3796
1999-10-25,11.1691
1999-10-26,11.1691
1999-10-27,11.1293
1999-10-28,11.6471
1999-10-29,12.5176
1999-11-01,12.199
1999-11-02,11.8405
1999-11-03,11.5958
1999-11-04,10.3498
1999-11-05,10.2075
1999-11-08,10.0311
1999-11-09,9.92304
1999-11-10,11.4138
1999-11-11,12.3071
1999-11-12,12.5176
1999-11-15,14.1164
1999-11-16,14.4408
1999-11-17,13.8319
1999-11-18,13.7295
1999-11-19,13.94
1999-11-22,13.7295
1999-11-23,13.3711
1999-11-24,13.1947
1999-11-26,13.3711
1999-11-29,13.6214
1999-11-30,13.3028
1999-12-01,13.6214
1999-12-02,13.3369
1999-12-03,13.1207
1999-12-06,12.6598
1999-12-07,12.125
1999-12-08,11.4877
1999-12-09,11.061
1999-12-10,11.9486
1999-12-13,11.8348
1999-12-14,12.2331
1999-12-15,11.8064
1999-12-16,11.7381
1999-12-17,11.3796
1999-12-20,11.5219
1999-12-21,11.3455
1999-12-22,11.556
1999-12-23,11.3455
1999-12-27,11.3796
1999-12-28,12.0567
1999-12-29,12.0226
1999-12-30,11.8405
1999-12-31,11.6641
2000-01-03,11.7381
2000-01-04,11.8064
2000-01-05,12.7679
2000-01-06,13.6442
2000-01-07,14.3326
2000-01-10,15.5047
2000-01-11,15.2942
2000-01-12,14.7252
2000-01-13,15.8632
2000-01-14,14.7594
2000-01-18,13.7295
2000-01-19,14.583
2000-01-20,13.94
2000-01-21,13.445
2000-01-24,12.5517
2000-01-25,13.7295
2000-01-26,13.5133
2000-01-27,12.9955
2000-01-28,12.2672
2000-01-31,13.5133
2000-02-01,13.445
2000-02-02,14.0937
2000-02-03,14.1563
2000-02-04,14.8675
2000-02-07,14.6513
2000-02-08,15.1861
2000-02-09,14.7594
2000-02-10,15.8632
2000-02-11,16.0054
2000-02-14,15.3966
2000-02-15,14.2245
2000-02-16,13.8092
2000-02-17,13.5873
2000-02-18,13.0524
2000-02-22,13.3369
2000-02-23,12.8362
2000-02-24,12.5916
2000-02-25,12.4493
2000-02-28,14.0823
2000-02-29,15.3625
2000-03-01,14.9699
2000-03-02,12.3412
2000-03-03,12.3412
2000-03-06,11.4877
2000-03-07,11.0269
2000-03-08,10.8846
2000-03-09,10.9529
2000-03-10,11.0269
2000-03-13,10.6001
2000-03-14,10.5603
2000-03-15,11.3455
2000-03-16,12.9785
2000-03-17,12.546
2000-03-20,12.0226
2000-03-21,12.7338
2000-03-22,12.5517
2000-03-23,12.0567
2000-03-24,11.9486
2000-03-27,11.4536
2000-03-28,11.2715
2000-03-29,11.3114
2000-03-30,11.5958
2000-03-31,11.3796
2000-04-03,11.7381
2000-04-04,11.1293
2000-04-05,10.8846
2000-04-06,10.7765
2000-04-07,10.8106
2000-04-10,10.6684
2000-04-11,10.5262
2000-04-12,11.3796
2000-04-13,11.3796
2000-04-14,10.8277
2000-04-17,10.3156
2000-04-18,10.6001
2000-04-19,10.3498
2000-04-20,10.2758
2000-04-24,10.492
2000-04-25,11.0269
2000-04-26,10.8106
2000-04-27,11.1691
2000-04-28,10.9188
2000-05-01,11.3114
2000-05-02,10.8106
2000-05-03,9.78079
2000-05-04,9.84907
2000-05-05,9.70682
2000-05-08,9.67269
2000-05-09,9.42233
2000-05-10,9.56458
2000-05-11,10.0994
2000-05-12,10.2417
2000-05-15,10.8448
2000-05-16,9.8889
2000-05-17,9.74665
2000-05-18,10.0311
2000-05-19,9.68407
2000-05-22,9.81493
2000-05-23,10.0994
2000-05-24,9.8889
2000-05-25,9.63855
2000-05-26,8.9956
2000-05-30,8.53472
2000-05-31,8.35834
2000-06-01,8.42662
2000-06-02,8.64283
2000-06-05,8.39248
2000-06-06,7.99988
2000-06-07,8.31282
2000-06-08,8.71111
2000-06-09,8.92732
2000-06-12,9.03543
2000-06-13,9.42233
2000-06-14,9.46216
2000-06-15,9.63855
2000-06-16,10.4579
2000-06-19,10.6684
2000-06-20,10.2758
2000-06-21,10.0653
2000-06-22,9.70682
2000-06-23,8.64283
2000-06-26,8.81921
2000-06-27,8.64283
2000-06-28,8.75094
2000-06-29,8.64283
2000-06-30,8.81921
2000-07-03,8.75094
2000-07-05,8.85335
2000-07-06,9.1037
2000-07-07,9.60441
2000-07-10,10.0653
2000-07-11,9.63855
2000-07-12,9.28009
2000-07-13,8.81921
2000-07-14,8.81921
2000-07-17,8.50058
2000-07-18,8.53472
2000-07-19,8.85335
2000-07-20,8.53472
2000-07-21,8.64283
2000-07-24,8.67697
2000-07-25,8.78507
2000-07-26,8.4892
2000-07-27,8.25023
2000-07-28,7.9316
2000-07-31,7.85764
2000-08-01,7.57314
2000-08-02,7.89746
2000-08-03,8.25023
2000-08-04,8.18195
2000-08-07,8.64283
2000-08-08,10.0311
2000-08-09,10.2132
2000-08-10,9.63855
2000-08-11,9.92304
2000-08-14,10.2758
2000-08-15,9.8889
2000-08-16,9.4963
2000-08-17,9.56458
2000-08-18,9.53044
2000-08-21,9.3882
2000-08-22,9.46216
2000-08-23,9.31992
2000-08-24,9.1037
2000-08-25,8.9956
2000-08-28,9.1037
2000-08-29,8.92732
2000-08-30,9.17767
2000-08-31,8.75094
2000-09-01,9.03543
2000-09-05,9.1037
2000-09-06,9.13784
2000-09-07,8.96146
2000-09-08,9.13784
2000-09-11,9.53044
2000-09-12,9.46216
2000-09-13,9.07526
2000-09-14,8.85335
2000-09-15,8.60869
2000-09-18,8.53472
2000-09-19,8.56886
2000-09-20,8.42662
2000-09-21,8.21609
2000-09-22,8.21609
2000-09-25,8.3242
2000-09-26,8.07385
2000-09-27,8.10799
2000-09-28,8.21609
2000-09-29,8.07385
2000-10-02,7.99988
2000-10-03,7.99988
2000-10-04,7.96574
2000-10-05,7.53901
2000-10-06,7.32848
2000-10-09,7.25451
2000-10-10,7.64711
2000-10-11,7.4309
2000-10-12,6.82778
2000-10-13,7.11227
2000-10-16,6.33276
2000-10-17,6.29294
2000-10-18,6.54329
2000-10-19,7.11227
2000-10-20,6.86192
2000-10-23,6.79364
2000-10-24,6.68553
2000-10-25,6.54329
2000-10-26,6.57743
2000-10-27,7.32848
2000-10-30,7.36262
2000-10-31,8.09661
2000-11-01,8.28437
2000-11-02,8.56886
2000-11-03,7.50487
2000-11-06,7.39676
2000-11-07,7.75522
2000-11-08,7.50487
2000-11-09,7.04399
2000-11-10,6.56036
2000-11-13,6.47501
2000-11-14,6.08241
2000-11-15,6.95295
2000-11-16,6.79364
2000-11-17,6.82778
2000-11-20,6.79364
2000-11-21,6.61726
2000-11-22,6.90175
2000-11-24,6.82778
2000-11-27,6.61726
2000-11-28,6.90175
2000-11-29,6.90175
2000-11-30,6.82778
2000-12-01,7.04399
2000-12-04,6.90175
2000-12-05,7.28865
2000-12-06,6.86192
2000-12-07,7.07813
2000-12-08,7.39676
2000-12-11,7.28865
2000-12-12,7.71539
2000-12-13,7.68125
2000-12-14,7.53901
2000-12-15,7.28865
2000-12-18,7.18624
2000-12-19,6.57743
2000-12-20,6.33276
2000-12-21,6.3669
2000-12-22,6.33276
2000-12-26,6.2588
2000-12-27,6.3669
2000-12-28,6.40104
2000-12-29,6.79364
2001-01-02,6.93588
2001-01-03,8.26161
2001-01-04,8.42662
2001-01-05,8.10799
2001-01-08,7.8235
2001-01-09,7.85764
2001-01-10,8.3242
2001-01-11,8.10799
2001-01-12,7.64711
2001-01-16,7.89746
2001-01-17,8.07385
2001-01-18,8.46644
2001-01-19,8.28437
2001-01-22,8.14213
2001-01-23,8.18195
2001-01-24,8.25023
2001-01-25,8.14213
2001-01-26,8.75094
2001-01-29,9.28009
2001-01-30,9.06957
2001-01-31,9.46216
2001-02-01,10.2417
2001-02-02,9.24595
2001-02-05,9.13784
2001-02-06,9.21181
2001-02-07,9.57596
2001-02-08,9.28009
2001-02-09,8.89318
2001-02-12,9.4963
2001-02-13,9.53044
2001-02-14,9.63855
2001-02-15,9.46216
2001-02-16,9.21181
2001-02-20,9.46216
2001-02-21,8.89318
2001-02-22,8.50058
2001-02-23,8.72818
2001-02-26,8.92732
2001-02-27,8.60869
2001-02-28,8.42662
2001-03-01,8.50058
2001-03-02,8.42662
2001-03-05,8.40386
2001-03-06,9.06957
2001-03-07,9.3882
2001-03-08,9.99131
2001-03-09,9.78079
2001-03-12,8.89318
2001-03-13,9.3882
2001-03-14,9.42233
2001-03-15,9.13784
2001-03-16,8.96146
2001-03-19,9.24595
2001-03-20,8.96146
2001-03-21,8.85335
2001-03-22,8.92732
2001-03-23,8.60869
2001-03-26,8.50627
2001-03-27,8.3242
2001-03-28,8.46644
2001-03-29,8.3242
2001-03-30,8.42662
2001-04-02,8.28437
2001-04-03,8.10799
2001-04-04,8.18195
2001-04-05,8.53472
2001-04-06,8.50058
2001-04-09,8.8249
2001-04-10,9.3882
2001-04-11,9.25733
2001-04-12,9.32561
2001-04-16,9.29716
2001-04-17,9.34268
2001-04-18,9.89459
2001-04-19,9.70682
2001-04-20,9.5532
2001-04-23,9.45647
2001-04-24,9.03543
2001-04-25,9.01267
2001-04-26,9.12077
2001-04-27,9.50199
2001-04-30,9.26302
2001-05-01,9.30854
2001-05-02,9.6101
2001-05-03,9.29716
2001-05-04,9.2175
2001-05-07,8.9956
2001-05-08,9.2744
2001-05-09,8.95008
2001-05-10,9.13215
2001-05-11,9.08664
2001-05-14,9.37682
2001-05-15,9.46216
2001-05-16,9.2175
2001-05-17,9.2175
2001-05-18,8.91594
2001-05-21,8.8249
2001-05-22,9.2744
2001-05-23,9.04681
2001-05-24,8.83628
2001-05-25,8.67697
2001-05-29,8.39817
2001-05-30,8.16489
2001-05-31,8.25023
2001-06-01,8.25023
2001-06-04,8.19333
2001-06-05,8.13075
2001-06-06,8.11368
2001-06-07,8.30713
2001-06-08,8.20471
2001-06-11,8.06247
2001-06-12,8.24454
2001-06-13,8.15351
2001-06-14,8.09092
2001-06-15,8.17057
2001-06-18,8.19333
2001-06-19,8.19333
2001-06-20,8.30713
2001-06-21,8.43231
2001-06-22,8.09092
2001-06-25,8.12506
2001-06-26,8.14213
2001-06-27,8.10799
2001-06-28,8.37541
2001-06-29,8.4892
2001-07-02,8.75663
2001-07-03,8.62576
2001-07-05,8.46076
2001-07-06,8.3811
2001-07-09,8.38679
2001-07-10,8.08523
2001-07-11,7.99988
2001-07-12,7.8747
2001-07-13,7.98281
2001-07-16,7.86901
2001-07-17,7.8747
2001-07-18,7.92591
2001-07-19,8.05109
2001-07-20,8.44369
2001-07-23,8.63145
2001-07-24,8.56317
2001-07-25,8.54041
2001-07-26,8.52334
2001-07-27,8.23885
2001-07-30,8.29006
2001-07-31,8.52334
2001-08-01,8.53472
2001-08-02,8.64852
2001-08-03,8.55179
2001-08-06,8.51196
2001-08-07,8.55748
2001-08-08,8.42662
2001-08-09,8.49489
2001-08-10,8.58024
2001-08-13,9.09801
2001-08-14,9.04681
2001-08-15,8.90456
2001-08-16,9.08095
2001-08-17,9.05819
2001-08-20,9.17767
2001-08-21,8.67697
2001-08-22,8.62007
2001-08-23,8.65421
2001-08-24,8.76232
2001-08-27,8.74525
2001-08-28,8.56317
2001-08-29,8.47214
2001-08-30,8.44369
2001-08-31,8.61438
2001-09-04,8.85904
2001-09-05,8.77939
2001-09-06,8.67128
2001-09-07,8.34696
2001-09-10,8.36972
2001-09-17,7.39107
2001-09-18,7.36831
2001-09-19,7.39676
2001-09-20,6.86761
2001-09-21,6.82778
2001-09-24,7.11796
2001-09-25,7.12934
2001-09-26,6.85054
2001-09-27,6.55467
2001-09-28,7.58452
2001-10-01,7.72677
2001-10-02,7.90315
2001-10-03,8.33558
2001-10-04,8.01126
2001-10-05,8.22178
2001-10-08,7.99988
2001-10-09,8.1023
2001-10-10,8.09661
2001-10-11,8.85904
2001-10-12,8.87042
2001-10-15,8.97853
2001-10-16,9.06957
2001-10-17,8.59162
2001-10-18,8.57455
2001-10-19,8.85335
2001-10-22,9.04681
2001-10-23,9.05819
2001-10-24,8.85335
2001-10-25,8.89318
2001-10-26,8.84766
2001-10-29,8.3811
2001-10-30,8.2104
2001-10-31,8.29575
2001-11-01,8.67697
2001-11-02,8.8818
2001-11-05,9.35406
2001-11-06,9.49061
2001-11-07,9.78079
2001-11-08,9.58734
2001-11-09,9.73527
2001-11-12,9.69545
2001-11-13,9.81493
2001-11-14,10.0482
2001-11-15,10.4579
2001-11-16,10.1848
2001-11-19,10.6115
2001-11-20,10.4408
2001-11-21,10.0596
2001-11-23,10.1677
2001-11-26,10.3327
2001-11-27,10.2303
2001-11-28,10.236
2001-11-29,10.1393
2001-11-30,10.0596
2001-12-03,9.86045
2001-12-04,9.91735
2001-12-05,10.5831
2001-12-06,10.7139
2001-12-07,10.2417
2001-12-10,10.0141
2001-12-11,10.1506
2001-12-12,9.90028
2001-12-13,9.80924
2001-12-14,10.0255
2001-12-17,10.2303
2001-12-18,10.4124
2001-12-19,10.5205
2001-12-20,10.2758
2001-12-21,10.4806
2001-12-24,10.7822
2001-12-26,10.7424
2001-12-27,10.8789
2001-12-28,10.9529
2001-12-31,10.6286
2002-01-02,10.3384
2002-01-03,10.3327
2002-01-04,10.4977
2002-01-07,10.3043
2002-01-08,10.0482
2002-01-09,9.95718
2002-01-10,10.0368
2002-01-11,10.1848
2002-01-14,10.088
2002-01-15,10.1563
2002-01-16,9.9458
2002-01-17,10.2246
2002-01-18,10.2018
2002-01-22,10.1563
2002-01-23,10.2815
2002-01-24,10.6286
2002-01-25,10.5774
2002-01-28,10.7139
2002-01-29,10.3896
2002-01-30,10.236
2002-01-31,10.3327
2002-02-01,10.1506
2002-02-04,10.1222
2002-02-05,9.97994
2002-02-06,9.66131
2002-02-07,9.78648
2002-02-08,9.42802
2002-02-11,10.071
2002-02-12,10.1449
2002-02-13,10.731
2002-02-14,10.731
2002-02-15,10.8106
2002-02-19,10.401
2002-02-20,10.7594
2002-02-21,10.5546
2002-02-22,10.4749
2002-02-25,10.7708
2002-02-26,10.805
2002-02-27,10.9643
2002-02-28,11.2089
2002-03-01,11.4991
2002-03-04,11.3796
2002-03-05,11.1862
2002-03-06,11.4934
2002-03-07,11.4422
2002-03-08,11.6243
2002-03-11,11.3739
2002-03-12,11.721
2002-03-13,11.5958
2002-03-14,11.6926
2002-03-15,11.7438
2002-03-18,11.4422
2002-03-19,11.3853
2002-03-20,11.2089
2002-03-21,11.3227
2002-03-22,11.3683
2002-03-25,11.2715
2002-03-26,11.4422
2002-03-27,11.3739
2002-03-28,11.3683
2002-04-01,11.3796
2002-04-02,11.0041
2002-04-03,11.2032
2002-04-04,11.4251
2002-04-05,11.7324
2002-04-08,12.0396
2002-04-09,12.5119
2002-04-10,12.6428
2002-04-11,12.2103
2002-04-12,12.1705
2002-04-15,12.1933
2002-04-16,12.29
2002-04-17,11.9771
2002-04-18,11.6926
2002-04-19,11.6812
2002-04-22,11.6015
2002-04-23,11.4707
2002-04-24,11.5845
2002-04-25,11.9372
2002-04-26,11.4991
2002-04-29,11.2601
2002-04-30,11.3683
2002-05-01,11.3626
2002-05-02,11.5219
2002-05-03,11.5446
2002-05-06,11.4308
2002-05-07,11.482
2002-05-08,11.2146
2002-05-09,11.2943
2002-05-10,11.0724
2002-05-13,11.1919
2002-05-14,11.5503
2002-05-15,11.8462
2002-05-16,11.7722
2002-05-17,11.8633
2002-05-20,11.7836
2002-05-21,12.4721
2002-05-22,12.1762
2002-05-23,12.3526
2002-05-24,12.381
2002-05-28,12.29
2002-05-29,12.2672
2002-05-30,12.0567
2002-05-31,11.9714
2002-06-03,11.3967
2002-06-04,11.1691
2002-06-05,11.5788
2002-06-06,11.1236
2002-06-07,11.061
2002-06-10,11.2431
2002-06-11,11.1463
2002-06-12,11.3569
2002-06-13,11.2545
2002-06-14,11.2658
2002-06-17,11.3569
2002-06-18,11.2601
2002-06-19,11.3512
2002-06-20,11.2203
2002-06-21,11.2772
2002-06-24,11.3796
2002-06-25,11.1919
2002-06-26,10.9813
2002-06-27,11.1407
2002-06-28,11.2089
2002-07-01,10.8789
2002-07-02,10.0994
2002-07-03,10.3555
2002-07-05,10.9074
2002-07-08,10.5489
2002-07-09,10.162
2002-07-10,9.97425
2002-07-11,9.82631
2002-07-12,9.47923
2002-07-15,9.25164
2002-07-16,8.76232
2002-07-17,8.67697
2002-07-18,8.75663
2002-07-19,8.28437
2002-07-22,8.09092
2002-07-23,8.13075
2002-07-24,8.8818
2002-07-25,8.95008
2002-07-26,9.22888
2002-07-29,9.74665
2002-07-30,9.80355
2002-07-31,9.4963
2002-08-01,9.0525
2002-08-02,8.38679
2002-08-05,8.4892
2002-08-06,8.87611
2002-08-07,9.12646
2002-08-08,9.1037
2002-08-09,9.08664
2002-08-12,8.67128
2002-08-13,8.68266
2002-08-14,9.60441
2002-08-15,9.58734
2002-08-16,9.39389
2002-08-19,9.54751
2002-08-20,8.84197
2002-08-21,9.09801
2002-08-22,8.57455
2002-08-23,8.32989
2002-08-26,7.96574
2002-08-27,7.94298
2002-08-28,7.374
2002-08-29,7.45366
2002-08-30,7.85764
2002-09-03,7.48211
2002-09-04,7.56176
2002-09-05,7.62435
2002-09-06,8.00557
2002-09-09,8.18764
2002-09-10,8.46644
2002-09-11,8.33558
2002-09-12,8.12506
2002-09-13,8.22747
2002-09-16,8.28437
2002-09-17,8.07954
2002-09-18,8.15919
2002-09-19,7.83488
2002-09-20,7.64711
2002-09-23,7.39676
2002-09-24,7.48211
2002-09-25,7.68125
2002-09-26,7.92022
2002-09-27,7.56745
2002-09-30,7.25451
2002-10-01,7.63573
2002-10-02,7.41383
2002-10-03,7.40245
2002-10-04,7.45935
2002-10-07,6.77088
2002-10-08,7.30572
2002-10-09,7.0952
2002-10-10,7.209
2002-10-11,7.76091
2002-10-14,8.13644
2002-10-15,8.56886
2002-10-16,8.59162
2002-10-17,8.8818
2002-10-18,9.00129
2002-10-21,8.62576
2002-10-22,8.23316
2002-10-23,8.19333
2002-10-24,8.51196
2002-10-25,8.8249
2002-10-28,8.63714
2002-10-29,8.89887
2002-10-30,8.81921
2002-10-31,8.80214
2002-11-01,8.76232
2002-11-04,8.61438
2002-11-05,8.79645
2002-11-06,8.92163
2002-11-07,8.59162
2002-11-08,8.83059
2002-11-11,8.46644
2002-11-12,8.69404
2002-11-13,8.85904
2002-11-14,9.29147
2002-11-15,9.2744
2002-11-18,9.25164
2002-11-19,10.5205
2002-11-20,10.6741
2002-11-21,10.6343
2002-11-22,10.566
2002-11-25,10.7253
2002-11-26,10.3896
2002-11-27,10.8675
2002-11-29,10.9813
2002-12-02,10.7936
2002-12-03,10.6172
2002-12-04,10.8619
2002-12-05,10.7879
2002-12-06,10.8106
2002-12-09,10.2417
2002-12-10,10.7367
2002-12-11,10.9131
2002-12-12,10.8106
2002-12-13,10.6684
2002-12-16,10.9984
2002-12-17,10.5148
2002-12-18,10.2929
2002-12-19,10.3099
2002-12-20,10.7253
2002-12-23,10.4636
2002-12-24,10.3953
2002-12-26,10.5489
2002-12-27,10.327
2002-12-30,10.5831
2002-12-31,10.3782
2003-01-02,10.4522
2003-01-03,10.2417
2003-01-06,10.4636
2003-01-07,10.3099
2003-01-08,10.3612
2003-01-09,10.7025
2003-01-10,10.7765
2003-01-13,10.5774
2003-01-14,10.4522
2003-01-15,10.4693
2003-01-16,10.64
2003-01-17,10.64
2003-01-21,10.4977
2003-01-22,10.2758
2003-01-23,10.4237
2003-01-24,9.87183
2003-01-27,9.71251
2003-01-28,9.70682
2003-01-29,9.74096
2003-01-30,9.6101
2003-01-31,9.79217
2003-02-03,9.80924
2003-02-04,9.64424
2003-02-05,9.84907
2003-02-06,9.61579
2003-02-07,9.54182
2003-02-10,9.67269
2003-02-11,9.7751
2003-02-12,9.7182
2003-02-13,9.26871
2003-02-14,9.2744
2003-02-18,9.46785
2003-02-19,9.31423
2003-02-20,9.28578
2003-02-21,9.67838
2003-02-24,9.34268
2003-02-25,9.49061
2003-02-26,9.34268
2003-02-27,9.60441
2003-02-28,9.78079
2003-03-03,9.54182
2003-03-04,9.46216
2003-03-05,10.0311
2003-03-06,10.0767
2003-03-07,10.1905
2003-03-10,9.90597
2003-03-11,9.93442
2003-03-12,10.0084
2003-03-13,10.6855
2003-03-14,10.6001
2003-03-17,11.0382
2003-03-18,11.0326
2003-03-19,11.061
2003-03-20,11.0041
2003-03-21,11.1122
2003-03-24,10.6684
2003-03-25,10.9529
2003-03-26,10.805
2003-03-27,10.7424
2003-03-28,10.4693
2003-03-31,10.4181
2003-04-01,10.236
2003-04-02,10.7481
2003-04-03,10.9529
2003-04-04,10.8619
2003-04-07,10.8846
2003-04-08,10.8619
2003-04-09,10.7424
2003-04-10,10.8846
2003-04-11,10.8619
2003-04-14,11.0326
2003-04-15,10.9757
2003-04-16,10.6969
2003-04-17,10.9813
2003-04-21,10.8391
2003-04-22,11.061
2003-04-23,11.0951
2003-04-24,10.7879
2003-04-25,10.6912
2003-04-28,10.8675
2003-04-29,10.9131
2003-04-30,10.8163
2003-05-01,10.8903
2003-05-02,10.9358
2003-05-05,11.0667
2003-05-06,11.5788
2003-05-07,11.5845
2003-05-08,11.6983
2003-05-09,11.7552
2003-05-12,11.8803
2003-05-13,11.6869
2003-05-14,11.465
2003-05-15,11.4479
2003-05-16,11.3683
2003-05-19,11.1805
2003-05-20,10.7822
2003-05-21,10.6343
2003-05-22,10.7025
2003-05-23,10.7253
2003-05-27,10.9301
2003-05-28,10.7424
2003-05-29,10.6969
2003-05-30,11.0098
2003-06-02,11.0667
2003-06-03,11.2601
2003-06-04,11.1862
2003-06-05,11.2431
2003-06-06,11.2146
2003-06-09,11.1065
2003-06-10,11.3284
2003-06-11,11.2715
2003-06-12,11.3057
2003-06-13,11.1065
2003-06-16,11.5105
2003-06-17,11.152
2003-06-18,10.9244
2003-06-19,10.822
2003-06-20,10.9188
2003-06-23,10.3555
2003-06-24,10.5262
2003-06-25,10.5944
2003-06-26,10.7879
2003-06-27,10.5432
2003-06-30,10.4465
2003-07-01,10.4977
2003-07-02,10.5717
2003-07-03,10.5831
2003-07-07,10.8391
2003-07-08,11.1407
2003-07-09,11.0781
2003-07-10,10.9301
2003-07-11,11.3341
2003-07-14,11.2658
2003-07-15,11.2032
2003-07-16,11.2374
2003-07-17,11.2715
2003-07-18,11.152
2003-07-21,11.1008
2003-07-22,11.2829
2003-07-23,11.3398
2003-07-24,11.2886
2003-07-25,11.482
2003-07-28,11.6527
2003-07-29,11.4422
2003-07-30,11.4422
2003-07-31,11.4081
2003-08-01,11.5902
2003-08-04,11.3284
2003-08-05,10.97
2003-08-06,10.8732
2003-08-07,11.0212
2003-08-08,10.9301
2003-08-11,11.1236
2003-08-12,11.1463
2003-08-13,11.1805
2003-08-14,11.3227
2003-08-15,11.3227
2003-08-18,11.5902
2003-08-19,12.7566
2003-08-20,13.0809
2003-08-21,13.3995
2003-08-22,13.2516
2003-08-25,13.3711
2003-08-26,13.3711
2003-08-27,13.3654
2003-08-28,13.5645
2003-08-29,14.014
2003-09-02,14.0937
2003-09-03,13.94
2003-09-04,13.7466
2003-09-05,13.4052
2003-09-08,13.5418
2003-09-09,13.1435
2003-09-10,12.9102
2003-09-11,13.1549
2003-09-12,13.2288
2003-09-15,13.4166
2003-09-16,13.7694
2003-09-17,13.8263
2003-09-18,13.9002
2003-09-19,13.8263
2003-09-22,13.6726
2003-09-23,14.2188
2003-09-24,14.0652
2003-09-25,14.3099
2003-09-26,13.9002
2003-09-29,13.7978
2003-09-30,13.6271
2003-10-01,13.8831
2003-10-02,13.5816
2003-10-03,13.9856
2003-10-06,14.0652
2003-10-07,13.9571
2003-10-08,13.7181
2003-10-09,14.4521
2003-10-10,14.5033
2003-10-13,14.7309
2003-10-14,14.6228
2003-10-15,14.4294
2003-10-16,14.5659
2003-10-17,14.344
2003-10-20,14.7594
2003-10-21,14.7765
2003-10-22,14.6001
2003-10-23,14.7878
2003-10-24,14.7765
2003-10-27,14.8902
2003-10-28,15.3056
2003-10-29,15.1577
2003-10-30,15.3454
2003-10-31,15.1804
2003-11-03,15.4763
2003-11-04,15.391
2003-11-05,15.2089
2003-11-06,15.2828
2003-11-07,15.408
2003-11-10,15.2487
2003-11-11,15.2032
2003-11-12,15.2032
2003-11-13,15.0211
2003-11-14,14.5261
2003-11-17,14.2644
2003-11-18,14.3725
2003-11-19,14.2416
2003-11-20,14.4806
2003-11-21,14.5716
2003-11-24,15.078
2003-11-25,15.2259
2003-11-26,15.3796
2003-11-28,15.2942
2003-12-01,15.7779
2003-12-02,15.3739
2003-12-03,15.1065
2003-12-04,15.078
2003-12-05,14.6513
2003-12-08,14.839
2003-12-09,14.8504
2003-12-10,14.6911
2003-12-11,14.9073
2003-12-12,14.8106
2003-12-15,14.6058
2003-12-16,14.6001
2003-12-17,14.7537
2003-12-18,14.913
2003-12-19,14.9358
2003-12-22,14.8846
2003-12-23,15.2259
2003-12-24,15.0154
2003-12-26,14.9528
2003-12-29,15.2544
2003-12-30,15.3454
2003-12-31,15.4535
2004-01-02,14.987
2004-01-05,14.9585
2004-01-06,14.8277
2004-01-07,15.2772
2004-01-08,14.9585
2004-01-09,14.9244
2004-01-12,14.822
2004-01-13,14.7594
2004-01-14,14.8846
2004-01-15,14.9187
2004-01-16,14.9415
2004-01-20,14.6797
2004-01-21,14.674
2004-01-22,14.8277
2004-01-23,14.9813
2004-01-26,14.9699
2004-01-27,14.8333
2004-01-28,14.6058
2004-01-29,14.7594
2004-01-30,15.1349
2004-02-02,15.1121
2004-02-03,15.2487
2004-02-04,14.913
2004-02-05,14.6456
2004-02-06,14.7708
2004-02-09,14.748
2004-02-10,14.674
2004-02-11,15.0723
2004-02-12,14.9528
2004-02-13,14.5659
2004-02-17,14.8732
2004-02-18,14.657
2004-02-19,14.5545
2004-02-20,14.5602
2004-02-23,14.913
2004-02-24,14.8789
2004-02-25,14.7935
2004-02-26,14.7992
2004-02-27,14.839
2004-03-01,15.4934
2004-03-02,15.5332
2004-03-03,15.3739
2004-03-04,15.1178
2004-03-05,15.0951
2004-03-08,14.7878
2004-03-09,14.7935
2004-03-10,14.6513
2004-03-11,14.3611
2004-03-12,14.3326
2004-03-15,14.0538
2004-03-16,13.9514
2004-03-17,14.1051
2004-03-18,14.2871
2004-03-19,14.1676
2004-03-22,14.014
2004-03-23,13.7011
2004-03-24,13.9059
2004-03-25,14.2587
2004-03-26,14.2701
2004-03-29,14.4976
2004-03-30,14.418
2004-03-31,14.3839
2004-04-01,14.3326
2004-04-02,14.8846
2004-04-05,14.9471
2004-04-06,15.1406
2004-04-07,15.2146
2004-04-08,15.1577
2004-04-12,15.3284
2004-04-13,15.2828
2004-04-14,14.9756
2004-04-15,15.152
2004-04-16,15.2999
2004-04-19,15.4934
2004-04-20,15.3739
2004-04-21,15.4251
2004-04-22,15.6946
2004-04-23,15.7462
2004-04-26,15.3794
2004-04-27,15.6201
2004-04-28,15.1329
2004-04-29,14.915
2004-04-30,14.7717
2004-05-03,14.852
2004-05-04,14.9437
2004-05-05,14.7889
2004-05-06,14.6514
2004-05-07,14.1527
2004-05-10,13.8202
2004-05-11,14.2558
2004-05-12,14.3132
2004-05-13,14.2673
2004-05-14,14.2788
2004-05-17,14.0266
2004-05-18,15.1329
2004-05-19,15.3908
2004-05-20,15.0985
2004-05-21,15.3163
2004-05-24,15.2934
2004-05-25,15.6488
2004-05-26,15.729
2004-05-27,15.7749
2004-05-28,15.8379
2004-06-01,15.7691
2004-06-02,15.6889
2004-06-03,15.5914
2004-06-04,15.6602
2004-06-07,16.1417
2004-06-08,16.5086
2004-06-09,16.3825
2004-06-10,16.629
2004-06-14,16.457
2004-06-15,16.6748
2004-06-16,16.9729
2004-06-17,16.8984
2004-06-18,16.7895
2004-06-21,16.7723
2004-06-22,17.0187
2004-06-23,17.2767
2004-06-24,17.2996
2004-06-25,17.2824
2004-06-28,17.1563
2004-06-29,16.841
2004-06-30,16.8525
2004-07-01,16.4455
2004-07-02,16.4513
2004-07-06,16.3481
2004-07-07,16.3653
2004-07-08,16.1876
2004-07-09,15.9984
2004-07-12,16.4627
2004-07-13,16.7493
2004-07-14,16.6175
2004-07-15,16.6863
2004-07-16,16.4398
2004-07-19,16.4111
2004-07-20,16.9729
2004-07-21,16.7207
2004-07-22,16.1647
2004-07-23,16.2334
2004-07-26,16.05
2004-07-27,16.2965
2004-07-28,16.308
2004-07-29,16.5487
2004-07-30,16.5716
2004-08-02,16.6634
2004-08-03,16.3653
2004-08-04,16.0672
2004-08-05,15.878
2004-08-06,15.3679
2004-08-09,15.6258
2004-08-10,16.0042
2004-08-11,15.7921
2004-08-12,15.4195
2004-08-13,15.4195
2004-08-16,15.9468
2004-08-17,16.5372
2004-08-18,16.8067
2004-08-19,16.8926
2004-08-20,16.7608
2004-08-23,16.4971
2004-08-24,16.543
2004-08-25,16.7379
2004-08-26,16.8124
2004-08-27,16.8697
2004-08-30,16.6003
2004-08-31,16.4226
2004-09-01,16.4283
2004-09-02,16.7837
2004-09-03,16.7092
2004-09-07,16.9098
2004-09-08,16.8296
2004-09-09,16.8525
2004-09-10,17.1391
2004-09-13,17.2366
2004-09-14,17.0474
2004-09-15,16.9557
2004-09-16,16.9098
2004-09-17,16.8067
2004-09-20,16.7149
2004-09-21,16.8353
2004-09-22,16.6347
2004-09-23,16.6748
2004-09-24,16.8239
2004-09-27,16.7551
2004-09-28,16.8009
2004-09-29,16.6748
2004-09-30,17.0589
2004-10-01,17.1047
2004-10-04,17.4659
2004-10-05,17.4429
2004-10-06,17.3111
2004-10-07,17.1506
2004-10-08,16.9156
2004-10-11,17.0703
2004-10-12,16.9614
2004-10-13,16.7493
2004-10-14,16.4799
2004-10-15,16.5487
2004-10-18,16.8239
2004-10-19,16.3595
2004-10-20,16.4971
2004-10-21,16.6175
2004-10-22,16.4455
2004-10-25,16.2048
2004-10-26,16.3767
2004-10-27,16.7665
2004-10-28,16.8926
2004-10-29,17.013
2004-11-01,17.1449
2004-11-02,17.1162
2004-11-03,17.1964
2004-11-04,17.5404
2004-11-05,17.8958
2004-11-08,17.2824
2004-11-09,17.1105
2004-11-10,16.9672
2004-11-11,17.1047
2004-11-12,17.4315
2004-11-15,17.8556
2004-11-16,17.7123
2004-11-17,17.9531
2004-11-18,17.9588
2004-11-19,17.6894
2004-11-22,18.0849
2004-11-23,18.2397
2004-11-24,18.3486
2004-11-26,18.469
2004-11-29,18.5034
2004-11-30,18.3085
2004-12-01,18.853
2004-12-02,18.8244
2004-12-03,18.853
2004-12-06,18.4174
2004-12-07,18.2798
2004-12-08,18.5779
2004-12-09,18.8129
2004-12-10,18.8416
2004-12-13,18.8358
2004-12-14,19.0135
2004-12-15,19.0193
2004-12-16,19.0021
2004-12-17,18.9275
2004-12-20,18.7499
2004-12-21,19.0021
2004-12-22,19.1855
2004-12-23,19.1167
2004-12-27,18.8129
2004-12-28,19.111
2004-12-29,19.1167
2004-12-30,19.1855
2004-12-31,19.26
2005-01-03,18.7842
2005-01-04,18.5206
2005-01-05,18.4231
2005-01-06,18.4174
2005-01-07,18.5263
2005-01-10,18.5034
2005-01-11,18.6524
2005-01-12,18.7556
2005-01-13,18.5779
2005-01-14,18.8358
2005-01-18,19.0823
2005-01-19,18.7327
2005-01-20,18.4804
2005-01-21,18.1881
2005-01-24,18.211
2005-01-25,18.6696
2005-01-26,18.5435
2005-01-27,18.5435
2005-01-28,18.4346
2005-01-31,18.7384
2005-02-01,18.7556
2005-02-02,18.532
2005-02-03,18.3257
2005-02-04,18.4747
2005-02-07,18.3142
2005-02-08,18.4403
2005-02-09,17.9989
2005-02-10,17.9416
2005-02-11,18.4403
2005-02-14,18.469
2005-02-15,18.5091
2005-02-16,18.4976
2005-02-17,18.1824
2005-02-18,18.0563
2005-02-22,17.9187
2005-02-23,18.2225
2005-02-24,18.5722
2005-02-25,18.446
2005-02-28,18.1308
2005-03-01,18.1652
2005-03-02,18.148
2005-03-03,18.0104
2005-03-04,18.3085
2005-03-07,18.3945
2005-03-08,18.7155
2005-03-09,18.7728
2005-03-10,18.7155
2005-03-11,18.5148
2005-03-14,18.5894
2005-03-15,18.3945
2005-03-16,17.6779
2005-03-17,17.1105
2005-03-18,17.4257
2005-03-21,17.3856
2005-03-22,17.3569
2005-03-23,17.9754
2005-03-24,17.9176
2005-03-28,17.883
2005-03-29,17.9234
2005-03-30,17.987
2005-03-31,18.1257
2005-04-01,17.5997
2005-04-04,18.2471
2005-04-05,18.276
2005-04-06,18.2818
2005-04-07,18.2298
2005-04-08,17.7905
2005-04-11,17.9697
2005-04-12,18.0101
2005-04-13,17.8309
2005-04-14,17.802
2005-04-15,16.8946
2005-04-18,16.9929
2005-04-19,16.7241
2005-04-20,16.1866
2005-04-21,17.1923
2005-04-22,16.9582
2005-04-25,17.2443
2005-04-26,16.9235
2005-04-27,16.9842
2005-04-28,16.4727
2005-04-29,16.542
2005-05-02,16.5333
2005-05-03,17.2703
2005-05-04,17.4957
2005-05-05,17.4263
2005-05-06,17.1662
2005-05-09,17.7558
2005-05-10,17.2703
2005-05-11,17.2703
2005-05-12,17.0882
2005-05-13,17.305
2005-05-16,17.7645
2005-05-17,18.6748
2005-05-18,19.1776
2005-05-19,19.1516
2005-05-20,19.117
2005-05-23,19.0563
2005-05-24,18.9349
2005-05-25,18.9869
2005-05-26,18.8655
2005-05-27,18.7702
2005-05-31,18.7008
2005-06-01,19.0563
2005-06-02,19.325
2005-06-03,18.9089
2005-06-06,18.9349
2005-06-07,19.2383
2005-06-08,18.9609
2005-06-09,19.195
2005-06-10,19.0563
2005-06-13,19.3337
2005-06-14,19.247
2005-06-15,19.3944
2005-06-16,19.325
2005-06-17,19.2123
2005-06-20,19.1256
2005-06-21,18.9696
2005-06-22,18.9869
2005-06-23,18.8569
2005-06-24,18.7095
2005-06-27,18.5447
2005-06-28,18.8915
2005-06-29,18.6921
2005-06-30,18.4841
2005-07-01,18.1893
2005-07-05,18.6488
2005-07-06,18.4841
2005-07-07,18.4234
2005-07-08,18.9782
2005-07-11,19.3857
2005-07-12,19.3771
2005-07-13,19.4291
2005-07-14,19.6111
2005-07-15,20.1053
2005-07-18,20.0013
2005-07-19,19.8539
2005-07-20,19.7585
2005-07-21,20.244
2005-07-22,20.27
2005-07-25,20.1053
2005-07-26,19.8626
2005-07-27,19.9059
2005-07-28,20.0446
2005-07-29,19.7759
2005-08-01,19.6458
2005-08-02,19.7759
2005-08-03,19.4811
2005-08-04,19.2123
2005-08-05,19.0649
2005-08-08,19.299
2005-08-09,19.7152
2005-08-10,19.4811
2005-08-11,19.3164
2005-08-12,19.2383
2005-08-15,19.3424
2005-08-16,18.9349
2005-08-17,19.1603
2005-08-18,19.3337
2005-08-19,19.4638
2005-08-22,19.5504
2005-08-23,19.4464
2005-08-24,19.2817
2005-08-25,19.4464
2005-08-26,19.3164
2005-08-29,19.5504
2005-08-30,18.9349
2005-08-31,19.0216
2005-09-01,18.7268
2005-09-02,18.6575
2005-09-06,18.9002
2005-09-07,19.0303
2005-09-08,18.8048
2005-09-09,18.8395
2005-09-12,18.8569
2005-09-13,18.6661
2005-09-14,18.6228
2005-09-15,18.5101
2005-09-16,18.406
2005-09-19,18.2933
2005-09-20,18.2153
2005-09-21,17.9379
2005-09-22,18.0939
2005-09-23,18.2066
2005-09-26,18.2586
2005-09-27,18.2586
2005-09-28,17.9986
2005-09-29,18.2933
2005-09-30,18.4754
2005-10-03,18.8395
2005-10-04,18.9262
2005-10-05,18.5968
2005-10-06,18.5014
2005-10-07,18.6314
2005-10-10,18.7528
2005-10-11,18.328
2005-10-12,18.1373
2005-10-13,18.3627
2005-10-14,18.4234
2005-10-17,18.276
2005-10-18,17.9986
2005-10-19,18.1633
2005-10-20,18.3887
2005-10-21,18.4754
2005-10-24,18.7095
2005-10-25,18.7008
2005-10-26,18.9349
2005-10-27,18.6835
2005-10-28,19.0736
2005-10-31,19.6632
2005-11-01,19.8886
2005-11-02,20.3481
2005-11-03,20.4694
2005-11-04,20.218
2005-11-07,20.27
2005-11-08,20.4001
2005-11-09,20.2354
2005-11-10,20.7469
2005-11-11,20.5822
2005-11-14,20.6689
2005-11-15,19.7759
2005-11-16,19.9753
2005-11-17,19.9666
2005-11-18,20.166
2005-11-21,20.166
2005-11-22,20.1573
2005-11-23,20.2961
2005-11-25,19.7412
2005-11-28,19.8886
2005-11-29,19.8452
2005-11-30,20.0186
2005-12-01,20.1313
2005-12-02,20.0186
2005-12-05,19.8452
2005-12-06,19.7499
2005-12-07,19.6632
2005-12-08,19.4377
2005-12-09,19.4638
2005-12-12,19.8886
2005-12-13,19.9233
2005-12-14,20.0966
2005-12-15,20.0966
2005-12-16,19.6285
2005-12-19,19.4377
2005-12-20,20.0706
2005-12-21,20.0966
2005-12-22,20.2874
2005-12-23,20.2961
2005-12-27,19.9753
2005-12-28,19.9579
2005-12-29,19.9319
2005-12-30,19.7065
2006-01-03,19.5851
2006-01-04,19.5851
2006-01-05,19.4984
2006-01-06,19.5678
2006-01-09,19.5765
2006-01-10,19.9493
2006-01-11,19.9406
2006-01-12,19.6198
2006-01-13,19.4464
2006-01-17,19.221
2006-01-18,19.2904
2006-01-19,19.5158
2006-01-20,19.0823
2006-01-23,19.5331
2006-01-24,19.9666
2006-01-25,19.7672
2006-01-26,20.2874
2006-01-27,20.4694
2006-01-30,20.3741
2006-01-31,20.5475
2006-02-01,20.3567
2006-02-02,20.3307
2006-02-03,20.062
2006-02-06,20.1227
2006-02-07,20.1227
2006-02-08,20.3567
2006-02-09,19.8539
2006-02-10,19.9493
2006-02-13,19.6458
2006-02-14,19.7412
2006-02-15,20.1487
2006-02-16,20.2007
2006-02-17,19.9146
2006-02-21,19.4984
2006-02-22,19.8626
2006-02-23,19.7932
2006-02-24,19.6632
2006-02-27,20.0186
2006-02-28,21.1544
2006-03-01,21.7699
2006-03-02,21.4925
2006-03-03,21.6139
2006-03-06,21.4665
2006-03-07,21.3885
2006-03-08,21.1023
2006-03-09,21.033
2006-03-10,21.1197
2006-03-13,21.3711
2006-03-14,21.848
2006-03-15,21.7613
2006-03-16,21.6572
2006-03-17,21.6746
2006-03-20,21.7179
2006-03-21,21.2497
2006-03-22,21.4145
2006-03-23,22.0994
2006-03-24,21.9
2006-03-27,21.926
2006-03-28,22.0127
2006-03-29,22.4411
2006-03-30,22.7297
2006-03-31,22.2837
2006-04-03,22.8172
2006-04-04,23.0008
2006-04-05,23.1583
2006-04-06,22.7822
2006-04-07,22.686
2006-04-10,22.24
2006-04-11,22.0388
2006-04-12,22.4936
2006-04-13,22.6423
2006-04-17,22.4936
2006-04-18,23.2894
2006-04-19,22.9659
2006-04-20,22.9659
2006-04-21,22.3712
2006-04-24,22.3537
2006-04-25,22.1962
2006-04-26,22.5811
2006-04-27,22.9046
2006-04-28,23.1145
2006-05-01,22.3712
2006-05-02,22.8522
2006-05-03,23.1495
2006-05-04,23.3069
2006-05-05,23.2632
2006-05-08,22.9309
2006-05-09,23.1845
2006-05-10,23.3157
2006-05-11,23.5955
2006-05-12,23.2632
2006-05-15,23.1408
2006-05-16,21.6978
2006-05-17,21.4879
2006-05-18,21.3479
2006-05-19,21.3829
2006-05-22,21.1118
2006-05-23,20.9806
2006-05-24,20.8669
2006-05-25,20.8319
2006-05-26,20.9107
2006-05-30,20.5258
2006-05-31,20.5696
2006-06-01,21.0506
2006-06-02,21.0593
2006-06-05,20.727
2006-06-06,20.727
2006-06-07,20.6483
2006-06-08,20.7795
2006-06-09,20.5084
2006-06-12,20.3509
2006-06-13,20.316
2006-06-14,20.6658
2006-06-15,21.724
2006-06-16,21.654
2006-06-19,21.3829
2006-06-20,21.3217
2006-06-21,21.619
2006-06-22,21.4179
2006-06-23,21.3829
2006-06-26,21.1818
2006-06-27,21.173
2006-06-28,21.1555
2006-06-29,21.6715
2006-06-30,21.3217
2006-07-03,21.4266
2006-07-05,21.0069
2006-07-06,20.9369
2006-07-07,20.8232
2006-07-10,21.1818
2006-07-11,20.9806
2006-07-12,20.5258
2006-07-13,20.1848
2006-07-14,19.8962
2006-07-17,19.7562
2006-07-18,19.4326
2006-07-19,19.8612
2006-07-20,19.2402
2006-07-21,19.1965
2006-07-24,19.7912
2006-07-25,20.0886
2006-07-26,19.8612
2006-07-27,19.3364
2006-07-28,18.9691
2006-07-31,18.9079
2006-08-01,18.5756
2006-08-02,18.8117
2006-08-03,19.2752
2006-08-04,20.0273
2006-08-07,20.1498
2006-08-08,19.765
2006-08-09,19.6775
2006-08-10,20.3772
2006-08-11,20.5608
2006-08-14,20.5696
2006-08-15,20.6483
2006-08-16,20.8757
2006-08-17,20.9806
2006-08-18,20.7532
2006-08-21,20.727
2006-08-22,20.4909
2006-08-23,20.1673
2006-08-24,19.9661
2006-08-25,19.9399
2006-08-28,20.1148
2006-08-29,19.8262
2006-08-30,19.8262
2006-08-31,19.7562
2006-09-01,19.8437
2006-09-05,20.0536
2006-09-06,20.1498
2006-09-07,20.3247
2006-09-08,20.4384
2006-09-11,20.8144
2006-09-12,21.4616
2006-09-13,21.8902
2006-09-14,21.6278
2006-09-15,21.8464
2006-09-18,21.4441
2006-09-19,21.3917
2006-09-20,21.8464
2006-09-21,21.5054
2006-09-22,21.3742
2006-09-25,22.2662
2006-09-26,22.0651
2006-09-27,21.5666
2006-09-28,21.6453
2006-09-29,21.2867
2006-10-02,21.2167
2006-10-03,22.3712
2006-10-04,22.7472
2006-10-05,23.0008
2006-10-06,22.4761
2006-10-09,22.8784
2006-10-10,22.9309
2006-10-11,23.272
2006-10-12,23.5518
2006-10-13,23.5431
2006-10-16,23.4993
2006-10-17,23.1583
2006-10-18,23.0621
2006-10-19,22.651
2006-10-20,22.4761
2006-10-23,23.0008
2006-10-24,22.6073
2006-10-25,22.6773
2006-10-26,22.7472
2006-10-27,22.5461
2006-10-30,22.8172
2006-10-31,22.5286
2006-11-01,22.0038
2006-11-02,22.3887
2006-11-03,22.2137
2006-11-06,22.651
2006-11-07,22.7822
2006-11-08,22.8784
2006-11-09,22.5636
2006-11-10,22.4149
2006-11-13,22.8084
2006-11-14,22.6423
2006-11-15,22.8084
2006-11-16,23.4469
2006-11-17,23.2894
2006-11-20,22.8959
2006-11-21,22.7909
2006-11-22,22.6335
2006-11-24,21.9251
2006-11-27,22.2225
2006-11-28,22.4149
2006-11-29,22.4936
2006-11-30,22.275
2006-12-01,22.1175
2006-12-04,22.686
2006-12-05,22.8522
2006-12-06,22.9396
2006-12-07,22.7735
2006-12-08,22.8259
2006-12-11,22.6685
2006-12-12,22.6335
2006-12-13,23.2807
2006-12-14,24.0591
2006-12-15,23.9891
2006-12-18,23.7792
2006-12-19,23.6568
2006-12-20,23.6043
2006-12-21,23.4818
2006-12-22,23.3244
2006-12-26,23.5081
2006-12-27,23.7005
2006-12-28,23.5955
2006-12-29,23.3157
2007-01-03,23.0708
2007-01-04,22.9571
2007-01-05,22.756
2007-01-08,22.5373
2007-01-09,23.0533
2007-01-10,23.0796
2007-01-11,23.2894
2007-01-12,23.3332
2007-01-16,23.6305
2007-01-17,23.5606
2007-01-18,23.8054
2007-01-19,23.6305
2007-01-22,23.1583
2007-01-23,23.1932
2007-01-24,23.1845
2007-01-25,22.6947
2007-01-26,22.4586
2007-01-29,22.3187
2007-01-30,22.3012
2007-01-31,22.4849
2007-02-01,22.6947
2007-02-02,23.132
2007-02-05,22.9834
2007-02-06,23.0358
2007-02-07,23.132
2007-02-08,23.2457
2007-02-09,23.3244
2007-02-12,23.3069
2007-02-13,23.4993
2007-02-14,23.8054
2007-02-15,23.8492
2007-02-16,23.4993
2007-02-20,24.0678
2007-02-21,23.9541
2007-02-22,24.0416
2007-02-23,23.7792
2007-02-26,23.7092
2007-02-27,22.7735
2007-02-28,22.7997
2007-03-01,22.1962
2007-03-02,22.2662
2007-03-05,21.8989
2007-03-06,22.0038
2007-03-07,22.651
2007-03-08,22.8259
2007-03-09,22.7997
2007-03-12,22.6947
2007-03-13,22.3537
2007-03-14,22.2312
2007-03-15,22.3974
2007-03-16,22.2837
2007-03-19,22.6685
2007-03-20,22.8434
2007-03-21,23.4818
2007-03-22,23.1408
2007-03-23,23.1145
2007-03-26,23.0883
2007-03-27,22.9221
2007-03-28,22.8604
2007-03-29,23.0019
2007-03-30,22.8339
2007-04-02,22.7455
2007-04-03,23.2495
2007-04-04,23.0373
2007-04-05,23.338
2007-04-09,23.5502
2007-04-10,23.8332
2007-04-11,23.6386
2007-04-12,23.7978
2007-04-13,23.6121
2007-04-16,23.6298
2007-04-17,23.2849
2007-04-18,23.4441
2007-04-19,23.1257
2007-04-20,23.3114
2007-04-23,23.1169
2007-04-24,23.0992
2007-04-25,23.0108
2007-04-26,22.8162
2007-04-27,22.4536
2007-04-30,21.9319
2007-05-01,21.9672
2007-05-02,22.1529
2007-05-03,22.4094
2007-05-04,22.3298
2007-05-07,22.206
2007-05-08,22.1883
2007-05-09,22.1529
2007-05-10,21.7992
2007-05-11,21.9142
2007-05-14,21.9319
2007-05-15,22.1441
2007-05-16,22.3652
2007-05-17,22.2414
2007-05-18,22.5863
2007-05-21,22.6924
2007-05-22,22.1441
2007-05-23,22.0468
2007-05-24,21.4808
2007-05-25,21.5781
2007-05-29,21.1802
2007-05-30,21.8611
2007-05-31,22.1795
2007-06-01,22.4448
2007-06-04,22.2325
2007-06-05,21.8523
2007-06-06,21.6312
2007-06-07,21.2509
2007-06-08,21.6931
2007-06-11,21.587
2007-06-12,21.5516
2007-06-13,21.4897
2007-06-14,21.7638
2007-06-15,22.0999
2007-06-18,22.1087
2007-06-19,22.1972
2007-06-20,22.1529
2007-06-21,22.0999
2007-06-22,21.472
2007-06-25,21.2598
2007-06-26,21.189
2007-06-27,21.189
2007-06-28,21.3924
2007-06-29,20.9768
2007-07-02,21.5781
2007-07-03,21.4897
2007-07-05,21.7727
2007-07-06,21.8965
2007-07-09,21.755
2007-07-10,21.2067
2007-07-11,21.1448
2007-07-12,21.9319
2007-07-13,21.9584
2007-07-16,21.7196
2007-07-17,21.9584
2007-07-18,21.8523
2007-07-19,22.1264
2007-07-20,21.9495
2007-07-23,21.755
2007-07-24,21.5339
2007-07-25,21.304
2007-07-26,20.7822
2007-07-27,20.4727
2007-07-30,20.6495
2007-07-31,20.3577
2007-08-01,20.5169
2007-08-02,20.7115
2007-08-03,20.5788
2007-08-06,21.2244
2007-08-07,20.8618
2007-08-08,21.304
2007-08-09,20.5965
2007-08-10,20.3312
2007-08-13,20.34
2007-08-14,19.8183
2007-08-15,19.9598
2007-08-16,20.7026
2007-08-17,20.5169
2007-08-20,20.6319
2007-08-21,20.6142
2007-08-22,20.8176
2007-08-23,20.6053
2007-08-24,20.7557
2007-08-27,20.4373
2007-08-28,20.1366
2007-08-29,20.8529
2007-08-30,20.738
2007-08-31,21.0033
2007-09-04,20.9591
2007-09-05,20.906
2007-09-06,20.4373
2007-09-07,19.7829
2007-09-10,19.8536
2007-09-11,19.889
2007-09-12,19.438
2007-09-13,19.5264
2007-09-14,19.8183
2007-09-17,19.5706
2007-09-18,20.5169
2007-09-19,20.3223
2007-09-20,20.1278
2007-09-21,19.8979
2007-09-24,19.7121
2007-09-25,19.0047
2007-09-26,18.9781
2007-09-27,19.0931
2007-09-28,18.9958
2007-10-01,19.3761
2007-10-02,19.3849
2007-10-03,19.5795
2007-10-04,19.1815
2007-10-05,19.9774
2007-10-08,19.9155
2007-10-09,20.0482
2007-10-10,19.8713
2007-10-11,20.0836
2007-10-12,19.4911
2007-10-15,19.4557
2007-10-16,19.4734
2007-10-17,19.6237
2007-10-18,19.5176
2007-10-19,19.0754
2007-10-22,19.6856
2007-10-23,19.3053
2007-10-24,19.3142
2007-10-25,19.5883
2007-10-26,19.7387
2007-10-29,20.0217
2007-10-30,20.2427
2007-10-31,20.6142
2007-11-01,19.6591
2007-11-02,19.3672
2007-11-05,19.1815
2007-11-06,19.9067
2007-11-07,19.0577
2007-11-08,18.9781
2007-11-09,18.5448
2007-11-12,18.5713
2007-11-13,19.1727
2007-11-14,18.8189
2007-11-15,18.5448
2007-11-16,18.6509
2007-11-19,18.1734
2007-11-20,17.8992
2007-11-21,17.7931
2007-11-23,18.1822
2007-11-26,17.4305
2007-11-27,19.3584
2007-11-28,20.1278
2007-11-29,20.7557
2007-11-30,20.9149
2007-12-03,20.906
2007-12-04,21.2774
2007-12-05,21.1625
2007-12-06,21.8788
2007-12-07,21.7992
2007-12-10,21.6577
2007-12-11,20.9768
2007-12-12,20.8087
2007-12-13,20.2339
2007-12-14,20.0305
2007-12-17,19.8979
2007-12-18,20.1013
2007-12-19,20.004
2007-12-20,20.0836
2007-12-21,20.4461
2007-12-24,20.455
2007-12-26,20.4108
2007-12-27,20.1543
2007-12-28,20.34
2007-12-31,20.3577
2008-01-02,19.6414
2008-01-03,19.3319
2008-01-04,18.8101
2008-01-07,19.0754
2008-01-08,18.8809
2008-01-09,18.9162
2008-01-10,19.0754
2008-01-11,18.2972
2008-01-14,18.253
2008-01-15,17.6958
2008-01-16,18.6951
2008-01-17,18.7924
2008-01-18,19.0135
2008-01-22,19.6149
2008-01-23,20.8795
2008-01-24,20.4727
2008-01-25,19.9686
2008-01-28,20.5876
2008-01-29,20.6495
2008-01-30,20.4196
2008-01-31,21.2067
2008-02-01,21.1625
2008-02-04,20.5257
2008-02-05,19.8271
2008-02-06,19.5883
2008-02-07,20.2781
2008-02-08,20.3047
2008-02-11,20.4904
2008-02-12,20.4373
2008-02-13,20.3666
2008-02-14,19.5706
2008-02-15,19.4734
2008-02-19,19.5883
2008-02-20,20.2693
2008-02-21,20.5169
2008-02-22,20.8529
2008-02-25,21.0387
2008-02-26,20.9325
2008-02-27,21.074
2008-02-28,20.5434
2008-02-29,19.721
2008-03-03,19.8979
2008-03-04,19.5972
2008-03-05,19.8359
2008-03-06,19.1727
2008-03-07,19.1992
2008-03-10,18.6067
2008-03-11,19.2346
2008-03-12,18.7924
2008-03-13,19.0666
2008-03-14,18.4741
2008-03-17,18.6686
2008-03-18,19.8006
2008-03-19,19.3496
2008-03-20,20.2339
2008-03-24,20.8353
2008-03-25,20.7203
2008-03-26,20.6305
2008-03-27,20.2986
2008-03-28,20.0564
2008-03-31,19.8591
2008-04-01,20.9713
2008-04-02,20.8099
2008-04-03,20.6215
2008-04-04,20.8547
2008-04-07,20.5318
2008-04-08,20.173
2008-04-09,19.5989
2008-04-10,19.7066
2008-04-11,19.5541
2008-04-14,19.5272
2008-04-15,19.7514
2008-04-16,20.0385
2008-04-17,20.0474
2008-04-18,20.173
2008-04-21,19.8501
2008-04-22,19.2402
2008-04-23,19.4644
2008-04-24,19.9129
2008-04-25,20.1371
2008-04-28,20.2537
2008-04-29,20.3255
2008-04-30,19.4913
2008-05-01,20.5049
2008-05-02,20.9175
2008-05-05,20.3255
2008-05-06,19.886
2008-05-07,19.6617
2008-05-08,19.276
2008-05-09,19.276
2008-05-12,19.6797
2008-05-13,20.1551
2008-05-14,21.0341
2008-05-15,21.6082
2008-05-16,21.3839
2008-05-19,21.1507
2008-05-20,21.2135
2008-05-21,20.5497
2008-05-22,20.6036
2008-05-23,20.3614
2008-05-27,20.8726
2008-05-28,20.7112
2008-05-29,21.07
2008-05-30,21.0072
2008-06-02,20.6843
2008-06-03,21.0162
2008-06-04,21.5544
2008-06-05,21.7696
2008-06-06,20.8816
2008-06-09,20.8099
2008-06-10,20.7471
2008-06-11,21.8862
2008-06-12,22.3796
2008-06-13,22.8191
2008-06-16,22.9626
2008-06-17,22.5231
2008-06-18,22.245
2008-06-19,22.7742
2008-06-20,22.0746
2008-06-23,21.5813
2008-06-24,21.671
2008-06-25,22.2988
2008-06-26,21.3122
2008-06-27,21.5454
2008-06-30,21.2942
2008-07-01,21.7696
2008-07-02,20.756
2008-07-03,21.0431
2008-07-07,20.765
2008-07-08,20.1909
2008-07-09,19.8142
2008-07-10,19.2581
2008-07-11,18.8545
2008-07-14,18.7109
2008-07-15,18.5315
2008-07-16,18.998
2008-07-17,20.1461
2008-07-18,20.2448
2008-07-21,19.9757
2008-07-22,20.9265
2008-07-23,21.2404
2008-07-24,20.3614
2008-07-25,20.0654
2008-07-28,19.59
2008-07-29,20.4331
2008-07-30,20.5408
2008-07-31,20.164
2008-08-01,20.2986
2008-08-04,20.5587
2008-08-05,21.7876
2008-08-06,21.7876
2008-08-07,20.8816
2008-08-08,21.9131
2008-08-11,23.3662
2008-08-12,22.9536
2008-08-13,21.9849
2008-08-14,22.2988
2008-08-15,22.3437
2008-08-18,22.0746
2008-08-19,21.079
2008-08-20,21.4377
2008-08-21,21.4557
2008-08-22,22.1553
2008-08-25,21.6351
2008-08-26,21.357
2008-08-27,21.7965
2008-08-28,22.1643
2008-08-29,21.6889
2008-09-02,22.254
2008-09-03,22.5679
2008-09-04,22.0656
2008-09-05,22.1194
2008-09-08,22.4872
2008-09-09,21.9221
2008-09-10,21.8234
2008-09-11,22.3885
2008-09-12,21.9401
2008-09-15,21.7517
2008-09-16,22.1284
2008-09-17,21.4736
2008-09-18,21.7337
2008-09-19,22.3885
2008-09-22,20.9534
2008-09-23,20.2179
2008-09-24,20.7381
2008-09-25,20.8457
2008-09-26,20.7022
2008-09-29,19.7245
2008-09-30,20.182
2008-10-01,19.8591
2008-10-02,18.693
2008-10-03,17.9395
2008-10-06,17.4731
2008-10-07,16.4775
2008-10-08,15.9931
2008-10-09,15.1141
2008-10-10,14.7284
2008-10-13,16.926
2008-10-14,16.1366
2008-10-15,14.4682
2008-10-16,15.3832
2008-10-17,15.437
2008-10-20,15.428
2008-10-21,14.4234
2008-10-22,13.6071
2008-10-23,13.8134
2008-10-24,12.9972
2008-10-27,12.2527
2008-10-28,13.8583
2008-10-29,14.3157
2008-10-30,16.5403
2008-10-31,17.5
2008-11-03,16.7824
2008-11-04,17.509
2008-11-05,16.7824
2008-11-06,15.9572
2008-11-07,16.4595
2008-11-10,16.3878
2008-11-11,15.5177
2008-11-12,14.531
2008-11-13,16.2263
2008-11-14,15.3383
2008-11-17,14.8001
2008-11-18,15.0871
2008-11-19,13.6879
2008-11-20,12.7281
2008-11-21,14.0018
2008-11-24,15.428
2008-11-25,15.3652
2008-11-26,15.5536
2008-11-28,15.5715
2008-12-01,13.6071
2008-12-02,14.6207
2008-12-03,15.7689
2008-12-04,16.1815
2008-12-05,16.5941
2008-12-08,16.0649
2008-12-09,15.1948
2008-12-10,16.2353
2008-12-11,15.3652
2008-12-12,15.0871
2008-12-15,15.1948
2008-12-16,16.4685
2008-12-17,16.7286
2008-12-18,16.3519
2008-12-19,16.4775
2008-12-22,15.9393
2008-12-23,15.6881
2008-12-24,15.8406
2008-12-26,15.724
2008-12-29,15.4818
2008-12-30,15.8765
2008-12-31,16.0828
2009-01-02,16.8363
2009-01-05,16.603
2009-01-06,16.7466
2009-01-07,16.1815
2009-01-08,16.5492
2009-01-09,16.4147
2009-01-12,16.6389
2009-01-13,16.2084
2009-01-14,15.3742
2009-01-15,15.6612
2009-01-16,15.6343
2009-01-20,14.7373
2009-01-21,14.7911
2009-01-22,14.9705
2009-01-23,14.8988
2009-01-26,15.4818
2009-01-27,15.4549
2009-01-28,16.0379
2009-01-29,14.8629
2009-01-30,14.2799
2009-02-02,14.0646
2009-02-03,14.5221
2009-02-04,14.2171
2009-02-05,14.6476
2009-02-06,15.0244
2009-02-09,14.9257
2009-02-10,14.0108
2009-02-11,14.3068
2009-02-12,14.3157
2009-02-13,14.1184
2009-02-17,13.5802
2009-02-18,13.8493
2009-02-19,13.7865
2009-02-20,14.1274
2009-02-23,13.7596
2009-02-24,14.2619
2009-02-25,14.0736
2009-02-26,14.0108
2009-02-27,14.3606
2009-03-02,13.7237
2009-03-03,13.5623
2009-03-04,13.8852
2009-03-05,13.2125
2009-03-06,13.2304
2009-03-09,13.1048
2009-03-10,14.0467
2009-03-11,13.8762
2009-03-12,14.5938
2009-03-13,14.531
2009-03-16,14.1633
2009-03-17,14.7373
2009-03-18,15.2576
2009-03-19,15.3921
2009-03-20,15.2755
2009-03-23,16.1456
2009-03-24,15.7689
2009-03-25,16.4295
2009-03-26,17.0333
2009-03-27,16.6999
2009-03-30,16.3214
2009-03-31,16.4025
2009-04-01,16.5557
2009-04-02,17.7002
2009-04-03,17.529
2009-04-06,17.3668
2009-04-07,16.5917
2009-04-08,17.2136
2009-04-09,18.9259
2009-04-13,18.5474
2009-04-14,18.1418
2009-04-15,18.3942
2009-04-16,18.9259
2009-04-17,18.7276
2009-04-20,18.232
2009-04-21,18.9169
2009-04-22,18.8358
2009-04-23,19.0972
2009-04-24,19.719
2009-04-27,19.3495
2009-04-28,19.1963
2009-04-29,18.4843
2009-04-30,18.5113
2009-05-01,18.1058
2009-05-04,18.7817
2009-05-05,18.5384
2009-05-06,18.1418
2009-05-07,17.9976
2009-05-08,17.8985
2009-05-11,17.8985
2009-05-12,18.0517
2009-05-13,17.3758
2009-05-14,17.6281
2009-05-15,17.3217
2009-05-18,18.232
2009-05-19,18.241
2009-05-20,17.6642
2009-05-21,17.2046
2009-05-22,17.502
2009-05-26,18.3311
2009-05-27,18.0157
2009-05-28,18.0157
2009-05-29,18.4392
2009-06-01,19.5748
2009-06-02,19.6379
2009-06-03,19.0791
2009-06-04,18.4663
2009-06-05,18.2951
2009-06-08,18.4032
2009-06-09,18.8628
2009-06-10,18.6015
2009-06-11,18.5023
2009-06-12,19.016
2009-06-15,18.7637
2009-06-16,18.3221
2009-06-17,18.277
2009-06-18,18.3221
2009-06-19,18.277
2009-06-22,18.0247
2009-06-23,17.7813
2009-06-24,18.1371
2009-06-25,18.644
2009-06-26,18.5173
2009-06-29,18.5444
2009-06-30,18.2367
2009-07-01,18.1733
2009-07-02,17.3317
2009-07-06,17.395
2009-07-07,17.0782
2009-07-08,17.576
2009-07-09,17.4403
2009-07-10,17.5489
2009-07-13,18.0738
2009-07-14,18.119
2009-07-15,18.2276
2009-07-16,18.5716
2009-07-17,18.5082
2009-07-20,19.0512
2009-07-21,19.006
2009-07-22,19.1689
2009-07-23,19.5038
2009-07-24,19.5219
2009-07-27,19.4042
2009-07-28,18.9879
2009-07-29,18.9879
2009-07-30,18.9426
2009-07-31,19.0512
2009-08-03,19.4676
2009-08-04,19.2504
2009-08-05,19.1055
2009-08-06,20.1735
2009-08-07,20.7527
2009-08-10,20.1554
2009-08-11,20.083
2009-08-12,20.3545
2009-08-13,20.1282
2009-08-14,19.7572
2009-08-17,19.187
2009-08-18,19.4585
2009-08-19,19.4947
2009-08-20,19.6305
2009-08-21,20.3545
2009-08-24,20.1192
2009-08-25,19.721
2009-08-26,19.8929
2009-08-27,19.8839
2009-08-28,19.8748
2009-08-31,19.5581
2009-09-01,19.368
2009-09-02,19.0693
2009-09-03,19.3318
2009-09-04,19.368
2009-09-08,19.8296
2009-09-09,20.3364
2009-09-10,20.445
2009-09-11,20.2007
2009-09-14,20.7527
2009-09-15,20.7256
2009-09-16,20.7618
2009-09-17,20.6351
2009-09-18,21.0695
2009-09-21,21.0152
2009-09-22,21.0061
2009-09-23,20.691
2009-09-24,20.6456
2009-09-25,20.7001
2009-09-28,21.0816
2009-09-29,21.127
2009-09-30,21.0634
2009-10-01,20.6002
2009-10-02,20.4821
2009-10-05,20.6819
2009-10-06,20.9362
2009-10-07,20.9726
2009-10-08,21.0271
2009-10-09,21.018
2009-10-12,21.0634
2009-10-13,20.9907
2009-10-14,21.1542
2009-10-15,21.2087
2009-10-16,21.0725
2009-10-19,21.3086
2009-10-20,20.8908
2009-10-21,20.6365
2009-10-22,20.8908
2009-10-23,20.4912
2009-10-26,20.6093
2009-10-27,20.3277
2009-10-28,19.9099
2009-10-29,20.2187
2009-10-30,19.7282
2009-11-02,19.8463
2009-11-03,19.8645
2009-11-04,19.6465
2009-11-05,20.1279
2009-11-06,20.1914
2009-11-09,20.3913
2009-11-10,20.255
2009-11-11,20.2096
2009-11-12,20.1279
2009-11-13,20.3822
2009-11-16,20.8908
2009-11-17,20.7092
2009-11-18,20.8545
2009-11-19,20.5729
2009-11-20,20.6456
2009-11-23,21.0452
2009-11-24,21.0816
2009-11-25,21.3722
2009-11-27,21.1633
2009-11-30,21.1906
2009-12-01,22.1715
2009-12-02,21.7628
2009-12-03,21.454
2009-12-04,22.1261
2009-12-07,22.117
2009-12-08,21.999
2009-12-09,21.6992
2009-12-10,21.9717
2009-12-11,22.1897
2009-12-14,22.2169
2009-12-15,21.9445
2009-12-16,22.1352
2009-12-17,22.3169
2009-12-18,22.3259
2009-12-21,22.1919
2009-12-22,22.6385
2009-12-23,22.7934
2009-12-24,22.675
2009-12-28,22.7934
2009-12-29,22.7752
2009-12-30,22.7661
2009-12-31,22.4198
2010-01-04,22.3195
2010-01-05,22.3469
2010-01-06,22.4107
2010-01-07,22.6658
2010-01-08,23.2036
2010-01-11,23.1944
2010-01-12,22.7843
2010-01-13,23.1033
2010-01-14,22.7934
2010-01-15,22.8937
2010-01-19,23.1124
2010-01-20,22.6112
2010-01-21,22.4289
2010-01-22,21.9459
2010-01-25,21.9003
2010-01-26,21.7818
2010-01-27,21.5904
2010-01-28,21.636
2010-01-29,21.399
2010-02-01,21.4081
2010-02-02,21.8729
2010-02-03,21.7089
2010-02-04,21.235
2010-02-05,21.3808
2010-02-08,21.1347
2010-02-09,21.7818
2010-02-10,21.6451
2010-02-11,22.0097
2010-02-12,22.0188
2010-02-16,22.5929
2010-02-17,22.8117
2010-02-18,23.0122
2010-02-19,23.3949
2010-02-22,23.2674
2010-02-23,23.158
2010-02-24,23.4223
2010-02-25,23.6137
2010-02-26,23.477
2010-03-01,23.5772
2010-03-02,21.1894
2010-03-03,20.5788
2010-03-04,20.9251
2010-03-05,21.2259
2010-03-08,20.7428
2010-03-09,20.8522
2010-03-10,20.916
2010-03-11,21.0892
2010-03-12,21.3444
2010-03-15,21.317
2010-03-16,21.554
2010-03-17,21.6087
2010-03-18,21.636
2010-03-19,21.636
2010-03-22,21.9732
2010-03-23,21.955
2010-03-24,21.5709
2010-03-25,21.5251
2010-03-26,21.7538
2010-03-29,21.7264
2010-03-30,21.5526
2010-03-31,21.4062
2010-04-01,21.6806
2010-04-05,21.9825
2010-04-06,21.9551
2010-04-07,22.3393
2010-04-08,22.1106
2010-04-09,22.2295
2010-04-12,22.1563
2010-04-13,21.7996
2010-04-14,22.3027
2010-04-15,22.4216
2010-04-16,22.1929
2010-04-19,22.138
2010-04-20,21.9825
2010-04-21,22.2478
2010-04-22,22.3484
2010-04-23,22.4765
2010-04-26,22.7418
2010-04-27,21.7264
2010-04-28,21.5526
2010-04-29,21.9185
2010-04-30,21.5434
2010-05-03,21.6898
2010-05-04,21.269
2010-05-05,21.205
2010-05-06,20.0798
2010-05-07,19.8602
2010-05-10,20.592
2010-05-11,20.4731
2010-05-12,21.1135
2010-05-13,20.3999
2010-05-14,20.217
2010-05-17,20.2993
2010-05-18,20.0798
2010-05-19,19.6589
2010-05-20,19.6041
2010-05-21,19.7047
2010-05-24,19.4577
2010-05-25,19.5675
2010-05-26,19.2839
2010-05-27,19.9242
2010-05-28,19.6498
2010-06-01,19.5583
2010-06-02,19.8145
2010-06-03,20.1346
2010-06-04,19.3571
2010-06-07,18.8997
2010-06-08,19.4028
2010-06-09,19.2747
2010-06-10,20.0249
2010-06-11,19.8602
2010-06-14,19.8876
2010-06-15,20.2719
2010-06-16,20.6012
2010-06-17,20.0523
2010-06-18,20.0889
2010-06-21,19.7504
2010-06-22,19.1192
2010-06-23,18.8344
2010-06-24,18.4669
2010-06-25,18.4485
2010-06-28,18.2556
2010-06-29,17.7411
2010-06-30,17.539
2010-07-01,17.7135
2010-07-02,17.6308
2010-07-06,17.5298
2010-07-07,17.8421
2010-07-08,17.8421
2010-07-09,18.0718
2010-07-12,18.0351
2010-07-13,18.568
2010-07-14,18.3934
2010-07-15,18.669
2010-07-16,17.7319
2010-07-19,17.9892
2010-07-20,18.1545
2010-07-21,17.8146
2010-07-22,18.4302
2010-07-23,18.375
2010-07-26,18.6598
2010-07-27,18.5037
2010-07-28,18.3475
2010-07-29,18.228
2010-07-30,18.6874
2010-08-02,19.156
2010-08-03,18.3291
2010-08-04,18.5128
2010-08-05,18.5404
2010-08-06,18.5312
2010-08-09,18.421
2010-08-10,18.3934
2010-08-11,17.8238
2010-08-12,17.7595
2010-08-13,17.5573
2010-08-16,17.539
2010-08-17,17.8513
2010-08-18,18.127
2010-08-19,17.4011
2010-08-20,17.392
2010-08-23,17.0428
2010-08-24,16.6753
2010-08-25,16.7305
2010-08-26,16.4548
2010-08-27,16.5743
2010-08-30,16.2251
2010-08-31,16.3262
2010-09-01,16.9142
2010-09-02,17.2174
2010-09-03,17.5849
2010-09-07,17.1531
2010-09-08,17.5022
2010-09-09,17.5206
2010-09-10,17.8697
2010-09-13,17.9708
2010-09-14,18.081
2010-09-15,18.1086
2010-09-16,17.8146
2010-09-17,17.9248
2010-09-20,18.081
2010-09-21,18.2005
2010-09-22,18.2466
2010-09-23,18.4589
2010-09-24,19.0034
2010-09-27,18.985
2010-09-28,19.2342
2010-09-29,19.0773
2010-09-30,19.3449
2010-10-01,19.1234
2010-10-04,19.0865
2010-10-05,19.4095
2010-10-06,19.2895
2010-10-07,19.0034
2010-10-08,18.9942
2010-10-11,19.188
2010-10-12,19.1049
2010-10-13,19.188
2010-10-14,19.1326
2010-10-15,19.1972
2010-10-18,19.0127
2010-10-19,18.4312
2010-10-20,18.7081
2010-10-21,18.9388
2010-10-22,19.0127
2010-10-25,19.3357
2010-10-26,18.9573
2010-10-27,18.8373
2010-10-28,19.0311
2010-10-29,18.9296
2010-11-01,18.6527
2010-11-02,18.7358
2010-11-03,18.8373
2010-11-04,19.1511
2010-11-05,19.188
2010-11-08,18.865
2010-11-09,18.865
2010-11-10,19.0311
2010-11-11,19.0127
2010-11-12,18.7081
2010-11-15,18.625
2010-11-16,18.5512
2010-11-17,18.4681
2010-11-18,18.9019
2010-11-19,19.7602
2010-11-22,19.8341
2010-11-23,19.9171
2010-11-24,20.554
2010-11-26,20.7478
2010-11-29,20.2494
2010-11-30,20.3048
2010-12-01,20.5724
2010-12-02,21.1262
2010-12-03,20.9139
2010-12-06,20.6924
2010-12-07,20.8032
2010-12-08,20.6001
2010-12-09,20.4894
2010-12-10,20.4524
2010-12-13,20.5355
2010-12-14,20.3048
2010-12-15,20.7386
2010-12-16,20.9693
2010-12-17,20.8216
2010-12-20,20.7478
2010-12-21,20.6459
2010-12-22,20.9239
2010-12-23,21.1277
2010-12-27,21.2204
2010-12-28,21.0999
2010-12-29,21.2297
2010-12-30,21.2204
2010-12-31,21.1277
2011-01-03,21.6189
2011-01-04,21.3131
2011-01-05,21.9339
2011-01-06,21.693
2011-01-07,21.7208
2011-01-10,21.415
2011-01-11,21.2019
2011-01-12,21.7486
2011-01-13,21.5355
2011-01-14,21.6744
2011-01-18,21.4706
2011-01-19,21.1741
2011-01-20,21.5447
2011-01-21,21.6467
2011-01-24,21.7671
2011-01-25,21.7115
2011-01-26,21.0536
2011-01-27,21.1833
2011-01-28,20.6644
2011-01-31,20.6644
2011-02-01,21.0721
2011-02-02,20.6922
2011-02-03,20.6922
2011-02-04,20.8683
2011-02-07,20.8405
2011-02-08,20.6181
2011-02-09,20.4883
2011-02-10,20.3864
2011-02-11,20.6088
2011-02-14,20.4513
2011-02-15,20.581
2011-02-16,20.3493
2011-02-17,19.9694
2011-02-18,19.9323
2011-02-22,19.6451
2011-02-23,19.3763
2011-02-24,19.2003
2011-02-25,19.4041
2011-02-28,19.7563
2011-03-01,19.3578
2011-03-02,19.3578
2011-03-03,19.5153
2011-03-04,18.9223
2011-03-07,18.6165
2011-03-08,18.7648
2011-03-09,18.8667
2011-03-10,18.7277
2011-03-11,18.8018
2011-03-14,18.737
2011-03-15,18.3663
2011-03-16,17.9122
2011-03-17,18.042
2011-03-18,18.4219
2011-03-21,18.5331
2011-03-22,18.3848
2011-03-23,18.301
2011-03-24,18.5152
2011-03-25,18.627
2011-03-28,18.4686
2011-03-29,18.2172
2011-03-30,18.3941
2011-03-31,18.0868
2011-04-01,18.6549
2011-04-04,18.9436
2011-04-05,19.0554
2011-04-06,19.1951
2011-04-07,19.2975
2011-04-08,18.8598
2011-04-11,18.8412
2011-04-12,18.6176
2011-04-13,18.6176
2011-04-14,18.6456
2011-04-15,18.6083
2011-04-18,18.7201
2011-04-19,18.8132
2011-04-20,19.2416
2011-04-21,19.2416
2011-04-25,18.9716
2011-04-26,19.5583
2011-04-27,19.8656
2011-04-28,19.6142
2011-04-29,19.698
2011-05-02,19.7725
2011-05-03,19.847
2011-05-04,19.549
2011-05-05,19.4745
2011-05-06,19.4652
2011-05-09,18.8691
2011-05-10,18.9902
2011-05-11,18.8412
2011-05-12,18.9995
2011-05-13,18.8505
2011-05-16,18.5618
2011-05-17,18.2917
2011-05-18,15.5535
2011-05-19,15.4511
2011-05-20,15.2648
2011-05-23,15.5349
2011-05-24,15.8143
2011-05-25,15.4511
2011-05-26,15.3207
2011-05-27,15.4231
2011-05-31,15.6466
2011-06-01,15.3859
2011-06-02,15.2927
2011-06-03,14.7525
2011-06-06,14.3893
2011-06-07,14.3055
2011-06-08,13.9516
2011-06-09,14.1379
2011-06-10,13.7746
2011-06-13,13.9516
2011-06-14,14.1937
2011-06-15,13.9795
2011-06-16,14.0075
2011-06-17,14.3055
2011-06-20,14.3521
2011-06-21,14.3986
2011-06-22,14.4924
2011-06-23,14.3236
2011-06-24,14.3518
2011-06-27,14.3799
2011-06-28,14.6049
2011-06-29,14.6142
2011-06-30,14.8111
2011-07-01,14.9142
2011-07-05,14.8673
2011-07-06,14.7455
2011-07-07,14.8861
2011-07-08,14.5955
2011-07-11,14.3049
2011-07-12,14.4642
2011-07-13,14.5205
2011-07-14,14.2486
2011-07-15,14.258
2011-07-18,14.183
2011-07-19,14.5392
2011-07-20,14.5861
2011-07-21,14.7548
2011-07-22,14.7455
2011-07-25,14.9423
2011-07-26,15.2892
2011-07-27,14.9611
2011-07-28,15.0267
2011-07-29,15.0642
2011-08-01,14.3236
2011-08-02,14.2674
2011-08-03,14.4268
2011-08-04,13.6581
2011-08-05,13.48
2011-08-08,12.3363
2011-08-09,12.3551
2011-08-10,11.6989
2011-08-11,12.2895
2011-08-12,12.655
2011-08-15,12.8332
2011-08-16,13.33
2011-08-17,13.3862
2011-08-18,12.7207
2011-08-19,12.7019
2011-08-22,12.955
2011-08-23,13.3675
2011-08-24,13.6018
2011-08-25,13.3956
2011-08-26,13.5831
2011-08-29,13.9206
2011-08-30,13.6581
2011-08-31,13.7893
2011-09-01,13.5268
2011-09-02,12.955
2011-09-06,12.7957
2011-09-07,13.405
2011-09-08,13.0581
2011-09-09,12.7394
2011-09-12,13.0019
2011-09-13,13.1987
2011-09-14,13.6956
2011-09-15,13.9768
2011-09-16,13.9206
2011-09-19,13.5737
2011-09-20,13.255
2011-09-21,12.7169
2011-09-22,12.4054
2011-09-23,12.4715
2011-09-26,12.6697
2011-09-27,12.9246
2011-09-28,12.9718
2011-09-29,12.9624
2011-09-30,12.5942
2011-10-03,12.0938
2011-10-04,12.5187
2011-10-05,13.0568
2011-10-06,13.5288
2011-10-07,13.4155
2011-10-10,13.7743
2011-10-11,13.576
2011-10-12,13.9631
2011-10-13,13.9348
2011-10-14,14.0292
2011-10-17,13.5194
2011-10-18,13.9254
2011-10-19,13.7649
2011-10-20,13.9442
2011-10-21,14.0386
2011-10-24,14.2369
2011-10-25,13.6327
2011-10-26,13.8215
2011-10-27,14.0009
2011-10-28,14.0198
2011-10-31,14.1425
2011-11-01,13.4722
2011-11-02,13.5666
2011-11-03,13.982
2011-11-04,14.0386
2011-11-07,14.067
2011-11-08,14.4352
2011-11-09,13.8593
2011-11-10,13.746
2011-11-11,14.5768
2011-11-14,14.5013
2011-11-15,13.9726
2011-11-16,13.5949
2011-11-17,13.2739
2011-11-18,13.3211
2011-11-21,13.2362
2011-11-22,13.3306
2011-11-23,13.104
2011-11-25,12.9907
2011-11-28,13.3023
2011-11-29,13.4816
2011-11-30,13.6138
2011-12-01,13.5194
2011-12-02,13.5572
2011-12-05,14.2936
2011-12-06,14.0481
2011-12-07,14.0481
2011-12-08,13.7177
2011-12-09,13.8498
2011-12-12,13.8876
2011-12-13,13.5194
2011-12-14,13.4061
2011-12-15,13.2267
2011-12-16,13.3023
2011-12-19,13.0096
2011-12-20,13.4155
2011-12-21,13.3583
2011-12-22,13.3773
2011-12-23,13.4819
2011-12-27,13.4629
2011-12-28,13.2157
2011-12-29,13.2537
2011-12-30,13.2157
2012-01-03,13.5199
2012-01-04,13.7386
2012-01-05,13.7196
2012-01-06,13.7862
2012-01-09,14.0999
2012-01-10,14.271
2012-01-11,14.2615
2012-01-12,14.3281
2012-01-13,14.1379
2012-01-17,14.271
2012-01-18,14.6989
2012-01-19,15.1648
2012-01-20,15.2218
2012-01-23,15.0317
2012-01-24,15.2408
2012-01-25,15.412
2012-01-26,15.1553
2012-01-27,15.2218
2012-01-30,14.4897
2012-01-31,13.9193
2012-02-01,13.9763
2012-02-02,13.7766
2012-02-03,14.0524
2012-02-06,14.1379
2012-02-07,14.214
2012-02-08,14.157
2012-02-09,13.9668
2012-02-10,14.0238
2012-02-13,14.1665
2012-02-14,14.157
2012-02-15,14.2806
2012-02-16,14.3946
2012-02-17,14.4232
2012-02-21,14.4137
2012-02-22,14.5087
2012-02-23,14.6038
2012-02-24,14.5087
2012-02-27,14.5182
2012-02-28,15.2313
2012-02-29,13.9288
2012-03-01,14.6323
2012-03-02,14.5943
2012-03-05,14.2901
2012-03-06,14.5753
2012-03-07,14.6418
2012-03-08,14.6133
2012-03-09,14.6323
2012-03-12,14.6323
2012-03-13,14.7559
2012-03-14,15.1743
2012-03-15,15.6782
2012-03-16,15.6116
2012-03-19,15.6687
2012-03-20,15.9444
2012-03-21,15.954
2012-03-22,16.0114
2012-03-23,15.8774
2012-03-26,16.1167
2012-03-27,15.8965
2012-03-28,15.8104
2012-03-29,15.8104
2012-03-30,15.485
2012-04-02,15.7913
2012-04-03,15.7721
2012-04-04,15.3797
2012-04-05,15.3606
2012-04-09,15.2266
2012-04-10,14.8247
2012-04-11,14.9586
2012-04-12,15.0065
2012-04-13,14.8534
2012-04-16,14.9874
2012-04-17,15.2936
2012-04-18,15.284
2012-04-19,14.9778
2012-04-20,14.9586
2012-04-23,14.662
2012-04-24,14.595
2012-04-25,14.7385
2012-04-26,14.8821
2012-04-27,15.0735
2012-04-30,14.7672
2012-05-01,14.4514
2012-05-02,14.595
2012-05-03,14.4897
2012-05-04,14.2409
2012-05-07,14.2217
2012-05-08,14.3461
2012-05-09,14.2983
2012-05-10,14.2983
2012-05-11,14.2887
2012-05-14,14.4418
2012-05-15,14.126
2012-05-16,13.3221
2012-05-17,12.6617
2012-05-18,12.499
2012-05-21,12.8053
2012-05-22,13.0063
2012-05-23,13.0637
2012-05-24,12.9106
2012-05-25,12.8244
2012-05-29,12.9871
2012-05-30,12.8053
2012-05-31,12.566
2012-06-01,12.2119
2012-06-04,12.2023
2012-06-05,12.1928
2012-06-06,12.3555
2012-06-07,12.2598
2012-06-08,12.2789
2012-06-11,12.0109
2012-06-12,12.2215
2012-06-13,11.9822
2012-06-14,12.0779
2012-06-15,12.1258
2012-06-18,12.1832
2012-06-19,12.4416
2012-06-20,12.5768
2012-06-21,12.1907
2012-06-22,12.3162
2012-06-25,11.8239
2012-06-26,12.1811
2012-06-27,12.21
2012-06-28,12.1618
2012-06-29,12.5575
2012-07-02,12.5575
2012-07-03,12.6926
2012-07-05,12.7119
2012-07-06,12.7602
2012-07-09,12.5672
2012-07-10,12.5189
2012-07-11,12.2679
2012-07-12,11.9977
2012-07-13,11.9687
2012-07-16,12.0846
2012-07-17,12.1907
2012-07-18,12.3355
2012-07-19,12.3259
2012-07-20,12.0266
2012-07-23,12.0556
2012-07-24,11.8819
2012-07-25,11.7178
2012-07-26,11.988
2012-07-27,12.0266
2012-07-30,12.2969
2012-07-31,12.2969
2012-08-01,12.2486
2012-08-02,12.0846
2012-08-03,12.4899
2012-08-06,12.6347
2012-08-07,12.8567
2012-08-08,12.8664
2012-08-09,12.8278
2012-08-10,12.9243
2012-08-13,12.8953
2012-08-14,13.0015
2012-08-15,11.1
2012-08-16,10.9552
2012-08-17,10.9456
2012-08-20,10.8587
2012-08-21,10.7912
2012-08-22,10.7332
2012-08-23,10.5981
2012-08-24,10.4726
2012-08-27,10.3182
2012-08-28,10.2989
2012-08-29,10.4919
2012-08-30,10.434
2012-08-31,10.5595
2012-09-04,10.4726
2012-09-05,10.7139
2012-09-06,11.0904
2012-09-07,11.2255
2012-09-10,10.8491
2012-09-11,11.0035
2012-09-12,11.129
2012-09-13,11.5537
2012-09-14,11.795
2012-09-17,11.5537
2012-09-18,11.5247
2012-09-19,11.7274
2012-09-20,11.9012
2012-09-21,11.9012
2012-09-24,11.9205
2012-09-25,11.351
2012-09-26,11.1168
2012-09-27,11.3701
2012-09-28,11.224
2012-10-01,11.3019
2012-10-02,11.1655
2012-10-03,11.0486
2012-10-04,11.2435
2012-10-05,11.3214
2012-10-08,11.3993
2012-10-09,11.3701
2012-10-10,11.1655
2012-10-11,11.1558
2012-10-12,10.8245
2012-10-15,10.9317
2012-10-16,11.0096
2012-10-17,11.2727
2012-10-18,11.2435
2012-10-19,10.9414
2012-10-22,11.1168
2012-10-23,11.0388
2012-10-24,10.9512
2012-10-25,11.1168
2012-10-26,11.146
2012-10-31,11.224
2012-11-01,11.3993
2012-11-02,11.1753
2012-11-05,11.2727
2012-11-06,11.4188
2012-11-07,11.3993
2012-11-08,10.9999
2012-11-09,10.8537
2012-11-12,10.805
2012-11-13,10.9219
2012-11-14,11.2435
2012-11-15,11.6332
2012-11-16,11.4481
2012-11-19,11.8962
2012-11-20,11.4286
2012-11-21,11.487
2012-11-23,11.5552
2012-11-26,11.4968
2012-11-27,11.4773
2012-11-28,11.6234
2012-11-29,11.4578
2012-11-30,11.4188
2012-12-03,11.146
2012-12-04,11.0486
2012-12-05,10.9999
2012-12-06,11.185
2012-12-07,11.107
2012-12-10,11.0388
2012-12-11,11.3799
2012-12-12,11.5078
2012-12-13,11.5865
2012-12-14,11.498
2012-12-17,11.5668
2012-12-18,11.8717
2012-12-19,11.9111
2012-12-20,11.5767
2012-12-21,11.3406
2012-12-24,11.0947
2012-12-26,10.9964
2012-12-27,11.0455
2012-12-28,10.9275
2012-12-31,11.1931
2013-01-02,11.2619
2013-01-03,11.557
2013-01-04,11.5766
2013-01-07,11.7832
2013-01-08,11.6062
2013-01-09,11.498
2013-01-10,11.5668
2013-01-11,11.7537
2013-01-14,11.9307
2013-01-15,12.1668
2013-01-16,12.3733
2013-01-17,12.5898
2013-01-18,12.7963
2013-01-22,12.8946
2013-01-23,12.7176
2013-01-24,12.6192
2013-01-25,12.7372
2013-01-28,13.1799
2013-01-29,13.4454
2013-01-30,13.2586
2013-01-31,13.2635
2013-02-01,13.2782
2013-02-04,13.111
2013-02-05,13.3225
2013-02-06,13.2586
2013-02-07,12.9291
2013-02-08,12.7865
2013-02-11,12.9439
2013-02-12,12.8258
2013-02-13,12.6685
2013-02-14,12.6585
2013-02-15,12.7274
2013-02-19,14.4192
2013-02-20,13.3963
2013-02-21,13.0619
2013-02-22,13.0422
2013-02-25,13.3373
2013-02-26,13.0028
2013-02-27,13.0274
2013-02-28,12.9586
2013-03-01,12.7865
2013-03-04,12.8356
2013-03-05,13.0324
2013-03-06,12.0685
2013-03-07,12.5405
2013-03-08,12.7372
2013-03-11,12.9143
2013-03-12,12.8061
2013-03-13,13.3569
2013-03-14,13.2586
2013-03-15,13.1799
2013-03-18,13.2291
2013-03-19,13.2291
2013-03-20,13.2586
2013-03-21,13.2487
2013-03-22,13.288
2013-03-25,13.2782
2013-03-26,13.209
2013-03-27,13.2686
2013-03-28,13.3182
2013-04-01,13.0701
2013-04-02,12.951
2013-04-03,12.9808
2013-04-04,13.2487
2013-04-05,13.0106
2013-04-08,13.2289
2013-04-09,13.348
2013-04-10,13.7449
2013-04-11,13.6953
2013-04-12,13.5862
2013-04-15,13.1396
2013-04-16,12.9907
2013-04-17,12.5342
2013-04-18,12.5937
2013-04-19,12.8518
2013-04-22,12.8815
2013-04-23,12.3059
2013-04-24,12.4449
2013-04-25,12.7922
2013-04-26,12.7426
2013-04-29,12.7922
2013-04-30,13.1296
2013-05-01,12.9709
2013-05-02,13.0403
2013-05-03,13.4174
2013-05-06,13.7549
2013-05-07,13.8045
2013-05-08,13.8442
2013-05-09,13.874
2013-05-10,13.9732
2013-05-13,14.0724
2013-05-14,14.3702
2013-05-15,14.3503
2013-05-16,14.2015
2013-05-17,14.3999
2013-05-20,14.5488
2013-05-21,14.6183
2013-05-22,15.045
2013-05-23,14.916
2013-05-24,14.8267
2013-05-28,14.8366
2013-05-29,14.8961
2013-05-30,14.8564
2013-05-31,14.8763
2013-06-03,14.648
2013-06-04,14.9855
2013-06-05,14.5686
2013-06-06,14.9061
2013-06-07,15.3824
2013-06-10,15.3824
2013-06-11,15.4023
2013-06-12,15.4519
2013-06-13,15.571
2013-06-14,15.9183
2013-06-17,16.2756
2013-06-18,16.3451
2013-06-19,15.9283
2013-06-20,15.4717
2013-06-21,15.4817
2013-06-24,15.2832
2013-06-25,15.7099
2013-06-26,15.7
2013-06-27,15.74
2013-06-28,15.9
2013-07-01,16.04
2013-07-02,16.29
2013-07-03,15.9
2013-07-05,15.98
2013-07-08,16.01
2013-07-09,16.31
2013-07-10,16.35
2013-07-11,16.69
2013-07-12,16.72
2013-07-15,16.65
2013-07-16,16.52
2013-07-17,16.55
2013-07-18,16.6
2013-07-19,16.45
2013-07-22,16.59
2013-07-23,16.55
2013-07-24,16.13
2013-07-25,16.48
2013-07-26,16.53
2013-07-29,16.51
2013-07-30,16.89
2013-07-31,17.02
2013-08-01,17.2
2013-08-02,17.0
2013-08-05,17.22
2013-08-06,17.08
2013-08-07,16.8
2013-08-08,16.87
2013-08-09,16.95
