date,close_price
1998-01-02,29.8504
1998-01-05,29.6864
1998-01-06,28.9516
1998-01-07,28.991
1998-01-08,28.991
1998-01-09,28.1315
1998-01-12,28.827
1998-01-13,28.7023
1998-01-14,28.7876
1998-01-15,28.5777
1998-01-16,28.991
1998-01-20,30.1784
1998-01-21,29.6077
1998-01-22,29.2796
1998-01-23,29.155
1998-01-26,29.2337
1998-01-27,29.5224
1998-01-28,29.1943
1998-01-29,29.155
1998-01-30,29.0697
1998-02-02,30.3031
1998-02-03,29.8504
1998-02-04,30.7557
1998-02-05,30.0997
1998-02-06,30.2637
1998-02-09,30.4277
1998-02-10,30.4671
1998-02-11,30.4277
1998-02-12,30.7951
1998-02-13,30.7098
1998-02-17,30.5917
1998-02-18,30.8345
1998-02-19,30.2637
1998-02-20,30.1784
1998-02-23,30.2637
1998-02-24,30.0997
1998-02-25,30.9198
1998-02-26,30.7557
1998-02-27,31.3659
1998-03-02,31.7398
1998-03-03,31.8579
1998-03-04,31.9038
1998-03-05,31.6601
1998-03-06,32.7734
1998-03-09,32.5297
1998-03-10,32.4045
1998-03-11,32.6944
1998-03-12,33.7616
1998-03-13,33.5178
1998-03-16,34.2556
1998-03-17,34.2161
1998-03-18,34.2952
1998-03-19,34.9144
1998-03-20,35.1647
1998-03-23,34.7497
1998-03-24,35.0
1998-03-25,34.6707
1998-03-26,34.7497
1998-03-27,35.1186
1998-03-30,35.4941
1998-03-31,36.6469
1998-04-01,36.3571
1998-04-02,36.726
1998-04-03,36.4361
1998-04-06,36.5613
1998-04-07,35.6588
1998-04-08,35.5732
1998-04-09,36.0277
1998-04-13,35.8235
1998-04-14,36.3176
1998-04-15,37.0949
1998-04-16,36.5613
1998-04-17,36.4361
1998-04-20,35.863
1998-04-21,35.6983
1998-04-22,35.3294
1998-04-23,34.1305
1998-04-24,34.1766
1998-04-27,33.1028
1998-04-28,33.3531
1998-04-29,33.4322
1998-04-30,33.722
1998-05-01,34.2556
1998-05-04,34.2556
1998-05-05,33.9262
1998-05-06,33.4717
1998-05-07,32.5297
1998-05-08,32.8591
1998-05-11,33.0237
1998-05-12,32.9381
1998-05-13,32.8591
1998-05-14,32.6944
1998-05-15,32.6483
1998-05-18,32.1542
1998-05-19,32.0356
1998-05-20,32.4045
1998-05-21,32.444
1998-05-22,31.4164
1998-05-26,31.0475
1998-05-27,30.672
1998-05-28,30.3887
1998-05-29,31.3307
1998-06-01,31.3768
1998-06-02,30.9618
1998-06-03,30.5073
1998-06-04,30.6861
1998-06-05,31.2617
1998-06-08,31.222
1998-06-09,30.8912
1998-06-10,30.4347
1998-06-11,29.8987
1998-06-12,30.1038
1998-06-15,29.9384
1998-06-16,29.1114
1998-06-17,29.6076
1998-06-18,29.5679
1998-06-19,28.9857
1998-06-22,27.6228
1998-06-23,28.946
1998-06-24,27.7882
1998-06-25,27.7882
1998-06-26,27.4177
1998-06-29,27.2125
1998-06-30,27.4573
1998-07-01,27.4573
1998-07-02,27.0868
1998-07-06,27.5434
1998-07-07,27.2919
1998-07-08,28.0793
1998-07-09,27.5434
1998-07-10,27.0868
1998-07-13,26.67
1998-07-14,26.9214
1998-07-15,28.5358
1998-07-16,28.9063
1998-07-17,30.1435
1998-07-20,29.773
1998-07-21,29.4025
1998-07-22,29.859
1998-07-23,29.5282
1998-07-24,29.3165
1998-07-27,28.9857
1998-07-28,28.6549
1998-07-29,28.6152
1998-07-30,29.032
1998-07-31,28.9063
1998-08-03,28.4895
1998-08-04,28.2447
1998-08-05,28.5755
1998-08-06,29.1114
1998-08-07,29.3165
1998-08-10,28.3241
1998-08-11,28.5358
1998-08-12,28.205
1998-08-13,28.0793
1998-08-14,27.2522
1998-08-17,27.7485
1998-08-18,27.8279
1998-08-19,28.4498
1998-08-20,28.3241
1998-08-21,27.7088
1998-08-24,28.4101
1998-08-25,28.119
1998-08-26,27.6228
1998-08-27,26.8354
1998-08-28,27.2125
1998-08-31,26.0084
1998-09-01,26.1738
1998-09-02,25.6379
1998-09-03,25.4478
1998-09-04,25.4878
1998-09-08,26.3194
1998-09-09,26.3194
1998-09-10,25.4478
1998-09-11,25.368
1998-09-14,26.2395
1998-09-15,25.867
1998-09-16,26.1131
1998-09-17,26.0732
1998-09-18,25.1551
1998-09-21,23.7846
1998-09-22,21.456
1998-09-23,18.6285
1998-09-24,18.5486
1998-09-25,19.0476
1998-09-28,18.7948
1998-09-29,19.4601
1998-09-30,19.7129
1998-10-01,18.715
1998-10-02,18.715
1998-10-05,17.7569
1998-10-06,17.4642
1998-10-07,16.6326
1998-10-08,16.2999
1998-10-09,16.2999
1998-10-12,17.1315
1998-10-13,16.6725
1998-10-14,16.9253
1998-10-15,17.5507
1998-10-16,18.1295
1998-10-19,17.6704
1998-10-20,19.1674
1998-10-21,18.7948
1998-10-22,19.6264
1998-10-23,19.3803
1998-10-26,18.9611
1998-10-27,19.001
1998-10-28,19.1674
1998-10-29,19.5
1998-10-30,19.9192
1998-11-02,21.0834
1998-11-03,20.957
1998-11-04,21.0834
1998-11-05,21.6623
1998-11-06,20.8772
1998-11-09,20.6244
1998-11-10,20.3782
1998-11-11,20.2119
1998-11-12,20.3782
1998-11-13,20.2518
1998-11-16,20.2518
1998-11-17,19.9192
1998-11-18,19.7528
1998-11-19,20.0855
1998-11-20,20.2917
1998-11-23,20.5845
1998-11-24,20.6015
1998-11-25,20.6417
1998-11-27,20.7288
1998-11-30,20.4742
1998-12-01,20.3938
1998-12-02,20.434
1998-12-03,20.2665
1998-12-04,20.5613
1998-12-07,20.8561
1998-12-08,20.7288
1998-12-09,20.8092
1998-12-10,20.5211
1998-12-11,20.0589
1998-12-14,19.3487
1998-12-15,18.8462
1998-12-16,18.8462
1998-12-17,18.7591
1998-12-18,18.5916
1998-12-21,18.7189
1998-12-22,18.1293
1998-12-23,18.7189
1998-12-24,18.6787
1998-12-28,18.7189
1998-12-29,18.7591
1998-12-30,18.6787
1998-12-31,18.6318
1999-01-04,18.6318
1999-01-05,18.7591
1999-01-06,18.7189
1999-01-07,18.4241
1999-01-08,18.4643
1999-01-11,18.7189
1999-01-12,18.5112
1999-01-13,18.0891
1999-01-14,17.4594
1999-01-15,18.0891
1999-01-19,17.9217
1999-01-20,17.6269
1999-01-21,18.049
1999-01-22,17.9619
1999-01-25,17.7944
1999-01-26,17.6738
1999-01-27,17.5867
1999-01-28,17.2115
1999-01-29,16.9167
1999-02-01,16.9569
1999-02-02,16.709
1999-02-03,16.9167
1999-02-04,17.0842
1999-02-05,17.2919
1999-02-08,17.1713
1999-02-09,16.7894
1999-02-10,17.0038
1999-02-11,17.044
1999-02-12,16.9569
1999-02-16,16.9167
1999-02-17,16.6688
1999-02-18,16.4142
1999-02-19,16.3338
1999-02-22,16.6688
1999-02-23,16.6219
1999-02-24,16.6219
1999-02-25,16.9167
1999-02-26,16.2869
1999-03-01,16.374
1999-03-02,16.374
1999-03-03,16.4142
1999-03-04,16.688
1999-03-05,16.4311
1999-03-08,16.7691
1999-03-09,16.8164
1999-03-10,17.0259
1999-03-11,16.8975
1999-03-12,16.857
1999-03-15,16.7285
1999-03-16,16.8975
1999-03-17,16.8975
1999-03-18,16.9854
1999-03-19,16.8164
1999-03-22,16.7285
1999-03-23,16.1811
1999-03-24,16.1811
1999-03-25,16.4311
1999-03-26,16.4311
1999-03-29,16.6474
1999-03-30,16.9381
1999-03-31,17.3639
1999-04-01,17.3639
1999-04-05,18.2493
1999-04-06,18.2899
1999-04-07,18.2493
1999-04-08,18.1682
1999-04-09,18.4183
1999-04-12,19.1347
1999-04-13,18.5873
1999-04-14,19.1347
1999-04-15,20.277
1999-04-16,22.2642
1999-04-19,22.0546
1999-04-20,21.3314
1999-04-21,20.9529
1999-04-22,20.8245
1999-04-23,20.7434
1999-04-26,20.7028
1999-04-27,20.7028
1999-04-28,20.9529
1999-04-29,20.9124
1999-04-30,20.5338
1999-05-03,21.3314
1999-05-04,21.6694
1999-05-05,21.8383
1999-05-06,21.5004
1999-05-07,21.8857
1999-05-10,22.5616
1999-05-11,22.6427
1999-05-12,22.1357
1999-05-13,21.8383
1999-05-14,21.7572
1999-05-17,22.0546
1999-05-18,21.8383
1999-05-19,22.0952
1999-05-20,22.5616
1999-05-21,22.8995
1999-05-24,22.8995
1999-05-25,22.4331
1999-05-26,21.9262
1999-05-27,21.4598
1999-05-28,22.0073
1999-06-01,22.4737
1999-06-02,22.5142
1999-06-03,22.368
1999-06-04,22.538
1999-06-07,22.538
1999-06-08,22.7489
1999-06-09,22.6605
1999-06-10,22.4088
1999-06-11,21.8577
1999-06-14,22.6197
1999-06-15,22.538
1999-06-16,22.4496
1999-06-17,22.3203
1999-06-18,22.2795
1999-06-21,22.1095
1999-06-22,21.7285
1999-06-23,21.8577
1999-06-24,21.5584
1999-06-25,21.6401
1999-06-28,21.2591
1999-06-29,21.47
1999-06-30,21.9394
1999-07-01,21.5584
1999-07-02,21.9802
1999-07-06,21.8577
1999-07-07,21.3883
1999-07-08,20.9598
1999-07-09,21.0482
1999-07-12,21.089
1999-07-13,21.2999
1999-07-14,20.9189
1999-07-15,20.3679
1999-07-16,20.6196
1999-07-19,20.0278
1999-07-20,20.0686
1999-07-21,19.9869
1999-07-22,19.7693
1999-07-23,20.1978
1999-07-26,19.9393
1999-07-27,19.0073
1999-07-28,19.1774
1999-07-29,19.0073
1999-07-30,19.0073
1999-08-02,19.1774
1999-08-03,18.9189
1999-08-04,18.327
1999-08-05,18.3679
1999-08-06,17.6876
1999-08-09,17.8576
1999-08-10,17.3474
1999-08-11,17.5583
1999-08-12,17.4359
1999-08-13,17.4767
1999-08-16,17.3882
1999-08-17,17.2182
1999-08-18,17.0957
1999-08-19,17.1773
1999-08-20,17.1365
1999-08-23,17.2658
1999-08-24,17.3882
1999-08-25,17.6467
1999-08-26,17.9869
1999-08-27,17.8168
1999-08-30,17.8985
1999-08-31,17.8985
1999-09-01,18.3679
1999-09-02,18.4361
1999-09-03,18.5184
1999-09-07,18.004
1999-09-08,17.7914
1999-09-09,17.8325
1999-09-10,17.6611
1999-09-13,17.3593
1999-09-14,17.3593
1999-09-15,17.5307
1999-09-16,17.4896
1999-09-17,17.6199
1999-09-20,17.2358
1999-09-21,17.3593
1999-09-22,17.4073
1999-09-23,17.1055
1999-09-24,16.8037
1999-09-27,17.0644
1999-09-28,16.9752
1999-09-29,16.8037
1999-09-30,17.1878
1999-10-01,16.8929
1999-10-04,17.0644
1999-10-05,16.7626
1999-10-06,16.6323
1999-10-07,16.4608
1999-10-08,16.207
1999-10-11,16.3305
1999-10-12,15.7749
1999-10-13,15.7338
1999-10-14,15.9464
1999-10-15,15.432
1999-10-18,15.4731
1999-10-19,15.2194
1999-10-20,17.4484
1999-10-21,16.8449
1999-10-22,17.2358
1999-10-25,17.7502
1999-10-26,18.731
1999-10-27,18.5595
1999-10-28,18.5184
1999-10-29,19.0739
1999-11-01,18.9025
1999-11-02,18.5595
1999-11-03,18.6487
1999-11-04,18.6487
1999-11-05,18.8613
1999-11-08,18.9505
1999-11-09,20.1507
1999-11-10,20.8366
1999-11-11,20.8778
1999-11-12,21.303
1999-11-15,20.7475
1999-11-16,22.6336
1999-11-17,22.5033
1999-11-18,22.5924
1999-11-19,22.0369
1999-11-22,21.6939
1999-11-23,21.4525
1999-11-24,21.7564
1999-11-26,21.2384
1999-11-29,21.4111
1999-11-30,21.5423
1999-12-01,21.5009
1999-12-02,21.4111
1999-12-03,21.6252
1999-12-06,22.1916
1999-12-07,21.8462
1999-12-08,21.9705
1999-12-09,21.6252
1999-12-10,21.5009
1999-12-13,21.5423
1999-12-14,21.4111
1999-12-15,20.7204
1999-12-16,20.5477
1999-12-17,20.5892
1999-12-20,19.9468
1999-12-21,20.5477
1999-12-22,20.7618
1999-12-23,20.679
1999-12-27,20.3751
1999-12-28,20.7204
1999-12-29,20.679
1999-12-30,20.8516
1999-12-31,20.8102
2000-01-03,19.8156
2000-01-04,19.3805
2000-01-05,19.1664
2000-01-06,19.0835
2000-01-07,19.4288
2000-01-10,19.2078
2000-01-11,19.0835
2000-01-12,19.7742
2000-01-13,19.8571
2000-01-14,19.2976
2000-01-18,18.6069
2000-01-19,19.0835
2000-01-20,18.6898
2000-01-21,17.9991
2000-01-24,17.6123
2000-01-25,17.3982
2000-01-26,16.9631
2000-01-27,17.4811
2000-01-28,17.0943
2000-01-31,17.3982
2000-02-01,17.3084
2000-02-02,17.8748
2000-02-03,18.0475
2000-02-04,17.6123
2000-02-07,17.2256
2000-02-08,17.1841
2000-02-09,16.7904
2000-02-10,16.4451
2000-02-11,16.0169
2000-02-14,16.3622
2000-02-15,17.0943
2000-02-16,16.9217
2000-02-17,17.0115
2000-02-18,16.3208
2000-02-22,16.7904
2000-02-23,16.231
2000-02-24,15.713
2000-02-25,15.713
2000-02-28,15.8028
2000-02-29,15.8442
2000-03-01,15.8856
2000-03-02,16.3036
2000-03-03,16.9103
2000-03-06,16.478
2000-03-07,16.0386
2000-03-08,16.3873
2000-03-09,16.6523
2000-03-10,17.001
2000-03-13,16.6523
2000-03-14,16.736
2000-03-15,17.5658
2000-03-16,18.57
2000-03-17,18.3468
2000-03-20,17.782
2000-03-21,17.259
2000-03-22,17.3915
2000-03-23,17.524
2000-03-24,17.7401
2000-03-27,17.1753
2000-03-28,17.3008
2000-03-29,17.9981
2000-03-30,18.4793
2000-03-31,18.4375
2000-04-03,18.5211
2000-04-04,18.305
2000-04-05,18.5211
2000-04-06,19.0023
2000-04-07,18.6118
2000-04-10,18.2631
2000-04-11,18.7443
2000-04-12,19.7415
2000-04-13,19.5671
2000-04-14,19.093
2000-04-17,19.7903
2000-04-18,19.6996
2000-04-19,19.5253
2000-04-20,20.1808
2000-04-24,20.4388
2000-04-25,20.8363
2000-04-26,20.8781
2000-04-27,20.7875
2000-04-28,20.5713
2000-05-01,21.0525
2000-05-02,20.92
2000-05-03,20.397
2000-05-04,20.7038
2000-05-05,20.8363
2000-05-08,20.7456
2000-05-09,20.5295
2000-05-10,20.139
2000-05-11,20.2645
2000-05-12,20.1808
2000-05-15,20.0483
2000-05-16,20.0901
2000-05-17,19.7415
2000-05-18,19.616
2000-05-19,20.0901
2000-05-22,20.3551
2000-05-23,20.4876
2000-05-24,19.874
2000-05-25,19.3928
2000-05-26,19.0023
2000-05-30,19.4416
2000-05-31,18.7861
2000-06-01,19.2505
2000-06-02,20.2138
2000-06-05,19.6021
2000-06-06,19.7779
2000-06-07,19.2505
2000-06-08,19.0256
2000-06-09,19.117
2000-06-12,18.9412
2000-06-13,18.9412
2000-06-14,18.8498
2000-06-15,18.5475
2000-06-16,18.1959
2000-06-19,17.9709
2000-06-20,17.7108
2000-06-21,17.9287
2000-06-22,17.8865
2000-06-23,17.8865
2000-06-26,18.1467
2000-06-27,18.4561
2000-06-28,17.4928
2000-06-29,16.8319
2000-06-30,16.6983
2000-07-03,17.1835
2000-07-05,17.0921
2000-07-06,16.9655
2000-07-07,17.0921
2000-07-10,17.2256
2000-07-11,17.4928
2000-07-12,17.317
2000-07-13,17.6686
2000-07-14,17.6686
2000-07-17,17.4928
2000-07-18,17.4928
2000-07-19,17.4014
2000-07-20,18.0201
2000-07-21,18.2803
2000-07-24,18.4139
2000-07-25,18.0623
2000-07-26,18.0201
2000-07-27,18.5475
2000-07-28,18.1045
2000-07-31,18.3717
2000-08-01,18.1959
2000-08-02,18.674
2000-08-03,18.2803
2000-08-04,18.5896
2000-08-07,19.0256
2000-08-08,19.0748
2000-08-09,19.3771
2000-08-10,19.1591
2000-08-11,19.9044
2000-08-14,19.9536
2000-08-15,19.6021
2000-08-16,19.5107
2000-08-17,19.6021
2000-08-18,19.6443
2000-08-21,19.4685
2000-08-22,19.4263
2000-08-23,19.2505
2000-08-24,19.8622
2000-08-25,19.82
2000-08-28,19.3771
2000-08-29,19.6443
2000-08-30,18.9412
2000-08-31,19.0129
2000-09-01,18.3959
2000-09-05,19.0129
2000-09-06,19.1051
2000-09-07,18.8356
2000-09-08,18.3533
2000-09-11,18.3959
2000-09-12,18.176
2000-09-13,18.1264
2000-09-14,18.176
2000-09-15,17.6442
2000-09-18,17.0626
2000-09-19,16.8854
2000-09-20,16.7577
2000-09-21,16.6655
2000-09-22,16.4031
2000-09-25,16.7081
2000-09-26,16.2258
2000-09-27,16.3109
2000-09-28,16.8003
2000-09-29,16.3535
2000-10-02,15.8712
2000-10-03,16.4031
2000-10-04,16.0485
2000-10-05,15.6018
2000-10-06,15.0699
2000-10-09,15.467
2000-10-10,15.1621
2000-10-11,14.6727
2000-10-12,13.9636
2000-10-13,14.4529
2000-10-16,14.2756
2000-10-17,13.6515
2000-10-18,14.226
2000-10-19,14.85
2000-10-20,15.5167
2000-10-23,15.6018
2000-10-24,16.3535
2000-10-25,16.1762
2000-10-26,16.7081
2000-10-27,17.2399
2000-10-30,18.3959
2000-10-31,18.8852
2000-11-01,18.481
2000-11-02,19.4171
2000-11-03,19.1476
2000-11-06,19.1051
2000-11-07,19.0129
2000-11-08,18.9703
2000-11-09,18.2611
2000-11-10,17.7718
2000-11-13,17.9491
2000-11-14,17.864
2000-11-15,17.8215
2000-11-16,17.552
2000-11-17,17.7293
2000-11-20,17.4172
2000-11-21,17.7604
2000-11-22,18.0324
2000-11-24,18.3474
2000-11-27,18.5693
2000-11-28,18.7912
2000-11-29,19.1062
2000-11-30,19.3281
2000-12-01,19.1492
2000-12-04,19.2422
2000-12-05,20.7598
2000-12-06,20.5809
2000-12-07,19.729
2000-12-08,20.0869
2000-12-11,20.2659
2000-12-12,20.4019
2000-12-13,19.865
2000-12-14,19.6431
2000-12-15,19.1921
2000-12-18,20.223
2000-12-19,20.7169
2000-12-20,20.5379
2000-12-21,21.2538
2000-12-22,21.6547
2000-12-26,22.0126
2000-12-27,22.1916
2000-12-28,22.1916
2000-12-29,22.2846
2001-01-02,22.0126
2001-01-03,22.1057
2001-01-04,22.1916
2001-01-05,21.7907
2001-01-08,21.3397
2001-01-09,21.4328
2001-01-10,21.3898
2001-01-11,21.4757
2001-01-12,21.2967
2001-01-16,21.4757
2001-01-17,21.5187
2001-01-18,21.2538
2001-01-19,20.6739
2001-01-22,20.4019
2001-01-23,20.4449
2001-01-24,21.4757
2001-01-25,21.8766
2001-01-26,23.1794
2001-01-29,23.2725
2001-01-30,23.6233
2001-01-31,24.5181
2001-02-01,24.1244
2001-02-02,23.8881
2001-02-05,24.3821
2001-02-06,24.6183
2001-02-07,24.5324
2001-02-08,25.2697
2001-02-09,24.5825
2001-02-12,24.8402
2001-02-13,25.7207
2001-02-14,25.6921
2001-02-15,26.3936
2001-02-16,25.8281
2001-02-20,26.1001
2001-02-21,26.0644
2001-02-22,25.1982
2001-02-23,24.5682
2001-02-26,25.2769
2001-02-27,25.7351
2001-02-28,24.9691
2001-03-01,25.3298
2001-03-02,26.281
2001-03-05,26.7854
2001-03-06,26.9151
2001-03-07,27.0881
2001-03-08,27.3835
2001-03-09,26.7422
2001-03-12,26.4035
2001-03-13,25.9423
2001-03-14,25.2217
2001-03-15,24.4939
2001-03-16,23.4345
2001-03-19,24.0543
2001-03-20,24.393
2001-03-21,23.8165
2001-03-22,23.1895
2001-03-23,23.6075
2001-03-26,24.184
2001-03-27,23.6219
2001-03-28,23.3265
2001-03-29,23.485
2001-03-30,23.7444
2001-04-02,23.4562
2001-04-03,22.8508
2001-04-04,23.1607
2001-04-05,24.4434
2001-04-06,23.9174
2001-04-09,23.8093
2001-04-10,24.6092
2001-04-11,23.6723
2001-04-12,23.8021
2001-04-16,23.7156
2001-04-17,23.4778
2001-04-18,25.3586
2001-04-19,24.9767
2001-04-20,24.5443
2001-04-23,24.6019
2001-04-24,24.3641
2001-04-25,24.638
2001-04-26,25.0487
2001-04-27,25.6901
2001-04-30,26.0576
2001-05-01,25.7621
2001-05-02,26.0072
2001-05-03,25.8702
2001-05-04,26.0072
2001-05-07,25.618
2001-05-08,25.4739
2001-05-09,25.4018
2001-05-10,26.0144
2001-05-11,25.6973
2001-05-14,25.9135
2001-05-15,26.1873
2001-05-16,27.3043
2001-05-17,27.2466
2001-05-18,27.4124
2001-05-21,27.5637
2001-05-22,27.1385
2001-05-23,26.8143
2001-05-24,26.807
2001-05-25,26.7134
2001-05-29,27.261
2001-05-30,27.1385
2001-05-31,27.4793
2001-06-01,27.762
2001-06-04,27.7403
2001-06-05,28.7046
2001-06-06,28.1318
2001-06-07,28.6103
2001-06-08,29.0236
2001-06-11,29.2556
2001-06-12,29.0526
2001-06-13,29.0309
2001-06-14,28.6828
2001-06-15,28.9294
2001-06-18,29.3064
2001-06-19,29.2411
2001-06-20,29.8429
2001-06-21,30.0169
2001-06-22,29.9082
2001-06-25,29.3934
2001-06-26,29.5964
2001-06-27,30.0242
2001-06-28,30.1982
2001-06-29,30.3577
2001-07-02,30.2779
2001-07-03,30.452
2001-07-05,30.481
2001-07-06,29.9807
2001-07-09,30.2344
2001-07-10,29.9517
2001-07-11,29.6472
2001-07-12,30.2489
2001-07-13,30.4592
2001-07-16,28.7698
2001-07-17,30.5317
2001-07-18,30.452
2001-07-19,30.626
2001-07-20,30.0024
2001-07-23,30.0749
2001-07-24,29.7632
2001-07-25,30.3795
2001-07-26,30.8217
2001-07-27,30.9885
2001-07-30,30.9595
2001-07-31,31.612
2001-08-01,31.7643
2001-08-02,31.873
2001-08-03,32.2211
2001-08-06,32.6778
2001-08-07,32.9534
2001-08-08,32.5183
2001-08-09,32.4313
2001-08-10,32.8809
2001-08-13,32.5401
2001-08-14,32.4821
2001-08-15,31.786
2001-08-16,31.206
2001-08-17,30.7855
2001-08-20,30.4665
2001-08-21,30.3577
2001-08-22,30.742
2001-08-23,30.7565
2001-08-24,30.945
2001-08-27,30.858
2001-08-28,30.481
2001-08-29,30.423
2001-08-30,30.1532
2001-08-31,30.5907
2001-09-04,31.2324
2001-09-05,31.4074
2001-09-06,31.0647
2001-09-07,30.4376
2001-09-10,29.9344
2001-09-17,27.0613
2001-09-18,28.0749
2001-09-19,26.9592
2001-09-20,25.1653
2001-09-21,24.3851
2001-09-24,26.6456
2001-09-25,26.6821
2001-09-26,25.705
2001-09-27,25.0632
2001-09-28,26.5946
2001-10-01,25.6685
2001-10-02,26.5581
2001-10-03,27.8926
2001-10-04,27.7468
2001-10-05,28.228
2001-10-08,27.7686
2001-10-09,27.2509
2001-10-10,28.6656
2001-10-11,29.0083
2001-10-12,28.702
2001-10-15,28.3812
2001-10-16,28.0385
2001-10-17,27.4624
2001-10-18,28.3447
2001-10-19,28.7823
2001-10-22,29.5625
2001-10-23,29.176
2001-10-24,29.6719
2001-10-25,29.4896
2001-10-26,28.9062
2001-10-29,28.0822
2001-10-30,27.7541
2001-10-31,28.0312
2001-11-01,28.0603
2001-11-02,28.5781
2001-11-05,28.7312
2001-11-06,29.6136
2001-11-07,29.7157
2001-11-08,29.5844
2001-11-09,29.5698
2001-11-12,29.3
2001-11-13,29.9636
2001-11-14,30.3282
2001-11-15,30.3792
2001-11-16,30.2553
2001-11-19,30.7074
2001-11-20,30.5093
2001-11-21,30.7073
2001-11-23,30.9347
2001-11-26,30.8687
2001-11-27,30.7367
2001-11-28,30.4286
2001-11-29,30.744
2001-11-30,30.678
2001-12-03,30.4653
2001-12-04,31.0153
2001-12-05,32.1668
2001-12-06,32.1448
2001-12-07,31.9174
2001-12-10,33.3989
2001-12-11,33.2302
2001-12-12,32.9588
2001-12-13,32.4455
2001-12-14,32.8562
2001-12-17,33.4942
2001-12-18,33.5602
2001-12-19,33.5382
2001-12-20,33.0835
2001-12-21,33.0615
2001-12-24,33.3695
2001-12-26,34.0809
2001-12-27,34.1323
2001-12-28,34.1103
2001-12-31,34.1616
2002-01-02,33.6996
2002-01-03,32.9295
2002-01-04,32.7828
2002-01-07,32.3795
2002-01-08,31.8587
2002-01-09,31.7927
2002-01-10,31.5214
2002-01-11,31.0227
2002-01-14,30.5313
2002-01-15,30.0473
2002-01-16,29.5339
2002-01-17,30.6046
2002-01-18,30.5826
2002-01-22,30.7587
2002-01-23,30.9713
2002-01-24,31.162
2002-01-25,31.7121
2002-01-28,32.0934
2002-01-29,31.6021
2002-01-30,32.1228
2002-01-31,32.5188
2002-02-01,32.1228
2002-02-04,32.0348
2002-02-05,31.6094
2002-02-06,31.9981
2002-02-07,31.7707
2002-02-08,31.8074
2002-02-11,33.5822
2002-02-12,33.3842
2002-02-13,33.6042
2002-02-14,33.6556
2002-02-15,34.1909
2002-02-19,34.0956
2002-02-20,33.6116
2002-02-21,33.8903
2002-02-22,33.5382
2002-02-25,34.587
2002-02-26,36.7212
2002-02-27,37.2492
2002-02-28,37.205
2002-03-01,36.9398
2002-03-04,38.2809
2002-03-05,37.5735
2002-03-06,37.2861
2002-03-07,36.6008
2002-03-08,36.4239
2002-03-11,36.1808
2002-03-12,37.0945
2002-03-13,36.6892
2002-03-14,36.0702
2002-03-15,35.9229
2002-03-18,35.7534
2002-03-19,35.7313
2002-03-20,35.5249
2002-03-21,34.3459
2002-03-22,33.7122
2002-03-25,32.5406
2002-03-26,33.8006
2002-03-27,34.0733
2002-03-28,34.0807
2002-04-01,33.3806
2002-04-02,33.2038
2002-04-03,34.3386
2002-04-04,34.8765
2002-04-05,36.1881
2002-04-08,36.8661
2002-04-09,36.9324
2002-04-10,37.4556
2002-04-11,36.446
2002-04-12,36.6671
2002-04-15,36.4608
2002-04-16,36.9398
2002-04-17,36.3502
2002-04-18,35.8418
2002-04-19,36.0039
2002-04-22,35.127
2002-04-23,35.6871
2002-04-24,35.5102
2002-04-25,35.7902
2002-04-26,35.0533
2002-04-29,33.7343
2002-04-30,34.1617
2002-05-01,33.6606
2002-05-02,34.6923
2002-05-03,34.4638
2002-05-06,33.4101
2002-05-07,33.9038
2002-05-08,34.4344
2002-05-09,34.3238
2002-05-10,32.0837
2002-05-13,31.4132
2002-05-14,32.7322
2002-05-15,32.4595
2002-05-16,32.0395
2002-05-17,31.9732
2002-05-20,31.6269
2002-05-21,31.4721
2002-05-22,31.0521
2002-05-23,31.5605
2002-05-24,31.4353
2002-05-28,30.7942
2002-05-29,30.5805
2002-05-30,30.907
2002-05-31,31.5222
2002-06-03,30.7588
2002-06-04,29.9213
2002-06-05,30.4549
2002-06-06,30.618
2002-06-07,32.0707
2002-06-10,32.2411
2002-06-11,31.8706
2002-06-12,31.8409
2002-06-13,31.4259
2002-06-14,30.9663
2002-06-17,31.3443
2002-06-18,31.5518
2002-06-19,31.6037
2002-06-20,31.2035
2002-06-21,30.8477
2002-06-24,31.122
2002-06-25,31.0256
2002-06-26,30.3734
2002-06-27,30.7588
2002-06-28,30.4179
2002-07-01,30.0769
2002-07-02,30.7069
2002-07-03,30.6773
2002-07-05,31.8409
2002-07-08,32.0114
2002-07-09,31.6704
2002-07-10,31.3147
2002-07-11,30.8626
2002-07-12,30.1733
2002-07-15,29.9435
2002-07-16,27.6977
2002-07-17,27.1196
2002-07-18,26.8306
2002-07-19,26.0153
2002-07-22,25.0666
2002-07-23,25.237
2002-07-24,26.7416
2002-07-25,26.3859
2002-07-26,25.5632
2002-07-29,27.2753
2002-07-30,27.1196
2002-07-31,26.749
2002-08-01,26.4155
2002-08-02,25.4594
2002-08-05,24.7775
2002-08-06,25.9782
2002-08-07,26.2006
2002-08-08,26.5193
2002-08-09,26.3636
2002-08-12,26.0079
2002-08-13,25.5483
2002-08-14,25.6002
2002-08-15,26.0894
2002-08-16,25.956
2002-08-19,26.6156
2002-08-20,26.4674
2002-08-21,26.7268
2002-08-22,27.3271
2002-08-23,26.6008
2002-08-26,26.712
2002-08-27,26.5711
2002-08-28,26.1042
2002-08-29,25.9811
2002-08-30,26.0333
2002-09-03,25.1076
2002-09-04,25.5854
2002-09-05,25.451
2002-09-06,26.0557
2002-09-09,25.8318
2002-09-10,26.1826
2002-09-11,26.2797
2002-09-12,25.5779
2002-09-13,25.1374
2002-09-16,24.7492
2002-09-17,24.2639
2002-09-18,23.8832
2002-09-19,23.3083
2002-09-20,23.6069
2002-09-23,23.4128
2002-09-24,22.4871
2002-09-25,23.256
2002-09-26,24.3461
2002-09-27,23.928
2002-09-30,24.3834
2002-10-01,25.2046
2002-10-02,24.5028
2002-10-03,24.0549
2002-10-04,23.7563
2002-10-07,23.2187
2002-10-08,23.592
2002-10-09,22.7857
2002-10-10,21.3075
2002-10-11,22.0466
2002-10-14,21.2627
2002-10-15,22.8977
2002-10-16,21.9495
2002-10-17,23.2934
2002-10-18,23.1889
2002-10-21,24.361
2002-10-22,23.7637
2002-10-23,24.3311
2002-10-24,24.3386
2002-10-25,24.5626
2002-10-28,24.2042
2002-10-29,24.1967
2002-10-30,24.1818
2002-10-31,24.1743
2002-11-01,24.5775
2002-11-04,24.8537
2002-11-05,24.9806
2002-11-06,25.5033
2002-11-07,24.5327
2002-11-08,24.4804
2002-11-11,23.8458
2002-11-12,24.0101
2002-11-13,23.7339
2002-11-14,24.3834
2002-11-15,24.6671
2002-11-18,24.8164
2002-11-19,24.6298
2002-11-20,25.0846
2002-11-21,26.296
2002-11-22,26.296
2002-11-25,26.4314
2002-11-26,26.0176
2002-11-27,26.9505
2002-11-29,27.0408
2002-12-02,26.8452
2002-12-03,26.1455
2002-12-04,26.2057
2002-12-05,26.0627
2002-12-06,26.3637
2002-12-09,25.664
2002-12-10,25.852
2002-12-11,25.7693
2002-12-12,26.0251
2002-12-13,25.5586
2002-12-16,26.1756
2002-12-17,26.0778
2002-12-18,25.8069
2002-12-19,26.0401
2002-12-20,26.2057
2002-12-23,26.4013
2002-12-24,26.2583
2002-12-26,26.4765
2002-12-27,26.0778
2002-12-30,25.9875
2002-12-31,26.0401
2003-01-02,27.0709
2003-01-03,25.4006
2003-01-06,25.5511
2003-01-07,25.2727
2003-01-08,24.4376
2003-01-09,24.8062
2003-01-10,24.257
2003-01-13,23.8432
2003-01-14,23.783
2003-01-15,23.5422
2003-01-16,23.9335
2003-01-17,21.428
2003-01-21,20.7659
2003-01-22,20.1414
2003-01-23,20.5778
2003-01-24,20.2242
2003-01-27,19.7276
2003-01-28,19.6524
2003-01-29,19.8856
2003-01-30,19.3665
2003-01-31,20.021
2003-02-03,19.8706
2003-02-04,19.4568
2003-02-05,19.5997
2003-02-06,19.2235
2003-02-07,18.915
2003-02-10,18.7194
2003-02-11,18.5163
2003-02-12,18.1325
2003-02-13,18.4335
2003-02-14,18.6216
2003-02-18,18.9827
2003-02-19,18.8774
2003-02-20,18.9677
2003-02-21,19.1257
2003-02-24,18.7119
2003-02-25,18.9301
2003-02-26,18.8172
2003-02-27,19.2536
2003-02-28,19.4643
2003-03-03,19.9458
2003-03-04,19.073
2003-03-05,18.8849
2003-03-06,18.8126
2003-03-07,19.2611
2003-03-10,18.805
2003-03-11,18.159
2003-03-12,18.1818
2003-03-13,18.7746
2003-03-14,18.5846
2003-03-17,19.3219
2003-03-18,19.1699
2003-03-19,19.4587
2003-03-20,19.4055
2003-03-21,20.6141
2003-03-24,19.2915
2003-03-25,19.4131
2003-03-26,19.2079
2003-03-27,19.2231
2003-03-28,18.7518
2003-03-31,18.2274
2003-04-01,18.4174
2003-04-02,19.1395
2003-04-03,19.1471
2003-04-04,19.3903
2003-04-07,19.1927
2003-04-08,18.1894
2003-04-09,16.0459
2003-04-10,16.1903
2003-04-11,15.9698
2003-04-14,16.3423
2003-04-15,16.844
2003-04-16,17.2088
2003-04-17,17.4749
2003-04-21,17.3228
2003-04-22,17.6117
2003-04-23,17.7789
2003-04-24,17.7637
2003-04-25,17.7941
2003-04-28,18.1285
2003-04-29,18.1818
2003-04-30,18.2578
2003-05-01,18.0829
2003-05-02,18.5466
2003-05-05,18.5922
2003-05-06,18.7518
2003-05-07,18.767
2003-05-08,18.7366
2003-05-09,19.1015
2003-05-12,19.4511
2003-05-13,19.6108
2003-05-14,19.626
2003-05-15,20.0516
2003-05-16,20.2645
2003-05-19,19.9756
2003-05-20,20.1276
2003-05-21,20.234
2003-05-22,20.2797
2003-05-23,20.3177
2003-05-27,20.7433
2003-05-28,20.8953
2003-05-29,20.9759
2003-05-30,21.4516
2003-06-02,21.513
2003-06-03,21.3442
2003-06-04,21.5897
2003-06-05,21.9349
2003-06-06,21.8352
2003-06-09,21.0986
2003-06-10,21.3288
2003-06-11,21.3979
2003-06-12,21.4055
2003-06-13,21.2674
2003-06-16,21.7892
2003-06-17,21.7661
2003-06-18,21.6741
2003-06-19,21.6434
2003-06-20,21.4362
2003-06-23,21.0833
2003-06-24,21.2828
2003-06-25,21.0756
2003-06-26,21.0373
2003-06-27,21.137
2003-06-30,21.1984
2003-07-01,21.2521
2003-07-02,21.3518
2003-07-03,21.2905
2003-07-07,21.6664
2003-07-08,22.1804
2003-07-09,22.1804
2003-07-10,22.2111
2003-07-11,22.7098
2003-07-14,23.1318
2003-07-15,23.0014
2003-07-16,22.7252
2003-07-17,22.7405
2003-07-18,22.7405
2003-07-21,22.3569
2003-07-22,22.1728
2003-07-23,22.6638
2003-07-24,21.9119
2003-07-25,22.096
2003-07-28,22.1037
2003-07-29,22.0116
2003-07-30,21.7585
2003-07-31,21.7508
2003-08-01,21.4362
2003-08-04,21.1524
2003-08-05,21.091
2003-08-06,21.0373
2003-08-07,21.068
2003-08-08,21.3288
2003-08-11,21.3672
2003-08-12,21.4823
2003-08-13,21.7201
2003-08-14,22.1574
2003-08-15,22.1421
2003-08-18,22.5027
2003-08-19,22.5564
2003-08-20,22.5027
2003-08-21,22.6561
2003-08-22,22.3109
2003-08-25,22.4643
2003-08-26,22.5871
2003-08-27,22.6715
2003-08-28,23.051
2003-08-29,23.4148
2003-09-02,23.616
2003-09-03,23.6315
2003-09-04,23.5076
2003-09-05,23.1593
2003-09-08,23.4922
2003-09-09,22.8961
2003-09-10,22.4162
2003-09-11,22.2769
2003-09-12,22.3543
2003-09-15,22.3079
2003-09-16,22.8265
2003-09-17,22.4704
2003-09-18,22.9194
2003-09-19,23.0974
2003-09-22,22.5323
2003-09-23,22.8961
2003-09-24,22.4008
2003-09-25,22.3001
2003-09-26,22.5014
2003-09-29,22.7878
2003-09-30,22.8574
2003-10-01,23.2058
2003-10-02,23.3993
2003-10-03,23.5463
2003-10-06,23.3915
2003-10-07,23.6005
2003-10-08,23.6779
2003-10-09,23.9179
2003-10-10,24.034
2003-10-13,24.1036
2003-10-14,24.1656
2003-10-15,24.2507
2003-10-16,24.3436
2003-10-17,24.3049
2003-10-20,23.9179
2003-10-21,23.7708
2003-10-22,24.661
2003-10-23,25.1022
2003-10-24,25.257
2003-10-27,25.5743
2003-10-28,25.7446
2003-10-29,25.9613
2003-10-30,25.8839
2003-10-31,25.7988
2003-11-03,25.8143
2003-11-04,25.4892
2003-11-05,25.5434
2003-11-06,25.7214
2003-11-07,25.5511
2003-11-10,25.2415
2003-11-11,24.8622
2003-11-12,25.3499
2003-11-13,25.4273
2003-11-14,25.7369
2003-11-17,25.4892
2003-11-18,25.2879
2003-11-19,25.3892
2003-11-20,25.1786
2003-11-21,25.1864
2003-11-24,25.5531
2003-11-25,25.9588
2003-11-26,25.5765
2003-11-28,25.5219
2003-12-01,25.8418
2003-12-02,25.7247
2003-12-03,25.8886
2003-12-04,26.1851
2003-12-05,26.0524
2003-12-08,26.7312
2003-12-09,27.769
2003-12-10,27.6988
2003-12-11,27.9718
2003-12-12,28.0031
2003-12-15,28.1669
2003-12-16,27.9718
2003-12-17,27.808
2003-12-18,28.1513
2003-12-19,28.5648
2003-12-22,28.9862
2003-12-23,29.0174
2003-12-24,28.7521
2003-12-26,29.0018
2003-12-29,29.4543
2003-12-30,29.4231
2003-12-31,29.4699
2004-01-02,28.8925
2004-01-05,29.2671
2004-01-06,29.7508
2004-01-07,29.9693
2004-01-08,29.8132
2004-01-09,29.821
2004-01-12,30.2112
2004-01-13,30.219
2004-01-14,30.6247
2004-01-15,30.5467
2004-01-16,30.4296
2004-01-20,30.297
2004-01-21,30.9836
2004-01-22,30.9992
2004-01-23,30.9134
2004-01-26,31.1006
2004-01-27,30.7495
2004-01-28,30.5623
2004-01-29,29.2593
2004-01-30,29.5479
2004-02-02,29.3451
2004-02-03,28.8691
2004-02-04,28.6272
2004-02-05,28.955
2004-02-06,29.5557
2004-02-09,29.8288
2004-02-10,29.1656
2004-02-11,29.3841
2004-02-12,30.0941
2004-02-13,29.7976
2004-02-17,30.219
2004-02-18,30.1019
2004-02-19,29.9537
2004-02-20,29.704
2004-02-23,29.7742
2004-02-24,29.9615
2004-02-25,29.821
2004-02-26,30.3204
2004-02-27,30.297
2004-03-01,30.4686
2004-03-02,30.336
2004-03-03,30.1097
2004-03-04,30.0861
2004-03-05,30.7303
2004-03-08,30.5889
2004-03-09,30.4475
2004-03-10,30.1726
2004-03-11,29.2063
2004-03-12,29.222
2004-03-15,28.6407
2004-03-16,28.9707
2004-03-17,30.5967
2004-03-18,31.0052
2004-03-19,31.1073
2004-03-22,29.929
2004-03-23,31.2016
2004-03-24,31.2802
2004-03-25,32.4192
2004-03-26,33.3304
2004-03-29,34.1945
2004-03-30,34.1867
2004-03-31,33.5111
2004-04-01,33.464
2004-04-02,33.8017
2004-04-05,34.2102
2004-04-06,34.8072
2004-04-07,34.1002
2004-04-08,34.0924
2004-04-12,34.5166
2004-04-13,34.1709
2004-04-14,34.2338
2004-04-15,34.768
2004-04-16,35.1764
2004-04-19,35.1764
2004-04-20,34.4302
2004-04-21,35.0586
2004-04-22,35.742
2004-04-23,35.2471
2004-04-26,34.98
2004-04-27,34.7444
2004-04-28,33.9981
2004-04-29,33.4718
2004-04-30,33.4011
2004-05-03,33.9981
2004-05-04,34.0453
2004-05-05,34.1474
2004-05-06,33.6211
2004-05-07,32.2307
2004-05-10,31.6258
2004-05-11,32.215
2004-05-12,32.2542
2004-05-13,32.3328
2004-05-14,32.5999
2004-05-17,32.4742
2004-05-18,33.0869
2004-05-19,32.9769
2004-05-20,32.7962
2004-05-21,32.647
2004-05-24,32.7648
2004-05-25,33.7389
2004-05-26,33.2676
2004-05-27,33.9117
2004-05-28,34.2338
2004-06-01,34.6187
2004-06-02,34.6743
2004-06-03,34.4293
2004-06-04,34.2871
2004-06-07,34.9272
2004-06-08,34.8165
2004-06-09,34.1291
2004-06-10,33.8525
2004-06-14,33.7102
2004-06-15,34.0975
2004-06-16,34.0263
2004-06-17,34.05
2004-06-18,34.0263
2004-06-21,34.2239
2004-06-22,34.9193
2004-06-23,35.5435
2004-06-24,35.5909
2004-06-25,35.7332
2004-06-28,35.828
2004-06-29,35.5277
2004-06-30,35.9702
2004-07-01,35.2432
2004-07-02,35.1168
2004-07-06,34.6111
2004-07-07,34.5558
2004-07-08,33.5838
2004-07-09,33.7972
2004-07-12,33.5996
2004-07-13,33.7102
2004-07-14,33.5127
2004-07-15,33.8604
2004-07-16,33.5996
2004-07-19,35.2432
2004-07-20,35.7253
2004-07-21,35.1721
2004-07-22,34.5479
2004-07-23,34.4214
2004-07-26,35.0536
2004-07-27,32.7146
2004-07-28,33.0386
2004-07-29,33.323
2004-07-30,33.4416
2004-08-02,33.3863
2004-08-03,33.2914
2004-08-04,33.2756
2004-08-05,32.4301
2004-08-06,31.8217
2004-08-09,32.3274
2004-08-10,32.9833
2004-08-11,33.2835
2004-08-12,32.92
2004-08-13,32.6356
2004-08-16,33.4969
2004-08-17,34.1291
2004-08-18,34.5716
2004-08-19,34.1212
2004-08-20,34.6506
2004-08-23,34.5163
2004-08-24,34.5242
2004-08-25,34.5795
2004-08-26,34.4846
2004-08-27,34.5242
2004-08-30,34.1291
2004-08-31,34.1686
2004-09-01,34.0173
2004-09-02,34.3991
2004-09-03,34.0253
2004-09-07,34.2559
2004-09-08,34.1923
2004-09-09,33.7071
2004-09-10,33.8742
2004-09-13,34.1764
2004-09-14,34.1525
2004-09-15,34.1525
2004-09-16,34.59
2004-09-17,34.5184
2004-09-20,34.1923
2004-09-21,34.0094
2004-09-22,33.8583
2004-09-23,33.6674
2004-09-24,33.6356
2004-09-27,33.1981
2004-09-28,32.9356
2004-09-29,33.1663
2004-09-30,33.7946
2004-10-01,33.9298
2004-10-04,34.081
2004-10-05,33.564
2004-10-06,33.8424
2004-10-07,33.6435
2004-10-08,33.1504
2004-10-11,33.1345
2004-10-12,33.3492
2004-10-13,33.1345
2004-10-14,33.039
2004-10-15,32.8163
2004-10-18,32.6096
2004-10-19,35.783
2004-10-20,35.449
2004-10-21,35.0354
2004-10-22,34.9161
2004-10-25,34.9161
2004-10-26,35.1308
2004-10-27,35.3217
2004-10-28,35.1388
2004-10-29,35.3853
2004-11-01,35.5683
2004-11-02,35.8705
2004-11-03,36.7136
2004-11-04,37.8748
2004-11-05,38.018
2004-11-08,37.9066
2004-11-09,37.9225
2004-11-10,37.4453
2004-11-11,37.8191
2004-11-12,37.9702
2004-11-15,38.3043
2004-11-16,38.0975
2004-11-17,38.36
2004-11-18,38.1055
2004-11-19,37.2306
2004-11-22,37.2783
2004-11-23,37.3817
2004-11-24,37.5577
2004-11-26,37.5417
2004-11-29,37.5017
2004-11-30,37.4457
2004-12-01,37.7177
2004-12-02,37.6217
2004-12-03,37.5977
2004-12-06,37.6377
2004-12-07,37.0776
2004-12-08,36.9576
2004-12-09,37.3497
2004-12-10,37.7017
2004-12-13,38.3818
2004-12-14,38.5658
2004-12-15,38.5098
2004-12-16,38.0298
2004-12-17,37.8537
2004-12-20,37.8617
2004-12-21,38.2778
2004-12-22,38.4778
2004-12-23,38.5258
2004-12-27,38.6939
2004-12-28,38.9899
2004-12-29,39.1899
2004-12-30,39.1739
2004-12-31,39.2299
2005-01-03,38.3258
2005-01-04,37.7177
2005-01-05,37.5977
2005-01-06,36.9656
2005-01-07,36.9896
2005-01-10,37.0296
2005-01-11,36.9256
2005-01-12,37.0456
2005-01-13,36.9816
2005-01-14,37.5497
2005-01-18,37.6057
2005-01-19,36.9576
2005-01-20,36.6936
2005-01-21,37.2456
2005-01-24,36.9016
2005-01-25,36.8936
2005-01-26,36.8136
2005-01-27,37.2856
2005-01-28,37.6297
2005-01-31,38.0138
2005-02-01,37.7257
2005-02-02,37.6377
2005-02-03,37.7577
2005-02-04,38.2858
2005-02-07,37.7657
2005-02-08,37.7497
2005-02-09,37.0056
2005-02-10,37.4217
2005-02-11,37.8297
2005-02-14,37.7977
2005-02-15,37.8457
2005-02-16,37.5577
2005-02-17,37.0776
2005-02-18,37.2136
2005-02-22,37.0056
2005-02-23,36.7896
2005-02-24,36.8216
2005-02-25,36.9816
2005-02-28,37.0616
2005-03-01,37.0536
2005-03-02,37.1736
2005-03-03,37.0856
2005-03-04,37.8457
2005-03-07,37.9101
2005-03-08,38.1354
2005-03-09,37.741
2005-03-10,37.6042
2005-03-11,37.6686
2005-03-14,37.4996
2005-03-15,37.2179
2005-03-16,37.0408
2005-03-17,37.0247
2005-03-18,36.582
2005-03-21,36.6947
2005-03-22,36.6383
2005-03-23,36.3727
2005-03-24,36.3647
2005-03-28,36.2601
2005-03-29,35.6483
2005-03-30,35.7449
2005-03-31,36.4291
2005-04-01,36.091
2005-04-04,36.2198
2005-04-05,36.7188
2005-04-06,36.9603
2005-04-07,37.3064
2005-04-08,36.9201
2005-04-11,36.8557
2005-04-12,38.554
2005-04-13,37.5962
2005-04-14,36.7752
2005-04-15,36.6786
2005-04-18,37.0649
2005-04-19,37.1293
2005-04-20,36.6786
2005-04-21,36.912
2005-04-22,36.4774
2005-04-25,36.8718
2005-04-26,36.413
2005-04-27,36.7913
2005-04-28,33.9822
2005-04-29,34.6825
2005-05-02,34.5698
2005-05-03,33.9903
2005-05-04,34.8837
2005-05-05,34.9239
2005-05-06,34.8515
2005-05-09,34.8757
2005-05-10,34.2881
2005-05-11,34.9722
2005-05-12,34.2639
2005-05-13,34.1352
2005-05-16,34.9722
2005-05-17,35.4391
2005-05-18,36.0105
2005-05-19,36.2279
2005-05-20,35.6403
2005-05-23,36.2198
2005-05-24,35.8576
2005-05-25,35.4552
2005-05-26,35.8254
2005-05-27,35.8898
2005-05-31,36.0025
2005-06-01,36.5659
2005-06-02,36.1876
2005-06-03,36.1393
2005-06-06,35.3294
2005-06-07,35.8396
2005-06-08,35.6372
2005-06-09,35.3132
2005-06-10,36.0259
2005-06-13,36.0421
2005-06-14,36.1879
2005-06-15,36.2284
2005-06-16,36.7711
2005-06-17,36.9978
2005-06-20,36.8845
2005-06-21,37.0545
2005-06-22,36.9735
2005-06-23,36.3175
2005-06-24,36.3499
2005-06-27,36.3661
2005-06-28,36.9735
2005-06-29,36.5767
2005-06-30,36.9411
2005-07-01,37.6782
2005-07-05,37.5
2005-07-06,36.9249
2005-07-07,37.0464
2005-07-08,37.5
2005-07-11,38.1642
2005-07-12,37.6944
2005-07-13,37.8969
2005-07-14,38.2046
2005-07-15,37.8564
2005-07-18,41.4687
2005-07-19,40.4482
2005-07-20,40.6992
2005-07-21,40.1242
2005-07-22,40.1485
2005-07-25,40.1728
2005-07-26,40.2862
2005-07-27,39.2657
2005-07-28,39.7516
2005-07-29,39.6139
2005-08-01,39.3224
2005-08-02,39.3629
2005-08-03,38.9417
2005-08-04,38.7554
2005-08-05,37.9941
2005-08-08,37.743
2005-08-09,37.9131
2005-08-10,37.9536
2005-08-11,37.9455
2005-08-12,38.1075
2005-08-15,38.0022
2005-08-16,37.0059
2005-08-17,36.844
2005-08-18,36.9654
2005-08-19,37.1841
2005-08-22,36.9735
2005-08-23,36.7306
2005-08-24,36.6091
2005-08-25,36.763
2005-08-26,36.3256
2005-08-29,36.3742
2005-08-30,36.1393
2005-08-31,37.0302
2005-09-01,37.0059
2005-09-02,36.7063
2005-09-06,37.1598
2005-09-07,36.8906
2005-09-08,37.1107
2005-09-09,37.4612
2005-09-12,38.1214
2005-09-13,38.0888
2005-09-14,37.5672
2005-09-15,37.6079
2005-09-16,37.6487
2005-09-19,37.1433
2005-09-20,37.021
2005-09-21,36.5972
2005-09-22,36.4994
2005-09-23,36.5565
2005-09-26,36.4179
2005-09-27,36.3771
2005-09-28,37.4612
2005-09-29,37.6487
2005-09-30,38.0318
2005-10-03,38.1377
2005-10-04,37.6731
2005-10-05,36.9477
2005-10-06,36.9069
2005-10-07,37.0863
2005-10-10,37.1515
2005-10-11,36.4179
2005-10-12,36.1734
2005-10-13,36.0837
2005-10-14,38.9609
2005-10-17,38.6512
2005-10-18,38.0236
2005-10-19,38.6675
2005-10-20,38.0888
2005-10-21,38.5208
2005-10-24,39.0995
2005-10-25,38.3659
2005-10-26,38.0644
2005-10-27,37.2656
2005-10-28,38.3496
2005-10-31,39.0425
2005-11-01,39.1321
2005-11-02,38.912
2005-11-03,38.7164
2005-11-04,38.6349
2005-11-07,39.0343
2005-11-08,38.1785
2005-11-09,38.0318
2005-11-10,38.3415
2005-11-11,38.5208
2005-11-14,38.4067
2005-11-15,38.2355
2005-11-16,38.5616
2005-11-17,38.749
2005-11-18,38.7653
2005-11-21,38.8794
2005-11-22,38.9609
2005-11-23,39.0914
2005-11-25,39.0995
2005-11-28,38.7653
2005-11-29,38.8061
2005-11-30,39.124
2005-12-01,39.9553
2005-12-02,39.6701
2005-12-05,39.5315
2005-12-06,39.2707
2005-12-07,38.9673
2005-12-08,38.6967
2005-12-09,39.0821
2005-12-12,38.6229
2005-12-13,38.7541
2005-12-14,39.4019
2005-12-15,39.0657
2005-12-16,39.7217
2005-12-19,39.0329
2005-12-20,39.5413
2005-12-21,39.8365
2005-12-22,39.9923
2005-12-23,39.9021
2005-12-27,39.6069
2005-12-28,39.9677
2005-12-29,39.8775
2005-12-30,39.3691
2006-01-03,39.4839
2006-01-04,39.4183
2006-01-05,39.1887
2006-01-06,39.8775
2006-01-09,40.5827
2006-01-10,40.7303
2006-01-11,41.1158
2006-01-12,40.9928
2006-01-13,41.1076
2006-01-17,41.493
2006-01-18,41.0666
2006-01-19,41.2552
2006-01-20,40.9108
2006-01-23,42.2884
2006-01-24,42.846
2006-01-25,42.5016
2006-01-26,39.4101
2006-01-27,40.1973
2006-01-30,40.2055
2006-01-31,40.2137
2006-02-01,40.3367
2006-02-02,39.9349
2006-02-03,40.0743
2006-02-06,40.1481
2006-02-07,39.5905
2006-02-08,39.8529
2006-02-09,40.0579
2006-02-10,40.2875
2006-02-13,40.3941
2006-02-14,40.7714
2006-02-15,41.0256
2006-02-16,40.9354
2006-02-17,40.6729
2006-02-21,40.4515
2006-02-22,40.5909
2006-02-23,40.6566
2006-02-24,40.9928
2006-02-27,41.2716
2006-02-28,41.0748
2006-03-01,41.2716
2006-03-02,41.8948
2006-03-03,42.0998
2006-03-06,41.5887
2006-03-07,41.1187
2006-03-08,41.0692
2006-03-09,40.9208
2006-03-10,41.3991
2006-03-13,41.3661
2006-03-14,42.0341
2006-03-15,41.9021
2006-03-16,41.8939
2006-03-17,41.8691
2006-03-20,42.6856
2006-03-21,42.199
2006-03-22,42.4959
2006-03-23,42.3804
2006-03-24,42.2897
2006-03-27,42.0588
2006-03-28,41.8774
2006-03-29,42.199
2006-03-30,42.232
2006-03-31,41.7784
2006-04-03,41.8609
2006-04-04,42.265
2006-04-05,42.0588
2006-04-06,41.4815
2006-04-07,43.2134
2006-04-10,43.6422
2006-04-11,43.634
2006-04-12,43.3206
2006-04-13,43.5927
2006-04-17,43.6175
2006-04-18,44.5823
2006-04-19,44.8298
2006-04-20,44.4751
2006-04-21,44.7143
2006-04-24,44.104
2006-04-25,43.9556
2006-04-26,42.4464
2006-04-27,42.4299
2006-04-28,43.0402
2006-05-01,42.9165
2006-05-02,43.0154
2006-05-03,43.0484
2006-05-04,43.2711
2006-05-05,43.4031
2006-05-08,43.502
2006-05-09,43.2958
2006-05-10,42.8753
2006-05-11,42.3804
2006-05-12,41.7537
2006-05-15,41.63
2006-05-16,41.1022
2006-05-17,40.0796
2006-05-18,39.4446
2006-05-19,39.7827
2006-05-22,39.7497
2006-05-23,39.4776
2006-05-24,39.9229
2006-05-25,40.261
2006-05-26,40.5414
2006-05-30,39.6095
2006-05-31,40.0054
2006-06-01,40.8383
2006-06-02,41.1187
2006-06-05,39.5923
2006-06-06,38.6965
2006-06-07,38.2319
2006-06-08,38.7214
2006-06-09,38.8043
2006-06-12,38.0412
2006-06-13,37.3278
2006-06-14,37.5352
2006-06-15,38.2651
2006-06-16,37.8835
2006-06-19,37.4605
2006-06-20,37.0457
2006-06-21,37.9333
2006-06-22,37.8255
2006-06-23,37.9001
2006-06-26,38.2485
2006-06-27,38.2071
2006-06-28,37.784
2006-06-29,39.0117
2006-06-30,39.1942
2006-07-03,39.1776
2006-07-05,38.6716
2006-07-06,38.2817
2006-07-07,37.8835
2006-07-10,38.2734
2006-07-11,37.2282
2006-07-12,36.8964
2006-07-13,36.0338
2006-07-14,35.4282
2006-07-17,35.5692
2006-07-18,35.4531
2006-07-19,36.1416
2006-07-20,35.6605
2006-07-21,34.831
2006-07-24,35.9176
2006-07-25,36.125
2006-07-26,38.0909
2006-07-27,37.1619
2006-07-28,37.5849
2006-07-31,37.7011
2006-08-01,37.6845
2006-08-02,37.8918
2006-08-03,38.3647
2006-08-04,38.4891
2006-08-07,38.3066
2006-08-08,37.5766
2006-08-09,36.7305
2006-08-10,37.7425
2006-08-11,37.6845
2006-08-14,37.8089
2006-08-15,38.7048
2006-08-16,39.5757
2006-08-17,40.1066
2006-08-18,39.5592
2006-08-21,38.9785
2006-08-22,38.7877
2006-08-23,38.5886
2006-08-24,38.2402
2006-08-25,38.1158
2006-08-28,38.7462
2006-08-29,38.7379
2006-08-30,39.4679
2006-08-31,39.2356
2006-09-01,39.6338
2006-09-05,39.7416
2006-09-06,39.3409
2006-09-07,39.032
2006-09-08,39.2741
2006-09-11,40.9853
2006-09-12,41.9118
2006-09-13,42.0704
2006-09-14,41.82
2006-09-15,41.5529
2006-09-18,41.027
2006-09-19,40.7599
2006-09-20,41.1355
2006-09-21,40.6264
2006-09-22,40.5429
2006-09-25,40.9769
2006-09-26,41.4945
2006-09-27,41.6531
2006-09-28,41.5779
2006-09-29,41.6197
2006-10-02,41.82
2006-10-03,42.0704
2006-10-04,42.7382
2006-10-05,43.1472
2006-10-06,42.9135
2006-10-09,43.406
2006-10-10,43.9319
2006-10-11,43.5396
2006-10-12,43.8317
2006-10-13,44.0905
2006-10-16,44.6331
2006-10-17,43.982
2006-10-18,43.214
2006-10-19,43.0888
2006-10-20,42.3876
2006-10-23,42.6965
2006-10-24,42.83
2006-10-25,40.0587
2006-10-26,40.0671
2006-10-27,39.4911
2006-10-30,39.7248
2006-10-31,39.7332
2006-11-01,39.1906
2006-11-02,39.4494
2006-11-03,39.2491
2006-11-06,39.3743
2006-11-07,39.992
2006-11-08,40.6514
2006-11-09,40.9352
2006-11-10,41.0604
2006-11-13,41.3943
2006-11-14,42.1122
2006-11-15,42.7633
2006-11-16,43.2891
2006-11-17,42.6881
2006-11-20,42.4043
2006-11-21,42.6631
2006-11-22,42.6881
2006-11-24,42.7716
2006-11-27,41.6614
2006-11-28,41.7449
2006-11-29,41.8868
2006-11-30,42.588
2006-12-01,42.1289
2006-12-04,42.7633
2006-12-05,43.0304
2006-12-06,43.4919
2006-12-07,43.0553
2006-12-08,43.156
2006-12-11,42.8454
2006-12-12,42.7194
2006-12-13,42.7026
2006-12-14,43.1728
2006-12-15,41.6699
2006-12-18,41.6531
2006-12-19,41.3509
2006-12-20,41.5188
2006-12-21,41.0066
2006-12-22,41.2669
2006-12-26,41.6363
2006-12-27,42.0813
2006-12-28,42.2409
2006-12-29,42.1821
2007-01-03,42.6523
2007-01-04,42.9713
2007-01-05,42.7446
2007-01-08,42.5095
2007-01-09,43.3827
2007-01-10,43.8697
2007-01-11,44.4658
2007-01-12,44.6757
2007-01-16,44.7009
2007-01-17,44.9444
2007-01-18,45.3894
2007-01-19,44.5246
2007-01-22,44.6925
2007-01-23,44.9192
2007-01-24,45.2719
2007-01-25,44.2979
2007-01-26,46.716
2007-01-29,46.6488
2007-01-30,47.1106
2007-01-31,48.1349
2007-02-01,48.6891
2007-02-02,49.4615
2007-02-05,48.4792
2007-02-06,48.8234
2007-02-07,48.7814
2007-02-08,48.5715
2007-02-09,47.8495
2007-02-12,47.4464
2007-02-13,47.5808
2007-02-14,48.1097
2007-02-15,48.3616
2007-02-16,47.883
2007-02-20,48.3112
2007-02-21,48.6051
2007-02-22,48.3448
2007-02-23,48.3784
2007-02-26,48.5044
2007-02-27,46.5816
2007-02-28,46.6404
2007-03-01,46.6404
2007-03-02,45.7336
2007-03-05,44.8307
2007-03-06,46.8738
2007-03-07,47.2031
2007-03-08,47.7265
2007-03-09,47.6252
2007-03-12,47.8531
2007-03-13,46.9667
2007-03-14,45.8607
2007-03-15,45.8438
2007-03-16,45.4385
2007-03-19,45.6158
2007-03-20,46.0464
2007-03-21,46.8991
2007-03-22,46.9413
2007-03-23,47.2453
2007-03-26,46.7387
2007-03-27,46.7809
2007-03-28,46.5023
2007-03-29,46.7134
2007-03-30,46.6796
2007-04-02,47.1102
2007-04-03,47.659
2007-04-04,47.7349
2007-04-05,47.659
2007-04-09,47.355
2007-04-10,47.2706
2007-04-11,46.553
2007-04-12,46.688
2007-04-13,46.9835
2007-04-16,48.098
2007-04-17,48.4188
2007-04-18,48.8072
2007-04-19,48.824
2007-04-20,49.3306
2007-04-23,49.4826
2007-04-24,50.1833
2007-04-25,51.551
2007-04-26,50.5126
2007-04-27,50.7405
2007-04-30,49.2209
2007-05-01,49.415
2007-05-02,49.719
2007-05-03,50.1158
2007-05-04,50.1073
2007-05-07,50.2593
2007-05-08,50.4197
2007-05-09,50.9769
2007-05-10,50.2171
2007-05-11,50.6814
2007-05-14,50.4535
2007-05-15,49.7612
2007-05-16,50.3184
2007-05-17,50.0145
2007-05-18,50.4535
2007-05-21,51.4075
2007-05-22,51.9056
2007-05-23,52.5726
2007-05-24,51.7537
2007-05-25,52.1758
2007-05-29,52.5726
2007-05-30,53.0201
2007-05-31,53.3324
2007-06-01,53.2396
2007-06-04,53.1205
2007-06-05,53.4005
2007-06-06,52.0093
2007-06-07,50.6435
2007-06-08,51.2543
2007-06-11,50.9404
2007-06-12,50.2533
2007-06-13,51.5681
2007-06-14,51.5766
2007-06-15,51.5427
2007-06-18,51.5257
2007-06-19,51.5512
2007-06-20,51.4154
2007-06-21,51.2712
2007-06-22,50.4229
2007-06-25,51.7039
2007-06-26,51.4239
2007-06-27,51.8311
2007-06-28,51.9244
2007-06-29,51.5003
2007-07-02,52.2977
2007-07-03,51.1779
2007-07-05,52.4334
2007-07-06,53.1884
2007-07-09,52.62
2007-07-10,51.5851
2007-07-11,51.9159
2007-07-12,53.7483
2007-07-13,53.2393
2007-07-16,53.3326
2007-07-17,53.7567
2007-07-18,53.2732
2007-07-19,54.1809
2007-07-20,53.0527
2007-07-23,52.8321
2007-07-24,51.8311
2007-07-25,51.6021
2007-07-26,49.5661
2007-07-27,47.123
2007-07-30,47.3097
2007-07-31,46.911
2007-08-01,46.9364
2007-08-02,47.4115
2007-08-03,45.8082
2007-08-06,46.631
2007-08-07,46.9364
2007-08-08,47.9798
2007-08-09,47.8186
2007-08-10,48.0138
2007-08-13,47.9629
2007-08-14,46.5886
2007-08-15,45.7912
2007-08-16,46.139
2007-08-17,47.7169
2007-08-20,47.7084
2007-08-21,47.3436
2007-08-22,48.5058
2007-08-23,47.7423
2007-08-24,48.2428
2007-08-27,47.895
2007-08-28,45.7234
2007-08-29,47.0976
2007-08-30,47.3012
2007-08-31,48.141
2007-09-04,48.2004
2007-09-05,47.168
2007-09-06,47.5519
2007-09-07,45.9398
2007-09-10,45.3171
2007-09-11,45.5901
2007-09-12,45.718
2007-09-13,46.0848
2007-09-14,46.5283
2007-09-17,46.3492
2007-09-18,48.6607
2007-09-19,49.4113
2007-09-20,48.5754
2007-09-21,48.7033
2007-09-24,47.893
2007-09-25,46.9122
2007-09-26,46.5283
2007-09-27,47.7651
2007-09-28,47.7566
2007-10-01,48.021
2007-10-02,47.8845
2007-10-03,47.7651
2007-10-04,47.2533
2007-10-05,48.4986
2007-10-08,48.6266
2007-10-09,48.891
2007-10-10,49.4454
2007-10-11,49.3345
2007-10-12,49.0872
2007-10-15,47.5604
2007-10-16,47.6372
2007-10-17,46.9974
2007-10-18,47.4239
2007-10-19,47.1254
2007-10-22,47.731
2007-10-23,47.6457
2007-10-24,49.4795
2007-10-25,49.0104
2007-10-26,49.0701
2007-10-29,49.0872
2007-10-30,49.1128
2007-10-31,49.0019
2007-11-01,47.3216
2007-11-02,47.1339
2007-11-05,46.3748
2007-11-06,46.4004
2007-11-07,44.6092
2007-11-08,45.2148
2007-11-09,44.4983
2007-11-12,44.1401
2007-11-13,45.3086
2007-11-14,44.5665
2007-11-15,44.5921
2007-11-16,43.9695
2007-11-19,42.3489
2007-11-20,42.6559
2007-11-21,42.3318
2007-11-23,42.4768
2007-11-26,42.4939
2007-11-27,42.9033
2007-11-28,43.6709
2007-11-29,43.8586
2007-11-30,44.4727
2007-12-03,43.5004
2007-12-04,43.1421
2007-12-05,43.2882
2007-12-06,43.786
2007-12-07,43.8804
2007-12-10,43.8289
2007-12-11,42.4901
2007-12-12,43.7688
2007-12-13,43.7602
2007-12-14,41.9236
2007-12-17,40.808
2007-12-18,40.6878
2007-12-19,40.7307
2007-12-20,41.0225
2007-12-21,41.7262
2007-12-24,41.7777
2007-12-26,42.1897
2007-12-27,41.6233
2007-12-28,41.5117
2007-12-31,41.546
2008-01-02,39.9326
2008-01-03,39.2117
2008-01-04,38.0359
2008-01-07,38.4479
2008-01-08,38.3277
2008-01-09,38.9714
2008-01-10,39.8124
2008-01-11,39.5206
2008-01-14,39.9927
2008-01-15,39.8296
2008-01-16,40.1557
2008-01-17,39.6923
2008-01-18,40.0871
2008-01-22,39.718
2008-01-23,39.7352
2008-01-24,39.4692
2008-01-25,40.027
2008-01-28,41.8979
2008-01-29,41.7005
2008-01-30,41.6576
2008-01-31,43.949
2008-02-01,43.9662
2008-02-04,43.4255
2008-02-05,42.0352
2008-02-06,41.7434
2008-02-07,42.121
2008-02-08,41.8378
2008-02-11,42.6531
2008-02-12,42.5759
2008-02-13,43.4255
2008-02-14,42.6445
2008-02-15,42.3957
2008-02-19,42.6445
2008-02-20,43.3311
2008-02-21,42.8076
2008-02-22,42.8505
2008-02-25,43.5113
2008-02-26,44.1807
2008-02-27,43.8889
2008-02-28,42.7475
2008-02-29,41.5975
2008-03-03,41.9945
2008-03-04,42.1327
2008-03-05,41.9945
2008-03-06,41.1394
2008-03-07,40.673
2008-03-10,39.792
2008-03-11,41.1912
2008-03-12,42.0117
2008-03-13,41.8131
2008-03-14,40.9925
2008-03-17,40.3793
2008-03-18,41.5194
2008-03-19,40.9407
2008-03-20,41.7094
2008-03-24,42.9273
2008-03-25,43.1173
2008-03-26,42.4954
2008-03-27,41.4935
2008-03-28,40.7421
2008-03-31,41.1998
2008-04-01,42.9705
2008-04-02,43.7997
2008-04-03,43.7047
2008-04-04,43.696
2008-04-07,43.4369
2008-04-08,42.8064
2008-04-09,42.2277
2008-04-10,42.4782
2008-04-11,41.6144
2008-04-14,41.0271
2008-04-15,41.6835
2008-04-16,42.8496
2008-04-17,42.9532
2008-04-18,43.601
2008-04-21,43.5578
2008-04-22,43.0309
2008-04-23,43.1864
2008-04-24,41.7699
2008-04-25,42.2449
2008-04-28,42.5127
2008-04-29,42.7891
2008-04-30,41.6144
2008-05-01,42.8323
2008-05-02,43.1864
2008-05-05,42.8927
2008-05-06,42.8755
2008-05-07,42.124
2008-05-08,42.124
2008-05-09,42.0204
2008-05-12,42.3831
2008-05-13,43.0309
2008-05-14,43.1691
2008-05-15,43.2469
2008-05-16,43.1432
2008-05-19,43.316
2008-05-20,43.0914
2008-05-21,42.2881
2008-05-22,42.2709
2008-05-23,41.7872
2008-05-27,41.7354
2008-05-28,42.2449
2008-05-29,42.1672
2008-05-30,41.9254
2008-06-02,41.2906
2008-06-03,41.0037
2008-06-04,41.2558
2008-06-05,42.1511
2008-06-06,41.2384
2008-06-09,41.4905
2008-06-10,41.4818
2008-06-11,40.2822
2008-06-12,40.7516
2008-06-13,41.986
2008-06-16,41.647
2008-06-17,40.8299
2008-06-18,39.8736
2008-06-19,40.6995
2008-06-20,39.8563
2008-06-23,39.5694
2008-06-24,39.6216
2008-06-25,39.9606
2008-06-26,39.0131
2008-06-27,38.874
2008-06-30,39.0305
2008-07-01,38.4393
2008-07-02,37.6918
2008-07-03,38.422
2008-07-07,38.2655
2008-07-08,39.2043
2008-07-09,38.1873
2008-07-10,37.8135
2008-07-11,36.9529
2008-07-14,36.6573
2008-07-15,36.0141
2008-07-16,37.3788
2008-07-17,39.8476
2008-07-18,39.326
2008-07-21,37.7439
2008-07-22,40.4734
2008-07-23,40.0475
2008-07-24,39.3434
2008-07-25,39.2304
2008-07-28,38.7784
2008-07-29,39.2825
2008-07-30,39.3869
2008-07-31,38.5523
2008-08-01,38.9348
2008-08-04,38.3785
2008-08-05,40.1779
2008-08-06,40.317
2008-08-07,39.6998
2008-08-08,41.2645
2008-08-11,42.4989
2008-08-12,41.2993
2008-08-13,40.7951
2008-08-14,41.6644
2008-08-15,41.3688
2008-08-18,41.1949
2008-08-19,40.3952
2008-08-20,40.3257
2008-08-21,41.1515
2008-08-22,41.6991
2008-08-25,41.1602
2008-08-26,40.543
2008-08-27,40.7516
2008-08-28,41.534
2008-08-29,41.6991
2008-09-02,41.7861
2008-09-03,43.3701
2008-09-04,41.5061
2008-09-05,41.7249
2008-09-08,42.3112
2008-09-09,41.5149
2008-09-10,40.9548
2008-09-11,41.1211
2008-09-12,42.11
2008-09-15,40.8848
2008-09-16,40.1322
2008-09-17,38.2858
2008-09-18,39.2046
2008-09-19,41.3749
2008-09-22,40.3073
2008-09-23,40.0447
2008-09-24,39.8347
2008-09-25,40.2723
2008-09-26,39.0646
2008-09-29,35.5379
2008-09-30,36.5443
2008-10-01,37.2619
2008-10-02,36.0105
2008-10-03,34.7416
2008-10-06,33.5602
2008-10-07,31.4425
2008-10-08,32.09
2008-10-09,30.3923
2008-10-10,29.6835
2008-10-13,32.1338
2008-10-14,31.8713
2008-10-15,29.1234
2008-10-16,29.841
2008-10-17,30.4536
2008-10-20,31.4075
2008-10-21,31.3199
2008-10-22,28.8347
2008-10-23,28.1171
2008-10-24,27.2945
2008-10-27,26.2881
2008-10-28,27.7233
2008-10-29,27.4782
2008-10-30,28.1433
2008-10-31,28.5809
2008-11-03,29.456
2008-11-04,32.7551
2008-11-05,31.495
2008-11-06,29.561
2008-11-07,29.596
2008-11-10,29.1497
2008-11-11,28.1521
2008-11-12,26.4106
2008-11-13,28.9834
2008-11-14,27.3295
2008-11-17,26.7344
2008-11-18,26.6119
2008-11-19,24.0741
2008-11-20,22.2101
2008-11-21,22.9015
2008-11-24,25.1592
2008-11-25,25.728
2008-11-26,27.312
2008-11-28,27.8195
2008-12-01,25.5268
2008-12-02,26.3581
2008-12-03,27.3122
2008-12-04,27.0999
2008-12-05,28.5416
2008-12-08,29.3995
2008-12-09,29.0015
2008-12-10,30.4255
2008-12-11,28.5593
2008-12-12,27.7456
2008-12-15,26.242
2008-12-16,28.294
2008-12-17,29.3288
2008-12-18,29.1961
2008-12-19,28.7981
2008-12-22,27.9844
2008-12-23,27.8783
2008-12-24,28.3824
2008-12-26,28.6212
2008-12-29,28.2409
2008-12-30,29.1784
2008-12-31,30.1425
2009-01-02,31.3542
2009-01-05,31.3365
2009-01-06,32.1414
2009-01-07,31.3454
2009-01-08,31.5223
2009-01-09,30.9739
2009-01-12,30.0983
2009-01-13,29.8595
2009-01-14,28.7981
2009-01-15,28.9838
2009-01-16,29.4968
2009-01-20,27.7279
2009-01-21,28.4532
2009-01-22,26.9673
2009-01-23,26.5958
2009-01-26,26.9673
2009-01-27,27.3387
2009-01-28,30.797
2009-01-29,29.1254
2009-01-30,27.5775
2009-02-02,27.5422
2009-02-03,28.9308
2009-02-04,28.5947
2009-02-05,29.4172
2009-02-06,30.6024
2009-02-09,30.4786
2009-02-10,29.1077
2009-02-11,29.5234
2009-02-12,29.0546
2009-02-13,27.9402
2009-02-17,27.1265
2009-02-18,26.7992
2009-02-19,26.4101
2009-02-20,25.4725
2009-02-23,24.2343
2009-02-24,24.9595
2009-02-25,24.42
2009-02-26,23.7301
2009-02-27,23.6682
2009-03-02,22.3165
2009-03-03,21.9226
2009-03-04,22.2807
2009-03-05,20.9111
2009-03-06,21.0901
2009-03-09,20.374
2009-03-10,22.603
2009-03-11,22.415
2009-03-12,23.6772
2009-03-13,24.1068
2009-03-16,24.456
2009-03-17,25.4048
2009-03-18,26.4164
2009-03-19,25.6734
2009-03-20,24.4828
2009-03-23,26.676
2009-03-24,26.4522
2009-03-25,26.9445
2009-03-26,28.529
2009-03-27,27.6159
2009-03-30,25.924
2009-03-31,26.0225
2009-04-01,26.8013
2009-04-02,28.52
2009-04-03,28.9587
2009-04-06,27.9561
2009-04-07,26.7476
2009-04-08,26.9445
2009-04-09,28.529
2009-04-13,28.5111
2009-04-14,27.6607
2009-04-15,27.9024
2009-04-16,28.2783
2009-04-17,29.6658
2009-04-20,28.153
2009-04-21,28.8065
2009-04-22,29.4599
2009-04-23,30.0776
2009-04-24,33.5777
2009-04-27,33.3897
2009-04-28,33.0406
2009-04-29,34.2491
2009-04-30,34.1059
2009-05-01,34.8668
2009-05-04,35.7351
2009-05-05,34.6698
2009-05-06,34.5714
2009-05-07,33.4434
2009-05-08,34.0611
2009-05-11,32.5841
2009-05-12,31.7426
2009-05-13,30.6147
2009-05-14,30.3462
2009-05-15,30.3641
2009-05-18,31.7784
2009-05-19,31.9127
2009-05-20,31.5099
2009-05-21,30.5431
2009-05-22,30.928
2009-05-26,32.1992
2009-05-27,31.3129
2009-05-28,30.8564
2009-05-29,31.8948
2009-06-01,32.9782
2009-06-02,33.3395
2009-06-03,32.7433
2009-06-04,32.4452
2009-06-05,32.4452
2009-06-08,33.0414
2009-06-09,33.493
2009-06-10,33.5382
2009-06-11,33.5021
2009-06-12,33.6195
2009-06-15,32.4452
2009-06-16,31.6684
2009-06-17,32.1833
2009-06-18,31.7588
2009-06-19,31.3433
2009-06-22,30.5303
2009-06-23,30.16
2009-06-24,30.3858
2009-06-25,30.9278
2009-06-26,30.8103
2009-06-29,30.8555
2009-06-30,30.5394
2009-07-01,30.44
2009-07-02,29.3019
2009-07-06,29.2658
2009-07-07,28.227
2009-07-08,28.6425
2009-07-09,28.9225
2009-07-10,30.4039
2009-07-13,31.0271
2009-07-14,31.6052
2009-07-15,32.3368
2009-07-16,33.0504
2009-07-17,32.9782
2009-07-20,34.4415
2009-07-21,34.3421
2009-07-22,34.1885
2009-07-23,35.4712
2009-07-24,35.3176
2009-07-27,35.9228
2009-07-28,35.697
2009-07-29,35.2815
2009-07-30,35.7151
2009-07-31,36.248
2009-08-03,37.1874
2009-08-04,37.368
2009-08-05,37.1874
2009-08-06,37.088
2009-08-07,38.2894
2009-08-10,37.9281
2009-08-11,37.368
2009-08-12,37.7203
2009-08-13,37.919
2009-08-14,37.0067
2009-08-17,35.968
2009-08-18,36.7267
2009-08-19,36.9706
2009-08-20,37.1151
2009-08-21,37.9281
2009-08-24,37.7655
2009-08-25,38.1087
2009-08-26,38.1087
2009-08-27,38.1719
2009-08-28,37.9281
2009-08-31,36.9616
2009-09-01,35.9589
2009-09-02,36.1597
2009-09-03,36.3054
2009-09-04,36.7791
2009-09-08,36.9066
2009-09-09,37.5259
2009-09-10,37.2891
2009-09-11,37.1252
2009-09-14,37.3711
2009-09-15,37.7719
2009-09-16,38.6371
2009-09-17,38.6371
2009-09-18,38.6371
2009-09-21,38.5005
2009-09-22,38.7556
2009-09-23,38.6827
2009-09-24,38.5278
2009-09-25,37.5442
2009-09-28,38.2546
2009-09-29,38.71
2009-09-30,38.8831
2009-10-01,38.1726
2009-10-02,37.3438
2009-10-05,38.3457
2009-10-06,38.9104
2009-10-07,38.5552
2009-10-08,39.9852
2009-10-09,40.5134
2009-10-12,40.8687
2009-10-13,41.2694
2009-10-14,41.8888
2009-10-15,41.6975
2009-10-16,41.6246
2009-10-19,42.2713
2009-10-20,42.2167
2009-10-21,43.1002
2009-10-22,43.6376
2009-10-23,43.082
2009-10-26,42.4717
2009-10-27,41.9252
2009-10-28,41.315
2009-10-29,41.6155
2009-10-30,41.233
2009-11-02,41.1328
2009-11-03,45.1404
2009-11-04,44.1203
2009-11-05,45.1769
2009-11-06,44.7943
2009-11-09,45.6869
2009-11-10,45.7051
2009-11-11,45.7962
2009-11-12,45.3226
2009-11-13,45.7507
2009-11-16,46.5977
2009-11-17,45.9511
2009-11-18,45.3772
2009-11-19,44.8945
2009-11-20,44.5939
2009-11-23,45.2588
2009-11-24,45.3135
2009-11-25,45.5048
2009-11-27,44.3844
2009-11-30,44.2569
2009-12-01,44.6486
2009-12-02,45.6019
2009-12-03,44.5841
2009-12-04,45.336
2009-12-07,44.7583
2009-12-08,44.905
2009-12-09,45.2535
2009-12-10,45.5102
2009-12-11,45.3727
2009-12-14,45.5286
2009-12-15,46.0146
2009-12-16,47.8577
2009-12-17,46.6932
2009-12-18,46.4547
2009-12-21,46.8674
2009-12-22,48.0503
2009-12-23,48.5638
2009-12-24,48.7197
2009-12-28,48.3621
2009-12-29,47.7844
2009-12-30,47.7569
2009-12-31,47.225
2010-01-04,48.3621
2010-01-05,49.059
2010-01-06,50.3336
2010-01-07,52.1126
2010-01-08,52.6261
2010-01-11,52.3418
2010-01-12,51.4982
2010-01-13,51.9842
2010-01-14,51.8742
2010-01-15,51.1497
2010-01-19,51.5532
2010-01-20,50.9755
2010-01-21,49.7009
2010-01-22,48.8848
2010-01-25,49.4075
2010-01-26,48.8297
2010-01-27,48.0962
2010-01-28,47.1516
2010-01-29,47.0049
2010-02-01,47.9219
2010-02-02,49.7926
2010-02-03,51.6724
2010-02-04,50.1135
2010-02-05,49.8935
2010-02-08,49.0498
2010-02-09,49.7009
2010-02-10,49.2516
2010-02-11,49.6367
2010-02-12,49.7467
2010-02-16,50.3336
2010-02-17,51.2048
2010-02-18,51.7549
2010-02-19,51.2414
2010-02-22,51.544
2010-02-23,50.6179
2010-02-24,51.4982
2010-02-25,51.2964
2010-02-26,52.5344
2010-03-01,54.4807
2010-03-02,54.2224
2010-03-03,54.1763
2010-03-04,53.8258
2010-03-05,54.4991
2010-03-08,54.453
2010-03-09,54.6375
2010-03-10,54.7758
2010-03-11,54.1947
2010-03-12,53.2632
2010-03-15,53.1156
2010-03-16,53.2909
2010-03-17,53.8443
2010-03-18,53.9918
2010-03-19,53.5491
2010-03-22,54.4253
2010-03-23,55.2831
2010-03-24,54.4622
2010-03-25,53.4753
2010-03-26,54.0103
2010-03-29,53.7428
2010-03-30,53.6967
2010-03-31,52.9404
2010-04-01,53.42
2010-04-05,54.6098
2010-04-06,55.0617
2010-04-07,54.7481
2010-04-08,54.6006
2010-04-09,55.652
2010-04-12,55.652
2010-04-13,56.3437
2010-04-14,57.0631
2010-04-15,56.3991
2010-04-16,55.7258
2010-04-19,55.7903
2010-04-20,56.934
2010-04-21,57.1922
2010-04-22,58.0869
2010-04-23,57.967
2010-04-26,58.4281
2010-04-27,59.3689
2010-04-28,59.5533
2010-04-29,59.9592
2010-04-30,57.3675
2010-05-03,58.382
2010-05-04,56.6481
2010-05-05,55.3845
2010-05-06,53.8996
2010-05-07,51.7967
2010-05-10,56.3991
2010-05-11,56.6296
2010-05-12,57.6995
2010-05-13,57.0723
2010-05-14,55.5321
2010-05-17,55.4122
2010-05-18,54.4161
2010-05-19,53.1618
2010-05-20,49.9798
2010-05-21,51.0681
2010-05-24,50.2288
2010-05-25,50.6715
2010-05-26,50.5424
2010-05-27,52.5623
2010-05-28,51.801
2010-06-01,50.9939
2010-06-02,53.1183
2010-06-03,53.4059
2010-06-04,51.0589
2010-06-07,49.3983
2010-06-08,50.2611
2010-06-09,49.0366
2010-06-10,50.1405
2010-06-11,50.9661
2010-06-14,51.2537
2010-06-15,53.174
2010-06-16,52.6452
2010-06-17,51.5691
2010-06-18,51.9958
2010-06-21,51.2444
2010-06-22,48.4614
2010-06-23,48.3408
2010-06-24,48.3223
2010-06-25,48.2944
2010-06-28,48.0068
2010-06-29,46.8102
2010-06-30,46.8287
2010-07-01,46.4205
2010-07-02,46.0866
2010-07-06,45.966
2010-07-07,47.8955
2010-07-08,47.6543
2010-07-09,48.3501
2010-07-12,48.4429
2010-07-13,50.2054
2010-07-14,49.7601
2010-07-15,49.1293
2010-07-16,47.2925
2010-07-19,47.9976
2010-07-20,48.6191
2010-07-21,49.788
2010-07-22,52.135
2010-07-23,53.2575
2010-07-26,54.0645
2010-07-27,52.673
2010-07-28,52.0237
2010-07-29,53.0812
2010-07-30,53.8883
2010-08-02,54.7139
2010-08-03,54.2501
2010-08-04,54.2964
2010-08-05,53.6749
2010-08-06,53.6378
2010-08-09,53.8975
2010-08-10,53.5265
2010-08-11,51.198
2010-08-12,50.8826
2010-08-13,50.9012
2010-08-16,51.1424
2010-08-17,53.007
2010-08-18,53.0812
2010-08-19,51.1424
2010-08-20,51.1331
2010-08-23,50.4744
2010-08-24,49.5097
2010-08-25,49.7694
2010-08-26,49.287
2010-08-27,50.5579
2010-08-30,49.5839
2010-08-31,49.7601
2010-09-01,52.9437
2010-09-02,53.5225
2010-09-03,54.2507
2010-09-07,53.6065
2010-09-08,54.6428
2010-09-09,55.0816
2010-09-10,55.3617
2010-09-13,56.8274
2010-09-14,56.9861
2010-09-15,56.454
2010-09-16,55.4551
2010-09-17,55.7165
2010-09-20,56.622
2010-09-21,56.4073
2010-09-22,56.0245
2010-09-23,54.5775
2010-09-24,56.4073
2010-09-27,55.9405
2010-09-28,57.1542
2010-09-29,56.6687
2010-09-30,57.2755
2010-10-01,57.9571
2010-10-04,57.845
2010-10-05,58.4519
2010-10-06,57.9571
2010-10-07,57.761
2010-10-08,58.5546
2010-10-11,58.5452
2010-10-12,58.8253
2010-10-13,59.5442
2010-10-14,58.8066
2010-10-15,57.9851
2010-10-18,59.3014
2010-10-19,58.2091
2010-10-20,57.2102
2010-10-21,56.0525
2010-10-22,57.0048
2010-10-25,56.7247
2010-10-26,56.0619
2010-10-27,56.0339
2010-10-28,56.8274
2010-10-29,57.845
2010-11-01,57.1729
2010-11-02,57.4249
2010-11-03,57.6863
2010-11-04,58.6199
2010-11-05,58.8346
2010-11-08,58.6292
2010-11-09,57.6677
2010-11-10,57.7703
2010-11-11,57.6957
2010-11-12,56.8648
2010-11-15,56.65
2010-11-16,55.5017
2010-11-17,55.6231
2010-11-18,55.8938
2010-11-19,55.6511
2010-11-22,55.6698
2010-11-23,54.8109
2010-11-24,56.8461
2010-11-26,56.426
2010-11-29,56.3139
2010-11-30,55.6044
2010-12-01,56.6656
2010-12-02,58.6186
2010-12-03,58.5435
2010-12-06,58.3839
2010-12-07,59.2852
2010-12-08,59.4449
2010-12-09,59.8017
2010-12-10,60.365
2010-12-13,59.6984
2010-12-14,60.196
2010-12-15,59.7735
2010-12-16,59.3134
2010-12-17,59.5294
2010-12-20,61.6514
2010-12-21,62.3368
2010-12-22,62.9753
2010-12-23,62.9659
2010-12-27,63.1819
2010-12-28,63.1162
2010-12-29,63.0504
2010-12-30,63.0504
2010-12-31,62.8251
2011-01-03,63.8861
2011-01-04,63.6326
2011-01-05,63.1162
2011-01-06,62.4871
2011-01-07,61.5199
2011-01-10,61.7735
2011-01-11,63.6607
2011-01-12,63.8579
2011-01-13,63.7359
2011-01-14,64.0269
2011-01-18,63.933
2011-01-19,61.8673
2011-01-20,61.8486
2011-01-21,62.3744
2011-01-24,61.9988
2011-01-25,62.3087
2011-01-26,62.8908
2011-01-27,68.1771
2011-01-28,68.2428
2011-01-31,68.2616
2011-02-01,68.393
2011-02-02,68.3555
2011-02-03,67.548
2011-02-04,68.055
2011-02-07,68.5151
2011-02-08,68.8907
2011-02-09,68.393
2011-02-10,68.7217
2011-02-11,69.5198
2011-02-14,68.9658
2011-02-15,68.825
2011-02-16,69.4447
2011-02-17,70.393
2011-02-18,71.3977
2011-02-22,69.6231
2011-02-23,68.1301
2011-02-24,69.7264
2011-02-25,70.5245
2011-02-28,71.6196
2011-03-01,70.2224
2011-03-02,70.364
2011-03-03,71.478
2011-03-04,71.6291
2011-03-07,70.7322
2011-03-08,72.8659
2011-03-09,72.5921
2011-03-10,71.1948
2011-03-11,71.4119
2011-03-14,70.8644
2011-03-15,70.1091
2011-03-16,68.6552
2011-03-17,69.3538
2011-03-18,70.3451
2011-03-21,71.3364
2011-03-22,70.6472
2011-03-23,71.1854
2011-03-24,71.6669
2011-03-25,72.5449
2011-03-28,71.6196
2011-03-29,72.441
2011-03-30,72.5543
2011-03-31,72.3466
2011-04-01,72.3655
2011-04-04,71.4214
2011-04-05,71.1759
2011-04-06,71.2609
2011-04-07,71.3175
2011-04-08,70.4678
2011-04-11,70.6
2011-04-12,69.8353
2011-04-13,70.77
2011-04-14,71.6008
2011-04-15,72.7431
2011-04-18,71.3081
2011-04-19,71.7424
2011-04-20,72.2994
2011-04-21,72.5071
2011-04-25,72.356
2011-04-26,72.9508
2011-04-27,71.0249
2011-04-28,70.3451
2011-04-29,68.6363
2011-05-02,68.608
2011-05-03,67.5883
2011-05-04,68.2303
2011-05-05,69.8259
2011-05-06,69.5426
2011-05-09,69.7786
2011-05-10,71.4025
2011-05-11,70.9021
2011-05-12,70.6095
2011-05-13,69.8636
2011-05-16,69.5049
2011-05-17,69.1839
2011-05-18,71.1382
2011-05-19,71.5724
2011-05-20,71.1665
2011-05-23,69.3632
2011-05-24,67.6733
2011-05-25,68.1453
2011-05-26,69.807
2011-05-27,69.6644
2011-05-31,70.1106
2011-06-01,66.9113
2011-06-02,67.1961
2011-06-03,65.4682
2011-06-06,65.098
2011-06-07,66.0948
2011-06-08,65.0315
2011-06-09,65.3543
2011-06-10,63.7309
2011-06-13,63.3227
2011-06-14,65.2594
2011-06-15,64.3005
2011-06-16,64.7847
2011-06-17,64.7942
2011-06-20,65.3638
2011-06-21,66.3986
2011-06-22,66.0758
2011-06-23,67.4144
2011-06-24,65.772
2011-06-27,65.9904
2011-06-28,66.1423
2011-06-29,66.6264
2011-06-30,68.4113
2011-07-01,69.9207
2011-07-05,70.1391
2011-07-06,70.253
2011-07-07,71.5062
2011-07-08,70.6802
2011-07-11,68.7435
2011-07-12,67.5378
2011-07-13,67.4904
2011-07-14,65.4967
2011-07-15,66.1518
2011-07-18,65.079
2011-07-19,64.4619
2011-07-20,65.7246
2011-07-21,65.5157
2011-07-22,66.522
2011-07-25,65.4113
2011-07-26,64.367
2011-07-27,62.0125
2011-07-28,61.5663
2011-07-29,62.4872
2011-08-01,62.1644
2011-08-02,60.1992
2011-08-03,61.3954
2011-08-04,59.117
2011-08-05,58.5094
2011-08-08,53.3448
2011-08-09,56.7056
2011-08-10,53.5537
2011-08-11,57.0379
2011-08-12,58.2056
2011-08-15,59.6866
2011-08-16,57.9018
2011-08-17,57.6075
2011-08-18,53.8575
2011-08-19,53.1834
2011-08-22,53.117
2011-08-23,55.7752
2011-08-24,56.5917
2011-08-25,55.1771
2011-08-26,56.8195
2011-08-29,58.8606
2011-08-30,59.0125
2011-08-31,59.0419
2011-09-01,57.6944
2011-09-02,55.5728
2011-09-06,55.0758
2011-09-07,56.4807
2011-09-08,54.7031
2011-09-09,52.505
2011-09-12,51.5876
2011-09-13,52.5146
2011-09-14,54.4164
2011-09-15,54.4259
2011-09-16,54.1297
2011-09-19,52.8873
2011-09-20,51.6354
2011-09-21,48.7014
2011-09-22,45.7388
2011-09-23,48.3096
2011-09-26,49.5902
2011-09-27,50.8613
2011-09-28,49.227
2011-09-29,49.2462
2011-09-30,46.9334
2011-10-03,46.1402
2011-10-04,49.7718
2011-10-05,51.3582
2011-10-06,52.83
2011-10-07,51.1193
2011-10-10,53.5085
2011-10-11,53.4034
2011-10-12,55.4103
2011-10-13,54.4928
2011-10-14,55.4867
2011-10-17,53.4989
2011-10-18,58.1913
2011-10-19,57.1401
2011-10-20,57.7804
2011-10-21,59.5197
2011-10-24,60.0836
2011-10-25,58.1722
2011-10-26,60.2078
2011-10-27,62.8264
2011-10-28,63.6865
2011-10-31,61.0488
2011-11-01,59.1852
2011-11-02,61.259
2011-11-03,63.438
2011-11-04,63.7343
2011-11-07,63.6482
2011-11-08,64.7091
2011-11-09,61.6509
2011-11-10,62.5301
2011-11-11,65.0913
2011-11-14,64.3937
2011-11-15,64.8715
2011-11-16,62.4919
2011-11-17,61.498
2011-11-18,60.829
2011-11-21,59.5293
2011-11-22,60.0931
2011-11-23,57.6848
2011-11-25,57.723
2011-11-28,60.1982
2011-11-29,60.2556
2011-11-30,62.9395
2011-12-01,62.7567
2011-12-02,62.5932
2011-12-05,64.1226
2011-12-06,64.2669
2011-12-07,63.6321
2011-12-08,61.4196
2011-12-09,62.4393
2011-12-12,62.4393
2011-12-13,62.5258
2011-12-14,60.6501
2011-12-15,60.5346
2011-12-16,60.6981
2011-12-19,60.1306
2011-12-20,63.786
2011-12-21,64.9788
2011-12-22,65.3154
2011-12-23,65.9311
2011-12-27,65.479
2011-12-28,63.7667
2011-12-29,65.7579
2011-12-30,65.0557
2012-01-03,67.5279
2012-01-04,67.98
2012-01-05,68.1147
2012-01-06,67.7684
2012-01-09,68.0377
2012-01-10,69.1055
2012-01-11,68.9708
2012-01-12,69.8462
2012-01-13,68.8169
2012-01-17,68.5091
2012-01-18,70.0482
2012-01-19,68.4514
2012-01-20,68.2782
2012-01-23,68.1628
2012-01-24,67.2489
2012-01-25,69.6153
2012-01-26,69.8077
2012-01-27,69.1151
2012-01-30,68.057
2012-01-31,67.5183
2012-02-01,68.7784
2012-02-02,68.7015
2012-02-03,71.0293
2012-02-06,71.3179
2012-02-07,71.568
2012-02-08,71.568
2012-02-09,72.5203
2012-02-10,72.2029
2012-02-13,72.5107
2012-02-14,72.7416
2012-02-15,71.6065
2012-02-16,71.9336
2012-02-17,72.4915
2012-02-21,72.5396
2012-02-22,71.4334
2012-02-23,72.4722
2012-02-24,71.9432
2012-02-27,72.4145
2012-02-28,73.2899
2012-02-29,73.9055
2012-03-01,73.8767
2012-03-02,73.1745
2012-03-05,73.0873
2012-03-06,71.2981
2012-03-07,73.2711
2012-03-08,73.8127
2012-03-09,75.012
2012-03-12,75.1377
2012-03-13,78.0295
2012-03-14,78.0198
2012-03-15,78.6485
2012-03-16,77.6136
2012-03-19,77.5362
2012-03-20,76.6078
2012-03-21,76.5014
2012-03-22,75.2538
2012-03-23,75.689
2012-03-26,76.5594
2012-03-27,76.3176
2012-03-28,75.5342
2012-03-29,75.3311
2012-03-30,74.4414
2012-04-02,75.4569
2012-04-03,75.5149
2012-04-04,74.7992
2012-04-05,75.1087
2012-04-09,74.0061
2012-04-10,72.4877
2012-04-11,73.5129
2012-04-12,75.0603
2012-04-13,74.1415
2012-04-16,74.8089
2012-04-17,76.4143
2012-04-18,75.9501
2012-04-19,70.5051
2012-04-20,70.9983
2012-04-23,70.0892
2012-04-24,70.2633
2012-04-25,70.5921
2012-04-26,71.5593
2012-04-27,72.0525
2012-04-30,70.6985
2012-05-01,71.2014
2012-05-02,71.6753
2012-05-03,70.8242
2012-05-04,69.9151
2012-05-07,70.2149
2012-05-08,69.7507
2012-05-09,68.9576
2012-05-10,68.5998
2012-05-11,68.4354
2012-05-14,67.2555
2012-05-15,65.6597
2012-05-16,65.9014
2012-05-17,63.3192
2012-05-18,63.7447
2012-05-21,65.4179
2012-05-22,66.2206
2012-05-23,68.0582
2012-05-24,66.5398
2012-05-25,66.2496
2012-05-29,66.6268
2012-05-30,64.6151
2012-05-31,64.1702
2012-06-01,61.5976
2012-06-04,60.4588
2012-06-05,61.2764
2012-06-06,62.8923
2012-06-07,62.0649
2012-06-08,62.9215
2012-06-11,61.88
2012-06-12,61.8897
2012-06-13,60.7313
2012-06-14,60.4101
2012-06-15,61.6074
2012-06-18,61.4127
2012-06-19,62.1038
2012-06-20,61.1596
2012-06-21,59.8163
2012-06-22,60.0013
2012-06-25,58.9695
2012-06-26,59.427
2012-06-27,60.0013
2012-06-28,60.3614
2012-06-29,62.5906
2012-07-02,61.364
2012-07-03,61.7826
2012-07-05,61.7437
2012-07-06,60.8968
2012-07-09,59.9234
2012-07-10,58.5606
2012-07-11,57.9668
2012-07-12,57.9668
2012-07-13,58.5801
2012-07-16,57.6359
2012-07-17,58.2102
2012-07-18,61.6074
2012-07-19,64.4303
2012-07-20,64.6542
2012-07-23,63.2719
2012-07-24,62.6782
2012-07-25,62.4251
2012-07-26,64.2843
2012-07-27,66.7276
2012-07-30,66.6789
2012-07-31,65.1409
2012-08-01,64.8586
2012-08-02,63.8073
2012-08-03,66.1922
2012-08-06,65.4913
2012-08-07,67.0001
2012-08-08,66.5816
2012-08-09,65.9488
2012-08-10,66.5621
2012-08-13,66.0267
2012-08-14,64.9365
2012-08-15,65.1798
2012-08-16,65.9002
2012-08-17,66.5913
2012-08-20,64.917
2012-08-21,65.7834
2012-08-22,66.0754
2012-08-23,64.9365
2012-08-24,65.6081
2012-08-27,65.4037
2012-08-28,64.3816
2012-08-29,64.6737
2012-08-30,63.9533
2012-08-31,64.1383
2012-09-04,64.1967
2012-09-05,64.795
2012-09-06,70.0712
2012-09-07,70.4144
2012-09-10,70.385
2012-09-11,70.7773
2012-09-12,71.4932
2012-09-13,71.9933
2012-09-14,75.1414
2012-09-17,73.8665
2012-09-18,74.2391
2012-09-19,74.9747
2012-09-20,74.8374
2012-09-21,76.7203
2012-09-24,76.328
2012-09-25,74.3568
2012-09-26,73.3859
2012-09-27,74.5726
2012-09-28,74.7785
2012-10-01,74.5726
2012-10-02,75.1218
2012-10-03,73.2192
2012-10-04,73.2486
2012-10-05,73.5036
2012-10-08,72.8171
2012-10-09,70.8263
2012-10-10,70.4438
2012-10-11,70.4831
2012-10-12,68.7766
2012-10-15,70.0221
2012-10-16,70.6302
2012-10-17,67.8352
2012-10-18,68.8453
2012-10-19,68.9434
2012-10-22,67.8646
2012-10-23,68.5805
2012-10-24,67.7273
2012-10-25,67.0212
2012-10-26,66.2072
2012-10-31,67.9725
2012-11-01,68.6688
2012-11-02,68.5217
2012-11-05,69.1003
2012-11-06,70.1987
2012-11-07,68.149
2012-11-08,67.4625
2012-11-09,67.3546
2012-11-12,67.384
2012-11-13,67.9921
2012-11-14,65.8541
2012-11-15,65.5501
2012-11-16,66.1778
2012-11-19,68.4138
2012-11-20,68.6491
2012-11-21,68.6393
2012-11-23,70.0123
2012-11-26,70.0123
2012-11-27,68.9041
2012-11-28,71.0911
2012-11-29,71.8757
2012-11-30,70.6302
2012-12-03,69.4043
2012-12-04,68.6688
2012-12-05,69.6762
2012-12-06,70.1503
2012-12-07,70.2589
2012-12-10,70.97
2012-12-11,71.365
2012-12-12,71.9773
2012-12-13,71.0687
2012-12-14,70.3675
2012-12-17,71.2268
2012-12-18,73.5575
2012-12-19,73.0341
2012-12-20,73.4489
2012-12-21,72.5304
2012-12-24,72.5205
2012-12-26,71.8391
2012-12-27,71.7897
2012-12-28,71.2465
2012-12-31,72.9452
2013-01-02,74.4368
2013-01-03,73.1134
2013-01-04,73.7949
2013-01-07,74.1405
2013-01-08,74.4072
2013-01-09,74.1109
2013-01-10,74.8318
2013-01-11,74.2591
2013-01-14,74.3578
2013-01-15,75.1874
2013-01-16,75.0886
2013-01-17,76.3725
2013-01-18,76.017
2013-01-22,76.9157
2013-01-23,76.9552
2013-01-24,76.2837
2013-01-25,75.8689
2013-01-28,75.6513
2013-01-29,75.9081
2013-01-30,76.0167
2013-01-31,75.9179
2013-02-01,76.3821
2013-02-04,75.2464
2013-02-05,76.4907
2013-02-06,76.3426
2013-02-07,75.3451
2013-02-08,75.2661
2013-02-11,74.9599
2013-02-12,76.5154
2013-02-13,76.4414
2013-02-14,76.8562
2013-02-15,77.4487
2013-02-19,78.1404
2013-02-20,76.6787
2013-02-21,75.138
2013-02-22,76.4121
2013-02-25,74.2982
2013-02-26,75.3352
2013-02-27,76.9628
2013-02-28,77.824
2013-03-01,76.5599
2013-03-04,76.4219
2013-03-05,77.2812
2013-03-06,77.7651
2013-03-07,77.7263
2013-03-08,78.4717
2013-03-11,79.227
2013-03-12,79.2568
2013-03-13,79.6742
2013-03-14,80.5786
2013-03-15,80.6581
2013-03-18,79.9624
2013-03-19,80.7475
2013-03-20,81.0953
2013-03-21,80.6879
2013-03-22,80.9959
2013-03-25,81.0655
2013-03-26,80.6978
2013-03-27,79.2468
2013-03-28,80.4394
2013-04-01,79.3462
2013-04-02,79.0282
2013-04-03,78.6108
2013-04-04,77.8555
2013-04-05,77.1002
2013-04-08,77.3188
2013-04-09,77.3188
2013-04-10,78.6704
2013-04-11,79.2568
2013-04-12,78.7102
2013-04-15,75.8579
2013-04-16,76.6232
2013-04-17,76.0269
2013-04-18,75.4703
2013-04-19,75.9275
2013-04-22,76.0865
2013-04-23,76.5238
2013-04-24,77.5971
2013-04-25,75.53
2013-04-26,73.9498
2013-04-29,73.9498
2013-04-30,74.2778
2013-05-01,73.8703
2013-05-02,74.715
2013-05-03,76.1759
2013-05-06,76.5635
2013-05-07,78.1835
2013-05-08,79.2965
2013-05-09,78.6804
2013-05-10,79.1276
2013-05-13,78.9984
2013-05-14,80.4195
2013-05-15,80.4493
2013-05-16,79.9723
2013-05-17,80.4394
2013-05-20,80.8071
2013-05-21,81.3438
2013-05-22,80.7177
2013-05-23,79.1475
2013-05-24,78.1835
2013-05-28,79.4158
2013-05-29,80.4295
2013-05-30,79.8232
2013-05-31,78.7599
2013-06-03,79.27
2013-06-04,78.71
2013-06-05,77.24
2013-06-06,78.35
2013-06-07,79.74
2013-06-10,79.78
2013-06-11,79.56
2013-06-12,78.67
2013-06-13,79.52
2013-06-14,79.47
2013-06-17,80.01
2013-06-18,80.98
2013-06-19,79.55
2013-06-20,77.28
2013-06-21,76.0
2013-06-24,75.09
2013-06-25,76.49
2013-06-26,76.88
2013-06-27,78.16
2013-06-28,77.53
2013-07-01,78.39
2013-07-02,77.81
2013-07-03,77.78
2013-07-05,79.02
2013-07-08,79.26
2013-07-09,80.61
2013-07-10,79.9
2013-07-11,81.6
2013-07-12,82.26
2013-07-15,82.19
2013-07-16,81.51
2013-07-17,81.0
2013-07-18,81.76
2013-07-19,83.09
2013-07-22,83.44
2013-07-23,83.87
2013-07-24,82.47
2013-07-25,82.52
2013-07-26,83.96
2013-07-29,84.06
2013-07-30,83.85
2013-07-31,84.68
2013-08-01,87.0
2013-08-02,87.61
2013-08-05,86.78
2013-08-06,85.65
2013-08-07,85.76
2013-08-08,85.54
2013-08-09,85.6
