date,close_price
1998-01-02,1.49213
1998-01-05,1.44204
1998-01-06,1.44204
1998-01-07,1.4269
1998-01-08,1.41991
1998-01-09,1.29644
1998-01-12,1.31741
1998-01-13,1.36866
1998-01-14,1.41292
1998-01-15,1.36848
1998-01-16,1.38252
1998-01-20,1.36848
1998-01-21,1.36848
1998-01-22,1.32399
1998-01-23,1.2877
1998-01-26,1.30994
1998-01-27,1.30292
1998-01-28,1.25844
1998-01-29,1.29473
1998-01-30,1.2877
1998-02-02,1.25141
1998-02-03,1.28068
1998-02-04,1.33219
1998-02-05,1.32399
1998-02-06,1.32399
1998-02-09,1.35326
1998-02-10,1.33921
1998-02-11,1.33921
1998-02-12,1.33921
1998-02-13,1.33921
1998-02-17,1.32399
1998-02-18,1.28068
1998-02-19,1.2877
1998-02-20,1.26546
1998-02-23,1.27365
1998-02-24,1.26546
1998-02-25,1.28068
1998-02-26,1.26546
1998-02-27,1.2877
1998-03-02,1.2877
1998-03-03,1.29473
1998-03-04,1.29473
1998-03-05,1.28068
1998-03-06,1.28068
1998-03-09,1.2877
1998-03-10,1.28068
1998-03-11,1.2877
1998-03-12,1.2877
1998-03-13,1.2877
1998-03-16,1.27365
1998-03-17,1.2877
1998-03-18,1.26546
1998-03-19,1.27365
1998-03-20,1.26546
1998-03-23,1.2877
1998-03-24,1.28068
1998-03-25,1.27365
1998-03-26,1.28068
1998-03-27,1.27365
1998-03-30,1.25844
1998-03-31,1.25141
1998-04-01,1.27365
1998-04-02,1.28068
1998-04-03,1.28068
1998-04-06,1.26546
1998-04-07,1.27365
1998-04-08,1.25141
1998-04-09,1.28068
1998-04-13,1.30292
1998-04-14,1.35326
1998-04-15,1.34623
1998-04-16,1.30975
1998-04-17,1.32387
1998-04-20,1.35329
1998-04-21,1.38271
1998-04-22,1.39801
1998-04-23,1.38977
1998-04-24,1.36035
1998-04-27,1.28033
1998-04-28,1.28739
1998-04-29,1.30975
1998-04-30,1.36035
1998-05-01,1.36035
1998-05-04,1.33917
1998-05-05,1.33917
1998-05-06,1.34623
1998-05-07,1.33917
1998-05-08,1.35329
1998-05-11,1.34623
1998-05-12,1.33917
1998-05-13,1.34623
1998-05-14,1.30975
1998-05-15,1.30975
1998-05-18,1.28033
1998-05-19,1.26503
1998-05-20,1.25797
1998-05-21,1.28739
1998-05-22,1.28033
1998-05-26,1.25091
1998-05-27,1.22149
1998-05-28,1.23562
1998-05-29,1.22855
1998-06-01,1.23562
1998-06-02,1.22149
1998-06-03,1.21326
1998-06-04,1.22149
1998-06-05,1.21326
1998-06-08,1.24268
1998-06-09,1.22855
1998-06-10,1.13324
1998-06-11,1.11794
1998-06-12,1.125
1998-06-15,1.08146
1998-06-16,1.11088
1998-06-17,1.06616
1998-06-18,1.0744
1998-06-19,1.06616
1998-06-22,1.03674
1998-06-23,1.0744
1998-06-24,1.08146
1998-06-25,1.09558
1998-06-26,1.125
1998-06-29,1.08852
1998-06-30,1.08852
1998-07-01,1.08146
1998-07-02,1.10382
1998-07-06,1.19207
1998-07-07,1.18384
1998-07-08,1.18384
1998-07-09,1.17678
1998-07-10,1.13324
1998-07-13,1.125
1998-07-14,1.16972
1998-07-15,1.16265
1998-07-16,1.16972
1998-07-17,1.16972
1998-07-20,1.13183
1998-07-21,1.12473
1998-07-22,1.11763
1998-07-23,1.08092
1998-07-24,1.06553
1998-07-27,1.04304
1998-07-28,0.992129
1998-07-29,1.06553
1998-07-30,1.08092
1998-07-31,1.06553
1998-08-03,1.07264
1998-08-04,1.08803
1998-08-05,1.14722
1998-08-06,1.13183
1998-08-07,1.11763
1998-08-10,1.06553
1998-08-11,1.04304
1998-08-12,1.06553
1998-08-13,1.04304
1998-08-14,1.03593
1998-08-17,1.06553
1998-08-18,1.06553
1998-08-19,1.05133
1998-08-20,1.02883
1998-08-21,1.03593
1998-08-24,0.94714
1998-08-25,0.940036
1998-08-26,0.887944
1998-08-27,0.858346
1998-08-28,0.851242
1998-08-31,0.799149
1998-09-01,0.903335
1998-09-02,0.858346
1998-09-03,0.858346
1998-09-04,0.873737
1998-09-08,0.903335
1998-09-09,0.873737
1998-09-10,0.873737
1998-09-11,0.94714
1998-09-14,0.992129
1998-09-15,0.983842
1998-09-16,0.992129
1998-09-17,0.992129
1998-09-18,1.04304
1998-09-21,1.12473
1998-09-22,1.16972
1998-09-23,1.13183
1998-09-24,1.11763
1998-09-25,1.11763
1998-09-28,1.05133
1998-09-29,1.03593
1998-09-30,1.00634
1998-10-01,0.976738
1998-10-02,0.954244
1998-10-05,0.962531
1998-10-06,0.976738
1998-10-07,0.954244
1998-10-08,0.94714
1998-10-09,0.94714
1998-10-12,0.976738
1998-10-13,0.962531
1998-10-14,0.94714
1998-10-15,0.940036
1998-10-16,0.78257
1998-10-19,0.678784
1998-10-20,0.708608
1998-10-21,0.715765
1998-10-22,0.768255
1998-10-23,0.842217
1998-10-26,0.880392
1998-10-27,0.83506
1998-10-28,0.83506
1998-10-29,0.842217
1998-10-30,0.812394
1998-11-02,0.775413
1998-11-03,0.83506
1998-11-04,0.857726
1998-11-05,0.917373
1998-11-06,0.880392
1998-11-09,0.820744
1998-11-10,0.827902
1998-11-11,0.842217
1998-11-12,0.864883
1998-11-13,0.872041
1998-11-16,0.901865
1998-11-17,0.931688
1998-11-18,0.940039
1998-11-19,0.931688
1998-11-20,0.910215
1998-11-23,0.92453
1998-11-24,0.940039
1998-11-25,0.910215
1998-11-27,0.894707
1998-11-30,0.887549
1998-12-01,0.92453
1998-12-02,0.894707
1998-12-03,0.872041
1998-12-04,0.872041
1998-12-07,0.827902
1998-12-08,0.827902
1998-12-09,0.820744
1998-12-10,0.812394
1998-12-11,0.715765
1998-12-14,0.745589
1998-12-15,0.761097
1998-12-16,0.715765
1998-12-17,0.722923
1998-12-18,0.761097
1998-12-21,0.820744
1998-12-22,0.805236
1998-12-23,0.83506
1998-12-24,0.83506
1998-12-28,0.850568
1998-12-29,0.83506
1998-12-30,0.827902
1998-12-31,0.864883
1999-01-04,0.92453
1999-01-05,0.940039
1999-01-06,0.954354
1999-01-07,0.940039
1999-01-08,0.984178
1999-01-11,1.00684
1999-01-12,0.954354
1999-01-13,0.940039
1999-01-14,0.894707
1999-01-15,0.947619
1999-01-19,0.909137
1999-01-20,0.909137
1999-01-21,0.894707
1999-01-22,0.871858
1999-01-25,0.901922
1999-01-26,0.931986
1999-01-27,0.901922
1999-01-28,0.857427
1999-01-29,0.849009
1999-02-01,0.751602
1999-02-02,0.767235
1999-02-03,0.737171
1999-02-04,0.721538
1999-02-05,0.691473
1999-02-08,0.721538
1999-02-09,0.728753
1999-02-10,0.744386
1999-02-11,0.781666
1999-02-12,0.751602
1999-02-16,0.684258
1999-02-17,0.684258
1999-02-18,0.668625
1999-02-19,0.661409
1999-02-22,0.707107
1999-02-23,0.714322
1999-02-24,0.691473
1999-02-25,0.691473
1999-02-26,0.677043
1999-03-01,0.646979
1999-03-02,0.684258
1999-03-03,0.638561
1999-03-04,0.654194
1999-03-05,0.646979
1999-03-08,0.654194
1999-03-09,0.691473
1999-03-10,0.751602
1999-03-11,0.751602
1999-03-12,0.758817
1999-03-15,0.781666
1999-03-16,0.781666
1999-03-17,0.781666
1999-03-18,0.841794
1999-03-19,0.849009
1999-03-22,0.849009
1999-03-23,0.797299
1999-03-24,0.804514
1999-03-25,0.788881
1999-03-26,0.788881
1999-03-29,0.857427
1999-03-30,0.841794
1999-03-31,0.849009
1999-04-01,0.841794
1999-04-05,0.849009
1999-04-06,0.797299
1999-04-07,0.797299
1999-04-08,0.781666
1999-04-09,0.751602
1999-04-12,0.797299
1999-04-13,0.728753
1999-04-14,0.744386
1999-04-15,0.797299
1999-04-16,0.856769
1999-04-19,0.849488
1999-04-20,0.819149
1999-04-21,0.842206
1999-04-22,0.865264
1999-04-23,0.82643
1999-04-26,0.834925
1999-04-27,0.774247
1999-04-28,0.834925
1999-04-29,0.872545
1999-04-30,0.970843
1999-05-03,1.00118
1999-05-04,0.970843
1999-05-05,0.95628
1999-05-06,0.902884
1999-05-07,0.895603
1999-05-10,0.986619
1999-05-11,0.963562
1999-05-12,0.95628
1999-05-13,0.947785
1999-05-14,0.986619
1999-05-17,0.9939
1999-05-18,1.00846
1999-05-19,1.00118
1999-05-20,1.01696
1999-05-21,1.0473
1999-05-24,1.02424
1999-05-25,1.07764
1999-05-26,1.0388
1999-05-27,1.07764
1999-05-28,1.15288
1999-06-01,1.14559
1999-06-02,1.14559
1999-06-03,1.16865
1999-06-04,1.21355
1999-06-07,1.20627
1999-06-08,1.19899
1999-06-09,1.18321
1999-06-10,1.17593
1999-06-11,1.14559
1999-06-14,1.11526
1999-06-15,1.12982
1999-06-16,1.16865
1999-06-17,1.19899
1999-06-18,1.22933
1999-06-21,1.24389
1999-06-22,1.23661
1999-06-23,1.25967
1999-06-24,1.21355
1999-06-25,1.24389
1999-06-28,1.24389
1999-06-29,1.27423
1999-06-30,1.27423
1999-07-01,1.29001
1999-07-02,1.32035
1999-07-06,1.28151
1999-07-07,1.27423
1999-07-08,1.26695
1999-07-09,1.25967
1999-07-12,1.21355
1999-07-13,1.20627
1999-07-14,1.20627
1999-07-15,1.21355
1999-07-16,1.22811
1999-07-19,1.18294
1999-07-20,1.18294
1999-07-21,1.13655
1999-07-22,1.08406
1999-07-23,1.09871
1999-07-26,1.00715
1999-07-27,0.969306
1999-07-28,0.931462
1999-07-29,0.961982
1999-07-30,1.01448
1999-08-02,1.03767
1999-08-03,1.03767
1999-08-04,0.999826
1999-08-05,1.05354
1999-08-06,1.05354
1999-08-09,1.12923
1999-08-10,1.06087
1999-08-11,1.06819
1999-08-12,1.07551
1999-08-13,1.07551
1999-08-16,1.06819
1999-08-17,1.10603
1999-08-18,1.09871
1999-08-19,1.09871
1999-08-20,1.11458
1999-08-23,1.1451
1999-08-24,1.12923
1999-08-25,1.08406
1999-08-26,1.06087
1999-08-27,1.08406
1999-08-30,1.09139
1999-08-31,1.09139
1999-09-01,1.09871
1999-09-02,1.08406
1999-09-03,1.09139
1999-09-07,1.10603
1999-09-08,1.09139
1999-09-09,1.10603
1999-09-10,1.1219
1999-09-13,1.09871
1999-09-14,1.09139
1999-09-15,1.09871
1999-09-16,1.07551
1999-09-17,1.07551
1999-09-20,1.06819
1999-09-21,1.06087
1999-09-22,1.03767
1999-09-23,0.961982
1999-09-24,0.915592
1999-09-27,1.00715
1999-09-28,1.05354
1999-09-29,1.06819
1999-09-30,1.10603
1999-10-01,1.08406
1999-10-04,1.08406
1999-10-05,1.09871
1999-10-06,1.09871
1999-10-07,1.1219
1999-10-08,1.11458
1999-10-11,1.1219
1999-10-12,1.08406
1999-10-13,1.09871
1999-10-14,1.08406
1999-10-15,1.08406
1999-10-18,1.09871
1999-10-19,1.09134
1999-10-20,1.07536
1999-10-21,1.01391
1999-10-22,1.02989
1999-10-25,1.06061
1999-10-26,0.983186
1999-10-27,0.99056
1999-10-28,0.983186
1999-10-29,0.99056
1999-11-01,0.937714
1999-11-02,0.929111
1999-11-03,0.952461
1999-11-04,0.959835
1999-11-05,1.01391
1999-11-08,0.952461
1999-11-09,0.959835
1999-11-10,0.959835
1999-11-11,0.921737
1999-11-12,0.891012
1999-11-15,0.898386
1999-11-16,1.02128
1999-11-17,0.968438
1999-11-18,0.975812
1999-11-19,0.968438
1999-11-22,0.937714
1999-11-23,0.945088
1999-11-24,0.929111
1999-11-26,0.937714
1999-11-29,0.906989
1999-11-30,0.914363
1999-12-01,0.891012
1999-12-02,0.867662
1999-12-03,0.891012
1999-12-06,0.852914
1999-12-07,0.814815
1999-12-08,0.798839
1999-12-09,0.806213
1999-12-10,0.76074
1999-12-13,0.76074
1999-12-14,0.76074
1999-12-15,0.73739
1999-12-16,0.73739
1999-12-17,0.714039
1999-12-20,0.706665
1999-12-21,0.73739
1999-12-22,0.73739
1999-12-23,0.706665
1999-12-27,0.706665
1999-12-28,0.744763
1999-12-29,0.798839
1999-12-30,0.798839
1999-12-31,0.806213
2000-01-03,0.798839
2000-01-04,0.829563
2000-01-05,0.791465
2000-01-06,0.791465
2000-01-07,0.784091
2000-01-10,0.784091
2000-01-11,0.791465
2000-01-12,0.775488
2000-01-13,0.814815
2000-01-14,0.784091
2000-01-18,0.80621
2000-01-19,0.751635
2000-01-20,0.744193
2000-01-21,0.736752
2000-01-24,0.698302
2000-01-25,0.689619
2000-01-26,0.698302
2000-01-27,0.674735
2000-01-28,0.689619
2000-01-31,0.713185
2000-02-01,0.705743
2000-02-02,0.720627
2000-02-03,0.751635
2000-02-04,0.76776
2000-02-07,0.751635
2000-02-08,0.751635
2000-02-09,0.751635
2000-02-10,0.775202
2000-02-11,0.751635
2000-02-14,0.760318
2000-02-15,0.782643
2000-02-16,0.798768
2000-02-17,0.837218
2000-02-18,0.875668
2000-02-22,0.88435
2000-02-23,0.875668
2000-02-24,0.853342
2000-02-25,0.84466
2000-02-28,0.84466
2000-02-29,0.868226
2000-03-01,0.860784
2000-03-02,0.875668
2000-03-03,0.899234
2000-03-06,0.868226
2000-03-07,0.88435
2000-03-08,0.915358
2000-03-09,0.875668
2000-03-10,0.853342
2000-03-13,0.853342
2000-03-14,0.84466
2000-03-15,0.84466
2000-03-16,0.860784
2000-03-17,0.829776
2000-03-20,0.822334
2000-03-21,0.813652
2000-03-22,0.80621
2000-03-23,0.829776
2000-03-24,0.837218
2000-03-27,0.813652
2000-03-28,0.813652
2000-03-29,0.813652
2000-03-30,0.822334
2000-03-31,0.829776
2000-04-03,0.822334
2000-04-04,0.80621
2000-04-05,0.791326
2000-04-06,0.813652
2000-04-07,0.853342
2000-04-10,0.937684
2000-04-11,0.946366
2000-04-12,0.9228
2000-04-13,0.930242
2000-04-14,0.937684
2000-04-17,0.96125
2000-04-18,0.985
2000-04-19,0.945
2000-04-20,0.96125
2000-04-24,0.96875
2000-04-25,0.97625
2000-04-26,0.985
2000-04-27,1.0075
2000-04-28,1.03125
2000-05-01,1.0475
2000-05-02,1.0625
2000-05-03,1.02375
2000-05-04,0.9925
2000-05-05,1.0475
2000-05-08,1.055
2000-05-09,1.03875
2000-05-10,1.07
2000-05-11,1.08625
2000-05-12,1.0475
2000-05-15,1.0625
2000-05-16,1.0475
2000-05-17,1.03125
2000-05-18,1.02375
2000-05-19,1.0475
2000-05-22,1.055
2000-05-23,1.055
2000-05-24,1.055
2000-05-25,1.07
2000-05-26,1.07
2000-05-30,1.1325
2000-05-31,1.15625
2000-06-01,1.21125
2000-06-02,1.2425
2000-06-05,1.21875
2000-06-06,1.21875
2000-06-07,1.21125
2000-06-08,1.20375
2000-06-09,1.20375
2000-06-12,1.21125
2000-06-13,1.20375
2000-06-14,1.2425
2000-06-15,1.25
2000-06-16,1.2975
2000-06-19,1.25
2000-06-20,1.21125
2000-06-21,1.21875
2000-06-22,0.8675
2000-06-23,0.8125
2000-06-26,0.8125
2000-06-27,0.77375
2000-06-28,0.77375
2000-06-29,0.78125
2000-06-30,0.78875
2000-07-03,0.78125
2000-07-05,0.77375
2000-07-06,0.89875
2000-07-07,0.945
2000-07-10,0.9375
2000-07-11,1.0
2000-07-12,0.9925
2000-07-13,0.985
2000-07-14,0.97625
2000-07-17,0.945
2000-07-18,0.93
2000-07-19,0.9375
2000-07-20,0.89125
2000-07-21,0.89875
2000-07-24,0.89875
2000-07-25,0.89125
2000-07-26,0.89125
2000-07-27,0.89125
2000-07-28,0.8825
2000-07-31,0.89125
2000-08-01,0.9225
2000-08-02,0.9225
2000-08-03,0.9225
2000-08-04,0.91375
2000-08-07,0.91375
2000-08-08,0.89875
2000-08-09,0.89875
2000-08-10,0.90625
2000-08-11,0.9225
2000-08-14,0.9225
2000-08-15,0.93
2000-08-16,0.945
2000-08-17,0.9375
2000-08-18,0.9225
2000-08-21,0.9375
2000-08-22,0.90625
2000-08-23,0.9225
2000-08-24,0.91375
2000-08-25,0.945
2000-08-28,0.95375
2000-08-29,0.945
2000-08-30,0.9375
2000-08-31,0.945
2000-09-01,0.945
2000-09-05,0.95375
2000-09-06,1.0
2000-09-07,1.01625
2000-09-08,1.0
2000-09-11,1.0
2000-09-12,0.985
2000-09-13,1.0
2000-09-14,1.0475
2000-09-15,1.14125
2000-09-18,1.2425
2000-09-19,1.1725
2000-09-20,1.1875
2000-09-21,1.14125
2000-09-22,1.125
2000-09-25,1.08625
2000-09-26,1.08625
2000-09-27,1.0625
2000-09-28,1.11
2000-09-29,1.07
2000-10-02,1.08625
2000-10-03,1.09375
2000-10-04,1.0475
2000-10-05,1.055
2000-10-06,1.02375
2000-10-09,1.02375
2000-10-10,1.03125
2000-10-11,1.055
2000-10-12,1.0475
2000-10-13,1.07875
2000-10-16,1.08625
2000-10-17,1.0475
2000-10-18,1.02375
2000-10-19,1.03875
2000-10-20,1.0625
2000-10-23,1.0475
2000-10-24,1.03875
2000-10-25,1.02375
2000-10-26,1.01625
2000-10-27,1.0075
2000-10-30,1.0
2000-10-31,1.0
2000-11-01,1.0
2000-11-02,1.0
2000-11-03,0.9925
2000-11-06,1.0
2000-11-07,0.9925
2000-11-08,0.9925
2000-11-09,0.9925
2000-11-10,0.95375
2000-11-13,0.945
2000-11-14,0.97625
2000-11-15,0.985
2000-11-16,0.945
2000-11-17,0.96125
2000-11-20,0.985
2000-11-21,0.985
2000-11-22,0.96875
2000-11-24,0.985
2000-11-27,0.985
2000-11-28,0.96875
2000-11-29,0.96875
2000-11-30,0.96125
2000-12-01,0.96125
2000-12-04,0.96875
2000-12-05,0.96125
2000-12-06,0.9375
2000-12-07,0.9225
2000-12-08,0.93
2000-12-11,0.9375
2000-12-12,0.9225
2000-12-13,0.9225
2000-12-14,0.91375
2000-12-15,0.91375
2000-12-18,0.9225
2000-12-19,0.96125
2000-12-20,0.96125
2000-12-21,0.95375
2000-12-22,0.96125
2000-12-26,0.985
2000-12-27,1.1325
2000-12-28,1.21125
2000-12-29,1.28875
2001-01-02,1.20375
2001-01-03,1.21875
2001-01-04,1.2575
2001-01-05,1.28125
2001-01-08,1.25
2001-01-09,1.21875
2001-01-10,1.2575
2001-01-11,1.2425
2001-01-12,1.22625
2001-01-16,1.25
2001-01-17,1.28125
2001-01-18,1.27375
2001-01-19,1.25
2001-01-22,1.235
2001-01-23,1.15625
2001-01-24,1.14125
2001-01-25,1.14125
2001-01-26,1.1325
2001-01-29,1.15125
2001-01-30,1.16
2001-01-31,1.1375
2001-02-01,1.09875
2001-02-02,1.125
2001-02-05,1.17125
2001-02-06,1.17125
2001-02-07,1.25
2001-02-08,1.26375
2001-02-09,1.28
2001-02-12,1.265
2001-02-13,1.2625
2001-02-14,1.24375
2001-02-15,1.2525
2001-02-16,1.25125
2001-02-20,1.2875
2001-02-21,1.2825
2001-02-22,1.27625
2001-02-23,1.28125
2001-02-26,1.34375
2001-02-27,1.3025
2001-02-28,1.3025
2001-03-01,1.30625
2001-03-02,1.3225
2001-03-05,1.30625
2001-03-06,1.3125
2001-03-07,1.3625
2001-03-08,1.36625
2001-03-09,1.38
2001-03-12,1.33125
2001-03-13,1.225
2001-03-14,1.24375
2001-03-15,1.245
2001-03-16,1.26875
2001-03-19,1.28125
2001-03-20,1.2625
2001-03-21,1.2
2001-03-22,1.225
2001-03-23,1.24875
2001-03-26,1.28125
2001-03-27,1.2625
2001-03-28,1.2625
2001-03-29,1.2125
2001-03-30,1.22375
2001-04-02,1.25125
2001-04-03,1.25375
2001-04-04,1.24
2001-04-05,1.24375
2001-04-06,1.1375
2001-04-09,1.125
2001-04-10,1.125
2001-04-11,1.1225
2001-04-12,1.14375
2001-04-16,1.14375
2001-04-17,1.1875
2001-04-18,1.20625
2001-04-19,1.2325
2001-04-20,1.24375
2001-04-23,1.3375
2001-04-24,1.36375
2001-04-25,1.365
2001-04-26,1.43125
2001-04-27,1.58125
2001-04-30,1.64375
2001-05-01,1.6275
2001-05-02,1.60875
2001-05-03,1.61875
2001-05-04,1.64125
2001-05-07,1.61875
2001-05-08,1.625
2001-05-09,1.6125
2001-05-10,1.63125
2001-05-11,1.63
2001-05-14,1.63125
2001-05-15,1.7625
2001-05-16,1.775
2001-05-17,1.795
2001-05-18,2.0125
2001-05-21,1.91125
2001-05-22,1.87
2001-05-23,1.84375
2001-05-24,1.8625
2001-05-25,1.96875
2001-05-29,1.94375
2001-05-30,1.93
2001-05-31,1.9125
2001-06-01,1.9
2001-06-04,1.875
2001-06-05,1.89375
2001-06-06,1.85
2001-06-07,1.78125
2001-06-08,1.7475
2001-06-11,1.7125
2001-06-12,1.73625
2001-06-13,1.7275
2001-06-14,1.7125
2001-06-15,1.68125
2001-06-18,1.59375
2001-06-19,1.56875
2001-06-20,1.55
2001-06-21,1.40625
2001-06-22,1.4175
2001-06-25,1.41375
2001-06-26,1.41875
2001-06-27,1.4175
2001-06-28,1.385
2001-06-29,1.49375
2001-07-02,1.40625
2001-07-03,1.41875
2001-07-05,1.4125
2001-07-06,1.3875
2001-07-09,1.37125
2001-07-10,1.3875
2001-07-11,1.3825
2001-07-12,1.3875
2001-07-13,1.3925
2001-07-16,1.3825
2001-07-17,1.45625
2001-07-18,1.45875
2001-07-19,1.45625
2001-07-20,1.45
2001-07-23,1.46
2001-07-24,1.4875
2001-07-25,1.49375
2001-07-26,1.56375
2001-07-27,1.57625
2001-07-30,1.58125
2001-07-31,1.63625
2001-08-01,1.60125
2001-08-02,1.565
2001-08-03,1.51875
2001-08-06,1.4875
2001-08-07,1.49375
2001-08-08,1.50625
2001-08-09,1.45625
2001-08-10,1.47875
2001-08-13,1.4575
2001-08-14,1.45625
2001-08-15,1.48625
2001-08-16,1.575
2001-08-17,1.61
2001-08-20,1.605
2001-08-21,1.61375
2001-08-22,1.68125
2001-08-23,1.6275
2001-08-24,1.635
2001-08-27,1.625
2001-08-28,1.605
2001-08-29,1.5725
2001-08-30,1.56875
2001-08-31,1.56875
2001-09-04,1.5325
2001-09-05,1.4675
2001-09-06,1.46375
2001-09-07,1.4425
2001-09-10,1.45
2001-09-17,1.45
2001-09-18,1.41
2001-09-19,1.3825
2001-09-20,1.37375
2001-09-21,1.38125
2001-09-24,1.4025
2001-09-25,1.38125
2001-09-26,1.3625
2001-09-27,1.39875
2001-09-28,1.445
2001-10-01,1.4825
2001-10-02,1.5
2001-10-03,1.46875
2001-10-04,1.46625
2001-10-05,1.45875
2001-10-08,1.44625
2001-10-09,1.40625
2001-10-10,1.5375
2001-10-11,1.5625
2001-10-12,1.53125
2001-10-15,1.54375
2001-10-16,1.57625
2001-10-17,1.55625
2001-10-18,1.515
2001-10-19,1.5625
2001-10-22,1.59125
2001-10-23,1.55125
2001-10-24,1.5
2001-10-25,1.4975
2001-10-26,1.49875
2001-10-29,1.4875
2001-10-30,1.475
2001-10-31,1.475
2001-11-01,1.4875
2001-11-02,1.46875
2001-11-05,1.4875
2001-11-06,1.45125
2001-11-07,1.445
2001-11-08,1.41125
2001-11-09,1.415
2001-11-12,1.4175
2001-11-13,1.44375
2001-11-14,1.5875
2001-11-15,1.52
2001-11-16,1.53625
2001-11-19,1.54875
2001-11-20,1.53125
2001-11-21,1.5125
2001-11-23,1.51875
2001-11-26,1.50125
2001-11-27,1.36875
2001-11-28,1.31875
2001-11-29,1.34375
2001-11-30,1.37625
2001-12-03,1.38125
2001-12-04,1.4125
2001-12-05,1.4375
2001-12-06,1.4225
2001-12-07,1.4375
2001-12-10,1.39375
2001-12-11,1.3875
2001-12-12,1.3325
2001-12-13,1.325
2001-12-14,1.36
2001-12-17,1.29375
2001-12-18,1.23125
2001-12-19,1.205
2001-12-20,1.25
2001-12-21,1.34875
2001-12-24,1.3025
2001-12-26,1.3225
2001-12-27,1.38
2001-12-28,1.375
2001-12-31,1.32375
2002-01-02,1.2625
2002-01-03,1.34875
2002-01-04,1.3575
2002-01-07,1.3
2002-01-08,1.3625
2002-01-09,1.40625
2002-01-10,1.4325
2002-01-11,1.44375
2002-01-14,1.4375
2002-01-15,1.4125
2002-01-16,1.38125
2002-01-17,1.40625
2002-01-18,1.37875
2002-01-22,1.3525
2002-01-23,1.37375
2002-01-24,1.3625
2002-01-25,1.3625
2002-01-28,1.365
2002-01-29,1.3625
2002-01-30,1.37375
2002-01-31,1.4375
2002-02-01,1.425
2002-02-04,1.38375
2002-02-05,1.375
2002-02-06,1.34625
2002-02-07,1.34
2002-02-08,1.34375
2002-02-11,1.34375
2002-02-12,1.3375
2002-02-13,1.3875
2002-02-14,1.36375
2002-02-15,1.4125
2002-02-19,1.42875
2002-02-20,1.43875
2002-02-21,1.375
2002-02-22,1.415
2002-02-25,1.3875
2002-02-26,1.38125
2002-02-27,1.3875
2002-02-28,1.3975
2002-03-01,1.425
2002-03-04,1.36375
2002-03-05,1.35
2002-03-06,1.4
2002-03-07,1.39875
2002-03-08,1.3925
2002-03-11,1.39375
2002-03-12,1.3875
2002-03-13,1.39625
2002-03-14,1.36875
2002-03-15,1.375
2002-03-18,1.4175
2002-03-19,1.4225
2002-03-20,1.44125
2002-03-21,1.44375
2002-03-22,1.50875
2002-03-25,1.47625
2002-03-26,1.5
2002-03-27,1.555
2002-03-28,1.5625
2002-04-01,1.58
2002-04-02,1.59
2002-04-03,1.5775
2002-04-04,1.6125
2002-04-05,1.64375
2002-04-08,1.7
2002-04-09,1.7125
2002-04-10,1.68125
2002-04-11,1.69375
2002-04-12,1.74875
2002-04-15,1.745
2002-04-16,1.74625
2002-04-17,1.7375
2002-04-18,1.7375
2002-04-19,1.74125
2002-04-22,1.75
2002-04-23,1.73125
2002-04-24,1.73125
2002-04-25,1.76125
2002-04-26,1.755
2002-04-29,1.7725
2002-04-30,1.79375
2002-05-01,1.81125
2002-05-02,1.805
2002-05-03,1.79375
2002-05-06,1.76875
2002-05-07,1.76875
2002-05-08,1.7875
2002-05-09,1.78125
2002-05-10,1.775
2002-05-13,1.78125
2002-05-14,1.8025
2002-05-15,1.8125
2002-05-16,1.80625
2002-05-17,1.82
2002-05-20,1.825
2002-05-21,1.825
2002-05-22,1.82
2002-05-23,1.84375
2002-05-24,1.8275
2002-05-28,1.83375
2002-05-29,1.825
2002-05-30,1.7625
2002-05-31,1.76
2002-06-03,1.6625
2002-06-04,1.675
2002-06-05,1.65875
2002-06-06,1.6125
2002-06-07,1.6725
2002-06-10,1.6625
2002-06-11,1.65125
2002-06-12,1.625
2002-06-13,1.625
2002-06-14,1.6425
2002-06-17,1.675
2002-06-18,1.65125
2002-06-19,1.6425
2002-06-20,1.7
2002-06-21,1.695
2002-06-24,1.68125
2002-06-25,1.70125
2002-06-26,1.675
2002-06-27,1.78875
2002-06-28,1.8975
2002-07-01,1.80625
2002-07-02,1.675
2002-07-03,1.6675
2002-07-05,1.75875
2002-07-08,1.70625
2002-07-09,1.6225
2002-07-10,1.52125
2002-07-11,1.5
2002-07-12,1.43
2002-07-15,1.39125
2002-07-16,1.35125
2002-07-17,1.35875
2002-07-18,1.40625
2002-07-19,1.35875
2002-07-22,1.3375
2002-07-23,1.2075
2002-07-24,1.35
2002-07-25,1.345
2002-07-26,1.375
2002-07-29,1.38
2002-07-30,1.3875
2002-07-31,1.375
2002-08-01,1.36375
2002-08-02,1.36125
2002-08-05,1.37
2002-08-06,1.35375
2002-08-07,1.37
2002-08-08,1.36875
2002-08-09,1.35625
2002-08-12,1.3625
2002-08-13,1.35625
2002-08-14,1.44375
2002-08-15,1.51625
2002-08-16,1.475
2002-08-19,1.49
2002-08-20,1.46875
2002-08-21,1.5825
2002-08-22,1.6125
2002-08-23,1.55
2002-08-26,1.5425
2002-08-27,1.5
2002-08-28,1.43
2002-08-29,1.44375
2002-08-30,1.445
2002-09-03,1.435
2002-09-04,1.52
2002-09-05,1.41875
2002-09-06,1.50125
2002-09-09,1.4925
2002-09-10,1.5475
2002-09-11,1.56625
2002-09-12,1.47
2002-09-13,1.55625
2002-09-16,1.53125
2002-09-17,1.49375
2002-09-18,1.5375
2002-09-19,1.575
2002-09-20,1.5375
2002-09-23,1.5275
2002-09-24,1.5225
2002-09-25,1.52125
2002-09-26,1.54625
2002-09-27,1.52
2002-09-30,1.4975
2002-10-01,1.55
2002-10-02,1.51
2002-10-03,1.50625
2002-10-04,1.475
2002-10-07,1.45875
2002-10-08,1.44125
2002-10-09,1.4125
2002-10-10,1.4275
2002-10-11,1.44375
2002-10-14,1.40875
2002-10-15,1.45625
2002-10-16,1.4075
2002-10-17,1.44875
2002-10-18,1.36
2002-10-21,1.375
2002-10-22,1.42
2002-10-23,1.44375
2002-10-24,1.43625
2002-10-25,1.4625
2002-10-28,1.44
2002-10-29,1.37
2002-10-30,1.42375
2002-10-31,1.405
2002-11-01,1.4625
2002-11-04,1.47625
2002-11-05,1.42375
2002-11-06,1.43125
2002-11-07,1.4
2002-11-08,1.38125
2002-11-11,1.3625
2002-11-12,1.36
2002-11-13,1.375
2002-11-14,1.4
2002-11-15,1.40375
2002-11-18,1.4
2002-11-19,1.4075
2002-11-20,1.4025
2002-11-21,1.43125
2002-11-22,1.4075
2002-11-25,1.4475
2002-11-26,1.4125
2002-11-27,1.4825
2002-11-29,1.375
2002-12-02,1.39625
2002-12-03,1.4475
2002-12-04,1.39125
2002-12-05,1.405
2002-12-06,1.42375
2002-12-09,1.3825
2002-12-10,1.43375
2002-12-11,1.42875
2002-12-12,1.4875
2002-12-13,1.43125
2002-12-16,1.43375
2002-12-17,1.395
2002-12-18,1.3725
2002-12-19,1.39
2002-12-20,1.38
2002-12-23,1.425
2002-12-24,1.44125
2002-12-26,1.44375
2002-12-27,1.4625
2002-12-30,1.465
2002-12-31,1.43875
2003-01-02,1.46625
2003-01-03,1.49375
2003-01-06,1.52375
2003-01-07,1.47375
2003-01-08,1.4525
2003-01-09,1.44875
2003-01-10,1.4325
2003-01-13,1.4525
2003-01-14,1.47625
2003-01-15,1.535
2003-01-16,1.51
2003-01-17,1.45
2003-01-21,1.46
2003-01-22,1.4725
2003-01-23,1.48375
2003-01-24,1.4375
2003-01-27,1.4
2003-01-28,1.45125
2003-01-29,1.4625
2003-01-30,1.425
2003-01-31,1.47125
2003-02-03,1.46875
2003-02-04,1.535
2003-02-05,1.48625
2003-02-06,1.48
2003-02-07,1.42375
2003-02-10,1.475
2003-02-11,1.42625
2003-02-12,1.4375
2003-02-13,1.425
2003-02-14,1.45375
2003-02-18,1.425
2003-02-19,1.3975
2003-02-20,1.395
2003-02-21,1.39625
2003-02-24,1.4475
2003-02-25,1.44
2003-02-26,1.43875
2003-02-27,1.445
2003-02-28,1.465
2003-03-03,1.49125
2003-03-04,1.5375
2003-03-05,1.5425
2003-03-06,1.59625
2003-03-07,1.57375
2003-03-10,1.56375
2003-03-11,1.5725
2003-03-12,1.575
2003-03-13,1.55
2003-03-14,1.5475
2003-03-17,1.56375
2003-03-18,1.555
2003-03-19,1.5675
2003-03-20,1.58125
2003-03-21,1.5775
2003-03-24,1.56375
2003-03-25,1.575
2003-03-26,1.56875
2003-03-27,1.61
2003-03-28,1.64875
2003-03-31,1.62875
2003-04-01,1.7125
2003-04-02,1.6725
2003-04-03,1.64125
2003-04-04,1.64125
2003-04-07,1.635
2003-04-08,1.6175
2003-04-09,1.61875
2003-04-10,1.62375
2003-04-11,1.64375
2003-04-14,1.64875
2003-04-15,1.6275
2003-04-16,1.65375
2003-04-17,1.695
2003-04-21,1.72375
2003-04-22,1.73875
2003-04-23,1.7325
2003-04-24,1.68
2003-04-25,1.67625
2003-04-28,1.68375
2003-04-29,1.68375
2003-04-30,1.67
2003-05-01,1.64875
2003-05-02,1.6825
2003-05-05,1.72125
2003-05-06,1.745
2003-05-07,1.74
2003-05-08,1.75
2003-05-09,1.79875
2003-05-12,1.795
2003-05-13,1.8
2003-05-14,1.81375
2003-05-15,1.8125
2003-05-16,1.79375
2003-05-19,1.78375
2003-05-20,1.8
2003-05-21,1.835
2003-05-22,1.8425
2003-05-23,1.88375
2003-05-27,1.9025
2003-05-28,1.86625
2003-05-29,1.86375
2003-05-30,1.875
2003-06-02,1.885
2003-06-03,1.88125
2003-06-04,1.86625
2003-06-05,1.88125
2003-06-06,1.9125
2003-06-09,1.88
2003-06-10,1.93125
2003-06-11,2.01625
2003-06-12,2.025
2003-06-13,1.975
2003-06-16,1.9925
2003-06-17,1.9625
2003-06-18,1.97375
2003-06-19,2.00125
2003-06-20,1.9975
2003-06-23,1.98
2003-06-24,1.9925
2003-06-25,2.015
2003-06-26,2.0125
2003-06-27,1.905
2003-06-30,1.8675
2003-07-01,1.9375
2003-07-02,1.96125
2003-07-03,1.95875
2003-07-07,1.975
2003-07-08,2.00125
2003-07-09,1.9425
2003-07-10,1.9275
2003-07-11,1.92625
2003-07-14,1.915
2003-07-15,1.9175
2003-07-16,1.85125
2003-07-17,1.86125
2003-07-18,1.88125
2003-07-21,1.84375
2003-07-22,1.84375
2003-07-23,1.81875
2003-07-24,1.805
2003-07-25,1.80875
2003-07-28,1.85375
2003-07-29,1.8525
2003-07-30,1.90625
2003-07-31,1.89875
2003-08-01,1.90625
2003-08-04,1.84875
2003-08-05,1.81625
2003-08-06,1.82875
2003-08-07,1.85
2003-08-08,1.83
2003-08-11,1.91875
2003-08-12,2.0025
2003-08-13,2.09125
2003-08-14,2.13625
2003-08-15,2.15375
2003-08-18,2.225
2003-08-19,2.13375
2003-08-20,2.1725
2003-08-21,2.22125
2003-08-22,2.1675
2003-08-25,2.1625
2003-08-26,2.1375
2003-08-27,2.1375
2003-08-28,2.24625
2003-08-29,2.26375
2003-09-02,2.2475
2003-09-03,2.165
2003-09-04,2.14
2003-09-05,2.15125
2003-09-08,2.2125
2003-09-09,2.21625
2003-09-10,2.20875
2003-09-11,2.24125
2003-09-12,2.22875
2003-09-15,2.18875
2003-09-16,2.19875
2003-09-17,2.1825
2003-09-18,2.15
2003-09-19,2.18875
2003-09-22,2.2
2003-09-23,2.195
2003-09-24,2.15
2003-09-25,2.17625
2003-09-26,2.15625
2003-09-29,2.22
2003-09-30,2.2625
2003-10-01,2.29125
2003-10-02,2.35625
2003-10-03,2.3525
2003-10-06,2.33375
2003-10-07,2.37
2003-10-08,2.37625
2003-10-09,2.37625
2003-10-10,2.475
2003-10-13,2.5
2003-10-14,2.4925
2003-10-15,2.4825
2003-10-16,2.49
2003-10-17,2.45625
2003-10-20,2.46125
2003-10-21,2.4625
2003-10-22,2.4125
2003-10-23,2.39
2003-10-24,2.3875
2003-10-27,2.4225
2003-10-28,2.4425
2003-10-29,2.47375
2003-10-30,2.48875
2003-10-31,2.42625
2003-11-03,2.4475
2003-11-04,2.4175
2003-11-05,2.43125
2003-11-06,2.41875
2003-11-07,2.45
2003-11-10,2.4375
2003-11-11,2.43125
2003-11-12,2.46
2003-11-13,2.45625
2003-11-14,2.4375
2003-11-17,2.4375
2003-11-18,2.4025
2003-11-19,2.41125
2003-11-20,2.41625
2003-11-21,2.42625
2003-11-24,2.4725
2003-11-25,2.5
2003-11-26,2.54625
2003-11-28,2.55125
2003-12-01,2.625
2003-12-02,2.64375
2003-12-03,2.54375
2003-12-04,2.57
2003-12-05,2.56125
2003-12-08,2.64875
2003-12-09,2.63875
2003-12-10,2.6675
2003-12-11,2.68625
2003-12-12,2.75
2003-12-15,2.75
2003-12-16,2.8325
2003-12-17,2.855
2003-12-18,2.84125
2003-12-19,2.82625
2003-12-22,2.8175
2003-12-23,2.85875
2003-12-24,2.93625
2003-12-26,3.09125
2003-12-29,3.10375
2003-12-30,3.0975
2003-12-31,2.99375
2004-01-02,2.98125
2004-01-05,3.04375
2004-01-06,2.985
2004-01-07,2.90875
2004-01-08,2.94375
2004-01-09,2.95625
2004-01-12,3.01875
2004-01-13,3.0075
2004-01-14,2.9525
2004-01-15,2.9325
2004-01-16,2.83125
2004-01-20,2.915
2004-01-21,2.94375
2004-01-22,2.93875
2004-01-23,2.96125
2004-01-26,2.96125
2004-01-27,2.90375
2004-01-28,2.7875
2004-01-29,2.6125
2004-01-30,2.5725
2004-02-02,2.6
2004-02-03,2.59875
2004-02-04,2.50125
2004-02-05,2.43375
2004-02-06,2.5125
2004-02-09,2.56375
2004-02-10,2.645
2004-02-11,2.645
2004-02-12,2.7425
2004-02-13,2.75
2004-02-17,2.7125
2004-02-18,2.675
2004-02-19,2.5825
2004-02-20,2.705
2004-02-23,2.61125
2004-02-24,2.65875
2004-02-25,2.65375
2004-02-26,2.7525
2004-02-27,2.8075
2004-03-01,2.8925
2004-03-02,2.89125
2004-03-03,2.87125
2004-03-04,2.88875
2004-03-05,2.89625
2004-03-08,2.895
2004-03-09,2.8875
2004-03-10,2.8625
2004-03-11,2.845
2004-03-12,2.89875
2004-03-15,2.875
2004-03-16,2.8625
2004-03-17,2.8825
2004-03-18,2.89
2004-03-19,2.91
2004-03-22,2.87875
2004-03-23,2.87
2004-03-24,2.83625
2004-03-25,2.84125
2004-03-26,2.8575
2004-03-29,2.875
2004-03-30,2.8975
2004-03-31,3.0125
2004-04-01,2.98125
2004-04-02,3.05
2004-04-05,3.03625
2004-04-06,2.99625
2004-04-07,3.03875
2004-04-08,3.05625
2004-04-12,3.115
2004-04-13,3.02125
2004-04-14,2.97625
2004-04-15,3.11875
2004-04-16,3.1125
2004-04-19,3.175
2004-04-20,3.09625
2004-04-21,3.0975
2004-04-22,3.1875
2004-04-23,3.19
2004-04-26,3.2525
2004-04-27,3.32375
2004-04-28,3.2425
2004-04-29,3.1875
2004-04-30,3.1375
2004-05-03,3.29625
2004-05-04,3.29875
2004-05-05,3.30625
2004-05-06,3.3
2004-05-07,3.21375
2004-05-10,3.01875
2004-05-11,3.0425
2004-05-12,3.03125
2004-05-13,3.0425
2004-05-14,3.21125
2004-05-17,3.2175
2004-05-18,3.15375
2004-05-19,3.13375
2004-05-20,3.1625
2004-05-21,3.13125
2004-05-24,3.18375
2004-05-25,3.25
2004-05-26,3.25125
2004-05-27,3.21125
2004-05-28,3.2075
2004-06-01,3.275
2004-06-02,3.21125
2004-06-03,3.14125
2004-06-04,3.125
2004-06-07,3.22
2004-06-08,3.27375
2004-06-09,3.21
2004-06-10,3.27375
2004-06-14,3.25875
2004-06-15,3.33
2004-06-16,3.49625
2004-06-17,3.47875
2004-06-18,3.4625
2004-06-21,3.57
2004-06-22,3.5725
2004-06-23,3.57375
2004-06-24,3.55875
2004-06-25,3.555
2004-06-28,3.54
2004-06-29,3.5375
2004-06-30,3.585
2004-07-01,3.79375
2004-07-02,3.805
2004-07-06,3.90875
2004-07-07,3.86875
2004-07-08,3.8175
2004-07-09,3.8625
2004-07-12,3.82375
2004-07-13,3.805
2004-07-14,3.8
2004-07-15,3.845
2004-07-16,3.865
2004-07-19,3.8125
2004-07-20,3.88375
2004-07-21,3.79375
2004-07-22,3.7025
2004-07-23,3.73
2004-07-26,3.7475
2004-07-27,3.8125
2004-07-28,3.90625
2004-07-29,4.02
2004-07-30,4.025
2004-08-02,4.105
2004-08-03,4.135
2004-08-04,4.025
2004-08-05,3.915
2004-08-06,3.7225
2004-08-09,3.84
2004-08-10,3.875
2004-08-11,3.84375
2004-08-12,3.79875
2004-08-13,3.87625
2004-08-16,3.94
2004-08-17,3.875
2004-08-18,4.36125
2004-08-19,4.3125
2004-08-20,4.43375
2004-08-23,4.2875
2004-08-24,4.2475
2004-08-25,4.34125
2004-08-26,4.3775
2004-08-27,4.4
2004-08-30,4.37
2004-08-31,4.4475
2004-09-01,4.53875
2004-09-02,4.62375
2004-09-03,4.57
2004-09-07,4.625
2004-09-08,4.58875
2004-09-09,4.835
2004-09-10,4.8375
2004-09-13,4.86375
2004-09-14,4.955
2004-09-15,4.93375
2004-09-16,4.95625
2004-09-17,4.9575
2004-09-20,4.93
2004-09-21,4.9875
2004-09-22,4.91375
2004-09-23,4.92
2004-09-24,4.97625
2004-09-27,5.00625
2004-09-28,5.2975
2004-09-29,5.25625
2004-09-30,5.24875
2004-10-01,5.41125
2004-10-04,5.45625
2004-10-05,5.4375
2004-10-06,5.62625
2004-10-07,5.5625
2004-10-08,5.51
2004-10-11,5.5575
2004-10-12,5.5625
2004-10-13,5.17375
2004-10-14,5.31875
2004-10-15,5.4125
2004-10-18,5.40625
2004-10-19,5.48875
2004-10-20,5.685
2004-10-21,5.81375
2004-10-22,5.77
2004-10-25,5.82625
2004-10-26,5.8675
2004-10-27,5.84375
2004-10-28,5.72375
2004-10-29,5.7375
2004-11-01,5.73125
2004-11-02,5.77125
2004-11-03,5.89875
2004-11-04,6.115
2004-11-05,6.125
2004-11-08,5.9825
2004-11-09,5.96875
2004-11-10,6.1575
2004-11-11,6.185
2004-11-12,6.37375
2004-11-15,6.1925
2004-11-16,5.9875
2004-11-17,6.0775
2004-11-18,6.125
2004-11-19,6.11375
2004-11-22,6.32
2004-11-23,6.54375
2004-11-24,6.6575
2004-11-26,6.775
2004-11-29,6.76625
2004-11-30,6.8625
2004-12-01,6.5925
2004-12-02,6.23125
2004-12-03,6.47125
2004-12-06,6.5
2004-12-07,6.2
2004-12-08,6.23875
2004-12-09,6.24375
2004-12-10,6.1325
2004-12-13,6.31375
2004-12-14,6.38125
2004-12-15,6.515
2004-12-16,6.375
2004-12-17,6.395
2004-12-20,6.4
2004-12-21,6.54625
2004-12-22,6.4275
2004-12-23,6.42875
2004-12-27,6.0925
2004-12-28,6.34375
2004-12-29,6.375
2004-12-30,6.35875
2004-12-31,6.315
2005-01-03,5.89125
2005-01-04,5.6925
2005-01-05,5.61125
2005-01-06,5.6975
2005-01-07,5.6325
2005-01-10,5.73875
2005-01-11,5.7425
2005-01-12,5.96125
2005-01-13,6.06875
2005-01-14,6.1275
2005-01-18,6.23375
2005-01-19,6.14375
2005-01-20,6.0925
2005-01-21,6.23125
2005-01-24,6.115
2005-01-25,6.1
2005-01-26,6.08375
2005-01-27,6.24125
2005-01-28,6.21125
2005-01-31,6.41
2005-02-01,6.77
2005-02-02,6.93875
2005-02-03,6.87
2005-02-04,6.8775
2005-02-07,6.8625
2005-02-08,6.845
2005-02-09,6.8
2005-02-10,7.22
2005-02-11,7.29875
2005-02-14,7.24875
2005-02-15,7.18125
2005-02-16,7.45625
2005-02-17,7.17875
2005-02-18,7.4525
2005-02-22,7.26125
2005-02-23,7.33875
2005-02-24,7.6
2005-02-25,7.72625
2005-02-28,7.605
2005-03-01,7.165
2005-03-02,7.29875
2005-03-03,7.49375
2005-03-04,7.635
2005-03-07,7.515
2005-03-08,7.375
2005-03-09,7.2225
2005-03-10,6.99375
2005-03-11,7.13125
2005-03-14,7.12375
2005-03-15,7.085
2005-03-16,7.08
2005-03-17,7.17
2005-03-18,7.29
2005-03-21,7.3
2005-03-22,7.28
2005-03-23,6.9425
2005-03-24,7.125
2005-03-28,6.9
2005-03-29,6.61875
2005-03-30,6.79
2005-03-31,7.09375
2005-04-01,7.4625
2005-04-04,7.43
2005-04-05,7.345
2005-04-06,7.45875
2005-04-07,7.40125
2005-04-08,7.24125
2005-04-11,7.20875
2005-04-12,7.38875
2005-04-13,7.31375
2005-04-14,7.24625
2005-04-15,7.0875
2005-04-18,7.1875
2005-04-19,7.3275
2005-04-20,7.28375
2005-04-21,7.62625
2005-04-22,7.49375
2005-04-25,7.6175
2005-04-26,7.5075
2005-04-27,7.52625
2005-04-28,7.195
2005-04-29,7.33875
2005-05-02,8.35875
2005-05-03,8.37125
2005-05-04,8.4
2005-05-05,8.34375
2005-05-06,8.57125
2005-05-09,8.635
2005-05-10,8.39
2005-05-11,8.37875
2005-05-12,8.04875
2005-05-13,8.05625
2005-05-16,8.04625
2005-05-17,8.28125
2005-05-18,8.2625
2005-05-19,8.42375
2005-05-20,8.3875
2005-05-23,8.3075
2005-05-24,8.4125
2005-05-25,8.435
2005-05-26,8.74875
2005-05-27,8.85375
2005-05-31,8.73375
2005-06-01,8.97875
2005-06-02,9.02
2005-06-03,9.0525
2005-06-06,9.1375
2005-06-07,8.9175
2005-06-08,8.8925
2005-06-09,9.2375
2005-06-10,9.29
2005-06-13,10.14
2005-06-14,10.7075
2005-06-15,10.8875
2005-06-16,10.7825
2005-06-17,10.8425
2005-06-20,11.1525
2005-06-21,10.9675
2005-06-22,11.085
2005-06-23,10.79
2005-06-24,10.88
2005-06-27,10.8625
2005-06-28,10.8
2005-06-29,11.71
2005-06-30,11.7825
2005-07-01,12.645
2005-07-05,13.2075
2005-07-06,12.5925
2005-07-07,13.5475
2005-07-08,13.095
2005-07-11,13.1575
2005-07-12,13.4
2005-07-13,13.15
2005-07-14,12.57
2005-07-15,12.6075
2005-07-18,12.3825
2005-07-19,12.89
2005-07-20,12.7225
2005-07-21,12.5575
2005-07-22,13.375
2005-07-25,13.5375
2005-07-26,13.9275
2005-07-27,13.7775
2005-07-28,13.615
2005-07-29,13.77
2005-08-01,13.9725
2005-08-02,14.1825
2005-08-03,14.27
2005-08-04,14.2075
2005-08-05,13.955
2005-08-08,13.9175
2005-08-09,13.87
2005-08-10,14.2925
2005-08-11,14.3175
2005-08-12,14.2975
2005-08-15,14.1025
2005-08-16,13.525
2005-08-17,12.87
2005-08-18,13.1625
2005-08-19,13.4575
2005-08-22,13.4575
2005-08-23,13.3575
2005-08-24,13.345
2005-08-25,13.3775
2005-08-26,13.125
2005-08-29,13.12
2005-08-30,13.9975
2005-08-31,14.4675
2005-09-01,14.8075
2005-09-02,14.3275
2005-09-06,14.225
2005-09-07,14.0825
2005-09-08,13.975
2005-09-09,14.375
2005-09-12,14.2375
2005-09-13,15.26
2005-09-14,15.395
2005-09-15,15.6125
2005-09-16,15.6575
2005-09-19,16.195
2005-09-20,16.475
2005-09-21,16.465
2005-09-22,16.0375
2005-09-23,15.73
2005-09-26,16.385
2005-09-27,16.4625
2005-09-28,17.75
2005-09-29,18.565
2005-09-30,18.3
2005-10-03,20.55
2005-10-04,19.705
2005-10-05,18.85
2005-10-06,17.5775
2005-10-07,17.985
2005-10-10,17.3025
2005-10-11,17.7925
2005-10-12,16.725
2005-10-13,16.4275
2005-10-14,17.0175
2005-10-17,17.48
2005-10-18,16.2275
2005-10-19,16.795
2005-10-20,15.655
2005-10-21,16.0825
2005-10-24,17.155
2005-10-25,17.91
2005-10-26,18.0575
2005-10-27,17.4225
2005-10-28,17.7625
2005-10-31,18.125
2005-11-01,17.7075
2005-11-02,18.36
2005-11-03,18.3225
2005-11-04,17.3925
2005-11-07,17.2175
2005-11-08,17.49
2005-11-09,17.1425
2005-11-10,15.9675
2005-11-11,16.56
2005-11-14,16.8625
2005-11-15,16.9075
2005-11-16,17.6025
2005-11-17,17.53
2005-11-18,17.42
2005-11-21,18.345
2005-11-22,18.425
2005-11-23,17.945
2005-11-25,18.25
2005-11-28,16.885
2005-11-29,17.015
2005-11-30,17.02
2005-12-01,18.075
2005-12-02,18.19
2005-12-05,18.225
2005-12-06,18.05
2005-12-07,17.735
2005-12-08,18.135
2005-12-09,17.65
2005-12-12,17.925
2005-12-13,18.225
2005-12-14,18.615
2005-12-15,18.135
2005-12-16,17.74
2005-12-19,17.45
2005-12-20,17.435
2005-12-21,18.47
2005-12-22,18.745
2005-12-23,18.95
2005-12-27,17.975
2005-12-28,18.485
2005-12-29,18.12
2005-12-30,17.91
2006-01-03,18.745
2006-01-04,18.995
2006-01-05,18.48
2006-01-06,18.57
2006-01-09,18.745
2006-01-10,19.475
2006-01-11,19.1
2006-01-12,19.405
2006-01-13,20.33
2006-01-17,20.86
2006-01-18,20.555
2006-01-19,21.295
2006-01-20,21.485
2006-01-23,21.7
2006-01-24,21.25
2006-01-25,20.33
2006-01-26,20.0
2006-01-27,20.45
2006-01-30,21.26
2006-01-31,21.57
2006-02-01,20.83
2006-02-02,20.265
2006-02-03,19.9
2006-02-06,20.09
2006-02-07,18.585
2006-02-08,18.57
2006-02-09,17.51
2006-02-10,16.95
2006-02-13,16.295
2006-02-14,16.415
2006-02-15,16.5
2006-02-16,17.21
2006-02-17,17.5
2006-02-21,17.655
2006-02-22,17.08
2006-02-23,16.9
2006-02-24,16.9
2006-02-27,16.24
2006-02-28,16.02
2006-03-01,17.475
2006-03-02,17.39
2006-03-03,17.145
2006-03-06,16.28
2006-03-07,15.375
2006-03-08,15.0
2006-03-09,14.745
2006-03-10,14.675
2006-03-13,14.99
2006-03-14,15.475
2006-03-15,15.455
2006-03-16,15.975
2006-03-17,15.92
2006-03-20,15.28
2006-03-21,15.0
2006-03-22,15.28
2006-03-23,15.655
2006-03-24,16.38
2006-03-27,16.55
2006-03-28,16.68
2006-03-29,16.98
2006-03-30,16.81
2006-03-31,16.035
2006-04-03,16.3
2006-04-04,15.995
2006-04-05,16.4
2006-04-06,16.86
2006-04-07,16.46
2006-04-10,17.02
2006-04-11,17.43
2006-04-12,17.06
2006-04-13,16.75
2006-04-17,17.67
2006-04-18,19.0
2006-04-19,19.98
2006-04-20,19.58
2006-04-21,19.705
2006-04-24,19.165
2006-04-25,19.03
2006-04-26,18.42
2006-04-27,18.045
2006-04-28,17.98
2006-05-01,18.39
2006-05-02,19.2
2006-05-03,18.775
2006-05-04,18.42
2006-05-05,19.3
2006-05-08,19.06
2006-05-09,19.175
2006-05-10,19.64
2006-05-11,19.59
2006-05-12,18.525
2006-05-15,17.655
2006-05-16,17.435
2006-05-17,16.525
2006-05-18,15.81
2006-05-19,15.765
2006-05-22,15.51
2006-05-23,15.435
2006-05-24,15.02
2006-05-25,15.595
2006-05-26,15.68
2006-05-30,15.645
2006-05-31,16.15
2006-06-01,16.185
2006-06-02,16.375
2006-06-05,15.63
2006-06-06,15.125
2006-06-07,14.25
2006-06-08,14.005
2006-06-09,13.51
2006-06-12,12.945
2006-06-13,12.25
2006-06-14,14.055
2006-06-15,14.82
2006-06-16,14.565
2006-06-19,13.58
2006-06-20,13.375
2006-06-21,13.76
2006-06-22,13.505
2006-06-23,15.075
2006-06-26,14.745
2006-06-27,14.575
2006-06-28,14.925
2006-06-29,15.41
2006-06-30,15.615
2006-07-03,15.775
2006-07-05,15.25
2006-07-06,14.885
2006-07-07,14.57
2006-07-10,14.405
2006-07-11,14.81
2006-07-12,14.83
2006-07-13,14.275
2006-07-14,14.21
2006-07-17,13.965
2006-07-18,14.11
2006-07-19,14.5
2006-07-20,14.28
2006-07-21,14.06
2006-07-24,14.89
2006-07-25,15.84
2006-07-26,16.625
2006-07-27,16.34
2006-07-28,16.48
2006-07-31,17.225
2006-08-01,18.715
2006-08-02,18.005
2006-08-03,17.69
2006-08-04,17.425
2006-08-07,17.43
2006-08-08,17.145
2006-08-09,17.66
2006-08-10,17.62
2006-08-11,17.375
2006-08-14,16.775
2006-08-15,17.035
2006-08-16,17.03
2006-08-17,17.18
2006-08-18,17.15
2006-08-21,17.45
2006-08-22,17.545
2006-08-23,17.17
2006-08-24,17.55
2006-08-25,18.18
2006-08-28,17.955
2006-08-29,17.575
2006-08-30,17.25
2006-08-31,17.18
2006-09-01,17.88
2006-09-05,18.16
2006-09-06,18.055
2006-09-07,17.765
2006-09-08,17.01
2006-09-11,16.305
2006-09-12,16.485
2006-09-13,16.745
2006-09-14,15.775
2006-09-15,15.265
2006-09-18,16.0
2006-09-19,15.285
2006-09-20,14.62
2006-09-21,14.97
2006-09-22,14.42
2006-09-25,14.465
2006-09-26,15.1
2006-09-27,15.04
2006-09-28,15.23
2006-09-29,14.94
2006-10-02,14.63
2006-10-03,13.92
2006-10-04,14.225
2006-10-05,14.805
2006-10-06,14.735
2006-10-09,14.485
2006-10-10,15.025
2006-10-11,14.525
2006-10-12,15.025
2006-10-13,15.19
2006-10-16,16.51
2006-10-17,16.05
2006-10-18,16.74
2006-10-19,17.84
2006-10-20,17.625
2006-10-23,17.975
2006-10-24,18.105
2006-10-25,18.67
2006-10-26,18.305
2006-10-27,18.0
2006-10-30,17.79
2006-10-31,17.76
2006-11-01,17.585
2006-11-02,17.745
2006-11-03,18.05
2006-11-06,17.975
2006-11-07,17.9
2006-11-08,17.935
2006-11-09,18.315
2006-11-10,18.19
2006-11-13,18.065
2006-11-14,18.285
2006-11-15,19.15
2006-11-16,18.63
2006-11-17,19.15
2006-11-20,19.115
2006-11-21,19.875
2006-11-22,19.81
2006-11-24,19.89
2006-11-27,19.45
2006-11-28,19.675
2006-11-29,20.725
2006-11-30,21.065
2006-12-01,21.27
2006-12-04,20.875
2006-12-05,20.7
2006-12-06,20.715
2006-12-07,20.395
2006-12-08,20.315
2006-12-11,19.945
2006-12-12,19.54
2006-12-13,19.655
2006-12-14,19.725
2006-12-15,19.485
2006-12-18,18.435
2006-12-19,18.865
2006-12-20,18.47
2006-12-21,18.31
2006-12-22,18.05
2006-12-26,17.76
2006-12-27,17.935
2006-12-28,17.845
2006-12-29,17.495
2007-01-03,16.42
2007-01-04,16.535
2007-01-05,16.765
2007-01-08,17.14
2007-01-09,17.075
2007-01-10,17.065
2007-01-11,16.75
2007-01-12,17.475
2007-01-16,17.23
2007-01-17,17.2
2007-01-18,17.055
2007-01-19,18.23
2007-01-22,18.205
2007-01-23,18.825
2007-01-24,19.15
2007-01-25,18.365
2007-01-26,18.615
2007-01-29,18.475
2007-01-30,19.125
2007-01-31,19.205
2007-02-01,19.48
2007-02-02,19.425
2007-02-05,19.49
2007-02-06,19.225
2007-02-07,18.895
2007-02-08,19.105
2007-02-09,19.02
2007-02-12,18.685
2007-02-13,18.91
2007-02-14,19.015
2007-02-15,18.755
2007-02-16,18.975
2007-02-20,18.95
2007-02-21,19.31
2007-02-22,19.75
2007-02-23,20.15
2007-02-26,20.13
2007-02-27,19.305
2007-02-28,19.54
2007-03-01,18.95
2007-03-02,18.64
2007-03-05,18.025
2007-03-06,18.815
2007-03-07,19.165
2007-03-08,19.38
2007-03-09,19.18
2007-03-12,19.105
2007-03-13,18.92
2007-03-14,19.28
2007-03-15,19.29
2007-03-16,18.875
2007-03-19,19.505
2007-03-20,19.94
2007-03-21,20.3
2007-03-22,20.635
2007-03-23,20.3
2007-03-26,20.36
2007-03-27,20.43
2007-03-28,20.28
2007-03-29,20.555
2007-03-30,20.52
2007-04-02,20.7
2007-04-03,20.81
2007-04-04,20.94
2007-04-05,20.855
2007-04-09,21.045
2007-04-10,21.955
2007-04-11,21.765
2007-04-12,22.14
2007-04-13,22.5
2007-04-16,21.945
2007-04-17,21.455
2007-04-18,21.295
2007-04-19,20.93
2007-04-20,21.24
2007-04-23,21.28
2007-04-24,21.38
2007-04-25,22.06
2007-04-26,21.64
2007-04-27,21.58
2007-04-30,21.045
2007-05-01,20.905
2007-05-02,21.57
2007-05-03,21.61
2007-05-04,21.715
2007-05-07,21.555
2007-05-08,21.75
2007-05-09,21.545
2007-05-10,21.075
2007-05-11,21.62
2007-05-14,21.815
2007-05-15,21.415
2007-05-16,21.52
2007-05-17,22.535
2007-05-18,22.91
2007-05-21,23.325
2007-05-22,23.39
2007-05-23,23.215
2007-05-24,22.63
2007-05-25,23.145
2007-05-29,23.08
2007-05-30,23.935
2007-05-31,23.835
2007-06-01,23.79
2007-06-04,24.645
2007-06-05,24.49
2007-06-06,23.725
2007-06-07,22.73
2007-06-08,23.0
2007-06-11,23.45
2007-06-12,23.36
2007-06-13,24.36
2007-06-14,24.815
2007-06-15,24.76
2007-06-18,25.055
2007-06-19,25.075
2007-06-20,24.56
2007-06-21,25.07
2007-06-22,24.255
2007-06-25,23.705
2007-06-26,22.795
2007-06-27,23.16
2007-06-28,22.37
2007-06-29,22.21
2007-07-02,22.37
2007-07-03,22.85
2007-07-05,22.73
2007-07-06,22.475
2007-07-09,22.655
2007-07-10,22.45
2007-07-11,22.45
2007-07-12,22.065
2007-07-13,22.445
2007-07-16,21.675
2007-07-17,21.735
2007-07-18,22.28
2007-07-19,22.63
2007-07-20,21.95
2007-07-23,21.12
2007-07-24,20.025
2007-07-25,19.575
2007-07-26,19.415
2007-07-27,19.675
2007-07-30,20.385
2007-07-31,20.275
2007-08-01,20.345
2007-08-02,20.385
2007-08-03,19.985
2007-08-06,19.55
2007-08-07,19.835
2007-08-08,20.925
2007-08-09,20.465
2007-08-10,20.495
2007-08-13,20.465
2007-08-14,19.885
2007-08-15,19.045
2007-08-16,18.95
2007-08-17,19.64
2007-08-20,19.09
2007-08-21,18.455
2007-08-22,18.54
2007-08-23,18.705
2007-08-24,19.17
2007-08-27,18.76
2007-08-28,17.965
2007-08-29,18.09
2007-08-30,18.005
2007-08-31,18.585
2007-09-04,19.475
2007-09-05,19.89
2007-09-06,19.895
2007-09-07,19.465
2007-09-10,19.355
2007-09-11,19.875
2007-09-12,20.79
2007-09-13,20.6
2007-09-14,21.18
2007-09-17,21.26
2007-09-18,21.88
2007-09-19,21.75
2007-09-20,21.54
2007-09-21,21.86
2007-09-24,21.45
2007-09-25,21.0
2007-09-26,21.19
2007-09-27,21.2
2007-09-28,20.88
2007-10-01,21.22
2007-10-02,21.715
2007-10-03,21.77
2007-10-04,22.175
2007-10-05,22.435
2007-10-08,21.915
2007-10-09,22.4
2007-10-10,22.595
2007-10-11,22.695
2007-10-12,22.695
2007-10-15,23.06
2007-10-16,23.3
2007-10-17,22.88
2007-10-18,23.95
2007-10-19,23.26
2007-10-22,23.04
2007-10-23,23.04
2007-10-24,23.74
2007-10-25,24.395
2007-10-26,25.38
2007-10-29,25.175
2007-10-30,25.205
2007-10-31,25.74
2007-11-01,27.07
2007-11-02,27.67
2007-11-05,26.74
2007-11-06,27.135
2007-11-07,27.125
2007-11-08,27.015
2007-11-09,26.295
2007-11-12,24.565
2007-11-13,25.36
2007-11-14,26.13
2007-11-15,25.61
2007-11-16,25.96
2007-11-19,25.315
2007-11-20,24.835
2007-11-21,24.64
2007-11-23,24.865
2007-11-26,24.875
2007-11-27,24.775
2007-11-28,25.38
2007-11-29,25.4
2007-11-30,24.855
2007-12-03,24.95
2007-12-04,25.475
2007-12-05,26.335
2007-12-06,26.995
2007-12-07,27.16
2007-12-10,26.795
2007-12-11,26.49
2007-12-12,27.2
2007-12-13,26.615
2007-12-14,26.175
2007-12-17,25.43
2007-12-18,25.755
2007-12-19,26.785
2007-12-20,27.445
2007-12-21,28.215
2007-12-24,28.205
2007-12-26,28.21
2007-12-27,27.815
2007-12-28,27.69
2007-12-31,27.825
2008-01-02,29.24
2008-01-03,29.56
2008-01-04,28.29
2008-01-07,27.98
2008-01-08,27.885
2008-01-09,28.875
2008-01-10,29.48
2008-01-11,29.035
2008-01-14,30.055
2008-01-15,28.46
2008-01-16,26.625
2008-01-17,24.88
2008-01-18,25.505
2008-01-22,25.34
2008-01-23,25.5
2008-01-24,25.935
2008-01-25,25.575
2008-01-28,26.395
2008-01-29,26.63
2008-01-30,27.0
2008-01-31,27.935
2008-02-01,28.005
2008-02-04,28.605
2008-02-05,27.185
2008-02-06,26.555
2008-02-07,27.1
2008-02-08,28.96
2008-02-11,30.965
2008-02-12,30.42
2008-02-13,31.735
2008-02-14,30.925
2008-02-15,30.25
2008-02-19,31.105
2008-02-20,31.79
2008-02-21,30.435
2008-02-22,30.88
2008-02-25,33.75
2008-02-26,34.005
2008-02-27,32.835
2008-02-28,33.715
2008-02-29,32.695
2008-03-03,33.89
2008-03-04,33.02
2008-03-05,33.895
2008-03-06,32.68
2008-03-07,31.415
2008-03-10,31.175
2008-03-11,32.54
2008-03-12,32.165
2008-03-13,33.63
2008-03-14,32.975
2008-03-17,31.185
2008-03-18,32.91
2008-03-19,30.34
2008-03-20,30.135
2008-03-24,30.995
2008-03-25,32.06
2008-03-26,33.54
2008-03-27,32.44
2008-03-28,33.16
2008-03-31,33.68
2008-04-01,33.73
2008-04-02,35.51
2008-04-03,35.28
2008-04-04,36.37
2008-04-07,36.71
2008-04-08,36.95
2008-04-09,36.27
2008-04-10,37.84
2008-04-11,36.86
2008-04-14,38.05
2008-04-15,38.81
2008-04-16,40.0
2008-04-17,38.97
2008-04-18,40.51
2008-04-21,40.53
2008-04-22,39.79
2008-04-23,39.43
2008-04-24,37.65
2008-04-25,44.49
2008-04-28,43.02
2008-04-29,41.44
2008-04-30,42.2
2008-05-01,41.06
2008-05-02,42.03
2008-05-05,43.0
2008-05-06,44.28
2008-05-07,44.25
2008-05-08,45.47
2008-05-09,45.31
2008-05-12,44.0
2008-05-13,44.73
2008-05-14,44.28
2008-05-15,45.06
2008-05-16,46.04
2008-05-19,45.78
2008-05-20,47.9
2008-05-21,45.69
2008-05-22,45.45
2008-05-23,44.94
2008-05-27,43.93
2008-05-28,44.99
2008-05-29,43.59
2008-05-30,44.29
2008-06-02,44.88
2008-06-03,44.32
2008-06-04,44.47
2008-06-05,46.31
2008-06-06,45.98
2008-06-09,48.72
2008-06-10,47.63
2008-06-11,48.34
2008-06-12,46.77
2008-06-13,46.64
2008-06-16,46.02
2008-06-17,46.49
2008-06-18,46.18
2008-06-19,44.47
2008-06-20,45.53
2008-06-23,48.19
2008-06-24,47.16
2008-06-25,45.59
2008-06-26,45.33
2008-06-27,46.66
2008-06-30,47.65
2008-07-01,48.47
2008-07-02,47.68
2008-07-03,45.0
2008-07-07,42.54
2008-07-08,41.55
2008-07-09,39.84
2008-07-10,42.63
2008-07-11,42.53
2008-07-14,42.62
2008-07-15,41.01
2008-07-16,40.68
2008-07-17,37.97
2008-07-18,38.55
2008-07-21,40.77
2008-07-22,36.56
2008-07-23,33.95
2008-07-24,32.98
2008-07-25,34.09
2008-07-28,33.78
2008-07-29,32.94
2008-07-30,35.57
2008-07-31,36.27
2008-08-01,36.24
2008-08-04,32.96
2008-08-05,33.91
2008-08-06,34.89
2008-08-07,34.04
2008-08-08,32.54
2008-08-11,32.41
2008-08-12,33.0
2008-08-13,35.4
2008-08-14,35.55
2008-08-15,35.22
2008-08-18,34.6
2008-08-19,36.66
2008-08-20,38.81
2008-08-21,38.73
2008-08-22,37.75
2008-08-25,37.69
2008-08-26,39.01
2008-08-27,39.17
2008-08-28,38.83
2008-08-29,38.47
2008-09-02,35.79
2008-09-03,34.9
2008-09-04,33.83
2008-09-05,33.89
2008-09-08,31.97
2008-09-09,28.46
2008-09-10,30.61
2008-09-11,30.95
2008-09-12,32.69
2008-09-15,29.95
2008-09-16,31.16
2008-09-17,30.57
2008-09-18,32.25
2008-09-19,35.32
2008-09-22,35.16
2008-09-23,35.12
2008-09-24,34.6
2008-09-25,35.29
2008-09-26,33.24
2008-09-29,28.18
2008-09-30,30.67
2008-10-01,30.24
2008-10-02,27.7
2008-10-03,29.16
2008-10-06,28.31
2008-10-07,26.66
2008-10-08,24.89
2008-10-09,23.79
2008-10-10,21.22
2008-10-13,27.95
2008-10-14,30.9
2008-10-15,21.68
2008-10-16,26.39
2008-10-17,29.14
2008-10-20,33.76
2008-10-21,31.0
2008-10-22,26.11
2008-10-23,27.88
2008-10-24,27.2
2008-10-27,25.59
2008-10-28,27.98
2008-10-29,31.41
2008-10-30,34.12
2008-10-31,35.47
2008-11-03,34.0
2008-11-04,37.44
2008-11-05,36.58
2008-11-06,32.84
2008-11-07,34.42
2008-11-10,34.98
2008-11-11,33.44
2008-11-12,29.79
2008-11-13,34.0
2008-11-14,30.35
2008-11-17,31.07
2008-11-18,32.26
2008-11-19,30.34
2008-11-20,23.63
2008-11-21,26.8
2008-11-24,30.82
2008-11-25,30.84
2008-11-26,35.82
2008-11-28,34.37
2008-12-01,29.01
2008-12-02,29.9
2008-12-03,31.18
2008-12-04,26.35
2008-12-05,26.15
2008-12-08,28.66
2008-12-09,29.01
2008-12-10,30.61
2008-12-11,28.85
2008-12-12,28.76
2008-12-15,27.75
2008-12-16,28.4
2008-12-17,27.04
2008-12-18,25.36
2008-12-19,28.22
2008-12-22,27.27
2008-12-23,27.76
2008-12-24,27.55
2008-12-26,27.83
2008-12-29,28.77
2008-12-30,29.65
2008-12-31,29.0
2009-01-02,31.1
2009-01-05,32.97
2009-01-06,33.57
2009-01-07,31.78
2009-01-08,31.11
2009-01-09,30.15
2009-01-12,28.31
2009-01-13,29.56
2009-01-14,27.72
2009-01-15,27.73
2009-01-16,28.65
2009-01-20,26.81
2009-01-21,30.14
2009-01-22,29.5
2009-01-23,31.66
2009-01-26,31.81
2009-01-27,31.14
2009-01-28,32.31
2009-01-29,31.84
2009-01-30,31.56
2009-02-02,30.89
2009-02-03,32.27
2009-02-04,32.52
2009-02-05,32.91
2009-02-06,32.77
2009-02-09,32.98
2009-02-10,32.22
2009-02-11,31.11
2009-02-12,31.69
2009-02-13,32.46
2009-02-17,29.71
2009-02-18,28.59
2009-02-19,28.67
2009-02-20,27.65
2009-02-23,25.98
2009-02-24,26.94
2009-02-25,27.44
2009-02-26,27.53
2009-02-27,28.9
2009-03-02,27.03
2009-03-03,28.12
2009-03-04,29.24
2009-03-05,29.21
2009-03-06,28.8
2009-03-09,28.34
2009-03-10,28.44
2009-03-11,27.9
2009-03-12,28.4
2009-03-13,27.38
2009-03-16,28.63
2009-03-17,30.38
2009-03-18,30.82
2009-03-19,31.98
2009-03-20,30.73
2009-03-23,34.08
2009-03-24,32.89
2009-03-25,33.98
2009-03-26,33.8
2009-03-27,31.93
2009-03-30,30.37
2009-03-31,29.64
2009-04-01,30.03
2009-04-02,31.66
2009-04-03,32.28
2009-04-06,31.9
2009-04-07,30.67
2009-04-08,31.44
2009-04-09,31.17
2009-04-13,30.91
2009-04-14,30.57
2009-04-15,30.56
2009-04-16,32.21
2009-04-17,33.68
2009-04-20,32.88
2009-04-21,32.84
2009-04-22,32.77
2009-04-23,33.73
2009-04-24,34.39
2009-04-27,33.4
2009-04-28,36.65
2009-04-29,36.32
2009-04-30,35.89
2009-05-01,38.45
2009-05-04,41.24
2009-05-05,39.47
2009-05-06,41.7
2009-05-07,40.23
2009-05-08,41.3
2009-05-11,40.12
2009-05-12,40.82
2009-05-13,39.2
2009-05-14,39.23
2009-05-15,39.1
2009-05-18,40.58
2009-05-19,40.44
2009-05-20,40.69
2009-05-21,39.76
2009-05-22,40.1
2009-05-26,41.88
2009-05-27,41.97
2009-05-28,43.54
2009-05-29,43.35
2009-06-01,45.58
2009-06-02,44.66
2009-06-03,42.13
2009-06-04,43.32
2009-06-05,42.46
2009-06-08,42.5
2009-06-09,42.76
2009-06-10,42.32
2009-06-11,45.21
2009-06-12,44.53
2009-06-15,43.96
2009-06-16,42.8
2009-06-17,42.09
2009-06-18,41.67
2009-06-19,41.06
2009-06-22,38.27
2009-06-23,38.08
2009-06-24,38.63
2009-06-25,39.68
2009-06-26,38.94
2009-06-29,39.17
2009-06-30,38.8
2009-07-01,38.45
2009-07-02,36.78
2009-07-06,36.64
2009-07-07,35.56
2009-07-08,35.39
2009-07-09,37.05
2009-07-10,36.75
2009-07-13,37.5
2009-07-14,38.51
2009-07-15,39.13
2009-07-16,39.77
2009-07-17,40.59
2009-07-20,41.07
2009-07-21,41.24
2009-07-22,41.25
2009-07-23,42.14
2009-07-24,42.49
2009-07-27,41.77
2009-07-28,41.29
2009-07-29,40.11
2009-07-30,41.52
2009-07-31,41.49
2009-08-03,43.34
2009-08-04,42.78
2009-08-05,41.02
2009-08-06,39.64
2009-08-07,39.64
2009-08-10,38.87
2009-08-11,38.08
2009-08-12,38.76
2009-08-13,39.72
2009-08-14,38.05
2009-08-17,37.04
2009-08-18,37.64
2009-08-19,38.72
2009-08-20,39.87
2009-08-21,41.5
2009-08-24,41.25
2009-08-25,39.71
2009-08-26,38.61
2009-08-27,38.39
2009-08-28,38.47
2009-08-31,36.86
2009-09-01,36.34
2009-09-02,35.9
2009-09-03,35.91
2009-09-04,37.2
2009-09-08,38.97
2009-09-09,39.62
2009-09-10,40.59
2009-09-11,41.61
2009-09-14,42.09
2009-09-15,43.22
2009-09-16,44.83
2009-09-17,45.14
2009-09-18,44.02
2009-09-21,43.33
2009-09-22,44.35
2009-09-23,42.88
2009-09-24,41.97
2009-09-25,41.04
2009-09-28,41.43
2009-09-29,42.3
2009-09-30,42.63
2009-10-01,40.21
2009-10-02,40.8
2009-10-05,41.9
2009-10-06,43.1
2009-10-07,42.93
2009-10-08,44.75
2009-10-09,45.29
2009-10-12,45.36
2009-10-13,45.3
2009-10-14,46.67
2009-10-15,49.5
2009-10-16,49.11
2009-10-19,50.13
2009-10-20,49.45
2009-10-21,48.68
2009-10-22,48.56
2009-10-23,47.3
2009-10-26,46.19
2009-10-27,46.77
2009-10-28,43.74
2009-10-29,45.93
2009-10-30,43.62
2009-11-02,44.51
2009-11-03,45.38
2009-11-04,44.74
2009-11-05,45.52
2009-11-06,44.73
2009-11-09,46.13
2009-11-10,45.46
2009-11-11,44.64
2009-11-12,42.57
2009-11-13,42.28
2009-11-16,42.75
2009-11-17,42.28
2009-11-18,42.16
2009-11-19,41.57
2009-11-20,41.51
2009-11-23,42.25
2009-11-24,43.14
2009-11-25,45.09
2009-11-27,43.86
2009-11-30,43.93
2009-12-01,44.55
2009-12-02,44.1
2009-12-03,43.04
2009-12-04,42.9
2009-12-07,42.9
2009-12-08,41.4
2009-12-09,40.71
2009-12-10,42.07
2009-12-11,41.5
2009-12-14,44.47
2009-12-15,44.45
2009-12-16,45.35
2009-12-17,45.45
2009-12-18,47.5
2009-12-21,48.84
2009-12-22,49.44
2009-12-23,50.62
2009-12-24,50.73
2009-12-28,50.02
2009-12-29,49.39
2009-12-30,48.86
2009-12-31,48.27
2010-01-04,50.79
2010-01-05,51.58
2010-01-06,51.39
2010-01-07,50.91
2010-01-08,51.49
2010-01-11,50.47
2010-01-12,48.67
2010-01-13,49.71
2010-01-14,49.39
2010-01-15,48.67
2010-01-19,48.7
2010-01-20,47.61
2010-01-21,46.55
2010-01-22,45.37
2010-01-25,46.33
2010-01-26,45.5
2010-01-27,44.56
2010-01-28,44.03
2010-01-29,42.98
2010-02-01,44.74
2010-02-02,45.46
2010-02-03,44.38
2010-02-04,41.86
2010-02-05,42.1
2010-02-08,41.72
2010-02-09,42.61
2010-02-10,43.15
2010-02-11,44.3
2010-02-12,44.23
2010-02-16,45.52
2010-02-17,45.7
2010-02-18,45.8
2010-02-19,45.36
2010-02-22,43.45
2010-02-23,42.45
2010-02-24,42.75
2010-02-25,42.99
2010-02-26,42.64
2010-03-01,42.52
2010-03-02,42.41
2010-03-03,42.46
2010-03-04,40.77
2010-03-05,42.58
2010-03-08,42.32
2010-03-09,43.88
2010-03-10,44.96
2010-03-11,44.4
2010-03-12,44.36
2010-03-15,43.38
2010-03-16,42.6
2010-03-17,42.9
2010-03-18,40.79
2010-03-19,39.59
2010-03-22,39.97
2010-03-23,39.95
2010-03-24,39.45
2010-03-25,38.1
2010-03-26,37.69
2010-03-29,40.72
2010-03-30,40.22
2010-03-31,40.73
2010-04-01,41.42
2010-04-05,42.66
2010-04-06,41.93
2010-04-07,40.72
2010-04-08,40.74
2010-04-09,41.24
2010-04-12,41.79
2010-04-13,41.57
2010-04-14,41.59
2010-04-15,41.65
2010-04-16,40.59
2010-04-19,39.72
2010-04-20,40.76
2010-04-21,40.65
2010-04-22,41.52
2010-04-23,43.09
2010-04-26,42.37
2010-04-27,40.96
2010-04-28,41.2
2010-04-29,40.33
2010-04-30,39.73
2010-05-03,40.53
2010-05-04,39.32
2010-05-05,39.62
2010-05-06,38.19
2010-05-07,37.27
2010-05-10,39.22
2010-05-11,38.9
2010-05-12,40.07
2010-05-13,39.88
2010-05-14,39.09
2010-05-17,38.48
2010-05-18,38.33
2010-05-19,38.07
2010-05-20,36.36
2010-05-21,37.28
2010-05-24,35.94
2010-05-25,36.35
2010-05-26,35.86
2010-05-27,37.41
2010-05-28,37.6
2010-06-01,36.82
2010-06-02,40.41
2010-06-03,42.46
2010-06-04,41.65
2010-06-07,41.85
2010-06-08,42.05
2010-06-09,42.0
2010-06-10,43.96
2010-06-11,43.9
2010-06-14,43.53
2010-06-15,44.96
2010-06-16,44.67
2010-06-17,44.58
2010-06-18,44.09
2010-06-21,43.75
2010-06-22,42.01
2010-06-23,42.12
2010-06-24,40.94
2010-06-25,41.53
2010-06-28,41.12
2010-06-29,38.98
2010-06-30,38.68
2010-07-01,38.8
2010-07-02,37.75
2010-07-06,37.66
2010-07-07,38.21
2010-07-08,38.67
2010-07-09,38.44
2010-07-12,38.35
2010-07-13,38.35
2010-07-14,38.78
2010-07-15,38.79
2010-07-16,37.39
2010-07-19,36.4
2010-07-20,36.85
2010-07-21,37.34
2010-07-22,37.8
2010-07-23,37.73
2010-07-26,37.57
2010-07-27,37.33
2010-07-28,37.03
2010-07-29,36.72
2010-07-30,36.51
2010-08-02,37.11
2010-08-03,37.25
2010-08-04,38.13
2010-08-05,38.47
2010-08-06,37.4
2010-08-09,37.61
2010-08-10,37.01
2010-08-11,34.92
2010-08-12,34.67
2010-08-13,34.48
2010-08-16,33.52
2010-08-17,34.94
2010-08-18,34.84
2010-08-19,34.29
2010-08-20,33.75
2010-08-23,33.84
2010-08-24,32.8
2010-08-25,32.91
2010-08-26,32.42
2010-08-27,33.41
2010-08-30,33.23
2010-08-31,32.72
2010-09-01,33.55
2010-09-02,33.77
2010-09-03,34.05
2010-09-07,33.05
2010-09-08,33.19
2010-09-09,32.94
2010-09-10,33.33
2010-09-13,33.08
2010-09-14,32.88
2010-09-15,32.55
2010-09-16,31.93
2010-09-17,31.47
2010-09-20,31.92
2010-09-21,32.14
2010-09-22,32.18
2010-09-23,32.31
2010-09-24,33.08
2010-09-27,32.5
2010-09-28,32.76
2010-09-29,33.63
2010-09-30,33.39
2010-10-01,33.47
2010-10-04,32.74
2010-10-05,33.28
2010-10-06,33.87
2010-10-07,33.25
2010-10-08,33.89
2010-10-11,33.67
2010-10-12,33.6
2010-10-13,34.62
2010-10-14,34.5
2010-10-15,34.64
2010-10-18,34.86
2010-10-19,34.04
2010-10-20,34.55
2010-10-21,34.32
2010-10-22,33.88
2010-10-25,33.94
2010-10-26,33.24
2010-10-27,33.4
2010-10-28,33.62
2010-10-29,33.83
2010-11-01,34.54
2010-11-02,34.92
2010-11-03,35.52
2010-11-04,36.48
2010-11-05,36.11
2010-11-08,37.22
2010-11-09,37.81
2010-11-10,38.16
2010-11-11,38.46
2010-11-12,37.88
2010-11-15,38.0
2010-11-16,37.19
2010-11-17,37.47
2010-11-18,38.1
2010-11-19,38.41
2010-11-22,38.1
2010-11-23,36.35
2010-11-24,36.72
2010-11-26,36.46
2010-11-29,36.46
2010-11-30,36.24
2010-12-01,36.88
2010-12-02,37.74
2010-12-03,37.9
2010-12-06,37.36
2010-12-07,36.87
2010-12-08,36.23
2010-12-09,36.07
2010-12-10,35.7
2010-12-13,36.23
2010-12-14,35.32
2010-12-15,35.11
2010-12-16,35.66
2010-12-17,35.82
2010-12-20,35.53
2010-12-21,35.5
2010-12-22,35.92
2010-12-23,36.16
2010-12-27,36.2
2010-12-28,36.56
2010-12-29,37.01
2010-12-30,37.24
2010-12-31,37.42
2011-01-03,38.06
2011-01-04,37.55
2011-01-05,37.32
2011-01-06,37.75
2011-01-07,38.2
2011-01-10,38.13
2011-01-11,38.27
2011-01-12,38.88
2011-01-13,39.23
2011-01-14,39.39
2011-01-18,38.9
2011-01-19,38.9
2011-01-20,38.01
2011-01-21,38.15
2011-01-24,39.03
2011-01-25,38.46
2011-01-26,39.84
2011-01-27,39.27
2011-01-28,38.73
2011-01-31,39.52
2011-02-01,39.4
2011-02-02,38.99
2011-02-03,39.31
2011-02-04,39.3
2011-02-07,39.47
2011-02-08,38.83
2011-02-09,37.35
2011-02-10,37.03
2011-02-11,36.83
2011-02-14,37.46
2011-02-15,36.96
2011-02-16,36.99
2011-02-17,36.18
2011-02-18,36.42
2011-02-22,36.36
2011-02-23,38.0
2011-02-24,37.6
2011-02-25,38.87
2011-02-28,39.5
2011-03-01,37.91
2011-03-02,37.8
2011-03-03,37.94
2011-03-04,37.88
2011-03-07,37.9
2011-03-08,37.35
2011-03-09,37.3
2011-03-10,36.17
2011-03-11,36.9
2011-03-14,38.42
2011-03-15,38.8
2011-03-16,40.04
2011-03-17,40.88
2011-03-18,41.11
2011-03-21,41.61
2011-03-22,42.02
2011-03-23,42.54
2011-03-24,43.05
2011-03-25,43.52
2011-03-28,42.52
2011-03-29,42.5
2011-03-30,43.28
2011-03-31,42.98
2011-04-01,42.87
2011-04-04,42.6
2011-04-05,42.4
2011-04-06,41.41
2011-04-07,41.01
2011-04-08,40.56
2011-04-11,39.59
2011-04-12,38.02
2011-04-13,38.41
2011-04-14,39.02
2011-04-15,39.97
2011-04-18,39.98
2011-04-19,39.92
2011-04-20,40.79
2011-04-21,40.52
2011-04-25,40.51
2011-04-26,41.2
2011-04-27,42.26
2011-04-28,42.7
2011-04-29,43.87
2011-05-02,43.8
2011-05-03,43.12
2011-05-04,42.2
2011-05-05,41.79
2011-05-06,41.91
2011-05-09,42.61
2011-05-10,43.03
2011-05-11,41.65
2011-05-12,41.39
2011-05-13,41.18
2011-05-16,41.26
2011-05-17,41.82
2011-05-18,42.19
2011-05-19,41.85
2011-05-20,42.89
2011-05-23,42.71
2011-05-24,42.85
2011-05-25,43.43
2011-05-26,43.18
2011-05-27,43.35
2011-05-31,43.76
2011-06-01,41.98
2011-06-02,42.21
2011-06-03,43.75
2011-06-06,42.98
2011-06-07,43.25
2011-06-08,43.72
2011-06-09,43.2
2011-06-10,42.14
2011-06-13,41.24
2011-06-14,41.82
2011-06-15,41.38
2011-06-16,41.3
2011-06-17,41.18
2011-06-20,41.27
2011-06-21,42.18
2011-06-22,42.13
2011-06-23,41.62
2011-06-24,40.82
2011-06-27,40.67
2011-06-28,41.61
2011-06-29,42.34
2011-06-30,42.91
2011-07-01,43.8
2011-07-05,44.02
2011-07-06,43.82
2011-07-07,44.48
2011-07-08,43.92
2011-07-11,42.74
2011-07-12,43.29
2011-07-13,43.73
2011-07-14,43.71
2011-07-15,47.47
2011-07-18,47.06
2011-07-19,48.25
2011-07-20,47.49
2011-07-21,48.49
2011-07-22,49.02
2011-07-25,48.65
2011-07-26,48.4
2011-07-27,47.58
2011-07-28,47.48
2011-07-29,44.6
2011-08-01,43.73
2011-08-02,42.5
2011-08-03,42.43
2011-08-04,39.92
2011-08-05,37.75
2011-08-08,34.7
2011-08-09,36.38
2011-08-10,36.03
2011-08-11,38.16
2011-08-12,38.16
2011-08-15,39.92
2011-08-16,38.69
2011-08-17,38.95
2011-08-18,36.64
2011-08-19,36.21
2011-08-22,35.7
2011-08-23,37.31
2011-08-24,37.37
2011-08-25,36.33
2011-08-26,36.95
2011-08-29,37.97
2011-08-30,37.61
2011-08-31,37.86
2011-09-01,37.92
2011-09-02,36.7
2011-09-06,36.38
2011-09-07,37.57
2011-09-08,37.48
2011-09-09,35.95
2011-09-12,35.93
2011-09-13,36.98
2011-09-14,38.27
2011-09-15,38.71
2011-09-16,38.94
2011-09-19,39.66
2011-09-20,38.72
2011-09-21,38.32
2011-09-22,35.04
2011-09-23,33.91
2011-09-26,35.87
2011-09-27,36.16
2011-09-28,34.44
2011-09-29,34.53
2011-09-30,33.39
2011-10-03,32.31
2011-10-04,33.73
2011-10-05,35.21
2011-10-06,35.3
2011-10-07,34.37
2011-10-10,35.38
2011-10-11,35.69
2011-10-12,36.59
2011-10-13,37.72
2011-10-14,39.03
2011-10-17,38.81
2011-10-18,40.09
2011-10-19,39.49
2011-10-20,40.01
2011-10-21,40.23
2011-10-24,41.1
2011-10-25,40.14
2011-10-26,41.54
2011-10-27,43.47
2011-10-28,44.12
2011-10-31,42.07
2011-11-01,40.81
2011-11-02,41.75
2011-11-03,42.69
2011-11-04,42.59
2011-11-07,41.94
2011-11-08,42.1
2011-11-09,40.4
2011-11-10,41.65
2011-11-11,42.35
2011-11-14,41.47
2011-11-15,41.68
2011-11-16,40.39
2011-11-17,38.4
2011-11-18,38.65
2011-11-21,38.12
2011-11-22,37.1
2011-11-23,35.65
2011-11-25,35.26
2011-11-28,36.44
2011-11-29,36.91
2011-11-30,38.1
2011-12-01,37.85
2011-12-02,37.73
2011-12-05,37.58
2011-12-06,37.66
2011-12-07,36.88
2011-12-08,35.84
2011-12-09,36.82
2011-12-12,35.61
2011-12-13,34.61
2011-12-14,33.57
2011-12-15,33.14
2011-12-16,33.5
2011-12-19,32.68
2011-12-20,32.84
2011-12-21,32.7
2011-12-22,33.37
2011-12-23,32.9
2011-12-27,32.6
2011-12-28,32.15
2011-12-29,32.14
2011-12-30,31.96
2012-01-03,32.7
2012-01-04,33.4
2012-01-05,33.65
2012-01-06,33.19
2012-01-09,33.11
2012-01-10,32.5
2012-01-11,29.91
2012-01-12,29.78
2012-01-13,29.41
2012-01-17,29.15
2012-01-18,29.66
2012-01-19,29.05
2012-01-20,29.42
2012-01-23,32.44
2012-01-24,31.74
2012-01-25,32.66
2012-01-26,31.41
2012-01-27,32.08
2012-01-30,31.97
2012-01-31,31.14
2012-02-01,30.41
2012-02-02,30.99
2012-02-03,31.29
2012-02-06,31.74
2012-02-07,32.48
2012-02-08,32.92
2012-02-09,33.5
2012-02-10,33.53
2012-02-13,33.6
2012-02-14,33.71
2012-02-15,34.51
2012-02-16,35.62
2012-02-17,35.53
2012-02-21,35.27
2012-02-22,34.83
2012-02-23,35.35
2012-02-24,35.2
2012-02-27,35.42
2012-02-28,33.32
2012-02-29,33.1
2012-03-01,33.71
2012-03-02,33.38
2012-03-05,32.57
2012-03-06,32.44
2012-03-07,32.48
2012-03-08,33.8
2012-03-09,33.55
2012-03-12,33.02
2012-03-13,33.66
2012-03-14,33.13
2012-03-15,33.56
2012-03-16,34.52
2012-03-19,34.7
2012-03-20,33.59
2012-03-21,33.42
2012-03-22,31.66
2012-03-23,32.39
2012-03-26,32.23
2012-03-27,31.6
2012-03-28,30.64
2012-03-29,30.35
2012-03-30,30.59
2012-04-02,30.85
2012-04-03,30.31
2012-04-04,29.93
2012-04-05,29.6
2012-04-09,29.06
2012-04-10,29.26
2012-04-11,28.64
2012-04-12,28.95
2012-04-13,28.31
2012-04-16,27.99
2012-04-17,28.21
2012-04-18,28.19
2012-04-19,28.25
2012-04-20,27.84
2012-04-23,27.99
2012-04-24,28.21
2012-04-25,29.31
2012-04-26,29.98
2012-04-27,30.53
2012-04-30,31.57
2012-05-01,32.4
2012-05-02,31.11
2012-05-03,30.9
2012-05-04,28.77
2012-05-07,28.82
2012-05-08,29.66
2012-05-09,30.76
2012-05-10,30.72
2012-05-11,30.38
2012-05-14,29.96
2012-05-15,28.67
2012-05-16,28.81
2012-05-17,28.93
2012-05-18,29.08
2012-05-21,29.62
2012-05-22,29.22
2012-05-23,29.57
2012-05-24,28.83
2012-05-25,28.77
2012-05-29,29.69
2012-05-30,28.19
2012-05-31,28.02
2012-06-01,27.45
2012-06-04,27.21
2012-06-05,27.55
2012-06-06,28.13
2012-06-07,27.24
2012-06-08,27.05
2012-06-11,26.39
2012-06-12,26.57
2012-06-13,25.78
2012-06-14,26.94
2012-06-15,27.39
2012-06-18,27.94
2012-06-19,28.41
2012-06-20,28.76
2012-06-21,27.43
2012-06-22,28.94
2012-06-25,29.16
2012-06-26,29.59
2012-06-27,31.12
2012-06-28,30.76
2012-06-29,31.9
2012-07-02,31.88
2012-07-03,32.7
2012-07-05,32.16
2012-07-06,31.88
2012-07-09,32.01
2012-07-10,31.04
2012-07-11,31.27
2012-07-12,31.0
2012-07-13,31.66
2012-07-16,32.12
2012-07-17,31.58
2012-07-18,31.6
2012-07-19,31.69
2012-07-20,31.93
2012-07-23,31.74
2012-07-24,32.14
2012-07-25,31.66
2012-07-26,32.84
2012-07-27,32.96
2012-07-30,34.26
2012-07-31,33.27
2012-08-01,32.99
2012-08-02,32.19
2012-08-03,30.6
2012-08-06,30.54
2012-08-07,31.74
2012-08-08,31.89
2012-08-09,32.8
2012-08-10,32.04
2012-08-13,31.6
2012-08-14,31.27
2012-08-15,31.77
2012-08-16,32.58
2012-08-17,32.21
2012-08-20,32.17
2012-08-21,32.36
2012-08-22,32.89
2012-08-23,30.98
2012-08-24,31.53
2012-08-27,31.87
2012-08-28,31.32
2012-08-29,30.93
2012-08-30,30.61
2012-08-31,31.16
2012-09-04,31.3
2012-09-05,31.53
2012-09-06,32.33
2012-09-07,32.61
2012-09-10,32.51
2012-09-11,34.17
2012-09-12,35.39
2012-09-13,35.72
2012-09-14,35.55
2012-09-17,34.46
2012-09-18,34.09
2012-09-19,34.15
2012-09-20,34.0
2012-09-21,33.98
2012-09-24,33.43
2012-09-25,33.28
2012-09-26,33.32
2012-09-27,34.92
2012-09-28,34.8
2012-10-01,35.36
2012-10-02,35.45
2012-10-03,35.06
2012-10-04,35.76
2012-10-05,35.5
2012-10-08,35.57
2012-10-09,35.8
2012-10-10,35.07
2012-10-11,36.09
2012-10-12,36.11
2012-10-15,36.2
2012-10-16,36.15
2012-10-17,36.09
2012-10-18,35.99
2012-10-19,35.26
2012-10-22,34.94
2012-10-23,34.2
2012-10-24,33.73
2012-10-25,33.93
2012-10-26,34.14
2012-10-31,34.7
2012-11-01,35.59
2012-11-02,35.94
2012-11-05,35.69
2012-11-06,36.25
2012-11-07,35.28
2012-11-08,34.2
2012-11-09,34.18
2012-11-12,34.0
2012-11-13,35.1
2012-11-14,34.92
2012-11-15,34.44
2012-11-16,35.52
2012-11-19,36.06
2012-11-20,35.86
2012-11-21,36.3
2012-11-23,36.95
2012-11-26,35.92
2012-11-27,35.79
2012-11-28,35.45
2012-11-29,35.32
2012-11-30,34.76
2012-12-03,34.96
2012-12-04,33.97
2012-12-05,34.49
2012-12-06,34.74
2012-12-07,34.36
2012-12-10,33.62
2012-12-11,33.7
2012-12-12,34.03
2012-12-13,33.09
2012-12-14,32.89
2012-12-17,33.11
2012-12-18,33.97
2012-12-19,33.72
2012-12-20,34.29
2012-12-21,34.45
2012-12-24,33.94
2012-12-26,33.3
2012-12-27,33.1
2012-12-28,32.82
2012-12-31,33.38
2013-01-02,33.32
2013-01-03,33.42
2013-01-04,34.26
2013-01-07,33.5
2013-01-08,32.71
2013-01-09,32.08
2013-01-10,32.04
2013-01-11,32.49
2013-01-14,32.52
2013-01-15,33.15
2013-01-16,32.77
2013-01-17,33.59
2013-01-18,33.65
2013-01-22,34.67
2013-01-23,34.22
2013-01-24,34.18
2013-01-25,34.57
2013-01-28,33.26
2013-01-29,33.97
2013-01-30,34.41
2013-01-31,34.27
2013-02-01,34.13
2013-02-04,33.73
2013-02-05,34.22
2013-02-06,34.45
2013-02-07,34.59
2013-02-08,34.49
2013-02-11,33.6082
2013-02-12,33.32
2013-02-13,33.691
2013-02-14,33.32
2013-02-15,33.02
2013-02-19,33.24
2013-02-20,33.08
2013-02-21,33.13
2013-02-22,33.47
2013-02-25,32.92
2013-02-26,33.46
2013-02-27,34.23
2013-02-28,34.31
2013-03-01,35.23
2013-03-04,35.4
2013-03-05,35.88
2013-03-06,36.21
2013-03-07,37.36
2013-03-08,37.6
2013-03-11,37.9
2013-03-12,37.8
2013-03-13,37.8
2013-03-14,38.54
2013-03-15,38.59
2013-03-18,38.62
2013-03-19,38.46
2013-03-20,38.84
2013-03-21,37.79
2013-03-22,37.66
2013-03-25,37.78
2013-03-26,37.68
2013-03-27,37.59
2013-03-28,37.25
2013-04-01,36.97
2013-04-02,36.9
2013-04-03,35.73
2013-04-04,35.91
2013-04-05,37.39
2013-04-08,37.39
2013-04-09,37.95
2013-04-10,38.36
2013-04-11,39.26
2013-04-12,37.94
2013-04-15,36.37
2013-04-16,36.53
2013-04-17,35.96
2013-04-18,35.89
2013-04-19,35.4
2013-04-22,35.09
2013-04-23,35.13
2013-04-24,34.92
2013-04-25,36.11
2013-04-26,35.49
2013-04-29,36.95
2013-04-30,37.41
2013-05-01,36.51
2013-05-02,36.94
2013-05-03,37.04
2013-05-06,37.05
2013-05-07,36.43
2013-05-08,36.35
2013-05-09,36.64
2013-05-10,36.78
2013-05-13,36.35
2013-05-14,37.4
2013-05-15,37.96
2013-05-16,37.96
2013-05-17,38.87
2013-05-20,39.6
2013-05-21,39.6
2013-05-22,38.81
2013-05-23,38.84
2013-05-24,38.06
2013-05-28,38.63
2013-05-29,38.49
2013-05-30,38.44
2013-05-31,37.75
2013-06-03,38.03
2013-06-04,37.89
2013-06-05,37.64
2013-06-06,37.05
2013-06-07,38.3
2013-06-10,38.36
2013-06-11,37.12
2013-06-12,36.55
2013-06-13,36.98
2013-06-14,36.57
2013-06-17,37.49
2013-06-18,38.011
2013-06-19,37.64
2013-06-20,36.0
2013-06-21,36.1
2013-06-24,35.94
2013-06-25,36.55
2013-06-26,36.96
2013-06-27,36.36
2013-06-28,36.58
2013-07-01,36.75
2013-07-02,37.62
2013-07-03,37.55
2013-07-05,37.89
2013-07-08,38.2
2013-07-09,38.72
2013-07-10,38.79
2013-07-11,38.55
2013-07-12,38.72
2013-07-15,38.23
2013-07-16,38.03
2013-07-17,38.34
2013-07-18,38.96
2013-07-19,39.18
2013-07-22,38.48
2013-07-23,38.32
2013-07-24,37.59
2013-07-25,39.49
2013-07-26,39.33
2013-07-29,38.12
2013-07-30,38.37
2013-07-31,38.72
2013-08-01,39.9
2013-08-02,38.67
2013-08-05,38.45
2013-08-06,38.18
2013-08-07,37.65
2013-08-08,37.71
2013-08-09,37.46
