date,close_price
1998-01-02,86.1184
1998-01-05,87.4511
1998-01-06,87.4511
1998-01-07,89.9566
1998-01-08,87.2912
1998-01-09,86.7848
1998-01-12,88.6239
1998-01-13,90.1165
1998-01-14,90.1165
1998-01-15,90.7828
1998-01-16,93.6348
1998-01-20,92.9684
1998-01-21,92.6219
1998-01-22,89.6367
1998-01-23,90.463
1998-01-26,90.7828
1998-01-27,92.7819
1998-01-28,93.1284
1998-01-29,93.6348
1998-01-30,92.462
1998-02-02,93.4482
1998-02-03,91.7957
1998-02-04,93.6348
1998-02-05,92.3021
1998-02-06,93.2883
1998-02-09,94.621
1998-02-10,94.9675
1998-02-11,95.6338
1998-02-12,94.621
1998-02-13,92.1155
1998-02-17,95.2873
1998-02-18,95.6338
1998-02-19,95.7937
1998-02-20,97.6329
1998-02-23,97.1264
1998-02-24,96.7799
1998-02-25,98.4591
1998-02-26,98.619
1998-02-27,99.2854
1998-03-02,97.6329
1998-03-03,98.619
1998-03-04,95.9537
1998-03-05,96.3002
1998-03-06,97.9527
1998-03-09,97.1264
1998-03-10,97.6329
1998-03-11,98.4591
1998-03-12,98.4591
1998-03-13,97.1264
1998-03-16,95.9537
1998-03-17,97.1264
1998-03-18,98.4591
1998-03-19,98.779
1998-03-20,97.7928
1998-03-23,100.112
1998-03-24,103.443
1998-03-25,100.778
1998-03-26,101.284
1998-03-27,100.965
1998-03-30,100.112
1998-03-31,97.7928
1998-04-01,100.965
1998-04-02,103.63
1998-04-03,102.111
1998-04-06,102.457
1998-04-07,101.791
1998-04-08,101.951
1998-04-09,103.95
1998-04-13,105.789
1998-04-14,106.295
1998-04-15,108.774
1998-04-16,106.962
1998-04-17,105.442
1998-04-20,104.776
1998-04-21,103.95
1998-04-22,103.95
1998-04-23,102.297
1998-04-24,103.79
1998-04-27,99.1255
1998-04-28,98.619
1998-04-29,99.2854
1998-04-30,100.112
1998-05-01,98.9655
1998-05-04,99.2854
1998-05-05,97.9527
1998-05-06,98.1126
1998-05-07,97.1264
1998-05-08,96.4601
1998-05-11,95.1274
1998-05-12,94.621
1998-05-13,95.1274
1998-05-14,96.3002
1998-05-15,97.6329
1998-05-18,96.1136
1998-05-19,97.1264
1998-05-20,99.4453
1998-05-21,99.6319
1998-05-22,98.4591
1998-05-26,95.7937
1998-05-27,93.9546
1998-05-28,93.1284
1998-05-29,93.1284
1998-06-01,93.2883
1998-06-02,90.463
1998-06-03,81.8005
1998-06-04,80.3079
1998-06-05,80.6277
1998-06-08,81.9604
1998-06-09,83.2931
1998-06-10,81.9604
1998-06-11,82.6268
1998-06-12,80.7877
1998-06-15,76.6297
1998-06-16,80.9742
1998-06-17,82.7867
1998-06-18,81.9604
1998-06-19,80.4678
1998-06-22,79.8015
1998-06-23,79.8015
1998-06-24,81.2941
1998-06-25,80.6277
1998-06-26,84.6258
1998-06-29,86.7848
1998-06-30,83.453
1998-07-01,84.306
1998-07-02,80.3079
1998-07-06,77.296
1998-07-07,74.3108
1998-07-08,75.137
1998-07-09,75.4569
1998-07-10,78.4688
1998-07-13,78.6287
1998-07-14,78.1223
1998-07-15,78.4688
1998-07-16,79.8015
1998-07-17,80.3079
1998-07-20,81.1342
1998-07-21,82.7867
1998-07-22,82.7867
1998-07-23,79.8015
1998-07-24,80.6277
1998-07-27,79.295
1998-07-28,75.8034
1998-07-29,77.8024
1998-07-30,80.1213
1998-07-31,79.8015
1998-08-03,76.7896
1998-08-04,76.6297
1998-08-05,74.7906
1998-08-06,72.7915
1998-08-07,73.9643
1998-08-10,70.6326
1998-08-11,70.3127
1998-08-12,70.1261
1998-08-13,69.6464
1998-08-14,68.98
1998-08-17,69.2999
1998-08-18,70.4726
1998-08-19,70.9791
1998-08-20,72.1252
1998-08-21,71.4588
1998-08-24,73.2979
1998-08-25,74.1242
1998-08-26,73.2979
1998-08-27,70.3127
1998-08-28,70.9791
1998-08-31,68.7934
1998-09-01,73.8044
1998-09-02,73.8044
1998-09-03,73.2979
1998-09-04,73.138
1998-09-08,79.295
1998-09-09,75.8034
1998-09-10,73.138
1998-09-11,78.7886
1998-09-14,77.6425
1998-09-15,76.7896
1998-09-16,76.9762
1998-09-17,74.3108
1998-09-18,76.1232
1998-09-21,77.1361
1998-09-22,74.9771
1998-09-23,79.9614
1998-09-24,76.9762
1998-09-25,79.6415
1998-09-28,80.3079
1998-09-29,78.9752
1998-09-30,76.6297
1998-10-01,71.4588
1998-10-02,73.4579
1998-10-05,75.9633
1998-10-06,76.7896
1998-10-07,73.9643
1998-10-08,73.2979
1998-10-09,72.9781
1998-10-12,75.9633
1998-10-13,76.4697
1998-10-14,74.4707
1998-10-15,77.296
1998-10-16,77.4559
1998-10-19,81.2941
1998-10-20,77.6425
1998-10-21,78.4688
1998-10-22,76.4697
1998-10-23,76.9762
1998-10-26,76.4697
1998-10-27,76.7896
1998-10-28,75.297
1998-10-29,74.3108
1998-10-30,74.3108
1998-11-02,75.8034
1998-11-03,73.138
1998-11-04,74.4707
1998-11-05,76.9762
1998-11-06,77.4559
1998-11-09,77.4559
1998-11-10,81.1342
1998-11-11,81.6406
1998-11-12,79.9614
1998-11-13,80.9742
1998-11-16,78.9752
1998-11-17,79.1351
1998-11-18,81.9604
1998-11-19,79.295
1998-11-20,76.6297
1998-11-23,78.7886
1998-11-24,79.6415
1998-11-25,79.8015
1998-11-27,79.9614
1998-11-30,79.455
1998-12-01,79.9614
1998-12-02,81.1342
1998-12-03,79.9614
1998-12-04,80.7877
1998-12-07,81.1342
1998-12-08,78.7886
1998-12-09,74.6306
1998-12-10,72.4717
1998-12-11,70.9791
1998-12-14,67.3008
1998-12-15,64.129
1998-12-16,65.9681
1998-12-17,65.4617
1998-12-18,66.4746
1998-12-21,69.6464
1998-12-22,66.4746
1998-12-23,67.6473
1998-12-24,67.6473
1998-12-28,68.4736
1998-12-29,68.7934
1998-12-30,68.1271
1998-12-31,69.8063
1999-01-04,68.3137
1999-01-05,71.139
1999-01-06,71.9652
1999-01-07,62.6364
1999-01-08,62.9829
1999-01-11,62.9829
1999-01-12,62.7963
1999-01-13,60.6374
1999-01-14,60.4775
1999-01-15,61.9701
1999-01-19,59.971
1999-01-20,58.4784
1999-01-21,55.973
1999-01-22,56.1329
1999-01-25,56.1329
1999-01-26,55.3066
1999-01-27,55.4665
1999-01-28,55.6531
1999-01-29,54.9868
1999-02-01,55.813
1999-02-02,56.4794
1999-02-03,57.6522
1999-02-04,56.6393
1999-02-05,56.9858
1999-02-08,56.3195
1999-02-09,55.4665
1999-02-10,53.3076
1999-02-11,52.9877
1999-02-12,51.1486
1999-02-16,52.8012
1999-02-17,52.9877
1999-02-18,51.3086
1999-02-19,51.9749
1999-02-22,54.6403
1999-02-23,52.9877
1999-02-24,52.3214
1999-02-25,51.4685
1999-02-26,51.9749
1999-03-01,52.8012
1999-03-02,51.815
1999-03-03,49.8159
1999-03-04,51.9749
1999-03-05,52.3214
1999-03-08,51.1486
1999-03-09,50.4823
1999-03-10,51.1486
1999-03-11,50.9887
1999-03-12,52.6412
1999-03-15,51.3086
1999-03-16,51.6551
1999-03-17,53.1477
1999-03-18,53.3076
1999-03-19,50.9887
1999-03-22,51.6551
1999-03-23,50.3224
1999-03-24,49.9759
1999-03-25,50.6422
1999-03-26,50.6422
1999-03-29,49.656
1999-03-30,49.8159
1999-03-31,50.4823
1999-04-01,47.8169
1999-04-05,47.8169
1999-04-06,47.9768
1999-04-07,46.6441
1999-04-08,56.6393
1999-04-09,55.973
1999-04-12,56.9858
1999-04-13,60.3175
1999-04-14,59.1448
1999-04-15,59.1448
1999-04-16,60.131
1999-04-19,60.131
1999-04-20,61.8102
1999-04-21,63.8092
1999-04-22,63.9691
1999-04-23,63.4627
1999-04-26,60.6374
1999-04-27,58.9848
1999-04-28,59.4646
1999-04-29,61.1438
1999-04-30,62.9829
1999-05-03,65.8082
1999-05-04,66.3146
1999-05-05,66.4746
1999-05-06,65.1419
1999-05-07,67.8073
1999-05-10,69.6464
1999-05-11,70.7925
1999-05-12,68.3137
1999-05-13,69.2999
1999-05-14,68.3137
1999-05-17,68.1271
1999-05-18,67.3008
1999-05-19,64.9819
1999-05-20,66.3146
1999-05-21,65.4617
1999-05-24,61.8102
1999-05-25,63.6493
1999-05-26,62.13
1999-05-27,61.1438
1999-05-28,64.4755
1999-06-01,64.9819
1999-06-02,63.4627
1999-06-03,63.9691
1999-06-04,62.9829
1999-06-07,61.6502
1999-06-08,60.9839
1999-06-09,58.3185
1999-06-10,56.3195
1999-06-11,54.8002
1999-06-14,54.4804
1999-06-15,53.3076
1999-06-16,53.1477
1999-06-17,52.9877
1999-06-18,52.1348
1999-06-21,51.1486
1999-06-22,50.6422
1999-06-23,49.9759
1999-06-24,49.8159
1999-06-25,49.1496
1999-06-28,48.3233
1999-06-29,49.9759
1999-06-30,49.3095
1999-07-01,48.9897
1999-07-02,49.4694
1999-07-06,49.1496
1999-07-07,49.656
1999-07-08,49.8159
1999-07-09,48.9897
1999-07-12,49.4694
1999-07-13,47.8169
1999-07-14,47.8169
1999-07-15,48.1368
1999-07-16,48.9897
1999-07-19,47.3105
1999-07-20,47.9768
1999-07-21,47.4704
1999-07-22,47.3105
1999-07-23,45.8179
1999-07-26,46.6441
1999-07-27,45.1515
1999-07-28,44.3253
1999-07-29,45.9778
1999-07-30,47.8169
1999-08-02,47.657
1999-08-03,46.8041
1999-08-04,46.4842
1999-08-05,46.3243
1999-08-06,45.6579
1999-08-09,46.4842
1999-08-10,44.4852
1999-08-11,43.9788
1999-08-12,42.4861
1999-08-13,42.6461
1999-08-16,42.806
1999-08-17,42.3262
1999-08-18,43.1525
1999-08-19,44.4852
1999-08-20,44.805
1999-08-23,45.3115
1999-08-24,45.1515
1999-08-25,45.6579
1999-08-26,45.6579
1999-08-27,45.8179
1999-08-30,45.1515
1999-08-31,46.3243
1999-09-01,45.4714
1999-09-02,44.1387
1999-09-03,44.6451
1999-09-07,44.4852
1999-09-08,44.3253
1999-09-09,43.6589
1999-09-10,44.9916
1999-09-13,44.3253
1999-09-14,44.3253
1999-09-15,44.1387
1999-09-16,44.4852
1999-09-17,45.8179
1999-09-20,45.3115
1999-09-21,44.805
1999-09-22,45.6579
1999-09-23,46.3243
1999-09-24,44.6451
1999-09-27,45.4714
1999-09-28,45.9778
1999-09-29,47.8169
1999-09-30,46.3243
1999-10-01,46.9906
1999-10-04,47.3105
1999-10-05,52.6412
1999-10-06,52.1348
1999-10-07,51.815
1999-10-08,53.6541
1999-10-11,54.3204
1999-10-12,52.4813
1999-10-13,49.8159
1999-10-14,49.9759
1999-10-15,49.3095
1999-10-18,49.9759
1999-10-19,50.6422
1999-10-20,50.8021
1999-10-21,49.8159
1999-10-22,48.1368
1999-10-25,48.1368
1999-10-26,49.656
1999-10-27,49.8159
1999-10-28,50.8021
1999-10-29,51.815
1999-11-01,53.4675
1999-11-02,53.9739
1999-11-03,52.8012
1999-11-04,53.3076
1999-11-05,54.3204
1999-11-08,54.8002
1999-11-09,56.3195
1999-11-10,56.6393
1999-11-11,56.4794
1999-11-12,57.8121
1999-11-15,59.1448
1999-11-16,60.6374
1999-11-17,63.8092
1999-11-18,61.6502
1999-11-19,60.3175
1999-11-22,58.9848
1999-11-23,56.6393
1999-11-24,57.1457
1999-11-26,56.7992
1999-11-29,55.4665
1999-11-30,59.971
1999-12-01,57.972
1999-12-02,57.3057
1999-12-03,56.1329
1999-12-06,58.1319
1999-12-07,60.6374
1999-12-08,62.4765
1999-12-09,63.9691
1999-12-10,64.4755
1999-12-13,62.7963
1999-12-14,62.4765
1999-12-15,61.1438
1999-12-16,60.131
1999-12-17,61.3037
1999-12-20,59.971
1999-12-21,59.971
1999-12-22,60.9839
1999-12-23,60.3175
1999-12-27,59.8111
1999-12-28,59.8111
1999-12-29,60.7973
1999-12-30,61.8102
1999-12-31,62.6364
2000-01-03,64.6355
2000-01-04,63.6493
2000-01-05,64.6355
2000-01-06,68.1271
2000-01-07,73.6444
2000-01-10,72.6316
2000-01-11,70.3127
2000-01-12,69.8063
2000-01-13,72.4717
2000-01-14,72.1252
2000-01-18,71.4588
2000-01-19,69.1399
2000-01-20,70.4726
2000-01-21,67.4608
2000-01-24,63.9691
2000-01-25,63.4627
2000-01-26,63.9691
2000-01-27,61.1438
2000-01-28,62.6364
2000-01-31,60.4775
2000-02-01,60.4775
2000-02-02,62.4765
2000-02-03,61.1438
2000-02-04,62.4765
2000-02-07,60.7973
2000-02-08,60.9839
2000-02-09,59.8111
2000-02-10,56.7992
2000-02-11,55.6531
2000-02-14,54.6403
2000-02-15,55.1467
2000-02-16,53.9739
2000-02-17,53.814
2000-02-18,52.4813
2000-02-22,52.6412
2000-02-23,50.1358
2000-02-24,49.3095
2000-02-25,48.1368
2000-02-28,46.3243
2000-02-29,47.1506
2000-03-01,49.8159
2000-03-02,51.9749
2000-03-03,55.6531
2000-03-06,52.6412
2000-03-07,53.3076
2000-03-08,51.815
2000-03-09,52.9877
2000-03-10,55.1467
2000-03-13,54.1601
2000-03-14,53.4934
2000-03-15,59.0134
2000-03-16,63.8401
2000-03-17,62.1601
2000-03-20,60.5067
2000-03-21,61.1734
2000-03-22,58.6667
2000-03-23,57.6801
2000-03-24,58.3467
2000-03-27,56.8267
2000-03-28,58.5067
2000-03-29,60.3467
2000-03-30,61.6801
2000-03-31,63.6801
2000-04-03,64.8268
2000-04-04,63.4934
2000-04-05,65.6801
2000-04-06,67.8401
2000-04-07,66.1601
2000-04-10,65.8401
2000-04-11,67.6801
2000-04-12,71.3334
2000-04-13,69.1734
2000-04-14,67.0134
2000-04-17,66.8268
2000-04-18,67.8401
2000-04-19,67.4934
2000-04-20,68.5068
2000-04-24,68.3467
2000-04-25,69.3334
2000-04-26,69.6801
2000-04-27,68.3467
2000-04-28,68.1601
2000-05-01,65.6801
2000-05-02,65.6801
2000-05-03,64.8268
2000-05-04,62.3467
2000-05-05,63.6801
2000-05-08,64.1601
2000-05-09,64.6667
2000-05-10,63.3334
2000-05-11,64.0001
2000-05-12,64.6667
2000-05-15,69.1734
2000-05-16,67.3334
2000-05-17,67.1734
2000-05-18,70.6668
2000-05-19,68.6668
2000-05-22,68.0001
2000-05-23,69.1734
2000-05-24,69.8401
2000-05-25,69.1734
2000-05-26,71.1734
2000-05-30,68.6668
2000-05-31,67.8401
2000-06-01,68.6668
2000-06-02,67.0134
2000-06-05,69.1734
2000-06-06,69.3334
2000-06-07,69.1734
2000-06-08,67.4934
2000-06-09,67.3334
2000-06-12,67.6801
2000-06-13,69.8401
2000-06-14,72.0001
2000-06-15,71.1734
2000-06-16,71.1734
2000-06-19,71.1734
2000-06-20,72.0001
2000-06-21,70.6668
2000-06-22,71.6801
2000-06-23,72.3468
2000-06-26,75.4934
2000-06-27,75.0134
2000-06-28,74.0001
2000-06-29,74.5068
2000-06-30,73.4934
2000-07-03,73.1734
2000-07-05,76.1601
2000-07-06,75.3334
2000-07-07,75.3334
2000-07-10,74.8268
2000-07-11,74.6668
2000-07-12,74.6668
2000-07-13,71.3334
2000-07-14,71.0134
2000-07-17,74.6668
2000-07-18,74.5068
2000-07-19,76.0001
2000-07-20,76.0001
2000-07-21,75.0134
2000-07-24,73.0134
2000-07-25,74.6668
2000-07-26,75.4934
2000-07-27,80.0001
2000-07-28,83.0134
2000-07-31,81.4934
2000-08-01,82.6668
2000-08-02,83.6801
2000-08-03,83.4934
2000-08-04,83.8401
2000-08-07,83.6801
2000-08-08,82.6668
2000-08-09,83.6801
2000-08-10,84.1601
2000-08-11,85.6801
2000-08-14,86.6668
2000-08-15,80.6668
2000-08-16,81.6801
2000-08-17,82.0001
2000-08-18,81.6801
2000-08-21,78.6668
2000-08-22,77.3334
2000-08-23,79.3334
2000-08-24,82.8268
2000-08-25,81.8401
2000-08-28,82.8268
2000-08-29,80.1601
2000-08-30,80.8268
2000-08-31,83.0134
2000-09-01,82.5068
2000-09-05,83.4934
2000-09-06,85.1734
2000-09-07,83.8401
2000-09-08,84.1601
2000-09-11,84.6668
2000-09-12,91.4935
2000-09-13,93.4935
2000-09-14,91.0135
2000-09-15,93.0135
2000-09-18,92.8268
2000-09-19,95.3335
2000-09-20,94.8268
2000-09-21,93.3335
2000-09-22,93.3335
2000-09-25,93.8401
2000-09-26,95.0135
2000-09-27,96.0001
2000-09-28,95.1735
2000-09-29,97.1735
2000-10-02,101.68
2000-10-03,100.507
2000-10-04,100.827
2000-10-05,102.667
2000-10-06,101.013
2000-10-09,100.507
2000-10-10,102.667
2000-10-11,106.667
2000-10-12,101.68
2000-10-13,103.333
2000-10-16,103.68
2000-10-17,106.667
2000-10-18,101.173
2000-10-19,100.347
2000-10-20,102.16
2000-10-23,100.16
2000-10-24,101.173
2000-10-25,104.827
2000-10-26,102.16
2000-10-27,100.347
2000-10-30,105.333
2000-10-31,105.013
2000-11-01,100.507
2000-11-02,97.8401
2000-11-03,96.1601
2000-11-06,99.1735
2000-11-07,102.16
2000-11-08,103.333
2000-11-09,105.333
2000-11-10,106.667
2000-11-13,104.0
2000-11-14,105.333
2000-11-15,104.667
2000-11-16,109.013
2000-11-17,113.333
2000-11-20,109.013
2000-11-21,107.84
2000-11-22,106.667
2000-11-24,107.333
2000-11-27,106.347
2000-11-28,109.013
2000-11-29,111.84
2000-11-30,114.667
2000-12-01,110.0
2000-12-04,112.667
2000-12-05,108.507
2000-12-06,106.347
2000-12-07,105.333
2000-12-08,103.333
2000-12-11,108.667
2000-12-12,105.333
2000-12-13,104.507
2000-12-14,101.493
2000-12-15,102.827
2000-12-18,109.333
2000-12-19,112.0
2000-12-20,114.507
2000-12-21,111.84
2000-12-22,109.333
2000-12-26,113.493
2000-12-27,115.68
2000-12-28,121.013
2000-12-29,118.347
2001-01-02,116.0
2001-01-03,110.667
2001-01-04,104.0
2001-01-05,110.0
2001-01-08,112.667
2001-01-09,114.667
2001-01-10,118.347
2001-01-11,116.0
2001-01-12,111.84
2001-01-16,113.84
2001-01-17,109.493
2001-01-18,108.0
2001-01-19,101.173
2001-01-22,108.507
2001-01-23,115.84
2001-01-24,114.667
2001-01-25,116.347
2001-01-26,115.493
2001-01-29,114.347
2001-01-30,113.36
2001-01-31,116.187
2001-02-01,117.493
2001-02-02,117.44
2001-02-05,118.027
2001-02-06,119.147
2001-02-07,120.507
2001-02-08,117.6
2001-02-09,116.053
2001-02-12,122.133
2001-02-13,121.627
2001-02-14,122.0
2001-02-15,121.2
2001-02-16,121.333
2001-02-20,120.693
2001-02-21,121.6
2001-02-22,121.867
2001-02-23,122.267
2001-02-26,117.867
2001-02-27,122.933
2001-02-28,123.067
2001-03-01,121.253
2001-03-02,121.28
2001-03-05,120.4
2001-03-06,119.893
2001-03-07,119.68
2001-03-08,117.707
2001-03-09,116.027
2001-03-12,112.533
2001-03-13,110.667
2001-03-14,108.0
2001-03-15,106.907
2001-03-16,107.333
2001-03-19,109.147
2001-03-20,109.333
2001-03-21,109.733
2001-03-22,105.733
2001-03-23,110.267
2001-03-26,113.84
2001-03-27,109.333
2001-03-28,109.973
2001-03-29,117.387
2001-03-30,116.533
2001-04-02,116.16
2001-04-03,116.933
2001-04-04,122.747
2001-04-05,123.147
2001-04-06,122.533
2001-04-09,120.0
2001-04-10,121.173
2001-04-11,120.133
2001-04-12,121.493
2001-04-16,125.12
2001-04-17,125.333
2001-04-18,120.4
2001-04-19,114.48
2001-04-20,113.467
2001-04-23,113.893
2001-04-24,115.973
2001-04-25,117.333
2001-04-26,117.76
2001-04-27,118.32
2001-04-30,119.12
2001-05-01,121.867
2001-05-02,119.84
2001-05-03,118.533
2001-05-04,118.933
2001-05-07,116.72
2001-05-08,114.88
2001-05-09,114.693
2001-05-10,114.24
2001-05-11,114.293
2001-05-14,115.093
2001-05-15,116.667
2001-05-16,121.147
2001-05-17,120.56
2001-05-18,119.867
2001-05-21,116.88
2001-05-22,115.947
2001-05-23,114.693
2001-05-24,118.613
2001-05-25,119.173
2001-05-29,120.56
2001-05-30,121.787
2001-05-31,121.067
2001-06-01,121.093
2001-06-04,124.293
2001-06-05,126.24
2001-06-06,128.987
2001-06-07,128.64
2001-06-08,129.974
2001-06-11,127.067
2001-06-12,132.88
2001-06-13,131.974
2001-06-14,132.427
2001-06-15,136.08
2001-06-18,136.374
2001-06-19,135.574
2001-06-20,138.0
2001-06-21,137.334
2001-06-22,135.76
2001-06-25,134.667
2001-06-26,133.84
2001-06-27,135.787
2001-06-28,136.907
2001-06-29,137.334
2001-07-02,135.334
2001-07-03,135.147
2001-07-05,133.574
2001-07-06,133.387
2001-07-09,133.76
2001-07-10,138.0
2001-07-11,146.667
2001-07-12,144.134
2001-07-13,142.8
2001-07-16,144.534
2001-07-17,146.08
2001-07-18,149.254
2001-07-19,145.974
2001-07-20,146.267
2001-07-23,147.387
2001-07-24,143.894
2001-07-25,145.2
2001-07-26,147.894
2001-07-27,145.734
2001-07-30,144.214
2001-07-31,147.974
2001-08-01,148.294
2001-08-02,144.587
2001-08-03,144.454
2001-08-06,144.347
2001-08-07,145.76
2001-08-08,144.294
2001-08-09,144.694
2001-08-10,147.654
2001-08-13,147.734
2001-08-14,148.0
2001-08-15,148.0
2001-08-16,148.4
2001-08-17,144.96
2001-08-20,147.28
2001-08-21,148.667
2001-08-22,152.8
2001-08-23,153.814
2001-08-24,153.44
2001-08-27,152.16
2001-08-28,150.88
2001-08-29,149.867
2001-08-30,151.867
2001-08-31,147.787
2001-09-04,152.667
2001-09-05,155.627
2001-09-06,156.374
2001-09-07,154.16
2001-09-10,151.36
2001-09-17,145.627
2001-09-18,146.187
2001-09-19,145.334
2001-09-20,149.867
2001-09-21,144.694
2001-09-24,146.0
2001-09-25,152.347
2001-09-26,155.974
2001-09-27,159.92
2001-09-28,158.4
2001-10-01,158.0
2001-10-02,157.734
2001-10-03,155.494
2001-10-04,160.587
2001-10-05,162.24
2001-10-08,161.84
2001-10-09,159.68
2001-10-10,163.52
2001-10-11,158.534
2001-10-12,159.2
2001-10-15,166.054
2001-10-16,163.6
2001-10-17,164.054
2001-10-18,162.427
2001-10-19,162.64
2001-10-22,165.974
2001-10-23,161.52
2001-10-24,156.747
2001-10-25,155.76
2001-10-26,154.934
2001-10-29,157.547
2001-10-30,156.88
2001-10-31,153.36
2001-11-01,152.934
2001-11-02,151.147
2001-11-05,149.52
2001-11-06,152.347
2001-11-07,148.4
2001-11-08,144.054
2001-11-09,147.067
2001-11-12,150.24
2001-11-13,151.84
2001-11-14,153.44
2001-11-15,154.4
2001-11-16,154.747
2001-11-19,156.72
2001-11-20,160.374
2001-11-21,160.214
2001-11-23,160.907
2001-11-26,159.867
2001-11-27,156.987
2001-11-28,156.374
2001-11-29,158.587
2001-11-30,160.027
2001-12-03,160.32
2001-12-04,161.734
2001-12-05,162.48
2001-12-06,160.027
2001-12-07,159.334
2001-12-10,157.387
2001-12-11,159.734
2001-12-12,158.8
2001-12-13,159.254
2001-12-14,162.107
2001-12-17,159.414
2001-12-18,158.667
2001-12-19,155.52
2001-12-20,156.0
2001-12-21,153.334
2001-12-24,155.467
2001-12-26,154.907
2001-12-27,155.68
2001-12-28,156.48
2001-12-31,156.587
2002-01-02,158.0
2002-01-03,159.974
2002-01-04,165.174
2002-01-07,166.774
2002-01-08,165.12
2002-01-09,165.6
2002-01-10,166.934
2002-01-11,168.374
2002-01-14,172.8
2002-01-15,173.947
2002-01-16,174.987
2002-01-17,171.547
2002-01-18,171.974
2002-01-22,172.8
2002-01-23,169.654
2002-01-24,169.76
2002-01-25,167.44
2002-01-28,166.854
2002-01-29,165.094
2002-01-30,167.494
2002-01-31,170.0
2002-02-01,168.854
2002-02-04,167.787
2002-02-05,172.854
2002-02-06,173.867
2002-02-07,173.787
2002-02-08,173.547
2002-02-11,170.667
2002-02-12,171.867
2002-02-13,170.0
2002-02-14,166.0
2002-02-15,161.467
2002-02-19,158.667
2002-02-20,160.294
2002-02-21,165.334
2002-02-22,164.667
2002-02-25,165.12
2002-02-26,160.134
2002-02-27,158.214
2002-02-28,154.32
2002-03-01,155.067
2002-03-04,151.494
2002-03-05,156.987
2002-03-06,156.8
2002-03-07,158.934
2002-03-08,160.454
2002-03-11,162.4
2002-03-12,163.174
2002-03-13,169.334
2002-03-14,167.28
2002-03-15,170.587
2002-03-18,169.387
2002-03-19,167.52
2002-03-20,170.934
2002-03-21,173.387
2002-03-22,172.24
2002-03-25,173.92
2002-03-26,174.8
2002-03-27,177.36
2002-03-28,178.934
2002-04-01,179.654
2002-04-02,181.734
2002-04-03,179.254
2002-04-04,180.214
2002-04-05,181.467
2002-04-08,185.014
2002-04-09,186.96
2002-04-10,189.067
2002-04-11,190.134
2002-04-12,186.667
2002-04-15,185.76
2002-04-16,186.587
2002-04-17,189.307
2002-04-18,192.107
2002-04-19,197.547
2002-04-22,195.04
2002-04-23,194.027
2002-04-24,194.534
2002-04-25,196.934
2002-04-26,198.48
2002-04-29,191.334
2002-04-30,195.334
2002-05-01,196.507
2002-05-02,195.654
2002-05-03,196.347
2002-05-06,199.254
2002-05-07,196.08
2002-05-08,197.6
2002-05-09,193.6
2002-05-10,189.6
2002-05-13,188.56
2002-05-14,190.774
2002-05-15,190.16
2002-05-16,191.734
2002-05-17,193.227
2002-05-20,189.36
2002-05-21,190.454
2002-05-22,188.374
2002-05-23,190.374
2002-05-24,188.587
2002-05-28,192.134
2002-05-29,194.587
2002-05-30,198.134
2002-05-31,198.614
2002-06-03,197.147
2002-06-04,190.907
2002-06-05,195.92
2002-06-06,195.467
2002-06-07,199.734
2002-06-10,202.614
2002-06-11,203.6
2002-06-12,203.307
2002-06-13,202.96
2002-06-14,199.627
2002-06-17,199.334
2002-06-18,203.867
2002-06-19,208.027
2002-06-20,200.667
2002-06-21,198.96
2002-06-24,190.4
2002-06-25,189.707
2002-06-26,191.574
2002-06-27,193.254
2002-06-28,190.694
2002-07-01,189.04
2002-07-02,185.92
2002-07-03,190.64
2002-07-05,194.76
2002-07-08,193.16
2002-07-09,189.52
2002-07-10,182.84
2002-07-11,192.76
2002-07-12,194.04
2002-07-15,192.36
2002-07-16,185.0
2002-07-17,190.0
2002-07-18,187.76
2002-07-19,182.72
2002-07-22,165.68
2002-07-23,166.0
2002-07-24,179.88
2002-07-25,180.4
2002-07-26,178.96
2002-07-29,179.68
2002-07-30,178.0
2002-07-31,190.32
2002-08-01,190.2
2002-08-02,191.44
2002-08-05,190.96
2002-08-06,191.92
2002-08-07,193.76
2002-08-08,199.36
2002-08-09,191.2
2002-08-12,184.96
2002-08-13,183.92
2002-08-14,190.6
2002-08-15,191.08
2002-08-16,191.8
2002-08-19,194.44
2002-08-20,190.0
2002-08-21,193.48
2002-08-22,194.72
2002-08-23,191.2
2002-08-26,193.52
2002-08-27,189.16
2002-08-28,187.0
2002-08-29,187.68
2002-08-30,189.12
2002-09-03,181.6
2002-09-04,183.44
2002-09-05,187.04
2002-09-06,188.68
2002-09-09,192.28
2002-09-10,193.24
2002-09-11,198.12
2002-09-12,200.8
2002-09-13,204.08
2002-09-16,206.12
2002-09-17,200.88
2002-09-18,198.68
2002-09-19,194.8
2002-09-20,194.52
2002-09-23,191.44
2002-09-24,189.52
2002-09-25,191.96
2002-09-26,196.0
2002-09-27,198.2
2002-09-30,197.96
2002-10-01,200.36
2002-10-02,206.04
2002-10-03,208.8
2002-10-04,202.04
2002-10-07,203.36
2002-10-08,202.12
2002-10-09,201.2
2002-10-10,198.36
2002-10-11,197.56
2002-10-14,196.04
2002-10-15,201.4
2002-10-16,202.2
2002-10-17,195.4
2002-10-18,199.96
2002-10-21,202.56
2002-10-22,199.48
2002-10-23,202.04
2002-10-24,194.04
2002-10-25,197.48
2002-10-28,171.08
2002-10-29,159.88
2002-10-30,155.84
2002-10-31,112.0
2002-11-01,107.28
2002-11-04,107.52
2002-11-05,104.84
2002-11-06,104.64
2002-11-07,111.6
2002-11-08,59.2
2002-11-11,55.72
2002-11-12,59.8
2002-11-13,59.24
2002-11-14,62.24
2002-11-15,65.2
2002-11-18,74.88
2002-11-19,70.16
2002-11-20,70.76
2002-11-21,69.12
2002-11-22,65.56
2002-11-25,66.16
2002-11-26,70.48
2002-11-27,72.4
2002-11-29,73.8
2002-12-02,71.16
2002-12-03,70.92
2002-12-04,74.84
2002-12-05,75.2
2002-12-06,73.68
2002-12-09,69.84
2002-12-10,70.24
2002-12-11,69.2
2002-12-12,71.76
2002-12-13,71.24
2002-12-16,71.32
2002-12-17,68.8
2002-12-18,68.64
2002-12-19,68.16
2002-12-20,61.04
2002-12-23,62.6
2002-12-24,61.44
2002-12-26,61.28
2002-12-27,60.68
2002-12-30,63.32
2002-12-31,65.6
2003-01-02,67.88
2003-01-03,67.28
2003-01-06,66.44
2003-01-07,68.0
2003-01-08,67.4
2003-01-09,67.4
2003-01-10,67.52
2003-01-13,70.76
2003-01-14,72.48
2003-01-15,75.6
2003-01-16,73.88
2003-01-17,75.32
2003-01-21,74.6
2003-01-22,73.88
2003-01-23,75.88
2003-01-24,73.28
2003-01-27,72.0
2003-01-28,72.44
2003-01-29,72.48
2003-01-30,69.56
2003-01-31,72.0
2003-02-03,71.6
2003-02-04,71.36
2003-02-05,71.6
2003-02-06,69.96
2003-02-07,71.52
2003-02-10,73.56
2003-02-11,72.4
2003-02-12,69.64
2003-02-13,68.12
2003-02-14,68.84
2003-02-18,70.48
2003-02-19,70.16
2003-02-20,69.6
2003-02-21,71.12
2003-02-24,69.4
2003-02-25,69.24
2003-02-26,69.0
2003-02-27,71.12
2003-02-28,72.4
2003-03-03,72.2
2003-03-04,70.28
2003-03-05,70.36
2003-03-06,67.88
2003-03-07,69.0
2003-03-10,67.68
2003-03-11,66.6
2003-03-12,66.36
2003-03-13,67.92
2003-03-14,66.96
2003-03-17,68.72
2003-03-18,71.84
2003-03-19,70.2
2003-03-20,68.2
2003-03-21,67.0
2003-03-24,66.24
2003-03-25,66.88
2003-03-26,66.84
2003-03-27,66.16
2003-03-28,66.88
2003-03-31,66.64
2003-04-01,67.08
2003-04-02,66.32
2003-04-03,65.32
2003-04-04,63.12
2003-04-07,61.56
2003-04-08,60.6
2003-04-09,60.2
2003-04-10,60.4
2003-04-11,61.12
2003-04-14,63.8
2003-04-15,61.16
2003-04-16,57.84
2003-04-17,59.2
2003-04-21,55.2
2003-04-22,56.92
2003-04-23,56.96
2003-04-24,57.84
2003-04-25,58.24
2003-04-28,57.36
2003-04-29,58.84
2003-04-30,59.2
2003-05-01,58.88
2003-05-02,62.24
2003-05-05,62.4
2003-05-06,63.0
2003-05-07,63.36
2003-05-08,63.28
2003-05-09,64.0
2003-05-12,64.08
2003-05-13,64.48
2003-05-14,65.88
2003-05-15,64.0
2003-05-16,64.12
2003-05-19,63.8
2003-05-20,64.32
2003-05-21,63.12
2003-05-22,62.84
2003-05-23,62.2
2003-05-27,64.64
2003-05-28,67.24
2003-05-29,67.0
2003-05-30,66.8
2003-06-02,66.64
2003-06-03,66.12
2003-06-04,64.84
2003-06-05,64.0
2003-06-06,64.88
2003-06-09,63.96
2003-06-10,64.76
2003-06-11,64.72
2003-06-12,63.6
2003-06-13,61.4
2003-06-16,63.2
2003-06-17,64.8
2003-06-18,66.36
2003-06-19,65.12
2003-06-20,64.92
2003-06-23,48.16
2003-06-24,48.0
2003-06-25,47.72
2003-06-26,46.84
2003-06-27,46.6
2003-06-30,46.76
2003-07-01,45.84
2003-07-02,45.88
2003-07-03,45.72
2003-07-07,46.76
2003-07-08,48.64
2003-07-09,48.32
2003-07-10,46.96
2003-07-11,47.4
2003-07-14,47.16
2003-07-15,49.84
2003-07-16,48.6
2003-07-17,47.48
2003-07-18,48.04
2003-07-21,48.24
2003-07-22,48.92
2003-07-23,48.84
2003-07-24,48.0
2003-07-25,49.32
2003-07-28,53.04
2003-07-29,54.52
2003-07-30,55.16
2003-07-31,55.2
2003-08-01,55.0
2003-08-04,53.64
2003-08-05,52.68
2003-08-06,52.2
2003-08-07,58.2
2003-08-08,57.6
2003-08-11,58.96
2003-08-12,58.84
2003-08-13,58.16
2003-08-14,58.04
2003-08-15,56.84
2003-08-18,56.96
2003-08-19,57.92
2003-08-20,58.04
2003-08-21,58.72
2003-08-22,58.6
2003-08-25,59.96
2003-08-26,62.12
2003-08-27,63.08
2003-08-28,64.88
2003-08-29,64.2
2003-09-02,64.76
2003-09-03,64.6
2003-09-04,63.88
2003-09-05,62.64
2003-09-08,63.04
2003-09-09,61.48
2003-09-10,61.4
2003-09-11,61.32
2003-09-12,61.2
2003-09-15,59.92
2003-09-16,60.48
2003-09-17,61.0
2003-09-18,61.76
2003-09-19,61.8
2003-09-22,60.64
2003-09-23,58.72
2003-09-24,59.56
2003-09-25,59.16
2003-09-26,58.52
2003-09-29,58.96
2003-09-30,57.96
2003-10-01,59.04
2003-10-02,59.36
2003-10-03,59.96
2003-10-06,60.76
2003-10-07,61.24
2003-10-08,61.16
2003-10-09,61.32
2003-10-10,61.6
2003-10-13,61.24
2003-10-14,61.96
2003-10-15,61.28
2003-10-16,63.28
2003-10-17,62.4
2003-10-20,62.28
2003-10-21,61.6
2003-10-22,54.28
2003-10-23,50.2
2003-10-24,50.16
2003-10-27,50.88
2003-10-28,51.28
2003-10-29,55.4
2003-10-30,55.32
2003-10-31,55.16
2003-11-03,53.96
2003-11-04,51.52
2003-11-05,51.0
2003-11-06,52.32
2003-11-07,53.72
2003-11-10,52.8
2003-11-11,52.2
2003-11-12,51.96
2003-11-13,52.88
2003-11-14,53.0
2003-11-17,53.16
2003-11-18,54.6
2003-11-19,54.88
2003-11-20,54.0
2003-11-21,55.08
2003-11-24,57.2
2003-11-25,57.8
2003-11-26,58.12
2003-11-28,58.44
2003-12-01,60.12
2003-12-02,62.24
2003-12-03,60.8
2003-12-04,60.36
2003-12-05,60.04
2003-12-08,59.32
2003-12-09,58.8
2003-12-10,57.88
2003-12-11,58.88
2003-12-12,59.0
2003-12-15,58.96
2003-12-16,59.36
2003-12-17,58.96
2003-12-18,60.96
2003-12-19,60.6
2003-12-22,62.76
2003-12-23,62.24
2003-12-24,61.8
2003-12-26,62.44
2003-12-29,63.6
2003-12-30,63.68
2003-12-31,64.16
2004-01-02,64.0
2004-01-05,64.56
2004-01-06,65.44
2004-01-07,65.24
2004-01-08,65.12
2004-01-09,65.2
2004-01-12,65.52
2004-01-13,65.4
2004-01-14,67.8
2004-01-15,67.68
2004-01-16,67.8
2004-01-20,72.96
2004-01-21,72.56
2004-01-22,72.0
2004-01-23,69.32
2004-01-26,68.0
2004-01-27,64.6
2004-01-28,52.76
2004-01-29,49.2
2004-01-30,49.6
2004-02-02,48.92
2004-02-03,50.04
2004-02-04,49.44
2004-02-05,48.64
2004-02-06,51.2
2004-02-09,48.6
2004-02-10,49.36
2004-02-11,49.96
2004-02-12,50.0
2004-02-13,48.84
2004-02-17,49.84
2004-02-18,50.76
2004-02-19,50.04
2004-02-20,49.08
2004-02-23,49.36
2004-02-24,48.84
2004-02-25,49.24
2004-02-26,48.8
2004-02-27,48.12
2004-03-01,48.36
2004-03-02,48.08
2004-03-03,47.96
2004-03-04,47.88
2004-03-05,48.32
2004-03-08,47.72
2004-03-09,46.96
2004-03-10,40.16
2004-03-11,42.04
2004-03-12,39.56
2004-03-15,39.24
2004-03-16,41.2
2004-03-17,42.96
2004-03-18,44.68
2004-03-19,42.72
2004-03-22,42.48
2004-03-23,42.44
2004-03-24,41.2
2004-03-25,41.68
2004-03-26,41.16
2004-03-29,42.84
2004-03-30,43.12
2004-03-31,44.72
2004-04-01,44.0
2004-04-02,44.04
2004-04-05,44.96
2004-04-06,44.56
2004-04-07,44.8
2004-04-08,44.88
2004-04-12,44.84
2004-04-13,43.96
2004-04-14,43.48
2004-04-15,43.04
2004-04-16,43.04
2004-04-19,42.88
2004-04-20,42.04
2004-04-21,45.6
2004-04-22,45.44
2004-04-23,45.64
2004-04-26,45.6
2004-04-27,46.44
2004-04-28,45.08
2004-04-29,44.76
2004-04-30,46.92
2004-05-03,47.6
2004-05-04,48.4
2004-05-05,49.08
2004-05-06,48.84
2004-05-07,48.4
2004-05-10,47.08
2004-05-11,47.6
2004-05-12,47.6
2004-05-13,47.88
2004-05-14,48.04
2004-05-17,47.28
2004-05-18,47.6
2004-05-19,46.72
2004-05-20,46.36
2004-05-21,46.92
2004-05-24,47.24
2004-05-25,47.96
2004-05-26,47.8
2004-05-27,47.72
2004-05-28,47.68
2004-06-01,48.56
2004-06-02,49.44
2004-06-03,50.04
2004-06-04,51.4
2004-06-07,51.64
2004-06-08,51.36
2004-06-09,50.44
2004-06-10,50.52
2004-06-14,49.84
2004-06-15,49.96
2004-06-16,49.12
2004-06-17,50.0
2004-06-18,50.8
2004-06-21,49.48
2004-06-22,50.0
2004-06-23,49.96
2004-06-24,50.6
2004-06-25,51.4
2004-06-28,50.84
2004-06-29,51.32
2004-06-30,53.64
2004-07-01,51.96
2004-07-02,52.36
2004-07-06,50.12
2004-07-07,49.4
2004-07-08,48.84
2004-07-09,48.92
2004-07-12,48.8
2004-07-13,50.0
2004-07-14,51.6
2004-07-15,51.32
2004-07-16,50.8
2004-07-19,50.28
2004-07-20,51.16
2004-07-21,49.84
2004-07-22,49.08
2004-07-23,47.68
2004-07-26,47.4
2004-07-27,46.0
2004-07-28,44.96
2004-07-29,44.88
2004-07-30,44.68
2004-08-02,44.8
2004-08-03,43.2
2004-08-04,42.4
2004-08-05,41.28
2004-08-06,40.12
2004-08-09,39.64
2004-08-10,40.56
2004-08-11,41.84
2004-08-12,40.88
2004-08-13,41.0
2004-08-16,42.12
2004-08-17,41.96
2004-08-18,42.44
2004-08-19,42.08
2004-08-20,42.32
2004-08-23,41.72
2004-08-24,41.24
2004-08-25,41.36
2004-08-26,41.2
2004-08-27,41.12
2004-08-30,41.0
2004-08-31,41.6
2004-09-01,42.08
2004-09-02,41.8
2004-09-03,41.76
2004-09-07,41.2
2004-09-08,39.96
2004-09-09,40.72
2004-09-10,41.04
2004-09-13,41.36
2004-09-14,40.92
2004-09-15,40.8
2004-09-16,40.96
2004-09-17,41.2
2004-09-20,41.12
2004-09-21,41.0
2004-09-22,40.96
2004-09-23,41.52
2004-09-24,41.64
2004-09-27,40.92
2004-09-28,41.88
2004-09-29,42.16
2004-09-30,43.2
2004-10-01,43.96
2004-10-04,44.88
2004-10-05,44.72
2004-10-06,44.52
2004-10-07,44.48
2004-10-08,44.88
2004-10-11,44.72
2004-10-12,43.88
2004-10-13,42.8
2004-10-14,41.4
2004-10-15,41.44
2004-10-18,41.2
2004-10-19,40.12
2004-10-20,40.72
2004-10-21,40.6
2004-10-22,41.6
2004-10-25,41.2
2004-10-26,42.0
2004-10-27,42.76
2004-10-28,42.56
2004-10-29,42.88
2004-11-01,42.08
2004-11-02,42.44
2004-11-03,43.36
2004-11-04,43.0
2004-11-05,43.64
2004-11-08,42.72
2004-11-09,43.2
2004-11-10,43.28
2004-11-11,43.56
2004-11-12,43.96
2004-11-15,44.2
2004-11-16,43.76
2004-11-17,43.8
2004-11-18,43.64
2004-11-19,42.84
2004-11-22,42.8
2004-11-23,42.6
2004-11-24,42.6
2004-11-26,42.72
2004-11-29,42.64
2004-11-30,43.52
2004-12-01,43.64
2004-12-02,44.08
2004-12-03,46.92
2004-12-06,47.12
2004-12-07,47.48
2004-12-08,48.76
2004-12-09,49.32
2004-12-10,48.2
2004-12-13,44.2
2004-12-14,43.64
2004-12-15,43.32
2004-12-16,41.84
2004-12-17,42.08
2004-12-20,41.68
2004-12-21,42.4
2004-12-22,42.76
2004-12-23,42.96
2004-12-27,42.76
2004-12-28,41.96
2004-12-29,42.2
2004-12-30,43.64
2004-12-31,43.88
2005-01-03,42.8
2005-01-04,42.4
2005-01-05,41.72
2005-01-06,41.44
2005-01-07,41.76
2005-01-10,42.24
2005-01-11,42.04
2005-01-12,42.28
2005-01-13,41.72
2005-01-14,42.28
2005-01-18,41.24
2005-01-19,41.08
2005-01-20,40.76
2005-01-21,40.96
2005-01-24,40.64
2005-01-25,40.4
2005-01-26,39.76
2005-01-27,39.96
2005-01-28,39.6
2005-01-31,39.64
2005-02-01,39.96
2005-02-02,41.68
2005-02-03,40.28
2005-02-04,41.84
2005-02-07,41.96
2005-02-08,41.0
2005-02-09,41.0
2005-02-10,40.36
2005-02-11,40.4
2005-02-14,40.6
2005-02-15,41.88
2005-02-16,42.12
2005-02-17,42.68
2005-02-18,43.16
2005-02-22,42.56
2005-02-23,43.4
2005-02-24,42.96
2005-02-25,43.4
2005-02-28,43.52
2005-03-01,45.08
2005-03-02,45.68
2005-03-03,44.84
2005-03-04,44.52
2005-03-07,44.12
2005-03-08,44.56
2005-03-09,43.6
2005-03-10,43.24
2005-03-11,42.32
2005-03-14,42.56
2005-03-15,41.88
2005-03-16,42.08
2005-03-17,42.4
2005-03-18,42.32
2005-03-21,42.2
2005-03-22,42.08
2005-03-23,43.04
2005-03-24,44.08
2005-03-28,44.68
2005-03-29,46.88
2005-03-30,46.08
2005-03-31,46.16
2005-04-01,46.2
2005-04-04,46.44
2005-04-05,46.6
2005-04-06,47.68
2005-04-07,47.12
2005-04-08,47.2
2005-04-11,48.68
2005-04-12,47.92
2005-04-13,47.84
2005-04-14,47.44
2005-04-15,47.56
2005-04-18,47.44
2005-04-19,46.6
2005-04-20,46.44
2005-04-21,47.04
2005-04-22,47.2
2005-04-25,49.0
2005-04-26,48.04
2005-04-27,47.4
2005-04-28,46.0
2005-04-29,47.88
2005-05-02,48.36
2005-05-03,46.2
2005-05-04,46.6
2005-05-05,46.8
2005-05-06,46.84
2005-05-09,49.2
2005-05-10,48.76
2005-05-11,48.8
2005-05-12,49.68
2005-05-13,48.72
2005-05-16,49.24
2005-05-17,49.12
2005-05-18,49.4
2005-05-19,50.08
2005-05-20,50.08
2005-05-23,49.76
2005-05-24,48.4
2005-05-25,48.0
2005-05-26,48.12
2005-05-27,47.92
2005-05-31,48.4
2005-06-01,47.96
2005-06-02,48.08
2005-06-03,47.96
2005-06-06,48.16
2005-06-07,48.2
2005-06-08,48.8
2005-06-09,48.36
2005-06-10,48.04
2005-06-13,48.48
2005-06-14,50.2
2005-06-15,50.84
2005-06-16,51.4
2005-06-17,51.12
2005-06-20,50.88
2005-06-21,50.24
2005-06-22,51.12
2005-06-23,50.4
2005-06-24,49.36
2005-06-27,49.6
2005-06-28,49.64
2005-06-29,49.32
2005-06-30,48.96
2005-07-01,48.76
2005-07-05,48.6
2005-07-06,48.56
2005-07-07,49.2
2005-07-08,49.24
2005-07-11,50.0
2005-07-12,49.32
2005-07-13,48.56
2005-07-14,48.6
2005-07-15,48.44
2005-07-18,48.2
2005-07-19,48.84
2005-07-20,49.6
2005-07-21,48.8
2005-07-22,48.48
2005-07-25,48.12
2005-07-26,48.52
2005-07-27,48.84
2005-07-28,48.6
2005-07-29,48.48
2005-08-01,48.8
2005-08-02,51.16
2005-08-03,51.52
2005-08-04,51.56
2005-08-05,50.6
2005-08-08,50.76
2005-08-09,51.24
2005-08-10,50.84
2005-08-11,51.24
2005-08-12,51.0
2005-08-15,50.76
2005-08-16,50.64
2005-08-17,51.0
2005-08-18,51.04
2005-08-19,51.0
2005-08-22,50.88
2005-08-23,51.0
2005-08-24,51.12
2005-08-25,51.44
2005-08-26,51.12
2005-08-29,50.76
2005-08-30,50.56
2005-08-31,48.76
2005-09-01,48.04
2005-09-02,48.04
2005-09-06,47.72
2005-09-07,47.84
2005-09-08,47.52
2005-09-09,48.12
2005-09-12,47.52
2005-09-13,46.6
2005-09-14,45.6
2005-09-15,45.32
2005-09-16,46.68
2005-09-19,46.6
2005-09-20,46.08
2005-09-21,44.6
2005-09-22,44.72
2005-09-23,45.64
2005-09-26,45.92
2005-09-27,45.88
2005-09-28,45.44
2005-09-29,44.44
2005-09-30,44.8
2005-10-03,44.04
2005-10-04,43.2
2005-10-05,42.12
2005-10-06,41.16
2005-10-07,41.84
2005-10-10,41.4
2005-10-11,40.64
2005-10-12,40.52
2005-10-13,39.72
2005-10-14,39.84
2005-10-17,39.48
2005-10-18,39.88
2005-10-19,39.88
2005-10-20,39.16
2005-10-21,36.48
2005-10-24,34.0
2005-10-25,33.24
2005-10-26,32.88
2005-10-27,32.84
2005-10-28,32.96
2005-10-31,33.52
2005-11-01,32.96
2005-11-02,33.24
2005-11-03,32.76
2005-11-04,31.6
2005-11-07,29.96
2005-11-08,29.96
2005-11-09,29.84
2005-11-10,30.24
2005-11-11,30.36
2005-11-14,30.08
2005-11-15,30.12
2005-11-16,29.44
2005-11-17,30.0
2005-11-18,30.44
2005-11-21,29.6
2005-11-22,29.16
2005-11-23,29.52
2005-11-25,29.72
2005-11-28,30.6
2005-11-29,30.24
2005-11-30,31.32
2005-12-01,32.84
2005-12-02,32.84
2005-12-05,32.72
2005-12-06,32.64
2005-12-07,33.2
2005-12-08,34.12
2005-12-09,34.68
2005-12-12,34.28
2005-12-13,34.92
2005-12-14,34.04
2005-12-15,33.2
2005-12-16,33.72
2005-12-19,32.72
2005-12-20,32.24
2005-12-21,32.12
2005-12-22,32.28
2005-12-23,31.96
2005-12-27,30.72
2005-12-28,30.84
2005-12-29,30.76
2005-12-30,30.6
2006-01-03,30.6
2006-01-04,31.0
2006-01-05,30.72
2006-01-06,30.88
2006-01-09,30.84
2006-01-10,29.72
2006-01-11,30.16
2006-01-12,30.52
2006-01-13,30.88
2006-01-17,31.12
2006-01-18,30.52
2006-01-19,30.64
2006-01-20,29.96
2006-01-23,29.4
2006-01-24,29.04
2006-01-25,29.2
2006-01-26,29.92
2006-01-27,29.96
2006-01-30,29.6
2006-01-31,29.12
2006-02-01,29.2
2006-02-02,28.8
2006-02-03,28.2
2006-02-06,28.32
2006-02-07,28.12
2006-02-08,28.28
2006-02-09,28.0
2006-02-10,28.12
2006-02-13,28.08
2006-02-14,28.16
2006-02-15,28.2
2006-02-16,30.36
2006-02-17,31.28
2006-02-21,32.36
2006-02-22,31.88
2006-02-23,32.6
2006-02-24,32.16
2006-02-27,32.04
2006-02-28,31.52
2006-03-01,30.84
2006-03-02,29.44
2006-03-03,29.8
2006-03-06,29.68
2006-03-07,28.36
2006-03-08,29.04
2006-03-09,29.0
2006-03-10,29.08
2006-03-13,28.52
2006-03-14,28.68
2006-03-15,28.72
2006-03-16,28.76
2006-03-17,29.12
2006-03-20,29.32
2006-03-21,28.28
2006-03-22,28.84
2006-03-23,29.04
2006-03-24,29.24
2006-03-27,29.16
2006-03-28,29.64
2006-03-29,29.96
2006-03-30,29.44
2006-03-31,29.48
2006-04-03,29.2
2006-04-04,31.2
2006-04-05,36.08
2006-04-06,36.16
2006-04-07,34.84
2006-04-10,34.96
2006-04-11,34.8
2006-04-12,34.96
2006-04-13,35.6
2006-04-17,34.96
2006-04-18,35.28
2006-04-19,35.88
2006-04-20,35.08
2006-04-21,34.48
2006-04-24,34.4
2006-04-25,34.16
2006-04-26,33.6
2006-04-27,33.4
2006-04-28,33.44
2006-05-01,32.68
2006-05-02,31.36
2006-05-03,32.24
2006-05-04,31.92
2006-05-05,32.16
2006-05-08,31.84
2006-05-09,30.32
2006-05-10,30.0
2006-05-11,29.44
2006-05-12,30.36
2006-05-15,30.12
2006-05-16,29.6
2006-05-17,32.12
2006-05-18,31.84
2006-05-19,31.8
2006-05-22,32.8
2006-05-23,31.04
2006-05-24,30.36
2006-05-25,30.52
2006-05-26,31.04
2006-05-30,30.6
2006-05-31,31.68
2006-06-01,32.64
2006-06-02,32.2
2006-06-05,31.04
2006-06-06,30.92
2006-06-07,31.84
2006-06-08,31.84
2006-06-09,31.24
2006-06-12,30.92
2006-06-13,29.68
2006-06-14,29.28
2006-06-15,29.48
2006-06-16,29.64
2006-06-19,29.36
2006-06-20,28.24
2006-06-21,28.64
2006-06-22,29.08
2006-06-23,28.4
2006-06-26,28.12
2006-06-27,27.28
2006-06-28,28.92
2006-06-29,28.44
2006-06-30,27.92
2006-07-03,27.6
2006-07-05,26.12
2006-07-06,26.16
2006-07-07,26.24
2006-07-10,26.36
2006-07-11,26.48
2006-07-12,26.24
2006-07-13,25.6
2006-07-14,24.92
2006-07-17,24.96
2006-07-18,24.72
2006-07-19,24.92
2006-07-20,24.64
2006-07-21,24.36
2006-07-24,23.8
2006-07-25,23.68
2006-07-26,23.96
2006-07-27,23.84
2006-07-28,23.6
2006-07-31,23.72
2006-08-01,23.28
2006-08-02,23.92
2006-08-03,24.0
2006-08-04,23.68
2006-08-07,23.68
2006-08-08,23.36
2006-08-09,23.36
2006-08-10,26.36
2006-08-11,28.2
2006-08-14,30.2
2006-08-15,29.16
2006-08-16,29.16
2006-08-17,29.96
2006-08-18,29.32
2006-08-21,29.32
2006-08-22,29.48
2006-08-23,29.48
2006-08-24,30.12
2006-08-25,29.12
2006-08-28,29.64
2006-08-29,30.44
2006-08-30,31.56
2006-08-31,31.52
2006-09-01,30.72
2006-09-05,30.52
2006-09-06,30.08
2006-09-07,30.24
2006-09-08,31.24
2006-09-11,32.2
2006-09-12,33.36
2006-09-13,33.48
2006-09-14,33.04
2006-09-15,34.4
2006-09-18,33.48
2006-09-19,33.44
2006-09-20,34.04
2006-09-21,33.08
2006-09-22,32.64
2006-09-25,32.84
2006-09-26,33.72
2006-09-27,32.72
2006-09-28,32.2
2006-09-29,32.6
2006-10-02,32.64
2006-10-03,32.56
2006-10-04,32.72
2006-10-05,33.92
2006-10-06,33.08
2006-10-09,32.6
2006-10-10,32.64
2006-10-11,32.44
2006-10-12,33.04
2006-10-13,32.88
2006-10-16,33.08
2006-10-17,32.56
2006-10-18,32.4
2006-10-19,33.16
2006-10-20,32.56
2006-10-23,32.64
2006-10-24,32.48
2006-10-25,32.36
2006-10-26,32.08
2006-10-27,33.2
2006-10-30,29.64
2006-10-31,28.2
2006-11-01,27.84
2006-11-02,27.88
2006-11-03,27.36
2006-11-06,27.56
2006-11-07,28.32
2006-11-08,28.48
2006-11-09,29.08
2006-11-10,28.92
2006-11-13,29.4
2006-11-14,29.24
2006-11-15,29.16
2006-11-16,29.32
2006-11-17,29.0
2006-11-20,27.56
2006-11-21,28.0
2006-11-22,28.48
2006-11-24,27.96
2006-11-27,28.36
2006-11-28,28.0
2006-11-29,28.0
2006-11-30,28.36
2006-12-01,27.92
2006-12-04,28.28
2006-12-05,28.04
2006-12-06,29.08
2006-12-07,28.76
2006-12-08,28.36
2006-12-11,28.28
2006-12-12,28.24
2006-12-13,28.16
2006-12-14,27.76
2006-12-15,27.24
2006-12-18,27.4
2006-12-19,27.4
2006-12-20,27.32
2006-12-21,27.44
2006-12-22,27.8
2006-12-26,27.44
2006-12-27,27.4
2006-12-28,28.16
2006-12-29,27.92
2007-01-03,28.52
2007-01-04,28.44
2007-01-05,28.4
2007-01-08,28.76
2007-01-09,28.72
2007-01-10,29.04
2007-01-11,29.12
2007-01-12,29.4
2007-01-16,30.0
2007-01-17,29.92
2007-01-18,30.12
2007-01-19,30.4
2007-01-22,30.12
2007-01-23,30.12
2007-01-24,29.32
2007-01-25,28.88
2007-01-26,28.28
2007-01-29,28.52
2007-01-30,28.2
2007-01-31,28.24
2007-02-01,28.6
2007-02-02,28.12
2007-02-05,28.88
2007-02-06,29.0
2007-02-07,29.44
2007-02-08,29.12
2007-02-09,28.76
2007-02-12,28.52
2007-02-13,28.24
2007-02-14,28.8
2007-02-15,29.48
2007-02-16,29.28
2007-02-20,30.0
2007-02-21,29.96
2007-02-22,30.0
2007-02-23,29.72
2007-02-26,30.04
2007-02-27,28.2
2007-02-28,27.36
2007-03-01,26.36
2007-03-02,25.8
2007-03-05,25.64
2007-03-06,25.44
2007-03-07,25.88
2007-03-08,25.68
2007-03-09,25.36
2007-03-12,25.24
2007-03-13,24.84
2007-03-14,25.2
2007-03-15,25.24
2007-03-16,25.4
2007-03-19,26.0
2007-03-20,26.0
2007-03-21,26.44
2007-03-22,27.2
2007-03-23,26.84
2007-03-26,26.72
2007-03-27,26.0
2007-03-28,25.88
2007-03-29,25.76
2007-03-30,25.68
2007-04-02,25.64
2007-04-03,26.52
2007-04-04,26.48
2007-04-05,26.96
2007-04-09,27.68
2007-04-10,27.92
2007-04-11,27.44
2007-04-12,28.24
2007-04-13,28.08
2007-04-16,28.44
2007-04-17,28.76
2007-04-18,28.76
2007-04-19,28.8
2007-04-20,29.68
2007-04-23,29.44
2007-04-24,29.76
2007-04-25,30.12
2007-04-26,30.0
2007-04-27,30.04
2007-04-30,29.68
2007-05-01,29.64
2007-05-02,29.72
2007-05-03,29.6
2007-05-04,29.88
2007-05-07,30.48
2007-05-08,29.08
2007-05-09,28.04
2007-05-10,28.2
2007-05-11,27.92
2007-05-14,27.72
2007-05-15,27.92
2007-05-16,28.16
2007-05-17,27.84
2007-05-18,27.48
2007-05-21,27.08
2007-05-22,27.6
2007-05-23,27.8
2007-05-24,27.56
2007-05-25,27.44
2007-05-29,27.52
2007-05-30,27.76
2007-05-31,27.72
2007-06-01,28.08
2007-06-04,28.64
2007-06-05,28.12
2007-06-06,27.6
2007-06-07,27.16
2007-06-08,27.32
2007-06-11,27.36
2007-06-12,26.92
2007-06-13,26.92
2007-06-14,26.6
2007-06-15,26.88
2007-06-18,27.0
2007-06-19,26.92
2007-06-20,26.44
2007-06-21,26.56
2007-06-22,26.4
2007-06-25,26.0
2007-06-26,25.68
2007-06-27,25.76
2007-06-28,25.64
2007-06-29,26.0
2007-07-02,26.2
2007-07-03,26.44
2007-07-05,26.72
2007-07-06,26.36
2007-07-09,26.28
2007-07-10,25.8
2007-07-11,26.08
2007-07-12,26.24
2007-07-13,26.28
2007-07-16,26.44
2007-07-17,26.0
2007-07-18,25.84
2007-07-19,25.24
2007-07-20,24.72
2007-07-23,24.08
2007-07-24,23.76
2007-07-25,23.2
2007-07-26,22.2
2007-07-27,22.28
2007-07-30,21.4
2007-07-31,20.68
2007-08-01,20.44
2007-08-02,20.44
2007-08-03,19.48
2007-08-06,19.8
2007-08-07,16.36
2007-08-08,17.48
2007-08-09,18.88
2007-08-10,17.8
2007-08-13,17.52
2007-08-14,17.0
2007-08-15,16.04
2007-08-16,15.24
2007-08-17,15.16
2007-08-20,14.88
2007-08-21,14.72
2007-08-22,15.16
2007-08-23,15.08
2007-08-24,14.64
2007-08-27,14.76
2007-08-28,13.4
2007-08-29,13.6
2007-08-30,13.68
2007-08-31,13.6
2007-09-04,13.36
2007-09-05,13.64
2007-09-06,14.04
2007-09-07,13.92
2007-09-10,13.32
2007-09-11,13.4
2007-09-12,13.64
2007-09-13,13.32
2007-09-14,13.04
2007-09-17,13.04
2007-09-18,13.32
2007-09-19,13.6
2007-09-20,13.56
2007-09-21,14.12
2007-09-24,14.16
2007-09-25,13.88
2007-09-26,14.04
2007-09-27,13.68
2007-09-28,13.4
2007-10-01,13.24
2007-10-02,13.28
2007-10-03,13.8
2007-10-04,14.0
2007-10-05,13.96
2007-10-08,13.76
2007-10-09,13.76
2007-10-10,14.16
2007-10-11,13.6
2007-10-12,13.16
2007-10-15,13.08
2007-10-16,12.56
2007-10-17,12.36
2007-10-18,12.92
2007-10-19,12.44
2007-10-22,12.96
2007-10-23,13.36
2007-10-24,13.12
2007-10-25,13.36
2007-10-26,13.52
2007-10-29,13.84
2007-10-30,14.12
2007-10-31,14.08
2007-11-01,13.2
2007-11-02,12.76
2007-11-05,12.92
2007-11-06,15.68
2007-11-07,15.72
2007-11-08,16.2
2007-11-09,16.28
2007-11-12,17.4
2007-11-13,17.44
2007-11-14,17.52
2007-11-15,17.4
2007-11-16,17.4
2007-11-19,17.16
2007-11-20,16.08
2007-11-21,15.8
2007-11-23,15.88
2007-11-26,16.08
2007-11-27,17.6
2007-11-28,19.64
2007-11-29,20.4
2007-11-30,22.08
2007-12-03,21.36
2007-12-04,21.4
2007-12-05,21.8
2007-12-06,22.68
2007-12-07,23.28
2007-12-10,23.8
2007-12-11,22.12
2007-12-12,22.12
2007-12-13,22.28
2007-12-14,21.32
2007-12-17,20.16
2007-12-18,20.52
2007-12-19,20.52
2007-12-20,20.68
2007-12-21,21.16
2007-12-24,21.96
2007-12-26,21.72
2007-12-27,20.8
2007-12-28,20.32
2007-12-31,20.36
2008-01-02,20.0
2008-01-03,19.76
2008-01-04,18.96
2008-01-07,19.6
2008-01-08,19.08
2008-01-09,18.48
2008-01-10,17.68
2008-01-11,17.08
2008-01-14,17.12
2008-01-15,17.88
2008-01-16,18.92
2008-01-17,18.16
2008-01-18,17.64
2008-01-22,17.28
2008-01-23,17.08
2008-01-24,18.4
2008-01-25,18.36
2008-01-28,18.52
2008-01-29,18.72
2008-01-30,17.36
2008-01-31,17.64
2008-02-01,18.16
2008-02-04,18.92
2008-02-05,18.56
2008-02-06,18.56
2008-02-07,17.88
2008-02-08,17.16
2008-02-11,17.04
2008-02-12,16.72
2008-02-13,16.84
2008-02-14,16.6
2008-02-15,16.76
2008-02-19,16.92
2008-02-20,17.04
2008-02-21,16.76
2008-02-22,17.04
2008-02-25,17.12
2008-02-26,19.6
2008-02-27,19.96
2008-02-28,20.0
2008-02-29,19.32
2008-03-03,19.32
2008-03-04,20.04
2008-03-05,20.32
2008-03-06,19.76
2008-03-07,19.48
2008-03-10,19.64
2008-03-11,19.76
2008-03-12,19.84
2008-03-13,20.48
2008-03-14,20.08
2008-03-17,19.36
2008-03-18,19.84
2008-03-19,20.12
2008-03-20,20.88
2008-03-24,21.6
2008-03-25,21.52
2008-03-26,21.0
2008-03-27,21.2
2008-03-28,21.96
2008-03-31,22.56
2008-04-01,23.36
2008-04-02,23.24
2008-04-03,23.12
2008-04-04,22.08
2008-04-07,22.4
2008-04-08,21.92
2008-04-09,21.2
2008-04-10,20.8
2008-04-11,20.84
2008-04-14,20.96
2008-04-15,21.32
2008-04-16,21.6
2008-04-17,20.92
2008-04-18,21.8
2008-04-21,21.56
2008-04-22,20.84
2008-04-23,22.16
2008-04-24,21.92
2008-04-25,24.72
2008-04-28,26.84
2008-04-29,26.2
2008-04-30,25.6
2008-05-01,25.92
2008-05-02,25.44
2008-05-05,25.96
2008-05-06,24.28
2008-05-07,22.84
2008-05-08,22.96
2008-05-09,22.84
2008-05-12,23.0
2008-05-13,22.76
2008-05-14,23.0
2008-05-15,22.8
2008-05-16,22.72
2008-05-19,22.6
2008-05-20,23.0
2008-05-21,22.04
2008-05-22,22.84
2008-05-23,22.4
2008-05-27,22.72
2008-05-28,23.68
2008-05-29,23.88
2008-05-30,23.64
2008-06-02,24.0
2008-06-03,24.16
2008-06-04,24.16
2008-06-05,24.08
2008-06-06,22.88
2008-06-09,22.4
2008-06-10,21.68
2008-06-11,21.24
2008-06-12,22.64
2008-06-13,23.0
2008-06-16,22.56
2008-06-17,22.0
2008-06-18,21.88
2008-06-19,21.8
2008-06-20,21.36
2008-06-23,21.48
2008-06-24,21.92
2008-06-25,22.2
2008-06-26,21.64
2008-06-27,21.88
2008-06-30,22.2
2008-07-01,22.6
2008-07-02,22.6
2008-07-03,22.44
2008-07-07,21.56
2008-07-08,22.32
2008-07-09,22.2
2008-07-10,22.08
2008-07-11,22.2
2008-07-14,22.0
2008-07-15,21.96
2008-07-16,23.76
2008-07-17,22.72
2008-07-18,23.16
2008-07-21,23.28
2008-07-22,23.28
2008-07-23,23.2
2008-07-24,23.32
2008-07-25,23.32
2008-07-28,22.72
2008-07-29,23.72
2008-07-30,23.16
2008-07-31,23.16
2008-08-01,24.2
2008-08-04,25.0
2008-08-05,22.72
2008-08-06,21.96
2008-08-07,21.44
2008-08-08,22.68
2008-08-11,23.36
2008-08-12,22.56
2008-08-13,22.8
2008-08-14,23.8
2008-08-15,24.4
2008-08-18,24.16
2008-08-19,24.6
2008-08-20,24.36
2008-08-21,24.56
2008-08-22,24.28
2008-08-25,23.68
2008-08-26,23.64
2008-08-27,23.88
2008-08-28,24.4
2008-08-29,24.08
2008-09-02,24.4
2008-09-03,25.76
2008-09-04,25.68
2008-09-05,25.36
2008-09-08,26.2
2008-09-09,25.28
2008-09-10,24.28
2008-09-11,24.84
2008-09-12,25.88
2008-09-15,24.48
2008-09-16,23.8
2008-09-17,23.52
2008-09-18,24.64
2008-09-19,25.16
2008-09-22,24.4
2008-09-23,24.6
2008-09-24,23.88
2008-09-25,24.44
2008-09-26,24.0
2008-09-29,22.12
2008-09-30,22.16
2008-10-01,21.0
2008-10-02,19.96
2008-10-03,20.16
2008-10-06,18.16
2008-10-07,16.96
2008-10-08,17.24
2008-10-09,16.28
2008-10-10,17.12
2008-10-13,18.68
2008-10-14,18.2
2008-10-15,16.36
2008-10-16,16.16
2008-10-17,15.8
2008-10-20,16.16
2008-10-21,16.04
2008-10-22,15.28
2008-10-23,14.48
2008-10-24,14.48
2008-10-27,13.84
2008-10-28,14.2
2008-10-29,14.0
2008-10-30,16.0
2008-10-31,17.44
2008-11-03,16.76
2008-11-04,10.4
2008-11-05,9.96
2008-11-06,9.32
2008-11-07,9.04
2008-11-10,8.28
2008-11-11,8.2
2008-11-12,8.0
2008-11-13,8.8
2008-11-14,7.8
2008-11-17,7.4
2008-11-18,7.12
2008-11-19,5.92
2008-11-20,4.52
2008-11-21,4.84
2008-11-24,5.04
2008-11-25,4.84
2008-11-26,4.8
2008-11-28,5.0
2008-12-01,4.56
2008-12-02,4.72
2008-12-03,5.32
2008-12-04,5.36
2008-12-05,5.64
2008-12-08,6.04
2008-12-09,6.0
2008-12-10,5.68
2008-12-11,5.52
2008-12-12,5.6
2008-12-15,5.0
2008-12-16,4.96
2008-12-17,4.96
2008-12-18,4.56
2008-12-19,4.28
2008-12-22,4.32
2008-12-23,4.44
2008-12-24,4.48
2008-12-26,4.8
2008-12-29,4.52
2008-12-30,4.56
2008-12-31,4.6
2009-01-02,5.12
2009-01-05,4.44
2009-01-06,5.16
2009-01-07,5.28
2009-01-08,5.76
2009-01-09,5.64
2009-01-12,4.92
2009-01-13,4.92
2009-01-14,4.84
2009-01-15,4.84
2009-01-16,4.76
2009-01-20,4.6
2009-01-21,4.92
2009-01-22,4.88
2009-01-23,4.64
2009-01-26,4.56
2009-01-27,4.64
2009-01-28,4.76
2009-01-29,4.48
2009-01-30,4.28
2009-02-02,4.4
2009-02-03,4.32
2009-02-04,4.36
2009-02-05,4.6
2009-02-06,4.8
2009-02-09,4.6
2009-02-10,4.52
2009-02-11,4.6
2009-02-12,4.72
2009-02-13,4.68
2009-02-17,4.4
2009-02-18,4.24
2009-02-19,4.24
2009-02-20,3.88
2009-02-23,4.24
2009-02-24,3.88
2009-02-25,4.12
2009-02-26,4.6
2009-02-27,4.48
2009-03-02,4.08
2009-03-03,4.04
2009-03-04,3.96
2009-03-05,3.76
2009-03-06,3.68
2009-03-09,3.72
2009-03-10,3.64
2009-03-11,3.64
2009-03-12,3.84
2009-03-13,4.12
2009-03-16,4.04
2009-03-17,4.16
2009-03-18,4.12
2009-03-19,4.24
2009-03-20,4.04
2009-03-23,4.52
2009-03-24,4.56
2009-03-25,4.56
2009-03-26,4.92
2009-03-27,4.68
2009-03-30,4.48
2009-03-31,4.52
2009-04-01,4.72
2009-04-02,4.72
2009-04-03,4.44
2009-04-06,4.4
2009-04-07,4.36
2009-04-08,4.2
2009-04-09,4.32
2009-04-13,4.64
2009-04-14,5.44
2009-04-15,6.0
2009-04-16,5.84
2009-04-17,6.24
2009-04-20,5.72
2009-04-21,8.32
2009-04-22,8.12
2009-04-23,8.48
2009-04-24,8.4
2009-04-27,8.44
2009-04-28,8.92
2009-04-29,9.24
2009-04-30,9.04
2009-05-01,9.6
2009-05-04,9.96
2009-05-05,10.0
2009-05-06,9.48
2009-05-07,8.96
2009-05-08,9.52
2009-05-11,9.64
2009-05-12,9.92
2009-05-13,9.44
2009-05-14,9.64
2009-05-15,9.24
2009-05-18,8.96
2009-05-19,11.08
2009-05-20,12.52
2009-05-21,13.2
2009-05-22,12.84
2009-05-26,12.6
2009-05-27,12.84
2009-05-28,12.84
2009-05-29,14.56
2009-06-01,15.2
2009-06-02,14.92
2009-06-03,14.56
2009-06-04,14.8
2009-06-05,14.12
2009-06-08,14.28
2009-06-09,14.56
2009-06-10,14.36
2009-06-11,13.96
2009-06-12,12.2
2009-06-15,12.72
2009-06-16,12.16
2009-06-17,11.36
2009-06-18,11.8
2009-06-19,11.2
2009-06-22,10.36
2009-06-23,10.08
2009-06-24,10.72
2009-06-25,11.4
2009-06-26,11.52
2009-06-29,11.24
2009-06-30,11.28
2009-07-01,11.4
2009-07-02,11.16
2009-07-06,10.52
2009-07-07,11.56
2009-07-08,12.28
2009-07-09,12.12
2009-07-10,11.96
2009-07-13,11.76
2009-07-14,12.48
2009-07-15,12.72
2009-07-16,13.32
2009-07-17,13.0
2009-07-20,13.4
2009-07-21,13.2
2009-07-22,13.16
2009-07-23,13.48
2009-07-24,13.92
2009-07-27,14.4
2009-07-28,16.24
2009-07-29,16.16
2009-07-30,16.96
2009-07-31,15.92
2009-08-03,16.72
2009-08-04,16.96
2009-08-05,17.08
2009-08-06,16.24
2009-08-07,16.56
2009-08-10,17.32
2009-08-11,16.6
2009-08-12,16.44
2009-08-13,17.76
2009-08-14,19.04
2009-08-17,19.52
2009-08-18,19.24
2009-08-19,18.8
2009-08-20,18.72
2009-08-21,18.16
2009-08-24,18.28
2009-08-25,18.84
2009-08-26,18.8
2009-08-27,19.0
2009-08-28,19.16
2009-08-31,18.6
2009-09-01,17.52
2009-09-02,17.64
2009-09-03,17.96
2009-09-04,19.32
2009-09-08,19.36
2009-09-09,20.36
2009-09-10,21.72
2009-09-11,21.88
2009-09-14,22.96
2009-09-15,22.96
2009-09-16,23.8
2009-09-17,23.04
2009-09-18,22.52
2009-09-21,23.4
2009-09-22,23.56
2009-09-23,23.44
2009-09-24,22.2
2009-09-25,21.68
2009-09-28,23.32
2009-09-29,23.12
2009-09-30,23.44
2009-10-01,21.84
2009-10-02,21.4
2009-10-05,22.52
2009-10-06,22.56
2009-10-07,22.72
2009-10-08,23.76
2009-10-09,23.84
2009-10-12,23.96
2009-10-13,23.68
2009-10-14,24.0
2009-10-15,23.96
2009-10-16,23.76
2009-10-19,24.56
2009-10-20,24.96
2009-10-21,24.44
2009-10-22,24.24
2009-10-23,23.16
2009-10-26,22.24
2009-10-27,21.92
2009-10-28,20.48
2009-10-29,21.88
2009-10-30,20.4
2009-11-02,21.12
2009-11-03,21.6
2009-11-04,20.6
2009-11-05,20.88
2009-11-06,20.48
2009-11-09,21.2
2009-11-10,21.76
2009-11-11,22.28
2009-11-12,22.0
2009-11-13,22.24
2009-11-16,22.36
2009-11-17,21.88
2009-11-18,21.12
2009-11-19,21.08
2009-11-20,21.08
2009-11-23,20.72
2009-11-24,20.4
2009-11-25,20.32
2009-11-27,19.8
2009-11-30,18.16
2009-12-01,19.12
2009-12-02,18.84
2009-12-03,19.52
2009-12-04,19.0
2009-12-07,19.6
2009-12-08,19.24
2009-12-09,19.0
2009-12-10,19.44
2009-12-11,19.16
2009-12-14,19.68
2009-12-15,20.4
2009-12-16,21.08
2009-12-17,20.4
2009-12-18,19.64
2009-12-21,20.28
2009-12-22,21.24
2009-12-23,22.08
2009-12-24,22.48
2009-12-28,21.96
2009-12-29,21.36
2009-12-30,20.76
2009-12-31,21.56
2010-01-04,21.76
2010-01-05,24.04
2010-01-06,23.56
2010-01-07,24.04
2010-01-08,25.04
2010-01-11,24.52
2010-01-12,23.6
2010-01-13,25.0
2010-01-14,25.16
2010-01-15,24.28
2010-01-19,23.48
2010-01-20,22.6
2010-01-21,21.76
2010-01-22,20.76
2010-01-25,21.16
2010-01-26,22.2
2010-01-27,21.48
2010-01-28,20.64
2010-01-29,22.12
2010-02-01,21.84
2010-02-02,22.32
2010-02-03,22.08
2010-02-04,20.84
2010-02-05,20.4
2010-02-08,19.8
2010-02-09,20.6
2010-02-10,20.24
2010-02-11,21.04
2010-02-12,20.88
2010-02-16,21.28
2010-02-17,22.2
2010-02-18,22.56
2010-02-19,22.36
2010-02-22,22.32
2010-02-23,20.08
2010-02-24,20.24
2010-02-25,20.12
2010-02-26,21.08
2010-03-01,21.08
2010-03-02,21.48
2010-03-03,21.48
2010-03-04,21.84
2010-03-05,22.08
2010-03-08,22.0
2010-03-09,21.48
2010-03-10,21.48
2010-03-11,21.48
2010-03-12,21.56
2010-03-15,22.88
2010-03-16,22.92
2010-03-17,22.68
2010-03-18,22.64
2010-03-19,23.04
2010-03-22,25.12
2010-03-23,25.12
2010-03-24,23.88
2010-03-25,23.24
2010-03-26,23.24
2010-03-29,23.48
2010-03-30,22.84
2010-03-31,22.84
2010-04-01,23.84
2010-04-05,23.64
2010-04-06,23.36
2010-04-07,23.8
2010-04-08,23.88
2010-04-09,23.92
2010-04-12,24.24
2010-04-13,24.0
2010-04-14,23.84
2010-04-15,23.6
2010-04-16,23.2
2010-04-19,23.6
2010-04-20,25.12
2010-04-21,24.88
2010-04-22,25.56
2010-04-23,25.36
2010-04-26,24.6
2010-04-27,24.44
2010-04-28,24.76
2010-04-29,25.44
2010-04-30,25.0
2010-05-03,25.32
2010-05-04,23.48
2010-05-05,22.8
2010-05-06,22.36
2010-05-07,21.24
2010-05-10,22.6
2010-05-11,22.8
2010-05-12,23.04
2010-05-13,22.84
2010-05-14,22.4
2010-05-17,22.6
2010-05-18,22.08
2010-05-19,21.52
2010-05-20,20.76
2010-05-21,21.48
2010-05-24,22.08
2010-05-25,21.76
2010-05-26,22.04
2010-05-27,23.16
2010-05-28,22.92
2010-06-01,18.92
2010-06-02,20.4
2010-06-03,20.12
2010-06-04,19.6
2010-06-07,20.4
2010-06-08,19.28
2010-06-09,19.12
2010-06-10,20.12
2010-06-11,20.24
2010-06-14,20.16
2010-06-15,20.8
2010-06-16,20.6
2010-06-17,20.04
2010-06-18,19.6
2010-06-21,18.92
2010-06-22,18.76
2010-06-23,19.08
2010-06-24,18.44
2010-06-25,18.84
2010-06-28,18.64
2010-06-29,17.72
2010-06-30,17.36
2010-07-01,17.32
2010-07-02,16.6
2010-07-06,17.32
2010-07-07,17.32
2010-07-08,17.88
2010-07-09,18.28
2010-07-12,18.28
2010-07-13,18.24
2010-07-14,18.32
2010-07-15,19.0
2010-07-16,18.04
2010-07-19,18.16
2010-07-20,18.4
2010-07-21,17.24
2010-07-22,17.04
2010-07-23,17.6
2010-07-26,18.2
2010-07-27,17.92
2010-07-28,17.48
2010-07-29,17.6
2010-07-30,18.48
2010-08-02,18.32
2010-08-03,17.48
2010-08-04,18.52
2010-08-05,17.8
2010-08-06,17.72
2010-08-09,18.08
2010-08-10,18.04
2010-08-11,17.16
2010-08-12,16.84
2010-08-13,16.68
2010-08-16,16.56
2010-08-17,17.0
2010-08-18,17.08
2010-08-19,16.72
2010-08-20,16.96
2010-08-23,16.4
2010-08-24,16.08
2010-08-25,16.36
2010-08-26,15.96
2010-08-27,16.44
2010-08-30,16.04
2010-08-31,15.72
2010-09-01,17.0
2010-09-02,17.32
2010-09-03,17.44
2010-09-07,16.92
2010-09-08,16.72
2010-09-09,17.68
2010-09-10,17.84
2010-09-13,17.4
2010-09-14,17.28
2010-09-15,17.76
2010-09-16,17.4
2010-09-17,16.92
2010-09-20,17.32
2010-09-21,16.88
2010-09-22,17.08
2010-09-23,16.76
2010-09-24,16.88
2010-09-27,17.4
2010-09-28,17.64
2010-09-29,18.44
2010-09-30,18.84
2010-10-01,18.12
2010-10-04,18.08
2010-10-05,18.0
2010-10-06,17.92
2010-10-07,17.72
2010-10-08,18.48
2010-10-11,17.96
2010-10-12,18.24
2010-10-13,18.24
2010-10-14,17.8
2010-10-15,17.8
2010-10-18,17.88
2010-10-19,17.56
2010-10-20,17.28
2010-10-21,17.16
2010-10-22,17.36
2010-10-25,17.04
2010-10-26,16.76
2010-10-27,16.88
2010-10-28,17.24
2010-10-29,17.44
2010-11-01,17.16
2010-11-02,17.2
2010-11-03,17.16
2010-11-04,17.92
2010-11-05,18.08
2010-11-08,18.52
2010-11-09,18.4
2010-11-10,18.32
2010-11-11,18.72
2010-11-12,18.64
2010-11-15,18.48
2010-11-16,17.96
2010-11-17,17.72
2010-11-18,17.48
2010-11-19,17.48
2010-11-22,17.24
2010-11-23,17.08
2010-11-24,16.92
2010-11-26,16.92
2010-11-29,16.56
2010-11-30,16.32
2010-12-01,16.4
2010-12-02,17.0
2010-12-03,17.12
2010-12-06,16.96
2010-12-07,16.84
2010-12-08,17.04
2010-12-09,17.16
2010-12-10,26.6
2010-12-13,26.0
2010-12-14,25.92
2010-12-15,26.6
2010-12-16,26.56
2010-12-17,26.96
2010-12-20,27.08
2010-12-21,27.32
2010-12-22,27.24
2010-12-23,26.8
2010-12-27,26.72
2010-12-28,26.76
2010-12-29,26.64
2010-12-30,26.88
2010-12-31,26.76
2011-01-03,27.2
2011-01-04,27.4
2011-01-05,27.44
2011-01-06,27.48
2011-01-07,27.52
2011-01-10,27.4
2011-01-11,27.56
2011-01-12,27.96
2011-01-13,28.0
2011-01-14,28.24
2011-01-18,28.16
2011-01-19,27.4
2011-01-20,27.0
2011-01-21,26.8
2011-01-24,27.28
2011-01-25,27.24
2011-01-26,27.0
2011-01-27,26.96
2011-01-28,26.64
2011-01-31,26.6
2011-02-01,26.56
2011-02-02,26.68
2011-02-03,26.64
2011-02-04,26.72
2011-02-07,26.92
2011-02-08,27.16
2011-02-09,27.44
2011-02-10,27.84
2011-02-11,28.04
2011-02-14,27.96
2011-02-15,27.68
2011-02-16,28.08
2011-02-17,28.2
2011-02-18,28.04
2011-02-22,27.68
2011-02-23,27.64
2011-02-24,27.88
2011-02-25,28.24
2011-02-28,28.68
2011-03-01,28.12
2011-03-02,28.32
2011-03-03,28.72
2011-03-04,28.72
2011-03-07,28.12
2011-03-08,28.52
2011-03-09,29.12
2011-03-10,28.92
2011-03-11,28.36
2011-03-14,28.28
2011-03-15,28.08
2011-03-16,27.6
2011-03-17,28.08
2011-03-18,28.0
2011-03-21,28.32
2011-03-22,28.08
2011-03-23,28.12
2011-03-24,28.4
2011-03-25,28.84
2011-03-28,29.04
2011-03-29,29.16
2011-03-30,30.0
2011-03-31,29.8
2011-04-01,30.52
2011-04-04,30.52
2011-04-05,30.28
2011-04-06,30.08
2011-04-07,30.0
2011-04-08,30.16
2011-04-11,25.72
2011-04-12,26.4
2011-04-13,26.12
2011-04-14,26.4
2011-04-15,26.72
2011-04-18,25.96
2011-04-19,26.6
2011-04-20,26.88
2011-04-21,27.04
2011-04-25,27.56
2011-04-26,27.6
2011-04-27,27.8
2011-04-28,27.72
2011-04-29,27.68
2011-05-02,26.76
2011-05-03,26.32
2011-05-04,25.08
2011-05-05,25.88
2011-05-06,26.12
2011-05-09,26.12
2011-05-10,26.6
2011-05-11,26.0
2011-05-12,25.8
2011-05-13,25.32
2011-05-16,25.28
2011-05-17,25.28
2011-05-18,25.64
2011-05-19,25.68
2011-05-20,25.08
2011-05-23,25.08
2011-05-24,25.16
2011-05-25,25.24
2011-05-26,25.56
2011-05-27,25.6
2011-05-31,25.52
2011-06-01,25.24
2011-06-02,25.4
2011-06-03,25.0
2011-06-06,24.6
2011-06-07,24.6
2011-06-08,24.12
2011-06-09,24.52
2011-06-10,23.64
2011-06-13,23.84
2011-06-14,24.48
2011-06-15,24.16
2011-06-16,24.92
2011-06-17,25.6
2011-06-20,25.72
2011-06-21,25.64
2011-06-22,25.12
2011-06-23,25.16
2011-06-24,23.96
2011-06-27,24.24
2011-06-28,24.8
2011-06-29,24.76
2011-06-30,24.96
2011-07-01,26.0
2011-07-05,25.92
2011-07-06,25.92
2011-07-07,25.84
2011-07-08,25.2
2011-07-11,24.32
2011-07-12,24.04
2011-07-13,24.36
2011-07-14,24.0
2011-07-15,24.08
2011-07-18,24.0
2011-07-19,24.56
2011-07-20,24.32
2011-07-21,25.24
2011-07-22,25.0
2011-07-25,24.08
2011-07-26,23.36
2011-07-27,22.76
2011-07-28,22.8
2011-07-29,22.28
2011-08-01,21.76
2011-08-02,20.4
2011-08-03,20.76
2011-08-04,19.68
2011-08-05,19.84
2011-08-08,18.64
2011-08-09,19.12
2011-08-10,18.08
2011-08-11,19.68
2011-08-12,19.76
2011-08-15,20.28
2011-08-16,20.36
2011-08-17,20.44
2011-08-18,18.96
2011-08-19,18.6
2011-08-22,18.48
2011-08-23,19.2
2011-08-24,20.56
2011-08-25,20.28
2011-08-26,20.48
2011-08-29,21.52
2011-08-30,21.48
2011-08-31,21.04
2011-09-01,20.8
2011-09-02,20.12
2011-09-06,20.32
2011-09-07,21.64
2011-09-08,20.76
2011-09-09,20.08
2011-09-12,18.12
2011-09-13,18.4
2011-09-14,18.0
2011-09-15,19.0
2011-09-16,19.08
2011-09-19,18.44
2011-09-20,17.88
2011-09-21,17.08
2011-09-22,16.68
2011-09-23,16.76
2011-09-26,17.2
2011-09-27,17.16
2011-09-28,16.08
2011-09-29,17.0
2011-09-30,16.52
2011-10-03,14.4
2011-10-04,15.24
2011-10-05,15.96
2011-10-06,17.2
2011-10-07,17.32
2011-10-10,17.64
2011-10-11,18.0
2011-10-12,18.28
2011-10-13,17.68
2011-10-14,18.2
2011-10-17,17.36
2011-10-18,17.88
2011-10-19,17.64
2011-10-20,18.6
2011-10-21,19.52
2011-10-24,20.04
2011-10-25,20.36
2011-10-26,20.68
2011-10-27,20.48
2011-10-28,20.24
2011-10-31,19.0
2011-11-01,19.08
2011-11-02,19.88
2011-11-03,20.04
2011-11-04,19.44
2011-11-07,19.8
2011-11-08,20.64
2011-11-09,20.0
2011-11-10,20.2
2011-11-11,20.76
2011-11-14,20.56
2011-11-15,20.36
2011-11-16,19.36
2011-11-17,18.16
2011-11-18,17.96
2011-11-21,17.24
2011-11-22,17.12
2011-11-23,16.52
2011-11-25,16.68
2011-11-28,17.44
2011-11-29,17.4
2011-11-30,18.6
2011-12-01,18.72
2011-12-02,16.8
2011-12-05,18.8
2011-12-06,18.68
2011-12-07,18.24
2011-12-08,17.84
2011-12-09,17.88
2011-12-12,18.0
2011-12-13,17.36
2011-12-14,17.6
2011-12-15,17.88
2011-12-16,17.72
2011-12-19,17.72
2011-12-20,18.68
2011-12-21,19.52
2011-12-22,19.72
2011-12-23,19.84
2011-12-27,20.08
2011-12-28,19.72
2011-12-29,20.0
2011-12-30,20.6
2012-01-03,19.76
2012-01-04,18.8
2012-01-05,19.0
2012-01-06,20.04
2012-01-09,20.36
2012-01-10,20.64
2012-01-11,20.92
2012-01-12,20.56
2012-01-13,20.32
2012-01-17,19.68
2012-01-18,20.12
2012-01-19,20.64
2012-01-20,20.4
2012-01-23,20.4
2012-01-24,21.32
2012-01-25,21.96
2012-01-26,21.64
2012-01-27,21.88
2012-01-30,21.32
2012-01-31,21.28
2012-02-01,21.88
2012-02-02,21.76
2012-02-03,23.8
2012-02-06,23.76
2012-02-07,23.48
2012-02-08,23.44
2012-02-09,22.32
2012-02-10,22.8
2012-02-13,23.08
2012-02-14,22.64
2012-02-15,22.76
2012-02-16,22.84
2012-02-17,22.64
2012-02-21,22.4
2012-02-22,22.16
2012-02-23,22.48
2012-02-24,23.12
2012-02-27,22.6
2012-02-28,22.96
2012-02-29,22.6
2012-03-01,23.04
2012-03-02,22.68
2012-03-05,22.04
2012-03-06,21.6
2012-03-07,21.84
2012-03-08,22.12
2012-03-09,21.88
2012-03-12,21.48
2012-03-13,21.92
2012-03-14,21.72
2012-03-15,22.72
2012-03-16,22.44
2012-03-19,22.04
2012-03-20,21.64
2012-03-21,21.72
2012-03-22,21.4
2012-03-23,21.04
2012-03-26,22.08
2012-03-27,21.64
2012-03-28,20.76
2012-03-29,20.76
2012-03-30,21.32
2012-04-02,21.48
2012-04-03,21.92
2012-04-04,21.44
2012-04-05,21.12
2012-04-09,20.48
2012-04-10,20.08
2012-04-11,20.28
2012-04-12,21.44
2012-04-13,21.2
2012-04-16,21.12
2012-04-17,21.52
2012-04-18,21.52
2012-04-19,21.72
2012-04-20,21.68
2012-04-23,21.28
2012-04-24,21.36
2012-04-25,21.88
2012-04-26,20.6
2012-04-27,20.8
2012-04-30,20.8
2012-05-01,21.32
2012-05-02,21.08
2012-05-03,20.44
2012-05-04,20.12
2012-05-07,20.16
2012-05-08,20.4
2012-05-09,20.56
2012-05-10,20.56
2012-05-11,20.24
2012-05-14,20.04
2012-05-15,19.68
2012-05-16,19.6
2012-05-17,18.84
2012-05-18,18.28
2012-05-21,18.64
2012-05-22,18.76
2012-05-23,18.56
2012-05-24,19.04
2012-05-25,18.96
2012-05-29,19.44
2012-05-30,19.04
2012-05-31,18.8
2012-06-01,17.92
2012-06-04,17.56
2012-06-05,17.8
2012-06-06,18.8
2012-06-07,18.32
2012-06-08,18.72
2012-06-11,18.68
2012-06-12,18.88
2012-06-13,18.36
2012-06-14,18.72
2012-06-15,18.36
2012-06-18,19.28
2012-06-19,19.84
2012-06-20,20.16
2012-06-21,19.2
2012-06-22,19.6
2012-06-25,18.4
2012-06-26,19.76
2012-06-27,19.88
2012-06-28,20.84
2012-06-29,20.96
2012-07-02,20.64
2012-07-03,20.36
2012-07-05,20.44
2012-07-06,20.4
2012-07-09,20.52
2012-07-10,19.52
2012-07-11,19.88
2012-07-12,19.52
2012-07-13,20.52
2012-07-16,20.08
2012-07-17,19.56
2012-07-18,19.24
2012-07-19,19.12
2012-07-20,18.6
2012-07-23,17.96
2012-07-24,17.8
2012-07-25,17.6
2012-07-26,17.56
2012-07-27,19.28
2012-07-30,18.52
2012-07-31,18.44
2012-08-01,18.52
2012-08-02,18.68
2012-08-03,18.8
2012-08-06,18.52
2012-08-07,20.28
2012-08-08,20.8
2012-08-09,20.96
2012-08-10,20.92
2012-08-13,21.16
2012-08-14,21.0
2012-08-15,20.92
2012-08-16,21.08
2012-08-17,21.08
2012-08-20,20.68
2012-08-21,20.6
2012-08-22,20.52
2012-08-23,20.24
2012-08-24,20.68
2012-08-27,20.92
2012-08-28,20.96
2012-08-29,21.04
2012-08-30,21.08
2012-08-31,20.84
2012-09-04,21.2
2012-09-05,21.04
2012-09-06,21.64
2012-09-07,21.6
2012-09-10,21.48
2012-09-11,21.68
2012-09-12,21.84
2012-09-13,21.44
2012-09-14,22.92
2012-09-17,23.8
2012-09-18,24.4
2012-09-19,24.8
2012-09-20,24.84
2012-09-21,24.68
2012-09-24,25.24
2012-09-25,24.48
2012-09-26,25.08
2012-09-27,25.36
2012-09-28,25.08
2012-10-01,25.88
2012-10-02,25.8
2012-10-03,25.6
2012-10-04,25.12
2012-10-05,24.76
2012-10-08,24.56
2012-10-09,23.8
2012-10-10,23.84
2012-10-11,24.1
2012-10-12,23.7
2012-10-15,24.18
2012-10-16,24.14
2012-10-17,24.3
2012-10-18,24.11
2012-10-19,23.5
2012-10-22,23.82
2012-10-23,23.31
2012-10-24,23.35
2012-10-25,23.75
2012-10-26,23.34
2012-10-31,23.58
2012-11-01,25.39
2012-11-02,25.04
2012-11-05,25.88
2012-11-06,24.91
2012-11-07,27.41
2012-11-08,26.35
2012-11-09,26.19
2012-11-12,26.61
2012-11-13,26.14
2012-11-14,25.15
2012-11-15,25.16
2012-11-16,26.41
2012-11-19,27.47
2012-11-20,27.81
2012-11-21,27.99
2012-11-23,28.29
2012-11-26,28.07
2012-11-27,27.66
2012-11-28,28.4
2012-11-29,28.97
2012-11-30,28.97
2012-12-03,28.92
2012-12-04,28.95
2012-12-05,28.91
2012-12-06,29.07
2012-12-07,28.82
2012-12-10,29.6
2012-12-11,30.08
2012-12-12,30.15
2012-12-13,30.18
2012-12-14,30.59
2012-12-17,31.2
2012-12-18,32.48
2012-12-19,33.0
2012-12-20,33.45
2012-12-21,32.42
2012-12-24,32.33
2012-12-26,32.3
2012-12-27,31.96
2012-12-28,31.32
2012-12-31,32.43
2013-01-02,33.34
2013-01-03,34.26
2013-01-04,34.14
2013-01-07,34.3
2013-01-08,33.44
2013-01-09,33.44
2013-01-10,33.16
2013-01-11,34.27
2013-01-14,34.63
2013-01-15,35.48
2013-01-16,35.71
2013-01-17,37.14
2013-01-18,38.06
2013-01-22,38.18
2013-01-23,37.78
2013-01-24,38.66
2013-01-25,39.0
2013-01-28,38.73
2013-01-29,37.81
2013-01-30,38.59
2013-01-31,38.835
2013-02-01,39.33
2013-02-04,38.86
2013-02-05,38.81
2013-02-06,39.24
2013-02-07,39.155
2013-02-08,39.81
2013-02-11,39.53
2013-02-12,38.94
2013-02-13,39.4
2013-02-14,40.13
2013-02-15,40.06
2013-02-19,40.71
2013-02-20,39.24
2013-02-21,38.95
2013-02-22,39.26
2013-02-25,37.61
2013-02-26,37.86
2013-02-27,38.94
2013-02-28,39.32
2013-03-01,39.455
2013-03-04,39.15
2013-03-05,40.2
2013-03-06,40.37
2013-03-07,41.76
2013-03-08,43.19
2013-03-11,43.17
2013-03-12,43.67
2013-03-13,44.21
2013-03-14,44.95
2013-03-15,44.28
2013-03-18,44.17
2013-03-19,44.03
2013-03-20,44.87
2013-03-21,45.1
2013-03-22,45.32
2013-03-25,46.71
2013-03-26,47.48
2013-03-27,47.52
2013-03-28,47.59
2013-04-01,48.01
2013-04-02,47.79
2013-04-03,44.09
2013-04-04,43.71
2013-04-05,43.83
2013-04-08,43.97
2013-04-09,43.49
2013-04-10,41.11
2013-04-11,42.48
2013-04-12,42.4
2013-04-15,39.78
2013-04-16,40.43
2013-04-17,39.84
2013-04-18,39.26
2013-04-19,40.07
2013-04-22,39.75
2013-04-23,40.47
2013-04-24,40.25
2013-04-25,39.79
2013-04-26,41.16
2013-04-29,43.83
2013-04-30,45.35
2013-05-01,44.32
2013-05-02,46.22
2013-05-03,46.5
2013-05-06,46.97
2013-05-07,47.24
2013-05-08,48.05
2013-05-09,47.68
2013-05-10,48.65
2013-05-13,48.97
2013-05-14,49.25
2013-05-15,47.45
2013-05-16,47.09
2013-05-17,45.8
2013-05-20,44.72
2013-05-21,45.11
2013-05-22,44.8
2013-05-23,44.98
2013-05-24,44.89
2013-05-28,46.68
2013-05-29,45.81
2013-05-30,47.2
2013-05-31,47.45
2013-06-03,47.07
2013-06-04,45.96
2013-06-05,44.39
2013-06-06,45.7
2013-06-07,46.6
2013-06-10,46.46
2013-06-11,46.08
2013-06-12,46.12
2013-06-13,47.14
2013-06-14,46.69
2013-06-17,45.5
2013-06-18,45.79
2013-06-19,44.14
2013-06-20,42.61
2013-06-21,41.85
2013-06-24,43.76
2013-06-25,44.96
2013-06-26,45.41
2013-06-27,46.8
2013-06-28,46.1
2013-07-01,46.22
2013-07-02,45.59
2013-07-03,43.7
2013-07-05,43.26
2013-07-08,43.3
2013-07-09,43.94
2013-07-10,43.14
2013-07-11,43.62
2013-07-12,43.78
2013-07-15,43.71
2013-07-16,45.17
2013-07-17,43.89
2013-07-18,43.69
2013-07-19,42.64
2013-07-22,43.13
2013-07-23,43.11
2013-07-24,43.18
2013-07-25,43.47
2013-07-26,44.71
2013-07-29,44.97
2013-07-30,44.4
2013-07-31,44.63
2013-08-01,44.37
2013-08-02,43.91
2013-08-05,44.59
2013-08-06,42.99
2013-08-07,41.51
2013-08-08,41.41
2013-08-09,41.65
