date,close_price
1998-01-02,9.69523
1998-01-05,9.86519
1998-01-06,9.74936
1998-01-07,9.7158
1998-01-08,9.65518
1998-01-09,9.21567
1998-01-12,9.1886
1998-01-13,9.66167
1998-01-14,9.81106
1998-01-15,10.0882
1998-01-16,10.0676
1998-01-20,10.3859
1998-01-21,10.3448
1998-01-22,10.3253
1998-01-23,10.3047
1998-01-26,10.0005
1998-01-27,9.93231
1998-01-28,10.2441
1998-01-29,10.2711
1998-01-30,10.3653
1998-02-02,10.8525
1998-02-03,10.7507
1998-02-04,10.8665
1998-02-05,10.6154
1998-02-06,10.636
1998-02-09,11.9079
1998-02-10,12.0227
1998-02-11,12.4633
1998-02-12,12.6452
1998-02-13,12.3951
1998-02-17,12.1245
1998-02-18,12.1927
1998-02-19,12.6527
1998-02-20,12.9569
1998-02-23,13.3964
1998-02-24,12.9028
1998-02-25,12.8757
1998-02-26,13.4105
1998-02-27,13.1464
1998-03-02,12.7534
1998-03-03,12.6387
1998-03-04,12.6452
1998-03-05,12.564
1998-03-06,13.1734
1998-03-09,13.3964
1998-03-10,13.3293
1998-03-11,13.4235
1998-03-12,13.4646
1998-03-13,13.7818
1998-03-16,14.0189
1998-03-17,13.8563
1998-03-18,13.735
1998-03-19,13.2479
1998-03-20,13.5445
1998-03-23,14.3023
1998-03-24,14.6682
1998-03-25,14.5058
1998-03-26,14.4928
1998-03-27,14.9258
1998-03-30,14.6682
1998-03-31,14.8045
1998-04-01,15.7247
1998-04-02,16.0343
1998-04-03,16.0624
1998-04-06,15.7788
1998-04-07,15.3047
1998-04-08,15.5342
1998-04-09,15.9802
1998-04-13,15.9001
1998-04-14,16.0884
1998-04-15,16.2789
1998-04-16,16.266
1998-04-17,15.913
1998-04-20,16.4413
1998-04-21,16.2118
1998-04-22,15.7507
1998-04-23,15.4259
1998-04-24,16.1577
1998-04-27,15.7507
1998-04-28,16.2919
1998-04-29,17.4156
1998-04-30,17.3073
1998-05-01,18.0651
1998-05-04,19.1606
1998-05-05,19.3641
1998-05-06,18.6194
1998-05-07,19.4442
1998-05-08,19.5395
1998-05-11,18.6605
1998-05-12,18.9441
1998-05-13,19.4724
1998-05-14,19.0264
1998-05-15,18.3899
1998-05-18,17.9698
1998-05-19,18.9723
1998-05-20,18.7276
1998-05-21,18.8229
1998-05-22,18.3899
1998-05-26,17.8897
1998-05-27,17.8204
1998-05-28,18.1244
1998-05-29,18.1114
1998-06-01,17.2925
1998-06-02,17.0729
1998-06-03,17.2508
1998-06-04,17.9095
1998-06-05,18.184
1998-06-08,18.5968
1998-06-09,19.4203
1998-06-10,19.5982
1998-06-11,18.9943
1998-06-12,19.1041
1998-06-15,18.7066
1998-06-16,19.4335
1998-06-17,20.6148
1998-06-18,20.6697
1998-06-19,21.054
1998-06-22,22.1915
1998-06-23,23.0567
1998-06-24,22.7822
1998-06-25,23.6605
1998-06-26,23.6056
1998-06-29,23.0435
1998-06-30,23.3311
1998-07-01,24.361
1998-07-02,24.2776
1998-07-06,24.91
1998-07-07,23.8252
1998-07-08,23.8252
1998-07-09,25.0329
1998-07-10,24.7585
1998-07-13,25.9947
1998-07-14,26.5832
1998-07-15,26.0079
1998-07-16,26.8994
1998-07-17,28.0808
1998-07-20,29.877
1998-07-21,28.5595
1998-07-22,28.6012
1998-07-23,27.6416
1998-07-24,26.2407
1998-07-27,25.83
1998-07-28,25.2657
1998-07-29,23.6188
1998-07-30,25.7466
1998-07-31,25.8147
1998-08-03,25.527
1998-08-04,24.4027
1998-08-05,23.6056
1998-08-06,23.0984
1998-08-07,24.4423
1998-08-10,24.8968
1998-08-11,23.6605
1998-08-12,24.0865
1998-08-13,23.2762
1998-08-14,23.1533
1998-08-17,23.0303
1998-08-18,24.3742
1998-08-19,24.4576
1998-08-20,24.787
1998-08-21,24.2929
1998-08-24,23.8801
1998-08-25,24.2227
1998-08-26,24.2227
1998-08-27,23.1665
1998-08-28,20.9706
1998-08-31,17.8151
1998-09-01,18.913
1998-09-02,19.5015
1998-09-03,19.282
1998-09-04,18.7747
1998-09-08,20.6961
1998-09-09,20.751
1998-09-10,20.5051
1998-09-11,21.0387
1998-09-14,21.4647
1998-09-15,21.4647
1998-09-16,22.4528
1998-09-17,21.5744
1998-09-18,21.4932
1998-09-21,22.4528
1998-09-22,23.3048
1998-09-23,25.2525
1998-09-24,24.7167
1998-09-25,25.2108
1998-09-28,25.7203
1998-09-29,25.6917
1998-09-30,24.4972
1998-10-01,21.8775
1998-10-02,23.6056
1998-10-05,22.7273
1998-10-06,21.5064
1998-10-07,20.0659
1998-10-08,18.8977
1998-10-09,20.2569
1998-10-12,20.6412
1998-10-13,20.1603
1998-10-14,20.9157
1998-10-15,23.0698
1998-10-16,22.4111
1998-10-19,23.1533
1998-10-20,22.6307
1998-10-21,23.6474
1998-10-22,24.8551
1998-10-23,25.2525
1998-10-26,26.2407
1998-10-27,26.2407
1998-10-28,27.242
1998-10-29,28.0105
1998-10-30,27.8612
1998-11-02,29.6179
1998-11-03,29.0536
1998-11-04,30.7422
1998-11-05,30.7159
1998-11-06,30.6324
1998-11-09,31.5942
1998-11-10,31.9082
1998-11-11,30.1801
1998-11-12,30.852
1998-11-13,30.7708
1998-11-16,32.0597
1998-11-17,33.1313
1998-11-18,36.7823
1998-11-19,36.8086
1998-11-20,37.3049
1998-11-23,39.4438
1998-11-24,39.9664
1998-11-25,40.5154
1998-11-27,41.587
1998-11-30,38.3458
1998-12-01,39.4174
1998-12-02,38.7323
1998-12-03,36.7559
1998-12-04,38.4029
1998-12-07,39.3647
1998-12-08,39.8303
1998-12-09,40.432
1998-12-10,39.5272
1998-12-11,40.3529
1998-12-14,39.1715
1998-12-15,40.6823
1998-12-16,42.2722
1998-12-17,43.48
1998-12-18,45.9526
1998-12-21,51.1658
1998-12-22,53.8581
1998-12-23,60.4459
1998-12-24,60.0331
1998-12-28,69.2298
1998-12-29,67.3061
1998-12-30,64.2318
1998-12-31,63.4632
1999-01-04,65.4659
1999-01-05,64.6182
1999-01-06,65.5757
1999-01-07,64.7807
1999-01-08,63.6828
1999-01-11,71.3423
1999-01-12,67.1963
1999-01-13,63.8189
1999-01-14,63.3797
1999-01-15,64.6446
1999-01-19,65.5757
1999-01-20,64.8905
1999-01-21,62.1456
1999-01-22,61.4868
1999-01-25,63.6828
1999-01-26,67.5257
1999-01-27,71.1227
1999-01-28,76.6126
1999-01-29,76.8585
1999-02-01,74.746
1999-02-02,73.3713
1999-02-03,75.7605
1999-02-04,74.2805
1999-02-05,72.55
1999-02-08,69.748
1999-02-09,65.0838
1999-02-10,65.9885
1999-02-11,71.9747
1999-02-12,69.5592
1999-02-16,70.2706
1999-02-17,67.5828
1999-02-18,68.1845
1999-02-19,70.4375
1999-02-22,75.9801
1999-02-23,77.8455
1999-02-24,76.8003
1999-02-25,76.4138
1999-02-26,78.1178
1999-03-01,78.6096
1999-03-02,75.8693
1999-03-03,76.0888
1999-03-04,75.7551
1999-03-05,76.2469
1999-03-08,79.7602
1999-03-09,79.1015
1999-03-10,81.5169
1999-03-11,83.8795
1999-03-12,84.1518
1999-03-15,88.8772
1999-03-16,92.1182
1999-03-17,95.7369
1999-03-18,101.78
1999-03-19,103.694
1999-03-22,113.303
1999-03-23,106.716
1999-03-24,103.097
1999-03-25,111.107
1999-03-26,110.616
1999-03-29,115.666
1999-03-30,128.015
1999-03-31,128.235
1999-04-01,131.643
1999-04-05,146.188
1999-04-06,147.452
1999-04-07,136.579
1999-04-08,140.312
1999-04-09,140.531
1999-04-12,138.502
1999-04-13,140.092
1999-04-14,132.899
1999-04-15,125.6
1999-04-16,125.161
1999-04-19,99.417
1999-04-20,112.864
1999-04-21,122.201
1999-04-22,130.817
1999-04-23,127.629
1999-04-26,140.364
1999-04-27,135.92
1999-04-28,128.129
1999-04-29,123.957
1999-04-30,125.547
1999-05-03,117.15
1999-05-04,111.986
1999-05-05,113.69
1999-05-06,105.451
1999-05-07,103.861
1999-05-10,113.742
1999-05-11,122.473
1999-05-12,121.542
1999-05-13,116.931
1999-05-14,110.782
1999-05-17,119.399
1999-05-18,119.179
1999-05-19,118.687
1999-05-20,113.47
1999-05-21,111.107
1999-05-24,104.854
1999-05-25,101.121
1999-05-26,105.89
1999-05-27,101.938
1999-05-28,104.854
1999-06-01,99.2501
1999-06-02,96.6679
1999-06-03,93.2161
1999-06-04,102.763
1999-06-07,100.568
1999-06-08,97.0543
1999-06-09,97.0016
1999-06-10,93.1546
1999-06-11,87.7266
1999-06-14,78.7238
1999-06-15,82.7289
1999-06-16,92.8296
1999-06-17,97.0543
1999-06-18,98.9779
1999-06-21,101.56
1999-06-22,96.6152
1999-06-23,98.5914
1999-06-24,93.7606
1999-06-25,90.4669
1999-06-28,91.2399
1999-06-29,93.1019
1999-06-30,96.7293
1999-07-01,99.1974
1999-07-02,101.007
1999-07-06,105.618
1999-07-07,107.761
1999-07-08,111.933
1999-07-09,112.759
1999-07-12,107.208
1999-07-13,109.904
1999-07-14,108.912
1999-07-15,105.952
1999-07-16,105.451
1999-07-19,104.415
1999-07-20,99.4697
1999-07-21,101.56
1999-07-22,96.9489
1999-07-23,94.3667
1999-07-26,87.507
1999-07-27,86.0753
1999-07-28,90.3615
1999-07-29,86.5145
1999-07-30,83.6073
1999-08-02,81.1919
1999-08-03,77.784
1999-08-04,76.6334
1999-08-05,72.7337
1999-08-06,74.4903
1999-08-09,75.4301
1999-08-10,74.2707
1999-08-11,79.7602
1999-08-12,82.0175
1999-08-13,84.9774
1999-08-16,83.2735
1999-08-17,85.2497
1999-08-18,87.2874
1999-08-19,84.1518
1999-08-20,83.66
1999-08-23,86.0753
1999-08-24,86.9537
1999-08-25,90.2474
1999-08-26,87.9989
1999-08-27,86.6287
1999-08-30,82.1756
1999-08-31,80.419
1999-09-01,79.8744
1999-09-02,80.0413
1999-09-03,85.1443
1999-09-07,82.2371
1999-09-08,82.5094
1999-09-09,84.3187
1999-09-10,84.6525
1999-09-13,79.1015
1999-09-14,79.9271
1999-09-15,78.3373
1999-09-16,77.0199
1999-09-17,75.4301
1999-09-20,72.8478
1999-09-21,74.5518
1999-09-22,79.9271
1999-09-23,76.5807
1999-09-24,85.5835
1999-09-27,88.7103
1999-09-28,95.9564
1999-09-29,96.4483
1999-09-30,91.3979
1999-10-01,94.8585
1999-10-04,95.245
1999-10-05,100.181
1999-10-06,103.642
1999-10-07,104.195
1999-10-08,106.83
1999-10-11,106.11
1999-10-12,101.885
1999-10-13,97.4408
1999-10-14,100.462
1999-10-15,96.3429
1999-10-18,96.6152
1999-10-19,99.8562
1999-10-20,106.004
1999-10-21,107.594
1999-10-22,104.959
1999-10-25,103.642
1999-10-26,104.195
1999-10-27,104.854
1999-10-28,107.208
1999-10-29,113.69
1999-11-01,117.642
1999-11-02,116.817
1999-11-03,122.086
1999-11-04,126.258
1999-11-05,128.235
1999-11-08,131.423
1999-11-09,128.015
1999-11-10,126.97
1999-11-11,124.774
1999-11-12,130.87
1999-11-15,132.407
1999-11-16,139.328
1999-11-17,136.798
1999-11-18,140.206
1999-11-19,139.161
1999-11-22,142.841
1999-11-23,147.369
1999-11-24,147.369
1999-11-26,146.49
1999-11-29,140.552
1999-11-30,127.92
1999-12-01,133.313
1999-12-02,140.552
1999-12-03,137.477
1999-12-06,141.325
1999-12-07,140.341
1999-12-08,141.975
1999-12-09,148.247
1999-12-10,160.756
1999-12-13,165.148
1999-12-14,154.273
1999-12-15,152.305
1999-12-16,149.881
1999-12-17,149.442
1999-12-20,150.882
1999-12-21,151.972
1999-12-22,146.262
1999-12-23,142.642
1999-12-27,139.023
1999-12-28,135.281
1999-12-29,136.599
1999-12-30,134.631
1999-12-31,132.54
2000-01-03,145.383
2000-01-04,135.72
2000-01-05,131.433
2000-01-06,124.74
2000-01-07,128.148
2000-01-10,124.634
2000-01-11,112.441
2000-01-12,105.08
2000-01-13,112.775
2000-01-14,110.034
2000-01-18,106.731
2000-01-19,112.441
2000-01-20,112.441
2000-01-21,114.198
2000-01-24,108.594
2000-01-25,107.838
2000-01-26,105.748
2000-01-27,108.383
2000-01-28,103.552
2000-01-31,99.9323
2000-02-01,97.8416
2000-02-02,105.853
2000-02-03,104.764
2000-02-04,100.811
2000-02-07,101.127
2000-02-08,103.446
2000-02-09,101.566
2000-02-10,102.568
2000-02-11,99.2647
2000-02-14,97.174
2000-02-15,94.2224
2000-02-16,91.1478
2000-02-17,93.1155
2000-02-18,89.3909
2000-02-22,86.861
2000-02-23,99.7039
2000-02-24,106.081
2000-02-25,103.991
2000-02-28,106.521
2000-02-29,103.446
2000-03-01,100.038
2000-03-02,98.6146
2000-03-03,101.25
2000-03-06,99.7039
2000-03-07,98.6146
2000-03-08,96.8577
2000-03-09,106.837
2000-03-10,103.991
2000-03-13,107.171
2000-03-14,108.383
2000-03-15,106.731
2000-03-16,108.717
2000-03-17,113.548
2000-03-20,116.834
2000-03-21,118.257
2000-03-22,125.513
2000-03-23,124.634
2000-03-24,125.074
2000-03-27,130.45
2000-03-28,126.497
2000-03-29,119.574
2000-03-30,114.638
2000-03-31,119.469
2000-04-03,113.425
2000-04-04,110.685
2000-04-05,112.108
2000-04-06,114.304
2000-04-07,119.908
2000-04-10,119.469
2000-04-11,115.411
2000-04-12,108.928
2000-04-13,103.007
2000-04-14,96.9631
2000-04-17,101.022
2000-04-18,106.731
2000-04-19,109.472
2000-04-20,105.748
2000-04-24,100.688
2000-04-25,107.171
2000-04-26,105.748
2000-04-27,105.519
2000-04-28,104.764
2000-05-01,104.535
2000-05-02,101.022
2000-05-03,100.811
2000-05-04,99.1593
2000-05-05,99.8093
2000-05-08,97.7362
2000-05-09,98.4916
2000-05-10,95.1008
2000-05-11,94.3278
2000-05-12,96.7347
2000-05-15,102.884
2000-05-16,101.689
2000-05-17,100.372
2000-05-18,97.297
2000-05-19,94.3278
2000-05-22,91.587
2000-05-23,88.3895
2000-05-24,89.8301
2000-05-25,87.634
2000-05-26,85.6487
2000-05-30,94.0994
2000-05-31,92.9047
2000-06-01,92.7817
2000-06-02,100.143
2000-06-05,97.297
2000-06-06,97.6132
2000-06-07,100.249
2000-06-08,96.1901
2000-06-09,96.1901
2000-06-12,92.4655
2000-06-13,89.6017
2000-06-14,92.4655
2000-06-15,95.5401
2000-06-16,95.6455
2000-06-19,95.4171
2000-06-20,101.566
2000-06-21,100.372
2000-06-22,98.2808
2000-06-23,93.7832
2000-06-26,90.9194
2000-06-27,91.4641
2000-06-28,89.8301
2000-06-29,91.2532
2000-06-30,92.2371
2000-07-03,94.2224
2000-07-05,96.5239
2000-07-06,98.6146
2000-07-07,99.8093
2000-07-10,97.7362
2000-07-11,94.8724
2000-07-12,101.022
2000-07-13,102.568
2000-07-14,108.717
2000-07-17,109.033
2000-07-18,105.853
2000-07-19,104.43
2000-07-20,108.383
2000-07-21,101.127
2000-07-24,98.1754
2000-07-25,97.4024
2000-07-26,94.6616
2000-07-27,94.767
2000-07-28,92.2371
2000-07-31,93.3439
2000-08-01,92.5709
2000-08-02,91.6925
2000-08-03,93.5548
2000-08-04,92.2371
2000-08-07,92.9047
2000-08-08,93.221
2000-08-09,92.5709
2000-08-10,91.1478
2000-08-11,90.7086
2000-08-14,93.221
2000-08-15,96.0847
2000-08-16,96.2955
2000-08-17,96.5239
2000-08-18,96.6293
2000-08-21,99.8093
2000-08-22,101.461
2000-08-23,101.689
2000-08-24,105.203
2000-08-25,105.308
2000-08-28,103.657
2000-08-29,102.778
2000-08-30,104.764
2000-08-31,102.884
2000-09-01,100.688
2000-09-05,100.372
2000-09-06,99.3701
2000-09-07,99.3701
2000-09-08,97.6132
2000-09-11,97.947
2000-09-12,98.0524
2000-09-13,98.72
2000-09-14,98.0524
2000-09-15,97.0686
2000-09-18,97.7362
2000-09-19,98.2808
2000-09-20,96.2955
2000-09-21,99.1593
2000-09-22,96.2955
2000-09-25,97.6835
2000-09-26,97.9997
2000-09-27,93.5723
2000-09-28,95.786
2000-09-29,94.2575
2000-10-02,96.928
2000-10-03,97.2091
2000-10-04,103.393
2000-10-05,108.278
2000-10-06,103.78
2000-10-09,100.389
2000-10-10,100.442
2000-10-11,96.7523
2000-10-12,90.3572
2000-10-13,92.7115
2000-10-16,92.4128
2000-10-17,76.1439
2000-10-18,82.8201
2000-10-19,79.8861
2000-10-20,82.1349
2000-10-23,84.2432
2000-10-24,84.3311
2000-10-25,82.7498
2000-10-26,81.6957
2000-10-27,84.3135
2000-10-30,83.6459
2000-10-31,88.5476
2000-11-01,90.7964
2000-11-02,94.8373
2000-11-03,93.7305
2000-11-06,98.2105
2000-11-07,101.127
2000-11-08,99.0011
2000-11-09,92.4128
2000-11-10,89.145
2000-11-13,86.088
2000-11-14,87.7746
2000-11-15,86.7907
2000-11-16,85.7893
2000-11-17,86.9664
2000-11-20,82.662
2000-11-21,75.8452
2000-11-22,72.1382
2000-11-24,75.5466
2000-11-27,77.321
2000-11-28,71.6111
2000-11-29,76.1966
2000-11-30,71.3652
2000-12-01,73.2802
2000-12-04,72.1733
2000-12-05,77.7603
2000-12-06,78.1995
2000-12-07,77.1981
2000-12-08,81.8714
2000-12-11,85.0865
2000-12-12,85.4028
2000-12-13,85.0865
2000-12-14,87.7394
2000-12-15,85.3676
2000-12-18,73.7897
2000-12-19,72.0152
2000-12-20,65.4444
2000-12-21,66.0418
2000-12-22,67.2365
2000-12-26,67.2716
2000-12-27,63.0902
2000-12-28,61.7022
2000-12-29,60.6129
2001-01-02,56.6775
2001-01-03,66.5864
2001-01-04,74.2113
2001-01-05,72.5774
2001-01-08,70.6097
2001-01-09,75.0195
2001-01-10,79.0428
2001-01-11,82.9958
2001-01-12,81.274
2001-01-16,82.3282
2001-01-17,85.719
2001-01-18,87.4056
2001-01-19,94.5211
2001-01-22,94.24
2001-01-23,94.9779
2001-01-24,98.0349
2001-01-25,98.2984
2001-01-26,95.7509
2001-01-29,96.6118
2001-01-30,95.6279
2001-01-31,92.3425
2001-02-01,87.4935
2001-02-02,83.804
2001-02-05,86.8083
2001-02-06,85.7541
2001-02-07,84.7176
2001-02-08,85.6663
2001-02-09,83.5405
2001-02-12,83.5229
2001-02-13,84.4716
2001-02-14,85.1392
2001-02-15,87.1772
2001-02-16,85.2446
2001-02-20,78.5509
2001-02-21,77.9711
2001-02-22,78.8847
2001-02-23,75.8628
2001-02-26,80.8348
2001-02-27,78.6211
2001-02-28,77.3035
2001-03-01,77.4792
2001-03-02,74.1235
2001-03-05,76.8467
2001-03-06,81.5552
2001-03-07,79.6753
2001-03-08,78.0062
2001-03-09,75.3182
2001-03-12,68.9582
2001-03-13,71.3476
2001-03-14,70.2759
2001-03-15,71.33
2001-03-16,69.3974
2001-03-19,69.9245
2001-03-20,68.0973
2001-03-21,66.481
2001-03-22,65.3214
2001-03-23,69.415
2001-03-26,71.8044
2001-03-27,75.6344
2001-03-28,71.7692
2001-03-29,71.5233
2001-03-30,70.6273
2001-04-02,65.339
2001-04-03,59.7345
2001-04-04,61.4738
2001-04-05,69.7137
2001-04-06,69.1515
2001-04-09,69.2744
2001-04-10,70.3637
2001-04-11,72.4369
2001-04-12,74.2289
2001-04-16,76.0385
2001-04-17,77.3035
2001-04-18,86.0528
2001-04-19,87.4935
2001-04-20,85.4555
2001-04-23,83.2242
2001-04-24,82.7498
2001-04-25,86.3515
2001-04-26,86.9664
2001-04-27,87.6692
2001-04-30,89.0571
2001-05-01,90.4275
2001-05-02,90.7262
2001-05-03,89.0747
2001-05-04,91.3762
2001-05-07,90.814
2001-05-08,91.4289
2001-05-09,91.4992
2001-05-10,92.0965
2001-05-11,90.6208
2001-05-14,90.9546
2001-05-15,89.2679
2001-05-16,93.098
2001-05-17,94.1697
2001-05-18,95.8387
2001-05-21,99.4579
2001-05-22,98.07
2001-05-23,97.1564
2001-05-24,95.4698
2001-05-25,94.1345
2001-05-29,89.9531
2001-05-30,89.6896
2001-05-31,91.8857
2001-06-01,93.1155
2001-06-04,91.183
2001-06-05,93.1331
2001-06-06,91.7979
2001-06-07,90.7789
2001-06-08,89.6896
2001-06-11,91.0951
2001-06-12,91.5695
2001-06-13,90.6735
2001-06-14,88.5476
2001-06-15,88.53
2001-06-18,87.4935
2001-06-19,87.511
2001-06-20,92.4831
2001-06-21,96.3658
2001-06-22,92.9047
2001-06-25,92.9574
2001-06-26,92.7993
2001-06-27,92.6236
2001-06-28,91.4992
2001-06-29,93.1155
2001-07-02,93.221
2001-07-03,92.6939
2001-07-05,90.5153
2001-07-06,88.0908
2001-07-09,89.0747
2001-07-10,88.1611
2001-07-11,85.3852
2001-07-12,87.9327
2001-07-13,87.4935
2001-07-16,86.7204
2001-07-17,86.7029
2001-07-18,78.1644
2001-07-19,75.0722
2001-07-20,77.9711
2001-07-23,75.406
2001-07-24,74.9668
2001-07-25,76.9169
2001-07-26,78.8671
2001-07-27,79.3766
2001-07-30,79.3239
2001-07-31,79.605
2001-08-01,80.993
2001-08-02,82.8201
2001-08-03,82.3633
2001-08-06,80.993
2001-08-07,80.7997
2001-08-08,79.2712
2001-08-09,78.832
2001-08-10,77.7954
2001-08-13,75.5466
2001-08-14,69.8191
2001-08-15,69.7312
2001-08-16,70.4516
2001-08-17,69.7312
2001-08-20,70.6273
2001-08-21,70.1178
2001-08-22,69.3096
2001-08-23,70.4867
2001-08-24,73.2099
2001-08-27,73.2802
2001-08-28,71.3476
2001-08-29,67.6405
2001-08-30,63.2483
2001-08-31,65.7079
2001-09-04,65.7255
2001-09-05,64.1267
2001-09-06,61.6495
2001-09-07,56.5896
2001-09-10,60.49
2001-09-17,52.8826
2001-09-18,53.5678
2001-09-19,54.253
2001-09-20,52.092
2001-09-21,52.6366
2001-09-24,57.0113
2001-09-25,57.6789
2001-09-26,56.5018
2001-09-27,56.941
2001-09-28,58.1533
2001-10-01,57.6262
2001-10-02,57.5032
2001-10-03,60.3494
2001-10-04,59.9102
2001-10-05,59.5237
2001-10-08,55.6761
2001-10-09,56.045
2001-10-10,56.9586
2001-10-11,59.5412
2001-10-12,58.3641
2001-10-15,58.7858
2001-10-16,58.856
2001-10-17,54.13
2001-10-18,52.4961
2001-10-19,54.7449
2001-10-22,55.5355
2001-10-23,57.7843
2001-10-24,56.414
2001-10-25,56.9937
2001-10-26,58.8912
2001-10-29,56.414
2001-10-30,55.4652
2001-10-31,54.903
2001-11-01,57.4505
2001-11-02,56.3788
2001-11-05,58.8209
2001-11-06,61.7374
2001-11-07,60.9819
2001-11-08,63.9159
2001-11-09,65.216
2001-11-12,64.0389
2001-11-13,66.7972
2001-11-14,67.7284
2001-11-15,65.8134
2001-11-16,65.1809
2001-11-19,66.1296
2001-11-20,64.8295
2001-11-21,64.0389
2001-11-23,64.7417
2001-11-26,65.5323
2001-11-27,64.6011
2001-11-28,62.1239
2001-11-29,62.3347
2001-11-30,61.14
2001-12-03,59.0317
2001-12-04,60.8062
2001-12-05,62.7037
2001-12-06,61.4211
2001-12-07,57.5735
2001-12-10,54.5165
2001-12-11,56.1329
2001-12-12,57.1167
2001-12-13,58.5222
2001-12-14,58.0303
2001-12-17,59.0142
2001-12-18,57.8195
2001-12-19,57.9249
2001-12-20,57.5384
2001-12-21,57.0289
2001-12-24,55.6234
2001-12-26,55.3598
2001-12-27,56.8005
2001-12-28,58.0303
2001-12-31,56.4842
2002-01-02,55.6409
2002-01-03,55.5004
2002-01-04,56.0977
2002-01-07,57.3451
2002-01-08,56.2558
2002-01-09,55.4828
2002-01-10,55.149
2002-01-11,53.884
2002-01-14,52.5312
2002-01-15,52.7596
2002-01-16,52.1447
2002-01-17,52.7772
2002-01-18,51.8812
2002-01-22,50.0716
2002-01-23,50.5459
2002-01-24,49.281
2002-01-25,48.3498
2002-01-28,48.9823
2002-01-29,46.9619
2002-01-30,46.4172
2002-01-31,46.2591
2002-02-01,45.5036
2002-02-04,42.5345
2002-02-05,41.6385
2002-02-06,42.6223
2002-02-07,44.6252
2002-02-08,48.1214
2002-02-11,49.2458
2002-02-12,48.666
2002-02-13,47.7876
2002-02-14,47.9106
2002-02-15,45.8199
2002-02-19,44.8184
2002-02-20,42.6575
2002-02-21,40.4613
2002-02-22,41.6385
2002-02-25,41.3046
2002-02-26,40.2856
2002-02-27,41.7263
2002-02-28,43.5535
2002-03-01,45.5388
2002-03-04,47.7876
2002-03-05,46.9267
2002-03-06,47.2605
2002-03-07,45.3455
2002-03-08,46.3821
2002-03-11,47.8754
2002-03-12,46.3294
2002-03-13,46.3997
2002-03-14,45.2225
2002-03-15,46.2591
2002-03-18,47.0848
2002-03-19,46.2064
2002-03-20,44.3441
2002-03-21,43.3426
2002-03-22,43.044
2002-03-25,42.5169
2002-03-26,40.9357
2002-03-27,41.4628
2002-03-28,41.5506
2002-04-01,40.883
2002-04-02,41.4628
2002-04-03,40.8303
2002-04-04,39.7059
2002-04-05,39.4248
2002-04-08,38.6342
2002-04-09,38.3882
2002-04-10,36.3678
2002-04-11,34.5055
2002-04-12,35.3136
2002-04-15,37.5098
2002-04-16,38.0895
2002-04-17,38.4585
2002-04-18,37.3165
2002-04-19,36.7367
2002-04-22,34.9798
2002-04-23,33.5216
2002-04-24,33.9608
2002-04-25,34.1014
2002-04-26,32.7661
2002-04-29,31.7471
2002-04-30,33.381
2002-05-01,33.996
2002-05-02,32.7661
2002-05-03,31.7998
2002-05-06,30.3416
2002-05-07,30.324
2002-05-08,32.3269
2002-05-09,31.2376
2002-05-10,29.9375
2002-05-13,30.4822
2002-05-14,32.5026
2002-05-15,33.0999
2002-05-16,33.2229
2002-05-17,35.2434
2002-05-20,34.0487
2002-05-21,32.608
2002-05-22,32.5553
2002-05-23,33.4162
2002-05-24,33.2581
2002-05-28,32.977
2002-05-29,32.5904
2002-05-30,32.5729
2002-05-31,32.5904
2002-06-03,31.6417
2002-06-04,30.1132
2002-06-05,30.1132
2002-06-06,28.8307
2002-06-07,29.1996
2002-06-10,28.1455
2002-06-11,27.8117
2002-06-12,27.8117
2002-06-13,28.4969
2002-06-14,28.8658
2002-06-17,29.0415
2002-06-18,29.9024
2002-06-19,29.1996
2002-06-20,28.1104
2002-06-21,26.617
2002-06-24,27.2143
2002-06-25,26.9684
2002-06-26,23.9992
2002-06-27,23.9289
2002-06-28,26.2656
2002-07-01,23.7181
2002-07-02,21.9964
2002-07-03,24.702
2002-07-05,25.8264
2002-07-08,24.4209
2002-07-09,24.4911
2002-07-10,23.0329
2002-07-11,24.3155
2002-07-12,23.191
2002-07-15,22.9275
2002-07-16,22.2423
2002-07-17,22.9978
2002-07-18,21.8558
2002-07-19,20.2219
2002-07-22,20.9071
2002-07-23,20.2043
2002-07-24,19.6597
2002-07-25,16.9365
2002-07-26,19.3259
2002-07-29,20.3449
2002-07-30,21.7504
2002-07-31,20.3273
2002-08-01,19.3434
2002-08-02,18.3069
2002-08-05,17.446
2002-08-06,17.3933
2002-08-07,18.9921
2002-08-08,19.7124
2002-08-09,19.5016
2002-08-12,19.3434
2002-08-13,18.9921
2002-08-14,19.9583
2002-08-15,20.8719
2002-08-16,22.0666
2002-08-19,23.2613
2002-08-20,23.5073
2002-08-21,25.2115
2002-08-22,24.5439
2002-08-23,22.418
2002-08-26,21.5396
2002-08-27,22.2247
2002-08-28,21.6098
2002-08-29,22.9275
2002-08-30,22.1369
2002-09-03,21.2409
2002-09-04,22.0491
2002-09-05,21.3112
2002-09-06,22.9802
2002-09-09,23.3843
2002-09-10,23.5424
2002-09-11,23.2613
2002-09-12,21.9436
2002-09-13,22.5586
2002-09-16,22.1896
2002-09-17,22.0842
2002-09-18,22.5761
2002-09-19,21.6977
2002-09-20,21.9436
2002-09-23,21.153
2002-09-24,21.1179
2002-09-25,20.7314
2002-09-26,20.9246
2002-09-27,21.3112
2002-09-30,20.3449
2002-10-01,20.7665
2002-10-02,21.5571
2002-10-03,21.8207
2002-10-04,20.7841
2002-10-07,19.5894
2002-10-08,18.465
2002-10-09,18.8866
2002-10-10,20.1165
2002-10-11,20.626
2002-10-14,19.9583
2002-10-15,21.4341
2002-10-16,21.4166
2002-10-17,21.7855
2002-10-18,22.0666
2002-10-21,22.8924
2002-10-22,23.56
2002-10-23,23.7005
2002-10-24,25.5629
2002-10-25,25.8615
2002-10-28,25.8088
2002-10-29,25.3872
2002-10-30,25.2115
2002-10-31,25.9845
2002-11-01,26.6697
2002-11-04,27.1616
2002-11-05,27.7063
2002-11-06,28.5496
2002-11-07,27.0035
2002-11-08,27.0035
2002-11-11,26.2832
2002-11-12,26.4237
2002-11-13,26.7048
2002-11-14,26.7927
2002-11-15,27.1089
2002-11-18,26.5994
2002-11-19,26.2832
2002-11-20,25.8967
2002-11-21,27.4076
2002-11-22,27.9347
2002-11-25,28.4617
2002-11-26,26.9684
2002-11-27,28.8131
2002-11-29,28.7253
2002-12-02,28.9185
2002-12-03,25.0182
2002-12-04,24.333
2002-12-05,24.5614
2002-12-06,24.5087
2002-12-09,22.9626
2002-12-10,24.1573
2002-12-11,23.9992
2002-12-12,23.7708
2002-12-13,23.2613
2002-12-16,23.6654
2002-12-17,23.7181
2002-12-18,23.1032
2002-12-19,23.1032
2002-12-20,23.4721
2002-12-23,23.2437
2002-12-24,22.9802
2002-12-26,22.7694
2002-12-27,21.9261
2002-12-30,21.7504
2002-12-31,22.787
2003-01-02,23.3843
2003-01-03,23.8938
2003-01-06,24.7547
2003-01-07,24.7898
2003-01-08,24.3682
2003-01-09,25.1236
2003-01-10,25.9845
2003-01-13,26.4062
2003-01-14,26.863
2003-01-15,26.7751
2003-01-16,26.9859
2003-01-17,26.1251
2003-01-21,25.2993
2003-01-22,24.4033
2003-01-23,25.4574
2003-01-24,24.825
2003-01-27,23.8762
2003-01-28,24.0168
2003-01-29,24.5614
2003-01-30,21.1003
2003-01-31,20.503
2003-02-03,20.1867
2003-02-04,19.4137
2003-02-05,18.465
2003-02-06,19.0272
2003-02-07,18.588
2003-02-10,18.2015
2003-02-11,17.8325
2003-02-12,18.0433
2003-02-13,17.8325
2003-02-14,18.4474
2003-02-18,19.484
2003-02-19,19.115
2003-02-20,18.6407
2003-02-21,18.7285
2003-02-24,17.6744
2003-02-25,18.2893
2003-02-26,18.0258
2003-02-27,18.8691
2003-02-28,19.9056
2003-03-03,19.6421
2003-03-04,19.0975
2003-03-05,19.4137
2003-03-06,19.5543
2003-03-07,20.0462
2003-03-10,19.8002
2003-03-11,19.5016
2003-03-12,18.7637
2003-03-13,19.2205
2003-03-14,19.5191
2003-03-17,20.626
2003-03-18,20.2395
2003-03-19,20.2043
2003-03-20,20.1516
2003-03-21,19.9583
2003-03-24,19.2556
2003-03-25,19.9056
2003-03-26,20.0813
2003-03-27,20.2922
2003-03-28,19.9056
2003-03-31,19.0975
2003-04-01,19.238
2003-04-02,19.5543
2003-04-03,19.8178
2003-04-04,20.257
2003-04-07,21.3287
2003-04-08,21.8382
2003-04-09,21.9085
2003-04-10,22.2072
2003-04-11,21.5571
2003-04-14,22.0139
2003-04-15,21.8382
2003-04-16,21.9085
2003-04-17,22.1193
2003-04-21,22.664
2003-04-22,23.3843
2003-04-23,24.6141
2003-04-24,24.2452
2003-04-25,23.4019
2003-04-28,23.8235
2003-04-29,24.0519
2003-04-30,23.8938
2003-05-01,23.8411
2003-05-02,23.6478
2003-05-05,23.56
2003-05-06,23.3667
2003-05-07,23.1735
2003-05-08,23.0154
2003-05-09,22.8748
2003-05-12,23.3492
2003-05-13,23.683
2003-05-14,23.6654
2003-05-15,24.5439
2003-05-16,24.9831
2003-05-19,24.1046
2003-05-20,23.9816
2003-05-21,23.9465
2003-05-22,25.1412
2003-05-23,25.844
2003-05-27,26.3007
2003-05-28,26.1075
2003-05-29,26.0724
2003-05-30,26.7751
2003-06-02,27.1265
2003-06-03,26.7224
2003-06-04,27.3022
2003-06-05,26.9859
2003-06-06,26.6346
2003-06-09,26.1075
2003-06-10,26.4237
2003-06-11,27.5657
2003-06-12,27.8468
2003-06-13,27.2846
2003-06-16,27.759
2003-06-17,27.9347
2003-06-18,28.4266
2003-06-19,27.8995
2003-06-20,27.8468
2003-06-23,27.267
2003-06-24,26.9157
2003-06-25,26.8278
2003-06-26,27.7941
2003-06-27,27.7765
2003-06-30,27.9874
2003-07-01,28.3036
2003-07-02,28.778
2003-07-03,28.7955
2003-07-07,29.428
2003-07-08,29.4807
2003-07-09,29.2523
2003-07-10,28.532
2003-07-11,28.8658
2003-07-14,28.9888
2003-07-15,28.6726
2003-07-16,28.7428
2003-07-17,28.8131
2003-07-18,29.3753
2003-07-21,28.7077
2003-07-22,29.4456
2003-07-23,27.6009
2003-07-24,26.863
2003-07-25,26.8805
2003-07-28,27.7063
2003-07-29,27.8468
2003-07-30,26.7048
2003-07-31,27.0562
2003-08-01,26.863
2003-08-04,26.7048
2003-08-05,26.0899
2003-08-06,26.1251
2003-08-07,26.3886
2003-08-08,26.7048
2003-08-11,27.267
2003-08-12,27.3725
2003-08-13,27.0035
2003-08-14,27.1968
2003-08-15,27.1089
2003-08-18,27.4427
2003-08-19,28.1104
2003-08-20,27.7063
2003-08-21,28.1455
2003-08-22,28.0928
2003-08-25,27.6184
2003-08-26,27.8468
2003-08-27,27.8468
2003-08-28,28.4969
2003-08-29,28.778
2003-09-02,29.0415
2003-09-03,29.428
2003-09-04,29.3929
2003-09-05,29.0942
2003-09-08,28.8658
2003-09-09,28.4266
2003-09-10,28.1104
2003-09-11,28.3212
2003-09-12,28.1982
2003-09-15,27.7063
2003-09-16,28.1982
2003-09-17,28.6726
2003-09-18,28.8658
2003-09-19,28.6199
2003-09-22,28.3036
2003-09-23,28.4969
2003-09-24,27.7063
2003-09-25,27.3022
2003-09-26,26.7575
2003-09-29,26.3535
2003-09-30,26.5994
2003-10-01,26.8805
2003-10-02,27.2319
2003-10-03,27.1441
2003-10-06,27.3373
2003-10-07,27.1616
2003-10-08,26.7224
2003-10-09,27.3022
2003-10-10,27.5833
2003-10-13,27.6536
2003-10-14,27.636
2003-10-15,27.5833
2003-10-16,27.9698
2003-10-17,27.4076
2003-10-20,27.636
2003-10-21,27.3725
2003-10-22,26.5116
2003-10-23,26.0724
2003-10-24,26.4237
2003-10-27,26.7224
2003-10-28,27.1441
2003-10-29,26.8454
2003-10-30,27.0386
2003-10-31,26.7927
2003-11-03,27.4954
2003-11-04,27.3549
2003-11-05,27.2319
2003-11-06,27.6184
2003-11-07,27.8292
2003-11-10,27.5306
2003-11-11,27.3373
2003-11-12,28.0401
2003-11-13,27.9347
2003-11-14,27.636
2003-11-17,27.4427
2003-11-18,27.2495
2003-11-19,27.2319
2003-11-20,27.1265
2003-11-21,27.3197
2003-11-24,27.8995
2003-11-25,28.286
2003-11-26,28.7077
2003-11-28,28.6023
2003-12-01,28.9888
2003-12-02,29.305
2003-12-03,29.0591
2003-12-04,28.8131
2003-12-05,28.8307
2003-12-08,28.9888
2003-12-09,28.9185
2003-12-10,28.7955
2003-12-11,29.4807
2003-12-12,30.7106
2003-12-15,31.0092
2003-12-16,30.8687
2003-12-17,30.816
2003-12-18,31.343
2003-12-19,31.7998
2003-12-22,31.466
2003-12-23,31.3782
2003-12-24,31.3255
2003-12-26,31.2903
2003-12-29,31.5363
2003-12-30,31.4133
2003-12-31,31.5187
2004-01-02,31.9931
2004-01-05,31.9228
2004-01-06,31.9228
2004-01-07,31.8877
2004-01-08,32.5553
2004-01-09,32.362
2004-01-12,32.7661
2004-01-13,32.5377
2004-01-14,32.8715
2004-01-15,32.7486
2004-01-16,32.5026
2004-01-20,32.2918
2004-01-21,33.3635
2004-01-22,33.0297
2004-01-23,33.381
2004-01-26,33.504
2004-01-27,33.0472
2004-01-28,31.5539
2004-01-29,31.2376
2004-01-30,30.8862
2004-02-02,30.57
2004-02-03,30.2362
2004-02-04,30.1835
2004-02-05,30.3943
2004-02-06,30.7984
2004-02-09,30.7984
2004-02-10,31.2903
2004-02-11,31.3958
2004-02-12,30.6051
2004-02-13,30.2713
2004-02-17,30.7984
2004-02-18,31.0971
2004-02-19,31.1498
2004-02-20,31.0444
2004-02-23,30.8335
2004-02-24,30.4119
2004-02-25,30.8335
2004-02-26,30.7281
2004-02-27,30.3065
2004-03-01,30.2889
2004-03-02,29.9902
2004-03-03,29.797
2004-03-04,30.4295
2004-03-05,30.1659
2004-03-08,30.2011
2004-03-09,29.9551
2004-03-10,29.2523
2004-03-11,29.0942
2004-03-12,29.674
2004-03-15,28.4793
2004-03-16,28.9712
2004-03-17,29.6389
2004-03-18,29.3753
2004-03-19,29.6916
2004-03-22,28.8482
2004-03-23,28.8131
2004-03-24,28.901
2004-03-25,29.6564
2004-03-26,29.5686
2004-03-29,29.7443
2004-03-30,29.6916
2004-03-31,29.6213
2004-04-01,29.797
2004-04-02,30.2362
2004-04-05,30.4295
2004-04-06,30.57
2004-04-07,30.2011
2004-04-08,30.5349
2004-04-12,30.5524
2004-04-13,29.7091
2004-04-14,29.4105
2004-04-15,29.3226
2004-04-16,29.2875
2004-04-19,29.5861
2004-04-20,29.428
2004-04-21,29.5159
2004-04-22,29.7618
2004-04-23,29.6037
2004-04-26,29.4105
2004-04-27,29.5334
2004-04-28,28.901
2004-04-29,29.9551
2004-04-30,29.5686
2004-05-03,30.2186
2004-05-04,30.0956
2004-05-05,30.0254
2004-05-06,29.8145
2004-05-07,29.1645
2004-05-10,28.655
2004-05-11,29.0064
2004-05-12,29.1118
2004-05-13,28.8307
2004-05-14,29.0064
2004-05-17,28.5671
2004-05-18,28.7253
2004-05-19,28.7253
2004-05-20,28.6199
2004-05-21,29.2523
2004-05-24,29.0766
2004-05-25,29.7091
2004-05-26,30.1659
2004-05-27,30.1835
2004-05-28,29.9727
2004-06-01,29.92
2004-06-02,30.1484
2004-06-03,29.9727
2004-06-04,30.1484
2004-06-07,30.2713
2004-06-08,30.4997
2004-06-09,30.5349
2004-06-10,30.7281
2004-06-14,30.3768
2004-06-15,30.6227
2004-06-16,30.9214
2004-06-17,31.0795
2004-06-18,31.0444
2004-06-21,30.8511
2004-06-22,30.4997
2004-06-23,30.4119
2004-06-24,30.57
2004-06-25,30.2538
2004-06-28,30.3065
2004-06-29,30.57
2004-06-30,30.9214
2004-07-01,30.57
2004-07-02,30.5876
2004-07-06,30.2889
2004-07-07,30.7984
2004-07-08,30.4822
2004-07-09,30.4119
2004-07-12,30.5349
2004-07-13,30.4997
2004-07-14,30.3065
2004-07-15,29.9375
2004-07-16,29.5159
2004-07-19,29.6037
2004-07-20,30.0429
2004-07-21,30.0429
2004-07-22,30.2889
2004-07-23,29.797
2004-07-26,29.1645
2004-07-27,29.7091
2004-07-28,29.2699
2004-07-29,29.1118
2004-07-30,29.2348
2004-08-02,29.5334
2004-08-03,29.674
2004-08-04,29.6564
2004-08-05,29.1118
2004-08-06,28.6901
2004-08-09,27.9522
2004-08-10,28.2685
2004-08-11,27.8644
2004-08-12,27.4779
2004-08-13,27.4252
2004-08-16,28.532
2004-08-17,28.4969
2004-08-18,28.8482
2004-08-19,28.9712
2004-08-20,29.0942
2004-08-23,28.9361
2004-08-24,29.0064
2004-08-25,29.2523
2004-08-26,29.2523
2004-08-27,29.3577
2004-08-30,28.8307
2004-08-31,28.7077
2004-09-01,28.4617
2004-09-02,28.4442
2004-09-03,28.2158
2004-09-07,28.5496
2004-09-08,28.4266
2004-09-09,28.5496
2004-09-10,29.0064
2004-09-13,28.9361
2004-09-14,29.5686
2004-09-15,29.305
2004-09-16,29.3753
2004-09-17,29.6564
2004-09-20,29.4632
2004-09-21,29.1469
2004-09-22,28.9185
2004-09-23,29.0415
2004-09-24,28.9888
2004-09-27,28.6726
2004-09-28,28.5144
2004-09-29,28.2333
2004-09-30,28.3915
2004-10-01,29.0591
2004-10-04,29.2875
2004-10-05,29.2699
2004-10-06,29.3753
2004-10-07,29.3226
2004-10-08,28.8658
2004-10-11,28.9537
2004-10-12,29.2348
2004-10-13,29.0415
2004-10-14,28.7428
2004-10-15,28.7253
2004-10-18,29.1469
2004-10-19,28.8307
2004-10-20,28.7077
2004-10-21,28.7604
2004-10-22,28.655
2004-10-25,28.4969
2004-10-26,28.4793
2004-10-27,28.778
2004-10-28,28.9361
2004-10-29,29.0942
2004-11-01,28.7604
2004-11-02,28.6374
2004-11-03,29.1645
2004-11-04,29.674
2004-11-05,29.3753
2004-11-08,29.4983
2004-11-09,29.9551
2004-11-10,29.9551
2004-11-11,30.324
2004-11-12,30.5349
2004-11-15,30.5349
2004-11-16,30.4822
2004-11-17,30.447
2004-11-18,30.7633
2004-11-19,30.6051
2004-11-22,30.6579
2004-11-23,31.5187
2004-11-24,31.7647
2004-11-26,31.6417
2004-11-29,31.2903
2004-11-30,31.1146
2004-12-01,31.9755
2004-12-02,32.0282
2004-12-03,31.6769
2004-12-06,31.9404
2004-12-07,31.9931
2004-12-08,31.8701
2004-12-09,32.3269
2004-12-10,32.4675
2004-12-13,33.2581
2004-12-14,33.9784
2004-12-15,33.996
2004-12-16,34.1716
2004-12-17,34.0662
2004-12-20,34.0487
2004-12-21,33.9784
2004-12-22,33.6973
2004-12-23,33.6446
2004-12-27,34.1716
2004-12-28,34.3298
2004-12-29,34.1189
2004-12-30,34.1189
2004-12-31,34.1365
2005-01-03,34.0838
2005-01-04,33.5919
2005-01-05,33.2405
2005-01-06,33.2581
2005-01-07,33.2581
2005-01-10,33.4865
2005-01-11,32.8364
2005-01-12,32.9945
2005-01-13,32.8013
2005-01-14,33.0297
2005-01-18,32.8188
2005-01-19,32.4499
2005-01-20,32.6256
2005-01-21,32.6431
2005-01-24,32.4323
2005-01-25,32.0985
2005-01-26,31.9052
2005-01-27,31.6417
2005-01-28,31.466
2005-01-31,31.589
2005-02-01,31.7647
2005-02-02,31.835
2005-02-03,31.7647
2005-02-04,31.6417
2005-02-07,31.589
2005-02-08,31.6066
2005-02-09,31.466
2005-02-10,31.5714
2005-02-11,31.6417
2005-02-14,31.3782
2005-02-15,31.7998
2005-02-16,31.7471
2005-02-17,31.7471
2005-02-18,31.4485
2005-02-22,30.9917
2005-02-23,31.1498
2005-02-24,30.5876
2005-02-25,30.1132
2005-02-28,30.2011
2005-03-01,30.8862
2005-03-02,31.1322
2005-03-03,31.0268
2005-03-04,31.2201
2005-03-07,31.4133
2005-03-08,30.9214
2005-03-09,30.7633
2005-03-10,31.1146
2005-03-11,30.816
2005-03-14,30.8862
2005-03-15,31.6944
2005-03-16,31.7998
2005-03-17,32.6783
2005-03-18,32.8364
2005-03-21,32.3796
2005-03-22,31.7471
2005-03-23,31.343
2005-03-24,31.0971
2005-03-28,31.0268
2005-03-29,30.4119
2005-03-30,30.7457
2005-03-31,30.7984
2005-04-01,30.7106
2005-04-04,30.6754
2005-04-05,31.1322
2005-04-06,30.8511
2005-04-07,31.4485
2005-04-08,31.6066
2005-04-11,31.343
2005-04-12,31.5363
2005-04-13,31.2552
2005-04-14,30.9741
2005-04-15,30.4646
2005-04-18,30.1132
2005-04-19,30.0429
2005-04-20,29.7794
2005-04-21,30.7984
2005-04-22,30.447
2005-04-25,30.6051
2005-04-26,30.324
2005-04-27,30.3065
2005-04-28,29.7091
2005-04-29,29.551
2005-05-02,29.5159
2005-05-03,29.1645
2005-05-04,30.3416
2005-05-05,30.0429
2005-05-06,30.0605
2005-05-09,30.447
2005-05-10,29.8321
2005-05-11,29.7618
2005-05-12,29.92
2005-05-13,29.8672
2005-05-16,29.8321
2005-05-17,29.9727
2005-05-18,30.4646
2005-05-19,31.1322
2005-05-20,30.9214
2005-05-23,31.0971
2005-05-24,31.0971
2005-05-25,30.8687
2005-05-26,30.8862
2005-05-27,30.9038
2005-05-31,30.5524
2005-06-01,30.7106
2005-06-02,30.324
2005-06-03,30.2889
2005-06-06,29.8672
2005-06-07,29.9727
2005-06-08,29.674
2005-06-09,29.4983
2005-06-10,29.2699
2005-06-13,29.3929
2005-06-14,29.5159
2005-06-15,29.5159
2005-06-16,29.428
2005-06-17,29.4807
2005-06-20,30.1308
2005-06-21,30.7808
2005-06-22,30.7281
2005-06-23,30.0956
2005-06-24,30.0078
2005-06-27,29.6916
2005-06-28,29.8145
2005-06-29,29.5159
2005-06-30,29.3753
2005-07-01,29.1294
2005-07-05,28.9361
2005-07-06,28.8658
2005-07-07,28.5847
2005-07-08,28.901
2005-07-11,28.6199
2005-07-12,28.6726
2005-07-13,28.6199
2005-07-14,29.1645
2005-07-15,29.2875
2005-07-18,29.0239
2005-07-19,28.9888
2005-07-20,29.2699
2005-07-21,29.2523
2005-07-22,29.2172
2005-07-25,28.9712
2005-07-26,29.428
2005-07-27,29.7443
2005-07-28,30.324
2005-07-29,29.92
2005-08-01,30.0254
2005-08-02,30.6051
2005-08-03,30.4295
2005-08-04,30.816
2005-08-05,31.7823
2005-08-08,31.589
2005-08-09,32.5729
2005-08-10,32.0809
2005-08-11,32.3093
2005-08-12,32.0634
2005-08-15,32.485
2005-08-16,32.3269
2005-08-17,32.1512
2005-08-18,31.9931
2005-08-19,31.7823
2005-08-22,31.6241
2005-08-23,31.2728
2005-08-24,30.8511
2005-08-25,30.9917
2005-08-26,30.8687
2005-08-29,30.7982
2005-08-30,31.503
2005-08-31,31.5382
2005-09-01,31.5382
2005-09-02,31.3444
2005-09-06,31.6792
2005-09-07,32.1021
2005-09-08,31.9963
2005-09-09,32.3135
2005-09-12,32.0844
2005-09-13,31.6792
2005-09-14,31.5735
2005-09-15,32.5954
2005-09-16,33.3178
2005-09-19,32.6659
2005-09-20,32.4192
2005-09-21,31.873
2005-09-22,32.0492
2005-09-23,31.6792
2005-09-26,31.5206
2005-09-27,31.3268
2005-09-28,31.503
2005-09-29,31.9787
2005-09-30,31.9083
2005-10-03,31.8378
2005-10-04,31.9083
2005-10-05,31.6968
2005-10-06,31.5206
2005-10-07,31.6968
2005-10-10,31.7321
2005-10-11,31.3621
2005-10-12,30.8335
2005-10-13,30.9568
2005-10-14,31.7144
2005-10-17,31.8906
2005-10-18,31.2563
2005-10-19,31.3973
2005-10-20,30.6044
2005-10-21,30.3578
2005-10-24,31.0801
2005-10-25,30.9568
2005-10-26,30.8159
2005-10-27,30.8335
2005-10-28,31.2563
2005-10-31,31.4854
2005-11-01,31.0097
2005-11-02,31.5382
2005-11-03,31.0625
2005-11-04,31.0097
2005-11-07,31.0449
2005-11-08,31.0978
2005-11-09,31.133
2005-11-10,31.2035
2005-11-11,31.4149
2005-11-14,31.2563
2005-11-15,31.0449
2005-11-16,31.0097
2005-11-17,31.4149
2005-11-18,31.7673
2005-11-21,31.8554
2005-11-22,32.0316
2005-11-23,32.2783
2005-11-25,32.2959
2005-11-28,31.9602
2005-11-29,31.6069
2005-11-30,31.7482
2005-12-01,32.0662
2005-12-02,32.2429
2005-12-05,32.2252
2005-12-06,32.2429
2005-12-07,31.9955
2005-12-08,31.3948
2005-12-09,31.2005
2005-12-12,31.2535
2005-12-13,31.4478
2005-12-14,31.6069
2005-12-15,31.5362
2005-12-16,31.8365
2005-12-19,31.6952
2005-12-20,31.3065
2005-12-21,31.0945
2005-12-22,31.2712
2005-12-23,31.2182
2005-12-27,30.9708
2005-12-28,30.8648
2005-12-29,30.8825
2005-12-30,30.7942
2006-01-03,31.1475
2006-01-04,31.3418
2006-01-05,31.5539
2006-01-06,31.3242
2006-01-09,31.0238
2006-01-10,30.8825
2006-01-11,31.0592
2006-01-12,30.9178
2006-01-13,30.5115
2006-01-17,30.7058
2006-01-18,30.5998
2006-01-19,30.9355
2006-01-20,30.1758
2006-01-23,30.1581
2006-01-24,30.5291
2006-01-25,30.2818
2006-01-26,30.2111
2006-01-27,30.5645
2006-01-30,30.9885
2006-01-31,31.0238
2006-02-01,32.1545
2006-02-02,32.2605
2006-02-03,32.5079
2006-02-06,32.7729
2006-02-07,32.4549
2006-02-08,32.7199
2006-02-09,32.4549
2006-02-10,32.4019
2006-02-13,32.2605
2006-02-14,32.0662
2006-02-15,31.7659
2006-02-16,31.8365
2006-02-17,31.3772
2006-02-21,31.2005
2006-02-22,30.8295
2006-02-23,30.5645
2006-02-24,30.5998
2006-02-27,30.6884
2006-02-28,30.6353
2006-03-01,30.8302
2006-03-02,30.7947
2006-03-03,30.8833
2006-03-06,30.5644
2006-03-07,30.4581
2006-03-08,30.5821
2006-03-09,30.3695
2006-03-10,30.4758
2006-03-13,30.3518
2006-03-14,30.5821
2006-03-15,30.4404
2006-03-16,30.3518
2006-03-17,30.2809
2006-03-20,30.3518
2006-03-21,30.2277
2006-03-22,30.334
2006-03-23,30.2632
2006-03-24,30.086
2006-03-27,29.9974
2006-03-28,29.643
2006-03-29,29.7848
2006-03-30,29.8734
2006-03-31,29.7316
2006-04-03,29.7139
2006-04-04,29.7493
2006-04-05,29.767
2006-04-06,29.5899
2006-04-07,29.4304
2006-04-10,29.9265
2006-04-11,29.8734
2006-04-12,29.7848
2006-04-13,30.0328
2006-04-17,29.767
2006-04-18,30.3518
2006-04-19,30.1037
2006-04-20,29.962
2006-04-21,29.7493
2006-04-24,29.8379
2006-04-25,29.9442
2006-04-26,29.9442
2006-04-27,30.7947
2006-04-28,30.7947
2006-05-01,30.7416
2006-05-02,30.8479
2006-05-03,30.5289
2006-05-04,30.3695
2006-05-05,30.2454
2006-05-08,30.2277
2006-05-09,30.1923
2006-05-10,30.5467
2006-05-11,30.653
2006-05-12,30.9719
2006-05-15,31.0251
2006-05-16,31.22
2006-05-17,31.0959
2006-05-18,30.8833
2006-05-19,30.9542
2006-05-22,30.8479
2006-05-23,30.7593
2006-05-24,30.7593
2006-05-25,30.901
2006-05-26,30.9721
2006-05-30,30.599
2006-05-31,30.5634
2006-06-01,30.901
2006-06-02,31.2209
2006-06-05,31.1143
2006-06-06,31.3453
2006-06-07,31.292
2006-06-08,30.9366
2006-06-09,30.8477
2006-06-12,30.5634
2006-06-13,30.0481
2006-06-14,30.1369
2006-06-15,30.4035
2006-06-16,30.208
2006-06-19,30.439
2006-06-20,30.439
2006-06-21,30.6523
2006-06-22,30.4035
2006-06-23,30.1725
2006-06-26,30.5101
2006-06-27,30.208
2006-06-28,30.439
2006-06-29,30.7411
2006-06-30,30.7944
2006-07-03,30.67
2006-07-05,30.4568
2006-07-06,30.1725
2006-07-07,29.9059
2006-07-10,29.6216
2006-07-11,29.3906
2006-07-12,29.1952
2006-07-13,28.5732
2006-07-14,28.3245
2006-07-17,28.0579
2006-07-18,28.2889
2006-07-19,28.6443
2006-07-20,28.5377
2006-07-21,28.4666
2006-07-24,28.8042
2006-07-25,28.9109
2006-07-26,28.7332
2006-07-27,28.8575
2006-07-28,29.0175
2006-07-31,29.3018
2006-08-01,28.9109
2006-08-02,29.6039
2006-08-03,29.5506
2006-08-04,29.3906
2006-08-07,29.1241
2006-08-08,28.7865
2006-08-09,28.2001
2006-08-10,28.4489
2006-08-11,28.5199
2006-08-14,28.5555
2006-08-15,28.591
2006-08-16,28.6976
2006-08-17,29.2129
2006-08-18,29.3196
2006-08-21,29.3373
2006-08-22,29.4439
2006-08-23,29.3906
2006-08-24,29.2129
2006-08-25,29.1774
2006-08-28,29.284
2006-08-29,29.4889
2006-08-30,29.5424
2006-08-31,29.7029
2006-09-01,29.8633
2006-09-05,29.9703
2006-09-06,29.8811
2006-09-07,29.9168
2006-09-08,30.0773
2006-09-11,30.1308
2006-09-12,30.3625
2006-09-13,30.309
2006-09-14,30.1664
2006-09-15,30.3269
2006-09-18,30.5586
2006-09-19,30.9865
2006-09-20,31.3966
2006-09-21,31.2005
2006-09-22,31.5749
2006-09-25,32.3237
2006-09-26,33.1438
2006-09-27,33.0725
2006-09-28,32.4842
2006-09-29,32.4842
2006-10-02,32.3772
2006-10-03,32.6981
2006-10-04,33.126
2006-10-05,33.1438
2006-10-06,33.5004
2006-10-09,33.6252
2006-10-10,33.8391
2006-10-11,34.0709
2006-10-12,34.3205
2006-10-13,33.9996
2006-10-16,34.3918
2006-10-17,34.5166
2006-10-18,34.9445
2006-10-19,35.1407
2006-10-20,35.2476
2006-10-23,35.0337
2006-10-24,35.3368
2006-10-25,35.3189
2006-10-26,35.622
2006-10-27,35.4794
2006-10-30,35.5151
2006-10-31,35.622
2006-11-01,35.2833
2006-11-02,35.6399
2006-11-03,35.3546
2006-11-06,35.5686
2006-11-07,35.3189
2006-11-08,35.0337
2006-11-09,35.3368
2006-11-10,35.1407
2006-11-13,35.6399
2006-11-14,35.4616
2006-11-15,35.622
2006-11-16,36.246
2006-11-17,36.3887
2006-11-20,36.7096
2006-11-21,36.8701
2006-11-22,37.0127
2006-11-24,36.3887
2006-11-27,36.1034
2006-11-28,36.0765
2006-11-29,36.3268
2006-11-30,36.005
2006-12-01,36.1838
2006-12-04,36.5949
2006-12-05,36.7022
2006-12-06,36.5234
2006-12-07,36.7558
2006-12-08,37.3637
2006-12-11,38.186
2006-12-12,38.0966
2006-12-13,38.186
2006-12-14,38.6687
2006-12-15,38.6866
2006-12-18,38.8832
2006-12-19,39.2408
2006-12-20,39.2408
2006-12-21,39.2587
2006-12-22,39.4911
2006-12-26,39.6877
2006-12-27,39.4911
2006-12-28,39.348
2006-12-29,38.9726
2007-01-03,39.348
2007-01-04,40.081
2007-01-05,39.7413
2007-01-08,39.9738
2007-01-09,39.7413
2007-01-10,39.8129
2007-01-11,40.4564
2007-01-12,40.5995
2007-01-16,40.7782
2007-01-17,40.7067
2007-01-18,41.0285
2007-01-19,40.4207
2007-01-22,40.2777
2007-01-23,40.1704
2007-01-24,40.2062
2007-01-25,39.4374
2007-01-26,38.9726
2007-01-29,38.9726
2007-01-30,39.3838
2007-01-31,39.1335
2007-02-01,38.633
2007-02-02,38.9011
2007-02-05,38.5078
2007-02-06,38.6151
2007-02-07,38.9011
2007-02-08,38.2754
2007-02-09,38.0609
2007-02-12,37.8464
2007-02-13,38.4005
2007-02-14,38.4184
2007-02-15,38.6508
2007-02-16,38.5257
2007-02-20,38.7045
2007-02-21,38.6866
2007-02-22,38.5793
2007-02-23,38.4005
2007-02-26,37.8359
2007-02-27,36.2586
2007-02-28,36.4558
2007-03-01,36.169
2007-03-02,35.703
2007-03-05,35.3445
2007-03-06,35.8106
2007-03-07,35.5596
2007-03-08,35.4162
2007-03-09,35.5955
2007-03-12,35.4521
2007-03-13,34.771
2007-03-14,34.8606
2007-03-15,34.8785
2007-03-16,34.9682
2007-03-19,35.1832
2007-03-20,35.6672
2007-03-21,36.1869
2007-03-22,35.6851
2007-03-23,35.4879
2007-03-26,36.1511
2007-03-27,36.0256
2007-03-28,35.6672
2007-03-29,35.5417
2007-03-30,35.3983
2007-04-02,35.9539
2007-04-03,36.7963
2007-04-04,36.9218
2007-04-05,37.7104
2007-04-09,37.6029
2007-04-10,37.6746
2007-04-11,37.3699
2007-04-12,37.6208
2007-04-13,37.9972
2007-04-16,37.8896
2007-04-17,37.4236
2007-04-18,37.3161
2007-04-19,37.2086
2007-04-20,37.1727
2007-04-23,37.4416
2007-04-24,37.5849
2007-04-25,37.9076
2007-04-26,37.6208
2007-04-27,36.9218
2007-04-30,37.0114
2007-05-01,36.8322
2007-05-02,37.567
2007-05-03,37.7642
2007-05-04,38.1585
2007-05-07,38.9292
2007-05-08,39.3056
2007-05-09,38.9113
2007-05-10,38.3377
2007-05-11,38.3556
2007-05-14,38.3198
2007-05-15,38.1226
2007-05-16,38.6783
2007-05-17,38.5528
2007-05-18,38.5707
2007-05-21,38.983
2007-05-22,38.75
2007-05-23,38.732
2007-05-24,38.2302
2007-05-25,38.5528
2007-05-29,38.5438
2007-05-30,38.6876
2007-05-31,38.418
2007-06-01,38.2922
2007-06-04,38.1844
2007-06-05,37.9329
2007-06-06,37.3578
2007-06-07,36.7289
2007-06-08,37.286
2007-06-11,37.0164
2007-06-12,36.5313
2007-06-13,37.0883
2007-06-14,37.5016
2007-06-15,37.5375
2007-06-18,37.5375
2007-06-19,38.1665
2007-06-20,39.3165
2007-06-21,38.6337
2007-06-22,38.5798
2007-06-25,38.5258
2007-06-26,38.1485
2007-06-27,38.2563
2007-06-28,38.1305
2007-06-29,37.825
2007-07-02,38.6516
2007-07-03,38.4719
2007-07-05,38.0407
2007-07-06,37.8071
2007-07-09,37.6993
2007-07-10,36.8367
2007-07-11,37.1602
2007-07-12,37.25
2007-07-13,37.5196
2007-07-16,37.5914
2007-07-17,37.9329
2007-07-18,37.5016
2007-07-19,37.2321
2007-07-20,36.6031
2007-07-23,36.711
2007-07-24,36.6211
2007-07-25,36.4414
2007-07-26,35.3633
2007-07-27,34.95
2007-07-30,35.1297
2007-07-31,34.5547
2007-08-01,33.4585
2007-08-02,34.0156
2007-08-03,33.5125
2007-08-06,33.0812
2007-08-07,33.4046
2007-08-08,34.0875
2007-08-09,33.5664
2007-08-10,33.4585
2007-08-13,33.8
2007-08-14,32.7038
2007-08-15,32.9195
2007-08-16,33.0453
2007-08-17,32.8656
2007-08-20,33.0812
2007-08-21,33.5304
2007-08-22,33.9976
2007-08-23,34.2132
2007-08-24,34.1234
2007-08-27,34.1593
2007-08-28,33.1531
2007-08-29,33.8797
2007-08-30,33.5552
2007-08-31,34.2403
2007-09-04,34.7091
2007-09-05,34.2764
2007-09-06,34.024
2007-09-07,33.1224
2007-09-10,32.8159
2007-09-11,33.0323
2007-09-12,33.483
2007-09-13,34.2764
2007-09-14,33.6634
2007-09-17,32.9241
2007-09-18,33.6273
2007-09-19,33.3749
2007-09-20,33.2306
2007-09-21,32.5815
2007-09-24,32.5815
2007-09-25,32.6717
2007-09-26,32.5094
2007-09-27,32.852
2007-09-28,33.0683
2007-10-01,33.8256
2007-10-02,33.5552
2007-10-03,33.7715
2007-10-04,34.2403
2007-10-05,34.3485
2007-10-08,34.4206
2007-10-09,34.4928
2007-10-10,34.2584
2007-10-11,34.2043
2007-10-12,34.1682
2007-10-15,33.8797
2007-10-16,33.483
2007-10-17,33.3568
2007-10-18,33.0864
2007-10-19,32.4373
2007-10-22,32.5635
2007-10-23,32.6176
2007-10-24,33.1044
2007-10-25,31.9324
2007-10-26,33.0864
2007-10-29,32.6356
2007-10-30,32.4012
2007-10-31,32.888
2007-11-01,32.4914
2007-11-02,32.2209
2007-11-05,32.1488
2007-11-06,32.9782
2007-11-07,32.0406
2007-11-08,31.8603
2007-11-09,31.085
2007-11-12,30.8686
2007-11-13,31.9865
2007-11-14,30.7604
2007-11-15,30.7424
2007-11-16,31.1751
2007-11-19,30.3637
2007-11-20,30.3637
2007-11-21,29.8769
2007-11-23,29.913
2007-11-26,29.3901
2007-11-27,29.913
2007-11-28,31.1852
2007-11-29,31.2394
2007-11-30,31.2756
2007-12-03,31.0042
2007-12-04,30.8413
2007-12-05,30.7689
2007-12-06,31.4023
2007-12-07,31.4928
2007-12-10,31.2032
2007-12-11,30.5517
2007-12-12,30.7508
2007-12-13,30.3888
2007-12-14,30.606
2007-12-17,29.882
2007-12-18,30.1535
2007-12-19,29.5743
2007-12-20,29.6286
2007-12-21,30.1173
2007-12-24,30.7508
2007-12-26,30.606
2007-12-27,30.1716
2007-12-28,30.1354
2007-12-31,29.8458
2008-01-02,29.4838
2008-01-03,29.5381
2008-01-04,28.7598
2008-01-07,28.5788
2008-01-08,28.3979
2008-01-09,28.8865
2008-01-10,29.0675
2008-01-11,28.977
2008-01-14,29.3209
2008-01-15,28.5245
2008-01-16,28.8503
2008-01-17,28.0178
2008-01-18,28.1445
2008-01-22,27.5291
2008-01-23,27.3481
2008-01-24,27.8911
2008-01-25,27.0766
2008-01-28,27.6739
2008-01-29,27.6196
2008-01-30,27.7825
2008-01-31,28.4702
2008-02-01,29.0313
2008-02-04,28.4883
2008-02-05,28.0178
2008-02-06,28.3798
2008-02-07,28.1083
2008-02-08,28.1988
2008-02-11,28.3255
2008-02-12,29.339
2008-02-13,30.0268
2008-02-14,29.701
2008-02-15,30.2259
2008-02-19,30.1173
2008-02-20,29.8639
2008-02-21,29.4838
2008-02-22,29.9182
2008-02-25,29.9906
2008-02-26,29.9725
2008-02-27,29.9779
2008-02-28,29.124
2008-02-29,28.4336
2008-03-03,28.1793
2008-03-04,27.8522
2008-03-05,27.7977
2008-03-06,27.1073
2008-03-07,26.9983
2008-03-10,26.3261
2008-03-11,26.8893
2008-03-12,26.7985
2008-03-13,26.3261
2008-03-14,25.454
2008-03-17,25.2905
2008-03-18,25.999
2008-03-19,26.1807
2008-03-20,25.781
2008-03-24,26.5259
2008-03-25,27.0528
2008-03-26,26.1807
2008-03-27,25.9809
2008-03-28,25.1633
2008-03-31,25.5085
2008-04-01,26.4714
2008-04-02,26.6168
2008-04-03,26.4169
2008-04-04,26.5441
2008-04-07,26.6713
2008-04-08,26.7985
2008-04-09,26.2352
2008-04-10,26.5259
2008-04-11,25.9809
2008-04-14,25.7447
2008-04-15,25.8355
2008-04-16,26.0536
2008-04-17,26.4896
2008-04-18,26.962
2008-04-21,27.1618
2008-04-22,26.6531
2008-04-23,26.6531
2008-04-24,27.3617
2008-04-25,27.725
2008-04-28,27.4525
2008-04-29,27.8159
2008-04-30,26.9801
2008-05-01,28.4518
2008-05-02,28.6698
2008-05-05,29.3602
2008-05-06,29.6691
2008-05-07,28.9423
2008-05-08,29.3239
2008-05-09,28.8697
2008-05-12,29.1422
2008-05-13,29.3057
2008-05-14,29.5419
2008-05-15,29.9234
2008-05-16,29.8871
2008-05-19,29.8326
2008-05-20,29.3057
2008-05-21,29.5601
2008-05-22,30.0143
2008-05-23,28.906
2008-05-27,29.451
2008-05-28,29.0734
2008-05-29,29.2923
2008-05-30,28.891
2008-06-02,28.508
2008-06-03,28.8546
2008-06-04,28.6539
2008-06-05,29.1829
2008-06-06,27.8514
2008-06-09,27.6508
2008-06-10,27.596
2008-06-11,27.4319
2008-06-12,27.2313
2008-06-13,28.125
2008-06-16,27.742
2008-06-17,27.4137
2008-06-18,26.8665
2008-06-19,27.1948
2008-06-20,26.6841
2008-06-23,26.6658
2008-06-24,26.6658
2008-06-25,27.3954
2008-06-26,26.6658
2008-06-27,26.2463
2008-06-30,26.9394
2008-07-01,27.0124
2008-07-02,26.5382
2008-07-03,26.7935
2008-07-07,26.3923
2008-07-08,26.1734
2008-07-09,25.3709
2008-07-10,25.3344
2008-07-11,25.152
2008-07-14,25.3891
2008-07-15,25.4073
2008-07-16,26.6841
2008-07-17,26.7388
2008-07-18,26.83
2008-07-21,26.1734
2008-07-22,26.4652
2008-07-23,26.7753
2008-07-24,26.4105
2008-07-25,26.6294
2008-07-28,25.7904
2008-07-29,26.5199
2008-07-30,26.3558
2008-07-31,26.1551
2008-08-01,25.9545
2008-08-04,26.2646
2008-08-05,27.0853
2008-08-06,27.0853
2008-08-07,26.4287
2008-08-08,28.4351
2008-08-11,29.0369
2008-08-12,28.5627
2008-08-13,28.3256
2008-08-14,28.9093
2008-08-15,29.4929
2008-08-18,29.1646
2008-08-19,28.6904
2008-08-20,28.3074
2008-08-21,28.2891
2008-08-22,29.2376
2008-08-25,28.5992
2008-08-26,28.9458
2008-08-27,29.0793
2008-08-28,29.7386
2008-08-29,29.9583
2008-09-02,30.5809
2008-09-03,29.9034
2008-09-04,28.2919
2008-09-05,27.9989
2008-09-08,28.6948
2008-09-09,27.8708
2008-09-10,27.2115
2008-09-11,26.4241
2008-09-12,26.6622
2008-09-15,25.8198
2008-09-16,25.8198
2008-09-17,25.1972
2008-09-18,25.5635
2008-09-19,26.5889
2008-09-22,25.4353
2008-09-23,25.3986
2008-09-24,25.5635
2008-09-25,26.0213
2008-09-26,26.0029
2008-09-29,23.7689
2008-09-30,24.0069
2008-10-01,23.9154
2008-10-02,22.9449
2008-10-03,22.1574
2008-10-06,20.6192
2008-10-07,19.7036
2008-10-08,19.722
2008-10-09,18.5317
2008-10-10,16.9202
2008-10-13,18.8979
2008-10-14,19.3191
2008-10-15,17.1583
2008-10-16,17.6893
2008-10-17,18.2021
2008-10-20,19.8135
2008-10-21,19.0078
2008-10-22,17.5062
2008-10-23,17.3963
2008-10-24,16.8104
2008-10-27,16.2061
2008-10-28,18.4951
2008-10-29,17.5062
2008-10-30,18.2753
2008-10-31,18.4767
2008-11-03,18.2936
2008-11-04,19.8684
2008-11-05,18.6232
2008-11-06,17.5428
2008-11-07,18.5317
2008-11-10,18.1288
2008-11-11,17.726
2008-11-12,15.8398
2008-11-13,16.7005
2008-11-14,16.8104
2008-11-17,15.8948
2008-11-18,15.2905
2008-11-19,14.851
2008-11-20,12.8916
2008-11-21,14.851
2008-11-24,14.1917
2008-11-25,15.4347
2008-11-26,15.9517
2008-11-28,16.7087
2008-12-01,15.7117
2008-12-02,16.6163
2008-12-03,16.8748
2008-12-04,17.3918
2008-12-05,17.7795
2008-12-08,17.9087
2008-12-09,17.8718
2008-12-10,18.8688
2008-12-11,18.6103
2008-12-12,18.518
2008-12-15,18.0749
2008-12-16,19.4411
2008-12-17,19.238
2008-12-18,18.758
2008-12-19,18.5734
2008-12-22,17.521
2008-12-23,17.3548
2008-12-24,17.1702
2008-12-26,17.9087
2008-12-29,17.7426
2008-12-30,18.5734
2008-12-31,18.6472
2009-01-02,19.6258
2009-01-05,19.3673
2009-01-06,20.3089
2009-01-07,18.998
2009-01-08,19.2011
2009-01-09,18.6103
2009-01-12,18.2595
2009-01-13,18.1487
2009-01-14,17.4102
2009-01-15,17.4102
2009-01-16,17.761
2009-01-20,16.4686
2009-01-21,17.4287
2009-01-22,17.2441
2009-01-23,17.2071
2009-01-26,17.5949
2009-01-27,18.1857
2009-01-28,18.518
2009-01-29,18.278
2009-01-30,17.2071
2009-02-02,17.3918
2009-02-03,18.0564
2009-02-04,17.4656
2009-02-05,17.6687
2009-02-06,17.761
2009-02-09,17.2625
2009-02-10,15.9702
2009-02-11,16.1363
2009-02-12,16.284
2009-02-13,16.0071
2009-02-17,14.7147
2009-02-18,14.6778
2009-02-19,13.9947
2009-02-20,13.57
2009-02-23,13.9393
2009-02-24,14.5301
2009-02-25,14.703
2009-02-26,14.033
2009-02-27,14.2377
2009-03-02,13.698
2009-03-03,13.456
2009-03-04,13.9213
2009-03-05,13.1397
2009-03-06,13.9027
2009-03-09,13.2141
2009-03-10,14.9077
2009-03-11,14.7402
2009-03-12,15.4289
2009-03-13,15.28
2009-03-16,15.1869
2009-03-17,15.615
2009-03-18,15.9314
2009-03-19,14.6472
2009-03-20,14.6658
2009-03-23,16.0058
2009-03-24,15.8197
2009-03-25,15.95
2009-03-26,16.4339
2009-03-27,20.862
2009-03-30,15.1647
2009-03-31,16.0543
2009-04-01,17.1683
2009-04-02,17.9997
2009-04-03,18.457
2009-04-06,17.9332
2009-04-07,17.6672
2009-04-08,18.1993
2009-04-09,18.4321
2009-04-13,18.3572
2009-04-14,18.2242
2009-04-15,18.5069
2009-04-16,19.7124
2009-04-17,19.2801
2009-04-20,18.2824
2009-04-21,18.4653
2009-04-22,18.5152
2009-04-23,18.0746
2009-04-24,18.5734
2009-04-27,17.8418
2009-04-28,18.1494
2009-04-29,18.2741
2009-04-30,18.166
2009-05-01,19.0473
2009-05-04,20.3526
2009-05-05,20.2528
2009-05-06,20.6935
2009-05-07,20.5604
2009-05-08,20.893
2009-05-11,20.2445
2009-05-12,19.5711
2009-05-13,20.3027
2009-05-14,20.0367
2009-05-15,19.5877
2009-05-18,20.6935
2009-05-19,20.0034
2009-05-20,19.4963
2009-05-21,19.1055
2009-05-22,18.9974
2009-05-26,19.4963
2009-05-27,19.2511
2009-05-28,19.7121
2009-05-29,19.5528
2009-06-01,20.0809
2009-06-02,20.5837
2009-06-03,20.106
2009-06-04,20.4915
2009-06-05,21.2542
2009-06-08,21.6649
2009-06-09,22.2851
2009-06-10,22.0588
2009-06-11,21.9582
2009-06-12,21.8073
2009-06-15,21.2961
2009-06-16,20.8854
2009-06-17,21.3296
2009-06-18,21.2207
2009-06-19,21.0866
2009-06-22,20.282
2009-06-23,20.5837
2009-06-24,20.7765
2009-06-25,21.2877
2009-06-26,20.9525
2009-06-29,21.2542
2009-06-30,21.1033
2009-07-01,21.2458
2009-07-02,20.3239
2009-07-06,20.3071
2009-07-07,19.6702
2009-07-08,19.6953
2009-07-09,20.0725
2009-07-10,20.0892
2009-07-13,20.4831
2009-07-14,20.8351
2009-07-15,21.5894
2009-07-16,22.2767
2009-07-17,21.9163
2009-07-20,23.0058
2009-07-21,22.6287
2009-07-22,22.4611
2009-07-23,23.3327
2009-07-24,23.1232
2009-07-27,23.0896
2009-07-28,22.5868
2009-07-29,22.2348
2009-07-30,22.4359
2009-07-31,22.3521
2009-08-03,22.8382
2009-08-04,23.5171
2009-08-05,22.9974
2009-08-06,22.9304
2009-08-07,23.7685
2009-08-10,23.6763
2009-08-11,23.2489
2009-08-12,23.626
2009-08-13,23.3662
2009-08-14,23.0393
2009-08-17,22.4359
2009-08-18,22.503
2009-08-19,22.8801
2009-08-20,23.0142
2009-08-21,23.6595
2009-08-24,24.0283
2009-08-25,23.9026
2009-08-26,24.0953
2009-08-27,23.9924
2009-08-28,23.9165
2009-08-31,23.5453
2009-09-01,23.0307
2009-09-02,23.1235
2009-09-03,23.2753
2009-09-04,23.6297
2009-09-08,23.5369
2009-09-09,23.9755
2009-09-10,24.912
2009-09-11,24.7264
2009-09-14,24.6336
2009-09-15,24.7095
2009-09-16,24.971
2009-09-17,24.7348
2009-09-18,24.9879
2009-09-21,25.2916
2009-09-22,25.4266
2009-09-23,24.8107
2009-09-24,24.3805
2009-09-25,24.1358
2009-09-28,24.7601
2009-09-29,24.6673
2009-09-30,24.2624
2009-10-01,25.2916
2009-10-02,25.0048
2009-10-05,25.376
2009-10-06,25.6543
2009-10-07,25.3675
2009-10-08,25.7556
2009-10-09,25.4941
2009-10-12,25.5447
2009-10-13,25.8652
2009-10-14,25.8568
2009-10-15,25.899
2009-10-16,25.629
2009-10-19,26.5148
2009-10-20,26.4642
2009-10-21,26.3292
2009-10-22,26.9873
2009-10-23,25.9918
2009-10-26,25.8821
2009-10-27,25.6122
2009-10-28,25.0048
2009-10-29,25.8737
2009-10-30,25.4097
2009-11-02,25.4603
2009-11-03,25.4181
2009-11-04,25.3506
2009-11-05,26.2196
2009-11-06,26.1521
2009-11-09,26.692
2009-11-10,26.7679
2009-11-11,26.9198
2009-11-12,26.6076
2009-11-13,26.9873
2009-11-16,27.2656
2009-11-17,27.4681
2009-11-18,27.6706
2009-11-19,27.2488
2009-11-20,26.7089
2009-11-23,27.1138
2009-11-24,26.7135
2009-11-25,26.5692
2009-11-27,26.1789
2009-11-30,26.0685
2009-12-01,26.4589
2009-12-02,26.2383
2009-12-03,26.374
2009-12-04,26.6965
2009-12-07,26.5947
2009-12-08,25.9752
2009-12-09,26.6286
2009-12-10,27.7204
2009-12-11,27.8661
2009-12-14,27.7022
2009-12-15,27.4472
2009-12-16,27.347
2009-12-17,26.8735
2009-12-18,26.7551
2009-12-21,27.6657
2009-12-22,26.9099
2009-12-23,26.746
2009-12-24,26.664
2009-12-28,26.6276
2009-12-29,26.8279
2009-12-30,26.6367
2009-12-31,26.5456
2010-01-04,26.7915
2010-01-05,26.4637
2010-01-06,26.3908
2010-01-07,26.154
2010-01-08,26.1814
2010-01-11,26.582
2010-01-12,25.9719
2010-01-13,26.4181
2010-01-14,26.1996
2010-01-15,25.6532
2010-01-19,26.154
2010-01-20,26.0357
2010-01-21,25.5712
2010-01-22,24.7607
2010-01-25,24.9793
2010-01-26,24.7789
2010-01-27,24.5331
2010-01-28,24.4875
2010-01-29,25.043
2010-02-01,25.5348
2010-02-02,25.981
2010-02-03,25.4255
2010-02-04,25.0886
2010-02-05,24.615
2010-02-08,24.5331
2010-02-09,24.952
2010-02-10,24.9155
2010-02-11,25.3071
2010-02-12,25.3618
2010-02-16,26.154
2010-02-17,26.3271
2010-02-18,26.4728
2010-02-19,26.7915
2010-02-22,26.3999
2010-02-23,25.9264
2010-02-24,26.2961
2010-02-25,26.4796
2010-02-26,26.6814
2010-03-01,27.1677
2010-03-02,27.1952
2010-03-03,27.1585
2010-03-04,27.4521
2010-03-05,28.0394
2010-03-08,28.1311
2010-03-09,28.0669
2010-03-10,28.0027
2010-03-11,28.1311
2010-03-12,28.0302
2010-03-15,27.9109
2010-03-16,28.4981
2010-03-17,28.6357
2010-03-18,28.5715
2010-03-19,28.5715
2010-03-22,28.7091
2010-03-23,28.7183
2010-03-24,28.6816
2010-03-25,28.6174
2010-03-26,28.911
2010-03-29,28.9569
2010-03-30,28.7917
2010-03-31,28.6816
2010-04-01,28.8009
2010-04-05,29.2596
2010-04-06,29.3514
2010-04-07,29.4523
2010-04-08,29.5624
2010-04-09,29.9294
2010-04-12,30.0212
2010-04-13,30.0854
2010-04-14,30.1405
2010-04-15,30.1863
2010-04-16,30.2781
2010-04-19,30.0028
2010-04-20,30.4249
2010-04-21,30.3515
2010-04-22,30.5075
2010-04-23,30.3882
2010-04-26,30.746
2010-04-27,29.9661
2010-04-28,30.324
2010-04-29,30.691
2010-04-30,30.3607
2010-05-03,31.058
2010-05-04,29.9937
2010-05-05,29.2505
2010-05-06,28.3238
2010-05-07,27.8375
2010-05-10,28.911
2010-05-11,28.8468
2010-05-12,28.911
2010-05-13,28.6174
2010-05-14,28.0394
2010-05-17,28.0852
2010-05-18,28.0944
2010-05-19,28.232
2010-05-20,27.3145
2010-05-21,27.5989
2010-05-24,27.2962
2010-05-25,27.3237
2010-05-26,27.2617
2010-05-27,28.5832
2010-05-28,28.6664
2010-06-01,27.9086
2010-06-02,28.6571
2010-06-03,28.9159
2010-06-04,28.1396
2010-06-07,28.0564
2010-06-08,27.9086
2010-06-09,27.964
2010-06-10,29.1562
2010-06-11,29.1284
2010-06-14,29.1377
2010-06-15,30.4869
2010-06-16,30.2928
2010-06-17,30.5331
2010-06-18,30.4592
2010-06-21,30.0895
2010-06-22,29.1284
2010-06-23,29.4149
2010-06-24,28.4631
2010-06-25,28.4169
2010-06-28,28.2043
2010-06-29,27.3726
2010-06-30,26.7165
2010-07-01,26.3561
2010-07-02,26.0511
2010-07-06,26.0511
2010-07-07,26.9013
2010-07-08,27.3449
2010-07-09,27.9271
2010-07-12,27.8162
2010-07-13,28.5832
2010-07-14,28.0842
2010-07-15,28.2875
2010-07-16,27.2802
2010-07-19,27.7885
2010-07-20,27.9918
2010-07-21,27.3356
2010-07-22,28.4815
2010-07-23,29.036
2010-07-26,29.3502
2010-07-27,29.3133
2010-07-28,28.8882
2010-07-29,28.8697
2010-07-30,29.1099
2010-08-02,30.0526
2010-08-03,29.8862
2010-08-04,30.0618
2010-08-05,30.339
2010-08-06,29.9047
2010-08-09,30.1265
2010-08-10,29.5628
2010-08-11,28.7403
2010-08-12,28.4908
2010-08-13,28.4908
2010-08-16,28.3706
2010-08-17,28.6479
2010-08-18,29.0453
2010-08-19,28.3522
2010-08-20,28.0564
2010-08-23,27.7977
2010-08-24,27.5482
2010-08-25,27.7053
2010-08-26,27.6498
2010-08-27,28.2577
2010-08-30,27.5503
2010-08-31,27.8854
2010-09-01,28.63
2010-09-02,29.2163
2010-09-03,29.5607
2010-09-07,28.7044
2010-09-08,28.8347
2010-09-09,28.8813
2010-09-10,29.5793
2010-09-13,29.7003
2010-09-14,29.6259
2010-09-15,29.5235
2010-09-16,29.235
2010-09-17,29.086
2010-09-20,29.6817
2010-09-21,29.6445
2010-09-22,29.0674
2010-09-23,28.6207
2010-09-24,29.1977
2010-09-27,28.7696
2010-09-28,28.8347
2010-09-29,28.5741
2010-09-30,28.5462
2010-10-01,28.509
2010-10-04,28.0622
2010-10-05,28.509
2010-10-06,28.3228
2010-10-07,28.6486
2010-10-08,29.1791
2010-10-11,29.2722
2010-10-12,28.9464
2010-10-13,29.328
2010-10-14,29.2163
2010-10-15,29.5887
2010-10-18,29.5142
2010-10-19,28.9837
2010-10-20,29.5421
2010-10-21,29.598
2010-10-22,29.3373
2010-10-25,29.4211
2010-10-26,29.2908
2010-10-27,29.2815
2010-10-28,30.1285
2010-10-29,30.2588
2010-11-01,30.0913
2010-11-02,30.175
2010-11-03,29.812
2010-11-04,29.5421
2010-11-05,29.1605
2010-11-08,29.3187
2010-11-09,29.6073
2010-11-10,29.7003
2010-11-11,28.965
2010-11-12,28.5927
2010-11-15,28.4252
2010-11-16,28.4345
2010-11-17,28.4438
2010-11-18,28.3787
2010-11-19,28.6393
2010-11-22,28.6765
2010-11-23,27.783
2010-11-24,28.2763
2010-11-26,28.2604
2010-11-29,28.0261
2010-11-30,27.6511
2010-12-01,28.3354
2010-12-02,28.5603
2010-12-03,28.7384
2010-12-06,29.1321
2010-12-07,29.2446
2010-12-08,29.4414
2010-12-09,29.3946
2010-12-10,29.7882
2010-12-13,29.6476
2010-12-14,29.507
2010-12-15,29.4039
2010-12-16,29.3102
2010-12-17,29.5445
2010-12-20,29.657
2010-12-21,29.8539
2010-12-22,30.2663
2010-12-23,30.2663
2010-12-27,30.2475
2010-12-28,30.1913
2010-12-29,29.9945
2010-12-30,30.0694
2010-12-31,30.1538
2011-01-03,30.36
2011-01-04,30.8943
2011-01-05,31.0911
2011-01-06,31.1942
2011-01-07,31.2317
2011-01-10,31.1849
2011-01-11,31.3911
2011-01-12,31.5973
2011-01-13,31.4754
2011-01-14,31.0255
2011-01-18,30.7537
2011-01-19,30.36
2011-01-20,30.3038
2011-01-21,30.7443
2011-01-24,30.6881
2011-01-25,30.4725
2011-01-26,30.3319
2011-01-27,30.2944
2011-01-28,29.6945
2011-01-31,29.4696
2011-02-01,30.3319
2011-02-02,32.9189
2011-02-03,33.7625
2011-02-04,33.6594
2011-02-07,33.875
2011-02-08,34.1281
2011-02-09,34.6155
2011-02-10,34.0531
2011-02-11,34.2499
2011-02-14,33.9781
2011-02-15,34.4093
2011-02-16,34.981
2011-02-17,35.3091
2011-02-18,35.7684
2011-02-22,35.3278
2011-02-23,35.1872
2011-02-24,35.3148
2011-02-25,35.7392
2011-02-28,36.0222
2011-03-01,35.4185
2011-03-02,35.0978
2011-03-03,35.7864
2011-03-04,35.1544
2011-03-07,34.6922
2011-03-08,34.3904
2011-03-09,34.4375
2011-03-10,33.6641
2011-03-11,34.2961
2011-03-14,34.2583
2011-03-15,33.7773
2011-03-16,33.0133
2011-03-17,33.0699
2011-03-18,32.7492
2011-03-21,33.4377
2011-03-22,32.8623
2011-03-23,33.6452
2011-03-24,33.6075
2011-03-25,33.2774
2011-03-28,33.0227
2011-03-29,32.9661
2011-03-30,33.5698
2011-03-31,33.7018
2011-04-01,33.5132
2011-04-04,33.5792
2011-04-05,33.8999
2011-04-06,34.23
2011-04-07,33.6075
2011-04-08,33.4566
2011-04-11,33.1548
2011-04-12,33.4566
2011-04-13,33.6169
2011-04-14,33.6264
2011-04-15,34.0037
2011-04-18,33.5415
2011-04-19,33.5698
2011-04-20,34.0603
2011-04-21,34.4375
2011-04-25,34.4281
2011-04-26,34.8148
2011-04-27,34.6828
2011-04-28,35.1355
2011-04-29,35.7204
2011-05-02,35.7204
2011-05-03,35.5883
2011-05-04,34.3904
2011-05-05,33.9565
2011-05-06,34.2017
2011-05-09,34.0603
2011-05-10,34.2866
2011-05-11,33.7113
2011-05-12,34.1829
2011-05-13,33.9471
2011-05-16,33.2491
2011-05-17,33.7867
2011-05-18,34.7017
2011-05-19,34.8148
2011-05-20,34.7111
2011-05-23,34.1074
2011-05-24,33.749
2011-05-25,33.8056
2011-05-26,33.8579
2011-05-27,34.2567
2011-05-31,34.57
2011-06-01,33.6016
2011-06-02,33.8959
2011-06-03,33.4117
2011-06-06,33.3262
2011-06-07,33.0699
2011-06-08,33.0889
2011-06-09,33.4212
2011-06-10,32.8895
2011-06-13,32.8895
2011-06-14,33.2788
2011-06-15,32.823
2011-06-16,32.861
2011-06-17,33.3642
2011-06-20,33.5636
2011-06-21,33.8959
2011-06-22,33.687
2011-06-23,33.3737
2011-06-24,32.7376
2011-06-27,33.1648
2011-06-28,33.9149
2011-06-29,34.2757
2011-06-30,34.5416
2011-07-01,35.0638
2011-07-05,35.0163
2011-07-06,34.8074
2011-07-07,35.1967
2011-07-08,34.7789
2011-07-11,34.1143
2011-07-12,33.6491
2011-07-13,34.0004
2011-07-14,33.9624
2011-07-15,33.7915
2011-07-18,33.0129
2011-07-19,33.6111
2011-07-20,33.6586
2011-07-21,34.4846
2011-07-22,34.7979
2011-07-25,34.8739
2011-07-26,34.8359
2011-07-27,34.4561
2011-07-28,33.9624
2011-07-29,33.4402
2011-08-01,33.2693
2011-08-02,32.2913
2011-08-03,31.8641
2011-08-04,30.4589
2011-08-05,30.193
2011-08-08,28.4175
2011-08-09,28.7973
2011-08-10,27.5535
2011-08-11,28.2846
2011-08-12,28.3321
2011-08-15,28.7878
2011-08-16,28.8448
2011-08-17,28.9112
2011-08-18,27.1452
2011-08-19,26.4331
2011-08-22,26.3002
2011-08-23,27.4016
2011-08-24,28.2941
2011-08-25,27.6959
2011-08-26,28.389
2011-08-29,29.6951
2011-08-30,29.9057
2011-08-31,30.2215
2011-09-01,29.9248
2011-09-02,29.3028
2011-09-06,28.7286
2011-09-07,29.3985
2011-09-08,28.5468
2011-09-09,27.6759
2011-09-12,27.9247
2011-09-13,28.1927
2011-09-14,28.6329
2011-09-15,29.5229
2011-09-16,29.5899
2011-09-19,29.4655
2011-09-20,29.9057
2011-09-21,28.7382
2011-09-22,27.7525
2011-09-23,28.5946
2011-09-26,29.4272
2011-09-27,30.3363
2011-09-28,29.4846
2011-09-29,29.3028
2011-09-30,28.719
2011-10-03,27.7333
2011-10-04,28.786
2011-10-05,29.6282
2011-10-06,29.9535
2011-10-07,29.4942
2011-10-10,30.7
2011-10-11,30.9966
2011-10-12,31.5038
2011-10-13,31.59
2011-10-14,32.078
2011-10-17,31.5326
2011-10-18,32.2311
2011-10-19,32.011
2011-10-20,32.1354
2011-10-21,33.2455
2011-10-24,33.4178
2011-10-25,32.48
2011-10-26,33.1403
2011-10-27,34.2408
2011-10-28,33.9346
2011-10-31,33.5039
2011-11-01,32.3747
2011-11-02,32.1354
2011-11-03,32.9489
2011-11-04,32.9106
2011-11-07,33.3891
2011-11-08,33.7623
2011-11-09,32.2981
2011-11-10,32.7096
2011-11-11,33.6953
2011-11-14,33.1211
2011-11-15,33.2934
2011-11-16,32.4895
2011-11-17,31.7814
2011-11-18,32.1642
2011-11-21,31.8388
2011-11-22,31.3316
2011-11-23,30.8148
2011-11-25,30.9679
2011-11-28,32.091
2011-11-29,32.1777
2011-11-30,33.5755
2011-12-01,32.9489
2011-12-02,33.1995
2011-12-05,33.2863
2011-12-06,33.4791
2011-12-07,33.6333
2011-12-08,32.6597
2011-12-09,33.4116
2011-12-12,33.0068
2011-12-13,32.6212
2011-12-14,32.6019
2011-12-15,32.6404
2011-12-16,33.3441
2011-12-19,32.332
2011-12-20,33.4502
2011-12-21,33.7105
2011-12-22,33.99
2011-12-23,34.6552
2011-12-27,34.7034
2011-12-28,34.607
2011-12-29,35.0986
2011-12-30,34.8383
2012-01-03,35.0986
2012-01-04,35.195
2012-01-05,35.5035
2012-01-06,35.2239
2012-01-09,35.4938
2012-01-10,35.6384
2012-01-11,36.024
2012-01-12,36.2554
2012-01-13,35.918
2012-01-17,35.9855
2012-01-18,36.024
2012-01-19,36.4
2012-01-20,36.2457
2012-01-23,36.1204
2012-01-24,36.2457
2012-01-25,36.853
2012-01-26,36.5638
2012-01-27,36.2457
2012-01-30,36.0915
2012-01-31,35.7445
2012-02-01,36.3036
2012-02-02,35.8409
2012-02-03,36.7952
2012-02-06,36.6024
2012-02-07,36.7374
2012-02-08,36.747
2012-02-09,36.3614
2012-02-10,36.1204
2012-02-13,36.5253
2012-02-14,36.4771
2012-02-15,36.0915
2012-02-16,36.5253
2012-02-17,36.371
2012-02-21,36.2265
2012-02-22,35.7155
2012-02-23,35.9758
2012-02-24,36.2939
2012-02-27,36.546
2012-02-28,36.7402
2012-02-29,36.1383
2012-03-01,36.3616
2012-03-02,36.051
2012-03-05,35.886
2012-03-06,35.42
2012-03-07,35.5171
2012-03-08,35.7695
2012-03-09,35.6336
2012-03-12,35.1094
2012-03-13,35.4589
2012-03-14,34.925
2012-03-15,34.7891
2012-03-16,34.857
2012-03-19,34.8668
2012-03-20,34.6144
2012-03-21,34.7309
2012-03-22,34.7309
2012-03-23,36.0316
2012-03-26,36.0995
2012-03-27,35.653
2012-03-28,35.2259
2012-03-29,36.0607
2012-03-30,36.6528
2012-04-02,36.4684
2012-04-03,36.3616
2012-04-04,35.8666
2012-04-05,35.5948
2012-04-09,34.9735
2012-04-10,34.3911
2012-04-11,34.6629
2012-04-12,34.9638
2012-04-13,34.6047
2012-04-16,34.7212
2012-04-17,35.2841
2012-04-18,35.1385
2012-04-19,35.2259
2012-04-20,35.5268
2012-04-23,35.2259
2012-04-24,35.323
2012-04-25,36.0995
2012-04-26,36.7207
2012-04-27,36.9828
2012-04-30,36.3713
2012-05-01,36.779
2012-05-02,36.1772
2012-05-03,35.9345
2012-05-04,35.3036
2012-05-07,34.9444
2012-05-08,34.6532
2012-05-09,34.6144
2012-05-10,34.7794
2012-05-11,34.6241
2012-05-14,34.527
2012-05-15,34.2746
2012-05-16,34.2746
2012-05-17,33.634
2012-05-18,33.2457
2012-05-21,33.4981
2012-05-22,33.4981
2012-05-23,33.401
2012-05-24,33.5466
2012-05-25,33.6437
2012-05-29,34.4845
2012-05-30,33.751
2012-05-31,33.7314
2012-06-01,33.0468
2012-06-04,33.3696
2012-06-05,33.3109
2012-06-06,34.0248
2012-06-07,34.1911
2012-06-08,34.4454
2012-06-11,33.8195
2012-06-12,34.5236
2012-06-13,34.0346
2012-06-14,34.641
2012-06-15,35.6679
2012-06-18,36.3134
2012-06-19,36.5285
2012-06-20,36.2743
2012-06-21,36.421
2012-06-22,36.685
2012-06-25,35.8244
2012-06-26,36.3818
2012-06-27,37.1349
2012-06-28,37.0371
2012-06-29,37.575
2012-07-02,37.8977
2012-07-03,37.6728
2012-07-05,37.4674
2012-07-06,37.7902
2012-07-09,37.2718
2012-07-10,36.9197
2012-07-11,37.262
2012-07-12,36.8806
2012-07-13,37.3598
2012-07-16,37.262
2012-07-17,37.8782
2012-07-18,38.0738
2012-07-19,38.2889
2012-07-20,38.0053
2012-07-23,36.6361
2012-07-24,37.0762
2012-07-25,37.6924
2012-07-26,37.5065
2012-07-27,38.1031
2012-07-30,37.7315
2012-07-31,38.2694
2012-08-01,38.7388
2012-08-02,39.7853
2012-08-03,40.3819
2012-08-06,40.6264
2012-08-07,40.9198
2012-08-08,41.311
2012-08-09,41.5164
2012-08-10,41.9467
2012-08-13,41.7217
2012-08-14,41.4381
2012-08-15,41.6728
2012-08-16,41.575
2012-08-17,41.6533
2012-08-20,41.7609
2012-08-21,41.223
2012-08-22,41.2816
2012-08-23,40.8709
2012-08-24,41.1643
2012-08-27,40.9296
2012-08-28,40.6068
2012-08-29,41.1874
2012-08-30,40.8331
2012-08-31,40.9414
2012-09-04,40.7052
2012-09-05,41.5811
2012-09-06,42.5062
2012-09-07,42.89
2012-09-10,42.3881
2012-09-11,42.3684
2012-09-12,42.4078
2012-09-13,43.638
2012-09-14,43.9234
2012-09-17,44.1301
2012-09-18,44.1891
2012-09-19,44.819
2012-09-20,45.0454
2012-09-21,45.2225
2012-09-24,45.1143
2012-09-25,44.2974
2012-09-26,43.9234
2012-09-27,44.6517
2012-09-28,44.6419
2012-10-01,44.7304
2012-10-02,44.6025
2012-10-03,45.0946
2012-10-04,45.1339
2012-10-05,45.38
2012-10-08,45.7244
2012-10-09,44.8387
2012-10-10,44.6123
2012-10-11,44.3171
2012-10-12,44.3663
2012-10-15,44.3072
2012-10-16,44.6123
2012-10-17,44.9174
2012-10-18,45.1241
2012-10-19,44.2384
2012-10-22,44.2384
2012-10-23,43.3526
2012-10-24,43.2837
2012-10-25,42.9196
2012-10-26,42.9196
2012-10-31,42.7916
2012-11-01,43.077
2012-11-02,42.7129
2012-11-05,42.3684
2012-11-06,42.457
2012-11-07,44.2482
2012-11-08,43.4707
2012-11-09,43.9234
2012-11-12,43.9529
2012-11-13,43.9136
2012-11-14,43.3821
2012-11-15,43.4018
2012-11-16,44.0218
2012-11-19,44.5041
2012-11-20,44.8781
2012-11-21,44.2679
2012-11-23,45.4194
2012-11-26,45.7441
2012-11-27,45.8721
2012-11-28,46.5154
2012-11-29,46.5649
2012-11-30,46.8915
2012-12-03,46.3472
2012-12-04,46.2383
2012-12-05,45.5257
2012-12-06,46.07
2012-12-07,46.3274
2012-12-10,46.1789
2012-12-11,46.6342
2012-12-12,46.8123
2012-12-13,46.2482
2012-12-14,46.2878
2012-12-17,47.4556
2012-12-18,47.7327
2012-12-19,47.1587
2012-12-20,47.7525
2012-12-21,47.0696
2012-12-24,47.1488
2012-12-26,47.0103
2012-12-27,46.9509
2012-12-28,46.4956
2012-12-31,47.2775
2013-01-02,49.1588
2013-01-03,49.1885
2013-01-04,48.8322
2013-01-07,48.5947
2013-01-08,49.5646
2013-01-09,49.0895
2013-01-10,49.2478
2013-01-11,49.0796
2013-01-14,48.7234
2013-01-15,48.6343
2013-01-16,48.6243
2013-01-17,48.9015
2013-01-18,49.3963
2013-01-22,49.7823
2013-01-23,50.3069
2013-01-24,50.2574
2013-01-25,49.7823
2013-01-28,49.5933
2013-01-29,49.5735
2013-01-30,49.5834
2013-01-31,50.0288
2013-02-01,50.3257
2013-02-04,49.9001
2013-02-05,49.5488
2013-02-06,51.5133
2013-02-07,51.8102
2013-02-08,52.0181
2013-02-11,51.5727
2013-02-12,51.9439
2013-02-13,52.2635
2013-02-14,53.077
2013-02-15,52.9682
2013-02-19,53.1969
2013-02-20,52.6822
2013-02-21,52.0289
2013-02-22,52.4447
2013-02-25,51.1373
2013-02-26,52.0307
2013-02-27,53.0458
2013-02-28,52.9463
2013-03-01,53.3344
2013-03-04,53.8823
2013-03-05,54.6984
2013-03-06,55.1164
2013-03-07,56.4998
2013-03-08,57.1367
2013-03-11,56.9576
2013-03-12,56.2211
2013-03-13,56.3803
2013-03-14,56.9576
2013-03-15,56.5296
2013-03-18,55.9225
2013-03-19,55.2358
2013-03-20,56.032
2013-03-21,55.8827
2013-03-22,56.4599
2013-03-25,56.3704
2013-03-26,56.5893
2013-03-27,56.3007
2013-03-28,57.4054
2013-04-01,57.3457
2013-04-02,57.2959
2013-04-03,57.8931
2013-04-04,58.0125
2013-04-05,57.5945
2013-04-08,58.0324
2013-04-09,58.4803
2013-04-10,59.2765
2013-04-11,59.3262
2013-04-12,59.167
2013-04-15,58.2912
2013-04-16,59.4855
2013-04-17,59.3461
2013-04-18,58.1817
2013-04-19,59.4954
2013-04-22,59.9035
2013-04-23,60.1125
2013-04-24,59.2466
2013-04-25,59.0774
2013-04-26,59.3859
2013-04-29,59.7741
2013-04-30,59.5153
2013-05-01,59.1073
2013-05-02,59.4059
2013-05-03,60.0926
2013-05-06,60.3115
2013-05-07,61.1674
2013-05-08,60.8788
2013-05-09,60.7693
2013-05-10,60.6499
2013-05-13,60.63
2013-05-14,60.9883
2013-05-15,60.839
2013-05-16,60.4409
2013-05-17,60.4011
2013-05-20,59.804
2013-05-21,60.1722
2013-05-22,59.585
2013-05-23,59.8736
2013-05-24,59.0078
2013-05-28,60.0627
2013-05-29,59.25
2013-05-30,59.59
2013-05-31,58.51
2013-06-03,58.58
2013-06-04,58.36
2013-06-05,56.9
2013-06-06,57.43
2013-06-07,58.8
2013-06-10,57.65
2013-06-11,56.87
2013-06-12,56.24
2013-06-13,57.91
2013-06-14,57.45
2013-06-17,57.93
2013-06-18,58.9
2013-06-19,57.93
2013-06-20,56.37
2013-06-21,56.83
2013-06-24,56.32
2013-06-25,56.72
2013-06-26,57.4
2013-06-27,57.84
2013-06-28,57.97
2013-07-01,58.32
2013-07-02,59.53
2013-07-03,60.07
2013-07-05,61.38
2013-07-08,60.94
2013-07-09,61.26
2013-07-10,60.98
2013-07-11,61.7
2013-07-12,61.65
2013-07-15,61.41
2013-07-16,61.21
2013-07-17,61.66
2013-07-18,62.29
2013-07-19,61.77
2013-07-22,62.22
2013-07-23,62.72
2013-07-24,62.27
2013-07-25,62.59
2013-07-26,62.96
2013-07-29,62.47
2013-07-30,62.09
2013-07-31,62.3
2013-08-01,63.08
2013-08-02,64.23
2013-08-05,64.41
2013-08-06,64.11
2013-08-07,63.81
2013-08-08,63.95
2013-08-09,63.37
